\beamer@endinputifotherversion {3.10pt}
\beamer@sectionintoc {1}{etapa No.1}{3}{0}{1}
\beamer@subsectionintoc {1}{1}{subsecc\'\i on No.1.1 }{4}{0}{1}
\beamer@sectionintoc {2}{etapa No. 2}{5}{0}{2}
\beamer@subsectionintoc {2}{1}{lista I}{5}{0}{2}
\beamer@subsectionintoc {2}{2}{ista II}{14}{0}{2}
\beamer@sectionintoc {3}{etapa No.3}{23}{0}{3}
\beamer@subsectionintoc {3}{1}{tablas}{23}{0}{3}
\beamer@sectionintoc {4}{etapa No. 4}{27}{0}{4}
\beamer@subsectionintoc {4}{1}{bolque}{27}{0}{4}
