Timestamp:2013-08-30-03:54:42
Inventario:I0
Intervalo:15ms
Ngramas:4
Clasificador:BayesNet
Relation Name:  I0-15ms-4gramas
Num Instances:  12186
Num Attributes: 41

     Name                      Type  Nom  Int Real     Missing      Unique  Dist
   1 0Int(dB)                   Num   0%  10%  90%     0 /  0%    10 /  0%   768 
   2 0Pitch(Hz)                 Num   0%  50%  50%     0 /  0%   940 /  8%  2714 
   3 0RawPitch                  Num   0%  53%  47%     0 /  0%   980 /  8%  2609 
   4 0SmPitch                   Num   0%  51%  49%     0 /  0%   957 /  8%  2691 
   5 0Melogram(st)              Num   0%  46%  54%     0 /  0%   837 /  7%  2573 
   6 0ZCross                    Num   0% 100%   0%     0 /  0%    10 /  0%    40 
   7 0F1(Hz)                    Num   0%  50%  50%     0 /  0%  2281 / 19%  3977 
   8 0F2(Hz)                    Num   0%  50%  50%     0 /  0%  3848 / 32%  5158 
   9 0F3(Hz)                    Num   0%  50%  50%     0 /  0%  3419 / 28%  4850 
  10 0F4(Hz)                    Num   0%  50%  50%     0 /  0%  3319 / 27%  4764 
  11 1Int(dB)                   Num   0%  10%  90%     0 /  0%    10 /  0%   768 
  12 1Pitch(Hz)                 Num   0%  50%  50%     0 /  0%   940 /  8%  2714 
  13 1RawPitch                  Num   0%  53%  47%     0 /  0%   980 /  8%  2609 
  14 1SmPitch                   Num   0%  51%  49%     0 /  0%   957 /  8%  2691 
  15 1Melogram(st)              Num   0%  46%  54%     0 /  0%   837 /  7%  2573 
  16 1ZCross                    Num   0% 100%   0%     0 /  0%    10 /  0%    40 
  17 1F1(Hz)                    Num   0%  50%  50%     0 /  0%  2281 / 19%  3977 
  18 1F2(Hz)                    Num   0%  50%  50%     0 /  0%  3848 / 32%  5158 
  19 1F3(Hz)                    Num   0%  50%  50%     0 /  0%  3419 / 28%  4850 
  20 1F4(Hz)                    Num   0%  50%  50%     0 /  0%  3319 / 27%  4764 
  21 2Int(dB)                   Num   0%  10%  90%     0 /  0%    10 /  0%   768 
  22 2Pitch(Hz)                 Num   0%  50%  50%     0 /  0%   940 /  8%  2714 
  23 2RawPitch                  Num   0%  53%  47%     0 /  0%   980 /  8%  2609 
  24 2SmPitch                   Num   0%  51%  49%     0 /  0%   957 /  8%  2691 
  25 2Melogram(st)              Num   0%  46%  54%     0 /  0%   837 /  7%  2573 
  26 2ZCross                    Num   0% 100%   0%     0 /  0%    10 /  0%    40 
  27 2F1(Hz)                    Num   0%  50%  50%     0 /  0%  2281 / 19%  3977 
  28 2F2(Hz)                    Num   0%  50%  50%     0 /  0%  3848 / 32%  5158 
  29 2F3(Hz)                    Num   0%  50%  50%     0 /  0%  3419 / 28%  4850 
  30 2F4(Hz)                    Num   0%  50%  50%     0 /  0%  3319 / 27%  4764 
  31 3Int(dB)                   Num   0%  10%  90%     0 /  0%    10 /  0%   768 
  32 3Pitch(Hz)                 Num   0%  50%  50%     0 /  0%   941 /  8%  2715 
  33 3RawPitch                  Num   0%  53%  47%     0 /  0%   979 /  8%  2609 
  34 3SmPitch                   Num   0%  51%  49%     0 /  0%   957 /  8%  2691 
  35 3Melogram(st)              Num   0%  46%  54%     0 /  0%   838 /  7%  2574 
  36 3ZCross                    Num   0% 100%   0%     0 /  0%    10 /  0%    40 
  37 3F1(Hz)                    Num   0%  50%  50%     0 /  0%  2281 / 19%  3977 
  38 3F2(Hz)                    Num   0%  50%  50%     0 /  0%  3848 / 32%  5158 
  39 3F3(Hz)                    Num   0%  50%  50%     0 /  0%  3419 / 28%  4850 
  40 3F4(Hz)                    Num   0%  50%  50%     0 /  0%  3319 / 27%  4764 
  41 class                      Nom 100%   0%   0%     0 /  0%     0 /  0%    27 


Options: -D -Q weka.classifiers.bayes.net.search.local.K2 -- -P 1 -S BAYES -E weka.classifiers.bayes.net.estimate.SimpleEstimator -- -A 0.5 

Bayes Network Classifier
not using ADTree
#attributes=41 #classindex=40
Network structure (nodes followed by parents)
0Int(dB)(7): class 
0Pitch(Hz)(4): class 
0RawPitch(4): class 
0SmPitch(4): class 
0Melogram(st)(5): class 
0ZCross(4): class 
0F1(Hz)(9): class 
0F2(Hz)(6): class 
0F3(Hz)(4): class 
0F4(Hz)(3): class 
1Int(dB)(8): class 
1Pitch(Hz)(4): class 
1RawPitch(4): class 
1SmPitch(4): class 
1Melogram(st)(7): class 
1ZCross(5): class 
1F1(Hz)(8): class 
1F2(Hz)(8): class 
1F3(Hz)(4): class 
1F4(Hz)(3): class 
2Int(dB)(8): class 
2Pitch(Hz)(4): class 
2RawPitch(4): class 
2SmPitch(4): class 
2Melogram(st)(7): class 
2ZCross(8): class 
2F1(Hz)(8): class 
2F2(Hz)(7): class 
2F3(Hz)(6): class 
2F4(Hz)(6): class 
3Int(dB)(8): class 
3Pitch(Hz)(4): class 
3RawPitch(4): class 
3SmPitch(4): class 
3Melogram(st)(7): class 
3ZCross(8): class 
3F1(Hz)(8): class 
3F2(Hz)(9): class 
3F3(Hz)(6): class 
3F4(Hz)(5): class 
class(27): 
LogScore Bayes: -471457.01402457873
LogScore BDeu: -496910.80824399885
LogScore MDL: -493900.64802955167
LogScore ENTROPY: -469646.7130961273
LogScore AIC: -474802.7130961273




=== Stratified cross-validation ===

Correctly Classified Instances        5992               49.1712 %
Incorrectly Classified Instances      6194               50.8288 %
Kappa statistic                          0.3947
K&B Relative Info Score             441312.8142 %
K&B Information Score                14920.4032 bits      1.2244 bits/instance
Class complexity | order 0           41116.7376 bits      3.3741 bits/instance
Class complexity | scheme           151708.6972 bits     12.4494 bits/instance
Complexity improvement     (Sf)    -110591.9596 bits     -9.0753 bits/instance
Mean absolute error                      0.038 
Root mean squared error                  0.1761
Relative absolute error                 62.1343 %
Root relative squared error            100.7237 %
Coverage of cases (0.95 level)          58.4359 %
Mean rel. region size (0.95 level)       6.9135 %
Total Number of Instances            12186     


=== Detailed Accuracy By Class ===

                 TP Rate  FP Rate  Precision  Recall   F-Measure  MCC      ROC Area  PRC Area  Class
                 0,103    0,002    0,207      0,103    0,138      0,143    0,897     0,088     ch
                 0,000    0,001    0,000      0,000    0,000      -0,001   0,786     0,003     rr
                 0,893    0,065    0,886      0,893    0,890      0,827    0,964     0,955     0
                 0,121    0,021    0,063      0,121    0,083      0,073    0,803     0,049     hs
                 0,706    0,060    0,032      0,706    0,061      0,142    0,949     0,076     hg
                 0,516    0,043    0,679      0,516    0,587      0,532    0,897     0,674     a
                 0,335    0,039    0,116      0,335    0,173      0,177    0,857     0,106     c
                 0,122    0,013    0,058      0,122    0,078      0,075    0,893     0,045     b
                 0,148    0,012    0,520      0,148    0,231      0,248    0,851     0,361     e
                 0,282    0,043    0,089      0,282    0,135      0,136    0,850     0,072     d
                 0,236    0,044    0,031      0,236    0,055      0,071    0,806     0,022     g
                 0,154    0,008    0,113      0,154    0,130      0,125    0,851     0,049     f
                 0,326    0,018    0,441      0,326    0,375      0,356    0,896     0,366     i
                 0,197    0,002    0,406      0,197    0,265      0,280    0,893     0,184     j
                 0,065    0,004    0,211      0,065    0,100      0,110    0,848     0,095     m
                 0,444    0,069    0,107      0,444    0,173      0,190    0,854     0,110     l
                 0,123    0,010    0,516      0,123    0,199      0,225    0,808     0,315     o
                 0,087    0,016    0,169      0,087    0,115      0,098    0,844     0,128     n
                 0,036    0,008    0,021      0,036    0,027      0,022    0,778     0,013     q
                 0,030    0,003    0,103      0,030    0,047      0,050    0,826     0,054     p
                 0,193    0,013    0,444      0,193    0,269      0,269    0,868     0,321     s
                 0,091    0,009    0,214      0,091    0,128      0,125    0,790     0,104     r
                 0,404    0,011    0,469      0,404    0,434      0,423    0,901     0,434     u
                 0,145    0,015    0,163      0,145    0,154      0,139    0,855     0,108     t
                 0,030    0,006    0,038      0,030    0,034      0,027    0,807     0,031     v
                 0,406    0,014    0,131      0,406    0,198      0,224    0,891     0,172     y
                 0,000    0,001    0,000      0,000    0,000      -0,001   0,940     0,005     z
Weighted Avg.    0,492    0,038    0,585      0,492    0,509      0,480    0,897     0,561     


=== Confusion Matrix ===

    a    b    c    d    e    f    g    h    i    j    k    l    m    n    o    p    q    r    s    t    u    v    w    x    y    z   aa   <-- classified as
    6    1   11    2    0    1   10    0    1    1    0    2    0    2    0    4    0    3    1    0    6    2    0    4    0    1    0 |    a = ch
    0    0    0    1    4    3    0    0    0    0    2    0    0    0    0    3    0    0    1    0    0    0    1    0    0    0    0 |    b = rr
    7    0 3942   55   34   14   62    3    5   35   10   26   21    1    3   36    6   12    4   10   41    8    3   37    2   31    7 |    c = 0
    0    0   11   17   23    4    9    2    2    4    5    3    3    1    1   25    4    3    0    3    9    3    0    4    1    3    0 |    d = hs
    0    0    0    1   24    1    0    1    1    0    0    0    1    0    1    1    0    1    0    0    0    0    0    0    2    0    0 |    e = hg
    0    2   48   13   55  937   60    6   47  171   78    6   18    1    0  146   59   14   25    1   16   41   16   19   21   14    1 |    f = a
    0    0   66   11    2    0   61    0    3    1    0    3    1    0    0    2    1    6    3    1    9    2    1    8    1    0    0 |    g = c
    0    0    0    0   15    9    0   10    4    9    7    0    2    0    4   15    2    2    0    0    0    0    2    0    0    1    0 |    h = b
    2    0   30   16  179   72   37   31  144   51  119    2   65    3    2  121    5   15   22    4    4    6   20   11    3    6    1 |    i = e
    0    0    0    0   16   19    0    8    3   50   19    0    0    0    0   33    0    6    0    0    0    1    2    4    3   13    0 |    j = d
    0    1    0    0   13   11    1    1    0    4   17    0    4    0    0   10    0    3    0    0    2    4    0    1    0    0    0 |    k = g
    0    1    6    8    5    3   11    0    2    1    6   12    0    1    0    5    0    2    0    2    7    0    0    3    0    2    1 |    l = f
    1    0   14    8  105    2   25   18   18    2   40    0  164    0    6   35    0   20   13    0    8    1    4    9    2    8    0 |    m = i
    0    0    2    7    5    8    5    0    3    0    5    3    0   13    0    4    0    4    0    0    5    2    0    0    0    0    0 |    n = j
    0    0    2    0   32   11    2   10    1   10   23    0   25    0   12   31    1   12    0    0    0    2    3    1    0    6    0 |    o = m
    0    0    0    2   22   12    3   14    1    5   18    0    9    0    5   99    2    8    0    0    1    3    2    3    5    9    0 |    p = l
    2    0   76   27   78  141   37   18   19  128   39    1   12    1    5   87  116   15   10    6    7    9   56   13   14   22    1 |    q = o
    0    1    1   18   65   36    2   18    4   25   71    2   12    0    7  101    1   38    1    0    3    4    3    8    6    9    0 |    r = n
    0    0   20    2    2    4    7    0    0    0    3    0    5    0    0    1    0    2    2    0    3    0    0    2    0    2    0 |    s = q
    1    0   16   16    6    6   24    2    1    7    2    8    3    6    1    2    0    5    1    4    3    1    1   11    0    4    2 |    t = p
    7    1  118   35   27   20   92    0    0   14   29   22   13    3    3   39    0   22    3    5  118    7    2   13    0   19    0 |    u = s
    0    0    7   14    8   40   14    6   10   20   26    7    7    0    0   59    8   11    0    2    6   28    5   14   11    5    0 |    v = r
    0    1    5    2    6   15   13   21    4   12   15    1    4    0    6   19   18    9    6    0    1    1  115    5    0    4    2 |    w = u
    3    0   64   12    3    1   46    1    0    8    9    7    2    0    0    1    1    8    2    1    9    2    5   34    4   11    0 |    x = t
    0    0    3    4   20    9    2    0    4    6    7    0    0    0    1   24    1    3    0    0    0    4    2    3    3    3    0 |    y = v
    0    0    2    0    0    0    1    3    0    0    0    1    1    0    0   18    0    1    1    0    7    0    2    1    0   26    0 |    z = y
    0    0    3    0    0    0    1    0    0    0    0    0    0    0    0    0    0    0    0    0    1    0    0    0    0    0    0 |   aa = z

=== Percent Confusion Matrix ===
a	b	c	d	e	f	g	h	i	j	k	l	m	n	o	p	q	r	s	t	u	v	w	x	y	z	aa	
10.34	1.72	18.97	3.45	0.0	1.72	17.24	0.0	1.72	1.72	0.0	3.45	0.0	3.45	0.0	6.9	0.0	5.17	1.72	0.0	10.34	3.45	0.0	6.9	0.0	1.72	0.0	 a = ch
0.0	0.0	0.0	6.67	26.67	20.0	0.0	0.0	0.0	0.0	13.33	0.0	0.0	0.0	0.0	20.0	0.0	0.0	6.67	0.0	0.0	0.0	6.67	0.0	0.0	0.0	0.0	 b = rr
0.16	0.0	89.29	1.25	0.77	0.32	1.4	0.07	0.11	0.79	0.23	0.59	0.48	0.02	0.07	0.82	0.14	0.27	0.09	0.23	0.93	0.18	0.07	0.84	0.05	0.7	0.16	 c = 0
0.0	0.0	7.86	12.14	16.43	2.86	6.43	1.43	1.43	2.86	3.57	2.14	2.14	0.71	0.71	17.86	2.86	2.14	0.0	2.14	6.43	2.14	0.0	2.86	0.71	2.14	0.0	 d = hs
0.0	0.0	0.0	2.94	70.59	2.94	0.0	2.94	2.94	0.0	0.0	0.0	2.94	0.0	2.94	2.94	0.0	2.94	0.0	0.0	0.0	0.0	0.0	0.0	5.88	0.0	0.0	 e = hg
0.0	0.11	2.64	0.72	3.03	51.63	3.31	0.33	2.59	9.42	4.3	0.33	0.99	0.06	0.0	8.04	3.25	0.77	1.38	0.06	0.88	2.26	0.88	1.05	1.16	0.77	0.06	 f = a
0.0	0.0	36.26	6.04	1.1	0.0	33.52	0.0	1.65	0.55	0.0	1.65	0.55	0.0	0.0	1.1	0.55	3.3	1.65	0.55	4.95	1.1	0.55	4.4	0.55	0.0	0.0	 g = c
0.0	0.0	0.0	0.0	18.29	10.98	0.0	12.2	4.88	10.98	8.54	0.0	2.44	0.0	4.88	18.29	2.44	2.44	0.0	0.0	0.0	0.0	2.44	0.0	0.0	1.22	0.0	 h = b
0.21	0.0	3.09	1.65	18.43	7.42	3.81	3.19	14.83	5.25	12.26	0.21	6.69	0.31	0.21	12.46	0.51	1.54	2.27	0.41	0.41	0.62	2.06	1.13	0.31	0.62	0.1	 i = e
0.0	0.0	0.0	0.0	9.04	10.73	0.0	4.52	1.69	28.25	10.73	0.0	0.0	0.0	0.0	18.64	0.0	3.39	0.0	0.0	0.0	0.56	1.13	2.26	1.69	7.34	0.0	 j = d
0.0	1.39	0.0	0.0	18.06	15.28	1.39	1.39	0.0	5.56	23.61	0.0	5.56	0.0	0.0	13.89	0.0	4.17	0.0	0.0	2.78	5.56	0.0	1.39	0.0	0.0	0.0	 k = g
0.0	1.28	7.69	10.26	6.41	3.85	14.1	0.0	2.56	1.28	7.69	15.38	0.0	1.28	0.0	6.41	0.0	2.56	0.0	2.56	8.97	0.0	0.0	3.85	0.0	2.56	1.28	 l = f
0.2	0.0	2.78	1.59	20.87	0.4	4.97	3.58	3.58	0.4	7.95	0.0	32.6	0.0	1.19	6.96	0.0	3.98	2.58	0.0	1.59	0.2	0.8	1.79	0.4	1.59	0.0	 m = i
0.0	0.0	3.03	10.61	7.58	12.12	7.58	0.0	4.55	0.0	7.58	4.55	0.0	19.7	0.0	6.06	0.0	6.06	0.0	0.0	7.58	3.03	0.0	0.0	0.0	0.0	0.0	 n = j
0.0	0.0	1.09	0.0	17.39	5.98	1.09	5.43	0.54	5.43	12.5	0.0	13.59	0.0	6.52	16.85	0.54	6.52	0.0	0.0	0.0	1.09	1.63	0.54	0.0	3.26	0.0	 o = m
0.0	0.0	0.0	0.9	9.87	5.38	1.35	6.28	0.45	2.24	8.07	0.0	4.04	0.0	2.24	44.39	0.9	3.59	0.0	0.0	0.45	1.35	0.9	1.35	2.24	4.04	0.0	 p = l
0.21	0.0	8.09	2.87	8.3	15.0	3.94	1.91	2.02	13.62	4.15	0.11	1.28	0.11	0.53	9.26	12.34	1.6	1.06	0.64	0.74	0.96	5.96	1.38	1.49	2.34	0.11	 q = o
0.0	0.23	0.23	4.13	14.91	8.26	0.46	4.13	0.92	5.73	16.28	0.46	2.75	0.0	1.61	23.17	0.23	8.72	0.23	0.0	0.69	0.92	0.69	1.83	1.38	2.06	0.0	 r = n
0.0	0.0	36.36	3.64	3.64	7.27	12.73	0.0	0.0	0.0	5.45	0.0	9.09	0.0	0.0	1.82	0.0	3.64	3.64	0.0	5.45	0.0	0.0	3.64	0.0	3.64	0.0	 s = q
0.75	0.0	12.03	12.03	4.51	4.51	18.05	1.5	0.75	5.26	1.5	6.02	2.26	4.51	0.75	1.5	0.0	3.76	0.75	3.01	2.26	0.75	0.75	8.27	0.0	3.01	1.5	 t = p
1.14	0.16	19.28	5.72	4.41	3.27	15.03	0.0	0.0	2.29	4.74	3.59	2.12	0.49	0.49	6.37	0.0	3.59	0.49	0.82	19.28	1.14	0.33	2.12	0.0	3.1	0.0	 u = s
0.0	0.0	2.27	4.55	2.6	12.99	4.55	1.95	3.25	6.49	8.44	2.27	2.27	0.0	0.0	19.16	2.6	3.57	0.0	0.65	1.95	9.09	1.62	4.55	3.57	1.62	0.0	 v = r
0.0	0.35	1.75	0.7	2.11	5.26	4.56	7.37	1.4	4.21	5.26	0.35	1.4	0.0	2.11	6.67	6.32	3.16	2.11	0.0	0.35	0.35	40.35	1.75	0.0	1.4	0.7	 w = u
1.28	0.0	27.35	5.13	1.28	0.43	19.66	0.43	0.0	3.42	3.85	2.99	0.85	0.0	0.0	0.43	0.43	3.42	0.85	0.43	3.85	0.85	2.14	14.53	1.71	4.7	0.0	 x = t
0.0	0.0	3.03	4.04	20.2	9.09	2.02	0.0	4.04	6.06	7.07	0.0	0.0	0.0	1.01	24.24	1.01	3.03	0.0	0.0	0.0	4.04	2.02	3.03	3.03	3.03	0.0	 y = v
0.0	0.0	3.13	0.0	0.0	0.0	1.56	4.69	0.0	0.0	0.0	1.56	1.56	0.0	0.0	28.13	0.0	1.56	1.56	0.0	10.94	0.0	3.13	1.56	0.0	40.63	0.0	 z = y
0.0	0.0	60.0	0.0	0.0	0.0	20.0	0.0	0.0	0.0	0.0	0.0	0.0	0.0	0.0	0.0	0.0	0.0	0.0	0.0	20.0	0.0	0.0	0.0	0.0	0.0	0.0	 aa = z
