Timestamp:2014-12-07-10:41:35
Inventario:I0
Intervalo:10ms
Ngramas:3
Clasificador:NaiveBayes
Relation Name:  I0-10ms-3gramas
Num Instances:  18294
Num Attributes: 31

     Name                      Type  Nom  Int Real     Missing      Unique  Dist
   1 0Int(dB)                   Num   0%  10%  90%     0 /  0%     7 /  0%   772 
   2 0Pitch(Hz)                 Num   0%  51%  49%     0 /  0%   816 /  4%  3063 
   3 0RawPitch                  Num   0%  54%  46%     0 /  0%   853 /  5%  2955 
   4 0SmPitch                   Num   0%  52%  48%     0 /  0%   827 /  5%  3024 
   5 0Melogram(st)              Num   0%  47%  53%     0 /  0%   581 /  3%  2807 
   6 0ZCross                    Num   0% 100%   0%     0 /  0%    10 /  0%    42 
   7 0F1(Hz)                    Num   0%  51%  49%     0 /  0%  2131 / 12%  4724 
   8 0F2(Hz)                    Num   0%  51%  49%     0 /  0%  4210 / 23%  6615 
   9 0F3(Hz)                    Num   0%  51%  49%     0 /  0%  3688 / 20%  6145 
  10 0F4(Hz)                    Num   0%  51%  49%     0 /  0%  3689 / 20%  6054 
  11 1Int(dB)                   Num   0%  10%  90%     0 /  0%     7 /  0%   772 
  12 1Pitch(Hz)                 Num   0%  51%  49%     0 /  0%   816 /  4%  3063 
  13 1RawPitch                  Num   0%  54%  46%     0 /  0%   853 /  5%  2955 
  14 1SmPitch                   Num   0%  52%  48%     0 /  0%   827 /  5%  3024 
  15 1Melogram(st)              Num   0%  47%  53%     0 /  0%   581 /  3%  2807 
  16 1ZCross                    Num   0% 100%   0%     0 /  0%    10 /  0%    42 
  17 1F1(Hz)                    Num   0%  51%  49%     0 /  0%  2131 / 12%  4724 
  18 1F2(Hz)                    Num   0%  51%  49%     0 /  0%  4210 / 23%  6615 
  19 1F3(Hz)                    Num   0%  51%  49%     0 /  0%  3688 / 20%  6145 
  20 1F4(Hz)                    Num   0%  51%  49%     0 /  0%  3689 / 20%  6054 
  21 2Int(dB)                   Num   0%  10%  90%     0 /  0%     7 /  0%   772 
  22 2Pitch(Hz)                 Num   0%  51%  49%     0 /  0%   817 /  4%  3064 
  23 2RawPitch                  Num   0%  54%  46%     0 /  0%   854 /  5%  2956 
  24 2SmPitch                   Num   0%  52%  48%     0 /  0%   828 /  5%  3025 
  25 2Melogram(st)              Num   0%  47%  53%     0 /  0%   582 /  3%  2808 
  26 2ZCross                    Num   0% 100%   0%     0 /  0%    10 /  0%    42 
  27 2F1(Hz)                    Num   0%  51%  49%     0 /  0%  2131 / 12%  4724 
  28 2F2(Hz)                    Num   0%  51%  49%     0 /  0%  4210 / 23%  6615 
  29 2F3(Hz)                    Num   0%  51%  49%     0 /  0%  3688 / 20%  6145 
  30 2F4(Hz)                    Num   0%  51%  49%     0 /  0%  3689 / 20%  6054 
  31 class                      Nom 100%   0%   0%     0 /  0%     0 /  0%    27 


Naive Bayes Classifier

                    Class
Attribute              ch        rr         0        hs        hg         a         c         b         e         d         g         f         i         j         m         l         o         n         q         p         s         r         u         t         v         y         z
                      (0)       (0)    (0.37)    (0.01)       (0)    (0.15)    (0.02)    (0.01)    (0.08)    (0.01)    (0.01)    (0.01)    (0.04)    (0.01)    (0.01)    (0.02)    (0.08)    (0.04)       (0)    (0.01)    (0.05)    (0.02)    (0.02)    (0.02)    (0.01)    (0.01)       (0)
==============================================================================================================================================================================================================================================================================================
0Int(dB)
  mean            -20.9559   -7.8596  -48.9829  -15.9805  -10.1946   -4.3411  -29.1881   -5.5978   -6.9781   -7.3579   -7.0016  -18.1728  -10.5648   -13.168   -7.6731   -7.6585   -9.2289   -7.7868  -28.5188  -23.5675  -19.1619   -9.7496    -7.821  -28.3273   -9.4976  -15.6312  -26.5998
  std. dev.        10.0435    3.9675   15.8892   11.0079    6.0131   10.2447   10.9234    4.4784     9.587    5.9065    7.3095    8.2982    9.3802    7.7817    7.4432    6.0414   12.1503    6.8658   14.1618   11.6543    8.5761    9.7619   10.4376   10.1397    9.5512     6.647    2.3369
  weight sum            88        21      6796       206        50      2684       278       119      1438       266       107       119       748       101       272       327      1377       650        81       203       905       440       423       350       142        95         8
  precision         0.1005    0.1005    0.1005    0.1005    0.1005    0.1005    0.1005    0.1005    0.1005    0.1005    0.1005    0.1005    0.1005    0.1005    0.1005    0.1005    0.1005    0.1005    0.1005    0.1005    0.1005    0.1005    0.1005    0.1005    0.1005    0.1005    0.1005

0Pitch(Hz)
  mean             82.3969  249.3795   15.5414  116.3238  145.3275  219.3888   32.7431  216.6608  179.7817   202.533  219.2614  118.2958  161.7269  175.8995   190.752  173.8325  175.9738  198.5444    88.088  105.9083   86.8035  163.3492  217.8099   69.1819    172.01   118.146   20.9194
  std. dev.       110.9488  117.3422   54.3341   86.7457   36.1977  108.9258   71.0621   73.8465   93.2543   81.9477   91.8205  123.5878   84.8365  128.6277   86.2771   68.7673  108.3955   85.2492   116.142  127.3386  108.2196   90.7189   101.251  112.2149   84.3881   68.7648   55.3476
  weight sum            88        21      6796       206        50      2684       278       119      1438       266       107       119       748       101       272       327      1377       650        81       203       905       440       423       350       142        95         8
  precision         0.1626    0.1626    0.1626    0.1626    0.1626    0.1626    0.1626    0.1626    0.1626    0.1626    0.1626    0.1626    0.1626    0.1626    0.1626    0.1626    0.1626    0.1626    0.1626    0.1626    0.1626    0.1626    0.1626    0.1626    0.1626    0.1626    0.1626

0RawPitch
  mean             61.5354   242.212   12.9568   96.6366  132.4087   209.432   24.6355  212.9431  175.0704  196.8233   208.703   86.0356  151.7646  130.5357  181.7612  162.6318  167.5572  186.7417   62.1882   82.0573   65.0783  156.0336  208.6619   46.9935  158.4223    93.464         0
  std. dev.       103.4637   110.361   49.1179   90.6567   60.3744  113.3348   65.9008   75.4549    97.669   90.7572  102.9477  108.9115   87.9735  118.3654    93.952    75.641  114.1306    97.161  107.1609  120.5848  100.0512   97.9103  106.1879   96.8202   93.6256   78.4594     0.028
  weight sum            88        21      6796       206        50      2684       278       119      1438       266       107       119       748       101       272       327      1377       650        81       203       905       440       423       350       142        95         8
  precision         0.1679    0.1679    0.1679    0.1679    0.1679    0.1679    0.1679    0.1679    0.1679    0.1679    0.1679    0.1679    0.1679    0.1679    0.1679    0.1679    0.1679    0.1679    0.1679    0.1679    0.1679    0.1679    0.1679    0.1679    0.1679    0.1679    0.1679

0SmPitch
  mean             76.7469  249.3805   13.9203  109.3318  146.1481  217.3522   30.3282  216.6596  177.2466  201.6691  217.4467  105.9494  159.4793  144.5184   189.195  173.2459  173.3248  196.7028   80.1517   98.7391   80.4159  159.3172  215.6213   60.9941  168.2789  112.6506         0
  std. dev.       108.2316  117.3622   50.3031   85.7936   35.3076  110.5715   69.6669   73.8548   95.7152   83.7815   94.1938  115.1239   85.9419  139.6083   88.3642   69.3828   110.039   87.8037  114.5091  126.0313  106.2433   93.4564  102.5619  107.3284    87.822    70.882    0.0275
  weight sum            88        21      6796       206        50      2684       278       119      1438       266       107       119       748       101       272       327      1377       650        81       203       905       440       423       350       142        95         8
  precision         0.1647    0.1647    0.1647    0.1647    0.1647    0.1647    0.1647    0.1647    0.1647    0.1647    0.1647    0.1647    0.1647    0.1647    0.1647    0.1647    0.1647    0.1647    0.1647    0.1647    0.1647    0.1647    0.1647    0.1647    0.1647    0.1647    0.1647

0Melogram(st)
  mean             21.2349   57.1807    4.6135   34.8622   48.0742   51.6565   11.6401   55.4766   48.2348   53.3655    52.783   33.1575   45.5707   27.4443   51.0213   51.2134   45.7502   51.5797   21.6502   27.3958   23.7716   44.8101   50.2186   18.4671   49.0984   42.3355     13.03
  std. dev.        27.5284    8.5182   15.1924   23.5441    8.1647   17.1205   22.1896     6.301   18.1696   10.1476   15.3641   27.4623   19.4988   28.7477   13.9302    9.7626   21.3432   14.5365   27.7492   28.6205   27.2419   20.7906   19.9908   26.8418   14.3126   16.9712   22.5687
  weight sum            88        21      6796       206        50      2684       278       119      1438       266       107       119       748       101       272       327      1377       650        81       203       905       440       423       350       142        95         8
  precision         0.0294    0.0294    0.0294    0.0294    0.0294    0.0294    0.0294    0.0294    0.0294    0.0294    0.0294    0.0294    0.0294    0.0294    0.0294    0.0294    0.0294    0.0294    0.0294    0.0294    0.0294    0.0294    0.0294    0.0294    0.0294    0.0294    0.0294

0ZCross
  mean              5.5086    4.3705    0.2452    1.6504    3.1283    7.0168    0.8091    3.6499     4.777    3.6642    4.6512    1.1623    3.3008    3.9548     2.918    3.4195    3.9062    3.0567    1.2288    1.1271    3.4795    3.7547    3.5022    0.3287    3.4502    1.6737         0
  std. dev.         9.9474    2.1659    1.2666    1.9426    2.1951    4.6291    2.5633    1.7387    3.5473    2.1396    2.9353     1.921    3.5385     3.678     1.986    2.1716    3.5254    2.2301    2.9846    2.7768    6.1001      2.82    3.0347    0.9124     2.274    1.7075    0.2154
  weight sum            88        21      6796       206        50      2684       278       119      1438       266       107       119       748       101       272       327      1377       650        81       203       905       440       423       350       142        95         8
  precision         1.2927    1.2927    1.2927    1.2927    1.2927    1.2927    1.2927    1.2927    1.2927    1.2927    1.2927    1.2927    1.2927    1.2927    1.2927    1.2927    1.2927    1.2927    1.2927    1.2927    1.2927    1.2927    1.2927    1.2927    1.2927    1.2927    1.2927

0F1(Hz)
  mean            241.8795  577.3882   53.5772  481.9929  448.5348  653.0371  126.2586  476.2678  432.7945  508.9856  521.4647  416.0994    337.77  513.6526  444.5724   491.436   450.362  517.3824  196.2265  304.9618  299.0719  521.0978  460.9396  165.9707  491.6144  362.7298   90.4869
  std. dev.       299.7203  126.4058  169.3511  249.3797   79.3072  298.2069  230.8866  135.4683  184.6991  146.3709  179.3598  320.3517  176.2367  285.8528  177.1726  160.2613  244.3368  151.7973  240.6253  309.5649   309.225   224.824  335.9081  239.6391  178.5511  179.0278  239.4058
  weight sum            88        21      6796       206        50      2684       278       119      1438       266       107       119       748       101       272       327      1377       650        81       203       905       440       423       350       142        95         8
  precision         0.3688    0.3688    0.3688    0.3688    0.3688    0.3688    0.3688    0.3688    0.3688    0.3688    0.3688    0.3688    0.3688    0.3688    0.3688    0.3688    0.3688    0.3688    0.3688    0.3688    0.3688    0.3688    0.3688    0.3688    0.3688    0.3688    0.3688

0F2(Hz)
  mean            740.8162 1717.0835  162.6355 1392.8958  1942.361 1391.5241  387.5794 1616.0193 1632.6744 1492.3451 1746.4904 1091.8083 1742.2077 1588.1043 1637.4846 1645.7265 1117.1452 1652.0883  836.6074  926.1613  919.2732 1410.0186  979.7948  563.1801 1516.2164  1364.334  146.5368
  std. dev.       874.7832  139.2649  507.4221  700.7361  373.1272  510.9891  722.9708  360.9883   673.554  306.0497  504.7605  820.2632  822.2232  766.0742  516.1279  416.3284  603.6027  398.5972  996.2152  892.3678  916.0888   561.229  538.5145  783.5509   504.353  608.6024     387.7
  weight sum            88        21      6796       206        50      2684       278       119      1438       266       107       119       748       101       272       327      1377       650        81       203       905       440       423       350       142        95         8
  precision         0.4504    0.4504    0.4504    0.4504    0.4504    0.4504    0.4504    0.4504    0.4504    0.4504    0.4504    0.4504    0.4504    0.4504    0.4504    0.4504    0.4504    0.4504    0.4504    0.4504    0.4504    0.4504    0.4504    0.4504    0.4504    0.4504    0.4504

0F3(Hz)
  mean           1217.7089  2873.489  279.3828 2285.8688 2553.8469 2587.3759  676.3123 2777.3782 2447.1049 2874.2561 3010.0494 1866.0237 2408.7343 2272.5675 2741.3194 2743.8245 2373.7752 2844.1279 1242.4865 1532.8718 1534.6809  2473.695 2430.7754 1023.1354 2606.0504 2424.9845  471.6413
  std. dev.      1440.3316  378.3556  854.3516 1042.2063  117.5177  927.5339  1227.288  457.5946  996.0136  420.4854  772.6826 1388.8081 1138.7559 1112.0899  685.3169  656.6609 1134.1201  526.5189  1429.252 1470.4193 1501.2811  981.2413  1089.578 1399.0465  819.6661 1100.7809 1247.8457
  weight sum            88        21      6796       206        50      2684       278       119      1438       266       107       119       748       101       272       327      1377       650        81       203       905       440       423       350       142        95         8
  precision         0.6705    0.6705    0.6705    0.6705    0.6705    0.6705    0.6705    0.6705    0.6705    0.6705    0.6705    0.6705    0.6705    0.6705    0.6705    0.6705    0.6705    0.6705    0.6705    0.6705    0.6705    0.6705    0.6705    0.6705    0.6705    0.6705    0.6705

0F4(Hz)
  mean           1443.1866 3261.5054  336.4594 2840.7488 3575.1484 2977.4756  782.1744 3313.7622  2953.752 3342.9508 2997.2301 2156.7357 2889.2593 2819.6206 3253.3609 3175.1636 2740.1433 3244.5741 1515.1018 1784.0727 1748.3441 2900.0163 2777.4425 1141.3817 3120.5147 2767.2869  373.7301
  std. dev.      1703.6279  440.8465 1026.7447 1278.4681    98.856 1058.3066 1419.7075  441.0831 1176.1247  450.7948  775.7465 1587.8913 1330.8507 1354.1713  758.7573  707.4163 1297.7013  587.1932 1759.0802 1691.3882 1706.8341 1082.8115 1184.8746 1564.0535   919.318  1238.506   988.797
  weight sum            88        21      6796       206        50      2684       278       119      1438       266       107       119       748       101       272       327      1377       650        81       203       905       440       423       350       142        95         8
  precision         0.6851    0.6851    0.6851    0.6851    0.6851    0.6851    0.6851    0.6851    0.6851    0.6851    0.6851    0.6851    0.6851    0.6851    0.6851    0.6851    0.6851    0.6851    0.6851    0.6851    0.6851    0.6851    0.6851    0.6851    0.6851    0.6851    0.6851

1Int(dB)
  mean            -20.5241   -8.9079  -49.4521  -18.3945  -10.9143   -3.4874  -27.1278   -5.9205   -5.9386   -7.8272   -7.3322  -20.2769   -9.6878  -14.5623   -7.7314   -8.0639    -8.538   -8.5421   -25.739  -24.0002  -20.4527  -10.9531    -6.523  -28.2288   -9.5797  -16.1719  -27.1778
  std. dev.         9.2709    3.9616   15.1913   11.2554    5.9465    9.0731   10.1168    4.4133    8.7524    5.9928    7.6223    6.8393    8.9009    6.8147    6.6716    5.7805   12.0283    7.1912   12.7573   10.6807    7.4939    9.5526    9.2325    9.0793     7.837    5.6953    1.8825
  weight sum            88        21      6796       206        50      2684       278       119      1438       266       107       119       748       101       272       327      1377       650        81       203       905       440       423       350       142        95         8
  precision         0.1005    0.1005    0.1005    0.1005    0.1005    0.1005    0.1005    0.1005    0.1005    0.1005    0.1005    0.1005    0.1005    0.1005    0.1005    0.1005    0.1005    0.1005    0.1005    0.1005    0.1005    0.1005    0.1005    0.1005    0.1005    0.1005    0.1005

1Pitch(Hz)
  mean             70.0807  248.8916   13.6898  102.0558  144.7583  224.2102   41.0014  215.5948  187.1289  201.6085  218.1275   99.9163   169.624  166.8513  191.7248  173.7241   180.298  195.2404   82.0202   96.6796   69.5972  162.7305  226.0414   66.2344  175.5686  117.2643         0
  std. dev.       108.4721  120.2835   51.1501   87.4688   35.9687  104.2012   82.5541    73.087   89.1848   83.5041   95.0512  122.3269   79.3475  129.3049   86.2093   66.2695  104.9788   87.1904  113.8397  124.0795  102.6853   92.1325   90.8899  108.7754   77.3773   68.4476    0.0271
  weight sum            88        21      6796       206        50      2684       278       119      1438       266       107       119       748       101       272       327      1377       650        81       203       905       440       423       350       142        95         8
  precision         0.1626    0.1626    0.1626    0.1626    0.1626    0.1626    0.1626    0.1626    0.1626    0.1626    0.1626    0.1626    0.1626    0.1626    0.1626    0.1626    0.1626    0.1626    0.1626    0.1626    0.1626    0.1626    0.1626    0.1626    0.1626    0.1626    0.1626

1RawPitch
  mean             47.6306  244.8591   11.1138   82.6437   134.424  214.0626   30.0392  212.5564  182.7671  195.8548  206.6453   65.8049  160.2257  118.2759  181.6908  160.8132  173.1119  183.4534   52.0184   74.6828    47.609  156.9347  217.7899   41.9111  161.9325   88.9685         0
  std. dev.        96.1387  116.4206   45.2383   88.6062   60.2341  109.3238     72.25   74.7057   93.8486   92.7432  107.5275  100.7144   83.7348   114.697   94.8138   74.6362   111.182   98.9471  104.5844   115.871   89.4023    98.019   96.3272   90.9775   87.1195   78.2522     0.028
  weight sum            88        21      6796       206        50      2684       278       119      1438       266       107       119       748       101       272       327      1377       650        81       203       905       440       423       350       142        95         8
  precision         0.1679    0.1679    0.1679    0.1679    0.1679    0.1679    0.1679    0.1679    0.1679    0.1679    0.1679    0.1679    0.1679    0.1679    0.1679    0.1679    0.1679    0.1679    0.1679    0.1679    0.1679    0.1679    0.1679    0.1679    0.1679    0.1679    0.1679

1SmPitch
  mean             64.2268  248.8941   12.1427   95.0621  146.6159  222.2798   35.2419  215.5965  185.0532  200.8491  216.3151   87.5723  167.3233  134.9539  189.8043  173.1633  177.9648  193.3881   68.1279   87.6433   62.7379  159.2636  225.0495   56.5674  172.2337  111.7801         0
  std. dev.       104.6392  120.3065     46.89   85.3669    33.889  106.0002   79.1149   73.0933    91.154   85.1021   97.3174  111.7598   80.6951  140.9079   88.8931    66.872  106.8233   89.6175  108.6187  122.1285   99.0721   94.2653   91.3186  102.5507   80.5713   70.5142    0.0275
  weight sum            88        21      6796       206        50      2684       278       119      1438       266       107       119       748       101       272       327      1377       650        81       203       905       440       423       350       142        95         8
  precision         0.1647    0.1647    0.1647    0.1647    0.1647    0.1647    0.1647    0.1647    0.1647    0.1647    0.1647    0.1647    0.1647    0.1647    0.1647    0.1647    0.1647    0.1647    0.1647    0.1647    0.1647    0.1647    0.1647    0.1647    0.1647    0.1647    0.1647

1Melogram(st)
  mean             18.3304   57.0055    4.1827   30.8219   48.0494    53.038   13.1534   55.3978   50.1673   53.0952   52.3042   28.2039   47.7876   23.5686   51.0287   51.2117   46.7989   50.8912   18.1582   24.7793   19.2083   44.2001   52.9506    17.145   50.1795   42.2147     6.515
  std. dev.         26.881     8.789   14.5496   24.6142    8.1267   14.9413   23.5725    6.2667    15.729   10.7263   16.2008   28.0681   17.1488   28.3215   13.9559    9.3205   20.3195   15.4478   26.6522   28.5062   26.2584   21.4146   16.4082   26.2683   12.2902   16.9263   17.2371
  weight sum            88        21      6796       206        50      2684       278       119      1438       266       107       119       748       101       272       327      1377       650        81       203       905       440       423       350       142        95         8
  precision         0.0294    0.0294    0.0294    0.0294    0.0294    0.0294    0.0294    0.0294    0.0294    0.0294    0.0294    0.0294    0.0294    0.0294    0.0294    0.0294    0.0294    0.0294    0.0294    0.0294    0.0294    0.0294    0.0294    0.0294    0.0294    0.0294    0.0294

1ZCross
  mean              7.1098     3.878    0.1759    1.2425    2.8698    7.2369    1.2136    3.6499    4.8777     3.601    4.4338     0.793    3.3458    3.8141    2.6852    3.1269    4.0104    2.6192    2.9045    0.8851    3.5567    3.3052    3.6091    0.3841    3.0769    1.4968         0
  std. dev.        11.2288    2.2567    0.9112    1.7081     2.073    4.4828    3.0992    1.7468    3.2885    2.1368    2.8448    1.6257    3.3619    3.6444    1.5427    1.9806    3.2415    1.8369    5.6311     2.407    6.4805     2.615     2.929    1.0549    1.9145     1.606    0.2154
  weight sum            88        21      6796       206        50      2684       278       119      1438       266       107       119       748       101       272       327      1377       650        81       203       905       440       423       350       142        95         8
  precision         1.2927    1.2927    1.2927    1.2927    1.2927    1.2927    1.2927    1.2927    1.2927    1.2927    1.2927    1.2927    1.2927    1.2927    1.2927    1.2927    1.2927    1.2927    1.2927    1.2927    1.2927    1.2927    1.2927    1.2927    1.2927    1.2927    1.2927

1F1(Hz)
  mean            186.7484  596.3535   46.3563  450.4309  446.2853  685.3401  108.1119  475.9176  452.4055  513.7324  508.9472  355.4012  353.4925  484.4467  438.0606  481.5807  474.0843  493.4379  194.7788  268.8187  246.6757  507.4675  482.6221  139.1274  487.9085  352.7381         0
  std. dev.        285.582  131.8171  157.5769   272.391   80.9776  270.5143  219.3566  132.9536  159.6131  147.7122   182.517  334.8181  155.8578  317.1139  169.9994  150.0679  229.5879  153.6286  244.1212  304.6746  302.7801  228.0568  319.3509  224.9236  169.4416  180.1138    0.0615
  weight sum            88        21      6796       206        50      2684       278       119      1438       266       107       119       748       101       272       327      1377       650        81       203       905       440       423       350       142        95         8
  precision         0.3688    0.3688    0.3688    0.3688    0.3688    0.3688    0.3688    0.3688    0.3688    0.3688    0.3688    0.3688    0.3688    0.3688    0.3688    0.3688    0.3688    0.3688    0.3688    0.3688    0.3688    0.3688    0.3688    0.3688    0.3688    0.3688    0.3688

1F2(Hz)
  mean            557.5339 1677.2585  141.6984 1302.9435 1938.1096 1439.7475  320.9953 1592.7064 1730.4304 1489.1875 1730.5088   921.643 1886.1841 1434.0044 1655.2822 1661.6792 1149.4791 1631.3556   811.932  816.0242  762.1553  1399.565 1027.4385  470.7218   1535.49 1370.9709         0
  std. dev.       818.9804  129.6918  475.9233  764.3072  363.0502  439.1719   665.828  356.6616  583.9406  299.1535  532.3332  849.5675  727.5947  850.1505  474.4892  375.5223  557.6755   421.869  987.4242   884.377  905.8102  578.0643  482.4236  737.8472  446.1294  632.1899    0.0751
  weight sum            88        21      6796       206        50      2684       278       119      1438       266       107       119       748       101       272       327      1377       650        81       203       905       440       423       350       142        95         8
  precision         0.4504    0.4504    0.4504    0.4504    0.4504    0.4504    0.4504    0.4504    0.4504    0.4504    0.4504    0.4504    0.4504    0.4504    0.4504    0.4504    0.4504    0.4504    0.4504    0.4504    0.4504    0.4504    0.4504    0.4504    0.4504    0.4504    0.4504

1F3(Hz)
  mean            924.8809 2873.0419   243.839 2127.9338 2538.6792 2680.7979  581.1487 2768.7739 2566.2209 2878.9701 2976.1527  1580.627 2569.2982 2076.9357 2750.6083 2779.0351 2474.5963 2811.0177 1205.7557 1349.2428 1269.2773 2442.2833 2578.9648  860.1903 2648.9603 2393.4621         0
  std. dev.      1360.7308  399.6352  803.7972 1159.3081  115.8264  800.8336 1171.3084  462.7451  864.4824  419.4367  827.9906 1446.2534 1001.9819 1233.4839   622.276  607.6561 1047.0894  585.9109 1422.8996 1454.3339 1485.3307 1011.6955   937.242 1328.7103  732.7104 1123.0861    0.1118
  weight sum            88        21      6796       206        50      2684       278       119      1438       266       107       119       748       101       272       327      1377       650        81       203       905       440       423       350       142        95         8
  precision         0.6705    0.6705    0.6705    0.6705    0.6705    0.6705    0.6705    0.6705    0.6705    0.6705    0.6705    0.6705    0.6705    0.6705    0.6705    0.6705    0.6705    0.6705    0.6705    0.6705    0.6705    0.6705    0.6705    0.6705    0.6705    0.6705    0.6705

1F4(Hz)
  mean           1101.2987 3243.3662  293.9451 2648.2481 3587.3982 3084.2343  657.8236 3307.9819 3090.2109 3351.4375 2973.4111 1825.2207 3069.7504 2591.3756 3287.1003 3209.8195 2853.8724   3216.71 1463.8958 1593.1889 1447.4735 2854.5371 2942.8419  970.9291 3192.5289 2739.5434         0
  std. dev.      1618.8558  423.2397  966.7807 1428.4275   92.6757  910.7211 1327.5663  436.4847 1010.4123  448.5867  831.3383 1655.5543 1158.3793 1520.7459  681.3686  637.0083 1192.6404    667.17 1741.3978 1696.1758 1691.2509 1121.0024  994.8814 1502.9051  797.8462 1271.8129    0.1142
  weight sum            88        21      6796       206        50      2684       278       119      1438       266       107       119       748       101       272       327      1377       650        81       203       905       440       423       350       142        95         8
  precision         0.6851    0.6851    0.6851    0.6851    0.6851    0.6851    0.6851    0.6851    0.6851    0.6851    0.6851    0.6851    0.6851    0.6851    0.6851    0.6851    0.6851    0.6851    0.6851    0.6851    0.6851    0.6851    0.6851    0.6851    0.6851    0.6851    0.6851

2Int(dB)
  mean            -19.0814   -10.564  -49.8209  -20.7518   -10.651   -3.1239   -24.237   -5.8918   -5.4216   -7.8401    -7.615  -21.5769   -9.1229  -15.4779   -7.6993   -8.3034   -8.3525   -9.3733  -22.3313  -22.5999  -21.5058  -11.9183   -5.5461  -25.6222   -9.2619  -16.1571  -28.0322
  std. dev.         8.3794    4.2228    14.616   11.3686    6.2337    8.4027    9.8677     4.366    8.2134    6.1435    7.8549    5.6378    8.6417    6.1848    6.0498     5.792   12.1594    7.7206   10.9438   10.4858    6.7641    9.7379    7.9501    9.8486     6.325    5.0145    3.0174
  weight sum            88        21      6796       206        50      2684       278       119      1438       266       107       119       748       101       272       327      1377       650        81       203       905       440       423       350       142        95         8
  precision         0.1005    0.1005    0.1005    0.1005    0.1005    0.1005    0.1005    0.1005    0.1005    0.1005    0.1005    0.1005    0.1005    0.1005    0.1005    0.1005    0.1005    0.1005    0.1005    0.1005    0.1005    0.1005    0.1005    0.1005    0.1005    0.1005    0.1005

2Pitch(Hz)
  mean             77.6495  248.6632   11.8136   88.6305  146.2458  226.0088   68.8773  215.3605  190.3918  201.0018  217.1294   89.6626  173.2212  160.2725  193.0406  173.5217  179.1301  191.7203   92.8244  101.0594   58.4205     162.5  230.9859   83.9606  179.4156  119.7435         0
  std. dev.        114.169  122.8744   47.9018   86.8337   37.7558  102.2025  104.3432   72.1803   87.4257   84.8129     97.99  119.8396   75.5653   128.781   85.9993   65.1768   103.979   89.2387   116.884  120.1185   97.2112   94.0654   83.0165  115.3984   70.8481   68.2851    0.0271
  weight sum            88        21      6796       206        50      2684       278       119      1438       266       107       119       748       101       272       327      1377       650        81       203       905       440       423       350       142        95         8
  precision         0.1626    0.1626    0.1626    0.1626    0.1626    0.1626    0.1626    0.1626    0.1626    0.1626    0.1626    0.1626    0.1626    0.1626    0.1626    0.1626    0.1626    0.1626    0.1626    0.1626    0.1626    0.1626    0.1626    0.1626    0.1626    0.1626    0.1626

2RawPitch
  mean             52.1893  240.3952    9.4611   69.5402   135.745   216.219   52.1615  213.0008  186.9416  195.4717   203.988   53.3253  164.8509  112.0009  182.4391  159.1457  172.8881  179.3233   53.0661   75.9229   35.4666  156.5619  221.8351   61.2075  165.4778   86.7859         0
  std. dev.        99.7193  129.1598   41.8753   85.3335   62.4099  107.4348   93.6374   74.2022   92.1579   93.1794  111.7049   91.6829   80.9322  111.4484   95.6759   75.4546  110.0663  101.2616  100.9754  112.2847   78.8653   98.0512   90.5835  101.7704   80.6042   76.2217     0.028
  weight sum            88        21      6796       206        50      2684       278       119      1438       266       107       119       748       101       272       327      1377       650        81       203       905       440       423       350       142        95         8
  precision         0.1679    0.1679    0.1679    0.1679    0.1679    0.1679    0.1679    0.1679    0.1679    0.1679    0.1679    0.1679    0.1679    0.1679    0.1679    0.1679    0.1679    0.1679    0.1679    0.1679    0.1679    0.1679    0.1679    0.1679    0.1679    0.1679    0.1679

2SmPitch
  mean             71.8091  248.6628    10.224   81.6346  148.1583   224.319   58.5754  215.3632  188.8901  200.6341  215.3063   77.2901   170.918  128.4736  190.7569  172.9529  177.1958  189.2119   75.7723   90.2963   51.3331   159.705  230.1655   75.1964  176.6789  114.2394         0
  std. dev.       110.8409  122.8761   43.0567   83.6012   35.5963  103.8158  101.5424   72.1765   88.8533   85.6348  100.1796  107.8428   77.6434  139.0808   89.2888   65.7996  105.5718   92.1796  111.1442  118.5691   92.1664   95.5864   83.5323   111.752   74.1419   70.5684    0.0274
  weight sum            88        21      6796       206        50      2684       278       119      1438       266       107       119       748       101       272       327      1377       650        81       203       905       440       423       350       142        95         8
  precision         0.1647    0.1647    0.1647    0.1647    0.1647    0.1647    0.1647    0.1647    0.1647    0.1647    0.1647    0.1647    0.1647    0.1647    0.1647    0.1647    0.1647    0.1647    0.1647    0.1647    0.1647    0.1647    0.1647    0.1647    0.1647    0.1647    0.1647

2Melogram(st)
  mean             19.7831   56.8115    3.6603   27.2818   49.2962   53.6675   18.2983   55.3973    50.757   53.0359   51.8536    26.048   48.7629   22.0537   51.1178   51.1759   46.9889   49.9973   22.4883   25.8102   16.3662   43.5626   54.7081   21.5794   51.3611   42.8327         0
  std. dev.        27.5706    9.0272   13.7168   24.9859    4.5337   13.6842   26.4593    6.2177   14.7786   10.7827   16.9829   28.1169   15.7624   28.1228   13.9765    9.3126   20.0024   16.6205   28.1066   28.2544   25.2647   22.0153      13.2   27.8404    9.7628   16.4263    0.0049
  weight sum            88        21      6796       206        50      2684       278       119      1438       266       107       119       748       101       272       327      1377       650        81       203       905       440       423       350       142        95         8
  precision         0.0294    0.0294    0.0294    0.0294    0.0294    0.0294    0.0294    0.0294    0.0294    0.0294    0.0294    0.0294    0.0294    0.0294    0.0294    0.0294    0.0294    0.0294    0.0294    0.0294    0.0294    0.0294    0.0294    0.0294    0.0294    0.0294    0.0294

2ZCross
  mean              8.0352    3.3856    0.1408     0.935    3.0249    7.3294    1.6275    3.8237    4.8831    3.7468    4.3613    0.6192    3.3285    3.6989    2.5711    2.9846    4.0329     2.295    4.0696    0.9233    3.5638    2.9761     3.713    0.7054    2.9586    1.4968         0
  std. dev.        12.1849    2.3424    0.7914    1.4833    2.2481    4.4255    3.3215    1.8002    3.1607    2.1448    2.7409    1.4786    3.1155    3.6519    1.3416    1.8611    2.9611    1.5017     6.427    2.2102    6.6592     2.381    2.8728    1.4341    1.7054     1.595    0.2154
  weight sum            88        21      6796       206        50      2684       278       119      1438       266       107       119       748       101       272       327      1377       650        81       203       905       440       423       350       142        95         8
  precision         1.2927    1.2927    1.2927    1.2927    1.2927    1.2927    1.2927    1.2927    1.2927    1.2927    1.2927    1.2927    1.2927    1.2927    1.2927    1.2927    1.2927    1.2927    1.2927    1.2927    1.2927    1.2927    1.2927    1.2927    1.2927    1.2927    1.2927

2F1(Hz)
  mean            160.6998  613.5628   40.0701   410.892  445.1347  710.3558  126.3501  477.7832  467.7497  516.3637  500.5551  293.0667  366.3373   470.795  432.8978  472.7167  488.3137    469.73  197.8336  262.9692  198.5962   493.922  499.4556  141.7193  489.0979  353.5416         0
  std. dev.       267.2971  138.1947  146.5336  293.3077   84.6291  245.4904  233.9364  132.4039  137.6849   149.061  184.0787  335.6295  136.8258  334.1598  164.9276  140.2743  220.1308   154.595  246.6861  296.9297  287.8838  231.1068   302.477  225.4522  159.5841   173.601    0.0615
  weight sum            88        21      6796       206        50      2684       278       119      1438       266       107       119       748       101       272       327      1377       650        81       203       905       440       423       350       142        95         8
  precision         0.3688    0.3688    0.3688    0.3688    0.3688    0.3688    0.3688    0.3688    0.3688    0.3688    0.3688    0.3688    0.3688    0.3688    0.3688    0.3688    0.3688    0.3688    0.3688    0.3688    0.3688    0.3688    0.3688    0.3688    0.3688    0.3688    0.3688

2F2(Hz)
  mean            507.3849 1646.3551  123.4876 1185.2173 1925.4093 1474.9501  353.8751 1576.1489 1804.3312  1487.044  1706.467  753.8431 1998.9223  1339.941 1667.1307 1670.6231 1157.6298 1607.4525   804.665  791.6004  620.4736 1384.7266 1072.0404  481.9616 1580.3836 1406.3078         0
  std. dev.       809.2374  124.3386   446.987  819.2806  350.2846  373.1444  671.6031  352.2262  496.1344  307.7561  559.5245  846.5228  624.7892  881.0201  440.9842  341.4083  525.4581  447.1571   975.108  861.5481  872.6886  597.3845  424.8655   746.218  364.9676  626.0495    0.0751
  weight sum            88        21      6796       206        50      2684       278       119      1438       266       107       119       748       101       272       327      1377       650        81       203       905       440       423       350       142        95         8
  precision         0.4504    0.4504    0.4504    0.4504    0.4504    0.4504    0.4504    0.4504    0.4504    0.4504    0.4504    0.4504    0.4504    0.4504    0.4504    0.4504    0.4504    0.4504    0.4504    0.4504    0.4504    0.4504    0.4504    0.4504    0.4504    0.4504    0.4504

2F3(Hz)
  mean            815.6971 2878.1508  212.0685 1928.4643 2525.5501 2749.0319  668.7844 2760.3104 2653.2835 2875.6804 2943.5343 1292.8131 2693.2397 1959.5845 2751.0866 2808.2538 2526.8298 2775.5254 1207.9329 1334.5273 1028.4704 2410.6703 2703.6172  868.1084 2719.9525  2433.031         0
  std. dev.      1298.7799  422.0628   754.286 1263.0595  111.9726  684.6052 1227.1559   469.379  742.6344  453.3058  876.6084 1442.3291  863.6174 1279.3581  576.3269  575.8686  995.0347  648.2804 1426.1474 1439.2326 1427.0793 1048.5757  758.4179 1330.4613  594.2459 1101.5516    0.1118
  weight sum            88        21      6796       206        50      2684       278       119      1438       266       107       119       748       101       272       327      1377       650        81       203       905       440       423       350       142        95         8
  precision         0.6705    0.6705    0.6705    0.6705    0.6705    0.6705    0.6705    0.6705    0.6705    0.6705    0.6705    0.6705    0.6705    0.6705    0.6705    0.6705    0.6705    0.6705    0.6705    0.6705    0.6705    0.6705    0.6705    0.6705    0.6705    0.6705    0.6705

2F4(Hz)
  mean            998.6249 3228.0327  256.0406 2406.8084   3591.92 3162.4058  773.8643  3303.497 3189.0151 3344.0454 2953.1522 1496.7859 3209.5559 2464.4123 3307.9787  3233.941 2910.5036 3182.3562 1443.9683  1591.677 1178.4883 2804.2139 3086.4504  985.6571   3287.48 2773.3087         0
  std. dev.      1588.9955  403.3343  908.4214 1563.9842   91.1897  774.8805 1420.2752  430.5134  856.4692  491.6785  883.5322 1658.5798  985.3806 1594.7315  625.5718  585.2383 1127.9374  747.5758 1718.2445 1694.5457 1633.2146 1165.5043  766.0819 1516.0453  587.4544 1242.1583    0.1142
  weight sum            88        21      6796       206        50      2684       278       119      1438       266       107       119       748       101       272       327      1377       650        81       203       905       440       423       350       142        95         8
  precision         0.6851    0.6851    0.6851    0.6851    0.6851    0.6851    0.6851    0.6851    0.6851    0.6851    0.6851    0.6851    0.6851    0.6851    0.6851    0.6851    0.6851    0.6851    0.6851    0.6851    0.6851    0.6851    0.6851    0.6851    0.6851    0.6851    0.6851





=== Stratified cross-validation ===

Correctly Classified Instances        5616               30.6986 %
Incorrectly Classified Instances     12678               69.3014 %
Kappa statistic                          0.2284
K&B Relative Info Score             334798.3636 %
K&B Information Score                11225.5112 bits      0.6136 bits/instance
Class complexity | order 0           61255.9747 bits      3.3484 bits/instance
Class complexity | scheme           686200.7071 bits     37.5096 bits/instance
Complexity improvement     (Sf)    -624944.7324 bits    -34.1612 bits/instance
Mean absolute error                      0.0514
Root mean squared error                  0.2135
Relative absolute error                 84.5673 %
Root relative squared error            122.4935 %
Coverage of cases (0.95 level)          37.2253 %
Mean rel. region size (0.95 level)       6.4095 %
Total Number of Instances            18294     


=== Detailed Accuracy By Class ===

                 TP Rate  FP Rate  Precision  Recall   F-Measure  MCC      ROC Area  PRC Area  Class
                 0,216    0,005    0,173      0,216    0,192      0,189    0,760     0,092     ch
                 0,286    0,019    0,017      0,286    0,031      0,065    0,859     0,026     rr
                 0,568    0,017    0,952      0,568    0,711      0,641    0,932     0,909     0
                 0,136    0,023    0,063      0,136    0,086      0,077    0,710     0,040     hs
                 0,920    0,132    0,019      0,920    0,037      0,121    0,944     0,072     hg
                 0,419    0,037    0,660      0,419    0,513      0,465    0,872     0,598     a
                 0,169    0,016    0,142      0,169    0,154      0,140    0,582     0,070     c
                 0,387    0,118    0,021      0,387    0,040      0,066    0,826     0,023     b
                 0,034    0,003    0,495      0,034    0,064      0,114    0,743     0,213     e
                 0,049    0,026    0,027      0,049    0,034      0,017    0,772     0,031     d
                 0,056    0,006    0,056      0,056    0,056      0,050    0,761     0,024     g
                 0,067    0,009    0,047      0,067    0,056      0,049    0,617     0,020     f
                 0,064    0,006    0,322      0,064    0,107      0,129    0,811     0,189     i
                 0,198    0,001    0,435      0,198    0,272      0,291    0,767     0,166     j
                 0,000    0,002    0,000      0,000    0,000      -0,005   0,780     0,036     m
                 0,193    0,041    0,079      0,193    0,112      0,098    0,816     0,059     l
                 0,011    0,005    0,161      0,011    0,020      0,023    0,722     0,154     o
                 0,011    0,016    0,024      0,011    0,015      -0,008   0,770     0,075     n
                 0,012    0,001    0,056      0,012    0,020      0,024    0,679     0,020     q
                 0,015    0,005    0,032      0,015    0,020      0,014    0,620     0,029     p
                 0,112    0,002    0,727      0,112    0,193      0,273    0,658     0,263     s
                 0,007    0,002    0,083      0,007    0,013      0,017    0,701     0,049     r
                 0,142    0,005    0,382      0,142    0,207      0,222    0,842     0,191     u
                 0,077    0,014    0,097      0,077    0,086      0,071    0,585     0,061     t
                 0,000    0,001    0,000      0,000    0,000      -0,002   0,743     0,015     v
                 0,105    0,017    0,031      0,105    0,048      0,048    0,853     0,028     y
                 0,875    0,180    0,002      0,875    0,004      0,038    0,854     0,003     z
Weighted Avg.    0,307    0,017    0,574      0,307    0,377      0,352    0,827     0,490     


=== Confusion Matrix ===

    a    b    c    d    e    f    g    h    i    j    k    l    m    n    o    p    q    r    s    t    u    v    w    x    y    z   aa   <-- classified as
   19    3    5    3    1    4   12    3    0    3    0    3    0    0    0    2    0    2    0    0    9    0    0    3    0    0   16 |    a = ch
    0    6    0    0   11    2    0    2    0    0    0    0    0    0    0    0    0    0    0    0    0    0    0    0    0    0    0 |    b = rr
    5   21 3859   98  121   11   12   80    3   39    0   34    8    2    3   40    3   63    1    0    4    5    3   45    1   32 2303 |    c = 0
    0    6    3   28   66    5    0    8    0    3    0    6    0    0    0   11    0    6    0    0    5    4    0    6    0   10   39 |    d = hs
    0    0    0    0   46    0    0    2    0    0    0    0    1    0    0    0    0    1    0    0    0    0    0    0    0    0    0 |    e = hg
    2   76   21   32  381 1124   40  382   13  232   10    8   16    5    0  119   34   19    8   20    3    5   32   27    1   25   49 |    f = a
    7    0   23   12   10    0   47    3    0    0    0    9    1    0    0    3    1    9    4    7    4    0    2   19    1    2  114 |    g = c
    0    9    0    0   36    6    0   46    0    3    3    0    0    0    0   14    0    0    0    0    0    0    0    0    0    2    0 |    h = b
    6   32    5   24  516  149   22  334   49   17   38    5   33    0    0   58   19   17    2   16    0    1   12   23    2   15   43 |    i = e
    0   19    0    5   80   22    0   91    0   13    2    2    0    0    1   23    0    0    0    0    0    0    0    1    0    7    0 |    j = d
    0    6    0    2   29   15    0   29    0    0    6    3    0    0    0   12    0    1    0    0    0    0    0    0    0    0    4 |    k = g
    0    6    3   11   11    3    7    4    0    2    2    8    0    0    0    5    0    9    0    0    2    0    0    6    0    3   37 |    l = f
    8    2    8   17  187   33   16  165   23    0   17    1   48    1   17   86    4   10    0   10    1    0    3   21    0   47   23 |    m = i
    0    3    1   10    7    9    1    9    0    0    1    4    0   20    0    1    1    9    0    1    2    4    1    2    0    1   14 |    n = j
    0    3    0    7  104   13    2   82    0    9    2    0    1    0    0   34    0    1    0    1    0    0    0    2    0    7    4 |    o = m
    0   12    1    4  120   14    3   87    3    3    1    0    1    0    0   63    0    1    0    2    0    0    2    2    0    8    0 |    p = l
    4   29    7   44  240  137   15  362    4  104    4    5   15    3    1  121   15   12    1   17    1    2   37   18    1   55  123 |    q = o
    0   61    1   32  186   20    0  209    1    8    8    3    8    1    0   63    0    7    0    0    0    0    0    5    0   25   12 |    r = n
    7    0   12    3    6    4    8    2    0    2    0    2    1    1    0    0    0    9    1    0    5    0    0    1    0    0   17 |    s = q
    0    4   14   18   14    9   12    8    0    4    0    9    2    1    0    3    4   13    0    3    1    1    1   20    0    4   58 |    t = p
   52   27   53   46   46   30   79   19    3   13    5   44    3   12    0   26    0   53    0    0  101    9    0   18    0   21  245 |    u = s
    0   24    4   27   85   34    3   77    0   15    8   10    4    0    0   71    3   13    0    1    0    3    2   10    2    7   37 |    v = r
    0    4    4    3   30   51    9  153    0    9    0    1    4    0   10   28    5    3    0    9    0    2   60   12    2   21    3 |    w = u
    0    4   27   21   17    1   37    3    0    4    0    9    2    0    0    0    4   30    1    4    0    0    1   27    1    8  149 |    x = t
    0    3    1    0   64    6    1   33    0    6    1    0    0    0    1   11    0    1    0    1    0    0    0    3    0    9    1 |    y = v
    0    0    1    1   47    0    6    5    0    0    0    3    1    0    1    7    0    3    0    1    1    0    1    5    0   10    2 |    z = y
    0    0    0    0    0    0    0    0    0    0    0    0    0    0    0    0    0    0    0    0    0    0    0    1    0    0    7 |   aa = z

=== Percent Confusion Matrix ===
a	b	c	d	e	f	g	h	i	j	k	l	m	n	o	p	q	r	s	t	u	v	w	x	y	z	aa	
21.59	3.41	5.68	3.41	1.14	4.55	13.64	3.41	0.0	3.41	0.0	3.41	0.0	0.0	0.0	2.27	0.0	2.27	0.0	0.0	10.23	0.0	0.0	3.41	0.0	0.0	18.18	 a = ch
0.0	28.57	0.0	0.0	52.38	9.52	0.0	9.52	0.0	0.0	0.0	0.0	0.0	0.0	0.0	0.0	0.0	0.0	0.0	0.0	0.0	0.0	0.0	0.0	0.0	0.0	0.0	 b = rr
0.07	0.31	56.78	1.44	1.78	0.16	0.18	1.18	0.04	0.57	0.0	0.5	0.12	0.03	0.04	0.59	0.04	0.93	0.01	0.0	0.06	0.07	0.04	0.66	0.01	0.47	33.89	 c = 0
0.0	2.91	1.46	13.59	32.04	2.43	0.0	3.88	0.0	1.46	0.0	2.91	0.0	0.0	0.0	5.34	0.0	2.91	0.0	0.0	2.43	1.94	0.0	2.91	0.0	4.85	18.93	 d = hs
0.0	0.0	0.0	0.0	92.0	0.0	0.0	4.0	0.0	0.0	0.0	0.0	2.0	0.0	0.0	0.0	0.0	2.0	0.0	0.0	0.0	0.0	0.0	0.0	0.0	0.0	0.0	 e = hg
0.07	2.83	0.78	1.19	14.2	41.88	1.49	14.23	0.48	8.64	0.37	0.3	0.6	0.19	0.0	4.43	1.27	0.71	0.3	0.75	0.11	0.19	1.19	1.01	0.04	0.93	1.83	 f = a
2.52	0.0	8.27	4.32	3.6	0.0	16.91	1.08	0.0	0.0	0.0	3.24	0.36	0.0	0.0	1.08	0.36	3.24	1.44	2.52	1.44	0.0	0.72	6.83	0.36	0.72	41.01	 g = c
0.0	7.56	0.0	0.0	30.25	5.04	0.0	38.66	0.0	2.52	2.52	0.0	0.0	0.0	0.0	11.76	0.0	0.0	0.0	0.0	0.0	0.0	0.0	0.0	0.0	1.68	0.0	 h = b
0.42	2.23	0.35	1.67	35.88	10.36	1.53	23.23	3.41	1.18	2.64	0.35	2.29	0.0	0.0	4.03	1.32	1.18	0.14	1.11	0.0	0.07	0.83	1.6	0.14	1.04	2.99	 i = e
0.0	7.14	0.0	1.88	30.08	8.27	0.0	34.21	0.0	4.89	0.75	0.75	0.0	0.0	0.38	8.65	0.0	0.0	0.0	0.0	0.0	0.0	0.0	0.38	0.0	2.63	0.0	 j = d
0.0	5.61	0.0	1.87	27.1	14.02	0.0	27.1	0.0	0.0	5.61	2.8	0.0	0.0	0.0	11.21	0.0	0.93	0.0	0.0	0.0	0.0	0.0	0.0	0.0	0.0	3.74	 k = g
0.0	5.04	2.52	9.24	9.24	2.52	5.88	3.36	0.0	1.68	1.68	6.72	0.0	0.0	0.0	4.2	0.0	7.56	0.0	0.0	1.68	0.0	0.0	5.04	0.0	2.52	31.09	 l = f
1.07	0.27	1.07	2.27	25.0	4.41	2.14	22.06	3.07	0.0	2.27	0.13	6.42	0.13	2.27	11.5	0.53	1.34	0.0	1.34	0.13	0.0	0.4	2.81	0.0	6.28	3.07	 m = i
0.0	2.97	0.99	9.9	6.93	8.91	0.99	8.91	0.0	0.0	0.99	3.96	0.0	19.8	0.0	0.99	0.99	8.91	0.0	0.99	1.98	3.96	0.99	1.98	0.0	0.99	13.86	 n = j
0.0	1.1	0.0	2.57	38.24	4.78	0.74	30.15	0.0	3.31	0.74	0.0	0.37	0.0	0.0	12.5	0.0	0.37	0.0	0.37	0.0	0.0	0.0	0.74	0.0	2.57	1.47	 o = m
0.0	3.67	0.31	1.22	36.7	4.28	0.92	26.61	0.92	0.92	0.31	0.0	0.31	0.0	0.0	19.27	0.0	0.31	0.0	0.61	0.0	0.0	0.61	0.61	0.0	2.45	0.0	 p = l
0.29	2.11	0.51	3.2	17.43	9.95	1.09	26.29	0.29	7.55	0.29	0.36	1.09	0.22	0.07	8.79	1.09	0.87	0.07	1.23	0.07	0.15	2.69	1.31	0.07	3.99	8.93	 q = o
0.0	9.38	0.15	4.92	28.62	3.08	0.0	32.15	0.15	1.23	1.23	0.46	1.23	0.15	0.0	9.69	0.0	1.08	0.0	0.0	0.0	0.0	0.0	0.77	0.0	3.85	1.85	 r = n
8.64	0.0	14.81	3.7	7.41	4.94	9.88	2.47	0.0	2.47	0.0	2.47	1.23	1.23	0.0	0.0	0.0	11.11	1.23	0.0	6.17	0.0	0.0	1.23	0.0	0.0	20.99	 s = q
0.0	1.97	6.9	8.87	6.9	4.43	5.91	3.94	0.0	1.97	0.0	4.43	0.99	0.49	0.0	1.48	1.97	6.4	0.0	1.48	0.49	0.49	0.49	9.85	0.0	1.97	28.57	 t = p
5.75	2.98	5.86	5.08	5.08	3.31	8.73	2.1	0.33	1.44	0.55	4.86	0.33	1.33	0.0	2.87	0.0	5.86	0.0	0.0	11.16	0.99	0.0	1.99	0.0	2.32	27.07	 u = s
0.0	5.45	0.91	6.14	19.32	7.73	0.68	17.5	0.0	3.41	1.82	2.27	0.91	0.0	0.0	16.14	0.68	2.95	0.0	0.23	0.0	0.68	0.45	2.27	0.45	1.59	8.41	 v = r
0.0	0.95	0.95	0.71	7.09	12.06	2.13	36.17	0.0	2.13	0.0	0.24	0.95	0.0	2.36	6.62	1.18	0.71	0.0	2.13	0.0	0.47	14.18	2.84	0.47	4.96	0.71	 w = u
0.0	1.14	7.71	6.0	4.86	0.29	10.57	0.86	0.0	1.14	0.0	2.57	0.57	0.0	0.0	0.0	1.14	8.57	0.29	1.14	0.0	0.0	0.29	7.71	0.29	2.29	42.57	 x = t
0.0	2.11	0.7	0.0	45.07	4.23	0.7	23.24	0.0	4.23	0.7	0.0	0.0	0.0	0.7	7.75	0.0	0.7	0.0	0.7	0.0	0.0	0.0	2.11	0.0	6.34	0.7	 y = v
0.0	0.0	1.05	1.05	49.47	0.0	6.32	5.26	0.0	0.0	0.0	3.16	1.05	0.0	1.05	7.37	0.0	3.16	0.0	1.05	1.05	0.0	1.05	5.26	0.0	10.53	2.11	 z = y
0.0	0.0	0.0	0.0	0.0	0.0	0.0	0.0	0.0	0.0	0.0	0.0	0.0	0.0	0.0	0.0	0.0	0.0	0.0	0.0	0.0	0.0	0.0	12.5	0.0	0.0	87.5	 aa = z
