Timestamp:2013-07-22-20:43:18
Inventario:I0
Intervalo:10ms
Ngramas:2
Clasificador:RandomForest
Relation Name:  I0-10ms-2gramas
Num Instances:  18295
Num Attributes: 21

     Name                      Type  Nom  Int Real     Missing      Unique  Dist
   1 0Int(dB)                   Num   0%  10%  90%     0 /  0%     7 /  0%   772 
   2 0Pitch(Hz)                 Num   0%  51%  49%     0 /  0%   816 /  4%  3063 
   3 0RawPitch                  Num   0%  54%  46%     0 /  0%   853 /  5%  2955 
   4 0SmPitch                   Num   0%  52%  48%     0 /  0%   827 /  5%  3024 
   5 0Melogram(st)              Num   0%  47%  53%     0 /  0%   581 /  3%  2807 
   6 0ZCross                    Num   0% 100%   0%     0 /  0%    10 /  0%    42 
   7 0F1(Hz)                    Num   0%  51%  49%     0 /  0%  2131 / 12%  4724 
   8 0F2(Hz)                    Num   0%  51%  49%     0 /  0%  4210 / 23%  6615 
   9 0F3(Hz)                    Num   0%  51%  49%     0 /  0%  3688 / 20%  6145 
  10 0F4(Hz)                    Num   0%  51%  49%     0 /  0%  3689 / 20%  6054 
  11 1Int(dB)                   Num   0%  10%  90%     0 /  0%     7 /  0%   772 
  12 1Pitch(Hz)                 Num   0%  51%  49%     0 /  0%   817 /  4%  3064 
  13 1RawPitch                  Num   0%  54%  46%     0 /  0%   854 /  5%  2956 
  14 1SmPitch                   Num   0%  52%  48%     0 /  0%   828 /  5%  3025 
  15 1Melogram(st)              Num   0%  47%  53%     0 /  0%   582 /  3%  2808 
  16 1ZCross                    Num   0% 100%   0%     0 /  0%    10 /  0%    42 
  17 1F1(Hz)                    Num   0%  51%  49%     0 /  0%  2131 / 12%  4724 
  18 1F2(Hz)                    Num   0%  51%  49%     0 /  0%  4210 / 23%  6615 
  19 1F3(Hz)                    Num   0%  51%  49%     0 /  0%  3688 / 20%  6145 
  20 1F4(Hz)                    Num   0%  51%  49%     0 /  0%  3689 / 20%  6054 
  21 class                      Nom 100%   0%   0%     0 /  0%     0 /  0%    27 


Options: -I 10 -K 0 -S 1 -num-slots 4 

Random forest of 10 trees, each constructed while considering 5 random features.
Out of bag error: 0.3282





=== Stratified cross-validation ===

Correctly Classified Instances       13367               73.0637 %
Incorrectly Classified Instances      4928               26.9363 %
Kappa statistic                          0.6667
K&B Relative Info Score            1173009.738  %
K&B Information Score                39337.511  bits      2.1502 bits/instance
Class complexity | order 0           61257.4032 bits      3.3483 bits/instance
Class complexity | scheme          1859567.579  bits    101.6435 bits/instance
Complexity improvement     (Sf)    -1798310.1758 bits    -98.2952 bits/instance
Mean absolute error                      0.0277
Root mean squared error                  0.1197
Relative absolute error                 45.6563 %
Root relative squared error             68.6481 %
Coverage of cases (0.95 level)          90.5712 %
Mean rel. region size (0.95 level)      11.119  %
Total Number of Instances            18295     


=== Detailed Accuracy By Class ===

                 TP Rate  FP Rate  Precision  Recall   F-Measure  MCC      ROC Area  PRC Area  Class
                 0,227    0,003    0,247      0,227    0,237      0,233    0,706     0,114     ch
                 0,333    0,000    0,538      0,333    0,412      0,423    0,879     0,247     rr
                 0,920    0,084    0,867      0,920    0,893      0,827    0,967     0,946     0
                 0,388    0,005    0,465      0,388    0,423      0,419    0,827     0,278     hs
                 0,420    0,001    0,600      0,420    0,494      0,501    0,867     0,461     hg
                 0,867    0,049    0,753      0,867    0,806      0,772    0,960     0,883     a
                 0,176    0,010    0,221      0,176    0,196      0,186    0,744     0,097     c
                 0,479    0,003    0,533      0,479    0,504      0,502    0,908     0,470     b
                 0,742    0,039    0,619      0,742    0,675      0,648    0,935     0,697     e
                 0,436    0,005    0,586      0,436    0,500      0,499    0,919     0,461     d
                 0,458    0,001    0,731      0,458    0,563      0,577    0,919     0,555     g
                 0,176    0,003    0,259      0,176    0,210      0,210    0,774     0,096     f
                 0,702    0,015    0,670      0,702    0,686      0,672    0,943     0,711     i
                 0,287    0,002    0,509      0,287    0,367      0,380    0,783     0,315     j
                 0,585    0,004    0,682      0,585    0,630      0,626    0,947     0,604     m
                 0,462    0,005    0,621      0,462    0,530      0,528    0,906     0,479     l
                 0,661    0,027    0,662      0,661    0,662      0,634    0,907     0,683     o
                 0,634    0,012    0,660      0,634    0,647      0,634    0,943     0,645     n
                 0,222    0,001    0,409      0,222    0,288      0,299    0,745     0,143     q
                 0,133    0,004    0,252      0,133    0,174      0,177    0,748     0,099     p
                 0,567    0,022    0,578      0,567    0,572      0,550    0,906     0,548     s
                 0,218    0,006    0,478      0,218    0,300      0,312    0,829     0,243     r
                 0,667    0,004    0,815      0,667    0,733      0,732    0,950     0,757     u
                 0,237    0,010    0,325      0,237    0,274      0,266    0,782     0,144     t
                 0,282    0,001    0,667      0,282    0,396      0,431    0,880     0,346     v
                 0,558    0,001    0,779      0,558    0,650      0,658    0,884     0,533     y
                 0,000    0,000    0,000      0,000    0,000      -0,000   0,499     0,000     z
Weighted Avg.    0,731    0,046    0,715      0,731    0,718      0,683    0,931     0,739     


=== Confusion Matrix ===

    a    b    c    d    e    f    g    h    i    j    k    l    m    n    o    p    q    r    s    t    u    v    w    x    y    z   aa   <-- classified as
   20    0   12    0    0    5    5    0    5    0    0    2    0    3    0    0    3    2    3    1   27    0    0    0    0    0    0 |    a = ch
    0    7    2    0    0    2    0    0    6    0    0    0    0    0    0    0    2    0    0    0    0    2    0    0    0    0    0 |    b = rr
    7    1 6256   32    2   64   38    1   53    7    1   11   28    8    3    4   67   14    6   17  102   18    5   52    0    0    0 |    c = 0
    0    0   54   80    0   18    2    0    6    2    0    0    5    0    2    2   12    1    0    1   12    3    3    3    0    0    0 |    d = hs
    0    0    1    0   21    5    0    0   13    1    0    0    3    1    0    0    0    3    0    0    0    0    2    0    0    0    0 |    e = hg
    4    1   68    4    1 2326   13    3   75    7    2    1   14    1    3   12   62   19    1    7   19   17    2   17    2    3    0 |    f = a
   13    0   88    3    0   17   49    0   12    0    2    2    2    2    0    0   13    4    8    3   35    6    1   17    1    0    0 |    g = c
    0    0    1    0    0   17    0   57   15    0    0    0   10    0    7    0    3    2    0    0    0    2    5    0    0    0    0 |    h = b
    1    3   59    4    5   99   12    4 1067   10    2    2   38    0   11    9   35   32    0    3   14    6    6   11    3    1    1 |    i = e
    0    0   12    1    0   27    0    4   29  116    1    0    3    0    3    6   37   14    0    0    0    5    5    0    0    3    0 |    j = d
    0    0    4    0    0   16    1    0   16    1   49    0    6    0    1    0    6    2    1    1    0    1    2    0    0    0    0 |    k = g
    1    0   20    1    0   10    3    0    8    0    0   21    0    3    0    0    5    2    0    8   30    2    0    5    0    0    0 |    l = f
    4    0   36    3    1   13    1   12   89    0    3    0  525    0    4    9    8    8    0    3   11    2    6    7    2    1    0 |    m = i
    0    0    9    2    1   16    1    1   11    0    2    3    2   29    0    0    3    0    1    1   16    0    1    2    0    0    0 |    n = j
    0    0    8    0    1   13    1    5   22    7    0    0   23    0  159    5   17    5    0    1    1    0    0    1    3    0    0 |    o = m
    1    0    8    1    0   46    2    1   41    2    0    1   28    0    1  151   17   19    0    0    0    4    3    1    0    0    0 |    p = l
    2    0  140    8    0   99    6    6   58   21    0    1   10    0   17   10  910   27    2    4   18   11   12   10    3    2    0 |    q = o
    1    0   24    7    2   40    2    3   57    9    0    2   19    0    8   11   30  412    0    3    9    4    2    4    0    0    1 |    r = n
    6    0   22    2    0    3    8    0    3    0    0    1    1    2    0    0    3    0   18    0   10    0    0    2    0    0    0 |    s = q
    2    0   56    5    1   21   11    1   12    0    1    7    5    0    1    0   15    1    0   27   16    6    2    9    1    1    2 |    t = p
   12    0  155   11    0   47   27    0   16    1    0   21   22    6    2    1   19   11    1    8  513    6    1   22    0    2    1 |    u = s
    2    1   47    4    0  123    5    4   49    5    0    1   13    2    4    8   34   11    1    7   13   96    2    5    3    0    0 |    v = r
    1    0    8    0    0   15   10    3   20    4    3    0    8    0    5    3   36   16    0    1    2    1  282    4    0    1    0 |    w = u
    3    0  115    4    0   27   23    0   12    3    0    4   10    0    0    0   17    7    2   10   26    3    0   83    1    0    0 |    x = t
    0    0    6    0    0   14    2    2   25    2    1    0    4    0    2    6   19   10    0    1    0    4    3    0   40    1    0 |    y = v
    1    0    4    0    0    6    0    0    2    0    0    0    4    0    0    6    1    2    0    0   12    2    1    0    1   53    0 |    z = y
    0    0    3    0    0    1    0    0    1    0    0    1    0    0    0    0    0    0    0    0    2    0    0    0    0    0    0 |   aa = z

=== Percent Confusion Matrix ===
a	b	c	d	e	f	g	h	i	j	k	l	m	n	o	p	q	r	s	t	u	v	w	x	y	z	aa	
22.73	0.0	13.64	0.0	0.0	5.68	5.68	0.0	5.68	0.0	0.0	2.27	0.0	3.41	0.0	0.0	3.41	2.27	3.41	1.14	30.68	0.0	0.0	0.0	0.0	0.0	0.0	 a = ch
0.0	33.33	9.52	0.0	0.0	9.52	0.0	0.0	28.57	0.0	0.0	0.0	0.0	0.0	0.0	0.0	9.52	0.0	0.0	0.0	0.0	9.52	0.0	0.0	0.0	0.0	0.0	 b = rr
0.1	0.01	92.04	0.47	0.03	0.94	0.56	0.01	0.78	0.1	0.01	0.16	0.41	0.12	0.04	0.06	0.99	0.21	0.09	0.25	1.5	0.26	0.07	0.77	0.0	0.0	0.0	 c = 0
0.0	0.0	26.21	38.83	0.0	8.74	0.97	0.0	2.91	0.97	0.0	0.0	2.43	0.0	0.97	0.97	5.83	0.49	0.0	0.49	5.83	1.46	1.46	1.46	0.0	0.0	0.0	 d = hs
0.0	0.0	2.0	0.0	42.0	10.0	0.0	0.0	26.0	2.0	0.0	0.0	6.0	2.0	0.0	0.0	0.0	6.0	0.0	0.0	0.0	0.0	4.0	0.0	0.0	0.0	0.0	 e = hg
0.15	0.04	2.53	0.15	0.04	86.66	0.48	0.11	2.79	0.26	0.07	0.04	0.52	0.04	0.11	0.45	2.31	0.71	0.04	0.26	0.71	0.63	0.07	0.63	0.07	0.11	0.0	 f = a
4.68	0.0	31.65	1.08	0.0	6.12	17.63	0.0	4.32	0.0	0.72	0.72	0.72	0.72	0.0	0.0	4.68	1.44	2.88	1.08	12.59	2.16	0.36	6.12	0.36	0.0	0.0	 g = c
0.0	0.0	0.84	0.0	0.0	14.29	0.0	47.9	12.61	0.0	0.0	0.0	8.4	0.0	5.88	0.0	2.52	1.68	0.0	0.0	0.0	1.68	4.2	0.0	0.0	0.0	0.0	 h = b
0.07	0.21	4.1	0.28	0.35	6.88	0.83	0.28	74.2	0.7	0.14	0.14	2.64	0.0	0.76	0.63	2.43	2.23	0.0	0.21	0.97	0.42	0.42	0.76	0.21	0.07	0.07	 i = e
0.0	0.0	4.51	0.38	0.0	10.15	0.0	1.5	10.9	43.61	0.38	0.0	1.13	0.0	1.13	2.26	13.91	5.26	0.0	0.0	0.0	1.88	1.88	0.0	0.0	1.13	0.0	 j = d
0.0	0.0	3.74	0.0	0.0	14.95	0.93	0.0	14.95	0.93	45.79	0.0	5.61	0.0	0.93	0.0	5.61	1.87	0.93	0.93	0.0	0.93	1.87	0.0	0.0	0.0	0.0	 k = g
0.84	0.0	16.81	0.84	0.0	8.4	2.52	0.0	6.72	0.0	0.0	17.65	0.0	2.52	0.0	0.0	4.2	1.68	0.0	6.72	25.21	1.68	0.0	4.2	0.0	0.0	0.0	 l = f
0.53	0.0	4.81	0.4	0.13	1.74	0.13	1.6	11.9	0.0	0.4	0.0	70.19	0.0	0.53	1.2	1.07	1.07	0.0	0.4	1.47	0.27	0.8	0.94	0.27	0.13	0.0	 m = i
0.0	0.0	8.91	1.98	0.99	15.84	0.99	0.99	10.89	0.0	1.98	2.97	1.98	28.71	0.0	0.0	2.97	0.0	0.99	0.99	15.84	0.0	0.99	1.98	0.0	0.0	0.0	 n = j
0.0	0.0	2.94	0.0	0.37	4.78	0.37	1.84	8.09	2.57	0.0	0.0	8.46	0.0	58.46	1.84	6.25	1.84	0.0	0.37	0.37	0.0	0.0	0.37	1.1	0.0	0.0	 o = m
0.31	0.0	2.45	0.31	0.0	14.07	0.61	0.31	12.54	0.61	0.0	0.31	8.56	0.0	0.31	46.18	5.2	5.81	0.0	0.0	0.0	1.22	0.92	0.31	0.0	0.0	0.0	 p = l
0.15	0.0	10.17	0.58	0.0	7.19	0.44	0.44	4.21	1.53	0.0	0.07	0.73	0.0	1.23	0.73	66.09	1.96	0.15	0.29	1.31	0.8	0.87	0.73	0.22	0.15	0.0	 q = o
0.15	0.0	3.69	1.08	0.31	6.15	0.31	0.46	8.77	1.38	0.0	0.31	2.92	0.0	1.23	1.69	4.62	63.38	0.0	0.46	1.38	0.62	0.31	0.62	0.0	0.0	0.15	 r = n
7.41	0.0	27.16	2.47	0.0	3.7	9.88	0.0	3.7	0.0	0.0	1.23	1.23	2.47	0.0	0.0	3.7	0.0	22.22	0.0	12.35	0.0	0.0	2.47	0.0	0.0	0.0	 s = q
0.99	0.0	27.59	2.46	0.49	10.34	5.42	0.49	5.91	0.0	0.49	3.45	2.46	0.0	0.49	0.0	7.39	0.49	0.0	13.3	7.88	2.96	0.99	4.43	0.49	0.49	0.99	 t = p
1.33	0.0	17.13	1.22	0.0	5.19	2.98	0.0	1.77	0.11	0.0	2.32	2.43	0.66	0.22	0.11	2.1	1.22	0.11	0.88	56.69	0.66	0.11	2.43	0.0	0.22	0.11	 u = s
0.45	0.23	10.68	0.91	0.0	27.95	1.14	0.91	11.14	1.14	0.0	0.23	2.95	0.45	0.91	1.82	7.73	2.5	0.23	1.59	2.95	21.82	0.45	1.14	0.68	0.0	0.0	 v = r
0.24	0.0	1.89	0.0	0.0	3.55	2.36	0.71	4.73	0.95	0.71	0.0	1.89	0.0	1.18	0.71	8.51	3.78	0.0	0.24	0.47	0.24	66.67	0.95	0.0	0.24	0.0	 w = u
0.86	0.0	32.86	1.14	0.0	7.71	6.57	0.0	3.43	0.86	0.0	1.14	2.86	0.0	0.0	0.0	4.86	2.0	0.57	2.86	7.43	0.86	0.0	23.71	0.29	0.0	0.0	 x = t
0.0	0.0	4.23	0.0	0.0	9.86	1.41	1.41	17.61	1.41	0.7	0.0	2.82	0.0	1.41	4.23	13.38	7.04	0.0	0.7	0.0	2.82	2.11	0.0	28.17	0.7	0.0	 y = v
1.05	0.0	4.21	0.0	0.0	6.32	0.0	0.0	2.11	0.0	0.0	0.0	4.21	0.0	0.0	6.32	1.05	2.11	0.0	0.0	12.63	2.11	1.05	0.0	1.05	55.79	0.0	 z = y
0.0	0.0	37.5	0.0	0.0	12.5	0.0	0.0	12.5	0.0	0.0	12.5	0.0	0.0	0.0	0.0	0.0	0.0	0.0	0.0	25.0	0.0	0.0	0.0	0.0	0.0	0.0	 aa = z
