Timestamp:2013-07-22-20:44:10
Inventario:I0
Intervalo:10ms
Ngramas:4
Clasificador:RandomForest
Relation Name:  I0-10ms-4gramas
Num Instances:  18293
Num Attributes: 41

     Name                      Type  Nom  Int Real     Missing      Unique  Dist
   1 0Int(dB)                   Num   0%  10%  90%     0 /  0%     7 /  0%   772 
   2 0Pitch(Hz)                 Num   0%  51%  49%     0 /  0%   816 /  4%  3063 
   3 0RawPitch                  Num   0%  54%  46%     0 /  0%   853 /  5%  2955 
   4 0SmPitch                   Num   0%  52%  48%     0 /  0%   827 /  5%  3024 
   5 0Melogram(st)              Num   0%  47%  53%     0 /  0%   581 /  3%  2807 
   6 0ZCross                    Num   0% 100%   0%     0 /  0%    10 /  0%    42 
   7 0F1(Hz)                    Num   0%  51%  49%     0 /  0%  2131 / 12%  4724 
   8 0F2(Hz)                    Num   0%  51%  49%     0 /  0%  4210 / 23%  6615 
   9 0F3(Hz)                    Num   0%  51%  49%     0 /  0%  3688 / 20%  6145 
  10 0F4(Hz)                    Num   0%  51%  49%     0 /  0%  3689 / 20%  6054 
  11 1Int(dB)                   Num   0%  10%  90%     0 /  0%     7 /  0%   772 
  12 1Pitch(Hz)                 Num   0%  51%  49%     0 /  0%   816 /  4%  3063 
  13 1RawPitch                  Num   0%  54%  46%     0 /  0%   853 /  5%  2955 
  14 1SmPitch                   Num   0%  52%  48%     0 /  0%   827 /  5%  3024 
  15 1Melogram(st)              Num   0%  47%  53%     0 /  0%   581 /  3%  2807 
  16 1ZCross                    Num   0% 100%   0%     0 /  0%    10 /  0%    42 
  17 1F1(Hz)                    Num   0%  51%  49%     0 /  0%  2131 / 12%  4724 
  18 1F2(Hz)                    Num   0%  51%  49%     0 /  0%  4210 / 23%  6615 
  19 1F3(Hz)                    Num   0%  51%  49%     0 /  0%  3688 / 20%  6145 
  20 1F4(Hz)                    Num   0%  51%  49%     0 /  0%  3689 / 20%  6054 
  21 2Int(dB)                   Num   0%  10%  90%     0 /  0%     7 /  0%   772 
  22 2Pitch(Hz)                 Num   0%  51%  49%     0 /  0%   816 /  4%  3063 
  23 2RawPitch                  Num   0%  54%  46%     0 /  0%   853 /  5%  2955 
  24 2SmPitch                   Num   0%  52%  48%     0 /  0%   827 /  5%  3024 
  25 2Melogram(st)              Num   0%  47%  53%     0 /  0%   581 /  3%  2807 
  26 2ZCross                    Num   0% 100%   0%     0 /  0%    10 /  0%    42 
  27 2F1(Hz)                    Num   0%  51%  49%     0 /  0%  2131 / 12%  4724 
  28 2F2(Hz)                    Num   0%  51%  49%     0 /  0%  4210 / 23%  6615 
  29 2F3(Hz)                    Num   0%  51%  49%     0 /  0%  3688 / 20%  6145 
  30 2F4(Hz)                    Num   0%  51%  49%     0 /  0%  3689 / 20%  6054 
  31 3Int(dB)                   Num   0%  10%  90%     0 /  0%     7 /  0%   772 
  32 3Pitch(Hz)                 Num   0%  51%  49%     0 /  0%   817 /  4%  3064 
  33 3RawPitch                  Num   0%  54%  46%     0 /  0%   854 /  5%  2956 
  34 3SmPitch                   Num   0%  52%  48%     0 /  0%   828 /  5%  3025 
  35 3Melogram(st)              Num   0%  47%  53%     0 /  0%   582 /  3%  2808 
  36 3ZCross                    Num   0% 100%   0%     0 /  0%    10 /  0%    42 
  37 3F1(Hz)                    Num   0%  51%  49%     0 /  0%  2131 / 12%  4724 
  38 3F2(Hz)                    Num   0%  51%  49%     0 /  0%  4210 / 23%  6615 
  39 3F3(Hz)                    Num   0%  51%  49%     0 /  0%  3688 / 20%  6145 
  40 3F4(Hz)                    Num   0%  51%  49%     0 /  0%  3689 / 20%  6054 
  41 class                      Nom 100%   0%   0%     0 /  0%     0 /  0%    27 


Options: -I 10 -K 0 -S 1 -num-slots 4 

Random forest of 10 trees, each constructed while considering 6 random features.
Out of bag error: 0.3097





=== Stratified cross-validation ===

Correctly Classified Instances       13852               75.723  %
Incorrectly Classified Instances      4441               24.277  %
Kappa statistic                          0.6983
K&B Relative Info Score            1220533.997  %
K&B Information Score                40924.4741 bits      2.2372 bits/instance
Class complexity | order 0           61254.5461 bits      3.3485 bits/instance
Class complexity | scheme          1359828.034  bits     74.336  bits/instance
Complexity improvement     (Sf)    -1298573.4879 bits    -70.9875 bits/instance
Mean absolute error                      0.0274
Root mean squared error                  0.1148
Relative absolute error                 45.0071 %
Root relative squared error             65.8609 %
Coverage of cases (0.95 level)          93.1504 %
Mean rel. region size (0.95 level)      11.8189 %
Total Number of Instances            18293     


=== Detailed Accuracy By Class ===

                 TP Rate  FP Rate  Precision  Recall   F-Measure  MCC      ROC Area  PRC Area  Class
                 0,250    0,002    0,349      0,250    0,291      0,293    0,819     0,177     ch
                 0,476    0,000    0,588      0,476    0,526      0,529    0,974     0,412     rr
                 0,942    0,088    0,863      0,942    0,901      0,840    0,975     0,959     0
                 0,432    0,004    0,567      0,432    0,490      0,490    0,853     0,398     hs
                 0,520    0,001    0,605      0,520    0,559      0,560    0,967     0,577     hg
                 0,872    0,047    0,759      0,872    0,812      0,779    0,968     0,897     a
                 0,237    0,009    0,288      0,237    0,260      0,251    0,796     0,139     c
                 0,563    0,001    0,736      0,563    0,638      0,642    0,956     0,615     b
                 0,773    0,036    0,647      0,773    0,704      0,680    0,947     0,738     e
                 0,474    0,003    0,689      0,474    0,561      0,566    0,949     0,552     d
                 0,467    0,001    0,735      0,467    0,571      0,584    0,924     0,558     g
                 0,227    0,002    0,466      0,227    0,305      0,322    0,848     0,201     f
                 0,738    0,013    0,710      0,738    0,723      0,712    0,950     0,736     i
                 0,327    0,001    0,750      0,327    0,455      0,493    0,838     0,389     j
                 0,673    0,004    0,709      0,673    0,691      0,686    0,966     0,705     m
                 0,514    0,005    0,659      0,514    0,577      0,575    0,934     0,558     l
                 0,676    0,023    0,707      0,676    0,691      0,667    0,924     0,715     o
                 0,685    0,010    0,719      0,685    0,701      0,691    0,959     0,730     n
                 0,173    0,001    0,519      0,173    0,259      0,298    0,812     0,217     q
                 0,153    0,003    0,383      0,153    0,218      0,237    0,778     0,149     p
                 0,644    0,018    0,645      0,644    0,645      0,626    0,942     0,661     s
                 0,284    0,005    0,592      0,284    0,384      0,401    0,855     0,335     r
                 0,671    0,004    0,809      0,671    0,734      0,731    0,945     0,758     u
                 0,246    0,007    0,406      0,246    0,306      0,306    0,834     0,223     t
                 0,282    0,001    0,741      0,282    0,408      0,454    0,885     0,382     v
                 0,442    0,001    0,750      0,442    0,556      0,574    0,883     0,516     y
                 0,000    0,000    0,000      0,000    0,000      -0,000   0,623     0,013     z
Weighted Avg.    0,757    0,047    0,743      0,757    0,743      0,712    0,946     0,775     


=== Confusion Matrix ===

    a    b    c    d    e    f    g    h    i    j    k    l    m    n    o    p    q    r    s    t    u    v    w    x    y    z   aa   <-- classified as
   22    0   17    2    0    7    8    0    1    0    0    1    0    1    0    0    1    2    0    0   22    1    0    3    0    0    0 |    a = ch
    0   10    1    1    0    2    0    0    4    0    0    0    0    0    1    0    1    1    0    0    0    0    0    0    0    0    0 |    b = rr
    0    1 6400   12    1   55   18    1   52    4    2    4   25    3    5    6   47   23    4   10   78   14    5   23    2    0    0 |    c = 0
    0    0   49   89    1   20    1    0    9    0    0    0    4    1    1    3    9    2    0    1   14    0    0    2    0    0    0 |    d = hs
    0    0    3    0   26    7    0    0    8    0    0    0    3    1    1    0    0    1    0    0    0    0    0    0    0    0    0 |    e = hg
    4    1   83    9    1 2340   17    1   72    6    1    0    8    1    4   10   53   17    1    2   13   18    1   18    1    0    2 |    f = a
    9    0   99    4    0   23   66    0   11    0    0    1    7    0    0    0   11    0    5    3   21    4    2   11    0    1    0 |    g = c
    0    0    3    0    0   10    0   67   14    0    0    0    7    0    5    0    4    4    0    0    0    1    4    0    0    0    0 |    h = b
    1    1   42    4    0   91    7    3 1112    6    3    2   49    1    8   10   35   16    1    4   19    7    5    9    0    1    1 |    i = e
    0    0    6    1    1   35    0    0   26  126    1    0    4    0    2    4   39   13    0    0    2    3    3    0    0    0    0 |    j = d
    0    0   10    0    1   12    0    0   21    0   50    0    5    0    0    0    2    2    1    0    0    0    1    2    0    0    0 |    k = g
    0    0   30    2    0    7    5    0    6    0    0   27    1    1    0    0    1    1    0    4   29    1    1    3    0    0    0 |    l = f
    1    0   31    3    3   13    4    4   79    0    2    0  552    0    5    4    5    7    0    2   13    2    7    7    2    2    0 |    m = i
    3    0   14    3    3   15    2    0    9    0    0    3    1   33    0    1    2    1    0    2    7    0    1    1    0    0    0 |    n = j
    0    0    4    1    0   12    2    5   19    1    1    0   15    0  183    4   16    4    0    0    1    2    2    0    0    0    0 |    o = m
    0    0   12    1    0   41    2    0   37    0    1    0   16    0    3  168   18   10    0    0    5    6    4    1    1    1    0 |    p = l
    0    2  119    4    0  121   13    1   55   16    3    0    9    0   17   12  931   25    0    1   21    8    9    7    2    1    0 |    q = o
    2    2   25    6    2   42    2    1   31    9    1    0   14    0    6    5   31  445    0    1    9    4    5    3    4    0    0 |    r = n
    3    0   25    0    0    5   16    0    4    0    0    0    2    0    0    0    2    1   14    2    4    0    0    3    0    0    0 |    s = q
    3    0   70    2    0   19   15    0    6    1    0    5    4    0    1    2   11    4    0   31   16    1    0   11    0    1    0 |    t = p
    6    0  159    6    0   34   13    1   21    0    0   12   16    0    3    5   12    5    0    5  583    3    2   15    0    3    1 |    u = s
    4    0   50    3    0  107    5    3   46    5    1    1   11    2    3   14   24   11    0    3   11  125    5    2    2    2    0 |    v = r
    0    0   10    0    1   16    6    4   27    2    1    0    9    0    5    1   39    5    0    0    5    2  284    4    0    2    0 |    w = u
    4    0  139    2    1   24   23    0   15    0    0    2    5    0    3    0   11    7    1    8   15    1    2   86    0    0    1 |    x = t
    1    0    6    2    2   14    2    0   25    4    1    0    6    0    2    2   12   10    0    2    1    6    4    0   40    0    0 |    y = v
    0    0    3    0    0    9    1    0    8    3    0    0    5    0    0    4    0    2    0    0   13    1    4    0    0   42    0 |    z = y
    0    0    2    0    0    0    1    0    1    0    0    0    0    0    0    0    0    0    0    0    2    1    0    1    0    0    0 |   aa = z

=== Percent Confusion Matrix ===
a	b	c	d	e	f	g	h	i	j	k	l	m	n	o	p	q	r	s	t	u	v	w	x	y	z	aa	
25.0	0.0	19.32	2.27	0.0	7.95	9.09	0.0	1.14	0.0	0.0	1.14	0.0	1.14	0.0	0.0	1.14	2.27	0.0	0.0	25.0	1.14	0.0	3.41	0.0	0.0	0.0	 a = ch
0.0	47.62	4.76	4.76	0.0	9.52	0.0	0.0	19.05	0.0	0.0	0.0	0.0	0.0	4.76	0.0	4.76	4.76	0.0	0.0	0.0	0.0	0.0	0.0	0.0	0.0	0.0	 b = rr
0.0	0.01	94.19	0.18	0.01	0.81	0.26	0.01	0.77	0.06	0.03	0.06	0.37	0.04	0.07	0.09	0.69	0.34	0.06	0.15	1.15	0.21	0.07	0.34	0.03	0.0	0.0	 c = 0
0.0	0.0	23.79	43.2	0.49	9.71	0.49	0.0	4.37	0.0	0.0	0.0	1.94	0.49	0.49	1.46	4.37	0.97	0.0	0.49	6.8	0.0	0.0	0.97	0.0	0.0	0.0	 d = hs
0.0	0.0	6.0	0.0	52.0	14.0	0.0	0.0	16.0	0.0	0.0	0.0	6.0	2.0	2.0	0.0	0.0	2.0	0.0	0.0	0.0	0.0	0.0	0.0	0.0	0.0	0.0	 e = hg
0.15	0.04	3.09	0.34	0.04	87.18	0.63	0.04	2.68	0.22	0.04	0.0	0.3	0.04	0.15	0.37	1.97	0.63	0.04	0.07	0.48	0.67	0.04	0.67	0.04	0.0	0.07	 f = a
3.24	0.0	35.61	1.44	0.0	8.27	23.74	0.0	3.96	0.0	0.0	0.36	2.52	0.0	0.0	0.0	3.96	0.0	1.8	1.08	7.55	1.44	0.72	3.96	0.0	0.36	0.0	 g = c
0.0	0.0	2.52	0.0	0.0	8.4	0.0	56.3	11.76	0.0	0.0	0.0	5.88	0.0	4.2	0.0	3.36	3.36	0.0	0.0	0.0	0.84	3.36	0.0	0.0	0.0	0.0	 h = b
0.07	0.07	2.92	0.28	0.0	6.33	0.49	0.21	77.33	0.42	0.21	0.14	3.41	0.07	0.56	0.7	2.43	1.11	0.07	0.28	1.32	0.49	0.35	0.63	0.0	0.07	0.07	 i = e
0.0	0.0	2.26	0.38	0.38	13.16	0.0	0.0	9.77	47.37	0.38	0.0	1.5	0.0	0.75	1.5	14.66	4.89	0.0	0.0	0.75	1.13	1.13	0.0	0.0	0.0	0.0	 j = d
0.0	0.0	9.35	0.0	0.93	11.21	0.0	0.0	19.63	0.0	46.73	0.0	4.67	0.0	0.0	0.0	1.87	1.87	0.93	0.0	0.0	0.0	0.93	1.87	0.0	0.0	0.0	 k = g
0.0	0.0	25.21	1.68	0.0	5.88	4.2	0.0	5.04	0.0	0.0	22.69	0.84	0.84	0.0	0.0	0.84	0.84	0.0	3.36	24.37	0.84	0.84	2.52	0.0	0.0	0.0	 l = f
0.13	0.0	4.14	0.4	0.4	1.74	0.53	0.53	10.56	0.0	0.27	0.0	73.8	0.0	0.67	0.53	0.67	0.94	0.0	0.27	1.74	0.27	0.94	0.94	0.27	0.27	0.0	 m = i
2.97	0.0	13.86	2.97	2.97	14.85	1.98	0.0	8.91	0.0	0.0	2.97	0.99	32.67	0.0	0.99	1.98	0.99	0.0	1.98	6.93	0.0	0.99	0.99	0.0	0.0	0.0	 n = j
0.0	0.0	1.47	0.37	0.0	4.41	0.74	1.84	6.99	0.37	0.37	0.0	5.51	0.0	67.28	1.47	5.88	1.47	0.0	0.0	0.37	0.74	0.74	0.0	0.0	0.0	0.0	 o = m
0.0	0.0	3.67	0.31	0.0	12.54	0.61	0.0	11.31	0.0	0.31	0.0	4.89	0.0	0.92	51.38	5.5	3.06	0.0	0.0	1.53	1.83	1.22	0.31	0.31	0.31	0.0	 p = l
0.0	0.15	8.64	0.29	0.0	8.79	0.94	0.07	3.99	1.16	0.22	0.0	0.65	0.0	1.23	0.87	67.61	1.82	0.0	0.07	1.53	0.58	0.65	0.51	0.15	0.07	0.0	 q = o
0.31	0.31	3.85	0.92	0.31	6.46	0.31	0.15	4.77	1.38	0.15	0.0	2.15	0.0	0.92	0.77	4.77	68.46	0.0	0.15	1.38	0.62	0.77	0.46	0.62	0.0	0.0	 r = n
3.7	0.0	30.86	0.0	0.0	6.17	19.75	0.0	4.94	0.0	0.0	0.0	2.47	0.0	0.0	0.0	2.47	1.23	17.28	2.47	4.94	0.0	0.0	3.7	0.0	0.0	0.0	 s = q
1.48	0.0	34.48	0.99	0.0	9.36	7.39	0.0	2.96	0.49	0.0	2.46	1.97	0.0	0.49	0.99	5.42	1.97	0.0	15.27	7.88	0.49	0.0	5.42	0.0	0.49	0.0	 t = p
0.66	0.0	17.57	0.66	0.0	3.76	1.44	0.11	2.32	0.0	0.0	1.33	1.77	0.0	0.33	0.55	1.33	0.55	0.0	0.55	64.42	0.33	0.22	1.66	0.0	0.33	0.11	 u = s
0.91	0.0	11.36	0.68	0.0	24.32	1.14	0.68	10.45	1.14	0.23	0.23	2.5	0.45	0.68	3.18	5.45	2.5	0.0	0.68	2.5	28.41	1.14	0.45	0.45	0.45	0.0	 v = r
0.0	0.0	2.36	0.0	0.24	3.78	1.42	0.95	6.38	0.47	0.24	0.0	2.13	0.0	1.18	0.24	9.22	1.18	0.0	0.0	1.18	0.47	67.14	0.95	0.0	0.47	0.0	 w = u
1.14	0.0	39.71	0.57	0.29	6.86	6.57	0.0	4.29	0.0	0.0	0.57	1.43	0.0	0.86	0.0	3.14	2.0	0.29	2.29	4.29	0.29	0.57	24.57	0.0	0.0	0.29	 x = t
0.7	0.0	4.23	1.41	1.41	9.86	1.41	0.0	17.61	2.82	0.7	0.0	4.23	0.0	1.41	1.41	8.45	7.04	0.0	1.41	0.7	4.23	2.82	0.0	28.17	0.0	0.0	 y = v
0.0	0.0	3.16	0.0	0.0	9.47	1.05	0.0	8.42	3.16	0.0	0.0	5.26	0.0	0.0	4.21	0.0	2.11	0.0	0.0	13.68	1.05	4.21	0.0	0.0	44.21	0.0	 z = y
0.0	0.0	25.0	0.0	0.0	0.0	12.5	0.0	12.5	0.0	0.0	0.0	0.0	0.0	0.0	0.0	0.0	0.0	0.0	0.0	25.0	12.5	0.0	12.5	0.0	0.0	0.0	 aa = z
