Timestamp:2013-07-22-20:18:24
Inventario:I0
Intervalo:1ms
Ngramas:4
Clasificador:RandomForest
Relation Name:  I0-1ms-4gramas
Num Instances:  183401
Num Attributes: 41

     Name                      Type  Nom  Int Real     Missing      Unique  Dist
   1 0Int(dB)                   Num   0%   9%  91%     0 /  0%     2 /  0%   779 
   2 0Pitch(Hz)                 Num   0%  51%  49%     0 /  0%   256 /  0%  4213 
   3 0RawPitch                  Num   0%  55%  45%     0 /  0%   417 /  0%  4119 
   4 0SmPitch                   Num   0%  53%  47%     0 /  0%   263 /  0%  4193 
   5 0Melogram(st)              Num   0%  49%  51%     0 /  0%   133 /  0%  3454 
   6 0ZCross                    Num   0% 100%   0%     0 /  0%     4 /  0%    58 
   7 0F1(Hz)                    Num   0%  52%  48%     0 /  0%  1154 /  1%  4824 
   8 0F2(Hz)                    Num   0%  52%  48%     0 /  0%  2223 /  1%  6697 
   9 0F3(Hz)                    Num   0%  53%  47%     0 /  0%  1930 /  1%  6200 
  10 0F4(Hz)                    Num   0%  52%  48%     0 /  0%  1933 /  1%  6096 
  11 1Int(dB)                   Num   0%   9%  91%     0 /  0%     3 /  0%   780 
  12 1Pitch(Hz)                 Num   0%  51%  49%     0 /  0%   256 /  0%  4213 
  13 1RawPitch                  Num   0%  55%  45%     0 /  0%   417 /  0%  4119 
  14 1SmPitch                   Num   0%  53%  47%     0 /  0%   263 /  0%  4193 
  15 1Melogram(st)              Num   0%  49%  51%     0 /  0%   133 /  0%  3454 
  16 1ZCross                    Num   0% 100%   0%     0 /  0%     4 /  0%    58 
  17 1F1(Hz)                    Num   0%  52%  48%     0 /  0%  1154 /  1%  4824 
  18 1F2(Hz)                    Num   0%  52%  48%     0 /  0%  2223 /  1%  6697 
  19 1F3(Hz)                    Num   0%  53%  47%     0 /  0%  1930 /  1%  6200 
  20 1F4(Hz)                    Num   0%  52%  48%     0 /  0%  1933 /  1%  6096 
  21 2Int(dB)                   Num   0%   9%  91%     0 /  0%     4 /  0%   781 
  22 2Pitch(Hz)                 Num   0%  51%  49%     0 /  0%   256 /  0%  4213 
  23 2RawPitch                  Num   0%  55%  45%     0 /  0%   417 /  0%  4119 
  24 2SmPitch                   Num   0%  53%  47%     0 /  0%   263 /  0%  4193 
  25 2Melogram(st)              Num   0%  49%  51%     0 /  0%   133 /  0%  3454 
  26 2ZCross                    Num   0% 100%   0%     0 /  0%     4 /  0%    58 
  27 2F1(Hz)                    Num   0%  52%  48%     0 /  0%  1154 /  1%  4824 
  28 2F2(Hz)                    Num   0%  52%  48%     0 /  0%  2223 /  1%  6697 
  29 2F3(Hz)                    Num   0%  53%  47%     0 /  0%  1930 /  1%  6200 
  30 2F4(Hz)                    Num   0%  52%  48%     0 /  0%  1933 /  1%  6096 
  31 3Int(dB)                   Num   0%   9%  91%     0 /  0%     3 /  0%   781 
  32 3Pitch(Hz)                 Num   0%  51%  49%     0 /  0%   256 /  0%  4213 
  33 3RawPitch                  Num   0%  55%  45%     0 /  0%   417 /  0%  4119 
  34 3SmPitch                   Num   0%  53%  47%     0 /  0%   263 /  0%  4193 
  35 3Melogram(st)              Num   0%  49%  51%     0 /  0%   133 /  0%  3454 
  36 3ZCross                    Num   0% 100%   0%     0 /  0%     4 /  0%    58 
  37 3F1(Hz)                    Num   0%  52%  48%     0 /  0%  1154 /  1%  4824 
  38 3F2(Hz)                    Num   0%  52%  48%     0 /  0%  2223 /  1%  6697 
  39 3F3(Hz)                    Num   0%  53%  47%     0 /  0%  1930 /  1%  6200 
  40 3F4(Hz)                    Num   0%  52%  48%     0 /  0%  1933 /  1%  6096 
  41 class                      Nom 100%   0%   0%     0 /  0%     0 /  0%    27 


Options: -I 10 -K 0 -S 1 -num-slots 4 

Random forest of 10 trees, each constructed while considering 6 random features.
Out of bag error: 0.1285





=== Stratified cross-validation ===

Correctly Classified Instances      164534               89.7127 %
Incorrectly Classified Instances     18867               10.2873 %
Kappa statistic                          0.8711
K&B Relative Info Score            15598181.4482 %
K&B Information Score               512227.4018 bits      2.7929 bits/instance
Class complexity | order 0          602178.7356 bits      3.2834 bits/instance
Class complexity | scheme          9355329.3723 bits     51.0102 bits/instance
Complexity improvement     (Sf)    -8753150.6367 bits    -47.7268 bits/instance
Mean absolute error                      0.0114
Root mean squared error                  0.0762
Relative absolute error                 19.0052 %
Root relative squared error             44.0989 %
Coverage of cases (0.95 level)          95.223  %
Mean rel. region size (0.95 level)       6.455  %
Total Number of Instances           183401     


=== Detailed Accuracy By Class ===

                 TP Rate  FP Rate  Precision  Recall   F-Measure  MCC      ROC Area  PRC Area  Class
                 0,393    0,002    0,515      0,393    0,446      0,448    0,819     0,415     ch
                 0,982    0,000    0,986      0,982    0,984      0,984    1,000     0,998     rr
                 0,956    0,066    0,903      0,956    0,929      0,882    0,984     0,968     0
                 0,651    0,002    0,773      0,651    0,707      0,706    0,863     0,675     hs
                 0,972    0,000    0,986      0,972    0,979      0,978    1,000     0,994     hg
                 0,961    0,007    0,960      0,961    0,961      0,954    0,988     0,977     a
                 0,400    0,007    0,472      0,400    0,433      0,426    0,828     0,384     c
                 0,971    0,000    0,981      0,971    0,976      0,975    1,000     0,993     b
                 0,942    0,004    0,948      0,942    0,945      0,941    0,983     0,962     e
                 0,959    0,000    0,966      0,959    0,963      0,962    0,995     0,983     d
                 0,905    0,000    0,951      0,905    0,927      0,927    0,972     0,937     g
                 0,482    0,003    0,512      0,482    0,496      0,494    0,840     0,489     f
                 0,925    0,002    0,952      0,925    0,938      0,936    0,978     0,949     i
                 0,711    0,001    0,795      0,711    0,750      0,750    0,905     0,747     j
                 0,962    0,000    0,975      0,962    0,968      0,968    0,991     0,979     m
                 0,962    0,001    0,971      0,962    0,967      0,966    0,997     0,986     l
                 0,876    0,005    0,932      0,876    0,903      0,896    0,958     0,912     o
                 0,942    0,001    0,963      0,942    0,952      0,950    0,984     0,963     n
                 0,452    0,001    0,663      0,452    0,538      0,546    0,825     0,480     q
                 0,481    0,003    0,609      0,481    0,537      0,537    0,845     0,509     p
                 0,719    0,017    0,686      0,719    0,702      0,687    0,941     0,746     s
                 0,839    0,002    0,924      0,839    0,879      0,878    0,950     0,879     r
                 0,960    0,000    0,982      0,960    0,971      0,971    0,993     0,982     u
                 0,395    0,007    0,526      0,395    0,451      0,447    0,833     0,405     t
                 0,944    0,000    0,979      0,944    0,961      0,961    0,993     0,978     v
                 0,838    0,000    0,960      0,838    0,895      0,897    0,947     0,873     y
                 0,000    0,000    0,000      0,000    0,000      -0,000   0,537     0,001     z
Weighted Avg.    0,897    0,029    0,893      0,897    0,894      0,873    0,969     0,915     


=== Confusion Matrix ===

     a     b     c     d     e     f     g     h     i     j     k     l     m     n     o     p     q     r     s     t     u     v     w     x     y     z    aa   <-- classified as
   336     0   108     2     0    13    36     0     5     0     0    15     1     1     0     0     7     1    14     6   264     3     0    41     0     1     0 |     a = ch
     0   213     0     0     0     1     0     0     2     0     0     0     0     0     0     0     1     0     0     0     0     0     0     0     0     0     0 |     b = rr
    64     0 68958   135     2   233   309     4   173    12    16   107   102    31    13    17   359    55    52   174   819    80    15   371     5     1     7 |     c = 0
     2     0   447  1269     0    12    16     0    14     1     1    12     7     3     1     1    20     6     3    17    83     8     1    23     0     1     2 |     d = hs
     0     0     2     0   478     4     0     0     4     0     0     0     2     0     0     0     1     0     0     0     0     0     1     0     0     0     0 |     e = hg
    17     2   470    11     1 25097    91     2    15    13     4    24    16     6    10    21    29    16     4    34   108    33     6    77     2     4     2 |     f = a
    43     0   784    23     0    81  1085     0    46     1     1    34    13    11     1     1    52     5    42    58   249    15     7   159     1     1     2 |     g = c
     0     0     3     0     0     9     0  1161     1     0     0     0    13     0     1     0     0     0     0     0     0     4     4     0     0     0     0 |     h = b
     3     1   320    19     1    34    61     3 12949     9     3    14    19     2     8    11    35    28     9    35    79    32     4    54     6     0     1 |     i = e
     0     0    19     1     0    21     1     0    19  2509     0     1     2     0     1     0    23    11     0     1     4     2     1     1     0     0     0 |     j = d
     2     0    41     1     0    13     2     0    13     0   980     0     2     0     0     0     4     1     0     0    15     1     2     5     1     0     0 |     k = g
    10     0   142     8     0    18    30     0    14     0     2   559     4    12     1     0    24     5     7    23   259     7     0    29     0     2     4 |     l = f
     3     0   242    12     1    27    21     2    41     1     2     7  6555     1     4    10     9     4     6    17    59     9     4    39     7     0     0 |     m = i
     5     0    61     1     0     5    20     0     7     0     0    22     1   696     1     0     9     2     4     2   129     1     0    12     1     0     0 |     n = j
     0     0    30     1     0    15     5     2    10     0     0     0    14     0  2513     0     9     0     0     3     5     0     5     1     0     0     0 |     o = m
     0     0    34     1     0    39     3     0    15     0     0     0     7     0     2  3089     7     2     0     0     3     3     2     3     0     0     0 |     p = l
    10     0  1099    22     2    66    41     2    32    26     4    29    14     7    12    12 11590    23     4    26   136    22     4    41     5     4     1 |     q = o
     4     0   131     6     0    37     8     0    37     7     1    14     4     3     0     4    27  5940     0     9    52     1     0    22     0     0     1 |     r = n
    21     0   189     3     0     6    73     0    22     1     0     8     2     6     0     0     7     3   380     7    76     0     4    31     0     1     0 |     s = q
     5     0   502    19     0    58    90     0    42     1     0    27    12    11     2     1    33     7     3   964   126    12     2    86     0     1     1 |     t = p
    90     0  1293    55     0   108   157     0    60     5     9   171    28    63     1     3    78    28    24    94  6345    31     0   157     0     9    17 |     u = s
     1     0   270    15     0    94    25     3    43     6     1    11    12     4     0     2    35     3     1    18    78  3479     0    45     0     2     0 |     v = r
     1     0    47     1     0    15    16     5    12     2     1     0    16     1     4     5     9     4     2     7     8     2  3973     6     0     0     0 |     w = u
    34     0  1089    34     0   108   195     0    61     1     5    29    31    15     2     2    58    25    18    79   248    15     4  1348     0     4     4 |     x = t
     1     0    14     0     0    11     7     0    19     0     1     0    10     2     0     0     8     0     0     0     2     0     1     3  1322     0     0 |     y = v
     0     0    17     1     0     6     4     0     5     1     0     3     1     1     0     2     4     0     0     6    79     5     4     5     0   746     0 |     z = y
     0     0    14     2     0     2     4     0     2     0     0     5     0     0     0     0     2     2     0     3    24     0     0     5     0     0     0 |    aa = z

=== Percent Confusion Matrix ===
a	b	c	d	e	f	g	h	i	j	k	l	m	n	o	p	q	r	s	t	u	v	w	x	y	z	aa	
39.34	0.0	12.65	0.23	0.0	1.52	4.22	0.0	0.59	0.0	0.0	1.76	0.12	0.12	0.0	0.0	0.82	0.12	1.64	0.7	30.91	0.35	0.0	4.8	0.0	0.12	0.0	 a = ch
0.0	98.16	0.0	0.0	0.0	0.46	0.0	0.0	0.92	0.0	0.0	0.0	0.0	0.0	0.0	0.0	0.46	0.0	0.0	0.0	0.0	0.0	0.0	0.0	0.0	0.0	0.0	 b = rr
0.09	0.0	95.62	0.19	0.0	0.32	0.43	0.01	0.24	0.02	0.02	0.15	0.14	0.04	0.02	0.02	0.5	0.08	0.07	0.24	1.14	0.11	0.02	0.51	0.01	0.0	0.01	 c = 0
0.1	0.0	22.92	65.08	0.0	0.62	0.82	0.0	0.72	0.05	0.05	0.62	0.36	0.15	0.05	0.05	1.03	0.31	0.15	0.87	4.26	0.41	0.05	1.18	0.0	0.05	0.1	 d = hs
0.0	0.0	0.41	0.0	97.15	0.81	0.0	0.0	0.81	0.0	0.0	0.0	0.41	0.0	0.0	0.0	0.2	0.0	0.0	0.0	0.0	0.0	0.2	0.0	0.0	0.0	0.0	 e = hg
0.07	0.01	1.8	0.04	0.0	96.1	0.35	0.01	0.06	0.05	0.02	0.09	0.06	0.02	0.04	0.08	0.11	0.06	0.02	0.13	0.41	0.13	0.02	0.29	0.01	0.02	0.01	 f = a
1.58	0.0	28.88	0.85	0.0	2.98	39.96	0.0	1.69	0.04	0.04	1.25	0.48	0.41	0.04	0.04	1.92	0.18	1.55	2.14	9.17	0.55	0.26	5.86	0.04	0.04	0.07	 g = c
0.0	0.0	0.25	0.0	0.0	0.75	0.0	97.07	0.08	0.0	0.0	0.0	1.09	0.0	0.08	0.0	0.0	0.0	0.0	0.0	0.0	0.33	0.33	0.0	0.0	0.0	0.0	 h = b
0.02	0.01	2.33	0.14	0.01	0.25	0.44	0.02	94.24	0.07	0.02	0.1	0.14	0.01	0.06	0.08	0.25	0.2	0.07	0.25	0.57	0.23	0.03	0.39	0.04	0.0	0.01	 i = e
0.0	0.0	0.73	0.04	0.0	0.8	0.04	0.0	0.73	95.87	0.0	0.04	0.08	0.0	0.04	0.0	0.88	0.42	0.0	0.04	0.15	0.08	0.04	0.04	0.0	0.0	0.0	 j = d
0.18	0.0	3.79	0.09	0.0	1.2	0.18	0.0	1.2	0.0	90.49	0.0	0.18	0.0	0.0	0.0	0.37	0.09	0.0	0.0	1.39	0.09	0.18	0.46	0.09	0.0	0.0	 k = g
0.86	0.0	12.24	0.69	0.0	1.55	2.59	0.0	1.21	0.0	0.17	48.19	0.34	1.03	0.09	0.0	2.07	0.43	0.6	1.98	22.33	0.6	0.0	2.5	0.0	0.17	0.34	 l = f
0.04	0.0	3.42	0.17	0.01	0.38	0.3	0.03	0.58	0.01	0.03	0.1	92.55	0.01	0.06	0.14	0.13	0.06	0.08	0.24	0.83	0.13	0.06	0.55	0.1	0.0	0.0	 m = i
0.51	0.0	6.23	0.1	0.0	0.51	2.04	0.0	0.72	0.0	0.0	2.25	0.1	71.09	0.1	0.0	0.92	0.2	0.41	0.2	13.18	0.1	0.0	1.23	0.1	0.0	0.0	 n = j
0.0	0.0	1.15	0.04	0.0	0.57	0.19	0.08	0.38	0.0	0.0	0.0	0.54	0.0	96.17	0.0	0.34	0.0	0.0	0.11	0.19	0.0	0.19	0.04	0.0	0.0	0.0	 o = m
0.0	0.0	1.06	0.03	0.0	1.21	0.09	0.0	0.47	0.0	0.0	0.0	0.22	0.0	0.06	96.23	0.22	0.06	0.0	0.0	0.09	0.09	0.06	0.09	0.0	0.0	0.0	 p = l
0.08	0.0	8.3	0.17	0.02	0.5	0.31	0.02	0.24	0.2	0.03	0.22	0.11	0.05	0.09	0.09	87.58	0.17	0.03	0.2	1.03	0.17	0.03	0.31	0.04	0.03	0.01	 q = o
0.06	0.0	2.08	0.1	0.0	0.59	0.13	0.0	0.59	0.11	0.02	0.22	0.06	0.05	0.0	0.06	0.43	94.17	0.0	0.14	0.82	0.02	0.0	0.35	0.0	0.0	0.02	 r = n
2.5	0.0	22.5	0.36	0.0	0.71	8.69	0.0	2.62	0.12	0.0	0.95	0.24	0.71	0.0	0.0	0.83	0.36	45.24	0.83	9.05	0.0	0.48	3.69	0.0	0.12	0.0	 s = q
0.25	0.0	25.04	0.95	0.0	2.89	4.49	0.0	2.09	0.05	0.0	1.35	0.6	0.55	0.1	0.05	1.65	0.35	0.15	48.08	6.28	0.6	0.1	4.29	0.0	0.05	0.05	 t = p
1.02	0.0	14.65	0.62	0.0	1.22	1.78	0.0	0.68	0.06	0.1	1.94	0.32	0.71	0.01	0.03	0.88	0.32	0.27	1.07	71.89	0.35	0.0	1.78	0.0	0.1	0.19	 u = s
0.02	0.0	6.51	0.36	0.0	2.27	0.6	0.07	1.04	0.14	0.02	0.27	0.29	0.1	0.0	0.05	0.84	0.07	0.02	0.43	1.88	83.87	0.0	1.08	0.0	0.05	0.0	 v = r
0.02	0.0	1.14	0.02	0.0	0.36	0.39	0.12	0.29	0.05	0.02	0.0	0.39	0.02	0.1	0.12	0.22	0.1	0.05	0.17	0.19	0.05	96.04	0.15	0.0	0.0	0.0	 w = u
1.0	0.0	31.94	1.0	0.0	3.17	5.72	0.0	1.79	0.03	0.15	0.85	0.91	0.44	0.06	0.06	1.7	0.73	0.53	2.32	7.27	0.44	0.12	39.54	0.0	0.12	0.12	 x = t
0.07	0.0	1.0	0.0	0.0	0.79	0.5	0.0	1.36	0.0	0.07	0.0	0.71	0.14	0.0	0.0	0.57	0.0	0.0	0.0	0.14	0.0	0.07	0.21	94.36	0.0	0.0	 y = v
0.0	0.0	1.91	0.11	0.0	0.67	0.45	0.0	0.56	0.11	0.0	0.34	0.11	0.11	0.0	0.22	0.45	0.0	0.0	0.67	8.88	0.56	0.45	0.56	0.0	83.82	0.0	 z = y
0.0	0.0	21.54	3.08	0.0	3.08	6.15	0.0	3.08	0.0	0.0	7.69	0.0	0.0	0.0	0.0	3.08	3.08	0.0	4.62	36.92	0.0	0.0	7.69	0.0	0.0	0.0	 aa = z
