Timestamp:2013-07-22-20:10:59
Inventario:I0
Intervalo:1ms
Ngramas:2
Clasificador:RandomForest
Relation Name:  I0-1ms-2gramas
Num Instances:  183403
Num Attributes: 21

     Name                      Type  Nom  Int Real     Missing      Unique  Dist
   1 0Int(dB)                   Num   0%   9%  91%     0 /  0%     4 /  0%   781 
   2 0Pitch(Hz)                 Num   0%  51%  49%     0 /  0%   256 /  0%  4213 
   3 0RawPitch                  Num   0%  55%  45%     0 /  0%   417 /  0%  4119 
   4 0SmPitch                   Num   0%  53%  47%     0 /  0%   263 /  0%  4193 
   5 0Melogram(st)              Num   0%  49%  51%     0 /  0%   133 /  0%  3454 
   6 0ZCross                    Num   0% 100%   0%     0 /  0%     4 /  0%    58 
   7 0F1(Hz)                    Num   0%  52%  48%     0 /  0%  1154 /  1%  4824 
   8 0F2(Hz)                    Num   0%  52%  48%     0 /  0%  2223 /  1%  6697 
   9 0F3(Hz)                    Num   0%  53%  47%     0 /  0%  1930 /  1%  6200 
  10 0F4(Hz)                    Num   0%  52%  48%     0 /  0%  1933 /  1%  6096 
  11 1Int(dB)                   Num   0%   9%  91%     0 /  0%     3 /  0%   781 
  12 1Pitch(Hz)                 Num   0%  51%  49%     0 /  0%   256 /  0%  4213 
  13 1RawPitch                  Num   0%  55%  45%     0 /  0%   417 /  0%  4119 
  14 1SmPitch                   Num   0%  53%  47%     0 /  0%   263 /  0%  4193 
  15 1Melogram(st)              Num   0%  49%  51%     0 /  0%   133 /  0%  3454 
  16 1ZCross                    Num   0% 100%   0%     0 /  0%     4 /  0%    58 
  17 1F1(Hz)                    Num   0%  52%  48%     0 /  0%  1154 /  1%  4824 
  18 1F2(Hz)                    Num   0%  52%  48%     0 /  0%  2223 /  1%  6697 
  19 1F3(Hz)                    Num   0%  53%  47%     0 /  0%  1930 /  1%  6200 
  20 1F4(Hz)                    Num   0%  52%  48%     0 /  0%  1933 /  1%  6096 
  21 class                      Nom 100%   0%   0%     0 /  0%     0 /  0%    27 


Options: -I 10 -K 0 -S 1 -num-slots 4 

Random forest of 10 trees, each constructed while considering 5 random features.
Out of bag error: 0.1262





=== Stratified cross-validation ===

Correctly Classified Instances      163780               89.3006 %
Incorrectly Classified Instances     19623               10.6994 %
Kappa statistic                          0.866 
K&B Relative Info Score            15517926.9135 %
K&B Information Score               509585.0334 bits      2.7785 bits/instance
Class complexity | order 0          602181.4289 bits      3.2834 bits/instance
Class complexity | scheme          10237886.4481 bits     55.8218 bits/instance
Complexity improvement     (Sf)    -9635705.0192 bits    -52.5384 bits/instance
Mean absolute error                      0.0113
Root mean squared error                  0.0774
Relative absolute error                 18.9181 %
Root relative squared error             44.7741 %
Coverage of cases (0.95 level)          94.595  %
Mean rel. region size (0.95 level)       6.2288 %
Total Number of Instances           183403     


=== Detailed Accuracy By Class ===

                 TP Rate  FP Rate  Precision  Recall   F-Measure  MCC      ROC Area  PRC Area  Class
                 0,378    0,002    0,481      0,378    0,423      0,424    0,785     0,374     ch
                 0,972    0,000    0,981      0,972    0,977      0,977    1,000     0,991     rr
                 0,954    0,065    0,904      0,954    0,929      0,881    0,983     0,968     0
                 0,635    0,002    0,772      0,635    0,697      0,697    0,859     0,669     hs
                 0,961    0,000    0,977      0,961    0,969      0,969    0,998     0,990     hg
                 0,959    0,007    0,959      0,959    0,959      0,952    0,986     0,975     a
                 0,387    0,007    0,467      0,387    0,423      0,417    0,803     0,368     c
                 0,973    0,000    0,977      0,973    0,975      0,975    0,999     0,992     b
                 0,939    0,005    0,944      0,939    0,941      0,937    0,982     0,961     e
                 0,952    0,001    0,964      0,952    0,958      0,957    0,996     0,983     d
                 0,897    0,000    0,947      0,897    0,921      0,921    0,968     0,925     g
                 0,447    0,002    0,542      0,447    0,490      0,489    0,844     0,510     f
                 0,923    0,002    0,944      0,923    0,933      0,931    0,977     0,948     i
                 0,694    0,001    0,795      0,694    0,741      0,741    0,886     0,722     j
                 0,957    0,000    0,969      0,957    0,963      0,963    0,991     0,976     m
                 0,953    0,001    0,968      0,953    0,960      0,960    0,996     0,982     l
                 0,873    0,005    0,930      0,873    0,900      0,893    0,961     0,917     o
                 0,941    0,002    0,956      0,941    0,948      0,946    0,983     0,959     n
                 0,442    0,001    0,641      0,442    0,523      0,530    0,804     0,476     q
                 0,470    0,004    0,585      0,470    0,521      0,520    0,825     0,507     p
                 0,705    0,019    0,658      0,705    0,681      0,664    0,936     0,733     s
                 0,831    0,002    0,907      0,831    0,867      0,865    0,946     0,874     r
                 0,959    0,001    0,974      0,959    0,967      0,966    0,992     0,980     u
                 0,388    0,008    0,493      0,388    0,435      0,428    0,811     0,398     t
                 0,945    0,000    0,971      0,945    0,958      0,957    0,993     0,976     v
                 0,830    0,000    0,915      0,830    0,870      0,871    0,940     0,863     y
                 0,000    0,000    0,000      0,000    0,000      -0,000   0,537     0,001     z
Weighted Avg.    0,893    0,029    0,889      0,893    0,890      0,868    0,967     0,914     


=== Confusion Matrix ===

     a     b     c     d     e     f     g     h     i     j     k     l     m     n     o     p     q     r     s     t     u     v     w     x     y     z    aa   <-- classified as
   323     0   100     2     0    20    41     0     5     0     1    12     3     5     0     0     7     2     8    19   272     2     1    29     0     1     1 |     a = ch
     0   211     0     0     0     1     0     0     3     0     0     0     0     0     0     0     1     1     0     0     0     0     0     0     0     0     0 |     b = rr
    58     0 68795   153     1   237   333     2   171    16    16    74   119    26    14    23   314    55    48   184   898    97    27   427     5    11    12 |     c = 0
     3     0   447  1238     0    18    18     0    24     1     2    10     1     1     0     1    21     7     2    21    85     9     2    37     0     1     1 |     d = hs
     0     0     5     0   473     6     0     0     5     0     0     0     3     0     0     0     0     0     0     0     0     0     0     0     0     0     0 |     e = hg
     8     1   450    12     1 25048    81     4    30    14     7    15    18     7     7    25    33    26    13    42   134    37     7    84     7     2     2 |     f = a
    40     0   741    16     0    82  1050     0    48     0     1    39    14    19     3     0    51    12    39    71   305    16    14   148     1     2     3 |     g = c
     0     0     3     0     0     8     0  1164     4     0     0     0    10     0     0     0     2     0     0     0     0     3     2     0     0     0     0 |     h = b
     5     2   323    25     3    38    53     5 12902    14     4    13    26     6    12    12    29    32     9    28    84    38     5    57    12     1     2 |     i = e
     0     0    19     1     0    23     0     0    28  2491     0     4     4     0     0     0    23    11     0     0     8     2     2     1     0     0     0 |     j = d
     0     0    31     3     0    17     0     0    15     0   971     5     4     0     0     0     4     2     1     0    20     2     1     7     0     0     0 |     k = g
     8     0   143     5     0    18    30     0    14     0     2   518     9    10     1     0    25     9     4    19   295     5     0    38     0     5     2 |     l = f
     5     0   256     7     2    34    24     6    41     1     2     3  6536     1     2     8    14    10     4    17    61     6     4    35     4     0     0 |     m = i
     6     0    69     3     0    10    18     0     7     0     0    13     0   679     0     0     6     2     2    10   126     3     1    21     1     2     0 |     n = j
     0     0    30     0     0     8     3     3    15     0     0     1    15     0  2501     0    11     1     0     6     8     1     4     6     0     0     0 |     o = m
     1     0    37     3     0    43     2     0    22     1     0     0     9     0     5  3060    13     3     0     0     1     4     2     4     0     0     0 |     p = l
     9     1  1110    21     2    61    43     0    34    28     3    21    16     2    12    20 11548    33     5    23   142    18     4    66     5     3     4 |     q = o
     3     0   128     3     0    33    11     0    35     8     0    11     6     0     0     0    35  5935     3    11    53     5     3    22     1     0     2 |     r = n
    24     0   189     3     0    15    62     0    20     0     1    12     5     3     0     0     7     2   371     7    79     3     5    31     0     1     0 |     s = q
    10     0   484    15     0    65    75     0    44     0     2    11    16     7     3     1    34    12    13   942   156    17     4    88     0     6     0 |     t = p
   137     0  1312    42     0    99   181     0    62     2     3   134    40    64     6     2    90    15    29   104  6222    47     1   200     1    28     5 |     u = s
     2     0   270    15     0    90    25     4    61     4     1     7    12     2     1     3    40     6     3    16    93  3447     2    41     1     2     0 |     v = r
     2     0    45     1     1     8    14     4     8     1     2     1    13     1     8     4    20     5     3    12     4     1  3968     9     1     1     0 |     w = u
    27     0  1022    32     1   117   176     0    58     3     7    43    32    15     5     2    74    27    21    71   311    28     9  1324     1     3     0 |     x = t
     0     0    15     0     0    14     4     0    12     0     0     0    11     1     0     0     8     2     0     1     1     1     4     3  1324     0     0 |     y = v
     1     0    19     1     0     6     4     0     2     0     0     4     3     2     0     1     8     0     1     5    82     8     2     2     0   739     0 |     z = y
     0     0    22     2     0     3     1     0     3     0     0     5     1     3     0     0     1     0     0     1    19     1     0     3     0     0     0 |    aa = z

=== Percent Confusion Matrix ===
a	b	c	d	e	f	g	h	i	j	k	l	m	n	o	p	q	r	s	t	u	v	w	x	y	z	aa	
37.82	0.0	11.71	0.23	0.0	2.34	4.8	0.0	0.59	0.0	0.12	1.41	0.35	0.59	0.0	0.0	0.82	0.23	0.94	2.22	31.85	0.23	0.12	3.4	0.0	0.12	0.12	 a = ch
0.0	97.24	0.0	0.0	0.0	0.46	0.0	0.0	1.38	0.0	0.0	0.0	0.0	0.0	0.0	0.0	0.46	0.46	0.0	0.0	0.0	0.0	0.0	0.0	0.0	0.0	0.0	 b = rr
0.08	0.0	95.39	0.21	0.0	0.33	0.46	0.0	0.24	0.02	0.02	0.1	0.17	0.04	0.02	0.03	0.44	0.08	0.07	0.26	1.25	0.13	0.04	0.59	0.01	0.02	0.02	 c = 0
0.15	0.0	22.92	63.49	0.0	0.92	0.92	0.0	1.23	0.05	0.1	0.51	0.05	0.05	0.0	0.05	1.08	0.36	0.1	1.08	4.36	0.46	0.1	1.9	0.0	0.05	0.05	 d = hs
0.0	0.0	1.02	0.0	96.14	1.22	0.0	0.0	1.02	0.0	0.0	0.0	0.61	0.0	0.0	0.0	0.0	0.0	0.0	0.0	0.0	0.0	0.0	0.0	0.0	0.0	0.0	 e = hg
0.03	0.0	1.72	0.05	0.0	95.91	0.31	0.02	0.11	0.05	0.03	0.06	0.07	0.03	0.03	0.1	0.13	0.1	0.05	0.16	0.51	0.14	0.03	0.32	0.03	0.01	0.01	 f = a
1.47	0.0	27.29	0.59	0.0	3.02	38.67	0.0	1.77	0.0	0.04	1.44	0.52	0.7	0.11	0.0	1.88	0.44	1.44	2.62	11.23	0.59	0.52	5.45	0.04	0.07	0.11	 g = c
0.0	0.0	0.25	0.0	0.0	0.67	0.0	97.32	0.33	0.0	0.0	0.0	0.84	0.0	0.0	0.0	0.17	0.0	0.0	0.0	0.0	0.25	0.17	0.0	0.0	0.0	0.0	 h = b
0.04	0.01	2.35	0.18	0.02	0.28	0.39	0.04	93.9	0.1	0.03	0.09	0.19	0.04	0.09	0.09	0.21	0.23	0.07	0.2	0.61	0.28	0.04	0.41	0.09	0.01	0.01	 i = e
0.0	0.0	0.73	0.04	0.0	0.88	0.0	0.0	1.07	95.19	0.0	0.15	0.15	0.0	0.0	0.0	0.88	0.42	0.0	0.0	0.31	0.08	0.08	0.04	0.0	0.0	0.0	 j = d
0.0	0.0	2.86	0.28	0.0	1.57	0.0	0.0	1.39	0.0	89.66	0.46	0.37	0.0	0.0	0.0	0.37	0.18	0.09	0.0	1.85	0.18	0.09	0.65	0.0	0.0	0.0	 k = g
0.69	0.0	12.33	0.43	0.0	1.55	2.59	0.0	1.21	0.0	0.17	44.66	0.78	0.86	0.09	0.0	2.16	0.78	0.34	1.64	25.43	0.43	0.0	3.28	0.0	0.43	0.17	 l = f
0.07	0.0	3.61	0.1	0.03	0.48	0.34	0.08	0.58	0.01	0.03	0.04	92.28	0.01	0.03	0.11	0.2	0.14	0.06	0.24	0.86	0.08	0.06	0.49	0.06	0.0	0.0	 m = i
0.61	0.0	7.05	0.31	0.0	1.02	1.84	0.0	0.72	0.0	0.0	1.33	0.0	69.36	0.0	0.0	0.61	0.2	0.2	1.02	12.87	0.31	0.1	2.15	0.1	0.2	0.0	 n = j
0.0	0.0	1.15	0.0	0.0	0.31	0.11	0.11	0.57	0.0	0.0	0.04	0.57	0.0	95.71	0.0	0.42	0.04	0.0	0.23	0.31	0.04	0.15	0.23	0.0	0.0	0.0	 o = m
0.03	0.0	1.15	0.09	0.0	1.34	0.06	0.0	0.69	0.03	0.0	0.0	0.28	0.0	0.16	95.33	0.4	0.09	0.0	0.0	0.03	0.12	0.06	0.12	0.0	0.0	0.0	 p = l
0.07	0.01	8.39	0.16	0.02	0.46	0.32	0.0	0.26	0.21	0.02	0.16	0.12	0.02	0.09	0.15	87.26	0.25	0.04	0.17	1.07	0.14	0.03	0.5	0.04	0.02	0.03	 q = o
0.05	0.0	2.03	0.05	0.0	0.52	0.17	0.0	0.55	0.13	0.0	0.17	0.1	0.0	0.0	0.0	0.55	94.09	0.05	0.17	0.84	0.08	0.05	0.35	0.02	0.0	0.03	 r = n
2.86	0.0	22.5	0.36	0.0	1.79	7.38	0.0	2.38	0.0	0.12	1.43	0.6	0.36	0.0	0.0	0.83	0.24	44.17	0.83	9.4	0.36	0.6	3.69	0.0	0.12	0.0	 s = q
0.5	0.0	24.14	0.75	0.0	3.24	3.74	0.0	2.19	0.0	0.1	0.55	0.8	0.35	0.15	0.05	1.7	0.6	0.65	46.98	7.78	0.85	0.2	4.39	0.0	0.3	0.0	 t = p
1.55	0.0	14.87	0.48	0.0	1.12	2.05	0.0	0.7	0.02	0.03	1.52	0.45	0.73	0.07	0.02	1.02	0.17	0.33	1.18	70.5	0.53	0.01	2.27	0.01	0.32	0.06	 u = s
0.05	0.0	6.51	0.36	0.0	2.17	0.6	0.1	1.47	0.1	0.02	0.17	0.29	0.05	0.02	0.07	0.96	0.14	0.07	0.39	2.24	83.1	0.05	0.99	0.02	0.05	0.0	 v = r
0.05	0.0	1.09	0.02	0.02	0.19	0.34	0.1	0.19	0.02	0.05	0.02	0.31	0.02	0.19	0.1	0.48	0.12	0.07	0.29	0.1	0.02	95.91	0.22	0.02	0.02	0.0	 w = u
0.79	0.0	29.98	0.94	0.03	3.43	5.16	0.0	1.7	0.09	0.21	1.26	0.94	0.44	0.15	0.06	2.17	0.79	0.62	2.08	9.12	0.82	0.26	38.84	0.03	0.09	0.0	 x = t
0.0	0.0	1.07	0.0	0.0	1.0	0.29	0.0	0.86	0.0	0.0	0.0	0.79	0.07	0.0	0.0	0.57	0.14	0.0	0.07	0.07	0.07	0.29	0.21	94.5	0.0	0.0	 y = v
0.11	0.0	2.13	0.11	0.0	0.67	0.45	0.0	0.22	0.0	0.0	0.45	0.34	0.22	0.0	0.11	0.9	0.0	0.11	0.56	9.21	0.9	0.22	0.22	0.0	83.03	0.0	 z = y
0.0	0.0	33.85	3.08	0.0	4.62	1.54	0.0	4.62	0.0	0.0	7.69	1.54	4.62	0.0	0.0	1.54	0.0	0.0	1.54	29.23	1.54	0.0	4.62	0.0	0.0	0.0	 aa = z
