Timestamp:2014-12-07-10:30:22
Inventario:I0
Intervalo:1ms
Ngramas:4
Clasificador:NaiveBayes
Relation Name:  I0-1ms-4gramas
Num Instances:  183401
Num Attributes: 41

     Name                      Type  Nom  Int Real     Missing      Unique  Dist
   1 0Int(dB)                   Num   0%   9%  91%     0 /  0%     2 /  0%   779 
   2 0Pitch(Hz)                 Num   0%  51%  49%     0 /  0%   256 /  0%  4213 
   3 0RawPitch                  Num   0%  55%  45%     0 /  0%   417 /  0%  4119 
   4 0SmPitch                   Num   0%  53%  47%     0 /  0%   263 /  0%  4193 
   5 0Melogram(st)              Num   0%  49%  51%     0 /  0%   133 /  0%  3454 
   6 0ZCross                    Num   0% 100%   0%     0 /  0%     4 /  0%    58 
   7 0F1(Hz)                    Num   0%  52%  48%     0 /  0%  1154 /  1%  4824 
   8 0F2(Hz)                    Num   0%  52%  48%     0 /  0%  2223 /  1%  6697 
   9 0F3(Hz)                    Num   0%  53%  47%     0 /  0%  1930 /  1%  6200 
  10 0F4(Hz)                    Num   0%  52%  48%     0 /  0%  1933 /  1%  6096 
  11 1Int(dB)                   Num   0%   9%  91%     0 /  0%     3 /  0%   780 
  12 1Pitch(Hz)                 Num   0%  51%  49%     0 /  0%   256 /  0%  4213 
  13 1RawPitch                  Num   0%  55%  45%     0 /  0%   417 /  0%  4119 
  14 1SmPitch                   Num   0%  53%  47%     0 /  0%   263 /  0%  4193 
  15 1Melogram(st)              Num   0%  49%  51%     0 /  0%   133 /  0%  3454 
  16 1ZCross                    Num   0% 100%   0%     0 /  0%     4 /  0%    58 
  17 1F1(Hz)                    Num   0%  52%  48%     0 /  0%  1154 /  1%  4824 
  18 1F2(Hz)                    Num   0%  52%  48%     0 /  0%  2223 /  1%  6697 
  19 1F3(Hz)                    Num   0%  53%  47%     0 /  0%  1930 /  1%  6200 
  20 1F4(Hz)                    Num   0%  52%  48%     0 /  0%  1933 /  1%  6096 
  21 2Int(dB)                   Num   0%   9%  91%     0 /  0%     4 /  0%   781 
  22 2Pitch(Hz)                 Num   0%  51%  49%     0 /  0%   256 /  0%  4213 
  23 2RawPitch                  Num   0%  55%  45%     0 /  0%   417 /  0%  4119 
  24 2SmPitch                   Num   0%  53%  47%     0 /  0%   263 /  0%  4193 
  25 2Melogram(st)              Num   0%  49%  51%     0 /  0%   133 /  0%  3454 
  26 2ZCross                    Num   0% 100%   0%     0 /  0%     4 /  0%    58 
  27 2F1(Hz)                    Num   0%  52%  48%     0 /  0%  1154 /  1%  4824 
  28 2F2(Hz)                    Num   0%  52%  48%     0 /  0%  2223 /  1%  6697 
  29 2F3(Hz)                    Num   0%  53%  47%     0 /  0%  1930 /  1%  6200 
  30 2F4(Hz)                    Num   0%  52%  48%     0 /  0%  1933 /  1%  6096 
  31 3Int(dB)                   Num   0%   9%  91%     0 /  0%     3 /  0%   781 
  32 3Pitch(Hz)                 Num   0%  51%  49%     0 /  0%   256 /  0%  4213 
  33 3RawPitch                  Num   0%  55%  45%     0 /  0%   417 /  0%  4119 
  34 3SmPitch                   Num   0%  53%  47%     0 /  0%   263 /  0%  4193 
  35 3Melogram(st)              Num   0%  49%  51%     0 /  0%   133 /  0%  3454 
  36 3ZCross                    Num   0% 100%   0%     0 /  0%     4 /  0%    58 
  37 3F1(Hz)                    Num   0%  52%  48%     0 /  0%  1154 /  1%  4824 
  38 3F2(Hz)                    Num   0%  52%  48%     0 /  0%  2223 /  1%  6697 
  39 3F3(Hz)                    Num   0%  53%  47%     0 /  0%  1930 /  1%  6200 
  40 3F4(Hz)                    Num   0%  52%  48%     0 /  0%  1933 /  1%  6096 
  41 class                      Nom 100%   0%   0%     0 /  0%     0 /  0%    27 


Naive Bayes Classifier

                    Class
Attribute              ch        rr         0        hs        hg         a         c         b         e         d         g         f         i         j         m         l         o         n         q         p         s         r         u         t         v         y         z
                      (0)       (0)    (0.39)    (0.01)       (0)    (0.14)    (0.01)    (0.01)    (0.07)    (0.01)    (0.01)    (0.01)    (0.04)    (0.01)    (0.01)    (0.02)    (0.07)    (0.03)       (0)    (0.01)    (0.05)    (0.02)    (0.02)    (0.02)    (0.01)       (0)       (0)
==============================================================================================================================================================================================================================================================================================
0Int(dB)
  mean            -19.5666  -10.9658  -48.0284  -20.7672  -10.9795   -2.8366  -24.7338   -5.9397    -5.156   -7.8216   -7.6798  -22.0373   -8.7128  -15.7566    -7.579   -8.2395   -8.1103   -9.2351  -22.4192  -22.8859   -21.611  -11.8404   -5.2051  -25.7645   -9.2618  -16.4032  -26.8904
  std. dev.         8.3337    4.4218   16.4115   11.2342    6.2761       8.2    9.9769    4.2705    8.0597    6.1424    8.0044    5.4005    8.3473    6.1059    6.0073     5.636   12.1522    7.6335   11.3968   10.5588    6.5595    9.2639    7.7835   10.1092     6.794    4.8376    2.0309
  weight sum           854       217     72114      1950       492     26115      2715      1196     13740      2617      1083      1160      7083       979      2613      3210     13234      6308       840      2005      8826      4148      4137      3409      1401       890        65
  precision          0.104     0.104     0.104     0.104     0.104     0.104     0.104     0.104     0.104     0.104     0.104     0.104     0.104     0.104     0.104     0.104     0.104     0.104     0.104     0.104     0.104     0.104     0.104     0.104     0.104     0.104     0.104

0Pitch(Hz)
  mean             49.6818  245.3773   17.3157   81.9257  146.7705  226.5757   49.0548   216.118  189.7736  202.2308  211.9943   73.8488  172.5882  151.1848  194.2506  174.7154   178.609  189.9912    80.746   78.2049   44.4611  161.6747   228.829   66.6869  177.5696   111.698         0
  std. dev.        99.2224  121.8559   57.2256   86.8325   38.8547  103.7124   94.1977   72.4589   88.2344   84.4357   101.397   114.672   76.9615  132.2044   87.2188   64.2248  105.4051   90.1042  114.0389  114.3698   87.8248   95.4896   85.2298  108.2363   73.1054   69.3767    0.0197
  weight sum           854       217     72114      1950       492     26115      2715      1196     13740      2617      1083      1160      7083       979      2613      3210     13234      6308       840      2005      8826      4148      4137      3409      1401       890        65
  precision         0.1184    0.1184    0.1184    0.1184    0.1184    0.1184    0.1184    0.1184    0.1184    0.1184    0.1184    0.1184    0.1184    0.1184    0.1184    0.1184    0.1184    0.1184    0.1184    0.1184    0.1184    0.1184    0.1184    0.1184    0.1184    0.1184    0.1184

0RawPitch
  mean             32.5018  236.0757    14.197   63.7775  123.4267  216.9202   32.8589  213.5742  185.2743  195.4561   201.427   36.0017  164.8645   90.1788  183.1375  157.9927  172.7411  176.3862   42.0137   59.6769   24.2265  155.1674  220.0766   41.6877  162.9269   74.9562         0
  std. dev.        82.8515  132.0429   51.8738   84.4227   82.4596  110.2312   79.4949   76.3342   95.9379   95.6519  112.4598   78.0168   84.3754  112.8263   98.6998   79.2308  113.3437  103.8633   90.8006  107.5797   67.5976  103.9285   93.8332   89.8377   85.9872   77.8641    0.0202
  weight sum           854       217     72114      1950       492     26115      2715      1196     13740      2617      1083      1160      7083       979      2613      3210     13234      6308       840      2005      8826      4148      4137      3409      1401       890        65
  precision         0.1214    0.1214    0.1214    0.1214    0.1214    0.1214    0.1214    0.1214    0.1214    0.1214    0.1214    0.1214    0.1214    0.1214    0.1214    0.1214    0.1214    0.1214    0.1214    0.1214    0.1214    0.1214    0.1214    0.1214    0.1214    0.1214    0.1214

0SmPitch
  mean             46.5992  245.3787   15.6943    75.417  148.8892  224.8258   41.6299  216.1171  188.2045   201.549  210.2592   56.4322  170.1487  107.8807  191.3754  173.0105  176.3386  187.1666   62.9778   69.0826   37.0588  158.7153  228.2692   56.6221  173.2356  106.5353         0
  std. dev.         96.121  121.8511   53.5408   83.9189   36.3316  105.3349   89.1015   72.4588   89.4937   85.7427   103.382   97.0455   79.4942  137.1755   91.4496   66.3341  107.7071    92.902  105.3854   111.707   81.9046   97.0657    85.559  102.6207   78.0069   71.6633    0.0198
  weight sum           854       217     72114      1950       492     26115      2715      1196     13740      2617      1083      1160      7083       979      2613      3210     13234      6308       840      2005      8826      4148      4137      3409      1401       890        65
  precision          0.119     0.119     0.119     0.119     0.119     0.119     0.119     0.119     0.119     0.119     0.119     0.119     0.119     0.119     0.119     0.119     0.119     0.119     0.119     0.119     0.119     0.119     0.119     0.119     0.119     0.119     0.119

0Melogram(st)
  mean             13.8856   56.5787     5.085   25.1975   49.2482   53.1846   13.4952   55.0392   50.2797   52.9763   51.1648    19.877   48.3201   14.9255   50.9218   51.1435   46.5103   49.8235   17.5345    20.122   12.0801   42.8515   53.9044    15.959   50.4811   39.8366         0
  std. dev.        24.8325    9.0001   15.8399   25.0896    5.1019   14.8337   24.1762    8.0025   15.6601   11.4408    17.773   26.7526   16.4677   25.7219   14.5853    9.7018    20.538   16.7392   26.3152   27.2833   22.8853   22.5434   14.5585   25.8399   11.8509   18.6135     0.004
  weight sum           854       217     72114      1950       492     26115      2715      1196     13740      2617      1083      1160      7083       979      2613      3210     13234      6308       840      2005      8826      4148      4137      3409      1401       890        65
  precision         0.0239    0.0239    0.0239    0.0239    0.0239    0.0239    0.0239    0.0239    0.0239    0.0239    0.0239    0.0239    0.0239    0.0239    0.0239    0.0239    0.0239    0.0239    0.0239    0.0239    0.0239    0.0239    0.0239    0.0239    0.0239    0.0239    0.0239

0ZCross
  mean              8.6777    3.5122    0.2697    1.0155     3.338    7.8676    1.6517    4.1195    5.2602    4.0387    4.6038     0.643    3.7242    3.9403    2.8513     3.292    4.3728    2.4942    4.3355    0.9917    3.7306    3.2177    4.0672    0.7955    3.2146    1.5286         0
  std. dev.        12.8812    2.6981    1.1656    1.7591    2.5065    4.5337    3.7026    1.9292    3.3214     2.266    2.9055    1.5621    3.2959    3.9706    1.5348    2.0497    3.0812    1.6412    7.4045    2.2955     7.137      2.59    2.9913    1.6855    1.9738    1.7333    0.1696
  weight sum           854       217     72114      1950       492     26115      2715      1196     13740      2617      1083      1160      7083       979      2613      3210     13234      6308       840      2005      8826      4148      4137      3409      1401       890        65
  precision         1.0175    1.0175    1.0175    1.0175    1.0175    1.0175    1.0175    1.0175    1.0175    1.0175    1.0175    1.0175    1.0175    1.0175    1.0175    1.0175    1.0175    1.0175    1.0175    1.0175    1.0175    1.0175    1.0175    1.0175    1.0175    1.0175    1.0175

0F1(Hz)
  mean             124.167  606.5881   55.8179   378.685  446.2749  705.8243   90.5404  478.9012  462.5388  516.7579  492.6272  264.4883  360.2928   444.124  432.0847  470.9639  482.8394  465.3557  178.3956  224.9722  173.8205  482.5968  496.8631   111.174  481.2257  337.0908         0
  std. dev.       250.8915  136.6958  169.4373  300.8453   84.5743  257.6901  204.7318  133.0242  148.1545  153.4331  193.9443  332.3479  146.3199  346.6836  164.0808    140.68  227.5019  156.7121  245.0387  292.7793  278.7984  237.1766  309.9663  208.6493  171.6913  186.2824    0.0602
  weight sum           854       217     72114      1950       492     26115      2715      1196     13740      2617      1083      1160      7083       979      2613      3210     13234      6308       840      2005      8826      4148      4137      3409      1401       890        65
  precision         0.3611    0.3611    0.3611    0.3611    0.3611    0.3611    0.3611    0.3611    0.3611    0.3611    0.3611    0.3611    0.3611    0.3611    0.3611    0.3611    0.3611    0.3611    0.3611    0.3611    0.3611    0.3611    0.3611    0.3611    0.3611    0.3611    0.3611

0F2(Hz)
  mean            374.8217 1643.5051  174.7293 1090.8545 1936.0467 1455.5293  264.8082  1576.144 1779.4393 1484.0861 1686.7391  684.3629 1963.5585 1247.4115 1664.5025  1669.156 1137.9104 1596.5325  716.9711  667.8599  542.7718 1363.5164 1047.9548  371.4773 1561.6249 1331.2591         0
  std. dev.        725.166  128.2512  524.8427  846.7233   345.609  403.0801  613.2731  344.4458  536.6813  321.7117  597.1744  839.4816  681.2366  912.9462  440.7842  343.0715  538.8449  454.9968  955.3619  839.9206  845.0349  623.0939   431.069  678.5844  423.6554  674.6339    0.0741
  weight sum           854       217     72114      1950       492     26115      2715      1196     13740      2617      1083      1160      7083       979      2613      3210     13234      6308       840      2005      8826      4148      4137      3409      1401       890        65
  precision         0.4448    0.4448    0.4448    0.4448    0.4448    0.4448    0.4448    0.4448    0.4448    0.4448    0.4448    0.4448    0.4448    0.4448    0.4448    0.4448    0.4448    0.4448    0.4448    0.4448    0.4448    0.4448    0.4448    0.4448    0.4448    0.4448    0.4448

0F3(Hz)
  mean            619.5716 2864.8806  298.0229 1783.9908 2525.7729  2714.694  484.6864  2755.479 2611.7843 2868.1851  2890.525 1170.0091 2643.1271 1838.8875 2747.2284 2809.5983 2492.6874  2758.022 1071.2907 1135.2488   901.508 2370.6362 2662.0438  671.9788  2660.441 2289.2795         0
  std. dev.       1198.307  415.2862  879.9877 1322.4462  113.8892  742.2073 1084.5544  468.6151  798.7858  503.9898  939.5775 1430.0098  938.7899 1335.5073  573.4532  584.0878 1031.3021  673.6711 1391.6388 1414.6402 1387.6627  1089.751  804.1633 1215.7775  691.6824 1174.5646    0.1108
  weight sum           854       217     72114      1950       492     26115      2715      1196     13740      2617      1083      1160      7083       979      2613      3210     13234      6308       840      2005      8826      4148      4137      3409      1401       890        65
  precision         0.6646    0.6646    0.6646    0.6646    0.6646    0.6646    0.6646    0.6646    0.6646    0.6646    0.6646    0.6646    0.6646    0.6646    0.6646    0.6646    0.6646    0.6646    0.6646    0.6646    0.6646    0.6646    0.6646    0.6646    0.6646    0.6646    0.6646

0F4(Hz)
  mean             734.944 3238.9001  358.0734 2219.5188 3589.1338 3125.8677  560.8267 3299.5627 3147.1235 3322.3401  2929.932 1342.9207 3143.0541 2300.8985 3310.0964  3234.153 2868.4799 3166.4511 1295.6755 1351.9509 1019.0673 2744.2337 3051.8664    772.79 3226.3282 2658.6493         0
  std. dev.      1421.4863  406.0873  1054.913 1631.9181   90.4836  842.1081  1257.139  441.4121  928.5918  551.1434  954.1641 1630.9916 1074.2428 1659.0476  621.7743  592.5128 1169.7236  776.9986 1694.3777 1663.4524 1566.5033 1208.1006  828.8457 1403.1384  729.9902 1353.0309    0.1134
  weight sum           854       217     72114      1950       492     26115      2715      1196     13740      2617      1083      1160      7083       979      2613      3210     13234      6308       840      2005      8826      4148      4137      3409      1401       890        65
  precision         0.6804    0.6804    0.6804    0.6804    0.6804    0.6804    0.6804    0.6804    0.6804    0.6804    0.6804    0.6804    0.6804    0.6804    0.6804    0.6804    0.6804    0.6804    0.6804    0.6804    0.6804    0.6804    0.6804    0.6804    0.6804    0.6804    0.6804

1Int(dB)
  mean            -19.4137  -11.0618  -48.0653  -20.9984  -10.8917   -2.8333   -24.362   -5.9081   -5.1527   -7.7772   -7.6912  -22.1144   -8.6835  -15.7812   -7.5641   -8.2368   -8.1232   -9.3163  -22.0593  -22.6392  -21.6827  -11.8724   -5.1335  -25.3356   -9.1923   -16.376  -26.8607
  std. dev.          8.249    4.3873   16.3663   11.2536    6.3361    8.1621   10.0114    4.2787    8.0415    6.1585    8.0009    5.3424     8.344    6.0954    5.9874    5.6804   12.1734     7.699   11.2702   10.6224     6.534    9.3204    7.6759    10.311    6.6721    4.7913    1.9776
  weight sum           854       217     72114      1950       492     26115      2715      1196     13740      2617      1083      1160      7083       979      2613      3210     13234      6308       840      2005      8826      4148      4137      3409      1401       890        65
  precision         0.1039    0.1039    0.1039    0.1039    0.1039    0.1039    0.1039    0.1039    0.1039    0.1039    0.1039    0.1039    0.1039    0.1039    0.1039    0.1039    0.1039    0.1039    0.1039    0.1039    0.1039    0.1039    0.1039    0.1039    0.1039    0.1039    0.1039

1Pitch(Hz)
  mean             50.7934  245.4172    17.139   80.5664  147.0326  226.6316   52.2284  216.1402  190.0442  202.2132  211.9162   72.5843  172.8092  150.8264  194.3592  174.7367  178.3926  189.5523   82.6862   78.8393   43.4348  161.7823  229.1151   69.6188  178.0226  111.7473         0
  std. dev.       100.0659  122.0858   56.9508   86.5944   39.1455  103.6375   96.6772   72.3698   88.0362   84.4717  101.6738  114.0976   76.7258  132.0925   87.2448   64.1343  105.3465   90.4331  115.1836  114.0226    87.066   95.6159   84.6861  109.6797   72.5141   69.3822    0.0197
  weight sum           854       217     72114      1950       492     26115      2715      1196     13740      2617      1083      1160      7083       979      2613      3210     13234      6308       840      2005      8826      4148      4137      3409      1401       890        65
  precision         0.1184    0.1184    0.1184    0.1184    0.1184    0.1184    0.1184    0.1184    0.1184    0.1184    0.1184    0.1184    0.1184    0.1184    0.1184    0.1184    0.1184    0.1184    0.1184    0.1184    0.1184    0.1184    0.1184    0.1184    0.1184    0.1184    0.1184

1RawPitch
  mean             33.0973  236.2089   14.0526   62.4429   124.418  216.9867   35.2563  213.7548  185.3904  195.4751  201.4818   34.9874  165.1915    89.613  183.2168  158.0045  172.5714  175.7375     43.79    60.771   23.2296  155.1303  220.3812   44.6844  163.4211   75.4426         0
  std. dev.        83.3058  132.1702   51.6501   83.8815   83.3131  110.1795   82.0594    76.047   95.8388   95.5093  112.5636   76.8413   84.2064  112.4484   98.7768   79.3558  113.2081  104.1967   92.5923  107.7831    66.269  104.1269   93.3578   92.3617   85.3825   77.8937    0.0202
  weight sum           854       217     72114      1950       492     26115      2715      1196     13740      2617      1083      1160      7083       979      2613      3210     13234      6308       840      2005      8826      4148      4137      3409      1401       890        65
  precision         0.1214    0.1214    0.1214    0.1214    0.1214    0.1214    0.1214    0.1214    0.1214    0.1214    0.1214    0.1214    0.1214    0.1214    0.1214    0.1214    0.1214    0.1214    0.1214    0.1214    0.1214    0.1214    0.1214    0.1214    0.1214    0.1214    0.1214

1SmPitch
  mean             47.5147  245.4181   15.5185   74.0591  149.1505  224.9108   44.5704  216.1401  188.5286  201.5673  210.3612   55.1646  170.4162  107.5252  191.3561  172.9259  176.1475  186.6494    64.577   69.6791    35.951  158.8033  228.5834   59.6771   173.751  106.5791         0
  std. dev.        96.9604  122.0815   53.2523   83.5672   36.6275  105.2152   91.8403   72.3699   89.2681   85.7059  103.4558   96.1306   79.2706  136.9531   91.6579   66.3878  107.6301    93.263  106.6957  111.3671   80.8658   97.1978   85.0153  104.4676   77.4465    71.673    0.0198
  weight sum           854       217     72114      1950       492     26115      2715      1196     13740      2617      1083      1160      7083       979      2613      3210     13234      6308       840      2005      8826      4148      4137      3409      1401       890        65
  precision          0.119     0.119     0.119     0.119     0.119     0.119     0.119     0.119     0.119     0.119     0.119     0.119     0.119     0.119     0.119     0.119     0.119     0.119     0.119     0.119     0.119     0.119     0.119     0.119     0.119     0.119     0.119

1Melogram(st)
  mean             14.0879   56.5682    5.0369   24.8271   49.3841   53.2261   14.1044   55.0436   50.3338   53.0058   51.1216   19.6032   48.3994   14.7722    50.934   51.1089   46.4929    49.705    17.948   20.3846   11.7906   42.8576   54.0407   16.6371   50.6069   39.8445         0
  std. dev.        24.9544    9.0181   15.7744   25.0716    4.6172   14.7485   24.5718     7.999    15.575    11.354   17.8431   26.6747   16.3496    25.655    14.588    9.7835   20.5401   16.8983   26.4945   27.3127   22.6993   22.5475   14.2925   26.1573   11.6158   18.6162     0.004
  weight sum           854       217     72114      1950       492     26115      2715      1196     13740      2617      1083      1160      7083       979      2613      3210     13234      6308       840      2005      8826      4148      4137      3409      1401       890        65
  precision         0.0239    0.0239    0.0239    0.0239    0.0239    0.0239    0.0239    0.0239    0.0239    0.0239    0.0239    0.0239    0.0239    0.0239    0.0239    0.0239    0.0239    0.0239    0.0239    0.0239    0.0239    0.0239    0.0239    0.0239    0.0239    0.0239    0.0239

1ZCross
  mean               8.717    3.4981    0.2663    0.9935    3.3815    7.8631       1.7    4.1467    5.2522    4.0659    4.6038    0.6289    3.7306    3.9299    2.8552     3.292    4.3707    2.4764    4.3657    1.0231    3.7282    3.2126    4.0724    0.8683    3.2255    1.5355         0
  std. dev.        12.8804    2.7049     1.162    1.7502    2.5308    4.5366    3.7118    1.9413    3.3232    2.2648     2.893    1.5506    3.2938    3.9692    1.5319    2.0373    3.0828    1.6373    7.3826    2.2954    7.1411    2.5862    2.9865    1.7564    1.9719     1.732    0.1696
  weight sum           854       217     72114      1950       492     26115      2715      1196     13740      2617      1083      1160      7083       979      2613      3210     13234      6308       840      2005      8826      4148      4137      3409      1401       890        65
  precision         1.0175    1.0175    1.0175    1.0175    1.0175    1.0175    1.0175    1.0175    1.0175    1.0175    1.0175    1.0175    1.0175    1.0175    1.0175    1.0175    1.0175    1.0175    1.0175    1.0175    1.0175    1.0175    1.0175    1.0175    1.0175    1.0175    1.0175

1F1(Hz)
  mean            121.6061  608.4303   55.2559  374.0311  446.3233  707.9926   93.3661  479.2744  463.9738  517.1175  492.1557  259.1234  361.4648  442.6371  431.8669  470.4567  484.0118  463.2043  178.6858  225.0223  168.9797  481.7612  498.5025  112.7397  481.3045    336.78         0
  std. dev.       248.3444  137.2592  168.6112  301.9726   85.2327  255.4631  207.1849  132.8724  146.1336  153.4041   194.247  331.0026  144.5804  348.1936  163.6214  139.6711  226.7963  156.8499   245.195  291.9111  276.3136  236.7371  308.2875  209.9747  170.2068  185.9761    0.0602
  weight sum           854       217     72114      1950       492     26115      2715      1196     13740      2617      1083      1160      7083       979      2613      3210     13234      6308       840      2005      8826      4148      4137      3409      1401       890        65
  precision         0.3611    0.3611    0.3611    0.3611    0.3611    0.3611    0.3611    0.3611    0.3611    0.3611    0.3611    0.3611    0.3611    0.3611    0.3611    0.3611    0.3611    0.3611    0.3611    0.3611    0.3611    0.3611    0.3611    0.3611    0.3611    0.3611    0.3611

1F2(Hz)
  mean            369.0814 1639.9217  173.0699  1077.349 1933.7501 1458.6488  272.5047 1574.5004 1786.3109  1484.039 1683.9156  671.9378 1973.7484 1237.5226 1665.4019 1669.8433 1138.3786 1594.1783  716.3684  668.0649  528.2133 1363.9975 1052.4199  376.3264 1567.0875 1332.5302         0
  std. dev.       721.6568  127.4157  522.6817  849.7278  346.2648  397.2685   619.183   344.113  528.1199  322.7423  599.3204  837.2947  671.6296  914.2406  437.4764   339.553  536.2083  457.2799  954.2634    837.81  838.4578  623.5588  425.1574  682.8044  416.2243  675.2365    0.0741
  weight sum           854       217     72114      1950       492     26115      2715      1196     13740      2617      1083      1160      7083       979      2613      3210     13234      6308       840      2005      8826      4148      4137      3409      1401       890        65
  precision         0.4448    0.4448    0.4448    0.4448    0.4448    0.4448    0.4448    0.4448    0.4448    0.4448    0.4448    0.4448    0.4448    0.4448    0.4448    0.4448    0.4448    0.4448    0.4448    0.4448    0.4448    0.4448    0.4448    0.4448    0.4448    0.4448    0.4448

1F3(Hz)
  mean            607.6728 2865.3461  295.0903 1761.5658 2524.8787 2720.7293  499.9091 2754.6172 2620.1056 2867.8184  2887.372 1146.9885 2654.8736 1826.5929 2747.4266 2812.5933 2496.9201 2754.3718 1070.6095 1137.1107  876.8981 2370.7761 2674.1003  678.7491 2668.1438 2289.2593         0
  std. dev.      1187.6252  417.5591  876.1347 1328.8807  113.6133  732.0431 1097.3957  468.8957  787.0306   507.148  943.5462 1424.3085  926.0878 1338.1872  568.4352  580.6592 1027.3116  679.2964 1390.7803 1412.7108 1376.5073 1090.3771  785.3599 1220.0156  678.3081 1174.3712    0.1108
  weight sum           854       217     72114      1950       492     26115      2715      1196     13740      2617      1083      1160      7083       979      2613      3210     13234      6308       840      2005      8826      4148      4137      3409      1401       890        65
  precision         0.6646    0.6646    0.6646    0.6646    0.6646    0.6646    0.6646    0.6646    0.6646    0.6646    0.6646    0.6646    0.6646    0.6646    0.6646    0.6646    0.6646    0.6646    0.6646    0.6646    0.6646    0.6646    0.6646    0.6646    0.6646    0.6646    0.6646

1F4(Hz)
  mean            723.8864 3237.1913  354.6277 2192.0951 3589.4837 3132.5114  580.0975 3299.1241  3156.326 3321.3909 2928.1402 1318.0881 3155.7849 2287.8591 3311.9965 3236.6933 2872.8522  3162.836 1294.4175 1357.5651  991.8696 2743.6078 3065.6415  781.3509 3235.9969   2658.91         0
  std. dev.      1414.6824  403.9693 1050.4946 1640.4181   90.1376  830.1868 1275.2872  440.7006  913.7122  554.7594  958.8293 1626.5593 1058.3659 1664.3819   615.418  587.0344 1164.6509  784.2691 1692.5355 1665.0433 1554.9073 1208.9724  804.1571 1409.5459  709.7605 1353.3023    0.1134
  weight sum           854       217     72114      1950       492     26115      2715      1196     13740      2617      1083      1160      7083       979      2613      3210     13234      6308       840      2005      8826      4148      4137      3409      1401       890        65
  precision         0.6804    0.6804    0.6804    0.6804    0.6804    0.6804    0.6804    0.6804    0.6804    0.6804    0.6804    0.6804    0.6804    0.6804    0.6804    0.6804    0.6804    0.6804    0.6804    0.6804    0.6804    0.6804    0.6804    0.6804    0.6804    0.6804    0.6804

2Int(dB)
  mean            -19.2461   -11.137  -48.0905  -21.2263  -10.7936   -2.8369  -23.9747   -5.8726   -5.1597   -7.7263   -7.7014  -22.1756   -8.6607  -15.7973   -7.5452   -8.2279   -8.1449    -9.398  -21.6971  -22.3737  -21.7426  -11.8923   -5.0726  -24.8849   -9.1191  -16.3413  -26.8486
  std. dev.         8.1796    4.3722   16.3156   11.2739    6.3902    8.1342   10.0531    4.2886    8.0314    6.1746    7.9943    5.2897    8.3453    6.1002    5.9714     5.731   12.1979    7.7661   11.1815   10.6909      6.52    9.3872    7.5754   10.5207    6.5755    4.7539    1.9432
  weight sum           854       217     72114      1950       492     26115      2715      1196     13740      2617      1083      1160      7083       979      2613      3210     13234      6308       840      2005      8826      4148      4137      3409      1401       890        65
  precision         0.1037    0.1037    0.1037    0.1037    0.1037    0.1037    0.1037    0.1037    0.1037    0.1037    0.1037    0.1037    0.1037    0.1037    0.1037    0.1037    0.1037    0.1037    0.1037    0.1037    0.1037    0.1037    0.1037    0.1037    0.1037    0.1037    0.1037

2Pitch(Hz)
  mean             52.0668  245.4548   16.9612   79.2185  147.3103  226.6395   55.4702  216.1585   190.258  202.1991  211.8357   71.3211  173.0302   150.472  194.4694  174.6963  178.1206  189.1164   84.6126    80.036   42.5825  161.8374  229.3502   72.6725  178.4924  111.8035         0
  std. dev.       100.8809  122.3156   56.6737   86.3447   39.4441  103.6004   99.0189   72.2735   87.8928   84.5042  101.9447  113.5143   76.4927   131.986   87.2682   64.1196   105.326   90.7617  116.2629  113.8479   86.4703   95.7751   84.2123  111.0321   71.9353   69.3897    0.0197
  weight sum           854       217     72114      1950       492     26115      2715      1196     13740      2617      1083      1160      7083       979      2613      3210     13234      6308       840      2005      8826      4148      4137      3409      1401       890        65
  precision         0.1184    0.1184    0.1184    0.1184    0.1184    0.1184    0.1184    0.1184    0.1184    0.1184    0.1184    0.1184    0.1184    0.1184    0.1184    0.1184    0.1184    0.1184    0.1184    0.1184    0.1184    0.1184    0.1184    0.1184    0.1184    0.1184    0.1184

2RawPitch
  mean             33.7924  235.9727   13.9204   61.1382  124.8483    217.01   38.0279  213.8557  185.5139   195.358  201.5101    33.977  165.4701   89.1819  183.2907  157.9993   172.363  175.0884   45.7874   62.1014   22.2867  154.9441  220.5579   47.8946  163.7864   76.0122         0
  std. dev.         83.892  132.6662   51.4525   83.3164   83.0866  110.1658   85.1904   75.9087   95.7233   95.4733  112.6818   75.6446   84.0796  112.0342   98.8447   79.5776  113.1234  104.5373    94.598  108.0571   64.9857  104.3173   92.9298   94.6875   84.8654   77.9953    0.0202
  weight sum           854       217     72114      1950       492     26115      2715      1196     13740      2617      1083      1160      7083       979      2613      3210     13234      6308       840      2005      8826      4148      4137      3409      1401       890        65
  precision         0.1214    0.1214    0.1214    0.1214    0.1214    0.1214    0.1214    0.1214    0.1214    0.1214    0.1214    0.1214    0.1214    0.1214    0.1214    0.1214    0.1214    0.1214    0.1214    0.1214    0.1214    0.1214    0.1214    0.1214    0.1214    0.1214    0.1214

2SmPitch
  mean             48.5925   245.456   15.3491   72.7123  149.4291  224.9616   47.6363  216.1584  188.8112   201.591  210.4603   53.8979  170.6319  107.1725  191.3387  172.7801  175.8934  186.0285   66.1833   70.8391   35.0362  158.8398  228.8462   62.7585  174.2832  106.6286         0
  std. dev.        97.7825    122.31   52.9681   83.2033   36.9317   105.126    94.459   72.2735   89.0812   85.6638  103.5242   95.1992   79.0959  136.7364   91.8633   66.5132   107.593   93.7073  107.9794  111.2508   80.0251   97.3601   84.5411  106.1799   76.8976   71.6849    0.0198
  weight sum           854       217     72114      1950       492     26115      2715      1196     13740      2617      1083      1160      7083       979      2613      3210     13234      6308       840      2005      8826      4148      4137      3409      1401       890        65
  precision          0.119     0.119     0.119     0.119     0.119     0.119     0.119     0.119     0.119     0.119     0.119     0.119     0.119     0.119     0.119     0.119     0.119     0.119     0.119     0.119     0.119     0.119     0.119     0.119     0.119     0.119     0.119

2Melogram(st)
  mean             14.3562   56.5592     4.986   24.4577   49.4109   53.2506   14.7332   55.0479    50.379   53.0359   51.0783   19.3291   48.4716   14.7356   50.9466   51.0881   46.4586   49.5865    18.431   20.7372   11.5578    42.876     54.16   17.3439   50.7346   39.8539         0
  std. dev.        25.1102    9.0368   15.7047   25.0491    4.6372   14.6917   24.9554     7.995   15.5007   11.2662   17.9128   26.5935   16.2405    25.656   14.5906    9.8243   20.5573   17.0551   26.6943   27.3707     22.55   22.5422   14.0434   26.4609   11.3756   18.6194     0.004
  weight sum           854       217     72114      1950       492     26115      2715      1196     13740      2617      1083      1160      7083       979      2613      3210     13234      6308       840      2005      8826      4148      4137      3409      1401       890        65
  precision         0.0239    0.0239    0.0239    0.0239    0.0239    0.0239    0.0239    0.0239    0.0239    0.0239    0.0239    0.0239    0.0239    0.0239    0.0239    0.0239    0.0239    0.0239    0.0239    0.0239    0.0239    0.0239    0.0239    0.0239    0.0239    0.0239    0.0239

2ZCross
  mean              8.7575    3.5075    0.2635    0.9737    3.4187    7.8565    1.7503     4.174    5.2408     4.097    4.6029     0.614    3.7393    3.9195    2.8571    3.2977    4.3663    2.4622    4.3936    1.0592    3.7228    3.2131    4.0771    0.9441    3.2386    1.5446         0
  std. dev.        12.8748    2.7122    1.1594    1.7416    2.5423    4.5414    3.7194     1.952    3.3253    2.2657    2.8824    1.5338    3.2999    3.9677    1.5274    2.0313     3.087    1.6387    7.3581    2.2987     7.143    2.5871    2.9819    1.8242    1.9711    1.7332    0.1696
  weight sum           854       217     72114      1950       492     26115      2715      1196     13740      2617      1083      1160      7083       979      2613      3210     13234      6308       840      2005      8826      4148      4137      3409      1401       890        65
  precision         1.0175    1.0175    1.0175    1.0175    1.0175    1.0175    1.0175    1.0175    1.0175    1.0175    1.0175    1.0175    1.0175    1.0175    1.0175    1.0175    1.0175    1.0175    1.0175    1.0175    1.0175    1.0175    1.0175    1.0175    1.0175    1.0175    1.0175

2F1(Hz)
  mean            119.0453  610.2726    54.696  369.3806  446.4562  709.9451   96.7676  479.7554  465.3474  517.5928  491.6485  253.7586  362.5437   441.169  431.7023  469.9812  485.0896  461.0344   178.976  225.3731  164.2283  481.0339  499.8715  115.8207  481.5242  336.4757         0
  std. dev.       245.7442  137.7957  167.7982  303.0257   85.8982  253.5114  210.0239  132.7483  144.1266  153.4125  194.5674  329.5646  142.9356  349.6979  163.1554  138.6687  226.1543  157.0684  245.3509  291.1141  273.7313  236.1936  306.7882  212.4052  168.6742  185.6772    0.0602
  weight sum           854       217     72114      1950       492     26115      2715      1196     13740      2617      1083      1160      7083       979      2613      3210     13234      6308       840      2005      8826      4148      4137      3409      1401       890        65
  precision         0.3611    0.3611    0.3611    0.3611    0.3611    0.3611    0.3611    0.3611    0.3611    0.3611    0.3611    0.3611    0.3611    0.3611    0.3611    0.3611    0.3611    0.3611    0.3611    0.3611    0.3611    0.3611    0.3611    0.3611    0.3611    0.3611    0.3611

2F2(Hz)
  mean            363.3411 1636.3383  171.3484 1063.8206  1931.421 1461.2516  282.0003 1573.1525 1793.0334 1484.0603 1681.1007  659.5127 1983.2786 1227.7023 1666.3384 1670.5036  1138.672 1591.5726  715.7657  669.0664  514.0321 1364.9711 1056.4734   386.335 1572.7594 1333.8093         0
  std. dev.       718.0845  126.4731   520.371  852.4815  346.9034  392.1592  626.6308  343.7654  519.5885  323.8039  601.4811  834.9172  662.5587  915.4801  434.1956  336.0066  533.7441  459.9848  953.1633  835.8385  831.7399  623.7455  419.7581  690.7237  408.7214  675.8375    0.0741
  weight sum           854       217     72114      1950       492     26115      2715      1196     13740      2617      1083      1160      7083       979      2613      3210     13234      6308       840      2005      8826      4148      4137      3409      1401       890        65
  precision         0.4448    0.4448    0.4448    0.4448    0.4448    0.4448    0.4448    0.4448    0.4448    0.4448    0.4448    0.4448    0.4448    0.4448    0.4448    0.4448    0.4448    0.4448    0.4448    0.4448    0.4448    0.4448    0.4448    0.4448    0.4448    0.4448    0.4448

2F3(Hz)
  mean             595.774 2865.8116  292.1142 1739.1394 2524.0898 2725.9366  517.9505  2753.747 2628.2257 2867.5444 2884.2338 1123.9679 2665.7831 1814.2908 2747.6651 2815.5603 2500.7441 2750.3101 1069.9283 1140.4886  852.9205 2371.5583 2684.8467  693.5855 2675.9477 2289.2198         0
  std. dev.      1176.7261  419.8192  872.1883 1334.9066  113.2976  723.2634 1111.8204   469.172  775.3306  510.3194  947.4571 1418.2106  914.1503 1340.7453  563.3729  577.1912 1023.7463  685.7233 1389.9209 1411.2331 1365.0692 1090.3764  768.1272 1228.7623  664.5544 1174.1718    0.1108
  weight sum           854       217     72114      1950       492     26115      2715      1196     13740      2617      1083      1160      7083       979      2613      3210     13234      6308       840      2005      8826      4148      4137      3409      1401       890        65
  precision         0.6646    0.6646    0.6646    0.6646    0.6646    0.6646    0.6646    0.6646    0.6646    0.6646    0.6646    0.6646    0.6646    0.6646    0.6646    0.6646    0.6646    0.6646    0.6646    0.6646    0.6646    0.6646    0.6646    0.6646    0.6646    0.6646    0.6646

2F4(Hz)
  mean            712.8288 3235.4824  351.1341 2164.6724 3589.9691 3138.0998  603.2762 3298.5717  3165.364 3320.3356 2926.4358 1293.2555 3167.5238 2274.7614 3313.8921 3239.2282 2876.6923 3158.6565 1293.1596 1364.3293  965.4569 2743.8027 3077.7233  800.1838 3245.6604 2659.1608         0
  std. dev.      1407.7589  401.8328 1045.9839 1648.4189   89.6674  819.8326 1296.4012  440.2602  898.8907  558.3815  963.4929 1621.7347 1043.4405 1669.5538  608.9784  581.4997 1160.0433  792.4391 1690.6904 1666.4146 1543.1362 1209.1445  781.3188  1422.858  688.8197 1353.5672    0.1134
  weight sum           854       217     72114      1950       492     26115      2715      1196     13740      2617      1083      1160      7083       979      2613      3210     13234      6308       840      2005      8826      4148      4137      3409      1401       890        65
  precision         0.6804    0.6804    0.6804    0.6804    0.6804    0.6804    0.6804    0.6804    0.6804    0.6804    0.6804    0.6804    0.6804    0.6804    0.6804    0.6804    0.6804    0.6804    0.6804    0.6804    0.6804    0.6804    0.6804    0.6804    0.6804    0.6804    0.6804

3Int(dB)
  mean            -19.0693  -11.1929  -48.1181  -21.4539  -10.6857   -2.8485  -23.5795   -5.8343   -5.1788   -7.6697   -7.7106  -22.2242    -8.647  -15.8035   -7.5286   -8.2156   -8.1757    -9.481  -21.3191  -22.0995   -21.795  -11.9049   -5.0188  -24.4128   -9.0381  -16.3031  -26.8422
  std. dev.          8.129    4.3665   16.2754   11.2925    6.4451    8.1159    10.105    4.2962    8.0296    6.1925    7.9841    5.2537    8.3528    6.1174    5.9642     5.786   12.2243    7.8348   11.1005   10.7676    6.5211    9.4638    7.4803   10.7318    6.4921    4.7228    1.9264
  weight sum           854       217     72114      1950       492     26115      2715      1196     13740      2617      1083      1160      7083       979      2613      3210     13234      6308       840      2005      8826      4148      4137      3409      1401       890        65
  precision         0.1037    0.1037    0.1037    0.1037    0.1037    0.1037    0.1037    0.1037    0.1037    0.1037    0.1037    0.1037    0.1037    0.1037    0.1037    0.1037    0.1037    0.1037    0.1037    0.1037    0.1037    0.1037    0.1037    0.1037    0.1037    0.1037    0.1037

3Pitch(Hz)
  mean             53.6149  245.5105   16.7882   77.8783  147.6037  226.6268   58.8245  216.1852  190.4015  202.1811  211.7569   70.3188  173.2101  150.1202  194.5754  174.6634  177.8211  188.6283   86.5438   81.2312   41.8358  161.9416  229.5826   75.8013  178.8654  111.8696         0
  std. dev.       101.8479  122.5449   56.4058   86.0819   39.7611  103.5824  101.3106   72.1796   87.7758    84.529   102.216  113.1138   76.2773  131.8831   87.2898   64.1077  105.3227   91.1347  117.3053  113.6613     85.96   95.8855   83.7347  112.3277   71.5113   69.4017    0.0197
  weight sum           854       217     72114      1950       492     26115      2715      1196     13740      2617      1083      1160      7083       979      2613      3210     13234      6308       840      2005      8826      4148      4137      3409      1401       890        65
  precision         0.1184    0.1184    0.1184    0.1184    0.1184    0.1184    0.1184    0.1184    0.1184    0.1184    0.1184    0.1184    0.1184    0.1184    0.1184    0.1184    0.1184    0.1184    0.1184    0.1184    0.1184    0.1184    0.1184    0.1184    0.1184    0.1184    0.1184

3RawPitch
  mean             34.6937  235.8698   13.7659   59.8825  125.1561  217.0254   40.9928  213.8567  185.6605  195.1733  201.5228   32.8638  165.7379   88.7789  183.3567  157.9095  172.1393  174.5068   47.7808   63.4782   21.4572  154.7487  220.7885   51.0815  164.1606   76.6678         0
  std. dev.         84.628  133.0649   51.2118   82.7749   82.8749  110.1492   88.2877   75.8797   95.6276   95.4762  112.8537   74.3015   83.9735   111.652   98.9332   79.7395  113.0491  104.8628   96.5154  108.1378   63.8258  104.4982   92.5273   96.7696   84.2928   78.1874    0.0202
  weight sum           854       217     72114      1950       492     26115      2715      1196     13740      2617      1083      1160      7083       979      2613      3210     13234      6308       840      2005      8826      4148      4137      3409      1401       890        65
  precision         0.1214    0.1214    0.1214    0.1214    0.1214    0.1214    0.1214    0.1214    0.1214    0.1214    0.1214    0.1214    0.1214    0.1214    0.1214    0.1214    0.1214    0.1214    0.1214    0.1214    0.1214    0.1214    0.1214    0.1214    0.1214    0.1214    0.1214

3SmPitch
  mean             49.6608  245.5113   15.1797   71.3735  149.7231  224.9976   50.8815   216.185  189.0092  201.6147  210.5612   52.8846  170.7795  106.8215  191.3175  172.6418  175.6214  185.4113   67.7951   72.1021   34.2779   158.903  229.0387   65.8327  174.8258  106.6879         0
  std. dev.        98.5681  122.5397   52.6867   82.8258    37.254  105.0568   97.0589   72.1793   88.9353     85.61  103.5941   94.5125    78.963  136.5236   92.0664   66.6408  107.5646   94.1494   109.231  111.1535   79.3177   97.5018   84.1352  107.7671   76.3484    71.702    0.0198
  weight sum           854       217     72114      1950       492     26115      2715      1196     13740      2617      1083      1160      7083       979      2613      3210     13234      6308       840      2005      8826      4148      4137      3409      1401       890        65
  precision          0.119     0.119     0.119     0.119     0.119     0.119     0.119     0.119     0.119     0.119     0.119     0.119     0.119     0.119     0.119     0.119     0.119     0.119     0.119     0.119     0.119     0.119     0.119     0.119     0.119     0.119     0.119

3Melogram(st)
  mean             14.6917   56.5513    4.9364    24.089   49.4391   53.2675   15.3806   55.0532   50.4242   53.0658   51.0349   19.1087   48.5268    14.765   50.9591   51.0681   46.3993   49.4588    18.914   21.0764   11.3511   42.8927   54.2789   18.1163   50.8281   39.8644         0
  std. dev.        25.2998     9.055    15.636    25.022    4.6578   14.6493   25.3248    7.9909   15.4261   11.1774   17.9822    26.534   16.1496   25.7022   14.5933    9.8647   20.5969   17.2205   26.8841   27.4078   22.4179   22.5367   13.7888    26.768    11.212   18.6232     0.004
  weight sum           854       217     72114      1950       492     26115      2715      1196     13740      2617      1083      1160      7083       979      2613      3210     13234      6308       840      2005      8826      4148      4137      3409      1401       890        65
  precision         0.0239    0.0239    0.0239    0.0239    0.0239    0.0239    0.0239    0.0239    0.0239    0.0239    0.0239    0.0239    0.0239    0.0239    0.0239    0.0239    0.0239    0.0239    0.0239    0.0239    0.0239    0.0239    0.0239    0.0239    0.0239    0.0239    0.0239

3ZCross
  mean              8.7945    3.5215    0.2613    0.9554     3.458    7.8466    1.7978    4.2072    5.2275    4.1262     4.602       0.6    3.7468    3.9112    2.8599    3.3005    4.3624    2.4508    4.4154    1.1013    3.7182    3.2182    4.0827    1.0268    3.2545     1.556         0
  std. dev.        12.8628    2.7177     1.158    1.7326    2.5541    4.5485    3.7224    1.9666     3.329    2.2672    2.8724    1.5154    3.3104    3.9682    1.5248    2.0175    3.0942    1.6439    7.3309    2.3038    7.1446    2.5912    2.9766    1.8967    1.9703    1.7331    0.1696
  weight sum           854       217     72114      1950       492     26115      2715      1196     13740      2617      1083      1160      7083       979      2613      3210     13234      6308       840      2005      8826      4148      4137      3409      1401       890        65
  precision         1.0175    1.0175    1.0175    1.0175    1.0175    1.0175    1.0175    1.0175    1.0175    1.0175    1.0175    1.0175    1.0175    1.0175    1.0175    1.0175    1.0175    1.0175    1.0175    1.0175    1.0175    1.0175    1.0175    1.0175    1.0175    1.0175    1.0175

3F1(Hz)
  mean            117.8655  612.1148    54.146  364.7313  446.6639  711.8181   100.516  480.1591   466.604  518.0523  491.6499  248.3937  363.6076  439.5832  431.5642  469.5534   485.985  458.9035  179.8985  225.7231  159.6277  480.1411  501.0702  119.4161  481.9773  336.1847         0
  std. dev.       244.1103  138.3056   167.002  304.0067   86.6805  251.6267  212.9908  132.6334  142.2478   153.457  194.3911  328.0324  141.3453  351.0043  162.7076    137.64  225.6523   157.255  245.7108  290.3141  271.0649  235.7298  305.5336   215.237  167.0079  185.3977    0.0602
  weight sum           854       217     72114      1950       492     26115      2715      1196     13740      2617      1083      1160      7083       979      2613      3210     13234      6308       840      2005      8826      4148      4137      3409      1401       890        65
  precision         0.3611    0.3611    0.3611    0.3611    0.3611    0.3611    0.3611    0.3611    0.3611    0.3611    0.3611    0.3611    0.3611    0.3611    0.3611    0.3611    0.3611    0.3611    0.3611    0.3611    0.3611    0.3611    0.3611    0.3611    0.3611    0.3611    0.3611

3F2(Hz)
  mean            361.5815 1632.7549  169.6379 1050.2838   1928.94 1463.7337  292.1848 1572.4123 1799.2434 1484.1145 1680.0266  647.0877 1992.3968 1218.1002 1667.4462 1671.0258  1138.609 1588.9417  717.5218  670.0462  500.4451 1365.5147 1060.1575  397.8192 1578.5615 1335.0998         0
  std. dev.       717.1972  125.4212  518.0423    855.01    347.64  387.1874  634.0404  343.7643  511.5475  324.8835  601.5161  832.3474  653.6523  916.7891  430.8522  332.5965   531.629  462.6799  952.7368  833.8404  825.0266   624.257  414.9703  699.3765  400.9497  676.4383    0.0741
  weight sum           854       217     72114      1950       492     26115      2715      1196     13740      2617      1083      1160      7083       979      2613      3210     13234      6308       840      2005      8826      4148      4137      3409      1401       890        65
  precision         0.4448    0.4448    0.4448    0.4448    0.4448    0.4448    0.4448    0.4448    0.4448    0.4448    0.4448    0.4448    0.4448    0.4448    0.4448    0.4448    0.4448    0.4448    0.4448    0.4448    0.4448    0.4448    0.4448    0.4448    0.4448    0.4448    0.4448

3F3(Hz)
  mean            589.9024 2866.2771  289.1672 1716.7103 2523.2929 2730.9563  537.8201  2752.944 2635.6414 2867.2678 2884.1098 1100.9472 2676.2267  1801.929 2747.9045 2818.5543 2503.6829 2746.2749 1072.4324 1143.8554  830.1185 2371.4578 2694.2989  711.3029 2683.8208 2289.1003         0
  std. dev.      1169.2259  422.0667   868.226 1340.5272   112.982  714.7452 1126.9157  469.4092   764.297   513.436  947.3313  1411.711   902.456 1343.1512  558.3353  573.6833 1021.0061  692.0989 1389.6731 1409.7328  1353.937 1090.8183   752.613 1239.5025   650.406 1173.9484    0.1108
  weight sum           854       217     72114      1950       492     26115      2715      1196     13740      2617      1083      1160      7083       979      2613      3210     13234      6308       840      2005      8826      4148      4137      3409      1401       890        65
  precision         0.6646    0.6646    0.6646    0.6646    0.6646    0.6646    0.6646    0.6646    0.6646    0.6646    0.6646    0.6646    0.6646    0.6646    0.6646    0.6646    0.6646    0.6646    0.6646    0.6646    0.6646    0.6646    0.6646    0.6646    0.6646    0.6646    0.6646

3F4(Hz)
  mean             710.116 3233.7736  347.6794 2137.2442 3590.2388 3143.4133  629.0302 3298.0831 3173.7603 3319.2569 2927.2908 1268.4229 3178.8998 2261.4489 3315.7815 3241.7085 2879.5448 3154.4825 1295.6998 1371.0518   940.078 2743.4389 3088.1777  821.7414 3255.3058  2659.368         0
  std. dev.      1407.1215  399.6776 1041.4841 1655.9273   89.1474   809.765  1318.959  439.8976  884.9534   561.953  964.0065 1616.5143 1028.8621  1674.423  602.4578  576.0183 1156.4562  800.5068 1689.4794 1667.7138 1531.2204 1210.0756  760.6201 1437.2095  667.0532 1353.8047    0.1134
  weight sum           854       217     72114      1950       492     26115      2715      1196     13740      2617      1083      1160      7083       979      2613      3210     13234      6308       840      2005      8826      4148      4137      3409      1401       890        65
  precision         0.6804    0.6804    0.6804    0.6804    0.6804    0.6804    0.6804    0.6804    0.6804    0.6804    0.6804    0.6804    0.6804    0.6804    0.6804    0.6804    0.6804    0.6804    0.6804    0.6804    0.6804    0.6804    0.6804    0.6804    0.6804    0.6804    0.6804





=== Stratified cross-validation ===

Correctly Classified Instances       55330               30.1689 %
Incorrectly Classified Instances    128071               69.8311 %
Kappa statistic                          0.2247
K&B Relative Info Score            3098115.7444 %
K&B Information Score               101738.7689 bits      0.5547 bits/instance
Class complexity | order 0          602178.7356 bits      3.2834 bits/instance
Class complexity | scheme          13589555.127 bits     74.0975 bits/instance
Complexity improvement     (Sf)    -12987376.3914 bits    -70.8141 bits/instance
Mean absolute error                      0.0519
Root mean squared error                  0.2191
Relative absolute error                 86.8622 %
Root relative squared error            126.7508 %
Coverage of cases (0.95 level)          34.2386 %
Mean rel. region size (0.95 level)       5.3303 %
Total Number of Instances           183401     


=== Detailed Accuracy By Class ===

                 TP Rate  FP Rate  Precision  Recall   F-Measure  MCC      ROC Area  PRC Area  Class
                 0,221    0,004    0,212      0,221    0,217      0,213    0,631     0,108     ch
                 0,318    0,018    0,020      0,318    0,038      0,076    0,888     0,056     rr
                 0,495    0,014    0,958      0,495    0,653      0,584    0,878     0,861     0
                 0,111    0,021    0,054      0,111    0,072      0,063    0,617     0,034     hs
                 0,943    0,134    0,019      0,943    0,036      0,122    0,955     0,121     hg
                 0,481    0,037    0,683      0,481    0,565      0,517    0,887     0,630     a
                 0,062    0,007    0,122      0,062    0,082      0,077    0,459     0,045     c
                 0,377    0,115    0,021      0,377    0,040      0,066    0,824     0,023     b
                 0,071    0,005    0,538      0,071    0,125      0,176    0,757     0,222     e
                 0,027    0,010    0,036      0,027    0,031      0,019    0,773     0,032     d
                 0,033    0,003    0,070      0,033    0,045      0,044    0,745     0,022     g
                 0,023    0,003    0,042      0,023    0,030      0,027    0,483     0,017     f
                 0,060    0,002    0,604      0,060    0,110      0,183    0,834     0,285     i
                 0,218    0,003    0,251      0,218    0,233      0,230    0,732     0,135     j
                 0,002    0,003    0,009      0,002    0,003      -0,003   0,794     0,037     m
                 0,297    0,049    0,098      0,297    0,148      0,146    0,830     0,069     l
                 0,005    0,002    0,151      0,005    0,009      0,015    0,745     0,170     o
                 0,017    0,009    0,064      0,017    0,027      0,016    0,778     0,078     n
                 0,024    0,001    0,087      0,024    0,037      0,043    0,613     0,024     q
                 0,010    0,002    0,055      0,010    0,018      0,019    0,491     0,027     p
                 0,113    0,002    0,754      0,113    0,197      0,282    0,568     0,265     s
                 0,014    0,004    0,071      0,014    0,024      0,022    0,689     0,043     r
                 0,252    0,005    0,560      0,252    0,348      0,367    0,861     0,328     u
                 0,086    0,008    0,163      0,086    0,113      0,107    0,475     0,059     t
                 0,000    0,002    0,000      0,000    0,000      -0,004   0,752     0,015     v
                 0,144    0,020    0,034      0,144    0,055      0,061    0,839     0,027     y
                 1,000    0,230    0,002      1,000    0,003      0,034    0,893     0,002     z
Weighted Avg.    0,302    0,015    0,614      0,302    0,381      0,358    0,804     0,499     


=== Confusion Matrix ===

     a     b     c     d     e     f     g     h     i     j     k     l     m     n     o     p     q     r     s     t     u     v     w     x     y     z    aa   <-- classified as
   189    36    51     8    27    19    52    16     3     2     0     6     1     4     0    19     0     8     5     3    91     2     1    19     0     2   290 |     a = ch
     0    69     0     0   100    18     0    11     0     3     0     0     0     0     0     5     0     0     0     0     0     0     0     0     0    11     0 |     b = rr
     3   352 35693   955  1946   218    87  1163    46   242     4   146    85    37    67   935    25   437     1    60    13   101    59   285    39   647 28468 |     c = 0
     0    29    69   217   539    25     2    97     3     7     0    26     2    14     0    90     0    11     0     0    10    38    16     0     8   139   608 |     d = hs
     0     3     0     0   464     1     0    19     0     2     0     0     0     0     0     2     0     1     0     0     0     0     0     0     0     0     0 |     e = hg
    10   673   163   226  3929 12569   124  4247   156   907     3    36    13   131     5  1301   139    58    53    39     8   193    54   124    43   274   637 |     f = a
    85     7   141   110    85     2   168    72     9    13     1    26     3    34     0    41    19    39    17    35    84    24    18   215     0    28  1439 |     g = c
     0    60     0     0   365    93     0   451     0     2    23     0     0     0     0   145     0     7     0     0     0     6    38     0     1     5     0 |     h = b
     0   211    31   244  5320  1445    83  3166   975    45   163    14    20    54    27   802    71   115    19    44     0    48    44   122     0   190   487 |     i = e
     0   153    18    32   758   249     0   952     1    70    10     7     0     0     9   275     0     3     0     0     0    11     0     0     0    54    15 |     j = d
     0    41     4    25   280   162     0   289     0     3    36     7    32     0    13   103     0     0     0     0     0     0    13     8     0     4    63 |     k = g
     0    72    31   111    70     0    15    41     6     0     5    27     0     9     0    17     2    29     0     0     0    23     0    56    18    44   584 |     l = f
     0    12    38   144  1809   300    71  1393   380     0   103     9   428    19   320  1060    23    17     5    40     2    22     1   121     0   447   319 |     m = i
     1    19    52    67    46    89    10    43     9     2     0    12     0   213    18     2    10    52    16     1     5    52     2    18     0    30   210 |     n = j
     0    37     1    79  1034   155     0   696     0    40     0     2     1     0     5   365     0     3     0     1     0     1    81    11     0    61    40 |     o = m
     0   166     0    32  1112   106     5   626    16     1     0     3     1     0     7   954     2    24     0    11     0     7     1    29     0    90    17 |     p = l
     2   292    33   349  2360  1763    46  3687    86   385     1    41     4    42    11  1156    64    72    37    40     0    48   408    66   243   609  1389 |     q = o
     0   428    10   271  1878   191     1  1877    28    21    58    15    41     5     4   792     2   107     0     0     0     8    53     6     0   278   234 |     r = n
    76     0    32    34    67    22    31    30     6    14     0    10     1    28     3    14     1    49    20     2    68     2     0    21     0    19   290 |     s = q
     0    38    80   155   139    44    62    47     1    16    25    41     2    11     0   120    10    65     9    21     0    57     1    72     1    66   922 |     t = p
   524   262   568   528   247   140   351    49    36    45     5   111    45   183    31   230    19   270    21     7  1001    58     2   125     2   239  3727 |     u = s
     0   316    42   219   835   223    36   791    38    44    74    27    20     6     9   608     3   110     2    11     0    59    22    69    28   102   454 |     v = r
     0    30    11    35   323   453    23  1285     1    55     0     4     1    11    15   432    16    14     0    21     1    22  1043    75    29   186    51 |     w = u
     1    86   164   174   111    10   195    85     0    15     1    61     9    43     3    29    17   170    25    42    20    37     3   294     0    41  1773 |     x = t
     0     6     5    12   739    95     0   282    12     0     0     2     0     0    27   117     0    11     0     0     0     6     0    28     0    45    14 |     y = v
     0     4    16    25   393     0    14    60     0     1     0     7     0     4     0    93     0     5     0     5    24     1     1    38     0   128    71 |     z = y
     0     0     0     0     0     0     0     0     0     0     0     0     0     0     0     0     0     0     0     0     0     0     0     0     0     0    65 |    aa = z

=== Percent Confusion Matrix ===
a	b	c	d	e	f	g	h	i	j	k	l	m	n	o	p	q	r	s	t	u	v	w	x	y	z	aa	
22.13	4.22	5.97	0.94	3.16	2.22	6.09	1.87	0.35	0.23	0.0	0.7	0.12	0.47	0.0	2.22	0.0	0.94	0.59	0.35	10.66	0.23	0.12	2.22	0.0	0.23	33.96	 a = ch
0.0	31.8	0.0	0.0	46.08	8.29	0.0	5.07	0.0	1.38	0.0	0.0	0.0	0.0	0.0	2.3	0.0	0.0	0.0	0.0	0.0	0.0	0.0	0.0	0.0	5.07	0.0	 b = rr
0.0	0.49	49.5	1.32	2.7	0.3	0.12	1.61	0.06	0.34	0.01	0.2	0.12	0.05	0.09	1.3	0.03	0.61	0.0	0.08	0.02	0.14	0.08	0.4	0.05	0.9	39.48	 c = 0
0.0	1.49	3.54	11.13	27.64	1.28	0.1	4.97	0.15	0.36	0.0	1.33	0.1	0.72	0.0	4.62	0.0	0.56	0.0	0.0	0.51	1.95	0.82	0.0	0.41	7.13	31.18	 d = hs
0.0	0.61	0.0	0.0	94.31	0.2	0.0	3.86	0.0	0.41	0.0	0.0	0.0	0.0	0.0	0.41	0.0	0.2	0.0	0.0	0.0	0.0	0.0	0.0	0.0	0.0	0.0	 e = hg
0.04	2.58	0.62	0.87	15.04	48.13	0.47	16.26	0.6	3.47	0.01	0.14	0.05	0.5	0.02	4.98	0.53	0.22	0.2	0.15	0.03	0.74	0.21	0.47	0.16	1.05	2.44	 f = a
3.13	0.26	5.19	4.05	3.13	0.07	6.19	2.65	0.33	0.48	0.04	0.96	0.11	1.25	0.0	1.51	0.7	1.44	0.63	1.29	3.09	0.88	0.66	7.92	0.0	1.03	53.0	 g = c
0.0	5.02	0.0	0.0	30.52	7.78	0.0	37.71	0.0	0.17	1.92	0.0	0.0	0.0	0.0	12.12	0.0	0.59	0.0	0.0	0.0	0.5	3.18	0.0	0.08	0.42	0.0	 h = b
0.0	1.54	0.23	1.78	38.72	10.52	0.6	23.04	7.1	0.33	1.19	0.1	0.15	0.39	0.2	5.84	0.52	0.84	0.14	0.32	0.0	0.35	0.32	0.89	0.0	1.38	3.54	 i = e
0.0	5.85	0.69	1.22	28.96	9.51	0.0	36.38	0.04	2.67	0.38	0.27	0.0	0.0	0.34	10.51	0.0	0.11	0.0	0.0	0.0	0.42	0.0	0.0	0.0	2.06	0.57	 j = d
0.0	3.79	0.37	2.31	25.85	14.96	0.0	26.69	0.0	0.28	3.32	0.65	2.95	0.0	1.2	9.51	0.0	0.0	0.0	0.0	0.0	0.0	1.2	0.74	0.0	0.37	5.82	 k = g
0.0	6.21	2.67	9.57	6.03	0.0	1.29	3.53	0.52	0.0	0.43	2.33	0.0	0.78	0.0	1.47	0.17	2.5	0.0	0.0	0.0	1.98	0.0	4.83	1.55	3.79	50.34	 l = f
0.0	0.17	0.54	2.03	25.54	4.24	1.0	19.67	5.36	0.0	1.45	0.13	6.04	0.27	4.52	14.97	0.32	0.24	0.07	0.56	0.03	0.31	0.01	1.71	0.0	6.31	4.5	 m = i
0.1	1.94	5.31	6.84	4.7	9.09	1.02	4.39	0.92	0.2	0.0	1.23	0.0	21.76	1.84	0.2	1.02	5.31	1.63	0.1	0.51	5.31	0.2	1.84	0.0	3.06	21.45	 n = j
0.0	1.42	0.04	3.02	39.57	5.93	0.0	26.64	0.0	1.53	0.0	0.08	0.04	0.0	0.19	13.97	0.0	0.11	0.0	0.04	0.0	0.04	3.1	0.42	0.0	2.33	1.53	 o = m
0.0	5.17	0.0	1.0	34.64	3.3	0.16	19.5	0.5	0.03	0.0	0.09	0.03	0.0	0.22	29.72	0.06	0.75	0.0	0.34	0.0	0.22	0.03	0.9	0.0	2.8	0.53	 p = l
0.02	2.21	0.25	2.64	17.83	13.32	0.35	27.86	0.65	2.91	0.01	0.31	0.03	0.32	0.08	8.74	0.48	0.54	0.28	0.3	0.0	0.36	3.08	0.5	1.84	4.6	10.5	 q = o
0.0	6.79	0.16	4.3	29.77	3.03	0.02	29.76	0.44	0.33	0.92	0.24	0.65	0.08	0.06	12.56	0.03	1.7	0.0	0.0	0.0	0.13	0.84	0.1	0.0	4.41	3.71	 r = n
9.05	0.0	3.81	4.05	7.98	2.62	3.69	3.57	0.71	1.67	0.0	1.19	0.12	3.33	0.36	1.67	0.12	5.83	2.38	0.24	8.1	0.24	0.0	2.5	0.0	2.26	34.52	 s = q
0.0	1.9	3.99	7.73	6.93	2.19	3.09	2.34	0.05	0.8	1.25	2.04	0.1	0.55	0.0	5.99	0.5	3.24	0.45	1.05	0.0	2.84	0.05	3.59	0.05	3.29	45.99	 t = p
5.94	2.97	6.44	5.98	2.8	1.59	3.98	0.56	0.41	0.51	0.06	1.26	0.51	2.07	0.35	2.61	0.22	3.06	0.24	0.08	11.34	0.66	0.02	1.42	0.02	2.71	42.23	 u = s
0.0	7.62	1.01	5.28	20.13	5.38	0.87	19.07	0.92	1.06	1.78	0.65	0.48	0.14	0.22	14.66	0.07	2.65	0.05	0.27	0.0	1.42	0.53	1.66	0.68	2.46	10.95	 v = r
0.0	0.73	0.27	0.85	7.81	10.95	0.56	31.06	0.02	1.33	0.0	0.1	0.02	0.27	0.36	10.44	0.39	0.34	0.0	0.51	0.02	0.53	25.21	1.81	0.7	4.5	1.23	 w = u
0.03	2.52	4.81	5.1	3.26	0.29	5.72	2.49	0.0	0.44	0.03	1.79	0.26	1.26	0.09	0.85	0.5	4.99	0.73	1.23	0.59	1.09	0.09	8.62	0.0	1.2	52.01	 x = t
0.0	0.43	0.36	0.86	52.75	6.78	0.0	20.13	0.86	0.0	0.0	0.14	0.0	0.0	1.93	8.35	0.0	0.79	0.0	0.0	0.0	0.43	0.0	2.0	0.0	3.21	1.0	 y = v
0.0	0.45	1.8	2.81	44.16	0.0	1.57	6.74	0.0	0.11	0.0	0.79	0.0	0.45	0.0	10.45	0.0	0.56	0.0	0.56	2.7	0.11	0.11	4.27	0.0	14.38	7.98	 z = y
0.0	0.0	0.0	0.0	0.0	0.0	0.0	0.0	0.0	0.0	0.0	0.0	0.0	0.0	0.0	0.0	0.0	0.0	0.0	0.0	0.0	0.0	0.0	0.0	0.0	0.0	100.0	 aa = z
