Timestamp:2014-12-07-10:42:13
Inventario:I0
Intervalo:15ms
Ngramas:1
Clasificador:NaiveBayes
Relation Name:  I0-15ms-1gramas
Num Instances:  12189
Num Attributes: 11

     Name                      Type  Nom  Int Real     Missing      Unique  Dist
   1 0Int(dB)                   Num   0%  10%  90%     0 /  0%    10 /  0%   768 
   2 0Pitch(Hz)                 Num   0%  50%  50%     0 /  0%   941 /  8%  2715 
   3 0RawPitch                  Num   0%  53%  47%     0 /  0%   979 /  8%  2609 
   4 0SmPitch                   Num   0%  51%  49%     0 /  0%   957 /  8%  2691 
   5 0Melogram(st)              Num   0%  46%  54%     0 /  0%   838 /  7%  2574 
   6 0ZCross                    Num   0% 100%   0%     0 /  0%    10 /  0%    40 
   7 0F1(Hz)                    Num   0%  50%  50%     0 /  0%  2281 / 19%  3977 
   8 0F2(Hz)                    Num   0%  50%  50%     0 /  0%  3848 / 32%  5158 
   9 0F3(Hz)                    Num   0%  50%  50%     0 /  0%  3419 / 28%  4850 
  10 0F4(Hz)                    Num   0%  50%  50%     0 /  0%  3319 / 27%  4764 
  11 class                      Nom 100%   0%   0%     0 /  0%     0 /  0%    27 


Naive Bayes Classifier

                    Class
Attribute              ch        rr         0        hs        hg         a         c         b         e         d         g         f         i         j         m         l         o         n         q         p         s         r         u         t         v         y         z
                      (0)       (0)    (0.36)    (0.01)       (0)    (0.15)    (0.01)    (0.01)    (0.08)    (0.01)    (0.01)    (0.01)    (0.04)    (0.01)    (0.02)    (0.02)    (0.08)    (0.04)       (0)    (0.01)    (0.05)    (0.03)    (0.02)    (0.02)    (0.01)    (0.01)       (0)
==============================================================================================================================================================================================================================================================================================
0Int(dB)
  mean            -19.9241  -10.0857  -50.5565  -20.3441  -10.8859   -3.3275  -24.5797   -5.9761   -5.5049   -7.8361   -7.3814  -21.3582   -9.1576  -15.5747   -7.6522   -8.2874   -8.3852   -9.3446  -22.7599  -23.1366  -21.4103  -11.9138   -5.5692  -25.6274    -8.786   -15.851  -27.6233
  std. dev.         8.7568    4.0742   13.7487   11.4098    5.8423    8.5772    9.2384    4.2448    8.2833    6.2597    7.5828    5.6522    8.3719    5.9541    5.8929    5.7665   12.0282    7.7338   10.9898   10.2483    6.9681    9.7822    7.6498    9.3441    6.8928    4.6955    2.2988
  weight sum            58        15      4418       140        34      1815       182        82       971       177        72        78       503        66       184       223       940       436        55       133       612       308       285       234        99        64         5
  precision         0.1005    0.1005    0.1005    0.1005    0.1005    0.1005    0.1005    0.1005    0.1005    0.1005    0.1005    0.1005    0.1005    0.1005    0.1005    0.1005    0.1005    0.1005    0.1005    0.1005    0.1005    0.1005    0.1005    0.1005    0.1005    0.1005    0.1005

0Pitch(Hz)
  mean             67.5252  249.5961    9.3549   91.9198   147.253  225.0079   74.1457  214.4821  189.9846  199.2072  215.8451   100.462  175.8084  168.6894  194.1565  174.3313  180.3637  191.6244  104.9485  106.3819   66.8505  163.2202  231.3108    98.347  181.4565   125.859         0
  std. dev.       107.9579  123.2075   43.0244   86.3251   36.7152  102.2119  107.8152   73.5402   87.3032   83.2243   91.5699  123.2721   73.8088  126.5758   84.7792   63.5247  102.9621   88.4507  122.3126   119.806  101.3207   92.1643   84.4017  118.7236   72.0404   65.1401    0.0305
  weight sum            58        15      4418       140        34      1815       182        82       971       177        72        78       503        66       184       223       940       436        55       133       612       308       285       234        99        64         5
  precision         0.1828    0.1828    0.1828    0.1828    0.1828    0.1828    0.1828    0.1828    0.1828    0.1828    0.1828    0.1828    0.1828    0.1828    0.1828    0.1828    0.1828    0.1828    0.1828    0.1828    0.1828    0.1828    0.1828    0.1828    0.1828    0.1828    0.1828

0RawPitch
  mean             59.4185  235.9578    7.3655   76.0431  138.1132   215.767   49.4982  212.1658  186.8578  194.0122  203.5794   58.8099  168.3408  119.1223  184.1232  160.0017  174.1912  179.8195   69.1779   80.1211     44.71  158.4672  222.5963   70.8257  167.9801   93.1794         0
  std. dev.       100.6472  129.4433   36.8692   88.9827   61.4338  106.4781    88.076   75.2327   91.2535   91.7751  105.2011   91.4137   79.5481  106.2356   94.6293   73.5007  108.1025   99.7657  114.2125  113.7475   86.6102   95.6003   90.9444  110.5563   80.4602   74.3693    0.0317
  weight sum            58        15      4418       140        34      1815       182        82       971       177        72        78       503        66       184       223       940       436        55       133       612       308       285       234        99        64         5
  precision           0.19      0.19      0.19      0.19      0.19      0.19      0.19      0.19      0.19      0.19      0.19      0.19      0.19      0.19      0.19      0.19      0.19      0.19      0.19      0.19      0.19      0.19      0.19      0.19      0.19      0.19      0.19

0SmPitch
  mean             67.1323  249.6004    8.0608   84.9611   149.096  223.5892    64.147  214.4752  188.6266  198.3639  210.7412   79.4888  174.1996  134.3991  192.1171  174.4332  178.2642  189.2256   85.2601    96.716   58.5455  158.2103  230.9021   82.7693  179.1244  120.3713         0
  std. dev.        107.248  123.1903   38.1376   84.4039   34.3343   103.339  103.6883   73.5515   88.6539   84.9657   98.1062  106.9451   75.9109  135.4847   87.7433   63.4898  104.6347   91.0463  115.0944  121.6385   96.1366    95.792   84.0603  114.5351   74.6904   67.9226    0.0307
  weight sum            58        15      4418       140        34      1815       182        82       971       177        72        78       503        66       184       223       940       436        55       133       612       308       285       234        99        64         5
  precision         0.1841    0.1841    0.1841    0.1841    0.1841    0.1841    0.1841    0.1841    0.1841    0.1841    0.1841    0.1841    0.1841    0.1841    0.1841    0.1841    0.1841    0.1841    0.1841    0.1841    0.1841    0.1841    0.1841    0.1841    0.1841    0.1841    0.1841

0Melogram(st)
  mean             20.0597   56.8963    3.0752   28.5854   49.4194   53.5948   19.6867   55.2672   50.9897   52.6514   51.6383   27.1563    49.433   24.4046   51.4935   51.2416   47.3663   50.3765    22.656   27.4207    18.661   43.4271   54.7393   23.2145   51.6257   43.8803         0
  std. dev.        27.7197    9.0716     12.67   24.8974    4.4238   13.6867   26.9586    6.3062   14.4101   11.4213   16.8042    27.662   14.7392   28.7738   13.4066    9.1948   19.6193   15.9841   27.9723   28.5387   26.1777   22.0374   13.2895   28.1608    9.6493   15.1305    0.0053
  weight sum            58        15      4418       140        34      1815       182        82       971       177        72        78       503        66       184       223       940       436        55       133       612       308       285       234        99        64         5
  precision         0.0321    0.0321    0.0321    0.0321    0.0321    0.0321    0.0321    0.0321    0.0321    0.0321    0.0321    0.0321    0.0321    0.0321    0.0321    0.0321    0.0321    0.0321    0.0321    0.0321    0.0321    0.0321    0.0321    0.0321    0.0321    0.0321    0.0321

0ZCross
  mean              7.6799    3.3812    0.1006    1.0002    3.1131    7.1475    1.4721    3.9262    4.8701    3.8434    4.4562     0.622    3.5072     3.742    2.7804     3.194    4.0889    2.4732    3.7888    0.8622    3.4933    3.0822    3.8532    0.6502    3.2966    1.4471         0
  std. dev.         11.511     2.294    0.6799    1.5306    2.1802    4.3444    2.9722     1.688    2.9907    2.0838    2.5024    1.3629    3.0758    3.6662     1.503     1.776     2.998     1.643    5.4453    2.2557    6.3896    2.3474    2.8492    1.3341    1.8509    1.5455    0.1838
  weight sum            58        15      4418       140        34      1815       182        82       971       177        72        78       503        66       184       223       940       436        55       133       612       308       285       234        99        64         5
  precision         1.1026    1.1026    1.1026    1.1026    1.1026    1.1026    1.1026    1.1026    1.1026    1.1026    1.1026    1.1026    1.1026    1.1026    1.1026    1.1026    1.1026    1.1026    1.1026    1.1026    1.1026    1.1026    1.1026    1.1026    1.1026    1.1026    1.1026

0F1(Hz)
  mean            188.4276  599.5146   34.4738  406.6466  444.7532  705.7283  127.8946  472.8354  469.1052  515.2919  510.8869    331.11  370.0223  514.7495  436.5593  473.5006  487.7924  471.9452  219.1654  280.4994  221.2493   492.786  504.5577  163.3452  490.2597  361.4964         0
  std. dev.        283.058  131.9453  138.1181  293.7037   83.2706  248.1314   233.038  132.4207  136.7924  145.0907  175.1628  340.3969  133.9826  318.7919  153.6367  132.2957   218.941  155.0509  254.0063  304.7934  294.8042  227.0181   299.786  234.0141  163.6854  167.8174     0.073
  weight sum            58        15      4418       140        34      1815       182        82       971       177        72        78       503        66       184       223       940       436        55       133       612       308       285       234        99        64         5
  precision          0.438     0.438     0.438     0.438     0.438     0.438     0.438     0.438     0.438     0.438     0.438     0.438     0.438     0.438     0.438     0.438     0.438     0.438     0.438     0.438     0.438     0.438     0.438     0.438     0.438     0.438     0.438

0F2(Hz)
  mean             582.254 1655.3339  104.1463 1173.6939 1937.6721 1470.2135  378.8919 1567.9815 1803.6497 1484.1532 1734.4383  863.4872 2010.9745 1447.8501 1679.3752 1679.8878 1164.8777 1613.5559  867.8857  834.5412  697.8769 1395.3507 1075.9553  551.2507 1565.2815  1426.653         0
  std. dev.       838.4484  122.6896  412.9313  827.3545  346.9736  382.5825  705.1441   345.791  490.0179  291.7647  519.4319  859.4324  600.2718  822.8275  408.7755  329.2422   526.346  450.5673  982.4149  869.0002  897.9368  596.7515   411.661  767.3792  381.4164   592.755    0.0963
  weight sum            58        15      4418       140        34      1815       182        82       971       177        72        78       503        66       184       223       940       436        55       133       612       308       285       234        99        64         5
  precision         0.5776    0.5776    0.5776    0.5776    0.5776    0.5776    0.5776    0.5776    0.5776    0.5776    0.5776    0.5776    0.5776    0.5776    0.5776    0.5776    0.5776    0.5776    0.5776    0.5776    0.5776    0.5776    0.5776    0.5776    0.5776    0.5776    0.5776

0F3(Hz)
  mean            956.7836 2879.6341  180.9432 1917.1397 2531.3849 2737.7643  688.8201 2757.8703 2651.8402 2866.2889 2990.6054 1469.8674 2714.2403 2123.7495  2788.882 2812.7732 2529.7403 2771.4618 1304.6053 1416.4517  1162.571 2419.9212 2728.7599 1006.6215 2698.2621 2479.1893         0
  std. dev.      1378.1536  412.1341  703.1963 1283.8867   113.605  702.1935 1233.8388  461.2274  731.0473  431.5143  804.4948 1462.0673  831.8369 1192.6206  501.5001  549.4819  990.6689  651.1415 1435.0242 1462.0442 1476.1604 1040.8353   731.591 1385.4742  643.6519 1054.0813    0.1416
  weight sum            58        15      4418       140        34      1815       182        82       971       177        72        78       503        66       184       223       940       436        55       133       612       308       285       234        99        64         5
  precision         0.8494    0.8494    0.8494    0.8494    0.8494    0.8494    0.8494    0.8494    0.8494    0.8494    0.8494    0.8494    0.8494    0.8494    0.8494    0.8494    0.8494    0.8494    0.8494    0.8494    0.8494    0.8494    0.8494    0.8494    0.8494    0.8494    0.8494

0F4(Hz)
  mean           1135.0531 3224.5544  217.2031 2364.2228  3591.692 3153.4622  804.2501 3299.2119 3206.8695 3354.8725 2990.2306 1683.5627 3233.1412 2674.6579 3339.9885 3238.2355 2916.3463 3186.2299  1564.736 1663.0119 1312.9842 2813.9735 3100.5588 1137.6491 3250.7027 2825.3097         0
  std. dev.      1634.2344  419.0741  842.5038 1570.8431   92.2165  795.7984 1443.5944  441.7568  845.6004  465.2171  811.3198 1660.0541  946.7373 1484.3649  523.4237  553.8865 1123.3047  750.6649 1735.2537 1691.4533 1664.3677 1153.6107  725.9921 1573.2029  666.8328 1186.6186    0.1451
  weight sum            58        15      4418       140        34      1815       182        82       971       177        72        78       503        66       184       223       940       436        55       133       612       308       285       234        99        64         5
  precision         0.8707    0.8707    0.8707    0.8707    0.8707    0.8707    0.8707    0.8707    0.8707    0.8707    0.8707    0.8707    0.8707    0.8707    0.8707    0.8707    0.8707    0.8707    0.8707    0.8707    0.8707    0.8707    0.8707    0.8707    0.8707    0.8707    0.8707





=== Stratified cross-validation ===

Correctly Classified Instances        4165               34.1702 %
Incorrectly Classified Instances      8024               65.8298 %
Kappa statistic                          0.265 
K&B Relative Info Score             308724.4005 %
K&B Information Score                10434.6232 bits      0.8561 bits/instance
Class complexity | order 0           41121.1307 bits      3.3736 bits/instance
Class complexity | scheme           216527.1335 bits     17.7641 bits/instance
Complexity improvement     (Sf)    -175406.0027 bits    -14.3905 bits/instance
Mean absolute error                      0.0509
Root mean squared error                  0.1931
Relative absolute error                 83.1698 %
Root relative squared error            110.4179 %
Coverage of cases (0.95 level)          59.726  %
Mean rel. region size (0.95 level)      16.5623 %
Total Number of Instances            12189     


=== Detailed Accuracy By Class ===

                 TP Rate  FP Rate  Precision  Recall   F-Measure  MCC      ROC Area  PRC Area  Class
                 0,121    0,002    0,259      0,121    0,165      0,174    0,663     0,095     ch
                 0,000    0,001    0,000      0,000    0,000      -0,001   0,881     0,027     rr
                 0,520    0,010    0,968      0,520    0,676      0,619    0,947     0,921     0
                 0,121    0,026    0,051      0,121    0,072      0,062    0,654     0,042     hs
                 0,706    0,107    0,018      0,706    0,035      0,102    0,934     0,078     hg
                 0,647    0,081    0,582      0,647    0,613      0,542    0,884     0,619     a
                 0,071    0,006    0,151      0,071    0,097      0,095    0,494     0,055     c
                 0,171    0,048    0,024      0,171    0,042      0,047    0,820     0,022     b
                 0,204    0,028    0,383      0,204    0,266      0,236    0,784     0,286     e
                 0,028    0,011    0,037      0,028    0,032      0,020    0,789     0,038     d
                 0,000    0,001    0,000      0,000    0,000      -0,002   0,755     0,019     g
                 0,000    0,000    0,000      0,000    0,000      -0,001   0,560     0,020     f
                 0,167    0,007    0,522      0,167    0,253      0,279    0,859     0,331     i
                 0,045    0,001    0,273      0,045    0,078      0,109    0,739     0,127     j
                 0,000    0,001    0,000      0,000    0,000      -0,005   0,807     0,043     m
                 0,404    0,075    0,092      0,404    0,149      0,162    0,850     0,087     l
                 0,010    0,004    0,155      0,010    0,018      0,020    0,746     0,184     o
                 0,048    0,021    0,077      0,048    0,059      0,034    0,775     0,080     n
                 0,000    0,001    0,000      0,000    0,000      -0,002   0,656     0,017     q
                 0,000    0,000    0,000      0,000    0,000      -0,002   0,563     0,027     p
                 0,155    0,004    0,679      0,155    0,253      0,310    0,591     0,264     s
                 0,023    0,003    0,179      0,023    0,040      0,056    0,686     0,049     r
                 0,239    0,003    0,636      0,239    0,347      0,381    0,865     0,350     u
                 0,103    0,010    0,170      0,103    0,128      0,119    0,543     0,065     t
                 0,000    0,000    0,000      0,000    0,000      0,000    0,770     0,017     v
                 0,156    0,013    0,058      0,156    0,085      0,088    0,865     0,060     y
                 1,000    0,217    0,002      1,000    0,004      0,038    0,956     0,005     z
Weighted Avg.    0,342    0,023    0,569      0,342    0,403      0,374    0,834     0,510     


=== Confusion Matrix ===

    a    b    c    d    e    f    g    h    i    j    k    l    m    n    o    p    q    r    s    t    u    v    w    x    y    z   aa   <-- classified as
    7    0    3    5    0    3    2    1    2    0    0    0    0    0    1    3    0    2    0    0   12    0    0    1    0    0   16 |    a = ch
    0    0    0    0    5    6    0    1    0    0    0    0    0    0    0    1    0    0    0    0    0    0    0    0    0    2    0 |    b = rr
    0    0 2297   60   45   24    6   15    5   16    0    0   18    0    1   24   12   40    0    0    1    2    0    9    0   15 1828 |    c = 0
    0    0    3   17   35   11    0    3    3    3    0    0    1    0    0   13    1    1    0    0    1    2    0    0    0    8   38 |    d = hs
    0    0    0    0   24    0    0    1    1    1    0    0    3    0    0    3    0    0    0    0    0    0    0    0    0    1    0 |    e = hg
    0    1   12   23  163 1174    7   70   40   48    0    0    4    2    0  165    8   20    3    2    2    5    0   14    0    9   43 |    f = a
    1    0    8   11    8    2   13    3    3    1    0    0    2    1    0    4    1    4    1    1   10    3    0   17    0    1   87 |    g = c
    0    0    0    0   16   13    0   14    7    0    1    0    1    0    0   27    0    0    0    0    0    0    3    0    0    0    0 |    h = b
    0    3    0   23  315  171    5   71  198    0    4    0    5    1    5   96    2   16    0    0    1    1    0   11    0   10   33 |    i = e
    0    1    1    2   45   33    0   35   11    5    0    0    0    0    0   34    0    0    0    0    1    1    0    0    0    8    0 |    j = d
    0    1    0    3   15   21    0    6    8    1    0    0    3    0    0    8    0    3    0    0    0    0    0    0    0    0    3 |    k = g
    0    0    1   10   10    9    2    3    0    2    0    0    0    0    0    1    1    4    0    0    0    0    0    4    0    0   31 |    l = f
    0    0    1   15  101   32    2   25  105    0    1    0   84    0    8   68    0    9    0    1    2    0    0   12    0   19   18 |    m = i
    0    0    1    7    7   11    1    3    3    0    0    0    0    3    0    2    6    4    0    0    0    5    0    3    0    0   10 |    n = j
    0    0    0    7   64   22    0   24    7    0    1    0    4    0    0   39    0    4    0    0    0    0    7    0    0    3    2 |    o = m
    0    0    0    3   63   21    1   19    7    2    0    0    0    0    0   90    0    7    0    0    0    0    0    2    0    7    1 |    p = l
    1    1    4   34  116  223    3  125   59   32    0    0    0    0    0  132    9   46    1    2    0    2   27    8    0   25   90 |    q = o
    0    4    0   22  107   60    0   79   11    5    0    0   12    0    1   83    0   21    0    0    0    0    1    0    0   15   15 |    r = n
    0    0    3    2    3    6    3    0    1    1    0    0    2    1    1    0    0    5    0    0   10    0    0    1    0    1   15 |    s = q
    0    0    4   15   10    9    5    4    0    0    0    0    0    0    1   11    2    9    0    0    0    2    0    9    0    3   49 |    t = p
   18    1   22   38   28   42   17    0   11    5    0    0   17    3    0   24    8   30    1    0   95    7    0   12    0    9  224 |    u = s
    0    0    4   20   52   43    1   25   15    6    1    0    2    0    0   78    1   11    0    0    0    7    1    4    0    5   32 |    v = r
    0    1    0    3   15   65    4   45   12    2    0    0    0    0    0   40    3    8    0    0    1    0   68    5    0   11    2 |    w = u
    0    2    9   14   17    8   13    3    0    3    0    1    1    0    0    3    4   18    1    0    2    1    0   24    0    6  104 |    x = t
    0    0    0    0   39    7    0   13    8    1    0    0    0    0    0   20    0    4    0    0    0    1    0    2    0    3    1 |    y = v
    0    0    1    1   20    0    1    2    0    0    0    0    2    0    0   14    0    6    0    0    2    0    0    3    0   10    2 |    z = y
    0    0    0    0    0    0    0    0    0    0    0    0    0    0    0    0    0    0    0    0    0    0    0    0    0    0    5 |   aa = z

=== Percent Confusion Matrix ===
a	b	c	d	e	f	g	h	i	j	k	l	m	n	o	p	q	r	s	t	u	v	w	x	y	z	aa	
12.07	0.0	5.17	8.62	0.0	5.17	3.45	1.72	3.45	0.0	0.0	0.0	0.0	0.0	1.72	5.17	0.0	3.45	0.0	0.0	20.69	0.0	0.0	1.72	0.0	0.0	27.59	 a = ch
0.0	0.0	0.0	0.0	33.33	40.0	0.0	6.67	0.0	0.0	0.0	0.0	0.0	0.0	0.0	6.67	0.0	0.0	0.0	0.0	0.0	0.0	0.0	0.0	0.0	13.33	0.0	 b = rr
0.0	0.0	51.99	1.36	1.02	0.54	0.14	0.34	0.11	0.36	0.0	0.0	0.41	0.0	0.02	0.54	0.27	0.91	0.0	0.0	0.02	0.05	0.0	0.2	0.0	0.34	41.38	 c = 0
0.0	0.0	2.14	12.14	25.0	7.86	0.0	2.14	2.14	2.14	0.0	0.0	0.71	0.0	0.0	9.29	0.71	0.71	0.0	0.0	0.71	1.43	0.0	0.0	0.0	5.71	27.14	 d = hs
0.0	0.0	0.0	0.0	70.59	0.0	0.0	2.94	2.94	2.94	0.0	0.0	8.82	0.0	0.0	8.82	0.0	0.0	0.0	0.0	0.0	0.0	0.0	0.0	0.0	2.94	0.0	 e = hg
0.0	0.06	0.66	1.27	8.98	64.68	0.39	3.86	2.2	2.64	0.0	0.0	0.22	0.11	0.0	9.09	0.44	1.1	0.17	0.11	0.11	0.28	0.0	0.77	0.0	0.5	2.37	 f = a
0.55	0.0	4.4	6.04	4.4	1.1	7.14	1.65	1.65	0.55	0.0	0.0	1.1	0.55	0.0	2.2	0.55	2.2	0.55	0.55	5.49	1.65	0.0	9.34	0.0	0.55	47.8	 g = c
0.0	0.0	0.0	0.0	19.51	15.85	0.0	17.07	8.54	0.0	1.22	0.0	1.22	0.0	0.0	32.93	0.0	0.0	0.0	0.0	0.0	0.0	3.66	0.0	0.0	0.0	0.0	 h = b
0.0	0.31	0.0	2.37	32.44	17.61	0.51	7.31	20.39	0.0	0.41	0.0	0.51	0.1	0.51	9.89	0.21	1.65	0.0	0.0	0.1	0.1	0.0	1.13	0.0	1.03	3.4	 i = e
0.0	0.56	0.56	1.13	25.42	18.64	0.0	19.77	6.21	2.82	0.0	0.0	0.0	0.0	0.0	19.21	0.0	0.0	0.0	0.0	0.56	0.56	0.0	0.0	0.0	4.52	0.0	 j = d
0.0	1.39	0.0	4.17	20.83	29.17	0.0	8.33	11.11	1.39	0.0	0.0	4.17	0.0	0.0	11.11	0.0	4.17	0.0	0.0	0.0	0.0	0.0	0.0	0.0	0.0	4.17	 k = g
0.0	0.0	1.28	12.82	12.82	11.54	2.56	3.85	0.0	2.56	0.0	0.0	0.0	0.0	0.0	1.28	1.28	5.13	0.0	0.0	0.0	0.0	0.0	5.13	0.0	0.0	39.74	 l = f
0.0	0.0	0.2	2.98	20.08	6.36	0.4	4.97	20.87	0.0	0.2	0.0	16.7	0.0	1.59	13.52	0.0	1.79	0.0	0.2	0.4	0.0	0.0	2.39	0.0	3.78	3.58	 m = i
0.0	0.0	1.52	10.61	10.61	16.67	1.52	4.55	4.55	0.0	0.0	0.0	0.0	4.55	0.0	3.03	9.09	6.06	0.0	0.0	0.0	7.58	0.0	4.55	0.0	0.0	15.15	 n = j
0.0	0.0	0.0	3.8	34.78	11.96	0.0	13.04	3.8	0.0	0.54	0.0	2.17	0.0	0.0	21.2	0.0	2.17	0.0	0.0	0.0	0.0	3.8	0.0	0.0	1.63	1.09	 o = m
0.0	0.0	0.0	1.35	28.25	9.42	0.45	8.52	3.14	0.9	0.0	0.0	0.0	0.0	0.0	40.36	0.0	3.14	0.0	0.0	0.0	0.0	0.0	0.9	0.0	3.14	0.45	 p = l
0.11	0.11	0.43	3.62	12.34	23.72	0.32	13.3	6.28	3.4	0.0	0.0	0.0	0.0	0.0	14.04	0.96	4.89	0.11	0.21	0.0	0.21	2.87	0.85	0.0	2.66	9.57	 q = o
0.0	0.92	0.0	5.05	24.54	13.76	0.0	18.12	2.52	1.15	0.0	0.0	2.75	0.0	0.23	19.04	0.0	4.82	0.0	0.0	0.0	0.0	0.23	0.0	0.0	3.44	3.44	 r = n
0.0	0.0	5.45	3.64	5.45	10.91	5.45	0.0	1.82	1.82	0.0	0.0	3.64	1.82	1.82	0.0	0.0	9.09	0.0	0.0	18.18	0.0	0.0	1.82	0.0	1.82	27.27	 s = q
0.0	0.0	3.01	11.28	7.52	6.77	3.76	3.01	0.0	0.0	0.0	0.0	0.0	0.0	0.75	8.27	1.5	6.77	0.0	0.0	0.0	1.5	0.0	6.77	0.0	2.26	36.84	 t = p
2.94	0.16	3.59	6.21	4.58	6.86	2.78	0.0	1.8	0.82	0.0	0.0	2.78	0.49	0.0	3.92	1.31	4.9	0.16	0.0	15.52	1.14	0.0	1.96	0.0	1.47	36.6	 u = s
0.0	0.0	1.3	6.49	16.88	13.96	0.32	8.12	4.87	1.95	0.32	0.0	0.65	0.0	0.0	25.32	0.32	3.57	0.0	0.0	0.0	2.27	0.32	1.3	0.0	1.62	10.39	 v = r
0.0	0.35	0.0	1.05	5.26	22.81	1.4	15.79	4.21	0.7	0.0	0.0	0.0	0.0	0.0	14.04	1.05	2.81	0.0	0.0	0.35	0.0	23.86	1.75	0.0	3.86	0.7	 w = u
0.0	0.85	3.85	5.98	7.26	3.42	5.56	1.28	0.0	1.28	0.0	0.43	0.43	0.0	0.0	1.28	1.71	7.69	0.43	0.0	0.85	0.43	0.0	10.26	0.0	2.56	44.44	 x = t
0.0	0.0	0.0	0.0	39.39	7.07	0.0	13.13	8.08	1.01	0.0	0.0	0.0	0.0	0.0	20.2	0.0	4.04	0.0	0.0	0.0	1.01	0.0	2.02	0.0	3.03	1.01	 y = v
0.0	0.0	1.56	1.56	31.25	0.0	1.56	3.13	0.0	0.0	0.0	0.0	3.13	0.0	0.0	21.88	0.0	9.38	0.0	0.0	3.13	0.0	0.0	4.69	0.0	15.63	3.13	 z = y
0.0	0.0	0.0	0.0	0.0	0.0	0.0	0.0	0.0	0.0	0.0	0.0	0.0	0.0	0.0	0.0	0.0	0.0	0.0	0.0	0.0	0.0	0.0	0.0	0.0	0.0	100.0	 aa = z
