Timestamp:2013-08-30-03:37:25
Inventario:I0
Intervalo:1ms
Ngramas:5
Clasificador:BayesNet
Relation Name:  I0-1ms-5gramas
Num Instances:  183400
Num Attributes: 51

     Name                      Type  Nom  Int Real     Missing      Unique  Dist
   1 0Int(dB)                   Num   0%   9%  91%     0 /  0%     2 /  0%   779 
   2 0Pitch(Hz)                 Num   0%  51%  49%     0 /  0%   256 /  0%  4213 
   3 0RawPitch                  Num   0%  55%  45%     0 /  0%   417 /  0%  4119 
   4 0SmPitch                   Num   0%  53%  47%     0 /  0%   263 /  0%  4193 
   5 0Melogram(st)              Num   0%  49%  51%     0 /  0%   133 /  0%  3454 
   6 0ZCross                    Num   0% 100%   0%     0 /  0%     4 /  0%    58 
   7 0F1(Hz)                    Num   0%  52%  48%     0 /  0%  1154 /  1%  4824 
   8 0F2(Hz)                    Num   0%  52%  48%     0 /  0%  2223 /  1%  6697 
   9 0F3(Hz)                    Num   0%  53%  47%     0 /  0%  1930 /  1%  6200 
  10 0F4(Hz)                    Num   0%  52%  48%     0 /  0%  1933 /  1%  6096 
  11 1Int(dB)                   Num   0%   9%  91%     0 /  0%     2 /  0%   779 
  12 1Pitch(Hz)                 Num   0%  51%  49%     0 /  0%   256 /  0%  4213 
  13 1RawPitch                  Num   0%  55%  45%     0 /  0%   417 /  0%  4119 
  14 1SmPitch                   Num   0%  53%  47%     0 /  0%   263 /  0%  4193 
  15 1Melogram(st)              Num   0%  49%  51%     0 /  0%   133 /  0%  3454 
  16 1ZCross                    Num   0% 100%   0%     0 /  0%     4 /  0%    58 
  17 1F1(Hz)                    Num   0%  52%  48%     0 /  0%  1154 /  1%  4824 
  18 1F2(Hz)                    Num   0%  52%  48%     0 /  0%  2223 /  1%  6697 
  19 1F3(Hz)                    Num   0%  53%  47%     0 /  0%  1930 /  1%  6200 
  20 1F4(Hz)                    Num   0%  52%  48%     0 /  0%  1933 /  1%  6096 
  21 2Int(dB)                   Num   0%   9%  91%     0 /  0%     3 /  0%   780 
  22 2Pitch(Hz)                 Num   0%  51%  49%     0 /  0%   256 /  0%  4213 
  23 2RawPitch                  Num   0%  55%  45%     0 /  0%   417 /  0%  4119 
  24 2SmPitch                   Num   0%  53%  47%     0 /  0%   263 /  0%  4193 
  25 2Melogram(st)              Num   0%  49%  51%     0 /  0%   133 /  0%  3454 
  26 2ZCross                    Num   0% 100%   0%     0 /  0%     4 /  0%    58 
  27 2F1(Hz)                    Num   0%  52%  48%     0 /  0%  1154 /  1%  4824 
  28 2F2(Hz)                    Num   0%  52%  48%     0 /  0%  2223 /  1%  6697 
  29 2F3(Hz)                    Num   0%  53%  47%     0 /  0%  1930 /  1%  6200 
  30 2F4(Hz)                    Num   0%  52%  48%     0 /  0%  1933 /  1%  6096 
  31 3Int(dB)                   Num   0%   9%  91%     0 /  0%     4 /  0%   781 
  32 3Pitch(Hz)                 Num   0%  51%  49%     0 /  0%   256 /  0%  4213 
  33 3RawPitch                  Num   0%  55%  45%     0 /  0%   417 /  0%  4119 
  34 3SmPitch                   Num   0%  53%  47%     0 /  0%   263 /  0%  4193 
  35 3Melogram(st)              Num   0%  49%  51%     0 /  0%   133 /  0%  3454 
  36 3ZCross                    Num   0% 100%   0%     0 /  0%     4 /  0%    58 
  37 3F1(Hz)                    Num   0%  52%  48%     0 /  0%  1154 /  1%  4824 
  38 3F2(Hz)                    Num   0%  52%  48%     0 /  0%  2223 /  1%  6697 
  39 3F3(Hz)                    Num   0%  53%  47%     0 /  0%  1930 /  1%  6200 
  40 3F4(Hz)                    Num   0%  52%  48%     0 /  0%  1933 /  1%  6096 
  41 4Int(dB)                   Num   0%   9%  91%     0 /  0%     3 /  0%   781 
  42 4Pitch(Hz)                 Num   0%  51%  49%     0 /  0%   256 /  0%  4213 
  43 4RawPitch                  Num   0%  55%  45%     0 /  0%   417 /  0%  4119 
  44 4SmPitch                   Num   0%  53%  47%     0 /  0%   263 /  0%  4193 
  45 4Melogram(st)              Num   0%  49%  51%     0 /  0%   133 /  0%  3454 
  46 4ZCross                    Num   0% 100%   0%     0 /  0%     4 /  0%    58 
  47 4F1(Hz)                    Num   0%  52%  48%     0 /  0%  1154 /  1%  4824 
  48 4F2(Hz)                    Num   0%  52%  48%     0 /  0%  2223 /  1%  6697 
  49 4F3(Hz)                    Num   0%  53%  47%     0 /  0%  1930 /  1%  6200 
  50 4F4(Hz)                    Num   0%  52%  48%     0 /  0%  1933 /  1%  6096 
  51 class                      Nom 100%   0%   0%     0 /  0%     0 /  0%    27 


Options: -D -Q weka.classifiers.bayes.net.search.local.K2 -- -P 1 -S BAYES -E weka.classifiers.bayes.net.estimate.SimpleEstimator -- -A 0.5 

Bayes Network Classifier
not using ADTree
#attributes=51 #classindex=50
Network structure (nodes followed by parents)
0Int(dB)(34): class 
0Pitch(Hz)(87): class 
0RawPitch(57): class 
0SmPitch(81): class 
0Melogram(st)(81): class 
0ZCross(19): class 
0F1(Hz)(2830): class 
0F2(Hz)(3620): class 
0F3(Hz)(3776): class 
0F4(Hz)(3676): class 
1Int(dB)(34): class 
1Pitch(Hz)(86): class 
1RawPitch(57): class 
1SmPitch(79): class 
1Melogram(st)(85): class 
1ZCross(19): class 
1F1(Hz)(2817): class 
1F2(Hz)(3593): class 
1F3(Hz)(3780): class 
1F4(Hz)(3701): class 
2Int(dB)(34): class 
2Pitch(Hz)(89): class 
2RawPitch(58): class 
2SmPitch(79): class 
2Melogram(st)(86): class 
2ZCross(19): class 
2F1(Hz)(2802): class 
2F2(Hz)(3580): class 
2F3(Hz)(3751): class 
2F4(Hz)(3692): class 
3Int(dB)(33): class 
3Pitch(Hz)(90): class 
3RawPitch(54): class 
3SmPitch(79): class 
3Melogram(st)(88): class 
3ZCross(19): class 
3F1(Hz)(2785): class 
3F2(Hz)(3605): class 
3F3(Hz)(3755): class 
3F4(Hz)(3661): class 
4Int(dB)(33): class 
4Pitch(Hz)(95): class 
4RawPitch(58): class 
4SmPitch(79): class 
4Melogram(st)(88): class 
4ZCross(18): class 
4F1(Hz)(2785): class 
4F2(Hz)(3608): class 
4F3(Hz)(3772): class 
4F4(Hz)(3673): class 
class(27): 
LogScore Bayes: -2.6752809241701003E7
LogScore BDeu: -5.353838709514487E7
LogScore MDL: -4.5803298170722045E7
LogScore ENTROPY: -3.418176354314533E7
LogScore AIC: -3.6099599543145336E7




=== Stratified cross-validation ===

Correctly Classified Instances      147833               80.6069 %
Incorrectly Classified Instances     35567               19.3931 %
Kappa statistic                          0.7577
K&B Relative Info Score            13799832.7411 %
K&B Information Score               453170.4471 bits      2.4709 bits/instance
Class complexity | order 0          602177.389  bits      3.2834 bits/instance
Class complexity | scheme          2102817.9417 bits     11.4657 bits/instance
Complexity improvement     (Sf)    -1500640.5528 bits     -8.1823 bits/instance
Mean absolute error                      0.0144
Root mean squared error                  0.1173
Relative absolute error                 24.1187 %
Root relative squared error             67.875  %
Coverage of cases (0.95 level)          81.8604 %
Mean rel. region size (0.95 level)       3.9171 %
Total Number of Instances           183400     


=== Detailed Accuracy By Class ===

                 TP Rate  FP Rate  Precision  Recall   F-Measure  MCC      ROC Area  PRC Area  Class
                 0,268    0,002    0,440      0,268    0,333      0,341    0,959     0,301     ch
                 0,991    0,007    0,150      0,991    0,261      0,384    1,000     0,749     rr
                 0,895    0,119    0,830      0,895    0,861      0,767    0,972     0,962     0
                 0,623    0,004    0,648      0,623    0,635      0,632    0,943     0,626     hs
                 0,986    0,012    0,179      0,986    0,303      0,418    0,999     0,855     hg
                 0,805    0,003    0,976      0,805    0,882      0,870    0,979     0,955     a
                 0,204    0,003    0,512      0,204    0,292      0,317    0,940     0,317     c
                 0,981    0,005    0,560      0,981    0,713      0,739    0,999     0,934     b
                 0,795    0,004    0,939      0,795    0,861      0,855    0,972     0,914     e
                 0,920    0,005    0,718      0,920    0,806      0,809    0,991     0,859     d
                 0,887    0,005    0,490      0,887    0,631      0,657    0,960     0,797     g
                 0,411    0,002    0,600      0,411    0,488      0,494    0,971     0,451     f
                 0,831    0,003    0,911      0,831    0,869      0,865    0,967     0,889     i
                 0,675    0,002    0,696      0,675    0,685      0,684    0,961     0,669     j
                 0,936    0,003    0,823      0,936    0,876      0,876    0,988     0,923     m
                 0,946    0,005    0,782      0,946    0,856      0,858    0,991     0,887     l
                 0,760    0,005    0,924      0,760    0,834      0,827    0,944     0,868     o
                 0,885    0,004    0,888      0,885    0,887      0,883    0,976     0,916     n
                 0,383    0,002    0,467      0,383    0,421      0,421    0,940     0,385     q
                 0,395    0,001    0,746      0,395    0,516      0,539    0,955     0,460     p
                 0,567    0,016    0,644      0,567    0,603      0,586    0,970     0,703     s
                 0,785    0,006    0,768      0,785    0,776      0,771    0,941     0,781     r
                 0,903    0,002    0,924      0,903    0,913      0,911    0,983     0,932     u
                 0,247    0,004    0,566      0,247    0,344      0,367    0,938     0,351     t
                 0,949    0,005    0,601      0,949    0,736      0,753    0,984     0,855     v
                 0,788    0,010    0,268      0,788    0,400      0,455    0,956     0,717     y
                 0,000    0,006    0,000      0,000    0,000      -0,001   0,891     0,002     z
Weighted Avg.    0,806    0,050    0,831      0,806    0,810      0,771    0,969     0,881     


=== Confusion Matrix ===

     a     b     c     d     e     f     g     h     i     j     k     l     m     n     o     p     q     r     s     t     u     v     w     x     y     z    aa   <-- classified as
   229     0   275     0     0     0     3     0     0     0     0     0     0     0     0     0     8     0     0     0   326     2     0     6     5     0     0 |     a = ch
     0   215     0     0     0     1     0     0     1     0     0     0     0     0     0     0     0     0     0     0     0     0     0     0     0     0     0 |     b = rr
   131   302 64515   235   956   221    91   298   413   230   268   156   289   240   151   211   289   241   218   144   322   278   141   145   378   775   475 |     c = 0
     0     4   625  1215     7     0     8     4    18     7     0     0     3     0     0     6     9     0     0     0    37     0     0     1     4     2     0 |     d = hs
     0     2     0     0   485     0     0     0     1     0     0     0     2     0     0     0     0     0     0     0     0     0     2     0     0     0     0 |     e = hg
    46   359   725   141   679 21019   110   245    13   205   309    76    50    19   133   323   125   141    73    35   217   241    37    97   172   413   112 |     f = a
     5     5  1424     3     2     9   554     0    27     4     1     2    23     0     6     0    36     0     0     6   517    23    42    24     2     0     0 |     g = c
     0     0     0     0     0     4     0  1173     1     0     0     0     8     0     7     0     0     0     0     0     0     3     0     0     0     0     0 |     h = b
    22   159   509   110   190    33    39    67 10929   145   141    23    33    13    58   104    67   149    36    23    98   192    37    80   120   236   127 |     i = e
     0    17    24     5     9    11     3     0    13  2407     2     2     0     0     1     0     7    23     0     3     2     5     7     2     0    44    30 |     j = d
     0     4    63     0     9     9     5     0     6     0   961     3     2     0     0     0     2     0     0     2     9     5     1     0     0     0     2 |     k = g
     0     3   556     0     5     1     1     0     8     0     0   477     4     0     0     0     9     0     0     0    74     2     2    16     0     2     0 |     l = f
    20     6   322    21    36    10    50    75    18    16    53     8  5885     2    35    49    36    19     6     2   101    48     0    56    69    53    87 |     m = i
     0     1   177     0     7     0     5     1     5     0     0     0     0   661     0     0     0     0     0     2   115     0     0     5     0     0     0 |     n = j
     0     9    41     9     0     3     2    10     4     0     4     2    17     0  2446     0    16     0     3     4     3     0     5     2     1    14    18 |     o = m
     0     2    16    13     4     9     2    10    16     0    10     0     7     0     9  3036    11     9     2     0    26    12     2     3     0     1    10 |     p = l
    11   185  1393    41   136    36    56    91     5   251   137    23    42     1    97    80 10059    68     9    20    70    65     0    50    58   109   141 |     q = o
     7    41   228     8    37    34    20     9    31    29    27     9    16     0     0     8    13  5583     0     0     2     4    15    46     7    48    86 |     r = n
     5     3   282     0     4     0     5     0     9     0     0     0     0     0     0     0     0     0   322     8   192    10     0     0     0     0     0 |     s = q
     6     1   956     4     6    13    22     5    17     0     0     2     0     0     0     5    21     0     0   792    94    28     1    25     2     5     0 |     t = p
     9    80  3130     6    85    53    17    40    15    25    12     1    32     7     6    16    20    10     6     0  5004    12    14    27    62   137     0 |     u = s
     8    14   450    31    15    39    23    45    50    29     5     8    22     0     2    12    17     0     0    10    70  3258     0    11     3    23     3 |     v = r
     9     8    61     6    16     1    22    13     5     6    19     3     4     6    20    17    23    13    13     5    23    17  3735    31     0    41    20 |     w = u
    13    12  1821    25    14    32    35     8    23     0    10     0    13     1     0     3   116    28     1     4   360    36     1   842     0    11     0 |     x = t
     0     0    19     1     0     3     5     0     5     0     2     0     8     0     0     0     2     0     0     0    12     1     0    12  1330     1     0 |     y = v
     0     0    62     0     3     0     4     0     1     0     0     0     0     0     0    10     0     0     1     2    97     2     1     6     0   701     0 |     z = y
     0     0    65     0     0     0     0     0     0     0     0     0     0     0     0     0     0     0     0     0     0     0     0     0     0     0     0 |    aa = z

=== Percent Confusion Matrix ===
a	b	c	d	e	f	g	h	i	j	k	l	m	n	o	p	q	r	s	t	u	v	w	x	y	z	aa	
26.81	0.0	32.2	0.0	0.0	0.0	0.35	0.0	0.0	0.0	0.0	0.0	0.0	0.0	0.0	0.0	0.94	0.0	0.0	0.0	38.17	0.23	0.0	0.7	0.59	0.0	0.0	 a = ch
0.0	99.08	0.0	0.0	0.0	0.46	0.0	0.0	0.46	0.0	0.0	0.0	0.0	0.0	0.0	0.0	0.0	0.0	0.0	0.0	0.0	0.0	0.0	0.0	0.0	0.0	0.0	 b = rr
0.18	0.42	89.46	0.33	1.33	0.31	0.13	0.41	0.57	0.32	0.37	0.22	0.4	0.33	0.21	0.29	0.4	0.33	0.3	0.2	0.45	0.39	0.2	0.2	0.52	1.07	0.66	 c = 0
0.0	0.21	32.05	62.31	0.36	0.0	0.41	0.21	0.92	0.36	0.0	0.0	0.15	0.0	0.0	0.31	0.46	0.0	0.0	0.0	1.9	0.0	0.0	0.05	0.21	0.1	0.0	 d = hs
0.0	0.41	0.0	0.0	98.58	0.0	0.0	0.0	0.2	0.0	0.0	0.0	0.41	0.0	0.0	0.0	0.0	0.0	0.0	0.0	0.0	0.0	0.41	0.0	0.0	0.0	0.0	 e = hg
0.18	1.37	2.78	0.54	2.6	80.49	0.42	0.94	0.05	0.78	1.18	0.29	0.19	0.07	0.51	1.24	0.48	0.54	0.28	0.13	0.83	0.92	0.14	0.37	0.66	1.58	0.43	 f = a
0.18	0.18	52.45	0.11	0.07	0.33	20.41	0.0	0.99	0.15	0.04	0.07	0.85	0.0	0.22	0.0	1.33	0.0	0.0	0.22	19.04	0.85	1.55	0.88	0.07	0.0	0.0	 g = c
0.0	0.0	0.0	0.0	0.0	0.33	0.0	98.08	0.08	0.0	0.0	0.0	0.67	0.0	0.59	0.0	0.0	0.0	0.0	0.0	0.0	0.25	0.0	0.0	0.0	0.0	0.0	 h = b
0.16	1.16	3.7	0.8	1.38	0.24	0.28	0.49	79.54	1.06	1.03	0.17	0.24	0.09	0.42	0.76	0.49	1.08	0.26	0.17	0.71	1.4	0.27	0.58	0.87	1.72	0.92	 i = e
0.0	0.65	0.92	0.19	0.34	0.42	0.11	0.0	0.5	91.98	0.08	0.08	0.0	0.0	0.04	0.0	0.27	0.88	0.0	0.11	0.08	0.19	0.27	0.08	0.0	1.68	1.15	 j = d
0.0	0.37	5.82	0.0	0.83	0.83	0.46	0.0	0.55	0.0	88.73	0.28	0.18	0.0	0.0	0.0	0.18	0.0	0.0	0.18	0.83	0.46	0.09	0.0	0.0	0.0	0.18	 k = g
0.0	0.26	47.93	0.0	0.43	0.09	0.09	0.0	0.69	0.0	0.0	41.12	0.34	0.0	0.0	0.0	0.78	0.0	0.0	0.0	6.38	0.17	0.17	1.38	0.0	0.17	0.0	 l = f
0.28	0.08	4.55	0.3	0.51	0.14	0.71	1.06	0.25	0.23	0.75	0.11	83.09	0.03	0.49	0.69	0.51	0.27	0.08	0.03	1.43	0.68	0.0	0.79	0.97	0.75	1.23	 m = i
0.0	0.1	18.08	0.0	0.72	0.0	0.51	0.1	0.51	0.0	0.0	0.0	0.0	67.52	0.0	0.0	0.0	0.0	0.0	0.2	11.75	0.0	0.0	0.51	0.0	0.0	0.0	 n = j
0.0	0.34	1.57	0.34	0.0	0.11	0.08	0.38	0.15	0.0	0.15	0.08	0.65	0.0	93.61	0.0	0.61	0.0	0.11	0.15	0.11	0.0	0.19	0.08	0.04	0.54	0.69	 o = m
0.0	0.06	0.5	0.4	0.12	0.28	0.06	0.31	0.5	0.0	0.31	0.0	0.22	0.0	0.28	94.58	0.34	0.28	0.06	0.0	0.81	0.37	0.06	0.09	0.0	0.03	0.31	 p = l
0.08	1.4	10.53	0.31	1.03	0.27	0.42	0.69	0.04	1.9	1.04	0.17	0.32	0.01	0.73	0.6	76.01	0.51	0.07	0.15	0.53	0.49	0.0	0.38	0.44	0.82	1.07	 q = o
0.11	0.65	3.61	0.13	0.59	0.54	0.32	0.14	0.49	0.46	0.43	0.14	0.25	0.0	0.0	0.13	0.21	88.51	0.0	0.0	0.03	0.06	0.24	0.73	0.11	0.76	1.36	 r = n
0.6	0.36	33.57	0.0	0.48	0.0	0.6	0.0	1.07	0.0	0.0	0.0	0.0	0.0	0.0	0.0	0.0	0.0	38.33	0.95	22.86	1.19	0.0	0.0	0.0	0.0	0.0	 s = q
0.3	0.05	47.68	0.2	0.3	0.65	1.1	0.25	0.85	0.0	0.0	0.1	0.0	0.0	0.0	0.25	1.05	0.0	0.0	39.5	4.69	1.4	0.05	1.25	0.1	0.25	0.0	 t = p
0.1	0.91	35.46	0.07	0.96	0.6	0.19	0.45	0.17	0.28	0.14	0.01	0.36	0.08	0.07	0.18	0.23	0.11	0.07	0.0	56.7	0.14	0.16	0.31	0.7	1.55	0.0	 u = s
0.19	0.34	10.85	0.75	0.36	0.94	0.55	1.08	1.21	0.7	0.12	0.19	0.53	0.0	0.05	0.29	0.41	0.0	0.0	0.24	1.69	78.54	0.0	0.27	0.07	0.55	0.07	 v = r
0.22	0.19	1.47	0.15	0.39	0.02	0.53	0.31	0.12	0.15	0.46	0.07	0.1	0.15	0.48	0.41	0.56	0.31	0.31	0.12	0.56	0.41	90.28	0.75	0.0	0.99	0.48	 w = u
0.38	0.35	53.42	0.73	0.41	0.94	1.03	0.23	0.67	0.0	0.29	0.0	0.38	0.03	0.0	0.09	3.4	0.82	0.03	0.12	10.56	1.06	0.03	24.7	0.0	0.32	0.0	 x = t
0.0	0.0	1.36	0.07	0.0	0.21	0.36	0.0	0.36	0.0	0.14	0.0	0.57	0.0	0.0	0.0	0.14	0.0	0.0	0.0	0.86	0.07	0.0	0.86	94.93	0.07	0.0	 y = v
0.0	0.0	6.97	0.0	0.34	0.0	0.45	0.0	0.11	0.0	0.0	0.0	0.0	0.0	0.0	1.12	0.0	0.0	0.11	0.22	10.9	0.22	0.11	0.67	0.0	78.76	0.0	 z = y
0.0	0.0	100.0	0.0	0.0	0.0	0.0	0.0	0.0	0.0	0.0	0.0	0.0	0.0	0.0	0.0	0.0	0.0	0.0	0.0	0.0	0.0	0.0	0.0	0.0	0.0	0.0	 aa = z
