Timestamp:2014-12-07-10:42:22
Inventario:I0
Intervalo:15ms
Ngramas:3
Clasificador:NaiveBayes
Relation Name:  I0-15ms-3gramas
Num Instances:  12187
Num Attributes: 31

     Name                      Type  Nom  Int Real     Missing      Unique  Dist
   1 0Int(dB)                   Num   0%  10%  90%     0 /  0%    10 /  0%   768 
   2 0Pitch(Hz)                 Num   0%  50%  50%     0 /  0%   940 /  8%  2714 
   3 0RawPitch                  Num   0%  53%  47%     0 /  0%   980 /  8%  2609 
   4 0SmPitch                   Num   0%  51%  49%     0 /  0%   957 /  8%  2691 
   5 0Melogram(st)              Num   0%  46%  54%     0 /  0%   837 /  7%  2573 
   6 0ZCross                    Num   0% 100%   0%     0 /  0%    10 /  0%    40 
   7 0F1(Hz)                    Num   0%  50%  50%     0 /  0%  2281 / 19%  3977 
   8 0F2(Hz)                    Num   0%  50%  50%     0 /  0%  3848 / 32%  5158 
   9 0F3(Hz)                    Num   0%  50%  50%     0 /  0%  3419 / 28%  4850 
  10 0F4(Hz)                    Num   0%  50%  50%     0 /  0%  3319 / 27%  4764 
  11 1Int(dB)                   Num   0%  10%  90%     0 /  0%    10 /  0%   768 
  12 1Pitch(Hz)                 Num   0%  50%  50%     0 /  0%   940 /  8%  2714 
  13 1RawPitch                  Num   0%  53%  47%     0 /  0%   980 /  8%  2609 
  14 1SmPitch                   Num   0%  51%  49%     0 /  0%   957 /  8%  2691 
  15 1Melogram(st)              Num   0%  46%  54%     0 /  0%   837 /  7%  2573 
  16 1ZCross                    Num   0% 100%   0%     0 /  0%    10 /  0%    40 
  17 1F1(Hz)                    Num   0%  50%  50%     0 /  0%  2281 / 19%  3977 
  18 1F2(Hz)                    Num   0%  50%  50%     0 /  0%  3848 / 32%  5158 
  19 1F3(Hz)                    Num   0%  50%  50%     0 /  0%  3419 / 28%  4850 
  20 1F4(Hz)                    Num   0%  50%  50%     0 /  0%  3319 / 27%  4764 
  21 2Int(dB)                   Num   0%  10%  90%     0 /  0%    10 /  0%   768 
  22 2Pitch(Hz)                 Num   0%  50%  50%     0 /  0%   941 /  8%  2715 
  23 2RawPitch                  Num   0%  53%  47%     0 /  0%   979 /  8%  2609 
  24 2SmPitch                   Num   0%  51%  49%     0 /  0%   957 /  8%  2691 
  25 2Melogram(st)              Num   0%  46%  54%     0 /  0%   838 /  7%  2574 
  26 2ZCross                    Num   0% 100%   0%     0 /  0%    10 /  0%    40 
  27 2F1(Hz)                    Num   0%  50%  50%     0 /  0%  2281 / 19%  3977 
  28 2F2(Hz)                    Num   0%  50%  50%     0 /  0%  3848 / 32%  5158 
  29 2F3(Hz)                    Num   0%  50%  50%     0 /  0%  3419 / 28%  4850 
  30 2F4(Hz)                    Num   0%  50%  50%     0 /  0%  3319 / 27%  4764 
  31 class                      Nom 100%   0%   0%     0 /  0%     0 /  0%    27 


Naive Bayes Classifier

                    Class
Attribute              ch        rr         0        hs        hg         a         c         b         e         d         g         f         i         j         m         l         o         n         q         p         s         r         u         t         v         y         z
                      (0)       (0)    (0.36)    (0.01)       (0)    (0.15)    (0.01)    (0.01)    (0.08)    (0.01)    (0.01)    (0.01)    (0.04)    (0.01)    (0.02)    (0.02)    (0.08)    (0.04)       (0)    (0.01)    (0.05)    (0.03)    (0.02)    (0.02)    (0.01)    (0.01)       (0)
==============================================================================================================================================================================================================================================================================================
0Int(dB)
  mean             -20.931   -8.8459  -49.3157  -13.4728   -8.3285   -5.6898  -29.4169   -5.2394   -8.2853   -6.8144   -6.4627  -15.6195  -11.4664  -11.5371   -7.4796   -7.1492  -10.3306    -7.054  -28.7875  -21.5229  -17.7598   -8.9967        -9  -25.8061    -8.851  -14.4343  -26.0954
  std. dev.        11.0082    7.7103   15.6452    10.508    6.1613   11.7184   12.3459    4.3417   10.4618     5.834    7.0305    9.0524    9.6852    8.2536    7.8194    6.2651   12.5524    6.6776   15.8398   13.0709    9.9672    9.9787   11.0737   11.5252   11.2591    7.3633    2.8789
  weight sum            58        15      4416       140        34      1815       182        82       971       177        72        78       503        66       184       223       940       436        55       133       612       308       285       234        99        64         5
  precision         0.1005    0.1005    0.1005    0.1005    0.1005    0.1005    0.1005    0.1005    0.1005    0.1005    0.1005    0.1005    0.1005    0.1005    0.1005    0.1005    0.1005    0.1005    0.1005    0.1005    0.1005    0.1005    0.1005    0.1005    0.1005    0.1005    0.1005

0Pitch(Hz)
  mean             98.0186  224.8485   15.1236  131.1706  148.7054  212.0609    46.632  218.0058   171.376  201.9838  220.1143  149.3574  155.6275  191.9314  191.8374  175.4605  170.5933  201.1477  102.0687  128.6816  109.2869  165.7562  208.3385   100.038  171.6804  128.7363   33.4567
  std. dev.       111.2139  125.7463   53.6597   83.7537   37.9877  114.4723    82.747   76.0908   96.7489   79.4376   81.6494  123.1077   89.3289  117.5726   85.5712   70.8503  111.0794   82.5723  119.2608   126.259  111.5044   86.0543  113.7908  124.0952   91.0079   65.6215   66.9134
  weight sum            58        15      4416       140        34      1815       182        82       971       177        72        78       503        66       184       223       940       436        55       133       612       308       285       234        99        64         5
  precision         0.1828    0.1828    0.1828    0.1828    0.1828    0.1828    0.1828    0.1828    0.1828    0.1828    0.1828    0.1828    0.1828    0.1828    0.1828    0.1828    0.1828    0.1828    0.1828    0.1828    0.1828    0.1828    0.1828    0.1828    0.1828    0.1828    0.1828

0RawPitch
  mean             89.1162  219.1372   12.3493  116.9715  136.4089  203.0175   39.7543  215.2891  166.4294  195.5579  206.8753  109.8716  144.7636  152.8229  183.6317  167.7113  160.9027  190.7728   89.9735  114.0625   91.4574   154.795  197.8707   71.4444  161.7123   103.338         0
  std. dev.       111.0886  119.2548   47.9354   92.2229   54.1745   117.064    82.474   77.4482   99.7164   88.5514   96.8329  111.2465    91.976  117.5713   91.8981   74.6575  115.9139   92.8924  117.7918  129.1964  109.4515   94.7898  115.5032  113.8458   97.8125   75.4422    0.0317
  weight sum            58        15      4416       140        34      1815       182        82       971       177        72        78       503        66       184       223       940       436        55       133       612       308       285       234        99        64         5
  precision           0.19      0.19      0.19      0.19      0.19      0.19      0.19      0.19      0.19      0.19      0.19      0.19      0.19      0.19      0.19      0.19      0.19      0.19      0.19      0.19      0.19      0.19      0.19      0.19      0.19      0.19      0.19

0SmPitch
  mean             98.1449  224.8343   13.4413  126.8822  148.6575   210.373   43.9154  217.9998  169.6121  201.1367  214.9932  128.5627  152.7216  165.6552  190.2692  175.4816  167.6951   198.824   98.4174  125.5267  104.0152  158.0908  204.0613   84.7723  168.5197  126.0091         0
  std. dev.       111.3049  125.7556   49.2449   84.9845    38.094  115.4933   81.7372   76.1041     98.43   81.1257   89.1684  115.9955   90.5569  128.6668   87.6647   70.8213  112.6857   85.7147  119.3496  127.5984  111.0455   92.3982  114.8803  119.2084   93.9135   67.1806    0.0307
  weight sum            58        15      4416       140        34      1815       182        82       971       177        72        78       503        66       184       223       940       436        55       133       612       308       285       234        99        64         5
  precision         0.1841    0.1841    0.1841    0.1841    0.1841    0.1841    0.1841    0.1841    0.1841    0.1841    0.1841    0.1841    0.1841    0.1841    0.1841    0.1841    0.1841    0.1841    0.1841    0.1841    0.1841    0.1841    0.1841    0.1841    0.1841    0.1841    0.1841

0Melogram(st)
  mean             26.9902   52.9129    4.5593   39.5031   49.5698   49.8584   14.7335   55.6092    46.364   53.2637   53.1112   39.0777   43.7828   35.9004   50.8423   51.7248   44.5801   52.3886   24.7475   34.1341   29.7208   44.7417   46.8237   25.9331   48.5276   44.2774   20.8558
  std. dev.        28.1265   16.2293   15.1232   21.4577    4.5465   19.3586   23.8396    6.3394   19.9773   10.4759   14.3107   25.3122   21.0046   27.7809   14.3368    9.3098   22.3034   13.1771   28.3465    27.691   27.3833   20.5457     23.28   28.4013   15.8092   15.2369    25.543
  weight sum            58        15      4416       140        34      1815       182        82       971       177        72        78       503        66       184       223       940       436        55       133       612       308       285       234        99        64         5
  precision         0.0321    0.0321    0.0321    0.0321    0.0321    0.0321    0.0321    0.0321    0.0321    0.0321    0.0321    0.0321    0.0321    0.0321    0.0321    0.0321    0.0321    0.0321    0.0321    0.0321    0.0321    0.0321    0.0321    0.0321    0.0321    0.0321    0.0321

0ZCross
  mean              2.9085    4.0427    0.2319    2.1894    3.8914    6.6433    0.6664    3.7514    4.5363    3.8995    4.9922    1.7528    3.4129    4.2432    3.4515    3.8417    3.8308    3.7376    1.0825    1.6994    3.3509    4.0201    3.6211    0.5796    4.0761    2.0156         0
  std. dev.          6.346     2.301    1.1941    2.1573    1.9874    4.8274    1.9776    1.6593    3.4214      2.03    2.7806    2.4171    3.6124    3.7525    2.4853    2.0537    3.7224    2.6092    2.5009    3.2967    5.4156    2.8085    3.3263    1.3219    2.5629    1.9053    0.1838
  weight sum            58        15      4416       140        34      1815       182        82       971       177        72        78       503        66       184       223       940       436        55       133       612       308       285       234        99        64         5
  precision         1.1026    1.1026    1.1026    1.1026    1.1026    1.1026    1.1026    1.1026    1.1026    1.1026    1.1026    1.1026    1.1026    1.1026    1.1026    1.1026    1.1026    1.1026    1.1026    1.1026    1.1026    1.1026    1.1026    1.1026    1.1026    1.1026    1.1026

0F1(Hz)
  mean            327.3203  478.2392    54.094  496.3047  462.2228  617.3497  167.7191  464.9509  421.4711  511.8322  535.7328  484.0885  328.6039  553.0504   456.761  505.4943  427.7699  538.4632  220.1689  385.8369  362.0145  534.1085  447.6356  230.0022   502.259  387.1006  144.8121
  std. dev.       289.1422   215.594  172.0438  227.4856   86.3804  320.5416  252.0275  131.9403  199.8827  138.1345  169.7117  286.8356  197.0056  232.2442  173.5156  165.0792  253.7566  150.2489  244.6569  301.0347  306.8918  217.3447  351.3336  253.1962  183.4621  170.7393  289.6242
  weight sum            58        15      4416       140        34      1815       182        82       971       177        72        78       503        66       184       223       940       436        55       133       612       308       285       234        99        64         5
  precision          0.438     0.438     0.438     0.438     0.438     0.438     0.438     0.438     0.438     0.438     0.438     0.438     0.438     0.438     0.438     0.438     0.438     0.438     0.438     0.438     0.438     0.438     0.438     0.438     0.438     0.438     0.438

0F2(Hz)
  mean           1087.4776 1527.4141  161.1049 1452.2596 1927.2412 1342.3076  534.6639 1645.9368 1557.4028 1503.7689 1756.7643 1296.7119 1600.4272 1767.9386 1643.7176 1627.8492 1095.9014 1666.4781  965.7947 1156.7656 1105.8328  1432.021  941.4183  812.9247 1519.7092 1377.3762  234.5069
  std. dev.       895.4324  615.2236  507.0628  643.2182  373.6851  574.6123  814.1792  371.7607  715.8668  295.4608   461.855  746.2165  875.8818  592.6437  524.0283  430.8167   642.731  388.1397  1019.663  845.1433  893.7421  532.8237  583.0066  855.1156  534.6375   545.292  469.0138
  weight sum            58        15      4416       140        34      1815       182        82       971       177        72        78       503        66       184       223       940       436        55       133       612       308       285       234        99        64         5
  precision         0.5776    0.5776    0.5776    0.5776    0.5776    0.5776    0.5776    0.5776    0.5776    0.5776    0.5776    0.5776    0.5776    0.5776    0.5776    0.5776    0.5776    0.5776    0.5776    0.5776    0.5776    0.5776    0.5776    0.5776    0.5776    0.5776    0.5776

0F3(Hz)
  mean            1757.213 2440.4206  277.6514  2398.307  2567.136 2483.7595  925.2704 2784.6067 2361.5599  2865.449 3050.0303 2189.0974 2260.1467 2509.9969 2774.4647 2722.2457   2286.61 2858.7624 1433.6265  1934.082 1855.7763 2538.4529 2306.2699 1454.7554 2607.7847 2519.5639  754.6362
  std. dev.      1444.1575 1010.6417  854.2277  946.2744  117.1264 1035.4395 1373.3079  441.7091  1058.658  384.2718  710.6341 1246.0471 1230.4607  871.5556  672.5073  672.4013 1195.8853  490.2735 1469.4117 1403.8752 1467.6845  936.9488 1189.9252 1489.8675  856.5234 1015.2903 1509.2723
  weight sum            58        15      4416       140        34      1815       182        82       971       177        72        78       503        66       184       223       940       436        55       133       612       308       285       234        99        64         5
  precision         0.8494    0.8494    0.8494    0.8494    0.8494    0.8494    0.8494    0.8494    0.8494    0.8494    0.8494    0.8494    0.8494    0.8494    0.8494    0.8494    0.8494    0.8494    0.8494    0.8494    0.8494    0.8494    0.8494    0.8494    0.8494    0.8494    0.8494

0F4(Hz)
  mean           2051.3279  2897.763  332.5609  2965.072  3561.449 2866.6497  1039.661 3316.5509 2879.2008 3346.8397 3007.0152 2533.5597 2723.7025 3123.2243 3259.6314 3153.7298 2646.7638 3269.2071 1673.0315 2225.0718 2094.9239 2959.8248 2634.9155 1587.3165 3080.2185 2868.3807   597.976
  std. dev.      1678.9208 1209.6859 1021.1349 1152.9955  107.7798 1186.2899 1545.1663  450.2869 1266.1181  398.6879  708.4745 1419.5803 1450.2143 1039.6454  740.3033   735.434 1374.1393  535.9448 1736.8236 1591.6246 1651.5976 1016.7725 1307.4223 1635.8187  973.9979 1129.4211  1195.952
  weight sum            58        15      4416       140        34      1815       182        82       971       177        72        78       503        66       184       223       940       436        55       133       612       308       285       234        99        64         5
  precision         0.8707    0.8707    0.8707    0.8707    0.8707    0.8707    0.8707    0.8707    0.8707    0.8707    0.8707    0.8707    0.8707    0.8707    0.8707    0.8707    0.8707    0.8707    0.8707    0.8707    0.8707    0.8707    0.8707    0.8707    0.8707    0.8707    0.8707

1Int(dB)
  mean            -21.2846   -8.6381   -50.013  -16.7971   -10.404   -4.1575  -28.2521    -5.883   -6.5035   -7.4766   -6.8885  -19.1545  -10.0663  -14.0943    -7.526   -7.7649   -8.9829   -8.1081  -27.0695  -23.9407  -19.6552  -10.2911   -7.1056  -27.8939   -9.0226  -15.5039  -26.9599
  std. dev.         9.6713     4.614   14.6127   11.2168     5.961     9.907   10.1778    4.3896    9.1484    6.0362    6.9817    7.3574    8.7445    6.9192    6.5909    5.8292   12.0392     7.029   13.7075   11.4771    8.3008    9.7589    9.4113    9.7107    9.0203    5.8791    1.5758
  weight sum            58        15      4416       140        34      1815       182        82       971       177        72        78       503        66       184       223       940       436        55       133       612       308       285       234        99        64         5
  precision         0.1005    0.1005    0.1005    0.1005    0.1005    0.1005    0.1005    0.1005    0.1005    0.1005    0.1005    0.1005    0.1005    0.1005    0.1005    0.1005    0.1005    0.1005    0.1005    0.1005    0.1005    0.1005    0.1005    0.1005    0.1005    0.1005    0.1005

1Pitch(Hz)
  mean             71.3926  249.9806   12.1273  111.6333  146.3717  220.5508   42.7375  215.3616  183.4717  200.0956   217.664  120.4689  170.1872  181.3775  192.6144  175.2293  178.6603   197.456   93.7352  108.2177   84.9448   165.327   222.874   78.7782  175.7986  126.5281         0
  std. dev.       106.2352  119.8025   48.3511    86.708   35.6368  106.6533      85.7   75.0849   90.6248   81.8085   86.9212  126.4136    80.118  124.6141   85.1118   65.6602  105.9497   85.1645  117.1352  125.1257  107.9113   88.6022   96.7144  115.0122   81.6023   65.3095    0.0305
  weight sum            58        15      4416       140        34      1815       182        82       971       177        72        78       503        66       184       223       940       436        55       133       612       308       285       234        99        64         5
  precision         0.1828    0.1828    0.1828    0.1828    0.1828    0.1828    0.1828    0.1828    0.1828    0.1828    0.1828    0.1828    0.1828    0.1828    0.1828    0.1828    0.1828    0.1828    0.1828    0.1828    0.1828    0.1828    0.1828    0.1828    0.1828    0.1828    0.1828

1RawPitch
  mean             66.1337  244.2921    9.8346   95.7385  134.9784   211.289   30.5856  212.3257  179.2232  194.4351  207.3634   81.4434  160.6735  132.5369  182.9595  162.8328  170.2865  185.7362   69.0398   85.1137   64.8225  157.2248  214.8787   54.1389  162.7313   95.7888         0
  std. dev.       105.3047  114.2638   42.7207   91.8264   60.1769  110.3223   72.4463   76.3731   94.3626   90.2297   98.5622  104.6868   84.5436  112.8858   92.9779   73.8176  111.2599   97.0818  110.0885  120.5797   99.8872   95.9405  100.3251  103.3996   90.1133   75.9176    0.0317
  weight sum            58        15      4416       140        34      1815       182        82       971       177        72        78       503        66       184       223       940       436        55       133       612       308       285       234        99        64         5
  precision           0.19      0.19      0.19      0.19      0.19      0.19      0.19      0.19      0.19      0.19      0.19      0.19      0.19      0.19      0.19      0.19      0.19      0.19      0.19      0.19      0.19      0.19      0.19      0.19      0.19      0.19      0.19

1SmPitch
  mean             71.3187  249.9809   10.5826  105.2478   147.071  219.0794   33.7207  215.3574  181.7709  199.4185  212.5412   99.6654  167.6412  145.8489  191.1016   175.333  176.3381  195.1206   84.9856  103.0125   78.3357   158.141  222.2202   64.9835  173.2187  121.0157         0
  std. dev.       106.1016  119.8082   43.6632    85.967   34.7216  107.8621   75.6237   75.0845   92.0323   83.1714   93.8745  114.3519   82.3894   135.267    87.183   65.6042  107.6496    88.115  114.6189  126.4985  105.4657   94.4218    96.345  107.4413   84.0147   68.1208    0.0307
  weight sum            58        15      4416       140        34      1815       182        82       971       177        72        78       503        66       184       223       940       436        55       133       612       308       285       234        99        64         5
  precision         0.1841    0.1841    0.1841    0.1841    0.1841    0.1841    0.1841    0.1841    0.1841    0.1841    0.1841    0.1841    0.1841    0.1841    0.1841    0.1841    0.1841    0.1841    0.1841    0.1841    0.1841    0.1841    0.1841    0.1841    0.1841    0.1841    0.1841

1Melogram(st)
  mean             19.6077   57.1388    3.8391   34.1376   49.3225    52.205   12.7958   55.3031    49.433   53.0523   52.3404   32.1031   47.5936   27.4894   51.3832   51.8774    46.689   51.6353   21.7538   27.1281   23.2087   44.2946   51.8876   20.1019   49.9865   43.9625   10.4247
  std. dev.        27.1247    8.7514   13.9988   23.7583    4.4117   16.2015   23.2099    6.3821   16.6562   10.6126    15.624   27.3951    17.453   28.8032   13.3772    7.8647   20.4728   14.2841    27.897   28.6853   27.1687   21.1968   18.0236   27.1952    13.166   15.1598   20.8493
  weight sum            58        15      4416       140        34      1815       182        82       971       177        72        78       503        66       184       223       940       436        55       133       612       308       285       234        99        64         5
  precision         0.0321    0.0321    0.0321    0.0321    0.0321    0.0321    0.0321    0.0321    0.0321    0.0321    0.0321    0.0321    0.0321    0.0321    0.0321    0.0321    0.0321    0.0321    0.0321    0.0321    0.0321    0.0321    0.0321    0.0321    0.0321    0.0321    0.0321

1ZCross
  mean               5.779    3.8957    0.1446    1.5278    3.3077    6.9738    0.8481    3.6707      4.81    3.8123    4.6706    0.9753    3.4699    3.8924     3.044    3.4956    4.0255    3.0573    1.9245    1.0611    3.4951    3.5941    3.6946    0.3298    3.5082    1.6538         0
  std. dev.          9.928    2.2727    0.8059    1.8477    2.1393    4.4735    2.3971    1.6788    3.2495    2.0932    2.6149     1.656    3.3736    3.6478    1.8914    2.0267    3.4165    2.0939     3.649     2.729    6.0768    2.6275    3.0049    0.9858    2.1565     1.765    0.1838
  weight sum            58        15      4416       140        34      1815       182        82       971       177        72        78       503        66       184       223       940       436        55       133       612       308       285       234        99        64         5
  precision         1.1026    1.1026    1.1026    1.1026    1.1026    1.1026    1.1026    1.1026    1.1026    1.1026    1.1026    1.1026    1.1026    1.1026    1.1026    1.1026    1.1026    1.1026    1.1026    1.1026    1.1026    1.1026    1.1026    1.1026    1.1026    1.1026    1.1026

1F1(Hz)
  mean            250.0914  540.4684   44.5047  460.2331  449.0433   664.627  122.9102  468.9733  448.7867  510.9363  525.8346  402.7725  347.8788  535.7815  445.8913  489.8805  460.8448  507.8223  198.2356  317.8602  292.5534  516.0583  479.4518  165.6477  496.6532  369.6068         0
  std. dev.       303.4198    187.58  156.5715  263.9602   82.5521   286.434  230.0997  132.5848  167.2097  140.7084  172.0577  328.0792  165.9413  288.1008  162.9588  148.5956  237.0895  152.5682  239.9157  313.0359  309.3148  221.7622  324.8579  231.0072  173.7959  172.1146     0.073
  weight sum            58        15      4416       140        34      1815       182        82       971       177        72        78       503        66       184       223       940       436        55       133       612       308       285       234        99        64         5
  precision          0.438     0.438     0.438     0.438     0.438     0.438     0.438     0.438     0.438     0.438     0.438     0.438     0.438     0.438     0.438     0.438     0.438     0.438     0.438     0.438     0.438     0.438     0.438     0.438     0.438     0.438     0.438

1F2(Hz)
  mean            761.0023  1585.983  133.6364 1335.8024 1948.8844 1411.2646  378.9585 1602.3278 1697.5367 1494.7328 1769.2148 1054.9849  1816.924 1593.7474 1666.0683  1664.865 1136.7816 1648.9076  849.9694  949.1628  904.2162 1418.5974 1012.0156  579.1114 1528.5249  1393.522         0
  std. dev.       879.5048  442.8865  464.4079  748.1748  361.5875   483.234  720.3432  358.5885  606.8332  278.4461  473.0726  836.6685  769.2522  746.5195  462.8215  379.5826   583.467  412.2239  999.7849  886.8005  920.1743  561.2007  498.3854  782.5506  469.4822  581.5237    0.0963
  weight sum            58        15      4416       140        34      1815       182        82       971       177        72        78       503        66       184       223       940       436        55       133       612       308       285       234        99        64         5
  precision         0.5776    0.5776    0.5776    0.5776    0.5776    0.5776    0.5776    0.5776    0.5776    0.5776    0.5776    0.5776    0.5776    0.5776    0.5776    0.5776    0.5776    0.5776    0.5776    0.5776    0.5776    0.5776    0.5776    0.5776    0.5776    0.5776    0.5776

1F3(Hz)
  mean           1260.1922 2658.6116  231.1637 2191.5429 2548.0488 2621.2562   670.982 2770.4978 2529.5236 2872.1485 3038.7871 1797.7158 2497.6197 2304.2154 2790.6686 2770.6291 2424.0221 2826.3944 1259.9252 1590.9878 1514.9732 2478.8106 2541.1097 1068.4595 2637.8065 2473.9069         0
  std. dev.      1460.1355  800.8591   786.435 1135.9121  117.8871  877.3993 1240.7279  453.3517  892.9521  378.7918  719.1425 1418.9442 1063.4499 1084.9562  575.6843  599.2229 1093.5808  555.5731 1437.0492 1478.8939 1515.6148    980.19  990.0091  1419.254  780.9441 1054.5855    0.1416
  weight sum            58        15      4416       140        34      1815       182        82       971       177        72        78       503        66       184       223       940       436        55       133       612       308       285       234        99        64         5
  precision         0.8494    0.8494    0.8494    0.8494    0.8494    0.8494    0.8494    0.8494    0.8494    0.8494    0.8494    0.8494    0.8494    0.8494    0.8494    0.8494    0.8494    0.8494    0.8494    0.8494    0.8494    0.8494    0.8494    0.8494    0.8494    0.8494    0.8494

1F4(Hz)
  mean           1467.9942 3065.5121  277.5098 2698.0749  3580.194 3025.4565  746.1066 3307.3771 3071.5364 3364.2827 3022.0342 2062.7171 2991.7043 2867.7883 3310.3857 3203.4712 2797.3211 3237.3338 1513.3032 1829.9252 1705.4187 2894.6122 2890.5441 1173.5735 3146.9171 2822.3712         0
  std. dev.      1698.0425   924.213   942.466 1383.3367  101.1704 1002.2633 1383.9909  447.6939 1053.8859  394.5159  721.0039 1610.6178 1236.9689 1324.4549  617.8865  633.5254  1248.566  626.2945 1744.0692 1678.9036 1702.1861 1075.7808 1057.0684 1565.9515  866.9696 1184.4807    0.1451
  weight sum            58        15      4416       140        34      1815       182        82       971       177        72        78       503        66       184       223       940       436        55       133       612       308       285       234        99        64         5
  precision         0.8707    0.8707    0.8707    0.8707    0.8707    0.8707    0.8707    0.8707    0.8707    0.8707    0.8707    0.8707    0.8707    0.8707    0.8707    0.8707    0.8707    0.8707    0.8707    0.8707    0.8707    0.8707    0.8707    0.8707    0.8707    0.8707    0.8707

2Int(dB)
  mean            -19.9241  -10.0857  -50.5594  -20.3441  -10.8859   -3.3275  -24.5797   -5.9761   -5.5049   -7.8361   -7.3814  -21.3582   -9.1576  -15.5747   -7.6522   -8.2874   -8.3852   -9.3446  -22.7599  -23.1366  -21.4103  -11.9138   -5.5692  -25.6274    -8.786   -15.851  -27.6233
  std. dev.         8.7568    4.0742   13.7511   11.4098    5.8423    8.5772    9.2384    4.2448    8.2833    6.2597    7.5828    5.6522    8.3719    5.9541    5.8929    5.7665   12.0282    7.7338   10.9898   10.2483    6.9681    9.7822    7.6498    9.3441    6.8928    4.6955    2.2988
  weight sum            58        15      4416       140        34      1815       182        82       971       177        72        78       503        66       184       223       940       436        55       133       612       308       285       234        99        64         5
  precision         0.1005    0.1005    0.1005    0.1005    0.1005    0.1005    0.1005    0.1005    0.1005    0.1005    0.1005    0.1005    0.1005    0.1005    0.1005    0.1005    0.1005    0.1005    0.1005    0.1005    0.1005    0.1005    0.1005    0.1005    0.1005    0.1005    0.1005

2Pitch(Hz)
  mean             67.5252  249.5961    9.3592   91.9198   147.253  225.0079   74.1457  214.4821  189.9846  199.2072  215.8451   100.462  175.8084  168.6894  194.1565  174.3313  180.3637  191.6244  104.9485  106.3819   66.8505  163.2202  231.3108    98.347  181.4565   125.859         0
  std. dev.       107.9579  123.2075   43.0337   86.3251   36.7152  102.2119  107.8152   73.5402   87.3032   83.2243   91.5699  123.2721   73.8088  126.5758   84.7792   63.5247  102.9621   88.4507  122.3126   119.806  101.3207   92.1643   84.4017  118.7236   72.0404   65.1401    0.0305
  weight sum            58        15      4416       140        34      1815       182        82       971       177        72        78       503        66       184       223       940       436        55       133       612       308       285       234        99        64         5
  precision         0.1828    0.1828    0.1828    0.1828    0.1828    0.1828    0.1828    0.1828    0.1828    0.1828    0.1828    0.1828    0.1828    0.1828    0.1828    0.1828    0.1828    0.1828    0.1828    0.1828    0.1828    0.1828    0.1828    0.1828    0.1828    0.1828    0.1828

2RawPitch
  mean             59.4185  235.9578    7.3688   76.0431  138.1132   215.767   49.4982  212.1658  186.8578  194.0122  203.5794   58.8099  168.3408  119.1223  184.1232  160.0017  174.1912  179.8195   69.1779   80.1211     44.71  158.4672  222.5963   70.8257  167.9801   93.1794         0
  std. dev.       100.6472  129.4433   36.8772   88.9827   61.4338  106.4781    88.076   75.2327   91.2535   91.7751  105.2011   91.4137   79.5481  106.2356   94.6293   73.5007  108.1025   99.7657  114.2125  113.7475   86.6102   95.6003   90.9444  110.5563   80.4602   74.3693    0.0317
  weight sum            58        15      4416       140        34      1815       182        82       971       177        72        78       503        66       184       223       940       436        55       133       612       308       285       234        99        64         5
  precision           0.19      0.19      0.19      0.19      0.19      0.19      0.19      0.19      0.19      0.19      0.19      0.19      0.19      0.19      0.19      0.19      0.19      0.19      0.19      0.19      0.19      0.19      0.19      0.19      0.19      0.19      0.19

2SmPitch
  mean             67.1323  249.6004    8.0645   84.9611   149.096  223.5892    64.147  214.4752  188.6266  198.3639  210.7412   79.4888  174.1996  134.3991  192.1171  174.4332  178.2642  189.2256   85.2601    96.716   58.5455  158.2103  230.9021   82.7693  179.1244  120.3713         0
  std. dev.        107.248  123.1903   38.1459   84.4039   34.3343   103.339  103.6883   73.5515   88.6539   84.9657   98.1062  106.9451   75.9109  135.4847   87.7433   63.4898  104.6347   91.0463  115.0944  121.6385   96.1366    95.792   84.0603  114.5351   74.6904   67.9226    0.0307
  weight sum            58        15      4416       140        34      1815       182        82       971       177        72        78       503        66       184       223       940       436        55       133       612       308       285       234        99        64         5
  precision         0.1841    0.1841    0.1841    0.1841    0.1841    0.1841    0.1841    0.1841    0.1841    0.1841    0.1841    0.1841    0.1841    0.1841    0.1841    0.1841    0.1841    0.1841    0.1841    0.1841    0.1841    0.1841    0.1841    0.1841    0.1841    0.1841    0.1841

2Melogram(st)
  mean             20.0597   56.8963    3.0766   28.5854   49.4194   53.5948   19.6867   55.2672   50.9897   52.6514   51.6383   27.1563    49.433   24.4046   51.4935   51.2416   47.3663   50.3765    22.656   27.4207    18.661   43.4271   54.7393   23.2145   51.6257   43.8803         0
  std. dev.        27.7197    9.0716   12.6727   24.8974    4.4238   13.6867   26.9586    6.3062   14.4101   11.4213   16.8042    27.662   14.7392   28.7738   13.4066    9.1948   19.6193   15.9841   27.9723   28.5387   26.1777   22.0374   13.2895   28.1608    9.6493   15.1305    0.0053
  weight sum            58        15      4416       140        34      1815       182        82       971       177        72        78       503        66       184       223       940       436        55       133       612       308       285       234        99        64         5
  precision         0.0321    0.0321    0.0321    0.0321    0.0321    0.0321    0.0321    0.0321    0.0321    0.0321    0.0321    0.0321    0.0321    0.0321    0.0321    0.0321    0.0321    0.0321    0.0321    0.0321    0.0321    0.0321    0.0321    0.0321    0.0321    0.0321    0.0321

2ZCross
  mean              7.6799    3.3812    0.1006    1.0002    3.1131    7.1475    1.4721    3.9262    4.8701    3.8434    4.4562     0.622    3.5072     3.742    2.7804     3.194    4.0889    2.4732    3.7888    0.8622    3.4933    3.0822    3.8532    0.6502    3.2966    1.4471         0
  std. dev.         11.511     2.294    0.6801    1.5306    2.1802    4.3444    2.9722     1.688    2.9907    2.0838    2.5024    1.3629    3.0758    3.6662     1.503     1.776     2.998     1.643    5.4453    2.2557    6.3896    2.3474    2.8492    1.3341    1.8509    1.5455    0.1838
  weight sum            58        15      4416       140        34      1815       182        82       971       177        72        78       503        66       184       223       940       436        55       133       612       308       285       234        99        64         5
  precision         1.1026    1.1026    1.1026    1.1026    1.1026    1.1026    1.1026    1.1026    1.1026    1.1026    1.1026    1.1026    1.1026    1.1026    1.1026    1.1026    1.1026    1.1026    1.1026    1.1026    1.1026    1.1026    1.1026    1.1026    1.1026    1.1026    1.1026

2F1(Hz)
  mean            188.4276  599.5146   34.4895  406.6466  444.7532  705.7283  127.8946  472.8354  469.1052  515.2919  510.8869    331.11  370.0223  514.7495  436.5593  473.5006  487.7924  471.9452  219.1654  280.4994  221.2493   492.786  504.5577  163.3452  490.2597  361.4964         0
  std. dev.        283.058  131.9453  138.1474  293.7037   83.2706  248.1314   233.038  132.4207  136.7924  145.0907  175.1628  340.3969  133.9826  318.7919  153.6367  132.2957   218.941  155.0509  254.0063  304.7934  294.8042  227.0181   299.786  234.0141  163.6854  167.8174     0.073
  weight sum            58        15      4416       140        34      1815       182        82       971       177        72        78       503        66       184       223       940       436        55       133       612       308       285       234        99        64         5
  precision          0.438     0.438     0.438     0.438     0.438     0.438     0.438     0.438     0.438     0.438     0.438     0.438     0.438     0.438     0.438     0.438     0.438     0.438     0.438     0.438     0.438     0.438     0.438     0.438     0.438     0.438     0.438

2F2(Hz)
  mean             582.254 1655.3339  104.1934 1173.6939 1937.6721 1470.2135  378.8919 1567.9815 1803.6497 1484.1532 1734.4383  863.4872 2010.9745 1447.8501 1679.3752 1679.8878 1164.8777 1613.5559  867.8857  834.5412  697.8769 1395.3507 1075.9553  551.2507 1565.2815  1426.653         0
  std. dev.       838.4484  122.6896  413.0188  827.3545  346.9736  382.5825  705.1441   345.791  490.0179  291.7647  519.4319  859.4324  600.2718  822.8275  408.7755  329.2422   526.346  450.5673  982.4149  869.0002  897.9368  596.7515   411.661  767.3792  381.4164   592.755    0.0963
  weight sum            58        15      4416       140        34      1815       182        82       971       177        72        78       503        66       184       223       940       436        55       133       612       308       285       234        99        64         5
  precision         0.5776    0.5776    0.5776    0.5776    0.5776    0.5776    0.5776    0.5776    0.5776    0.5776    0.5776    0.5776    0.5776    0.5776    0.5776    0.5776    0.5776    0.5776    0.5776    0.5776    0.5776    0.5776    0.5776    0.5776    0.5776    0.5776    0.5776

2F3(Hz)
  mean            956.7836 2879.6341  181.0252 1917.1397 2531.3849 2737.7643  688.8201 2757.8703 2651.8402 2866.2889 2990.6054 1469.8674 2714.2403 2123.7495  2788.882 2812.7732 2529.7403 2771.4618 1304.6053 1416.4517  1162.571 2419.9212 2728.7599 1006.6215 2698.2621 2479.1893         0
  std. dev.      1378.1536  412.1341   703.345 1283.8867   113.605  702.1935 1233.8388  461.2274  731.0473  431.5143  804.4948 1462.0673  831.8369 1192.6206  501.5001  549.4819  990.6689  651.1415 1435.0242 1462.0442 1476.1604 1040.8353   731.591 1385.4742  643.6519 1054.0813    0.1416
  weight sum            58        15      4416       140        34      1815       182        82       971       177        72        78       503        66       184       223       940       436        55       133       612       308       285       234        99        64         5
  precision         0.8494    0.8494    0.8494    0.8494    0.8494    0.8494    0.8494    0.8494    0.8494    0.8494    0.8494    0.8494    0.8494    0.8494    0.8494    0.8494    0.8494    0.8494    0.8494    0.8494    0.8494    0.8494    0.8494    0.8494    0.8494    0.8494    0.8494

2F4(Hz)
  mean           1135.0531 3224.5544  217.3015 2364.2228  3591.692 3153.4622  804.2501 3299.2119 3206.8695 3354.8725 2990.2306 1683.5627 3233.1412 2674.6579 3339.9885 3238.2355 2916.3463 3186.2299  1564.736 1663.0119 1312.9842 2813.9735 3100.5588 1137.6491 3250.7027 2825.3097         0
  std. dev.      1634.2344  419.0741  842.6819 1570.8431   92.2165  795.7984 1443.5944  441.7568  845.6004  465.2171  811.3198 1660.0541  946.7373 1484.3649  523.4237  553.8865 1123.3047  750.6649 1735.2537 1691.4533 1664.3677 1153.6107  725.9921 1573.2029  666.8328 1186.6186    0.1451
  weight sum            58        15      4416       140        34      1815       182        82       971       177        72        78       503        66       184       223       940       436        55       133       612       308       285       234        99        64         5
  precision         0.8707    0.8707    0.8707    0.8707    0.8707    0.8707    0.8707    0.8707    0.8707    0.8707    0.8707    0.8707    0.8707    0.8707    0.8707    0.8707    0.8707    0.8707    0.8707    0.8707    0.8707    0.8707    0.8707    0.8707    0.8707    0.8707    0.8707





=== Stratified cross-validation ===

Correctly Classified Instances        4079               33.4701 %
Incorrectly Classified Instances      8108               66.5299 %
Kappa statistic                          0.2511
K&B Relative Info Score             249038.0268 %
K&B Information Score                 8419.1817 bits      0.6908 bits/instance
Class complexity | order 0           41118.2022 bits      3.3739 bits/instance
Class complexity | scheme           378716.7189 bits     31.0755 bits/instance
Complexity improvement     (Sf)    -337598.5167 bits    -27.7015 bits/instance
Mean absolute error                      0.0493
Root mean squared error                  0.2075
Relative absolute error                 80.6601 %
Root relative squared error            118.66   %
Coverage of cases (0.95 level)          40.6827 %
Mean rel. region size (0.95 level)       6.5173 %
Total Number of Instances            12187     


=== Detailed Accuracy By Class ===

                 TP Rate  FP Rate  Precision  Recall   F-Measure  MCC      ROC Area  PRC Area  Class
                 0,172    0,004    0,164      0,172    0,168      0,164    0,779     0,074     ch
                 0,133    0,007    0,022      0,133    0,038      0,052    0,748     0,010     rr
                 0,672    0,018    0,955      0,672    0,789      0,721    0,952     0,936     0
                 0,107    0,025    0,047      0,107    0,066      0,055    0,725     0,036     hs
                 0,794    0,139    0,016      0,794    0,031      0,099    0,931     0,065     hg
                 0,373    0,034    0,659      0,373    0,476      0,435    0,856     0,567     a
                 0,209    0,022    0,124      0,209    0,156      0,145    0,633     0,069     c
                 0,366    0,099    0,024      0,366    0,046      0,072    0,833     0,027     b
                 0,027    0,004    0,377      0,027    0,050      0,083    0,729     0,188     e
                 0,073    0,048    0,022      0,073    0,034      0,014    0,781     0,031     d
                 0,056    0,013    0,024      0,056    0,034      0,028    0,766     0,020     g
                 0,077    0,009    0,055      0,077    0,064      0,058    0,675     0,029     f
                 0,083    0,011    0,250      0,083    0,125      0,124    0,805     0,181     i
                 0,136    0,002    0,265      0,136    0,180      0,187    0,817     0,124     j
                 0,000    0,002    0,000      0,000    0,000      -0,005   0,762     0,032     m
                 0,179    0,039    0,079      0,179    0,110      0,094    0,813     0,060     l
                 0,012    0,004    0,190      0,012    0,022      0,029    0,706     0,147     o
                 0,007    0,017    0,015      0,007    0,009      -0,014   0,765     0,074     n
                 0,036    0,005    0,034      0,036    0,035      0,031    0,695     0,022     q
                 0,000    0,001    0,000      0,000    0,000      -0,003   0,670     0,027     p
                 0,121    0,003    0,673      0,121    0,205      0,272    0,693     0,263     s
                 0,019    0,002    0,250      0,019    0,036      0,064    0,713     0,063     r
                 0,137    0,007    0,312      0,137    0,190      0,194    0,839     0,159     u
                 0,111    0,019    0,102      0,111    0,107      0,088    0,639     0,070     t
                 0,000    0,001    0,000      0,000    0,000      -0,002   0,721     0,015     v
                 0,109    0,019    0,029      0,109    0,046      0,047    0,863     0,055     y
                 0,800    0,130    0,003      0,800    0,005      0,040    0,829     0,003     z
Weighted Avg.    0,335    0,017    0,556      0,335    0,395      0,369    0,833     0,486     


=== Confusion Matrix ===

    a    b    c    d    e    f    g    h    i    j    k    l    m    n    o    p    q    r    s    t    u    v    w    x    y    z   aa   <-- classified as
   10    0    5    4    0    3    6    1    0    6    0    2    0    1    0    1    0    3    0    0    6    0    0    3    0    0    7 |    a = ch
    0    2    0    0    8    2    0    1    0    0    0    0    0    0    0    0    0    0    0    0    0    0    2    0    0    0    0 |    b = rr
    1    4 2968   72   66    6    9   24    0   44    1   24    2    2    0   16    3   42    0    0    1    1    3   45    1   21 1060 |    c = 0
    0    1    5   15   48    3    0    8    0    5    0    6    0    0    0    7    0    3    0    0    3    2    0    9    0    7   18 |    d = hs
    0    0    0    0   27    0    0    3    0    0    0    0    0    0    0    2    0    0    0    0    0    0    0    0    0    2    0 |    e = hg
    2    9   19   19  290  677   48  190   16  249   25    4   24    2    0   72   23   16   20    2    5    4   33   20    1   16   29 |    f = a
    2    0   20   12    5    0   38    2    0    0    0    5    1    0    0    2    1    5    5    1    4    0    0   16    0    2   61 |    g = c
    0    5    0    0   25    4    0   30    0    4    2    0    0    0    0   10    0    0    0    0    0    0    0    0    0    2    0 |    h = b
    1    8    5   15  351   80   24  185   26   38   48    5   40    0    0   40    7   14    8    0    6    1   11   22    0   12   24 |    i = e
    0    5    0    2   55   12    0   61    0   13    4    0    0    0    0   16    0    1    0    0    0    0    0    2    0    6    0 |    j = d
    0    4    0    2   23    8    0   16    0    2    4    1    1    0    0    8    0    0    0    0    0    1    0    0    0    0    2 |    k = g
    0    2    1   11   11    2    5    3    0    3    2    6    0    0    0    2    0    4    0    0    0    0    0    6    0    2   18 |    l = f
    5    0    3   12  130   19   18   85   16    3   22    0   42    2   10   53    4    3    6    1    2    0    2   18    0   33   14 |    m = i
    0    1    1   10    4    9    2    6    0    0    3    2    0    9    0    1    1    6    1    1    0    3    0    2    0    0    4 |    n = j
    0    4    0    5   72    6    2   51    0    8    4    0    2    0    0   21    0    0    0    0    0    0    0    1    0    6    2 |    o = m
    0    6    0    4   86    5    2   55    0    9    2    0    3    0    0   40    1    2    1    0    0    0    0    2    0    5    0 |    p = l
    4   14    6   26  171   77   24  194    5  106    7    4   22    0    2   72   11    7   11    0    3    1   31   15    1   48   78 |    q = o
    0   10    0   21  121   24    0  140    0   22   11    0    6    1    0   44    0    3    0    0    0    0    0    6    0   21    6 |    r = n
    2    0   12    0    4    2    7    1    0    2    0    3    2    1    0    0    0    9    2    0    0    0    0    1    0    0    7 |    s = q
    0    1   10   15   10    7   16    4    0    7    0    7    3    2    0    2    0   11    1    0    0    1    0    9    0    2   25 |    t = p
   33    3   29   38   41   21   56   15    4   20   10   26    1   11    0   16    0   45    0    0   74    3    0   19    0   16  131 |    u = s
    0    2    1   20   58   20    3   42    2   21   18    2    6    1    1   50    3    6    0    0    2    6    1   15    1    6   21 |    v = r
    1    4    3    1   22   34    8   88    0   10    1    1   10    0    6   18    4    0    2    1    3    1   39   10    3   14    1 |    w = u
    0    4   18   11   17    1   32    2    0    8    0    9    1    2    0    1    0   16    1    1    0    0    1   26    0    6   77 |    x = t
    0    1    1    1   43    5    3   20    0    5    2    0    1    0    0    9    0    1    0    0    0    0    1    2    0    4    0 |    y = v
    0    0    1    1   33    0    3    3    0    0    0    3    1    0    0    4    0    2    0    0    1    0    1    4    0    7    0 |    z = y
    0    0    0    0    0    0    0    0    0    0    0    0    0    0    0    0    0    0    0    0    0    0    0    1    0    0    4 |   aa = z

=== Percent Confusion Matrix ===
a	b	c	d	e	f	g	h	i	j	k	l	m	n	o	p	q	r	s	t	u	v	w	x	y	z	aa	
17.24	0.0	8.62	6.9	0.0	5.17	10.34	1.72	0.0	10.34	0.0	3.45	0.0	1.72	0.0	1.72	0.0	5.17	0.0	0.0	10.34	0.0	0.0	5.17	0.0	0.0	12.07	 a = ch
0.0	13.33	0.0	0.0	53.33	13.33	0.0	6.67	0.0	0.0	0.0	0.0	0.0	0.0	0.0	0.0	0.0	0.0	0.0	0.0	0.0	0.0	13.33	0.0	0.0	0.0	0.0	 b = rr
0.02	0.09	67.21	1.63	1.49	0.14	0.2	0.54	0.0	1.0	0.02	0.54	0.05	0.05	0.0	0.36	0.07	0.95	0.0	0.0	0.02	0.02	0.07	1.02	0.02	0.48	24.0	 c = 0
0.0	0.71	3.57	10.71	34.29	2.14	0.0	5.71	0.0	3.57	0.0	4.29	0.0	0.0	0.0	5.0	0.0	2.14	0.0	0.0	2.14	1.43	0.0	6.43	0.0	5.0	12.86	 d = hs
0.0	0.0	0.0	0.0	79.41	0.0	0.0	8.82	0.0	0.0	0.0	0.0	0.0	0.0	0.0	5.88	0.0	0.0	0.0	0.0	0.0	0.0	0.0	0.0	0.0	5.88	0.0	 e = hg
0.11	0.5	1.05	1.05	15.98	37.3	2.64	10.47	0.88	13.72	1.38	0.22	1.32	0.11	0.0	3.97	1.27	0.88	1.1	0.11	0.28	0.22	1.82	1.1	0.06	0.88	1.6	 f = a
1.1	0.0	10.99	6.59	2.75	0.0	20.88	1.1	0.0	0.0	0.0	2.75	0.55	0.0	0.0	1.1	0.55	2.75	2.75	0.55	2.2	0.0	0.0	8.79	0.0	1.1	33.52	 g = c
0.0	6.1	0.0	0.0	30.49	4.88	0.0	36.59	0.0	4.88	2.44	0.0	0.0	0.0	0.0	12.2	0.0	0.0	0.0	0.0	0.0	0.0	0.0	0.0	0.0	2.44	0.0	 h = b
0.1	0.82	0.51	1.54	36.15	8.24	2.47	19.05	2.68	3.91	4.94	0.51	4.12	0.0	0.0	4.12	0.72	1.44	0.82	0.0	0.62	0.1	1.13	2.27	0.0	1.24	2.47	 i = e
0.0	2.82	0.0	1.13	31.07	6.78	0.0	34.46	0.0	7.34	2.26	0.0	0.0	0.0	0.0	9.04	0.0	0.56	0.0	0.0	0.0	0.0	0.0	1.13	0.0	3.39	0.0	 j = d
0.0	5.56	0.0	2.78	31.94	11.11	0.0	22.22	0.0	2.78	5.56	1.39	1.39	0.0	0.0	11.11	0.0	0.0	0.0	0.0	0.0	1.39	0.0	0.0	0.0	0.0	2.78	 k = g
0.0	2.56	1.28	14.1	14.1	2.56	6.41	3.85	0.0	3.85	2.56	7.69	0.0	0.0	0.0	2.56	0.0	5.13	0.0	0.0	0.0	0.0	0.0	7.69	0.0	2.56	23.08	 l = f
0.99	0.0	0.6	2.39	25.84	3.78	3.58	16.9	3.18	0.6	4.37	0.0	8.35	0.4	1.99	10.54	0.8	0.6	1.19	0.2	0.4	0.0	0.4	3.58	0.0	6.56	2.78	 m = i
0.0	1.52	1.52	15.15	6.06	13.64	3.03	9.09	0.0	0.0	4.55	3.03	0.0	13.64	0.0	1.52	1.52	9.09	1.52	1.52	0.0	4.55	0.0	3.03	0.0	0.0	6.06	 n = j
0.0	2.17	0.0	2.72	39.13	3.26	1.09	27.72	0.0	4.35	2.17	0.0	1.09	0.0	0.0	11.41	0.0	0.0	0.0	0.0	0.0	0.0	0.0	0.54	0.0	3.26	1.09	 o = m
0.0	2.69	0.0	1.79	38.57	2.24	0.9	24.66	0.0	4.04	0.9	0.0	1.35	0.0	0.0	17.94	0.45	0.9	0.45	0.0	0.0	0.0	0.0	0.9	0.0	2.24	0.0	 p = l
0.43	1.49	0.64	2.77	18.19	8.19	2.55	20.64	0.53	11.28	0.74	0.43	2.34	0.0	0.21	7.66	1.17	0.74	1.17	0.0	0.32	0.11	3.3	1.6	0.11	5.11	8.3	 q = o
0.0	2.29	0.0	4.82	27.75	5.5	0.0	32.11	0.0	5.05	2.52	0.0	1.38	0.23	0.0	10.09	0.0	0.69	0.0	0.0	0.0	0.0	0.0	1.38	0.0	4.82	1.38	 r = n
3.64	0.0	21.82	0.0	7.27	3.64	12.73	1.82	0.0	3.64	0.0	5.45	3.64	1.82	0.0	0.0	0.0	16.36	3.64	0.0	0.0	0.0	0.0	1.82	0.0	0.0	12.73	 s = q
0.0	0.75	7.52	11.28	7.52	5.26	12.03	3.01	0.0	5.26	0.0	5.26	2.26	1.5	0.0	1.5	0.0	8.27	0.75	0.0	0.0	0.75	0.0	6.77	0.0	1.5	18.8	 t = p
5.39	0.49	4.74	6.21	6.7	3.43	9.15	2.45	0.65	3.27	1.63	4.25	0.16	1.8	0.0	2.61	0.0	7.35	0.0	0.0	12.09	0.49	0.0	3.1	0.0	2.61	21.41	 u = s
0.0	0.65	0.32	6.49	18.83	6.49	0.97	13.64	0.65	6.82	5.84	0.65	1.95	0.32	0.32	16.23	0.97	1.95	0.0	0.0	0.65	1.95	0.32	4.87	0.32	1.95	6.82	 v = r
0.35	1.4	1.05	0.35	7.72	11.93	2.81	30.88	0.0	3.51	0.35	0.35	3.51	0.0	2.11	6.32	1.4	0.0	0.7	0.35	1.05	0.35	13.68	3.51	1.05	4.91	0.35	 w = u
0.0	1.71	7.69	4.7	7.26	0.43	13.68	0.85	0.0	3.42	0.0	3.85	0.43	0.85	0.0	0.43	0.0	6.84	0.43	0.43	0.0	0.0	0.43	11.11	0.0	2.56	32.91	 x = t
0.0	1.01	1.01	1.01	43.43	5.05	3.03	20.2	0.0	5.05	2.02	0.0	1.01	0.0	0.0	9.09	0.0	1.01	0.0	0.0	0.0	0.0	1.01	2.02	0.0	4.04	0.0	 y = v
0.0	0.0	1.56	1.56	51.56	0.0	4.69	4.69	0.0	0.0	0.0	4.69	1.56	0.0	0.0	6.25	0.0	3.13	0.0	0.0	1.56	0.0	1.56	6.25	0.0	10.94	0.0	 z = y
0.0	0.0	0.0	0.0	0.0	0.0	0.0	0.0	0.0	0.0	0.0	0.0	0.0	0.0	0.0	0.0	0.0	0.0	0.0	0.0	0.0	0.0	0.0	20.0	0.0	0.0	80.0	 aa = z
