Timestamp:2013-07-22-20:44:39
Inventario:I0
Intervalo:10ms
Ngramas:5
Clasificador:RandomForest
Relation Name:  I0-10ms-5gramas
Num Instances:  18292
Num Attributes: 51

     Name                      Type  Nom  Int Real     Missing      Unique  Dist
   1 0Int(dB)                   Num   0%  10%  90%     0 /  0%     7 /  0%   772 
   2 0Pitch(Hz)                 Num   0%  51%  49%     0 /  0%   816 /  4%  3063 
   3 0RawPitch                  Num   0%  54%  46%     0 /  0%   853 /  5%  2955 
   4 0SmPitch                   Num   0%  52%  48%     0 /  0%   827 /  5%  3024 
   5 0Melogram(st)              Num   0%  47%  53%     0 /  0%   581 /  3%  2807 
   6 0ZCross                    Num   0% 100%   0%     0 /  0%    10 /  0%    42 
   7 0F1(Hz)                    Num   0%  51%  49%     0 /  0%  2131 / 12%  4724 
   8 0F2(Hz)                    Num   0%  51%  49%     0 /  0%  4210 / 23%  6615 
   9 0F3(Hz)                    Num   0%  51%  49%     0 /  0%  3688 / 20%  6145 
  10 0F4(Hz)                    Num   0%  51%  49%     0 /  0%  3689 / 20%  6054 
  11 1Int(dB)                   Num   0%  10%  90%     0 /  0%     7 /  0%   772 
  12 1Pitch(Hz)                 Num   0%  51%  49%     0 /  0%   816 /  4%  3063 
  13 1RawPitch                  Num   0%  54%  46%     0 /  0%   853 /  5%  2955 
  14 1SmPitch                   Num   0%  52%  48%     0 /  0%   827 /  5%  3024 
  15 1Melogram(st)              Num   0%  47%  53%     0 /  0%   581 /  3%  2807 
  16 1ZCross                    Num   0% 100%   0%     0 /  0%    10 /  0%    42 
  17 1F1(Hz)                    Num   0%  51%  49%     0 /  0%  2131 / 12%  4724 
  18 1F2(Hz)                    Num   0%  51%  49%     0 /  0%  4210 / 23%  6615 
  19 1F3(Hz)                    Num   0%  51%  49%     0 /  0%  3688 / 20%  6145 
  20 1F4(Hz)                    Num   0%  51%  49%     0 /  0%  3689 / 20%  6054 
  21 2Int(dB)                   Num   0%  10%  90%     0 /  0%     7 /  0%   772 
  22 2Pitch(Hz)                 Num   0%  51%  49%     0 /  0%   816 /  4%  3063 
  23 2RawPitch                  Num   0%  54%  46%     0 /  0%   853 /  5%  2955 
  24 2SmPitch                   Num   0%  52%  48%     0 /  0%   827 /  5%  3024 
  25 2Melogram(st)              Num   0%  47%  53%     0 /  0%   581 /  3%  2807 
  26 2ZCross                    Num   0% 100%   0%     0 /  0%    10 /  0%    42 
  27 2F1(Hz)                    Num   0%  51%  49%     0 /  0%  2131 / 12%  4724 
  28 2F2(Hz)                    Num   0%  51%  49%     0 /  0%  4210 / 23%  6615 
  29 2F3(Hz)                    Num   0%  51%  49%     0 /  0%  3688 / 20%  6145 
  30 2F4(Hz)                    Num   0%  51%  49%     0 /  0%  3689 / 20%  6054 
  31 3Int(dB)                   Num   0%  10%  90%     0 /  0%     7 /  0%   772 
  32 3Pitch(Hz)                 Num   0%  51%  49%     0 /  0%   816 /  4%  3063 
  33 3RawPitch                  Num   0%  54%  46%     0 /  0%   853 /  5%  2955 
  34 3SmPitch                   Num   0%  52%  48%     0 /  0%   827 /  5%  3024 
  35 3Melogram(st)              Num   0%  47%  53%     0 /  0%   581 /  3%  2807 
  36 3ZCross                    Num   0% 100%   0%     0 /  0%    10 /  0%    42 
  37 3F1(Hz)                    Num   0%  51%  49%     0 /  0%  2131 / 12%  4724 
  38 3F2(Hz)                    Num   0%  51%  49%     0 /  0%  4210 / 23%  6615 
  39 3F3(Hz)                    Num   0%  51%  49%     0 /  0%  3688 / 20%  6145 
  40 3F4(Hz)                    Num   0%  51%  49%     0 /  0%  3689 / 20%  6054 
  41 4Int(dB)                   Num   0%  10%  90%     0 /  0%     7 /  0%   772 
  42 4Pitch(Hz)                 Num   0%  51%  49%     0 /  0%   817 /  4%  3064 
  43 4RawPitch                  Num   0%  54%  46%     0 /  0%   854 /  5%  2956 
  44 4SmPitch                   Num   0%  52%  48%     0 /  0%   828 /  5%  3025 
  45 4Melogram(st)              Num   0%  47%  53%     0 /  0%   582 /  3%  2808 
  46 4ZCross                    Num   0% 100%   0%     0 /  0%    10 /  0%    42 
  47 4F1(Hz)                    Num   0%  51%  49%     0 /  0%  2131 / 12%  4724 
  48 4F2(Hz)                    Num   0%  51%  49%     0 /  0%  4210 / 23%  6615 
  49 4F3(Hz)                    Num   0%  51%  49%     0 /  0%  3688 / 20%  6145 
  50 4F4(Hz)                    Num   0%  51%  49%     0 /  0%  3689 / 20%  6054 
  51 class                      Nom 100%   0%   0%     0 /  0%     0 /  0%    27 


Options: -I 10 -K 0 -S 1 -num-slots 4 

Random forest of 10 trees, each constructed while considering 6 random features.
Out of bag error: 0.3059





=== Stratified cross-validation ===

Correctly Classified Instances       13991               76.487  %
Incorrectly Classified Instances      4301               23.513  %
Kappa statistic                          0.7074
K&B Relative Info Score            1231992.1784 %
K&B Information Score                41308.6341 bits      2.2583 bits/instance
Class complexity | order 0           61253.1173 bits      3.3486 bits/instance
Class complexity | scheme          1245071.1606 bits     68.0664 bits/instance
Complexity improvement     (Sf)    -1183818.0433 bits    -64.7178 bits/instance
Mean absolute error                      0.0273
Root mean squared error                  0.1137
Relative absolute error                 44.9445 %
Root relative squared error             65.254  %
Coverage of cases (0.95 level)          93.735  %
Mean rel. region size (0.95 level)      11.9858 %
Total Number of Instances            18292     


=== Detailed Accuracy By Class ===

                 TP Rate  FP Rate  Precision  Recall   F-Measure  MCC      ROC Area  PRC Area  Class
                 0,261    0,002    0,397      0,261    0,315      0,319    0,853     0,194     ch
                 0,238    0,000    0,357      0,238    0,286      0,291    0,831     0,242     rr
                 0,948    0,089    0,862      0,948    0,903      0,844    0,976     0,959     0
                 0,471    0,003    0,630      0,471    0,539      0,540    0,882     0,445     hs
                 0,500    0,000    0,758      0,500    0,602      0,615    0,937     0,564     hg
                 0,882    0,046    0,767      0,882    0,820      0,790    0,968     0,900     a
                 0,212    0,008    0,301      0,212    0,249      0,243    0,798     0,146     c
                 0,546    0,002    0,650      0,546    0,594      0,593    0,955     0,538     b
                 0,771    0,034    0,657      0,771    0,709      0,685    0,949     0,747     e
                 0,496    0,003    0,691      0,496    0,578      0,581    0,952     0,558     d
                 0,542    0,001    0,784      0,542    0,641      0,650    0,949     0,649     g
                 0,244    0,002    0,439      0,244    0,314      0,324    0,869     0,256     f
                 0,714    0,013    0,699      0,714    0,706      0,694    0,949     0,733     i
                 0,426    0,000    0,827      0,426    0,562      0,592    0,880     0,510     j
                 0,680    0,003    0,777      0,680    0,725      0,723    0,951     0,703     m
                 0,541    0,004    0,720      0,541    0,618      0,618    0,942     0,595     l
                 0,678    0,023    0,702      0,678    0,690      0,665    0,930     0,723     o
                 0,677    0,009    0,746      0,677    0,710      0,700    0,964     0,735     n
                 0,259    0,001    0,677      0,259    0,375      0,418    0,762     0,198     q
                 0,241    0,003    0,445      0,241    0,313      0,322    0,824     0,258     p
                 0,643    0,018    0,652      0,643    0,647      0,629    0,939     0,671     s
                 0,341    0,005    0,620      0,341    0,440      0,450    0,878     0,395     r
                 0,652    0,003    0,819      0,652    0,726      0,725    0,954     0,767     u
                 0,257    0,006    0,441      0,257    0,325      0,327    0,844     0,251     t
                 0,359    0,001    0,773      0,359    0,490      0,525    0,897     0,425     v
                 0,526    0,000    0,847      0,526    0,649      0,667    0,926     0,620     y
                 0,000    0,000    0,000      0,000    0,000      -0,000   0,686     0,017     z
Weighted Avg.    0,765    0,047    0,752      0,765    0,752      0,721    0,949     0,784     


=== Confusion Matrix ===

    a    b    c    d    e    f    g    h    i    j    k    l    m    n    o    p    q    r    s    t    u    v    w    x    y    z   aa   <-- classified as
   23    0   15    0    0    3    7    0    3    1    0    0    0    0    0    0    2    0    0    4   26    2    0    2    0    0    0 |    a = ch
    0    5    3    0    0    2    0    0    5    0    0    0    0    0    0    0    3    1    0    0    1    0    0    1    0    0    0 |    b = rr
    2    1 6441    9    1   59   16    0   45    4    3    5   23    0    5    3   42   18    1   11   68    9    6   22    0    0    0 |    c = 0
    1    1   43   97    0   15    1    0   10    2    0    2    2    0    1    0    8    1    0    2   17    2    0    1    0    0    0 |    d = hs
    0    0    2    0   25    5    0    0   13    0    0    0    1    0    1    0    2    1    0    0    0    0    0    0    0    0    0 |    e = hg
    3    1   74    2    0 2367   11    2   68    6    2    2   10    0    1    7   50   13    1    4   21   18    6   11    3    1    0 |    f = a
   12    0  100    3    0   27   59    0   13    0    0    4    2    0    0    0   12    0    7    4   16    3    2   14    0    0    0 |    g = c
    0    0    2    0    0   11    1   65    6    1    0    0    9    0    4    1    8    3    0    0    0    5    3    0    0    0    0 |    h = b
    0    2   50    6    2   84    8    3 1108    7    6    0   44    3    3    7   29   19    1    6   19   15    8    7    1    0    0 |    i = e
    0    0   10    6    0   35    0    1   28  132    0    0    3    0    1    3   36    8    0    0    1    0    1    1    0    0    0 |    j = d
    0    0    9    1    1   15    0    0    9    0   58    0    6    0    0    0    4    2    0    1    0    1    0    0    0    0    0 |    k = g
    0    0   19    4    0    6    3    1    5    0    0   29    1    3    0    0    2    1    0    4   33    4    1    3    0    0    0 |    l = f
    1    0   31    1    1   18    6    5   90    0    2    0  534    1    6    4   10    9    0    1   14    2    4    3    5    0    0 |    m = i
    1    0   17    1    0    9    2    0   12    0    0    3    0   43    0    1    0    0    0    1    9    0    0    1    0    0    1 |    n = j
    1    0    9    0    1   10    2    5   12    1    0    0   15    0  185    4   13    7    0    0    1    3    0    1    2    0    0 |    o = m
    1    0   12    2    0   38    0    1   30    1    0    0   26    0    3  177   16   11    0    0    1    3    3    2    0    0    0 |    p = l
    0    1  132    2    0  113   10    8   54   12    2    0   12    0   18    8  934   21    0    4   19    9    9    6    2    1    0 |    q = o
    0    1   31    4    1   45    2    0   45   10    0    0   11    0    4    7   24  440    0    3    4    0    7    8    1    1    1 |    r = n
    1    0   22    0    0    5   16    0    4    0    0    0    3    0    0    0    1    0   21    1    7    0    0    0    0    0    0 |    s = q
    4    0   64    3    0   17   10    1    8    1    0    3    1    1    2    1    8    1    0   49   11    2    1   15    0    0    0 |    t = p
    7    1  165    8    0   29    7    0   23    0    0   13   23    1    0    3   17   11    0    2  582    4    1    7    0    1    0 |    u = s
    0    0   51    1    0  103    3    4   43    4    1    1    9    0    1    9   32    5    0    4   10  150    1    7    0    1    0 |    v = r
    1    0   12    2    1   27    3    3   19    4    0    1    6    0    2    5   45    8    0    0    4    1  276    1    0    2    0 |    w = u
    0    1  133    2    0   24   25    0    7    1    0    3   10    0    1    0   12    6    0    9   16    4    3   90    1    2    0 |    x = t
    0    0    8    0    0   19    3    1   20    2    0    0    8    0    0    2   18    3    0    0    0    5    1    1   51    0    0 |    y = v
    0    0    9    0    0    1    0    0    4    2    0    0    5    0    0    4    3    1    0    0   12    0    4    0    0   50    0 |    z = y
    0    0    4    0    0    0    1    0    2    0    0    0    0    0    0    0    0    0    0    0    1    0    0    0    0    0    0 |   aa = z

=== Percent Confusion Matrix ===
a	b	c	d	e	f	g	h	i	j	k	l	m	n	o	p	q	r	s	t	u	v	w	x	y	z	aa	
26.14	0.0	17.05	0.0	0.0	3.41	7.95	0.0	3.41	1.14	0.0	0.0	0.0	0.0	0.0	0.0	2.27	0.0	0.0	4.55	29.55	2.27	0.0	2.27	0.0	0.0	0.0	 a = ch
0.0	23.81	14.29	0.0	0.0	9.52	0.0	0.0	23.81	0.0	0.0	0.0	0.0	0.0	0.0	0.0	14.29	4.76	0.0	0.0	4.76	0.0	0.0	4.76	0.0	0.0	0.0	 b = rr
0.03	0.01	94.8	0.13	0.01	0.87	0.24	0.0	0.66	0.06	0.04	0.07	0.34	0.0	0.07	0.04	0.62	0.26	0.01	0.16	1.0	0.13	0.09	0.32	0.0	0.0	0.0	 c = 0
0.49	0.49	20.87	47.09	0.0	7.28	0.49	0.0	4.85	0.97	0.0	0.97	0.97	0.0	0.49	0.0	3.88	0.49	0.0	0.97	8.25	0.97	0.0	0.49	0.0	0.0	0.0	 d = hs
0.0	0.0	4.0	0.0	50.0	10.0	0.0	0.0	26.0	0.0	0.0	0.0	2.0	0.0	2.0	0.0	4.0	2.0	0.0	0.0	0.0	0.0	0.0	0.0	0.0	0.0	0.0	 e = hg
0.11	0.04	2.76	0.07	0.0	88.19	0.41	0.07	2.53	0.22	0.07	0.07	0.37	0.0	0.04	0.26	1.86	0.48	0.04	0.15	0.78	0.67	0.22	0.41	0.11	0.04	0.0	 f = a
4.32	0.0	35.97	1.08	0.0	9.71	21.22	0.0	4.68	0.0	0.0	1.44	0.72	0.0	0.0	0.0	4.32	0.0	2.52	1.44	5.76	1.08	0.72	5.04	0.0	0.0	0.0	 g = c
0.0	0.0	1.68	0.0	0.0	9.24	0.84	54.62	5.04	0.84	0.0	0.0	7.56	0.0	3.36	0.84	6.72	2.52	0.0	0.0	0.0	4.2	2.52	0.0	0.0	0.0	0.0	 h = b
0.0	0.14	3.48	0.42	0.14	5.84	0.56	0.21	77.05	0.49	0.42	0.0	3.06	0.21	0.21	0.49	2.02	1.32	0.07	0.42	1.32	1.04	0.56	0.49	0.07	0.0	0.0	 i = e
0.0	0.0	3.76	2.26	0.0	13.16	0.0	0.38	10.53	49.62	0.0	0.0	1.13	0.0	0.38	1.13	13.53	3.01	0.0	0.0	0.38	0.0	0.38	0.38	0.0	0.0	0.0	 j = d
0.0	0.0	8.41	0.93	0.93	14.02	0.0	0.0	8.41	0.0	54.21	0.0	5.61	0.0	0.0	0.0	3.74	1.87	0.0	0.93	0.0	0.93	0.0	0.0	0.0	0.0	0.0	 k = g
0.0	0.0	15.97	3.36	0.0	5.04	2.52	0.84	4.2	0.0	0.0	24.37	0.84	2.52	0.0	0.0	1.68	0.84	0.0	3.36	27.73	3.36	0.84	2.52	0.0	0.0	0.0	 l = f
0.13	0.0	4.14	0.13	0.13	2.41	0.8	0.67	12.03	0.0	0.27	0.0	71.39	0.13	0.8	0.53	1.34	1.2	0.0	0.13	1.87	0.27	0.53	0.4	0.67	0.0	0.0	 m = i
0.99	0.0	16.83	0.99	0.0	8.91	1.98	0.0	11.88	0.0	0.0	2.97	0.0	42.57	0.0	0.99	0.0	0.0	0.0	0.99	8.91	0.0	0.0	0.99	0.0	0.0	0.99	 n = j
0.37	0.0	3.31	0.0	0.37	3.68	0.74	1.84	4.41	0.37	0.0	0.0	5.51	0.0	68.01	1.47	4.78	2.57	0.0	0.0	0.37	1.1	0.0	0.37	0.74	0.0	0.0	 o = m
0.31	0.0	3.67	0.61	0.0	11.62	0.0	0.31	9.17	0.31	0.0	0.0	7.95	0.0	0.92	54.13	4.89	3.36	0.0	0.0	0.31	0.92	0.92	0.61	0.0	0.0	0.0	 p = l
0.0	0.07	9.59	0.15	0.0	8.21	0.73	0.58	3.92	0.87	0.15	0.0	0.87	0.0	1.31	0.58	67.83	1.53	0.0	0.29	1.38	0.65	0.65	0.44	0.15	0.07	0.0	 q = o
0.0	0.15	4.77	0.62	0.15	6.92	0.31	0.0	6.92	1.54	0.0	0.0	1.69	0.0	0.62	1.08	3.69	67.69	0.0	0.46	0.62	0.0	1.08	1.23	0.15	0.15	0.15	 r = n
1.23	0.0	27.16	0.0	0.0	6.17	19.75	0.0	4.94	0.0	0.0	0.0	3.7	0.0	0.0	0.0	1.23	0.0	25.93	1.23	8.64	0.0	0.0	0.0	0.0	0.0	0.0	 s = q
1.97	0.0	31.53	1.48	0.0	8.37	4.93	0.49	3.94	0.49	0.0	1.48	0.49	0.49	0.99	0.49	3.94	0.49	0.0	24.14	5.42	0.99	0.49	7.39	0.0	0.0	0.0	 t = p
0.77	0.11	18.23	0.88	0.0	3.2	0.77	0.0	2.54	0.0	0.0	1.44	2.54	0.11	0.0	0.33	1.88	1.22	0.0	0.22	64.31	0.44	0.11	0.77	0.0	0.11	0.0	 u = s
0.0	0.0	11.59	0.23	0.0	23.41	0.68	0.91	9.77	0.91	0.23	0.23	2.05	0.0	0.23	2.05	7.27	1.14	0.0	0.91	2.27	34.09	0.23	1.59	0.0	0.23	0.0	 v = r
0.24	0.0	2.84	0.47	0.24	6.38	0.71	0.71	4.49	0.95	0.0	0.24	1.42	0.0	0.47	1.18	10.64	1.89	0.0	0.0	0.95	0.24	65.25	0.24	0.0	0.47	0.0	 w = u
0.0	0.29	38.0	0.57	0.0	6.86	7.14	0.0	2.0	0.29	0.0	0.86	2.86	0.0	0.29	0.0	3.43	1.71	0.0	2.57	4.57	1.14	0.86	25.71	0.29	0.57	0.0	 x = t
0.0	0.0	5.63	0.0	0.0	13.38	2.11	0.7	14.08	1.41	0.0	0.0	5.63	0.0	0.0	1.41	12.68	2.11	0.0	0.0	0.0	3.52	0.7	0.7	35.92	0.0	0.0	 y = v
0.0	0.0	9.47	0.0	0.0	1.05	0.0	0.0	4.21	2.11	0.0	0.0	5.26	0.0	0.0	4.21	3.16	1.05	0.0	0.0	12.63	0.0	4.21	0.0	0.0	52.63	0.0	 z = y
0.0	0.0	50.0	0.0	0.0	0.0	12.5	0.0	25.0	0.0	0.0	0.0	0.0	0.0	0.0	0.0	0.0	0.0	0.0	0.0	12.5	0.0	0.0	0.0	0.0	0.0	0.0	 aa = z
