Timestamp:2014-12-07-10:32:08
Inventario:I0
Intervalo:1ms
Ngramas:5
Clasificador:NaiveBayes
Relation Name:  I0-1ms-5gramas
Num Instances:  183400
Num Attributes: 51

     Name                      Type  Nom  Int Real     Missing      Unique  Dist
   1 0Int(dB)                   Num   0%   9%  91%     0 /  0%     2 /  0%   779 
   2 0Pitch(Hz)                 Num   0%  51%  49%     0 /  0%   256 /  0%  4213 
   3 0RawPitch                  Num   0%  55%  45%     0 /  0%   417 /  0%  4119 
   4 0SmPitch                   Num   0%  53%  47%     0 /  0%   263 /  0%  4193 
   5 0Melogram(st)              Num   0%  49%  51%     0 /  0%   133 /  0%  3454 
   6 0ZCross                    Num   0% 100%   0%     0 /  0%     4 /  0%    58 
   7 0F1(Hz)                    Num   0%  52%  48%     0 /  0%  1154 /  1%  4824 
   8 0F2(Hz)                    Num   0%  52%  48%     0 /  0%  2223 /  1%  6697 
   9 0F3(Hz)                    Num   0%  53%  47%     0 /  0%  1930 /  1%  6200 
  10 0F4(Hz)                    Num   0%  52%  48%     0 /  0%  1933 /  1%  6096 
  11 1Int(dB)                   Num   0%   9%  91%     0 /  0%     2 /  0%   779 
  12 1Pitch(Hz)                 Num   0%  51%  49%     0 /  0%   256 /  0%  4213 
  13 1RawPitch                  Num   0%  55%  45%     0 /  0%   417 /  0%  4119 
  14 1SmPitch                   Num   0%  53%  47%     0 /  0%   263 /  0%  4193 
  15 1Melogram(st)              Num   0%  49%  51%     0 /  0%   133 /  0%  3454 
  16 1ZCross                    Num   0% 100%   0%     0 /  0%     4 /  0%    58 
  17 1F1(Hz)                    Num   0%  52%  48%     0 /  0%  1154 /  1%  4824 
  18 1F2(Hz)                    Num   0%  52%  48%     0 /  0%  2223 /  1%  6697 
  19 1F3(Hz)                    Num   0%  53%  47%     0 /  0%  1930 /  1%  6200 
  20 1F4(Hz)                    Num   0%  52%  48%     0 /  0%  1933 /  1%  6096 
  21 2Int(dB)                   Num   0%   9%  91%     0 /  0%     3 /  0%   780 
  22 2Pitch(Hz)                 Num   0%  51%  49%     0 /  0%   256 /  0%  4213 
  23 2RawPitch                  Num   0%  55%  45%     0 /  0%   417 /  0%  4119 
  24 2SmPitch                   Num   0%  53%  47%     0 /  0%   263 /  0%  4193 
  25 2Melogram(st)              Num   0%  49%  51%     0 /  0%   133 /  0%  3454 
  26 2ZCross                    Num   0% 100%   0%     0 /  0%     4 /  0%    58 
  27 2F1(Hz)                    Num   0%  52%  48%     0 /  0%  1154 /  1%  4824 
  28 2F2(Hz)                    Num   0%  52%  48%     0 /  0%  2223 /  1%  6697 
  29 2F3(Hz)                    Num   0%  53%  47%     0 /  0%  1930 /  1%  6200 
  30 2F4(Hz)                    Num   0%  52%  48%     0 /  0%  1933 /  1%  6096 
  31 3Int(dB)                   Num   0%   9%  91%     0 /  0%     4 /  0%   781 
  32 3Pitch(Hz)                 Num   0%  51%  49%     0 /  0%   256 /  0%  4213 
  33 3RawPitch                  Num   0%  55%  45%     0 /  0%   417 /  0%  4119 
  34 3SmPitch                   Num   0%  53%  47%     0 /  0%   263 /  0%  4193 
  35 3Melogram(st)              Num   0%  49%  51%     0 /  0%   133 /  0%  3454 
  36 3ZCross                    Num   0% 100%   0%     0 /  0%     4 /  0%    58 
  37 3F1(Hz)                    Num   0%  52%  48%     0 /  0%  1154 /  1%  4824 
  38 3F2(Hz)                    Num   0%  52%  48%     0 /  0%  2223 /  1%  6697 
  39 3F3(Hz)                    Num   0%  53%  47%     0 /  0%  1930 /  1%  6200 
  40 3F4(Hz)                    Num   0%  52%  48%     0 /  0%  1933 /  1%  6096 
  41 4Int(dB)                   Num   0%   9%  91%     0 /  0%     3 /  0%   781 
  42 4Pitch(Hz)                 Num   0%  51%  49%     0 /  0%   256 /  0%  4213 
  43 4RawPitch                  Num   0%  55%  45%     0 /  0%   417 /  0%  4119 
  44 4SmPitch                   Num   0%  53%  47%     0 /  0%   263 /  0%  4193 
  45 4Melogram(st)              Num   0%  49%  51%     0 /  0%   133 /  0%  3454 
  46 4ZCross                    Num   0% 100%   0%     0 /  0%     4 /  0%    58 
  47 4F1(Hz)                    Num   0%  52%  48%     0 /  0%  1154 /  1%  4824 
  48 4F2(Hz)                    Num   0%  52%  48%     0 /  0%  2223 /  1%  6697 
  49 4F3(Hz)                    Num   0%  53%  47%     0 /  0%  1930 /  1%  6200 
  50 4F4(Hz)                    Num   0%  52%  48%     0 /  0%  1933 /  1%  6096 
  51 class                      Nom 100%   0%   0%     0 /  0%     0 /  0%    27 


Naive Bayes Classifier

                    Class
Attribute              ch        rr         0        hs        hg         a         c         b         e         d         g         f         i         j         m         l         o         n         q         p         s         r         u         t         v         y         z
                      (0)       (0)    (0.39)    (0.01)       (0)    (0.14)    (0.01)    (0.01)    (0.07)    (0.01)    (0.01)    (0.01)    (0.04)    (0.01)    (0.01)    (0.02)    (0.07)    (0.03)       (0)    (0.01)    (0.05)    (0.02)    (0.02)    (0.02)    (0.01)       (0)       (0)
==============================================================================================================================================================================================================================================================================================
0Int(dB)
  mean            -19.7173  -10.8561  -47.9923  -20.5339  -11.0604   -2.8471  -25.0932   -5.9694   -5.1696   -7.8581   -7.6644  -21.9524   -8.7511   -15.719   -7.5927   -8.2345   -8.1054   -9.1554  -22.7649  -23.1243  -21.5354  -11.8006   -5.2821  -26.1698   -9.3277  -16.4277   -26.916
  std. dev.          8.432    4.4693   16.4641   11.2165    6.2184    8.2469    9.9522    4.2659    8.0853    6.1281    8.0035     5.468    8.3577    6.1277    6.0355    5.6007   12.1344    7.5709   11.5352   10.5047    6.5975    9.2189    7.8999    9.9156     6.927    4.8935    2.0766
  weight sum           854       217     72113      1950       492     26115      2715      1196     13740      2617      1083      1160      7083       979      2613      3210     13234      6308       840      2005      8826      4148      4137      3409      1401       890        65
  precision          0.104     0.104     0.104     0.104     0.104     0.104     0.104     0.104     0.104     0.104     0.104     0.104     0.104     0.104     0.104     0.104     0.104     0.104     0.104     0.104     0.104     0.104     0.104     0.104     0.104     0.104     0.104

0Pitch(Hz)
  mean             48.9034  245.3533   17.5051   83.2939   146.519   226.469   46.0744  216.1023  189.4232  202.2816  212.0743   75.1071  172.2716  151.5417  194.1014  174.7032  178.7508  190.4204   78.9425   77.5447   45.6232  161.5726  228.4759   64.1554  177.1336  111.6553         0
  std. dev.        98.4236  121.6333   57.5163   87.0564   38.5775  103.8367   91.6355   72.5532   88.4732   84.3295   101.118  115.2282   77.2679  132.3181   87.2509   64.3196  105.5185   89.7975  113.0228  114.6819   88.6828   95.3691   85.8386  106.9975   73.7068   69.3731    0.0197
  weight sum           854       217     72113      1950       492     26115      2715      1196     13740      2617      1083      1160      7083       979      2613      3210     13234      6308       840      2005      8826      4148      4137      3409      1401       890        65
  precision         0.1184    0.1184    0.1184    0.1184    0.1184    0.1184    0.1184    0.1184    0.1184    0.1184    0.1184    0.1184    0.1184    0.1184    0.1184    0.1184    0.1184    0.1184    0.1184    0.1184    0.1184    0.1184    0.1184    0.1184    0.1184    0.1184    0.1184

0RawPitch
  mean             31.9846  235.4484   14.3612    65.108  122.3355  216.7766   30.6967  213.4773  185.0572  195.4775   201.317   37.0971  164.3931   90.9051   183.068   158.173  172.8748   176.989   40.8626   58.6956   25.3313  155.1086  219.6843   39.0339  162.4037   74.6125         0
  std. dev.        82.4456  132.0753    52.147   84.9394   81.4982  110.3538   77.1039   76.5459   96.0935   95.6563  112.3813   79.2815   84.6206  113.2104   98.6971   79.1301  113.4727  103.5407   89.7134  107.4202   69.0623  103.7034   94.3317   87.5209   86.5001   77.8109    0.0202
  weight sum           854       217     72113      1950       492     26115      2715      1196     13740      2617      1083      1160      7083       979      2613      3210     13234      6308       840      2005      8826      4148      4137      3409      1401       890        65
  precision         0.1214    0.1214    0.1214    0.1214    0.1214    0.1214    0.1214    0.1214    0.1214    0.1214    0.1214    0.1214    0.1214    0.1214    0.1214    0.1214    0.1214    0.1214    0.1214    0.1214    0.1214    0.1214    0.1214    0.1214    0.1214    0.1214    0.1214

0SmPitch
  mean             46.1629  245.3545   15.8666   76.7836  148.6374  224.6899   38.9158  216.1012  187.8291  201.5658  210.3391   57.6916  169.8395  108.2343  191.3543  173.1039  176.4732   187.645    61.514   68.6338   38.2487  158.6183  227.9537   53.9219  172.7381  106.4967         0
  std. dev.        95.6284  121.6275   53.8209   84.2557   36.0499   105.502   86.2834   72.5531   89.7533   85.7086  103.1101   97.9287   79.7321  137.3989   91.2955   66.2848  107.8241   92.5913  104.2422  112.0377   83.0001   96.9392   86.0974  100.9117   78.5781   71.6561    0.0198
  weight sum           854       217     72113      1950       492     26115      2715      1196     13740      2617      1083      1160      7083       979      2613      3210     13234      6308       840      2005      8826      4148      4137      3409      1401       890        65
  precision          0.119     0.119     0.119     0.119     0.119     0.119     0.119     0.119     0.119     0.119     0.119     0.119     0.119     0.119     0.119     0.119     0.119     0.119     0.119     0.119     0.119     0.119     0.119     0.119     0.119     0.119     0.119

0Melogram(st)
  mean             13.6064   56.5911    5.1312   25.5689   49.1136   53.1391   12.8852   55.0355   50.2123   52.9799   51.2081      20.2   48.2326   15.0793   50.9096   51.1788   46.5275   49.9389   17.1207   19.8869   12.4086   42.8281   53.7531   15.3292   50.3578   39.8299         0
  std. dev.         24.649    8.9827   15.9025   25.1031    5.5416   14.9253   23.7571    8.0059    15.761   11.4365   17.7026   26.8428   16.5942   25.7887   14.5825    9.6191   20.5358   16.5904   26.1277   27.2591   23.0945   22.5473   14.8416   25.5241   12.0814   18.6113     0.004
  weight sum           854       217     72113      1950       492     26115      2715      1196     13740      2617      1083      1160      7083       979      2613      3210     13234      6308       840      2005      8826      4148      4137      3409      1401       890        65
  precision         0.0239    0.0239    0.0239    0.0239    0.0239    0.0239    0.0239    0.0239    0.0239    0.0239    0.0239    0.0239    0.0239    0.0239    0.0239    0.0239    0.0239    0.0239    0.0239    0.0239    0.0239    0.0239    0.0239    0.0239    0.0239    0.0239    0.0239

0ZCross
  mean              8.6348    3.5309     0.274    1.0395    3.3132    7.8684    1.6033    4.0906    5.2651    4.0161    4.6104    0.6579    3.7202    3.9506    2.8517    3.2916    4.3731     2.514    4.3028    0.9602    3.7317    3.2297    4.0594    0.7313    3.1986    1.5229         0
  std. dev.        12.8713    2.6913    1.1727    1.7686    2.4847    4.5338    3.6906    1.9171    3.3205    2.2691    2.9143    1.5733    3.3047    3.9696    1.5422    2.0627    3.0841    1.6497    7.4228    2.2929      7.13    2.5967    2.9973    1.6202    1.9698     1.734    0.1696
  weight sum           854       217     72113      1950       492     26115      2715      1196     13740      2617      1083      1160      7083       979      2613      3210     13234      6308       840      2005      8826      4148      4137      3409      1401       890        65
  precision         1.0175    1.0175    1.0175    1.0175    1.0175    1.0175    1.0175    1.0175    1.0175    1.0175    1.0175    1.0175    1.0175    1.0175    1.0175    1.0175    1.0175    1.0175    1.0175    1.0175    1.0175    1.0175    1.0175    1.0175    1.0175    1.0175    1.0175

0F1(Hz)
  mean            126.7456  604.7459   56.3888  383.3885  446.4466  703.5325     88.05  478.5959   461.132  516.4036  493.2044  269.8532  359.0082  445.6415  432.3051  471.4965  481.5603  467.5629  177.7008  225.5457  178.7072  483.2463  495.1306  110.2279  481.1393  337.8471         0
  std. dev.       253.4234  136.1051   170.272  299.6825   84.1387  260.0326  202.4087  133.2278  150.0958  153.4549  193.7428  333.6015  148.1386  345.1799  164.5399  141.6883  228.3327  156.5694  244.8952   293.825  281.1794  237.7089  311.7224  207.7616  173.1411  186.2546    0.0602
  weight sum           854       217     72113      1950       492     26115      2715      1196     13740      2617      1083      1160      7083       979      2613      3210     13234      6308       840      2005      8826      4148      4137      3409      1401       890        65
  precision         0.3611    0.3611    0.3611    0.3611    0.3611    0.3611    0.3611    0.3611    0.3611    0.3611    0.3611    0.3611    0.3611    0.3611    0.3611    0.3611    0.3611    0.3611    0.3611    0.3611    0.3611    0.3611    0.3611    0.3611    0.3611    0.3611    0.3611

0F2(Hz)
  mean            380.5677 1647.0885   176.431 1104.2648 1937.3288  1452.193  258.1196 1578.2608 1772.6527 1484.0538 1689.4501  696.7879 1952.5461 1257.3158 1663.5786 1668.3527 1137.1547 1598.9509  715.0826  669.1024  557.4958 1362.7696 1043.1641  368.6708 1556.4883 1331.9264         0
  std. dev.       728.6253  128.9818  527.0815  843.3889  346.4854  409.1856  607.9414  344.8195  544.8328  320.6774  594.9735  841.4794  691.2957  911.5529  444.0959  346.5913  541.7451   452.725  955.5991  842.1423  851.3418  623.0583  437.0492  675.9243  431.1339    672.68    0.0741
  weight sum           854       217     72113      1950       492     26115      2715      1196     13740      2617      1083      1160      7083       979      2613      3210     13234      6308       840      2005      8826      4148      4137      3409      1401       890        65
  precision         0.4448    0.4448    0.4448    0.4448    0.4448    0.4448    0.4448    0.4448    0.4448    0.4448    0.4448    0.4448    0.4448    0.4448    0.4448    0.4448    0.4448    0.4448    0.4448    0.4448    0.4448    0.4448    0.4448    0.4448    0.4448    0.4448    0.4448

0F3(Hz)
  mean            631.4829  2864.415  301.0086 1806.4185 2526.7766 2708.2378  471.3324 2756.3359 2603.6609 2868.4477 2893.6375 1193.0298 2630.5237 1851.1767  2746.995 2806.6585 2487.8665 2761.6879 1068.0952 1136.1365  926.4137 2369.7625 2649.1074  668.6511 2652.8583 2293.2611         0
  std. dev.      1208.8049  413.0002  883.8958 1315.5973  114.3208  752.9156 1072.7598  468.3646  809.9853  500.7633  935.5346 1435.3193  952.1802 1332.7059  578.4416  587.5685 1035.9314  667.9959 1390.9414 1417.1546 1398.3737 1089.6465  823.2671 1213.8176  704.7164 1172.9747    0.1108
  weight sum           854       217     72113      1950       492     26115      2715      1196     13740      2617      1083      1160      7083       979      2613      3210     13234      6308       840      2005      8826      4148      4137      3409      1401       890        65
  precision         0.6646    0.6646    0.6646    0.6646    0.6646    0.6646    0.6646    0.6646    0.6646    0.6646    0.6646    0.6646    0.6646    0.6646    0.6646    0.6646    0.6646    0.6646    0.6646    0.6646    0.6646    0.6646    0.6646    0.6646    0.6646    0.6646    0.6646

0F4(Hz)
  mean            746.0143 3240.6089  361.5801 2246.8908  3588.972 3118.7245  544.3884 3299.9854 3138.0613 3323.1726 2931.8381 1367.7534 3129.2381 2313.9893  3308.218 3231.6093 2863.2558 3170.1346 1293.7744 1349.3671  1046.687 2744.2502 3037.3732  768.1646 3216.6701 2661.6882         0
  std. dev.      1428.1915  408.1872  1059.394 1622.8694   90.7927  854.6691 1241.5386  442.2502  942.7734  547.4141  949.4963 1635.0348 1090.9517 1653.6326  628.0625  597.9437  1175.482  769.6436 1696.1584 1662.1949 1577.7641 1208.0247  853.8923 1399.2437  749.5607 1349.8494    0.1134
  weight sum           854       217     72113      1950       492     26115      2715      1196     13740      2617      1083      1160      7083       979      2613      3210     13234      6308       840      2005      8826      4148      4137      3409      1401       890        65
  precision         0.6804    0.6804    0.6804    0.6804    0.6804    0.6804    0.6804    0.6804    0.6804    0.6804    0.6804    0.6804    0.6804    0.6804    0.6804    0.6804    0.6804    0.6804    0.6804    0.6804    0.6804    0.6804    0.6804    0.6804    0.6804    0.6804    0.6804

1Int(dB)
  mean            -19.5666  -10.9658  -48.0284  -20.7672  -10.9795   -2.8366  -24.7338   -5.9397    -5.156   -7.8216   -7.6798  -22.0373   -8.7128  -15.7566    -7.579   -8.2395   -8.1103   -9.2351  -22.4192  -22.8859   -21.611  -11.8404   -5.2051  -25.7645   -9.2618  -16.4032  -26.8904
  std. dev.         8.3337    4.4218   16.4116   11.2342    6.2761       8.2    9.9769    4.2705    8.0597    6.1424    8.0044    5.4005    8.3473    6.1059    6.0073     5.636   12.1522    7.6335   11.3968   10.5588    6.5595    9.2639    7.7835   10.1092     6.794    4.8376    2.0309
  weight sum           854       217     72113      1950       492     26115      2715      1196     13740      2617      1083      1160      7083       979      2613      3210     13234      6308       840      2005      8826      4148      4137      3409      1401       890        65
  precision          0.104     0.104     0.104     0.104     0.104     0.104     0.104     0.104     0.104     0.104     0.104     0.104     0.104     0.104     0.104     0.104     0.104     0.104     0.104     0.104     0.104     0.104     0.104     0.104     0.104     0.104     0.104

1Pitch(Hz)
  mean             49.6818  245.3773   17.3159   81.9257  146.7705  226.5757   49.0548   216.118  189.7736  202.2308  211.9943   73.8488  172.5882  151.1848  194.2506  174.7154   178.609  189.9912    80.746   78.2049   44.4611  161.6747   228.829   66.6869  177.5696   111.698         0
  std. dev.        99.2224  121.8559   57.2259   86.8325   38.8547  103.7124   94.1977   72.4589   88.2344   84.4357   101.397   114.672   76.9615  132.2044   87.2188   64.2248  105.4051   90.1042  114.0389  114.3698   87.8248   95.4896   85.2298  108.2363   73.1054   69.3767    0.0197
  weight sum           854       217     72113      1950       492     26115      2715      1196     13740      2617      1083      1160      7083       979      2613      3210     13234      6308       840      2005      8826      4148      4137      3409      1401       890        65
  precision         0.1184    0.1184    0.1184    0.1184    0.1184    0.1184    0.1184    0.1184    0.1184    0.1184    0.1184    0.1184    0.1184    0.1184    0.1184    0.1184    0.1184    0.1184    0.1184    0.1184    0.1184    0.1184    0.1184    0.1184    0.1184    0.1184    0.1184

1RawPitch
  mean             32.5018  236.0757   14.1972   63.7775  123.4267  216.9202   32.8589  213.5742  185.2743  195.4561   201.427   36.0017  164.8645   90.1788  183.1375  157.9927  172.7411  176.3862   42.0137   59.6769   24.2265  155.1674  220.0766   41.6877  162.9269   74.9562         0
  std. dev.        82.8515  132.0429   51.8741   84.4227   82.4596  110.2312   79.4949   76.3342   95.9379   95.6519  112.4598   78.0168   84.3754  112.8263   98.6998   79.2308  113.3437  103.8633   90.8006  107.5797   67.5976  103.9285   93.8332   89.8377   85.9872   77.8641    0.0202
  weight sum           854       217     72113      1950       492     26115      2715      1196     13740      2617      1083      1160      7083       979      2613      3210     13234      6308       840      2005      8826      4148      4137      3409      1401       890        65
  precision         0.1214    0.1214    0.1214    0.1214    0.1214    0.1214    0.1214    0.1214    0.1214    0.1214    0.1214    0.1214    0.1214    0.1214    0.1214    0.1214    0.1214    0.1214    0.1214    0.1214    0.1214    0.1214    0.1214    0.1214    0.1214    0.1214    0.1214

1SmPitch
  mean             46.5992  245.3787   15.6945    75.417  148.8892  224.8258   41.6299  216.1171  188.2045   201.549  210.2592   56.4322  170.1487  107.8807  191.3754  173.0105  176.3386  187.1666   62.9778   69.0826   37.0588  158.7153  228.2692   56.6221  173.2356  106.5353         0
  std. dev.         96.121  121.8511   53.5412   83.9189   36.3316  105.3349   89.1015   72.4588   89.4937   85.7427   103.382   97.0455   79.4942  137.1755   91.4496   66.3341  107.7071    92.902  105.3854   111.707   81.9046   97.0657    85.559  102.6207   78.0069   71.6633    0.0198
  weight sum           854       217     72113      1950       492     26115      2715      1196     13740      2617      1083      1160      7083       979      2613      3210     13234      6308       840      2005      8826      4148      4137      3409      1401       890        65
  precision          0.119     0.119     0.119     0.119     0.119     0.119     0.119     0.119     0.119     0.119     0.119     0.119     0.119     0.119     0.119     0.119     0.119     0.119     0.119     0.119     0.119     0.119     0.119     0.119     0.119     0.119     0.119

1Melogram(st)
  mean             13.8856   56.5787    5.0851   25.1975   49.2482   53.1846   13.4952   55.0392   50.2797   52.9763   51.1648    19.877   48.3201   14.9255   50.9218   51.1435   46.5103   49.8235   17.5345    20.122   12.0801   42.8515   53.9044    15.959   50.4811   39.8366         0
  std. dev.        24.8325    9.0001     15.84   25.0896    5.1019   14.8337   24.1762    8.0025   15.6601   11.4408    17.773   26.7526   16.4677   25.7219   14.5853    9.7018    20.538   16.7392   26.3152   27.2833   22.8853   22.5434   14.5585   25.8399   11.8509   18.6135     0.004
  weight sum           854       217     72113      1950       492     26115      2715      1196     13740      2617      1083      1160      7083       979      2613      3210     13234      6308       840      2005      8826      4148      4137      3409      1401       890        65
  precision         0.0239    0.0239    0.0239    0.0239    0.0239    0.0239    0.0239    0.0239    0.0239    0.0239    0.0239    0.0239    0.0239    0.0239    0.0239    0.0239    0.0239    0.0239    0.0239    0.0239    0.0239    0.0239    0.0239    0.0239    0.0239    0.0239    0.0239

1ZCross
  mean              8.6777    3.5122    0.2697    1.0155     3.338    7.8676    1.6517    4.1195    5.2602    4.0387    4.6038     0.643    3.7242    3.9403    2.8513     3.292    4.3728    2.4942    4.3355    0.9917    3.7306    3.2177    4.0672    0.7955    3.2146    1.5286         0
  std. dev.        12.8812    2.6981    1.1656    1.7591    2.5065    4.5337    3.7026    1.9292    3.3214     2.266    2.9055    1.5621    3.2959    3.9706    1.5348    2.0497    3.0812    1.6412    7.4045    2.2955     7.137      2.59    2.9913    1.6855    1.9738    1.7333    0.1696
  weight sum           854       217     72113      1950       492     26115      2715      1196     13740      2617      1083      1160      7083       979      2613      3210     13234      6308       840      2005      8826      4148      4137      3409      1401       890        65
  precision         1.0175    1.0175    1.0175    1.0175    1.0175    1.0175    1.0175    1.0175    1.0175    1.0175    1.0175    1.0175    1.0175    1.0175    1.0175    1.0175    1.0175    1.0175    1.0175    1.0175    1.0175    1.0175    1.0175    1.0175    1.0175    1.0175    1.0175

1F1(Hz)
  mean             124.167  606.5881   55.8187   378.685  446.2749  705.8243   90.5404  478.9012  462.5388  516.7579  492.6272  264.4883  360.2928   444.124  432.0847  470.9639  482.8394  465.3557  178.3956  224.9722  173.8205  482.5968  496.8631   111.174  481.2257  337.0908         0
  std. dev.       250.8915  136.6958  169.4384  300.8453   84.5743  257.6901  204.7318  133.0242  148.1545  153.4331  193.9443  332.3479  146.3199  346.6836  164.0808    140.68  227.5019  156.7121  245.0387  292.7793  278.7984  237.1766  309.9663  208.6493  171.6913  186.2824    0.0602
  weight sum           854       217     72113      1950       492     26115      2715      1196     13740      2617      1083      1160      7083       979      2613      3210     13234      6308       840      2005      8826      4148      4137      3409      1401       890        65
  precision         0.3611    0.3611    0.3611    0.3611    0.3611    0.3611    0.3611    0.3611    0.3611    0.3611    0.3611    0.3611    0.3611    0.3611    0.3611    0.3611    0.3611    0.3611    0.3611    0.3611    0.3611    0.3611    0.3611    0.3611    0.3611    0.3611    0.3611

1F2(Hz)
  mean            374.8217 1643.5051  174.7317 1090.8545 1936.0467 1455.5293  264.8082  1576.144 1779.4393 1484.0861 1686.7391  684.3629 1963.5585 1247.4115 1664.5025  1669.156 1137.9104 1596.5325  716.9711  667.8599  542.7718 1363.5164 1047.9548  371.4773 1561.6249 1331.2591         0
  std. dev.        725.166  128.2512  524.8459  846.7233   345.609  403.0801  613.2731  344.4458  536.6813  321.7117  597.1744  839.4816  681.2366  912.9462  440.7842  343.0715  538.8449  454.9968  955.3619  839.9206  845.0349  623.0939   431.069  678.5844  423.6554  674.6339    0.0741
  weight sum           854       217     72113      1950       492     26115      2715      1196     13740      2617      1083      1160      7083       979      2613      3210     13234      6308       840      2005      8826      4148      4137      3409      1401       890        65
  precision         0.4448    0.4448    0.4448    0.4448    0.4448    0.4448    0.4448    0.4448    0.4448    0.4448    0.4448    0.4448    0.4448    0.4448    0.4448    0.4448    0.4448    0.4448    0.4448    0.4448    0.4448    0.4448    0.4448    0.4448    0.4448    0.4448    0.4448

1F3(Hz)
  mean            619.5716 2864.8806  298.0271 1783.9908 2525.7729  2714.694  484.6864  2755.479 2611.7843 2868.1851  2890.525 1170.0091 2643.1271 1838.8875 2747.2284 2809.5983 2492.6874  2758.022 1071.2907 1135.2488   901.508 2370.6362 2662.0438  671.9788  2660.441 2289.2795         0
  std. dev.       1198.307  415.2862  879.9931 1322.4462  113.8892  742.2073 1084.5544  468.6151  798.7858  503.9898  939.5775 1430.0098  938.7899 1335.5073  573.4532  584.0878 1031.3021  673.6711 1391.6388 1414.6402 1387.6627  1089.751  804.1633 1215.7775  691.6824 1174.5646    0.1108
  weight sum           854       217     72113      1950       492     26115      2715      1196     13740      2617      1083      1160      7083       979      2613      3210     13234      6308       840      2005      8826      4148      4137      3409      1401       890        65
  precision         0.6646    0.6646    0.6646    0.6646    0.6646    0.6646    0.6646    0.6646    0.6646    0.6646    0.6646    0.6646    0.6646    0.6646    0.6646    0.6646    0.6646    0.6646    0.6646    0.6646    0.6646    0.6646    0.6646    0.6646    0.6646    0.6646    0.6646

1F4(Hz)
  mean             734.944 3238.9001  358.0783 2219.5188 3589.1338 3125.8677  560.8267 3299.5627 3147.1235 3322.3401  2929.932 1342.9207 3143.0541 2300.8985 3310.0964  3234.153 2868.4799 3166.4511 1295.6755 1351.9509 1019.0673 2744.2337 3051.8664    772.79 3226.3282 2658.6493         0
  std. dev.      1421.4863  406.0873 1054.9195 1631.9181   90.4836  842.1081  1257.139  441.4121  928.5918  551.1434  954.1641 1630.9916 1074.2428 1659.0476  621.7743  592.5128 1169.7236  776.9986 1694.3777 1663.4524 1566.5033 1208.1006  828.8457 1403.1384  729.9902 1353.0309    0.1134
  weight sum           854       217     72113      1950       492     26115      2715      1196     13740      2617      1083      1160      7083       979      2613      3210     13234      6308       840      2005      8826      4148      4137      3409      1401       890        65
  precision         0.6804    0.6804    0.6804    0.6804    0.6804    0.6804    0.6804    0.6804    0.6804    0.6804    0.6804    0.6804    0.6804    0.6804    0.6804    0.6804    0.6804    0.6804    0.6804    0.6804    0.6804    0.6804    0.6804    0.6804    0.6804    0.6804    0.6804

2Int(dB)
  mean            -19.4137  -11.0618  -48.0653  -20.9984  -10.8917   -2.8333   -24.362   -5.9081   -5.1527   -7.7772   -7.6912  -22.1144   -8.6835  -15.7812   -7.5641   -8.2368   -8.1232   -9.3163  -22.0593  -22.6392  -21.6827  -11.8724   -5.1335  -25.3356   -9.1923   -16.376  -26.8607
  std. dev.          8.249    4.3873   16.3664   11.2536    6.3361    8.1621   10.0114    4.2787    8.0415    6.1585    8.0009    5.3424     8.344    6.0954    5.9874    5.6804   12.1734     7.699   11.2702   10.6224     6.534    9.3204    7.6759    10.311    6.6721    4.7913    1.9776
  weight sum           854       217     72113      1950       492     26115      2715      1196     13740      2617      1083      1160      7083       979      2613      3210     13234      6308       840      2005      8826      4148      4137      3409      1401       890        65
  precision         0.1039    0.1039    0.1039    0.1039    0.1039    0.1039    0.1039    0.1039    0.1039    0.1039    0.1039    0.1039    0.1039    0.1039    0.1039    0.1039    0.1039    0.1039    0.1039    0.1039    0.1039    0.1039    0.1039    0.1039    0.1039    0.1039    0.1039

2Pitch(Hz)
  mean             50.7934  245.4172   17.1392   80.5664  147.0326  226.6316   52.2284  216.1402  190.0442  202.2132  211.9162   72.5843  172.8092  150.8264  194.3592  174.7367  178.3926  189.5523   82.6862   78.8393   43.4348  161.7823  229.1151   69.6188  178.0226  111.7473         0
  std. dev.       100.0659  122.0858   56.9512   86.5944   39.1455  103.6375   96.6772   72.3698   88.0362   84.4717  101.6738  114.0976   76.7258  132.0925   87.2448   64.1343  105.3465   90.4331  115.1836  114.0226    87.066   95.6159   84.6861  109.6797   72.5141   69.3822    0.0197
  weight sum           854       217     72113      1950       492     26115      2715      1196     13740      2617      1083      1160      7083       979      2613      3210     13234      6308       840      2005      8826      4148      4137      3409      1401       890        65
  precision         0.1184    0.1184    0.1184    0.1184    0.1184    0.1184    0.1184    0.1184    0.1184    0.1184    0.1184    0.1184    0.1184    0.1184    0.1184    0.1184    0.1184    0.1184    0.1184    0.1184    0.1184    0.1184    0.1184    0.1184    0.1184    0.1184    0.1184

2RawPitch
  mean             33.0973  236.2089   14.0528   62.4429   124.418  216.9867   35.2563  213.7548  185.3904  195.4751  201.4818   34.9874  165.1915    89.613  183.2168  158.0045  172.5714  175.7375     43.79    60.771   23.2296  155.1303  220.3812   44.6844  163.4211   75.4426         0
  std. dev.        83.3058  132.1702   51.6504   83.8815   83.3131  110.1795   82.0594    76.047   95.8388   95.5093  112.5636   76.8413   84.2064  112.4484   98.7768   79.3558  113.2081  104.1967   92.5923  107.7831    66.269  104.1269   93.3578   92.3617   85.3825   77.8937    0.0202
  weight sum           854       217     72113      1950       492     26115      2715      1196     13740      2617      1083      1160      7083       979      2613      3210     13234      6308       840      2005      8826      4148      4137      3409      1401       890        65
  precision         0.1214    0.1214    0.1214    0.1214    0.1214    0.1214    0.1214    0.1214    0.1214    0.1214    0.1214    0.1214    0.1214    0.1214    0.1214    0.1214    0.1214    0.1214    0.1214    0.1214    0.1214    0.1214    0.1214    0.1214    0.1214    0.1214    0.1214

2SmPitch
  mean             47.5147  245.4181   15.5187   74.0591  149.1505  224.9108   44.5704  216.1401  188.5286  201.5673  210.3612   55.1646  170.4162  107.5252  191.3561  172.9259  176.1475  186.6494    64.577   69.6791    35.951  158.8033  228.5834   59.6771   173.751  106.5791         0
  std. dev.        96.9604  122.0815   53.2527   83.5672   36.6275  105.2152   91.8403   72.3699   89.2681   85.7059  103.4558   96.1306   79.2706  136.9531   91.6579   66.3878  107.6301    93.263  106.6957  111.3671   80.8658   97.1978   85.0153  104.4676   77.4465    71.673    0.0198
  weight sum           854       217     72113      1950       492     26115      2715      1196     13740      2617      1083      1160      7083       979      2613      3210     13234      6308       840      2005      8826      4148      4137      3409      1401       890        65
  precision          0.119     0.119     0.119     0.119     0.119     0.119     0.119     0.119     0.119     0.119     0.119     0.119     0.119     0.119     0.119     0.119     0.119     0.119     0.119     0.119     0.119     0.119     0.119     0.119     0.119     0.119     0.119

2Melogram(st)
  mean             14.0879   56.5682     5.037   24.8271   49.3841   53.2261   14.1044   55.0436   50.3338   53.0058   51.1216   19.6032   48.3994   14.7722    50.934   51.1089   46.4929    49.705    17.948   20.3846   11.7906   42.8576   54.0407   16.6371   50.6069   39.8445         0
  std. dev.        24.9544    9.0181   15.7745   25.0716    4.6172   14.7485   24.5718     7.999    15.575    11.354   17.8431   26.6747   16.3496    25.655    14.588    9.7835   20.5401   16.8983   26.4945   27.3127   22.6993   22.5475   14.2925   26.1573   11.6158   18.6162     0.004
  weight sum           854       217     72113      1950       492     26115      2715      1196     13740      2617      1083      1160      7083       979      2613      3210     13234      6308       840      2005      8826      4148      4137      3409      1401       890        65
  precision         0.0239    0.0239    0.0239    0.0239    0.0239    0.0239    0.0239    0.0239    0.0239    0.0239    0.0239    0.0239    0.0239    0.0239    0.0239    0.0239    0.0239    0.0239    0.0239    0.0239    0.0239    0.0239    0.0239    0.0239    0.0239    0.0239    0.0239

2ZCross
  mean               8.717    3.4981    0.2663    0.9935    3.3815    7.8631       1.7    4.1467    5.2522    4.0659    4.6038    0.6289    3.7306    3.9299    2.8552     3.292    4.3707    2.4764    4.3657    1.0231    3.7282    3.2126    4.0724    0.8683    3.2255    1.5355         0
  std. dev.        12.8804    2.7049     1.162    1.7502    2.5308    4.5366    3.7118    1.9413    3.3232    2.2648     2.893    1.5506    3.2938    3.9692    1.5319    2.0373    3.0828    1.6373    7.3826    2.2954    7.1411    2.5862    2.9865    1.7564    1.9719     1.732    0.1696
  weight sum           854       217     72113      1950       492     26115      2715      1196     13740      2617      1083      1160      7083       979      2613      3210     13234      6308       840      2005      8826      4148      4137      3409      1401       890        65
  precision         1.0175    1.0175    1.0175    1.0175    1.0175    1.0175    1.0175    1.0175    1.0175    1.0175    1.0175    1.0175    1.0175    1.0175    1.0175    1.0175    1.0175    1.0175    1.0175    1.0175    1.0175    1.0175    1.0175    1.0175    1.0175    1.0175    1.0175

2F1(Hz)
  mean            121.6061  608.4303   55.2567  374.0311  446.3233  707.9926   93.3661  479.2744  463.9738  517.1175  492.1557  259.1234  361.4648  442.6371  431.8669  470.4567  484.0118  463.2043  178.6858  225.0223  168.9797  481.7612  498.5025  112.7397  481.3045    336.78         0
  std. dev.       248.3444  137.2592  168.6123  301.9726   85.2327  255.4631  207.1849  132.8724  146.1336  153.4041   194.247  331.0026  144.5804  348.1936  163.6214  139.6711  226.7963  156.8499   245.195  291.9111  276.3136  236.7371  308.2875  209.9747  170.2068  185.9761    0.0602
  weight sum           854       217     72113      1950       492     26115      2715      1196     13740      2617      1083      1160      7083       979      2613      3210     13234      6308       840      2005      8826      4148      4137      3409      1401       890        65
  precision         0.3611    0.3611    0.3611    0.3611    0.3611    0.3611    0.3611    0.3611    0.3611    0.3611    0.3611    0.3611    0.3611    0.3611    0.3611    0.3611    0.3611    0.3611    0.3611    0.3611    0.3611    0.3611    0.3611    0.3611    0.3611    0.3611    0.3611

2F2(Hz)
  mean            369.0814 1639.9217  173.0723  1077.349 1933.7501 1458.6488  272.5047 1574.5004 1786.3109  1484.039 1683.9156  671.9378 1973.7484 1237.5226 1665.4019 1669.8433 1138.3786 1594.1783  716.3684  668.0649  528.2133 1363.9975 1052.4199  376.3264 1567.0875 1332.5302         0
  std. dev.       721.6568  127.4157   522.685  849.7278  346.2648  397.2685   619.183   344.113  528.1199  322.7423  599.3204  837.2947  671.6296  914.2406  437.4764   339.553  536.2083  457.2799  954.2634    837.81  838.4578  623.5588  425.1574  682.8044  416.2243  675.2365    0.0741
  weight sum           854       217     72113      1950       492     26115      2715      1196     13740      2617      1083      1160      7083       979      2613      3210     13234      6308       840      2005      8826      4148      4137      3409      1401       890        65
  precision         0.4448    0.4448    0.4448    0.4448    0.4448    0.4448    0.4448    0.4448    0.4448    0.4448    0.4448    0.4448    0.4448    0.4448    0.4448    0.4448    0.4448    0.4448    0.4448    0.4448    0.4448    0.4448    0.4448    0.4448    0.4448    0.4448    0.4448

2F3(Hz)
  mean            607.6728 2865.3461  295.0943 1761.5658 2524.8787 2720.7293  499.9091 2754.6172 2620.1056 2867.8184  2887.372 1146.9885 2654.8736 1826.5929 2747.4266 2812.5933 2496.9201 2754.3718 1070.6095 1137.1107  876.8981 2370.7761 2674.1003  678.7491 2668.1438 2289.2593         0
  std. dev.      1187.6252  417.5591    876.14 1328.8807  113.6133  732.0431 1097.3957  468.8957  787.0306   507.148  943.5462 1424.3085  926.0878 1338.1872  568.4352  580.6592 1027.3116  679.2964 1390.7803 1412.7108 1376.5073 1090.3771  785.3599 1220.0156  678.3081 1174.3712    0.1108
  weight sum           854       217     72113      1950       492     26115      2715      1196     13740      2617      1083      1160      7083       979      2613      3210     13234      6308       840      2005      8826      4148      4137      3409      1401       890        65
  precision         0.6646    0.6646    0.6646    0.6646    0.6646    0.6646    0.6646    0.6646    0.6646    0.6646    0.6646    0.6646    0.6646    0.6646    0.6646    0.6646    0.6646    0.6646    0.6646    0.6646    0.6646    0.6646    0.6646    0.6646    0.6646    0.6646    0.6646

2F4(Hz)
  mean            723.8864 3237.1913  354.6326 2192.0951 3589.4837 3132.5114  580.0975 3299.1241  3156.326 3321.3909 2928.1402 1318.0881 3155.7849 2287.8591 3311.9965 3236.6933 2872.8522  3162.836 1294.4175 1357.5651  991.8696 2743.6078 3065.6415  781.3509 3235.9969   2658.91         0
  std. dev.      1414.6824  403.9693 1050.5011 1640.4181   90.1376  830.1868 1275.2872  440.7006  913.7122  554.7594  958.8293 1626.5593 1058.3659 1664.3819   615.418  587.0344 1164.6509  784.2691 1692.5355 1665.0433 1554.9073 1208.9724  804.1571 1409.5459  709.7605 1353.3023    0.1134
  weight sum           854       217     72113      1950       492     26115      2715      1196     13740      2617      1083      1160      7083       979      2613      3210     13234      6308       840      2005      8826      4148      4137      3409      1401       890        65
  precision         0.6804    0.6804    0.6804    0.6804    0.6804    0.6804    0.6804    0.6804    0.6804    0.6804    0.6804    0.6804    0.6804    0.6804    0.6804    0.6804    0.6804    0.6804    0.6804    0.6804    0.6804    0.6804    0.6804    0.6804    0.6804    0.6804    0.6804

3Int(dB)
  mean            -19.2461   -11.137  -48.0906  -21.2263  -10.7936   -2.8369  -23.9747   -5.8726   -5.1597   -7.7263   -7.7014  -22.1756   -8.6607  -15.7973   -7.5452   -8.2279   -8.1449    -9.398  -21.6971  -22.3737  -21.7426  -11.8923   -5.0726  -24.8849   -9.1191  -16.3413  -26.8486
  std. dev.         8.1796    4.3722   16.3157   11.2739    6.3902    8.1342   10.0531    4.2886    8.0314    6.1746    7.9943    5.2897    8.3453    6.1002    5.9714     5.731   12.1979    7.7661   11.1815   10.6909      6.52    9.3872    7.5754   10.5207    6.5755    4.7539    1.9432
  weight sum           854       217     72113      1950       492     26115      2715      1196     13740      2617      1083      1160      7083       979      2613      3210     13234      6308       840      2005      8826      4148      4137      3409      1401       890        65
  precision         0.1037    0.1037    0.1037    0.1037    0.1037    0.1037    0.1037    0.1037    0.1037    0.1037    0.1037    0.1037    0.1037    0.1037    0.1037    0.1037    0.1037    0.1037    0.1037    0.1037    0.1037    0.1037    0.1037    0.1037    0.1037    0.1037    0.1037

3Pitch(Hz)
  mean             52.0668  245.4548   16.9614   79.2185  147.3103  226.6395   55.4702  216.1585   190.258  202.1991  211.8357   71.3211  173.0302   150.472  194.4694  174.6963  178.1206  189.1164   84.6126    80.036   42.5825  161.8374  229.3502   72.6725  178.4924  111.8035         0
  std. dev.       100.8809  122.3156   56.6741   86.3447   39.4441  103.6004   99.0189   72.2735   87.8928   84.5042  101.9447  113.5143   76.4927   131.986   87.2682   64.1196   105.326   90.7617  116.2629  113.8479   86.4703   95.7751   84.2123  111.0321   71.9353   69.3897    0.0197
  weight sum           854       217     72113      1950       492     26115      2715      1196     13740      2617      1083      1160      7083       979      2613      3210     13234      6308       840      2005      8826      4148      4137      3409      1401       890        65
  precision         0.1184    0.1184    0.1184    0.1184    0.1184    0.1184    0.1184    0.1184    0.1184    0.1184    0.1184    0.1184    0.1184    0.1184    0.1184    0.1184    0.1184    0.1184    0.1184    0.1184    0.1184    0.1184    0.1184    0.1184    0.1184    0.1184    0.1184

3RawPitch
  mean             33.7924  235.9727   13.9206   61.1382  124.8483    217.01   38.0279  213.8557  185.5139   195.358  201.5101    33.977  165.4701   89.1819  183.2907  157.9993   172.363  175.0884   45.7874   62.1014   22.2867  154.9441  220.5579   47.8946  163.7864   76.0122         0
  std. dev.         83.892  132.6662   51.4529   83.3164   83.0866  110.1658   85.1904   75.9087   95.7233   95.4733  112.6818   75.6446   84.0796  112.0342   98.8447   79.5776  113.1234  104.5373    94.598  108.0571   64.9857  104.3173   92.9298   94.6875   84.8654   77.9953    0.0202
  weight sum           854       217     72113      1950       492     26115      2715      1196     13740      2617      1083      1160      7083       979      2613      3210     13234      6308       840      2005      8826      4148      4137      3409      1401       890        65
  precision         0.1214    0.1214    0.1214    0.1214    0.1214    0.1214    0.1214    0.1214    0.1214    0.1214    0.1214    0.1214    0.1214    0.1214    0.1214    0.1214    0.1214    0.1214    0.1214    0.1214    0.1214    0.1214    0.1214    0.1214    0.1214    0.1214    0.1214

3SmPitch
  mean             48.5925   245.456   15.3493   72.7123  149.4291  224.9616   47.6363  216.1584  188.8112   201.591  210.4603   53.8979  170.6319  107.1725  191.3387  172.7801  175.8934  186.0285   66.1833   70.8391   35.0362  158.8398  228.8462   62.7585  174.2832  106.6286         0
  std. dev.        97.7825    122.31   52.9684   83.2033   36.9317   105.126    94.459   72.2735   89.0812   85.6638  103.5242   95.1992   79.0959  136.7364   91.8633   66.5132   107.593   93.7073  107.9794  111.2508   80.0251   97.3601   84.5411  106.1799   76.8976   71.6849    0.0198
  weight sum           854       217     72113      1950       492     26115      2715      1196     13740      2617      1083      1160      7083       979      2613      3210     13234      6308       840      2005      8826      4148      4137      3409      1401       890        65
  precision          0.119     0.119     0.119     0.119     0.119     0.119     0.119     0.119     0.119     0.119     0.119     0.119     0.119     0.119     0.119     0.119     0.119     0.119     0.119     0.119     0.119     0.119     0.119     0.119     0.119     0.119     0.119

3Melogram(st)
  mean             14.3562   56.5592    4.9861   24.4577   49.4109   53.2506   14.7332   55.0479    50.379   53.0359   51.0783   19.3291   48.4716   14.7356   50.9466   51.0881   46.4586   49.5865    18.431   20.7372   11.5578    42.876     54.16   17.3439   50.7346   39.8539         0
  std. dev.        25.1102    9.0368   15.7047   25.0491    4.6372   14.6917   24.9554     7.995   15.5007   11.2662   17.9128   26.5935   16.2405    25.656   14.5906    9.8243   20.5573   17.0551   26.6943   27.3707     22.55   22.5422   14.0434   26.4609   11.3756   18.6194     0.004
  weight sum           854       217     72113      1950       492     26115      2715      1196     13740      2617      1083      1160      7083       979      2613      3210     13234      6308       840      2005      8826      4148      4137      3409      1401       890        65
  precision         0.0239    0.0239    0.0239    0.0239    0.0239    0.0239    0.0239    0.0239    0.0239    0.0239    0.0239    0.0239    0.0239    0.0239    0.0239    0.0239    0.0239    0.0239    0.0239    0.0239    0.0239    0.0239    0.0239    0.0239    0.0239    0.0239    0.0239

3ZCross
  mean              8.7575    3.5075    0.2635    0.9737    3.4187    7.8565    1.7503     4.174    5.2408     4.097    4.6029     0.614    3.7393    3.9195    2.8571    3.2977    4.3663    2.4622    4.3936    1.0592    3.7228    3.2131    4.0771    0.9441    3.2386    1.5446         0
  std. dev.        12.8748    2.7122    1.1594    1.7416    2.5423    4.5414    3.7194     1.952    3.3253    2.2657    2.8824    1.5338    3.2999    3.9677    1.5274    2.0313     3.087    1.6387    7.3581    2.2987     7.143    2.5871    2.9819    1.8242    1.9711    1.7332    0.1696
  weight sum           854       217     72113      1950       492     26115      2715      1196     13740      2617      1083      1160      7083       979      2613      3210     13234      6308       840      2005      8826      4148      4137      3409      1401       890        65
  precision         1.0175    1.0175    1.0175    1.0175    1.0175    1.0175    1.0175    1.0175    1.0175    1.0175    1.0175    1.0175    1.0175    1.0175    1.0175    1.0175    1.0175    1.0175    1.0175    1.0175    1.0175    1.0175    1.0175    1.0175    1.0175    1.0175    1.0175

3F1(Hz)
  mean            119.0453  610.2726   54.6968  369.3806  446.4562  709.9451   96.7676  479.7554  465.3474  517.5928  491.6485  253.7586  362.5437   441.169  431.7023  469.9812  485.0896  461.0344   178.976  225.3731  164.2283  481.0339  499.8715  115.8207  481.5242  336.4757         0
  std. dev.       245.7442  137.7957  167.7993  303.0257   85.8982  253.5114  210.0239  132.7483  144.1266  153.4125  194.5674  329.5646  142.9356  349.6979  163.1554  138.6687  226.1543  157.0684  245.3509  291.1141  273.7313  236.1936  306.7882  212.4052  168.6742  185.6772    0.0602
  weight sum           854       217     72113      1950       492     26115      2715      1196     13740      2617      1083      1160      7083       979      2613      3210     13234      6308       840      2005      8826      4148      4137      3409      1401       890        65
  precision         0.3611    0.3611    0.3611    0.3611    0.3611    0.3611    0.3611    0.3611    0.3611    0.3611    0.3611    0.3611    0.3611    0.3611    0.3611    0.3611    0.3611    0.3611    0.3611    0.3611    0.3611    0.3611    0.3611    0.3611    0.3611    0.3611    0.3611

3F2(Hz)
  mean            363.3411 1636.3383  171.3507 1063.8206  1931.421 1461.2516  282.0003 1573.1525 1793.0334 1484.0603 1681.1007  659.5127 1983.2786 1227.7023 1666.3384 1670.5036  1138.672 1591.5726  715.7657  669.0664  514.0321 1364.9711 1056.4734   386.335 1572.7594 1333.8093         0
  std. dev.       718.0845  126.4731  520.3742  852.4815  346.9034  392.1592  626.6308  343.7654  519.5885  323.8039  601.4811  834.9172  662.5587  915.4801  434.1956  336.0066  533.7441  459.9848  953.1633  835.8385  831.7399  623.7455  419.7581  690.7237  408.7214  675.8375    0.0741
  weight sum           854       217     72113      1950       492     26115      2715      1196     13740      2617      1083      1160      7083       979      2613      3210     13234      6308       840      2005      8826      4148      4137      3409      1401       890        65
  precision         0.4448    0.4448    0.4448    0.4448    0.4448    0.4448    0.4448    0.4448    0.4448    0.4448    0.4448    0.4448    0.4448    0.4448    0.4448    0.4448    0.4448    0.4448    0.4448    0.4448    0.4448    0.4448    0.4448    0.4448    0.4448    0.4448    0.4448

3F3(Hz)
  mean             595.774 2865.8116  292.1183 1739.1394 2524.0898 2725.9366  517.9505  2753.747 2628.2257 2867.5444 2884.2338 1123.9679 2665.7831 1814.2908 2747.6651 2815.5603 2500.7441 2750.3101 1069.9283 1140.4886  852.9205 2371.5583 2684.8467  693.5855 2675.9477 2289.2198         0
  std. dev.      1176.7261  419.8192  872.1937 1334.9066  113.2976  723.2634 1111.8204   469.172  775.3306  510.3194  947.4571 1418.2106  914.1503 1340.7453  563.3729  577.1912 1023.7463  685.7233 1389.9209 1411.2331 1365.0692 1090.3764  768.1272 1228.7623  664.5544 1174.1718    0.1108
  weight sum           854       217     72113      1950       492     26115      2715      1196     13740      2617      1083      1160      7083       979      2613      3210     13234      6308       840      2005      8826      4148      4137      3409      1401       890        65
  precision         0.6646    0.6646    0.6646    0.6646    0.6646    0.6646    0.6646    0.6646    0.6646    0.6646    0.6646    0.6646    0.6646    0.6646    0.6646    0.6646    0.6646    0.6646    0.6646    0.6646    0.6646    0.6646    0.6646    0.6646    0.6646    0.6646    0.6646

3F4(Hz)
  mean            712.8288 3235.4824  351.1389 2164.6724 3589.9691 3138.0998  603.2762 3298.5717  3165.364 3320.3356 2926.4358 1293.2555 3167.5238 2274.7614 3313.8921 3239.2282 2876.6923 3158.6565 1293.1596 1364.3293  965.4569 2743.8027 3077.7233  800.1838 3245.6604 2659.1608         0
  std. dev.      1407.7589  401.8328 1045.9904 1648.4189   89.6674  819.8326 1296.4012  440.2602  898.8907  558.3815  963.4929 1621.7347 1043.4405 1669.5538  608.9784  581.4997 1160.0433  792.4391 1690.6904 1666.4146 1543.1362 1209.1445  781.3188  1422.858  688.8197 1353.5672    0.1134
  weight sum           854       217     72113      1950       492     26115      2715      1196     13740      2617      1083      1160      7083       979      2613      3210     13234      6308       840      2005      8826      4148      4137      3409      1401       890        65
  precision         0.6804    0.6804    0.6804    0.6804    0.6804    0.6804    0.6804    0.6804    0.6804    0.6804    0.6804    0.6804    0.6804    0.6804    0.6804    0.6804    0.6804    0.6804    0.6804    0.6804    0.6804    0.6804    0.6804    0.6804    0.6804    0.6804    0.6804

4Int(dB)
  mean            -19.0693  -11.1929  -48.1181  -21.4539  -10.6857   -2.8485  -23.5795   -5.8343   -5.1788   -7.6697   -7.7106  -22.2242    -8.647  -15.8035   -7.5286   -8.2156   -8.1757    -9.481  -21.3191  -22.0995   -21.795  -11.9049   -5.0188  -24.4128   -9.0381  -16.3031  -26.8422
  std. dev.          8.129    4.3665   16.2755   11.2925    6.4451    8.1159    10.105    4.2962    8.0296    6.1925    7.9841    5.2537    8.3528    6.1174    5.9642     5.786   12.2243    7.8348   11.1005   10.7676    6.5211    9.4638    7.4803   10.7318    6.4921    4.7228    1.9264
  weight sum           854       217     72113      1950       492     26115      2715      1196     13740      2617      1083      1160      7083       979      2613      3210     13234      6308       840      2005      8826      4148      4137      3409      1401       890        65
  precision         0.1037    0.1037    0.1037    0.1037    0.1037    0.1037    0.1037    0.1037    0.1037    0.1037    0.1037    0.1037    0.1037    0.1037    0.1037    0.1037    0.1037    0.1037    0.1037    0.1037    0.1037    0.1037    0.1037    0.1037    0.1037    0.1037    0.1037

4Pitch(Hz)
  mean             53.6149  245.5105   16.7884   77.8783  147.6037  226.6268   58.8245  216.1852  190.4015  202.1811  211.7569   70.3188  173.2101  150.1202  194.5754  174.6634  177.8211  188.6283   86.5438   81.2312   41.8358  161.9416  229.5826   75.8013  178.8654  111.8696         0
  std. dev.       101.8479  122.5449   56.4061   86.0819   39.7611  103.5824  101.3106   72.1796   87.7758    84.529   102.216  113.1138   76.2773  131.8831   87.2898   64.1077  105.3227   91.1347  117.3053  113.6613     85.96   95.8855   83.7347  112.3277   71.5113   69.4017    0.0197
  weight sum           854       217     72113      1950       492     26115      2715      1196     13740      2617      1083      1160      7083       979      2613      3210     13234      6308       840      2005      8826      4148      4137      3409      1401       890        65
  precision         0.1184    0.1184    0.1184    0.1184    0.1184    0.1184    0.1184    0.1184    0.1184    0.1184    0.1184    0.1184    0.1184    0.1184    0.1184    0.1184    0.1184    0.1184    0.1184    0.1184    0.1184    0.1184    0.1184    0.1184    0.1184    0.1184    0.1184

4RawPitch
  mean             34.6937  235.8698   13.7661   59.8825  125.1561  217.0254   40.9928  213.8567  185.6605  195.1733  201.5228   32.8638  165.7379   88.7789  183.3567  157.9095  172.1393  174.5068   47.7808   63.4782   21.4572  154.7487  220.7885   51.0815  164.1606   76.6678         0
  std. dev.         84.628  133.0649   51.2121   82.7749   82.8749  110.1492   88.2877   75.8797   95.6276   95.4762  112.8537   74.3015   83.9735   111.652   98.9332   79.7395  113.0491  104.8628   96.5154  108.1378   63.8258  104.4982   92.5273   96.7696   84.2928   78.1874    0.0202
  weight sum           854       217     72113      1950       492     26115      2715      1196     13740      2617      1083      1160      7083       979      2613      3210     13234      6308       840      2005      8826      4148      4137      3409      1401       890        65
  precision         0.1214    0.1214    0.1214    0.1214    0.1214    0.1214    0.1214    0.1214    0.1214    0.1214    0.1214    0.1214    0.1214    0.1214    0.1214    0.1214    0.1214    0.1214    0.1214    0.1214    0.1214    0.1214    0.1214    0.1214    0.1214    0.1214    0.1214

4SmPitch
  mean             49.6608  245.5113   15.1799   71.3735  149.7231  224.9976   50.8815   216.185  189.0092  201.6147  210.5612   52.8846  170.7795  106.8215  191.3175  172.6418  175.6214  185.4113   67.7951   72.1021   34.2779   158.903  229.0387   65.8327  174.8258  106.6879         0
  std. dev.        98.5681  122.5397   52.6871   82.8258    37.254  105.0568   97.0589   72.1793   88.9353     85.61  103.5941   94.5125    78.963  136.5236   92.0664   66.6408  107.5646   94.1494   109.231  111.1535   79.3177   97.5018   84.1352  107.7671   76.3484    71.702    0.0198
  weight sum           854       217     72113      1950       492     26115      2715      1196     13740      2617      1083      1160      7083       979      2613      3210     13234      6308       840      2005      8826      4148      4137      3409      1401       890        65
  precision          0.119     0.119     0.119     0.119     0.119     0.119     0.119     0.119     0.119     0.119     0.119     0.119     0.119     0.119     0.119     0.119     0.119     0.119     0.119     0.119     0.119     0.119     0.119     0.119     0.119     0.119     0.119

4Melogram(st)
  mean             14.6917   56.5513    4.9364    24.089   49.4391   53.2675   15.3806   55.0532   50.4242   53.0658   51.0349   19.1087   48.5268    14.765   50.9591   51.0681   46.3993   49.4588    18.914   21.0764   11.3511   42.8927   54.2789   18.1163   50.8281   39.8644         0
  std. dev.        25.2998     9.055   15.6361    25.022    4.6578   14.6493   25.3248    7.9909   15.4261   11.1774   17.9822    26.534   16.1496   25.7022   14.5933    9.8647   20.5969   17.2205   26.8841   27.4078   22.4179   22.5367   13.7888    26.768    11.212   18.6232     0.004
  weight sum           854       217     72113      1950       492     26115      2715      1196     13740      2617      1083      1160      7083       979      2613      3210     13234      6308       840      2005      8826      4148      4137      3409      1401       890        65
  precision         0.0239    0.0239    0.0239    0.0239    0.0239    0.0239    0.0239    0.0239    0.0239    0.0239    0.0239    0.0239    0.0239    0.0239    0.0239    0.0239    0.0239    0.0239    0.0239    0.0239    0.0239    0.0239    0.0239    0.0239    0.0239    0.0239    0.0239

4ZCross
  mean              8.7945    3.5215    0.2613    0.9554     3.458    7.8466    1.7978    4.2072    5.2275    4.1262     4.602       0.6    3.7468    3.9112    2.8599    3.3005    4.3624    2.4508    4.4154    1.1013    3.7182    3.2182    4.0827    1.0268    3.2545     1.556         0
  std. dev.        12.8628    2.7177    1.1581    1.7326    2.5541    4.5485    3.7224    1.9666     3.329    2.2672    2.8724    1.5154    3.3104    3.9682    1.5248    2.0175    3.0942    1.6439    7.3309    2.3038    7.1446    2.5912    2.9766    1.8967    1.9703    1.7331    0.1696
  weight sum           854       217     72113      1950       492     26115      2715      1196     13740      2617      1083      1160      7083       979      2613      3210     13234      6308       840      2005      8826      4148      4137      3409      1401       890        65
  precision         1.0175    1.0175    1.0175    1.0175    1.0175    1.0175    1.0175    1.0175    1.0175    1.0175    1.0175    1.0175    1.0175    1.0175    1.0175    1.0175    1.0175    1.0175    1.0175    1.0175    1.0175    1.0175    1.0175    1.0175    1.0175    1.0175    1.0175

4F1(Hz)
  mean            117.8655  612.1148   54.1467  364.7313  446.6639  711.8181   100.516  480.1591   466.604  518.0523  491.6499  248.3937  363.6076  439.5832  431.5642  469.5534   485.985  458.9035  179.8985  225.7231  159.6277  480.1411  501.0702  119.4161  481.9773  336.1847         0
  std. dev.       244.1103  138.3056   167.003  304.0067   86.6805  251.6267  212.9908  132.6334  142.2478   153.457  194.3911  328.0324  141.3453  351.0043  162.7076    137.64  225.6523   157.255  245.7108  290.3141  271.0649  235.7298  305.5336   215.237  167.0079  185.3977    0.0602
  weight sum           854       217     72113      1950       492     26115      2715      1196     13740      2617      1083      1160      7083       979      2613      3210     13234      6308       840      2005      8826      4148      4137      3409      1401       890        65
  precision         0.3611    0.3611    0.3611    0.3611    0.3611    0.3611    0.3611    0.3611    0.3611    0.3611    0.3611    0.3611    0.3611    0.3611    0.3611    0.3611    0.3611    0.3611    0.3611    0.3611    0.3611    0.3611    0.3611    0.3611    0.3611    0.3611    0.3611

4F2(Hz)
  mean            361.5815 1632.7549  169.6403 1050.2838   1928.94 1463.7337  292.1848 1572.4123 1799.2434 1484.1145 1680.0266  647.0877 1992.3968 1218.1002 1667.4462 1671.0258  1138.609 1588.9417  717.5218  670.0462  500.4451 1365.5147 1060.1575  397.8192 1578.5615 1335.0998         0
  std. dev.       717.1972  125.4212  518.0455    855.01    347.64  387.1874  634.0404  343.7643  511.5475  324.8835  601.5161  832.3474  653.6523  916.7891  430.8522  332.5965   531.629  462.6799  952.7368  833.8404  825.0266   624.257  414.9703  699.3765  400.9497  676.4383    0.0741
  weight sum           854       217     72113      1950       492     26115      2715      1196     13740      2617      1083      1160      7083       979      2613      3210     13234      6308       840      2005      8826      4148      4137      3409      1401       890        65
  precision         0.4448    0.4448    0.4448    0.4448    0.4448    0.4448    0.4448    0.4448    0.4448    0.4448    0.4448    0.4448    0.4448    0.4448    0.4448    0.4448    0.4448    0.4448    0.4448    0.4448    0.4448    0.4448    0.4448    0.4448    0.4448    0.4448    0.4448

4F3(Hz)
  mean            589.9024 2866.2771  289.1712 1716.7103 2523.2929 2730.9563  537.8201  2752.944 2635.6414 2867.2678 2884.1098 1100.9472 2676.2267  1801.929 2747.9045 2818.5543 2503.6829 2746.2749 1072.4324 1143.8554  830.1185 2371.4578 2694.2989  711.3029 2683.8208 2289.1003         0
  std. dev.      1169.2259  422.0667  868.2313 1340.5272   112.982  714.7452 1126.9157  469.4092   764.297   513.436  947.3313  1411.711   902.456 1343.1512  558.3353  573.6833 1021.0061  692.0989 1389.6731 1409.7328  1353.937 1090.8183   752.613 1239.5025   650.406 1173.9484    0.1108
  weight sum           854       217     72113      1950       492     26115      2715      1196     13740      2617      1083      1160      7083       979      2613      3210     13234      6308       840      2005      8826      4148      4137      3409      1401       890        65
  precision         0.6646    0.6646    0.6646    0.6646    0.6646    0.6646    0.6646    0.6646    0.6646    0.6646    0.6646    0.6646    0.6646    0.6646    0.6646    0.6646    0.6646    0.6646    0.6646    0.6646    0.6646    0.6646    0.6646    0.6646    0.6646    0.6646    0.6646

4F4(Hz)
  mean             710.116 3233.7736  347.6842 2137.2442 3590.2388 3143.4133  629.0302 3298.0831 3173.7603 3319.2569 2927.2908 1268.4229 3178.8998 2261.4489 3315.7815 3241.7085 2879.5448 3154.4825 1295.6998 1371.0518   940.078 2743.4389 3088.1777  821.7414 3255.3058  2659.368         0
  std. dev.      1407.1215  399.6776 1041.4905 1655.9273   89.1474   809.765  1318.959  439.8976  884.9534   561.953  964.0065 1616.5143 1028.8621  1674.423  602.4578  576.0183 1156.4562  800.5068 1689.4794 1667.7138 1531.2204 1210.0756  760.6201 1437.2095  667.0532 1353.8047    0.1134
  weight sum           854       217     72113      1950       492     26115      2715      1196     13740      2617      1083      1160      7083       979      2613      3210     13234      6308       840      2005      8826      4148      4137      3409      1401       890        65
  precision         0.6804    0.6804    0.6804    0.6804    0.6804    0.6804    0.6804    0.6804    0.6804    0.6804    0.6804    0.6804    0.6804    0.6804    0.6804    0.6804    0.6804    0.6804    0.6804    0.6804    0.6804    0.6804    0.6804    0.6804    0.6804    0.6804    0.6804





=== Stratified cross-validation ===

Correctly Classified Instances       54379               29.6505 %
Incorrectly Classified Instances    129021               70.3495 %
Kappa statistic                          0.2198
K&B Relative Info Score            2941617.0563 %
K&B Information Score                96599.2807 bits      0.5267 bits/instance
Class complexity | order 0          602177.389  bits      3.2834 bits/instance
Class complexity | scheme          17099378.9518 bits     93.2354 bits/instance
Complexity improvement     (Sf)    -16497201.5628 bits    -89.952  bits/instance
Mean absolute error                      0.0522
Root mean squared error                  0.2216
Relative absolute error                 87.3805 %
Root relative squared error            128.2221 %
Coverage of cases (0.95 level)          32.849  %
Mean rel. region size (0.95 level)       4.8908 %
Total Number of Instances           183400     


=== Detailed Accuracy By Class ===

                 TP Rate  FP Rate  Precision  Recall   F-Measure  MCC      ROC Area  PRC Area  Class
                 0,226    0,004    0,199      0,226    0,212      0,208    0,636     0,107     ch
                 0,355    0,020    0,020      0,355    0,039      0,081    0,887     0,055     rr
                 0,491    0,015    0,955      0,491    0,649      0,579    0,875     0,856     0
                 0,106    0,021    0,053      0,106    0,070      0,061    0,621     0,033     hs
                 0,941    0,135    0,018      0,941    0,036      0,121    0,956     0,121     hg
                 0,469    0,035    0,691      0,469    0,559      0,513    0,887     0,624     a
                 0,072    0,008    0,120      0,072    0,090      0,082    0,460     0,047     c
                 0,381    0,119    0,021      0,381    0,039      0,065    0,823     0,023     b
                 0,063    0,004    0,533      0,063    0,113      0,165    0,754     0,217     e
                 0,026    0,011    0,035      0,026    0,030      0,018    0,772     0,032     d
                 0,042    0,003    0,078      0,042    0,055      0,054    0,743     0,022     g
                 0,040    0,004    0,054      0,040    0,046      0,041    0,491     0,017     f
                 0,056    0,001    0,607      0,056    0,102      0,176    0,832     0,274     i
                 0,230    0,004    0,250      0,230    0,240      0,236    0,737     0,137     j
                 0,002    0,003    0,009      0,002    0,003      -0,002   0,793     0,037     m
                 0,279    0,046    0,098      0,279    0,145      0,141    0,829     0,068     l
                 0,005    0,002    0,165      0,005    0,010      0,017    0,743     0,167     o
                 0,015    0,008    0,059      0,015    0,024      0,013    0,777     0,077     n
                 0,026    0,001    0,085      0,026    0,040      0,045    0,623     0,024     q
                 0,011    0,002    0,048      0,011    0,018      0,018    0,495     0,028     p
                 0,096    0,002    0,760      0,096    0,170      0,260    0,573     0,267     s
                 0,017    0,004    0,082      0,017    0,028      0,028    0,689     0,043     r
                 0,237    0,005    0,543      0,237    0,330      0,349    0,859     0,319     u
                 0,079    0,008    0,160      0,079    0,105      0,100    0,480     0,060     t
                 0,000    0,002    0,000      0,000    0,000      -0,004   0,749     0,015     v
                 0,142    0,021    0,032      0,142    0,053      0,058    0,840     0,026     y
                 1,000    0,229    0,002      1,000    0,003      0,035    0,890     0,002     z
Weighted Avg.    0,297    0,015    0,614      0,297    0,376      0,353    0,803     0,495     


=== Confusion Matrix ===

     a     b     c     d     e     f     g     h     i     j     k     l     m     n     o     p     q     r     s     t     u     v     w     x     y     z    aa   <-- classified as
   193    40    56     8    26    19    71    14     2     4     0     9     1     6     0    15     1     7     6     4    73     3     1    14     0     4   277 |     a = ch
     0    77     0     0   102    13     0    11     0     0     0     0     0     0     0     4     0     0     0     0     0     0     0     0     0    10     0 |     b = rr
     3   403 35430   930  1968   190   110  1197    49   229     8   198    78    40    67   870    25   430     5    64    14    94    59   265    55   679 28653 |     c = 0
     0    30    68   207   543    20     3   100     5     5     0    38     1    14     0    87     0    13     0     0    10    40    17     0     9   144   596 |     d = hs
     0     5     0     0   463     0     0    20     0     0     0     0     0     0     0     2     0     1     0     0     0     0     0     0     0     1     0 |     e = hg
    12   770   162   221  4000 12242   138  4397   152   964     5    43     5   144     5  1227   135    57    52    42     3   199    66   122    45   284   623 |     f = a
    94    10   158   105    80     1   195    67     8    12     1    37     4    38     0    35    16    41    15    39    63    24    20   200     0    33  1419 |     g = c
     0    62     0     0   368    90     0   456     0     1    21     0     0     0     1   138     0     7     0     0     0     7    37     0     2     6     0 |     h = b
     0   225    33   230  5332  1389    83  3273   869    49   200    22    22    59    32   762    76   108    30    49     1    51    45   113     0   207   480 |     i = e
     0   159    18    31   757   238     0   978     0    69    11    10     0     0     2   263     0     3     0     0     0    10     0     0     0    54    14 |     j = d
     0    52     5    25   283   141     0   294     0     2    46     9    23     0    14    93     0     0     0     0     0     0    24     7     0     4    61 |     k = g
     0    71    37   109    69     0    14    41     6     3     6    46     0     9     0    18     0    27     0     0     0    27     0    44    16    46   571 |     l = f
     1    15    41   139  1831   290    59  1460   340     0   110    11   396    19   300  1040    25    14    16    55     2    25     2   112     0   468   312 |     m = i
     0    20    55    62    45    83    10    45     9     1     0    17     0   225    16     1     6    53    16     1     6    52     4    15     1    33   203 |     n = j
     0    40     1    70  1046   153     1   720     0    48     0     4     1     0     5   350     0     2     0     1     0     2    54    10     0    65    40 |     o = m
     0   168     1    30  1136   101     3   662    16     0     0     4     1     2     8   897     2    18     1    15     0     6     2    25     0    96    16 |     p = l
     3   308    39   333  2401  1672    42  3776    76   402     1    57     4    49    10  1088    70    52    35    50     0    53   405    59   256   619  1374 |     q = o
     0   481    11   268  1890   146     1  1945    11    22    63    20    43     6     9   724     1    93     0     1     1     7    56     5     0   278   226 |     r = n
    79     1    36    34    65    21    43    27     9    14     0    13     0    28     4    12     3    48    22     1    61     1     0    18     0    21   279 |     s = q
     0    40    81   149   137    44    69    52     0    18    26    51     3    10     0   108     7    56     7    22     0    63     1    71     3    78   909 |     t = p
   580   293   614   517   253   132   500    54    36    49     8   139    44   182    29   215    17   261    22     9   847    60     3   121     2   248  3591 |     u = s
     0   362    44   214   833   199    32   802    26    38    79    38    16     6     9   588     5    99     1    13     0    71    22    70    28   108   445 |     v = r
     0    31     8    35   320   446    17  1359     2    54     1     6     1    12    16   410    18    12     1    31     1    28   979    72    34   190    53 |     w = u
     3    91   181   176   114     6   214    75     1    15     1    73     9    48     3    21    16   163    29    52    11    36     4   268     2    42  1755 |     x = t
     0    15     5    12   741    86     0   285    13     0     0     3     0     0    28   110     0    11     0     0     0     5     0    28     0    45    14 |     y = v
     0     5    16    24   405     0    16    60     0     1     0     9     0     2     0    87     0     0     0     9    22     2     1    37     0   126    68 |     z = y
     0     0     0     0     0     0     0     0     0     0     0     0     0     0     0     0     0     0     0     0     0     0     0     0     0     0    65 |    aa = z

=== Percent Confusion Matrix ===
a	b	c	d	e	f	g	h	i	j	k	l	m	n	o	p	q	r	s	t	u	v	w	x	y	z	aa	
22.6	4.68	6.56	0.94	3.04	2.22	8.31	1.64	0.23	0.47	0.0	1.05	0.12	0.7	0.0	1.76	0.12	0.82	0.7	0.47	8.55	0.35	0.12	1.64	0.0	0.47	32.44	 a = ch
0.0	35.48	0.0	0.0	47.0	5.99	0.0	5.07	0.0	0.0	0.0	0.0	0.0	0.0	0.0	1.84	0.0	0.0	0.0	0.0	0.0	0.0	0.0	0.0	0.0	4.61	0.0	 b = rr
0.0	0.56	49.13	1.29	2.73	0.26	0.15	1.66	0.07	0.32	0.01	0.27	0.11	0.06	0.09	1.21	0.03	0.6	0.01	0.09	0.02	0.13	0.08	0.37	0.08	0.94	39.73	 c = 0
0.0	1.54	3.49	10.62	27.85	1.03	0.15	5.13	0.26	0.26	0.0	1.95	0.05	0.72	0.0	4.46	0.0	0.67	0.0	0.0	0.51	2.05	0.87	0.0	0.46	7.38	30.56	 d = hs
0.0	1.02	0.0	0.0	94.11	0.0	0.0	4.07	0.0	0.0	0.0	0.0	0.0	0.0	0.0	0.41	0.0	0.2	0.0	0.0	0.0	0.0	0.0	0.0	0.0	0.2	0.0	 e = hg
0.05	2.95	0.62	0.85	15.32	46.88	0.53	16.84	0.58	3.69	0.02	0.16	0.02	0.55	0.02	4.7	0.52	0.22	0.2	0.16	0.01	0.76	0.25	0.47	0.17	1.09	2.39	 f = a
3.46	0.37	5.82	3.87	2.95	0.04	7.18	2.47	0.29	0.44	0.04	1.36	0.15	1.4	0.0	1.29	0.59	1.51	0.55	1.44	2.32	0.88	0.74	7.37	0.0	1.22	52.27	 g = c
0.0	5.18	0.0	0.0	30.77	7.53	0.0	38.13	0.0	0.08	1.76	0.0	0.0	0.0	0.08	11.54	0.0	0.59	0.0	0.0	0.0	0.59	3.09	0.0	0.17	0.5	0.0	 h = b
0.0	1.64	0.24	1.67	38.81	10.11	0.6	23.82	6.32	0.36	1.46	0.16	0.16	0.43	0.23	5.55	0.55	0.79	0.22	0.36	0.01	0.37	0.33	0.82	0.0	1.51	3.49	 i = e
0.0	6.08	0.69	1.18	28.93	9.09	0.0	37.37	0.0	2.64	0.42	0.38	0.0	0.0	0.08	10.05	0.0	0.11	0.0	0.0	0.0	0.38	0.0	0.0	0.0	2.06	0.53	 j = d
0.0	4.8	0.46	2.31	26.13	13.02	0.0	27.15	0.0	0.18	4.25	0.83	2.12	0.0	1.29	8.59	0.0	0.0	0.0	0.0	0.0	0.0	2.22	0.65	0.0	0.37	5.63	 k = g
0.0	6.12	3.19	9.4	5.95	0.0	1.21	3.53	0.52	0.26	0.52	3.97	0.0	0.78	0.0	1.55	0.0	2.33	0.0	0.0	0.0	2.33	0.0	3.79	1.38	3.97	49.22	 l = f
0.01	0.21	0.58	1.96	25.85	4.09	0.83	20.61	4.8	0.0	1.55	0.16	5.59	0.27	4.24	14.68	0.35	0.2	0.23	0.78	0.03	0.35	0.03	1.58	0.0	6.61	4.4	 m = i
0.0	2.04	5.62	6.33	4.6	8.48	1.02	4.6	0.92	0.1	0.0	1.74	0.0	22.98	1.63	0.1	0.61	5.41	1.63	0.1	0.61	5.31	0.41	1.53	0.1	3.37	20.74	 n = j
0.0	1.53	0.04	2.68	40.03	5.86	0.04	27.55	0.0	1.84	0.0	0.15	0.04	0.0	0.19	13.39	0.0	0.08	0.0	0.04	0.0	0.08	2.07	0.38	0.0	2.49	1.53	 o = m
0.0	5.23	0.03	0.93	35.39	3.15	0.09	20.62	0.5	0.0	0.0	0.12	0.03	0.06	0.25	27.94	0.06	0.56	0.03	0.47	0.0	0.19	0.06	0.78	0.0	2.99	0.5	 p = l
0.02	2.33	0.29	2.52	18.14	12.63	0.32	28.53	0.57	3.04	0.01	0.43	0.03	0.37	0.08	8.22	0.53	0.39	0.26	0.38	0.0	0.4	3.06	0.45	1.93	4.68	10.38	 q = o
0.0	7.63	0.17	4.25	29.96	2.31	0.02	30.83	0.17	0.35	1.0	0.32	0.68	0.1	0.14	11.48	0.02	1.47	0.0	0.02	0.02	0.11	0.89	0.08	0.0	4.41	3.58	 r = n
9.4	0.12	4.29	4.05	7.74	2.5	5.12	3.21	1.07	1.67	0.0	1.55	0.0	3.33	0.48	1.43	0.36	5.71	2.62	0.12	7.26	0.12	0.0	2.14	0.0	2.5	33.21	 s = q
0.0	2.0	4.04	7.43	6.83	2.19	3.44	2.59	0.0	0.9	1.3	2.54	0.15	0.5	0.0	5.39	0.35	2.79	0.35	1.1	0.0	3.14	0.05	3.54	0.15	3.89	45.34	 t = p
6.57	3.32	6.96	5.86	2.87	1.5	5.67	0.61	0.41	0.56	0.09	1.57	0.5	2.06	0.33	2.44	0.19	2.96	0.25	0.1	9.6	0.68	0.03	1.37	0.02	2.81	40.69	 u = s
0.0	8.73	1.06	5.16	20.08	4.8	0.77	19.33	0.63	0.92	1.9	0.92	0.39	0.14	0.22	14.18	0.12	2.39	0.02	0.31	0.0	1.71	0.53	1.69	0.68	2.6	10.73	 v = r
0.0	0.75	0.19	0.85	7.74	10.78	0.41	32.85	0.05	1.31	0.02	0.15	0.02	0.29	0.39	9.91	0.44	0.29	0.02	0.75	0.02	0.68	23.66	1.74	0.82	4.59	1.28	 w = u
0.09	2.67	5.31	5.16	3.34	0.18	6.28	2.2	0.03	0.44	0.03	2.14	0.26	1.41	0.09	0.62	0.47	4.78	0.85	1.53	0.32	1.06	0.12	7.86	0.06	1.23	51.48	 x = t
0.0	1.07	0.36	0.86	52.89	6.14	0.0	20.34	0.93	0.0	0.0	0.21	0.0	0.0	2.0	7.85	0.0	0.79	0.0	0.0	0.0	0.36	0.0	2.0	0.0	3.21	1.0	 y = v
0.0	0.56	1.8	2.7	45.51	0.0	1.8	6.74	0.0	0.11	0.0	1.01	0.0	0.22	0.0	9.78	0.0	0.0	0.0	1.01	2.47	0.22	0.11	4.16	0.0	14.16	7.64	 z = y
0.0	0.0	0.0	0.0	0.0	0.0	0.0	0.0	0.0	0.0	0.0	0.0	0.0	0.0	0.0	0.0	0.0	0.0	0.0	0.0	0.0	0.0	0.0	0.0	0.0	0.0	100.0	 aa = z
