Timestamp:2014-12-07-10:42:37
Inventario:I0
Intervalo:15ms
Ngramas:5
Clasificador:NaiveBayes
Relation Name:  I0-15ms-5gramas
Num Instances:  12185
Num Attributes: 51

     Name                      Type  Nom  Int Real     Missing      Unique  Dist
   1 0Int(dB)                   Num   0%  10%  90%     0 /  0%    10 /  0%   768 
   2 0Pitch(Hz)                 Num   0%  50%  50%     0 /  0%   940 /  8%  2714 
   3 0RawPitch                  Num   0%  53%  47%     0 /  0%   980 /  8%  2609 
   4 0SmPitch                   Num   0%  51%  49%     0 /  0%   957 /  8%  2691 
   5 0Melogram(st)              Num   0%  46%  54%     0 /  0%   837 /  7%  2573 
   6 0ZCross                    Num   0% 100%   0%     0 /  0%    10 /  0%    40 
   7 0F1(Hz)                    Num   0%  50%  50%     0 /  0%  2281 / 19%  3977 
   8 0F2(Hz)                    Num   0%  50%  50%     0 /  0%  3848 / 32%  5158 
   9 0F3(Hz)                    Num   0%  50%  50%     0 /  0%  3419 / 28%  4850 
  10 0F4(Hz)                    Num   0%  50%  50%     0 /  0%  3319 / 27%  4764 
  11 1Int(dB)                   Num   0%  10%  90%     0 /  0%    10 /  0%   768 
  12 1Pitch(Hz)                 Num   0%  50%  50%     0 /  0%   940 /  8%  2714 
  13 1RawPitch                  Num   0%  53%  47%     0 /  0%   980 /  8%  2609 
  14 1SmPitch                   Num   0%  51%  49%     0 /  0%   957 /  8%  2691 
  15 1Melogram(st)              Num   0%  46%  54%     0 /  0%   837 /  7%  2573 
  16 1ZCross                    Num   0% 100%   0%     0 /  0%    10 /  0%    40 
  17 1F1(Hz)                    Num   0%  50%  50%     0 /  0%  2281 / 19%  3977 
  18 1F2(Hz)                    Num   0%  50%  50%     0 /  0%  3848 / 32%  5158 
  19 1F3(Hz)                    Num   0%  50%  50%     0 /  0%  3419 / 28%  4850 
  20 1F4(Hz)                    Num   0%  50%  50%     0 /  0%  3319 / 27%  4764 
  21 2Int(dB)                   Num   0%  10%  90%     0 /  0%    10 /  0%   768 
  22 2Pitch(Hz)                 Num   0%  50%  50%     0 /  0%   940 /  8%  2714 
  23 2RawPitch                  Num   0%  53%  47%     0 /  0%   980 /  8%  2609 
  24 2SmPitch                   Num   0%  51%  49%     0 /  0%   957 /  8%  2691 
  25 2Melogram(st)              Num   0%  46%  54%     0 /  0%   837 /  7%  2573 
  26 2ZCross                    Num   0% 100%   0%     0 /  0%    10 /  0%    40 
  27 2F1(Hz)                    Num   0%  50%  50%     0 /  0%  2281 / 19%  3977 
  28 2F2(Hz)                    Num   0%  50%  50%     0 /  0%  3848 / 32%  5158 
  29 2F3(Hz)                    Num   0%  50%  50%     0 /  0%  3419 / 28%  4850 
  30 2F4(Hz)                    Num   0%  50%  50%     0 /  0%  3319 / 27%  4764 
  31 3Int(dB)                   Num   0%  10%  90%     0 /  0%    10 /  0%   768 
  32 3Pitch(Hz)                 Num   0%  50%  50%     0 /  0%   940 /  8%  2714 
  33 3RawPitch                  Num   0%  53%  47%     0 /  0%   980 /  8%  2609 
  34 3SmPitch                   Num   0%  51%  49%     0 /  0%   957 /  8%  2691 
  35 3Melogram(st)              Num   0%  46%  54%     0 /  0%   837 /  7%  2573 
  36 3ZCross                    Num   0% 100%   0%     0 /  0%    10 /  0%    40 
  37 3F1(Hz)                    Num   0%  50%  50%     0 /  0%  2281 / 19%  3977 
  38 3F2(Hz)                    Num   0%  50%  50%     0 /  0%  3848 / 32%  5158 
  39 3F3(Hz)                    Num   0%  50%  50%     0 /  0%  3419 / 28%  4850 
  40 3F4(Hz)                    Num   0%  50%  50%     0 /  0%  3319 / 27%  4764 
  41 4Int(dB)                   Num   0%  10%  90%     0 /  0%    10 /  0%   768 
  42 4Pitch(Hz)                 Num   0%  50%  50%     0 /  0%   941 /  8%  2715 
  43 4RawPitch                  Num   0%  53%  47%     0 /  0%   979 /  8%  2609 
  44 4SmPitch                   Num   0%  51%  49%     0 /  0%   957 /  8%  2691 
  45 4Melogram(st)              Num   0%  46%  54%     0 /  0%   838 /  7%  2574 
  46 4ZCross                    Num   0% 100%   0%     0 /  0%    10 /  0%    40 
  47 4F1(Hz)                    Num   0%  50%  50%     0 /  0%  2281 / 19%  3977 
  48 4F2(Hz)                    Num   0%  50%  50%     0 /  0%  3848 / 32%  5158 
  49 4F3(Hz)                    Num   0%  50%  50%     0 /  0%  3419 / 28%  4850 
  50 4F4(Hz)                    Num   0%  50%  50%     0 /  0%  3319 / 27%  4764 
  51 class                      Nom 100%   0%   0%     0 /  0%     0 /  0%    27 


Naive Bayes Classifier

                    Class
Attribute              ch        rr         0        hs        hg         a         c         b         e         d         g         f         i         j         m         l         o         n         q         p         s         r         u         t         v         y         z
                      (0)       (0)    (0.36)    (0.01)       (0)    (0.15)    (0.01)    (0.01)    (0.08)    (0.01)    (0.01)    (0.01)    (0.04)    (0.01)    (0.02)    (0.02)    (0.08)    (0.04)       (0)    (0.01)    (0.05)    (0.03)    (0.02)    (0.02)    (0.01)    (0.01)       (0)
==============================================================================================================================================================================================================================================================================================
0Int(dB)
  mean            -14.9396   -8.6449  -47.9666   -10.185   -4.2189   -8.5793  -24.5609   -5.5973   -11.785   -8.4529    -6.439   -8.6616  -13.9957   -5.6505   -8.5001    -7.453  -13.0905   -6.2692  -24.8416  -15.6171  -14.5303   -8.8022  -11.9663  -18.8486   -8.6743  -11.7469  -22.8184
  std. dev.        12.0748    8.6706   17.2863    9.4601    4.6504   14.3282    16.252     6.094   12.8986    7.7106    6.6168    8.8973   11.3129    8.5282   10.5591    7.9152   14.0184    7.1595   19.2575   14.6922   12.5484   10.0172   13.7701   12.8579   14.0575    9.9763    4.9756
  weight sum            58        15      4414       140        34      1815       182        82       971       177        72        78       503        66       184       223       940       436        55       133       612       308       285       234        99        64         5
  precision         0.1005    0.1005    0.1005    0.1005    0.1005    0.1005    0.1005    0.1005    0.1005    0.1005    0.1005    0.1005    0.1005    0.1005    0.1005    0.1005    0.1005    0.1005    0.1005    0.1005    0.1005    0.1005    0.1005    0.1005    0.1005    0.1005    0.1005

0Pitch(Hz)
  mean            159.9043  173.9504   20.3798  148.8836  155.6473  196.7274   89.5493  211.4509  153.0375   188.524  215.1299   192.949  133.7228  208.7539  179.5654  175.3711  155.9105   201.081  131.3636   160.908  144.6847  168.5733  185.7384  151.7528  169.1338  141.7567  101.2842
  std. dev.        97.5368  125.9145    61.369    87.496   42.0094  125.8832   96.1425   87.9719  103.8972   85.3431    79.281  106.5022   97.9308  103.4039   94.6979   82.7977  117.3958   82.3044  129.6871  122.5399  107.7733   80.5104  132.3586  124.3095  100.6658   63.2064   82.7244
  weight sum            58        15      4414       140        34      1815       182        82       971       177        72        78       503        66       184       223       940       436        55       133       612       308       285       234        99        64         5
  precision         0.1828    0.1828    0.1828    0.1828    0.1828    0.1828    0.1828    0.1828    0.1828    0.1828    0.1828    0.1828    0.1828    0.1828    0.1828    0.1828    0.1828    0.1828    0.1828    0.1828    0.1828    0.1828    0.1828    0.1828    0.1828    0.1828    0.1828

0RawPitch
  mean            145.7503  168.3585   17.1631    149.49  153.9776  186.3177   81.1434  207.9443  144.5828  172.3402  202.3629  168.2869   118.792  197.8338  170.9446  170.6489  146.8368  191.1314  117.9231  156.8508  134.4761  150.7978  171.6991  129.8622  164.6735  128.0845         0
  std. dev.       105.8349  117.1373   56.4371   90.8361    41.077  127.8151  101.1688   87.7459  106.5862   96.4111   88.0034   103.988   99.1267  106.0129   93.8733   84.1614  120.8184   91.7613  129.9564  127.4548   111.006   92.1268   131.795  127.7464  102.7647   69.2113    0.0317
  weight sum            58        15      4414       140        34      1815       182        82       971       177        72        78       503        66       184       223       940       436        55       133       612       308       285       234        99        64         5
  precision           0.19      0.19      0.19      0.19      0.19      0.19      0.19      0.19      0.19      0.19      0.19      0.19      0.19      0.19      0.19      0.19      0.19      0.19      0.19      0.19      0.19      0.19      0.19      0.19      0.19      0.19      0.19

0SmPitch
  mean            158.7547  173.9398   18.7257  148.1234  155.6583  194.1248   83.3934  211.3793  149.0753  184.4803  207.6015  178.9914  130.2865  202.5846   179.595  175.2694  152.2588  198.6593  124.0795  162.0733  141.9355   162.234   180.598  142.1601   168.622  139.0391    34.756
  std. dev.        99.2685  125.9264   58.1994   87.1335   42.0147  126.8747   96.6939   87.9169  106.3452   88.2718     85.11  102.5017   98.3476  106.7739   94.6373   82.8242  118.4966     84.86  131.3455  121.7599  109.7175   85.4071   131.965  125.5742  101.4413   65.4015   69.5121
  weight sum            58        15      4414       140        34      1815       182        82       971       177        72        78       503        66       184       223       940       436        55       133       612       308       285       234        99        64         5
  precision         0.1841    0.1841    0.1841    0.1841    0.1841    0.1841    0.1841    0.1841    0.1841    0.1841    0.1841    0.1841    0.1841    0.1841    0.1841    0.1841    0.1841    0.1841    0.1841    0.1841    0.1841    0.1841    0.1841    0.1841    0.1841    0.1841    0.1841

0Melogram(st)
  mean             42.6651   44.2128    5.9899   43.7757   50.3751   45.9784   26.3542   53.4937   41.6006   50.0685   52.1666    49.259   37.8739   48.8899   48.2336   49.2816   40.2674   52.2397   31.7601   43.4647   38.8783   47.4091   41.0172   37.1386   47.2795   46.0337   41.8912
  std. dev.        23.4368   23.0596   17.0581   19.0082    4.5965   23.1185   26.4427   13.5811   23.5005   15.9563   15.3385   18.0633   24.4823   19.3423   18.3477   15.3228   24.9104   13.6209   29.2464    23.677   24.8872   17.3209   27.0441    27.122   18.0336   14.4082   20.9468
  weight sum            58        15      4414       140        34      1815       182        82       971       177        72        78       503        66       184       223       940       436        55       133       612       308       285       234        99        64         5
  precision         0.0321    0.0321    0.0321    0.0321    0.0321    0.0321    0.0321    0.0321    0.0321    0.0321    0.0321    0.0321    0.0321    0.0321    0.0321    0.0321    0.0321    0.0321    0.0321    0.0321    0.0321    0.0321    0.0321    0.0321    0.0321    0.0321    0.0321

0ZCross
  mean              2.0911    4.9983    0.3867    3.1187     4.767    6.0037    1.3631    4.0472    3.8959    3.6316    4.9615    3.7035    3.5159    5.2956    4.1166    4.1828    3.3147    4.6935     2.145    2.9181    3.1059    4.0952    3.6752    1.4418    5.0339    2.9631     0.441
  std. dev.         2.5873    2.7266    1.5809    2.4118    1.5296    5.3442    2.3951    2.2912     3.649    2.2677    2.7747    3.3867    4.6496    3.5713    3.2431    2.2522    3.6649    3.0804    3.2328    3.5392    3.3982    3.0383      3.94    1.8317    3.3653    2.0799    0.5401
  weight sum            58        15      4414       140        34      1815       182        82       971       177        72        78       503        66       184       223       940       436        55       133       612       308       285       234        99        64         5
  precision         1.1026    1.1026    1.1026    1.1026    1.1026    1.1026    1.1026    1.1026    1.1026    1.1026    1.1026    1.1026    1.1026    1.1026    1.1026    1.1026    1.1026    1.1026    1.1026    1.1026    1.1026    1.1026    1.1026    1.1026    1.1026    1.1026    1.1026

0F1(Hz)
  mean            467.1721  346.8307    70.658  471.0211  485.2579  551.7673  317.0217  421.3617  388.8481  484.6076  528.4627  545.0418   327.902  553.3424  425.0016  501.9312  385.1749  551.6091  302.0005  447.3256  444.3796  531.4476  419.7893  385.0193  481.1717  429.6851  414.1118
  std. dev.         211.59  219.1459  194.4811  214.4062   87.6379  353.4018  272.5655  182.4656   237.095  187.6747   148.615  187.7317  249.1817  146.8065  218.4735  203.3757   266.914  184.3278  271.8186  266.1058  276.7518  208.1586  372.1684  265.7432  197.2894   171.614    338.82
  weight sum            58        15      4414       140        34      1815       182        82       971       177        72        78       503        66       184       223       940       436        55       133       612       308       285       234        99        64         5
  precision          0.438     0.438     0.438     0.438     0.438     0.438     0.438     0.438     0.438     0.438     0.438     0.438     0.438     0.438     0.438     0.438     0.438     0.438     0.438     0.438     0.438     0.438     0.438     0.438     0.438     0.438     0.438

0F2(Hz)
  mean           1657.5421 1421.7127  208.2172 1410.4081  1840.278 1258.0088  993.8775 1545.4832 1369.0863 1392.2458 1717.6076 1587.6166 1293.9645 1933.8332 1492.9192 1495.1791 1068.2508 1598.6985 1118.0509 1358.0451 1350.8205 1429.7556   914.502 1285.3869  1505.485 1345.0304  711.3762
  std. dev.       605.6885  867.4271  568.3554  624.4997  379.8159  676.7011  873.4129  592.2683  803.3837  510.2109  425.1928  516.6225  912.4754  297.2469  734.3755  553.9341  725.3498       487  968.9052   740.944  777.6402  503.6497  685.7093  807.8184  624.1521  477.1568  580.9063
  weight sum            58        15      4414       140        34      1815       182        82       971       177        72        78       503        66       184       223       940       436        55       133       612       308       285       234        99        64         5
  precision         0.5776    0.5776    0.5776    0.5776    0.5776    0.5776    0.5776    0.5776    0.5776    0.5776    0.5776    0.5776    0.5776    0.5776    0.5776    0.5776    0.5776    0.5776    0.5776    0.5776    0.5776    0.5776    0.5776    0.5776    0.5776    0.5776    0.5776

0F3(Hz)
  mean           2606.0161 2050.4743  358.7944 2362.7036 2597.0661 2303.1439  1695.734 2534.4176 2150.7772 2608.9347  3056.578 2606.8986  1972.427 2714.1182 2493.2701 2553.8942 2120.0995  2762.531 1789.6006 2257.1411 2274.1622 2582.5793 2080.2522 2185.6961 2560.3451 2607.5731 2226.1937
  std. dev.       936.2154 1254.7027  955.2144  929.1155   116.841 1198.9301 1435.1445  862.0108 1216.5845  858.2001  686.2108  822.4118 1368.1768   505.403  1090.915  899.9509 1296.1846  701.5053 1476.6866 1219.7349  1268.696  892.4502  1312.859 1307.0439  962.9945  924.7498 1818.1142
  weight sum            58        15      4414       140        34      1815       182        82       971       177        72        78       503        66       184       223       940       436        55       133       612       308       285       234        99        64         5
  precision         0.8494    0.8494    0.8494    0.8494    0.8494    0.8494    0.8494    0.8494    0.8494    0.8494    0.8494    0.8494    0.8494    0.8494    0.8494    0.8494    0.8494    0.8494    0.8494    0.8494    0.8494    0.8494    0.8494    0.8494    0.8494    0.8494    0.8494

0F4(Hz)
  mean           3031.9122 2547.8699  429.1094 2987.0316 3523.6517 2642.9557 1978.9558 3061.5827 2618.9863 3077.0403 3002.8311 3065.1259 2368.7133 3384.2537  2889.256 2983.7774 2452.0691 3178.1582 1998.3137 2625.2199  2589.258 3025.9703 2397.0943  2428.257  2992.747 2963.2429 1792.0125
  std. dev.      1069.0241  1570.172 1139.7345 1164.5151  117.4058 1367.3384 1672.5089 1020.7003 1462.1662  983.3284  686.0453  946.5834 1616.6699  519.6279 1241.9727  1026.085 1492.5677  773.3287 1678.5454 1393.0934 1436.6933  967.6743 1469.4084 1464.0183 1113.0617 1009.5177 1463.1744
  weight sum            58        15      4414       140        34      1815       182        82       971       177        72        78       503        66       184       223       940       436        55       133       612       308       285       234        99        64         5
  precision         0.8707    0.8707    0.8707    0.8707    0.8707    0.8707    0.8707    0.8707    0.8707    0.8707    0.8707    0.8707    0.8707    0.8707    0.8707    0.8707    0.8707    0.8707    0.8707    0.8707    0.8707    0.8707    0.8707    0.8707    0.8707    0.8707    0.8707

1Int(dB)
  mean            -18.8894   -7.9211  -48.6205  -11.1162   -5.9337   -7.2753  -27.4855   -4.7821  -10.1933   -7.1626    -6.002  -11.9427  -12.9283   -8.5245   -7.8139   -6.9369  -11.9021    -6.364  -26.9946  -18.4642  -16.0082   -8.4161   -10.704  -22.3961   -8.4753  -13.1463  -24.5272
  std. dev.        12.1407    8.3336   16.5761    9.5662    5.5234   13.1663   14.6438    4.4463   11.7847    6.5421    6.5733    9.4735   10.6057    8.8447    9.3303    7.0982    13.325    6.6302   17.6576    13.968   11.4041   10.0318    12.611   12.6402    12.936    8.7465    4.3885
  weight sum            58        15      4414       140        34      1815       182        82       971       177        72        78       503        66       184       223       940       436        55       133       612       308       285       234        99        64         5
  precision         0.1005    0.1005    0.1005    0.1005    0.1005    0.1005    0.1005    0.1005    0.1005    0.1005    0.1005    0.1005    0.1005    0.1005    0.1005    0.1005    0.1005    0.1005    0.1005    0.1005    0.1005    0.1005    0.1005    0.1005    0.1005    0.1005    0.1005

1Pitch(Hz)
  mean            130.5517  199.4969   17.8672   144.599  152.2704  203.4102   65.9571  221.8206  160.1808  199.4728  220.0306  174.3386  142.2505  200.8703  188.5486  176.4779  161.5093  203.2485  115.1189  149.2472  130.0158  168.8826  194.1405  126.7826  170.8365  134.9723   66.7671
  std. dev.       108.4327  128.2035   57.8415   82.6247    40.305  121.1619   92.5258    76.579  100.9674   80.3012   79.9172  115.0681   94.8404  109.6467    89.253   76.3377  115.1424   80.9856  125.9133  124.4329  110.7731   82.5491  126.5096  126.4186   96.5893   64.4143    81.773
  weight sum            58        15      4414       140        34      1815       182        82       971       177        72        78       503        66       184       223       940       436        55       133       612       308       285       234        99        64         5
  precision         0.1828    0.1828    0.1828    0.1828    0.1828    0.1828    0.1828    0.1828    0.1828    0.1828    0.1828    0.1828    0.1828    0.1828    0.1828    0.1828    0.1828    0.1828    0.1828    0.1828    0.1828    0.1828    0.1828    0.1828    0.1828    0.1828    0.1828

1RawPitch
  mean            116.2294  193.9062   14.8169  138.4298  147.5514  193.8876   56.8338  218.0232  154.2988  188.4026  209.8756   141.895  129.5623  180.5474  179.6904  170.5816  151.8615  193.7286  110.3199  139.3301  114.8473  152.6983   182.114   99.7955  162.4799  116.9136         0
  std. dev.       112.1967  120.7996   52.5577   90.2464   45.8887  123.2206   92.9635    76.513  103.8965     90.83   90.9809  110.0263   96.6501  114.7216   93.5459    78.198  118.7396   90.4878  125.6958  130.2764  112.3164   93.5708   126.065  123.8787  102.5705    71.906    0.0317
  weight sum            58        15      4414       140        34      1815       182        82       971       177        72        78       503        66       184       223       940       436        55       133       612       308       285       234        99        64         5
  precision           0.19      0.19      0.19      0.19      0.19      0.19      0.19      0.19      0.19      0.19      0.19      0.19      0.19      0.19      0.19      0.19      0.19      0.19      0.19      0.19      0.19      0.19      0.19      0.19      0.19      0.19      0.19

1SmPitch
  mean            129.3385  199.4914   16.1999  144.4653  152.2634  201.1293   62.3091  221.7467  157.6884  197.3686   214.919  157.1697  139.5184  187.8882    187.72  176.4681  158.3741  201.6495    111.21  146.4132  125.6595  160.4134  187.9493  113.3195  168.5086  132.2739         0
  std. dev.        109.652  128.2208   54.1567   82.8611   40.3229  122.2058   91.9471   76.5283  102.7097   82.1423    87.612  109.4033   95.2859  116.7208   90.2249   76.3188  116.4366   83.2018   126.243   126.251  111.7076   89.4532  127.6747  125.9349   99.0264   66.2855    0.0307
  weight sum            58        15      4414       140        34      1815       182        82       971       177        72        78       503        66       184       223       940       436        55       133       612       308       285       234        99        64         5
  precision         0.1841    0.1841    0.1841    0.1841    0.1841    0.1841    0.1841    0.1841    0.1841    0.1841    0.1841    0.1841    0.1841    0.1841    0.1841    0.1841    0.1841    0.1841    0.1841    0.1841    0.1841    0.1841    0.1841    0.1841    0.1841    0.1841    0.1841

1Melogram(st)
  mean             34.4342   48.5821    5.2917   42.7668   49.9739   47.5795   20.5349   56.0292   43.8321   52.3937   53.1486   44.8282   40.2909   42.3726    49.485   50.8468   42.1946   52.6182   27.1465     39.28   35.2551   46.2249   43.1507   31.9241   47.6575   45.5442   31.3446
  std. dev.        27.1981   20.3987   16.1544   19.4829    4.6054   21.7329   25.9572    6.2622   21.9994   12.4641   14.2625   22.0317   23.2502    24.796   16.4868   12.0484   23.8924   12.9313   28.8963   25.8683   26.3222   18.8704   25.8888   28.3017    17.313   14.2993    25.593
  weight sum            58        15      4414       140        34      1815       182        82       971       177        72        78       503        66       184       223       940       436        55       133       612       308       285       234        99        64         5
  precision         0.0321    0.0321    0.0321    0.0321    0.0321    0.0321    0.0321    0.0321    0.0321    0.0321    0.0321    0.0321    0.0321    0.0321    0.0321    0.0321    0.0321    0.0321    0.0321    0.0321    0.0321    0.0321    0.0321    0.0321    0.0321    0.0321    0.0321

1ZCross
  mean              1.6158    4.8513    0.3175    2.8194    4.4751    6.2837    0.9935    3.9262    4.1877    3.8434    5.1606    2.7423    3.4173    4.7778     3.847    4.1433    3.5388    4.3445    1.5837    2.3212     3.151    4.2277    3.6946    0.9612    4.6887    2.3946    0.2205
  std. dev.         2.1977    2.3406    1.4497    2.4022      1.69    5.1538     2.277    1.7653      3.51    2.1455    2.6996    3.1471    4.3415    3.7529    2.8966     2.118       3.7    2.9068    2.9567    3.5056    4.3212    3.0172    3.7659    1.6407    2.9038    1.9642     0.441
  weight sum            58        15      4414       140        34      1815       182        82       971       177        72        78       503        66       184       223       940       436        55       133       612       308       285       234        99        64         5
  precision         1.1026    1.1026    1.1026    1.1026    1.1026    1.1026    1.1026    1.1026    1.1026    1.1026    1.1026    1.1026    1.1026    1.1026    1.1026    1.1026    1.1026    1.1026    1.1026    1.1026    1.1026    1.1026    1.1026    1.1026    1.1026    1.1026    1.1026

1F1(Hz)
  mean            399.4892   413.849   63.3036  491.8462  475.1188  577.3409  241.4594  449.1819  399.5254  505.7122  545.2964  524.5668  321.9794  556.2029  450.7357  509.2618  400.7883  555.4016  255.3306  444.9016  414.4655  545.2313  423.1014   302.743  497.4628  406.8939  283.0538
  std. dev.       258.4013  225.6651  185.2909  213.9524   88.4748  342.0041  271.5235  146.9806  222.3308  151.6225  148.6698   237.203  226.2374  187.3575  195.5458  182.6686  262.7274  157.9845  257.9627  275.0645  293.1337  205.9972  367.4317  269.9132  194.3009  171.3828  346.8243
  weight sum            58        15      4414       140        34      1815       182        82       971       177        72        78       503        66       184       223       940       436        55       133       612       308       285       234        99        64         5
  precision          0.438     0.438     0.438     0.438     0.438     0.438     0.438     0.438     0.438     0.438     0.438     0.438     0.438     0.438     0.438     0.438     0.438     0.438     0.438     0.438     0.438     0.438     0.438     0.438     0.438     0.438     0.438

1F2(Hz)
  mean           1383.9872 1475.1217  187.2709 1458.0026 1887.6754 1289.3082  763.9089 1633.9974 1442.8428 1476.8173  1764.249 1459.1369 1417.0158 1868.8266 1583.5841 1567.7059 1071.2623 1654.0544 1050.4608 1335.5186 1257.5404 1446.6074  901.2556 1036.9139 1509.6682 1360.6618  471.2087
  std. dev.       805.0004  752.6635  542.7833  613.5925  378.3641  638.1625  876.5644  450.1964  776.7388  379.8977  397.0413  636.3869  915.8706  446.9105  625.7839  491.4149   690.734  407.6283 1005.2091  760.9804  835.8782  492.0404  645.6145  865.5453  594.2587  510.8777  577.1209
  weight sum            58        15      4414       140        34      1815       182        82       971       177        72        78       503        66       184       223       940       436        55       133       612       308       285       234        99        64         5
  precision         0.5776    0.5776    0.5776    0.5776    0.5776    0.5776    0.5776    0.5776    0.5776    0.5776    0.5776    0.5776    0.5776    0.5776    0.5776    0.5776    0.5776    0.5776    0.5776    0.5776    0.5776    0.5776    0.5776    0.5776    0.5776    0.5776    0.5776

1F3(Hz)
  mean           2204.6591 2239.3316  321.9054 2424.1722 2584.1497 2372.8802 1318.7912 2719.3765 2225.9848 2789.7583 3100.5126 2429.3671  2074.489 2627.2444 2674.9287 2647.4347  2178.095 2847.3945 1609.8915 2231.1983 2116.1496 2604.5956 2131.2599 1801.0518 2575.9867 2561.4117 1496.7007
  std. dev.      1273.7139 1152.7698  911.1638  898.3227  111.1629 1139.5888 1466.5423  600.5193 1160.7791  576.4179  597.8366 1040.3096 1324.8705  682.8919  877.7781  777.5473 1261.4257  529.7273 1482.7643 1258.3411 1368.8471  871.7629 1290.0635 1451.1742  929.8037  970.7577 1833.1843
  weight sum            58        15      4414       140        34      1815       182        82       971       177        72        78       503        66       184       223       940       436        55       133       612       308       285       234        99        64         5
  precision         0.8494    0.8494    0.8494    0.8494    0.8494    0.8494    0.8494    0.8494    0.8494    0.8494    0.8494    0.8494    0.8494    0.8494    0.8494    0.8494    0.8494    0.8494    0.8494    0.8494    0.8494    0.8494    0.8494    0.8494    0.8494    0.8494    0.8494

1F4(Hz)
  mean           2573.1143 2725.4285   385.557 3023.6681 3539.8103 2733.2146 1503.8954 3244.4022   2718.69 3264.9033  3044.853 2841.9442 2501.7838 3281.3036 3109.4219  3083.229 2525.1794 3259.3382 1836.5908 2570.0207 2393.7329 3035.4063 2447.5687 1992.2226 3015.2349 2915.1928 1195.6037
  std. dev.      1474.7743 1413.6744 1088.8664 1103.6528  115.4865 1304.0185 1672.5989  678.9236 1397.2836  638.4598  600.7891 1194.3247 1568.3926  782.3975  988.5149  872.4064 1454.2085  572.8297 1716.6409 1423.4145  1542.379  934.0736 1436.0304 1617.0372 1066.3166 1071.6554 1464.3096
  weight sum            58        15      4414       140        34      1815       182        82       971       177        72        78       503        66       184       223       940       436        55       133       612       308       285       234        99        64         5
  precision         0.8707    0.8707    0.8707    0.8707    0.8707    0.8707    0.8707    0.8707    0.8707    0.8707    0.8707    0.8707    0.8707    0.8707    0.8707    0.8707    0.8707    0.8707    0.8707    0.8707    0.8707    0.8707    0.8707    0.8707    0.8707    0.8707    0.8707

2Int(dB)
  mean             -20.931   -8.8459  -49.3181  -13.4728   -8.3285   -5.6898  -29.4169   -5.2394   -8.2853   -6.8144   -6.4627  -15.6195  -11.4664  -11.5371   -7.4796   -7.1492  -10.3306    -7.054  -28.7875  -21.5229  -17.7598   -8.9967        -9  -25.8061    -8.851  -14.4343  -26.0954
  std. dev.        11.0082    7.7103   15.6483    10.508    6.1613   11.7184   12.3459    4.3417   10.4618     5.834    7.0305    9.0524    9.6852    8.2536    7.8194    6.2651   12.5524    6.6776   15.8398   13.0709    9.9672    9.9787   11.0737   11.5252   11.2591    7.3633    2.8789
  weight sum            58        15      4414       140        34      1815       182        82       971       177        72        78       503        66       184       223       940       436        55       133       612       308       285       234        99        64         5
  precision         0.1005    0.1005    0.1005    0.1005    0.1005    0.1005    0.1005    0.1005    0.1005    0.1005    0.1005    0.1005    0.1005    0.1005    0.1005    0.1005    0.1005    0.1005    0.1005    0.1005    0.1005    0.1005    0.1005    0.1005    0.1005    0.1005    0.1005

2Pitch(Hz)
  mean             98.0186  224.8485   15.1305  131.1706  148.7054  212.0609    46.632  218.0058   171.376  201.9838  220.1143  149.3574  155.6275  191.9314  191.8374  175.4605  170.5933  201.1477  102.0687  128.6816  109.2869  165.7562  208.3385   100.038  171.6804  128.7363   33.4567
  std. dev.       111.2139  125.7463   53.6708   83.7537   37.9877  114.4723    82.747   76.0908   96.7489   79.4376   81.6494  123.1077   89.3289  117.5726   85.5712   70.8503  111.0794   82.5723  119.2608   126.259  111.5044   86.0543  113.7908  124.0952   91.0079   65.6215   66.9134
  weight sum            58        15      4414       140        34      1815       182        82       971       177        72        78       503        66       184       223       940       436        55       133       612       308       285       234        99        64         5
  precision         0.1828    0.1828    0.1828    0.1828    0.1828    0.1828    0.1828    0.1828    0.1828    0.1828    0.1828    0.1828    0.1828    0.1828    0.1828    0.1828    0.1828    0.1828    0.1828    0.1828    0.1828    0.1828    0.1828    0.1828    0.1828    0.1828    0.1828

2RawPitch
  mean             89.1162  219.1372   12.3549  116.9715  136.4089  203.0175   39.7543  215.2891  166.4294  195.5579  206.8753  109.8716  144.7636  152.8229  183.6317  167.7113  160.9027  190.7728   89.9735  114.0625   91.4574   154.795  197.8707   71.4444  161.7123   103.338         0
  std. dev.       111.0886  119.2548   47.9455   92.2229   54.1745   117.064    82.474   77.4482   99.7164   88.5514   96.8329  111.2465    91.976  117.5713   91.8981   74.6575  115.9139   92.8924  117.7918  129.1964  109.4515   94.7898  115.5032  113.8458   97.8125   75.4422    0.0317
  weight sum            58        15      4414       140        34      1815       182        82       971       177        72        78       503        66       184       223       940       436        55       133       612       308       285       234        99        64         5
  precision           0.19      0.19      0.19      0.19      0.19      0.19      0.19      0.19      0.19      0.19      0.19      0.19      0.19      0.19      0.19      0.19      0.19      0.19      0.19      0.19      0.19      0.19      0.19      0.19      0.19      0.19      0.19

2SmPitch
  mean             98.1449  224.8343   13.4474  126.8822  148.6575   210.373   43.9154  217.9998  169.6121  201.1367  214.9932  128.5627  152.7216  165.6552  190.2692  175.4816  167.6951   198.824   98.4174  125.5267  104.0152  158.0908  204.0613   84.7723  168.5197  126.0091         0
  std. dev.       111.3049  125.7556   49.2552   84.9845    38.094  115.4933   81.7372   76.1041     98.43   81.1257   89.1684  115.9955   90.5569  128.6668   87.6647   70.8213  112.6857   85.7147  119.3496  127.5984  111.0455   92.3982  114.8803  119.2084   93.9135   67.1806    0.0307
  weight sum            58        15      4414       140        34      1815       182        82       971       177        72        78       503        66       184       223       940       436        55       133       612       308       285       234        99        64         5
  precision         0.1841    0.1841    0.1841    0.1841    0.1841    0.1841    0.1841    0.1841    0.1841    0.1841    0.1841    0.1841    0.1841    0.1841    0.1841    0.1841    0.1841    0.1841    0.1841    0.1841    0.1841    0.1841    0.1841    0.1841    0.1841    0.1841    0.1841

2Melogram(st)
  mean             26.9902   52.9129    4.5613   39.5031   49.5698   49.8584   14.7335   55.6092    46.364   53.2637   53.1112   39.0777   43.7828   35.9004   50.8423   51.7248   44.5801   52.3886   24.7475   34.1341   29.7208   44.7417   46.8237   25.9331   48.5276   44.2774   20.8558
  std. dev.        28.1265   16.2293   15.1263   21.4577    4.5465   19.3586   23.8396    6.3394   19.9773   10.4759   14.3107   25.3122   21.0046   27.7809   14.3368    9.3098   22.3034   13.1771   28.3465    27.691   27.3833   20.5457     23.28   28.4013   15.8092   15.2369    25.543
  weight sum            58        15      4414       140        34      1815       182        82       971       177        72        78       503        66       184       223       940       436        55       133       612       308       285       234        99        64         5
  precision         0.0321    0.0321    0.0321    0.0321    0.0321    0.0321    0.0321    0.0321    0.0321    0.0321    0.0321    0.0321    0.0321    0.0321    0.0321    0.0321    0.0321    0.0321    0.0321    0.0321    0.0321    0.0321    0.0321    0.0321    0.0321    0.0321    0.0321

2ZCross
  mean              2.9085    4.0427    0.2321    2.1894    3.8914    6.6433    0.6664    3.7514    4.5363    3.8995    4.9922    1.7528    3.4129    4.2432    3.4515    3.8417    3.8308    3.7376    1.0825    1.6994    3.3509    4.0201    3.6211    0.5796    4.0761    2.0156         0
  std. dev.          6.346     2.301    1.1943    2.1573    1.9874    4.8274    1.9776    1.6593    3.4214      2.03    2.7806    2.4171    3.6124    3.7525    2.4853    2.0537    3.7224    2.6092    2.5009    3.2967    5.4156    2.8085    3.3263    1.3219    2.5629    1.9053    0.1838
  weight sum            58        15      4414       140        34      1815       182        82       971       177        72        78       503        66       184       223       940       436        55       133       612       308       285       234        99        64         5
  precision         1.1026    1.1026    1.1026    1.1026    1.1026    1.1026    1.1026    1.1026    1.1026    1.1026    1.1026    1.1026    1.1026    1.1026    1.1026    1.1026    1.1026    1.1026    1.1026    1.1026    1.1026    1.1026    1.1026    1.1026    1.1026    1.1026    1.1026

2F1(Hz)
  mean            327.3203  478.2392   54.1185  496.3047  462.2228  617.3497  167.7191  464.9509  421.4711  511.8322  535.7328  484.0885  328.6039  553.0504   456.761  505.4943  427.7699  538.4632  220.1689  385.8369  362.0145  534.1085  447.6356  230.0022   502.259  387.1006  144.8121
  std. dev.       289.1422   215.594  172.0789  227.4856   86.3804  320.5416  252.0275  131.9403  199.8827  138.1345  169.7117  286.8356  197.0056  232.2442  173.5156  165.0792  253.7566  150.2489  244.6569  301.0347  306.8918  217.3447  351.3336  253.1962  183.4621  170.7393  289.6242
  weight sum            58        15      4414       140        34      1815       182        82       971       177        72        78       503        66       184       223       940       436        55       133       612       308       285       234        99        64         5
  precision          0.438     0.438     0.438     0.438     0.438     0.438     0.438     0.438     0.438     0.438     0.438     0.438     0.438     0.438     0.438     0.438     0.438     0.438     0.438     0.438     0.438     0.438     0.438     0.438     0.438     0.438     0.438

2F2(Hz)
  mean           1087.4776 1527.4141  161.1779 1452.2596 1927.2412 1342.3076  534.6639 1645.9368 1557.4028 1503.7689 1756.7643 1296.7119 1600.4272 1767.9386 1643.7176 1627.8492 1095.9014 1666.4781  965.7947 1156.7656 1105.8328  1432.021  941.4183  812.9247 1519.7092 1377.3762  234.5069
  std. dev.       895.4324  615.2236   507.166  643.2182  373.6851  574.6123  814.1792  371.7607  715.8668  295.4608   461.855  746.2165  875.8818  592.6437  524.0283  430.8167   642.731  388.1397  1019.663  845.1433  893.7421  532.8237  583.0066  855.1156  534.6375   545.292  469.0138
  weight sum            58        15      4414       140        34      1815       182        82       971       177        72        78       503        66       184       223       940       436        55       133       612       308       285       234        99        64         5
  precision         0.5776    0.5776    0.5776    0.5776    0.5776    0.5776    0.5776    0.5776    0.5776    0.5776    0.5776    0.5776    0.5776    0.5776    0.5776    0.5776    0.5776    0.5776    0.5776    0.5776    0.5776    0.5776    0.5776    0.5776    0.5776    0.5776    0.5776

2F3(Hz)
  mean            1757.213 2440.4206  277.7773  2398.307  2567.136 2483.7595  925.2704 2784.6067 2361.5599  2865.449 3050.0303 2189.0974 2260.1467 2509.9969 2774.4647 2722.2457   2286.61 2858.7624 1433.6265  1934.082 1855.7763 2538.4529 2306.2699 1454.7554 2607.7847 2519.5639  754.6362
  std. dev.      1444.1575 1010.6417  854.4008  946.2744  117.1264 1035.4395 1373.3079  441.7091  1058.658  384.2718  710.6341 1246.0471 1230.4607  871.5556  672.5073  672.4013 1195.8853  490.2735 1469.4117 1403.8752 1467.6845  936.9488 1189.9252 1489.8675  856.5234 1015.2903 1509.2723
  weight sum            58        15      4414       140        34      1815       182        82       971       177        72        78       503        66       184       223       940       436        55       133       612       308       285       234        99        64         5
  precision         0.8494    0.8494    0.8494    0.8494    0.8494    0.8494    0.8494    0.8494    0.8494    0.8494    0.8494    0.8494    0.8494    0.8494    0.8494    0.8494    0.8494    0.8494    0.8494    0.8494    0.8494    0.8494    0.8494    0.8494    0.8494    0.8494    0.8494

2F4(Hz)
  mean           2051.3279  2897.763  332.7116  2965.072  3561.449 2866.6497  1039.661 3316.5509 2879.2008 3346.8397 3007.0152 2533.5597 2723.7025 3123.2243 3259.6314 3153.7298 2646.7638 3269.2071 1673.0315 2225.0718 2094.9239 2959.8248 2634.9155 1587.3165 3080.2185 2868.3807   597.976
  std. dev.      1678.9208 1209.6859 1021.3417 1152.9955  107.7798 1186.2899 1545.1663  450.2869 1266.1181  398.6879  708.4745 1419.5803 1450.2143 1039.6454  740.3033   735.434 1374.1393  535.9448 1736.8236 1591.6246 1651.5976 1016.7725 1307.4223 1635.8187  973.9979 1129.4211  1195.952
  weight sum            58        15      4414       140        34      1815       182        82       971       177        72        78       503        66       184       223       940       436        55       133       612       308       285       234        99        64         5
  precision         0.8707    0.8707    0.8707    0.8707    0.8707    0.8707    0.8707    0.8707    0.8707    0.8707    0.8707    0.8707    0.8707    0.8707    0.8707    0.8707    0.8707    0.8707    0.8707    0.8707    0.8707    0.8707    0.8707    0.8707    0.8707    0.8707    0.8707

3Int(dB)
  mean            -21.2846   -8.6381  -50.0164  -16.7971   -10.404   -4.1575  -28.2521    -5.883   -6.5035   -7.4766   -6.8885  -19.1545  -10.0663  -14.0943    -7.526   -7.7649   -8.9829   -8.1081  -27.0695  -23.9407  -19.6552  -10.2911   -7.1056  -27.8939   -9.0226  -15.5039  -26.9599
  std. dev.         9.6713     4.614   14.6151   11.2168     5.961     9.907   10.1778    4.3896    9.1484    6.0362    6.9817    7.3574    8.7445    6.9192    6.5909    5.8292   12.0392     7.029   13.7075   11.4771    8.3008    9.7589    9.4113    9.7107    9.0203    5.8791    1.5758
  weight sum            58        15      4414       140        34      1815       182        82       971       177        72        78       503        66       184       223       940       436        55       133       612       308       285       234        99        64         5
  precision         0.1005    0.1005    0.1005    0.1005    0.1005    0.1005    0.1005    0.1005    0.1005    0.1005    0.1005    0.1005    0.1005    0.1005    0.1005    0.1005    0.1005    0.1005    0.1005    0.1005    0.1005    0.1005    0.1005    0.1005    0.1005    0.1005    0.1005

3Pitch(Hz)
  mean             71.3926  249.9806   12.1328  111.6333  146.3717  220.5508   42.7375  215.3616  183.4717  200.0956   217.664  120.4689  170.1872  181.3775  192.6144  175.2293  178.6603   197.456   93.7352  108.2177   84.9448   165.327   222.874   78.7782  175.7986  126.5281         0
  std. dev.       106.2352  119.8025   48.3614    86.708   35.6368  106.6533      85.7   75.0849   90.6248   81.8085   86.9212  126.4136    80.118  124.6141   85.1118   65.6602  105.9497   85.1645  117.1352  125.1257  107.9113   88.6022   96.7144  115.0122   81.6023   65.3095    0.0305
  weight sum            58        15      4414       140        34      1815       182        82       971       177        72        78       503        66       184       223       940       436        55       133       612       308       285       234        99        64         5
  precision         0.1828    0.1828    0.1828    0.1828    0.1828    0.1828    0.1828    0.1828    0.1828    0.1828    0.1828    0.1828    0.1828    0.1828    0.1828    0.1828    0.1828    0.1828    0.1828    0.1828    0.1828    0.1828    0.1828    0.1828    0.1828    0.1828    0.1828

3RawPitch
  mean             66.1337  244.2921    9.8391   95.7385  134.9784   211.289   30.5856  212.3257  179.2232  194.4351  207.3634   81.4434  160.6735  132.5369  182.9595  162.8328  170.2865  185.7362   69.0398   85.1137   64.8225  157.2248  214.8787   54.1389  162.7313   95.7888         0
  std. dev.       105.3047  114.2638   42.7299   91.8264   60.1769  110.3223   72.4463   76.3731   94.3626   90.2297   98.5622  104.6868   84.5436  112.8858   92.9779   73.8176  111.2599   97.0818  110.0885  120.5797   99.8872   95.9405  100.3251  103.3996   90.1133   75.9176    0.0317
  weight sum            58        15      4414       140        34      1815       182        82       971       177        72        78       503        66       184       223       940       436        55       133       612       308       285       234        99        64         5
  precision           0.19      0.19      0.19      0.19      0.19      0.19      0.19      0.19      0.19      0.19      0.19      0.19      0.19      0.19      0.19      0.19      0.19      0.19      0.19      0.19      0.19      0.19      0.19      0.19      0.19      0.19      0.19

3SmPitch
  mean             71.3187  249.9809   10.5874  105.2478   147.071  219.0794   33.7207  215.3574  181.7709  199.4185  212.5412   99.6654  167.6412  145.8489  191.1016   175.333  176.3381  195.1206   84.9856  103.0125   78.3357   158.141  222.2202   64.9835  173.2187  121.0157         0
  std. dev.       106.1016  119.8082   43.6726    85.967   34.7216  107.8621   75.6237   75.0845   92.0323   83.1714   93.8745  114.3519   82.3894   135.267    87.183   65.6042  107.6496    88.115  114.6189  126.4985  105.4657   94.4218    96.345  107.4413   84.0147   68.1208    0.0307
  weight sum            58        15      4414       140        34      1815       182        82       971       177        72        78       503        66       184       223       940       436        55       133       612       308       285       234        99        64         5
  precision         0.1841    0.1841    0.1841    0.1841    0.1841    0.1841    0.1841    0.1841    0.1841    0.1841    0.1841    0.1841    0.1841    0.1841    0.1841    0.1841    0.1841    0.1841    0.1841    0.1841    0.1841    0.1841    0.1841    0.1841    0.1841    0.1841    0.1841

3Melogram(st)
  mean             19.6077   57.1388    3.8408   34.1376   49.3225    52.205   12.7958   55.3031    49.433   53.0523   52.3404   32.1031   47.5936   27.4894   51.3832   51.8774    46.689   51.6353   21.7538   27.1281   23.2087   44.2946   51.8876   20.1019   49.9865   43.9625   10.4247
  std. dev.        27.1247    8.7514   14.0017   23.7583    4.4117   16.2015   23.2099    6.3821   16.6562   10.6126    15.624   27.3951    17.453   28.8032   13.3772    7.8647   20.4728   14.2841    27.897   28.6853   27.1687   21.1968   18.0236   27.1952    13.166   15.1598   20.8493
  weight sum            58        15      4414       140        34      1815       182        82       971       177        72        78       503        66       184       223       940       436        55       133       612       308       285       234        99        64         5
  precision         0.0321    0.0321    0.0321    0.0321    0.0321    0.0321    0.0321    0.0321    0.0321    0.0321    0.0321    0.0321    0.0321    0.0321    0.0321    0.0321    0.0321    0.0321    0.0321    0.0321    0.0321    0.0321    0.0321    0.0321    0.0321    0.0321    0.0321

3ZCross
  mean               5.779    3.8957    0.1446    1.5278    3.3077    6.9738    0.8481    3.6707      4.81    3.8123    4.6706    0.9753    3.4699    3.8924     3.044    3.4956    4.0255    3.0573    1.9245    1.0611    3.4951    3.5941    3.6946    0.3298    3.5082    1.6538         0
  std. dev.          9.928    2.2727     0.806    1.8477    2.1393    4.4735    2.3971    1.6788    3.2495    2.0932    2.6149     1.656    3.3736    3.6478    1.8914    2.0267    3.4165    2.0939     3.649     2.729    6.0768    2.6275    3.0049    0.9858    2.1565     1.765    0.1838
  weight sum            58        15      4414       140        34      1815       182        82       971       177        72        78       503        66       184       223       940       436        55       133       612       308       285       234        99        64         5
  precision         1.1026    1.1026    1.1026    1.1026    1.1026    1.1026    1.1026    1.1026    1.1026    1.1026    1.1026    1.1026    1.1026    1.1026    1.1026    1.1026    1.1026    1.1026    1.1026    1.1026    1.1026    1.1026    1.1026    1.1026    1.1026    1.1026    1.1026

3F1(Hz)
  mean            250.0914  540.4684   44.5249  460.2331  449.0433   664.627  122.9102  468.9733  448.7867  510.9363  525.8346  402.7725  347.8788  535.7815  445.8913  489.8805  460.8448  507.8223  198.2356  317.8602  292.5534  516.0583  479.4518  165.6477  496.6532  369.6068         0
  std. dev.       303.4198    187.58  156.6041  263.9602   82.5521   286.434  230.0997  132.5848  167.2097  140.7084  172.0577  328.0792  165.9413  288.1008  162.9588  148.5956  237.0895  152.5682  239.9157  313.0359  309.3148  221.7622  324.8579  231.0072  173.7959  172.1146     0.073
  weight sum            58        15      4414       140        34      1815       182        82       971       177        72        78       503        66       184       223       940       436        55       133       612       308       285       234        99        64         5
  precision          0.438     0.438     0.438     0.438     0.438     0.438     0.438     0.438     0.438     0.438     0.438     0.438     0.438     0.438     0.438     0.438     0.438     0.438     0.438     0.438     0.438     0.438     0.438     0.438     0.438     0.438     0.438

3F2(Hz)
  mean            761.0023  1585.983   133.697 1335.8024 1948.8844 1411.2646  378.9585 1602.3278 1697.5367 1494.7328 1769.2148 1054.9849  1816.924 1593.7474 1666.0683  1664.865 1136.7816 1648.9076  849.9694  949.1628  904.2162 1418.5974 1012.0156  579.1114 1528.5249  1393.522         0
  std. dev.       879.5048  442.8865  464.5044  748.1748  361.5875   483.234  720.3432  358.5885  606.8332  278.4461  473.0726  836.6685  769.2522  746.5195  462.8215  379.5826   583.467  412.2239  999.7849  886.8005  920.1743  561.2007  498.3854  782.5506  469.4822  581.5237    0.0963
  weight sum            58        15      4414       140        34      1815       182        82       971       177        72        78       503        66       184       223       940       436        55       133       612       308       285       234        99        64         5
  precision         0.5776    0.5776    0.5776    0.5776    0.5776    0.5776    0.5776    0.5776    0.5776    0.5776    0.5776    0.5776    0.5776    0.5776    0.5776    0.5776    0.5776    0.5776    0.5776    0.5776    0.5776    0.5776    0.5776    0.5776    0.5776    0.5776    0.5776

3F3(Hz)
  mean           1260.1922 2658.6116  231.2684 2191.5429 2548.0488 2621.2562   670.982 2770.4978 2529.5236 2872.1485 3038.7871 1797.7158 2497.6197 2304.2154 2790.6686 2770.6291 2424.0221 2826.3944 1259.9252 1590.9878 1514.9732 2478.8106 2541.1097 1068.4595 2637.8065 2473.9069         0
  std. dev.      1460.1355  800.8591  786.5978 1135.9121  117.8871  877.3993 1240.7279  453.3517  892.9521  378.7918  719.1425 1418.9442 1063.4499 1084.9562  575.6843  599.2229 1093.5808  555.5731 1437.0492 1478.8939 1515.6148    980.19  990.0091  1419.254  780.9441 1054.5855    0.1416
  weight sum            58        15      4414       140        34      1815       182        82       971       177        72        78       503        66       184       223       940       436        55       133       612       308       285       234        99        64         5
  precision         0.8494    0.8494    0.8494    0.8494    0.8494    0.8494    0.8494    0.8494    0.8494    0.8494    0.8494    0.8494    0.8494    0.8494    0.8494    0.8494    0.8494    0.8494    0.8494    0.8494    0.8494    0.8494    0.8494    0.8494    0.8494    0.8494    0.8494

3F4(Hz)
  mean           1467.9942 3065.5121  277.6356 2698.0749  3580.194 3025.4565  746.1066 3307.3771 3071.5364 3364.2827 3022.0342 2062.7171 2991.7043 2867.7883 3310.3857 3203.4712 2797.3211 3237.3338 1513.3032 1829.9252 1705.4187 2894.6122 2890.5441 1173.5735 3146.9171 2822.3712         0
  std. dev.      1698.0425   924.213   942.661 1383.3367  101.1704 1002.2633 1383.9909  447.6939 1053.8859  394.5159  721.0039 1610.6178 1236.9689 1324.4549  617.8865  633.5254  1248.566  626.2945 1744.0692 1678.9036 1702.1861 1075.7808 1057.0684 1565.9515  866.9696 1184.4807    0.1451
  weight sum            58        15      4414       140        34      1815       182        82       971       177        72        78       503        66       184       223       940       436        55       133       612       308       285       234        99        64         5
  precision         0.8707    0.8707    0.8707    0.8707    0.8707    0.8707    0.8707    0.8707    0.8707    0.8707    0.8707    0.8707    0.8707    0.8707    0.8707    0.8707    0.8707    0.8707    0.8707    0.8707    0.8707    0.8707    0.8707    0.8707    0.8707    0.8707    0.8707

4Int(dB)
  mean            -19.9241  -10.0857  -50.5629  -20.3441  -10.8859   -3.3275  -24.5797   -5.9761   -5.5049   -7.8361   -7.3814  -21.3582   -9.1576  -15.5747   -7.6522   -8.2874   -8.3852   -9.3446  -22.7599  -23.1366  -21.4103  -11.9138   -5.5692  -25.6274    -8.786   -15.851  -27.6233
  std. dev.         8.7568    4.0742   13.7532   11.4098    5.8423    8.5772    9.2384    4.2448    8.2833    6.2597    7.5828    5.6522    8.3719    5.9541    5.8929    5.7665   12.0282    7.7338   10.9898   10.2483    6.9681    9.7822    7.6498    9.3441    6.8928    4.6955    2.2988
  weight sum            58        15      4414       140        34      1815       182        82       971       177        72        78       503        66       184       223       940       436        55       133       612       308       285       234        99        64         5
  precision         0.1005    0.1005    0.1005    0.1005    0.1005    0.1005    0.1005    0.1005    0.1005    0.1005    0.1005    0.1005    0.1005    0.1005    0.1005    0.1005    0.1005    0.1005    0.1005    0.1005    0.1005    0.1005    0.1005    0.1005    0.1005    0.1005    0.1005

4Pitch(Hz)
  mean             67.5252  249.5961    9.3634   91.9198   147.253  225.0079   74.1457  214.4821  189.9846  199.2072  215.8451   100.462  175.8084  168.6894  194.1565  174.3313  180.3637  191.6244  104.9485  106.3819   66.8505  163.2202  231.3108    98.347  181.4565   125.859         0
  std. dev.       107.9579  123.2075    43.043   86.3251   36.7152  102.2119  107.8152   73.5402   87.3032   83.2243   91.5699  123.2721   73.8088  126.5758   84.7792   63.5247  102.9621   88.4507  122.3126   119.806  101.3207   92.1643   84.4017  118.7236   72.0404   65.1401    0.0305
  weight sum            58        15      4414       140        34      1815       182        82       971       177        72        78       503        66       184       223       940       436        55       133       612       308       285       234        99        64         5
  precision         0.1828    0.1828    0.1828    0.1828    0.1828    0.1828    0.1828    0.1828    0.1828    0.1828    0.1828    0.1828    0.1828    0.1828    0.1828    0.1828    0.1828    0.1828    0.1828    0.1828    0.1828    0.1828    0.1828    0.1828    0.1828    0.1828    0.1828

4RawPitch
  mean             59.4185  235.9578    7.3722   76.0431  138.1132   215.767   49.4982  212.1658  186.8578  194.0122  203.5794   58.8099  168.3408  119.1223  184.1232  160.0017  174.1912  179.8195   69.1779   80.1211     44.71  158.4672  222.5963   70.8257  167.9801   93.1794         0
  std. dev.       100.6472  129.4433   36.8853   88.9827   61.4338  106.4781    88.076   75.2327   91.2535   91.7751  105.2011   91.4137   79.5481  106.2356   94.6293   73.5007  108.1025   99.7657  114.2125  113.7475   86.6102   95.6003   90.9444  110.5563   80.4602   74.3693    0.0317
  weight sum            58        15      4414       140        34      1815       182        82       971       177        72        78       503        66       184       223       940       436        55       133       612       308       285       234        99        64         5
  precision           0.19      0.19      0.19      0.19      0.19      0.19      0.19      0.19      0.19      0.19      0.19      0.19      0.19      0.19      0.19      0.19      0.19      0.19      0.19      0.19      0.19      0.19      0.19      0.19      0.19      0.19      0.19

4SmPitch
  mean             67.1323  249.6004    8.0681   84.9611   149.096  223.5892    64.147  214.4752  188.6266  198.3639  210.7412   79.4888  174.1996  134.3991  192.1171  174.4332  178.2642  189.2256   85.2601    96.716   58.5455  158.2103  230.9021   82.7693  179.1244  120.3713         0
  std. dev.        107.248  123.1903   38.1541   84.4039   34.3343   103.339  103.6883   73.5515   88.6539   84.9657   98.1062  106.9451   75.9109  135.4847   87.7433   63.4898  104.6347   91.0463  115.0944  121.6385   96.1366    95.792   84.0603  114.5351   74.6904   67.9226    0.0307
  weight sum            58        15      4414       140        34      1815       182        82       971       177        72        78       503        66       184       223       940       436        55       133       612       308       285       234        99        64         5
  precision         0.1841    0.1841    0.1841    0.1841    0.1841    0.1841    0.1841    0.1841    0.1841    0.1841    0.1841    0.1841    0.1841    0.1841    0.1841    0.1841    0.1841    0.1841    0.1841    0.1841    0.1841    0.1841    0.1841    0.1841    0.1841    0.1841    0.1841

4Melogram(st)
  mean             20.0597   56.8963     3.078   28.5854   49.4194   53.5948   19.6867   55.2672   50.9897   52.6514   51.6383   27.1563    49.433   24.4046   51.4935   51.2416   47.3663   50.3765    22.656   27.4207    18.661   43.4271   54.7393   23.2145   51.6257   43.8803         0
  std. dev.        27.7197    9.0716   12.6754   24.8974    4.4238   13.6867   26.9586    6.3062   14.4101   11.4213   16.8042    27.662   14.7392   28.7738   13.4066    9.1948   19.6193   15.9841   27.9723   28.5387   26.1777   22.0374   13.2895   28.1608    9.6493   15.1305    0.0053
  weight sum            58        15      4414       140        34      1815       182        82       971       177        72        78       503        66       184       223       940       436        55       133       612       308       285       234        99        64         5
  precision         0.0321    0.0321    0.0321    0.0321    0.0321    0.0321    0.0321    0.0321    0.0321    0.0321    0.0321    0.0321    0.0321    0.0321    0.0321    0.0321    0.0321    0.0321    0.0321    0.0321    0.0321    0.0321    0.0321    0.0321    0.0321    0.0321    0.0321

4ZCross
  mean              7.6799    3.3812    0.1007    1.0002    3.1131    7.1475    1.4721    3.9262    4.8701    3.8434    4.4562     0.622    3.5072     3.742    2.7804     3.194    4.0889    2.4732    3.7888    0.8622    3.4933    3.0822    3.8532    0.6502    3.2966    1.4471         0
  std. dev.         11.511     2.294    0.6803    1.5306    2.1802    4.3444    2.9722     1.688    2.9907    2.0838    2.5024    1.3629    3.0758    3.6662     1.503     1.776     2.998     1.643    5.4453    2.2557    6.3896    2.3474    2.8492    1.3341    1.8509    1.5455    0.1838
  weight sum            58        15      4414       140        34      1815       182        82       971       177        72        78       503        66       184       223       940       436        55       133       612       308       285       234        99        64         5
  precision         1.1026    1.1026    1.1026    1.1026    1.1026    1.1026    1.1026    1.1026    1.1026    1.1026    1.1026    1.1026    1.1026    1.1026    1.1026    1.1026    1.1026    1.1026    1.1026    1.1026    1.1026    1.1026    1.1026    1.1026    1.1026    1.1026    1.1026

4F1(Hz)
  mean            188.4276  599.5146   34.5051  406.6466  444.7532  705.7283  127.8946  472.8354  469.1052  515.2919  510.8869    331.11  370.0223  514.7495  436.5593  473.5006  487.7924  471.9452  219.1654  280.4994  221.2493   492.786  504.5577  163.3452  490.2597  361.4964         0
  std. dev.        283.058  131.9453  138.1768  293.7037   83.2706  248.1314   233.038  132.4207  136.7924  145.0907  175.1628  340.3969  133.9826  318.7919  153.6367  132.2957   218.941  155.0509  254.0063  304.7934  294.8042  227.0181   299.786  234.0141  163.6854  167.8174     0.073
  weight sum            58        15      4414       140        34      1815       182        82       971       177        72        78       503        66       184       223       940       436        55       133       612       308       285       234        99        64         5
  precision          0.438     0.438     0.438     0.438     0.438     0.438     0.438     0.438     0.438     0.438     0.438     0.438     0.438     0.438     0.438     0.438     0.438     0.438     0.438     0.438     0.438     0.438     0.438     0.438     0.438     0.438     0.438

4F2(Hz)
  mean             582.254 1655.3339  104.2406 1173.6939 1937.6721 1470.2135  378.8919 1567.9815 1803.6497 1484.1532 1734.4383  863.4872 2010.9745 1447.8501 1679.3752 1679.8878 1164.8777 1613.5559  867.8857  834.5412  697.8769 1395.3507 1075.9553  551.2507 1565.2815  1426.653         0
  std. dev.       838.4484  122.6896  413.1064  827.3545  346.9736  382.5825  705.1441   345.791  490.0179  291.7647  519.4319  859.4324  600.2718  822.8275  408.7755  329.2422   526.346  450.5673  982.4149  869.0002  897.9368  596.7515   411.661  767.3792  381.4164   592.755    0.0963
  weight sum            58        15      4414       140        34      1815       182        82       971       177        72        78       503        66       184       223       940       436        55       133       612       308       285       234        99        64         5
  precision         0.5776    0.5776    0.5776    0.5776    0.5776    0.5776    0.5776    0.5776    0.5776    0.5776    0.5776    0.5776    0.5776    0.5776    0.5776    0.5776    0.5776    0.5776    0.5776    0.5776    0.5776    0.5776    0.5776    0.5776    0.5776    0.5776    0.5776

4F3(Hz)
  mean            956.7836 2879.6341  181.1072 1917.1397 2531.3849 2737.7643  688.8201 2757.8703 2651.8402 2866.2889 2990.6054 1469.8674 2714.2403 2123.7495  2788.882 2812.7732 2529.7403 2771.4618 1304.6053 1416.4517  1162.571 2419.9212 2728.7599 1006.6215 2698.2621 2479.1893         0
  std. dev.      1378.1536  412.1341  703.4937 1283.8867   113.605  702.1935 1233.8388  461.2274  731.0473  431.5143  804.4948 1462.0673  831.8369 1192.6206  501.5001  549.4819  990.6689  651.1415 1435.0242 1462.0442 1476.1604 1040.8353   731.591 1385.4742  643.6519 1054.0813    0.1416
  weight sum            58        15      4414       140        34      1815       182        82       971       177        72        78       503        66       184       223       940       436        55       133       612       308       285       234        99        64         5
  precision         0.8494    0.8494    0.8494    0.8494    0.8494    0.8494    0.8494    0.8494    0.8494    0.8494    0.8494    0.8494    0.8494    0.8494    0.8494    0.8494    0.8494    0.8494    0.8494    0.8494    0.8494    0.8494    0.8494    0.8494    0.8494    0.8494    0.8494

4F4(Hz)
  mean           1135.0531 3224.5544     217.4 2364.2228  3591.692 3153.4622  804.2501 3299.2119 3206.8695 3354.8725 2990.2306 1683.5627 3233.1412 2674.6579 3339.9885 3238.2355 2916.3463 3186.2299  1564.736 1663.0119 1312.9842 2813.9735 3100.5588 1137.6491 3250.7027 2825.3097         0
  std. dev.      1634.2344  419.0741  842.8601 1570.8431   92.2165  795.7984 1443.5944  441.7568  845.6004  465.2171  811.3198 1660.0541  946.7373 1484.3649  523.4237  553.8865 1123.3047  750.6649 1735.2537 1691.4533 1664.3677 1153.6107  725.9921 1573.2029  666.8328 1186.6186    0.1451
  weight sum            58        15      4414       140        34      1815       182        82       971       177        72        78       503        66       184       223       940       436        55       133       612       308       285       234        99        64         5
  precision         0.8707    0.8707    0.8707    0.8707    0.8707    0.8707    0.8707    0.8707    0.8707    0.8707    0.8707    0.8707    0.8707    0.8707    0.8707    0.8707    0.8707    0.8707    0.8707    0.8707    0.8707    0.8707    0.8707    0.8707    0.8707    0.8707    0.8707





=== Stratified cross-validation ===

Correctly Classified Instances        4124               33.8449 %
Incorrectly Classified Instances      8061               66.1551 %
Kappa statistic                          0.2516
K&B Relative Info Score             238004.9566 %
K&B Information Score                 8046.9022 bits      0.6604 bits/instance
Class complexity | order 0           41115.2727 bits      3.3743 bits/instance
Class complexity | scheme           472473.7077 bits     38.775  bits/instance
Complexity improvement     (Sf)    -431358.4351 bits    -35.4008 bits/instance
Mean absolute error                      0.049 
Root mean squared error                  0.2108
Relative absolute error                 80.0485 %
Root relative squared error            120.5245 %
Coverage of cases (0.95 level)          38.7772 %
Mean rel. region size (0.95 level)       5.4758 %
Total Number of Instances            12185     


=== Detailed Accuracy By Class ===

                 TP Rate  FP Rate  Precision  Recall   F-Measure  MCC      ROC Area  PRC Area  Class
                 0,190    0,003    0,244      0,190    0,214      0,212    0,849     0,137     ch
                 0,000    0,004    0,000      0,000    0,000      -0,002   0,681     0,003     rr
                 0,717    0,023    0,946      0,717    0,816      0,747    0,950     0,928     0
                 0,121    0,023    0,058      0,121    0,079      0,069    0,769     0,038     hs
                 0,853    0,146    0,016      0,853    0,032      0,105    0,939     0,078     hg
                 0,266    0,025    0,654      0,266    0,378      0,361    0,837     0,522     a
                 0,269    0,037    0,100      0,269    0,146      0,144    0,732     0,083     c
                 0,317    0,096    0,022      0,317    0,041      0,061    0,832     0,036     b
                 0,031    0,007    0,280      0,031    0,056      0,070    0,734     0,175     e
                 0,062    0,025    0,035      0,062    0,045      0,028    0,779     0,034     d
                 0,194    0,044    0,025      0,194    0,045      0,055    0,782     0,020     g
                 0,115    0,014    0,052      0,115    0,072      0,069    0,776     0,042     f
                 0,173    0,024    0,235      0,173    0,199      0,172    0,786     0,168     i
                 0,242    0,004    0,235      0,242    0,239      0,235    0,869     0,123     j
                 0,011    0,003    0,056      0,011    0,018      0,018    0,749     0,033     m
                 0,058    0,021    0,049      0,058    0,053      0,034    0,797     0,050     l
                 0,005    0,003    0,119      0,005    0,010      0,009    0,692     0,141     o
                 0,055    0,024    0,080      0,055    0,065      0,038    0,770     0,078     n
                 0,055    0,008    0,031      0,055    0,039      0,035    0,699     0,012     q
                 0,000    0,001    0,000      0,000    0,000      -0,003   0,747     0,031     p
                 0,095    0,003    0,624      0,095    0,165      0,230    0,733     0,238     s
                 0,006    0,001    0,154      0,006    0,012      0,027    0,738     0,070     r
                 0,063    0,012    0,110      0,063    0,080      0,067    0,829     0,095     u
                 0,171    0,019    0,152      0,171    0,161      0,144    0,753     0,105     t
                 0,000    0,000    0,000      0,000    0,000      -0,001   0,707     0,015     v
                 0,141    0,022    0,033      0,141    0,054      0,058    0,841     0,042     y
                 0,600    0,090    0,003      0,600    0,005      0,036    0,816     0,003     z
Weighted Avg.    0,338    0,019    0,533      0,338    0,390      0,364    0,836     0,473     


=== Confusion Matrix ===

    a    b    c    d    e    f    g    h    i    j    k    l    m    n    o    p    q    r    s    t    u    v    w    x    y    z   aa   <-- classified as
   11    0    5    5    2    1    8    2    0    2    1    3    0    2    0    1    0    5    1    0    3    0    0    4    0    0    2 |    a = ch
    0    0    0    0    8    2    0    1    0    0    1    0    0    0    0    0    0    0    0    0    0    0    3    0    0    0    0 |    b = rr
    0    0 3165   80   78    4   40   31    1   26   13   32    5    3    1    7    3   45    3    1    2    0    2   67    1   22  782 |    c = 0
    0    0    3   17   46    3    6    7    2    3    3    8    3    1    2    3    0    5    0    0    1    1    0    9    0    9    8 |    d = hs
    0    0    0    0   29    0    0    3    0    0    0    0    0    0    0    0    0    2    0    0    0    0    0    0    0    0    0 |    e = hg
    0    8   26   15  325  483   69  223   35  136  173    4   59    2    2   42   20   31   40    1    6    2   62   11    0   20   20 |    f = a
    0    0   26   11    5    1   49    4    0    0    4   12    1    1    0    0    0    5    4    0    3    0    0   21    0    1   34 |    g = c
    0    2    0    0   29    3    0   26    0    4    6    0    2    0    3    5    0    1    0    0    0    0    0    0    0    1    0 |    h = b
    0    3   10   12  310   43   37  146   30   20  115    9   83    2    1   35    7   19   20    1    6    1   17    8    1   18   17 |    i = e
    0    4    0    0   62    7    1   43    4   11   15    0    1    0    3   12    0    1    0    0    0    0    3    3    0    7    0 |    j = d
    0    4    0    1   23    4    0   15    0    0   14    2    1    0    0    3    0    2    0    0    0    0    0    1    0    1    1 |    k = g
    0    0    3    6   13    2    9    5    0    1    3    9    0    2    0    0    0    8    0    0    0    0    0    8    0    3    6 |    l = f
    1    0   10   15  127   14   33   68    9    1   33    2   87    1   10   23    1   12    6    1    5    0    3    7    0   28    6 |    m = i
    0    1    0    7    5    5    5    6    0    0    6    3    0   16    0    1    0    7    0    1    0    0    0    1    0    0    2 |    n = j
    0    5    1    4   68    3    4   51    0    1    9    0    9    0    2   10    0    2    1    0    0    0    4    0    0    8    2 |    o = m
    0    0    0    2  103    5    5   57    2    4   10    1   10    0    2   13    0    2    0    0    0    0    2    0    0    5    0 |    p = l
    2    8   15   19  190   73   49  190   15   65   19    3   53    3    3   30    5    9   11    0    4    1   40   12    0   58   63 |    q = o
    0    6    0   19  136   21    3  118    1    4   33    1    8    0    2   22    0   24    0    0    0    0    3    6    1   25    3 |    r = n
    1    0   13    0    4    2    8    0    1    0    3    2    2    2    0    0    0    8    3    0    0    0    0    3    0    0    3 |    s = q
    0    0   10   13   10    7   20    6    0    3    2   10    3    2    1    1    0   11    2    0    0    2    0   17    0    4    9 |    t = p
   29    1   32   36   51   14   62   18    1    8   36   44    3   27    0    7    2   51    1    0   58    2    1   26    0   15   87 |    u = s
    0    2    0   18   65    8   10   39    5    4   36    7   10    2    0   38    1   20    0    1    0    2    3   15    0    8   14 |    v = r
    0    4    2    2   24   29   21  100    1   10    4    2   25    0    3    6    2    3    5    1    4    2   18    0    0   16    1 |    w = u
    0    1   20    9   17    0   44    5    0    4    8   17    1    2    0    0    1   18    0    0    0    0    0   40    0    6   41 |    x = t
    0    1    2    0   40    4    5   17    0    3    5    0    3    0    0    4    0    7    0    0    0    0    0    0    0    8    0 |    y = v
    1    0    1    2   32    0    2    1    0    0    0    2    1    0    1    2    0    3    1    0    1    0    2    3    0    9    0 |    z = y
    0    0    1    0    0    0    0    0    0    0    0    0    0    0    0    0    0    0    0    0    0    0    0    1    0    0    3 |   aa = z

=== Percent Confusion Matrix ===
a	b	c	d	e	f	g	h	i	j	k	l	m	n	o	p	q	r	s	t	u	v	w	x	y	z	aa	
18.97	0.0	8.62	8.62	3.45	1.72	13.79	3.45	0.0	3.45	1.72	5.17	0.0	3.45	0.0	1.72	0.0	8.62	1.72	0.0	5.17	0.0	0.0	6.9	0.0	0.0	3.45	 a = ch
0.0	0.0	0.0	0.0	53.33	13.33	0.0	6.67	0.0	0.0	6.67	0.0	0.0	0.0	0.0	0.0	0.0	0.0	0.0	0.0	0.0	0.0	20.0	0.0	0.0	0.0	0.0	 b = rr
0.0	0.0	71.7	1.81	1.77	0.09	0.91	0.7	0.02	0.59	0.29	0.72	0.11	0.07	0.02	0.16	0.07	1.02	0.07	0.02	0.05	0.0	0.05	1.52	0.02	0.5	17.72	 c = 0
0.0	0.0	2.14	12.14	32.86	2.14	4.29	5.0	1.43	2.14	2.14	5.71	2.14	0.71	1.43	2.14	0.0	3.57	0.0	0.0	0.71	0.71	0.0	6.43	0.0	6.43	5.71	 d = hs
0.0	0.0	0.0	0.0	85.29	0.0	0.0	8.82	0.0	0.0	0.0	0.0	0.0	0.0	0.0	0.0	0.0	5.88	0.0	0.0	0.0	0.0	0.0	0.0	0.0	0.0	0.0	 e = hg
0.0	0.44	1.43	0.83	17.91	26.61	3.8	12.29	1.93	7.49	9.53	0.22	3.25	0.11	0.11	2.31	1.1	1.71	2.2	0.06	0.33	0.11	3.42	0.61	0.0	1.1	1.1	 f = a
0.0	0.0	14.29	6.04	2.75	0.55	26.92	2.2	0.0	0.0	2.2	6.59	0.55	0.55	0.0	0.0	0.0	2.75	2.2	0.0	1.65	0.0	0.0	11.54	0.0	0.55	18.68	 g = c
0.0	2.44	0.0	0.0	35.37	3.66	0.0	31.71	0.0	4.88	7.32	0.0	2.44	0.0	3.66	6.1	0.0	1.22	0.0	0.0	0.0	0.0	0.0	0.0	0.0	1.22	0.0	 h = b
0.0	0.31	1.03	1.24	31.93	4.43	3.81	15.04	3.09	2.06	11.84	0.93	8.55	0.21	0.1	3.6	0.72	1.96	2.06	0.1	0.62	0.1	1.75	0.82	0.1	1.85	1.75	 i = e
0.0	2.26	0.0	0.0	35.03	3.95	0.56	24.29	2.26	6.21	8.47	0.0	0.56	0.0	1.69	6.78	0.0	0.56	0.0	0.0	0.0	0.0	1.69	1.69	0.0	3.95	0.0	 j = d
0.0	5.56	0.0	1.39	31.94	5.56	0.0	20.83	0.0	0.0	19.44	2.78	1.39	0.0	0.0	4.17	0.0	2.78	0.0	0.0	0.0	0.0	0.0	1.39	0.0	1.39	1.39	 k = g
0.0	0.0	3.85	7.69	16.67	2.56	11.54	6.41	0.0	1.28	3.85	11.54	0.0	2.56	0.0	0.0	0.0	10.26	0.0	0.0	0.0	0.0	0.0	10.26	0.0	3.85	7.69	 l = f
0.2	0.0	1.99	2.98	25.25	2.78	6.56	13.52	1.79	0.2	6.56	0.4	17.3	0.2	1.99	4.57	0.2	2.39	1.19	0.2	0.99	0.0	0.6	1.39	0.0	5.57	1.19	 m = i
0.0	1.52	0.0	10.61	7.58	7.58	7.58	9.09	0.0	0.0	9.09	4.55	0.0	24.24	0.0	1.52	0.0	10.61	0.0	1.52	0.0	0.0	0.0	1.52	0.0	0.0	3.03	 n = j
0.0	2.72	0.54	2.17	36.96	1.63	2.17	27.72	0.0	0.54	4.89	0.0	4.89	0.0	1.09	5.43	0.0	1.09	0.54	0.0	0.0	0.0	2.17	0.0	0.0	4.35	1.09	 o = m
0.0	0.0	0.0	0.9	46.19	2.24	2.24	25.56	0.9	1.79	4.48	0.45	4.48	0.0	0.9	5.83	0.0	0.9	0.0	0.0	0.0	0.0	0.9	0.0	0.0	2.24	0.0	 p = l
0.21	0.85	1.6	2.02	20.21	7.77	5.21	20.21	1.6	6.91	2.02	0.32	5.64	0.32	0.32	3.19	0.53	0.96	1.17	0.0	0.43	0.11	4.26	1.28	0.0	6.17	6.7	 q = o
0.0	1.38	0.0	4.36	31.19	4.82	0.69	27.06	0.23	0.92	7.57	0.23	1.83	0.0	0.46	5.05	0.0	5.5	0.0	0.0	0.0	0.0	0.69	1.38	0.23	5.73	0.69	 r = n
1.82	0.0	23.64	0.0	7.27	3.64	14.55	0.0	1.82	0.0	5.45	3.64	3.64	3.64	0.0	0.0	0.0	14.55	5.45	0.0	0.0	0.0	0.0	5.45	0.0	0.0	5.45	 s = q
0.0	0.0	7.52	9.77	7.52	5.26	15.04	4.51	0.0	2.26	1.5	7.52	2.26	1.5	0.75	0.75	0.0	8.27	1.5	0.0	0.0	1.5	0.0	12.78	0.0	3.01	6.77	 t = p
4.74	0.16	5.23	5.88	8.33	2.29	10.13	2.94	0.16	1.31	5.88	7.19	0.49	4.41	0.0	1.14	0.33	8.33	0.16	0.0	9.48	0.33	0.16	4.25	0.0	2.45	14.22	 u = s
0.0	0.65	0.0	5.84	21.1	2.6	3.25	12.66	1.62	1.3	11.69	2.27	3.25	0.65	0.0	12.34	0.32	6.49	0.0	0.32	0.0	0.65	0.97	4.87	0.0	2.6	4.55	 v = r
0.0	1.4	0.7	0.7	8.42	10.18	7.37	35.09	0.35	3.51	1.4	0.7	8.77	0.0	1.05	2.11	0.7	1.05	1.75	0.35	1.4	0.7	6.32	0.0	0.0	5.61	0.35	 w = u
0.0	0.43	8.55	3.85	7.26	0.0	18.8	2.14	0.0	1.71	3.42	7.26	0.43	0.85	0.0	0.0	0.43	7.69	0.0	0.0	0.0	0.0	0.0	17.09	0.0	2.56	17.52	 x = t
0.0	1.01	2.02	0.0	40.4	4.04	5.05	17.17	0.0	3.03	5.05	0.0	3.03	0.0	0.0	4.04	0.0	7.07	0.0	0.0	0.0	0.0	0.0	0.0	0.0	8.08	0.0	 y = v
1.56	0.0	1.56	3.13	50.0	0.0	3.13	1.56	0.0	0.0	0.0	3.13	1.56	0.0	1.56	3.13	0.0	4.69	1.56	0.0	1.56	0.0	3.13	4.69	0.0	14.06	0.0	 z = y
0.0	0.0	20.0	0.0	0.0	0.0	0.0	0.0	0.0	0.0	0.0	0.0	0.0	0.0	0.0	0.0	0.0	0.0	0.0	0.0	0.0	0.0	0.0	20.0	0.0	0.0	60.0	 aa = z
