Timestamp:2013-07-22-20:46:02
Inventario:I0
Intervalo:15ms
Ngramas:4
Clasificador:RandomForest
Relation Name:  I0-15ms-4gramas
Num Instances:  12186
Num Attributes: 41

     Name                      Type  Nom  Int Real     Missing      Unique  Dist
   1 0Int(dB)                   Num   0%  10%  90%     0 /  0%    10 /  0%   768 
   2 0Pitch(Hz)                 Num   0%  50%  50%     0 /  0%   940 /  8%  2714 
   3 0RawPitch                  Num   0%  53%  47%     0 /  0%   980 /  8%  2609 
   4 0SmPitch                   Num   0%  51%  49%     0 /  0%   957 /  8%  2691 
   5 0Melogram(st)              Num   0%  46%  54%     0 /  0%   837 /  7%  2573 
   6 0ZCross                    Num   0% 100%   0%     0 /  0%    10 /  0%    40 
   7 0F1(Hz)                    Num   0%  50%  50%     0 /  0%  2281 / 19%  3977 
   8 0F2(Hz)                    Num   0%  50%  50%     0 /  0%  3848 / 32%  5158 
   9 0F3(Hz)                    Num   0%  50%  50%     0 /  0%  3419 / 28%  4850 
  10 0F4(Hz)                    Num   0%  50%  50%     0 /  0%  3319 / 27%  4764 
  11 1Int(dB)                   Num   0%  10%  90%     0 /  0%    10 /  0%   768 
  12 1Pitch(Hz)                 Num   0%  50%  50%     0 /  0%   940 /  8%  2714 
  13 1RawPitch                  Num   0%  53%  47%     0 /  0%   980 /  8%  2609 
  14 1SmPitch                   Num   0%  51%  49%     0 /  0%   957 /  8%  2691 
  15 1Melogram(st)              Num   0%  46%  54%     0 /  0%   837 /  7%  2573 
  16 1ZCross                    Num   0% 100%   0%     0 /  0%    10 /  0%    40 
  17 1F1(Hz)                    Num   0%  50%  50%     0 /  0%  2281 / 19%  3977 
  18 1F2(Hz)                    Num   0%  50%  50%     0 /  0%  3848 / 32%  5158 
  19 1F3(Hz)                    Num   0%  50%  50%     0 /  0%  3419 / 28%  4850 
  20 1F4(Hz)                    Num   0%  50%  50%     0 /  0%  3319 / 27%  4764 
  21 2Int(dB)                   Num   0%  10%  90%     0 /  0%    10 /  0%   768 
  22 2Pitch(Hz)                 Num   0%  50%  50%     0 /  0%   940 /  8%  2714 
  23 2RawPitch                  Num   0%  53%  47%     0 /  0%   980 /  8%  2609 
  24 2SmPitch                   Num   0%  51%  49%     0 /  0%   957 /  8%  2691 
  25 2Melogram(st)              Num   0%  46%  54%     0 /  0%   837 /  7%  2573 
  26 2ZCross                    Num   0% 100%   0%     0 /  0%    10 /  0%    40 
  27 2F1(Hz)                    Num   0%  50%  50%     0 /  0%  2281 / 19%  3977 
  28 2F2(Hz)                    Num   0%  50%  50%     0 /  0%  3848 / 32%  5158 
  29 2F3(Hz)                    Num   0%  50%  50%     0 /  0%  3419 / 28%  4850 
  30 2F4(Hz)                    Num   0%  50%  50%     0 /  0%  3319 / 27%  4764 
  31 3Int(dB)                   Num   0%  10%  90%     0 /  0%    10 /  0%   768 
  32 3Pitch(Hz)                 Num   0%  50%  50%     0 /  0%   941 /  8%  2715 
  33 3RawPitch                  Num   0%  53%  47%     0 /  0%   979 /  8%  2609 
  34 3SmPitch                   Num   0%  51%  49%     0 /  0%   957 /  8%  2691 
  35 3Melogram(st)              Num   0%  46%  54%     0 /  0%   838 /  7%  2574 
  36 3ZCross                    Num   0% 100%   0%     0 /  0%    10 /  0%    40 
  37 3F1(Hz)                    Num   0%  50%  50%     0 /  0%  2281 / 19%  3977 
  38 3F2(Hz)                    Num   0%  50%  50%     0 /  0%  3848 / 32%  5158 
  39 3F3(Hz)                    Num   0%  50%  50%     0 /  0%  3419 / 28%  4850 
  40 3F4(Hz)                    Num   0%  50%  50%     0 /  0%  3319 / 27%  4764 
  41 class                      Nom 100%   0%   0%     0 /  0%     0 /  0%    27 


Options: -I 10 -K 0 -S 1 -num-slots 4 

Random forest of 10 trees, each constructed while considering 6 random features.
Out of bag error: 0.3566





=== Stratified cross-validation ===

Correctly Classified Instances        8584               70.4415 %
Incorrectly Classified Instances      3602               29.5585 %
Kappa statistic                          0.6341
K&B Relative Info Score             738669.6305 %
K&B Information Score                24973.7791 bits      2.0494 bits/instance
Class complexity | order 0           41116.7376 bits      3.3741 bits/instance
Class complexity | scheme          1169380.6808 bits     95.961  bits/instance
Complexity improvement     (Sf)    -1128263.9432 bits    -92.5869 bits/instance
Mean absolute error                      0.0305
Root mean squared error                  0.1234
Relative absolute error                 49.9201 %
Root relative squared error             70.5659 %
Coverage of cases (0.95 level)          91.1456 %
Mean rel. region size (0.95 level)      12.7295 %
Total Number of Instances            12186     


=== Detailed Accuracy By Class ===

                 TP Rate  FP Rate  Precision  Recall   F-Measure  MCC      ROC Area  PRC Area  Class
                 0,086    0,002    0,200      0,086    0,120      0,129    0,728     0,068     ch
                 0,067    0,000    0,250      0,067    0,105      0,129    0,661     0,016     rr
                 0,942    0,088    0,859      0,942    0,899      0,839    0,977     0,958     0
                 0,264    0,005    0,374      0,264    0,310      0,308    0,813     0,212     hs
                 0,294    0,000    0,714      0,294    0,417      0,457    0,832     0,260     hg
                 0,860    0,062    0,708      0,860    0,777      0,738    0,958     0,865     a
                 0,148    0,007    0,237      0,148    0,182      0,178    0,787     0,104     c
                 0,390    0,002    0,582      0,390    0,467      0,474    0,878     0,357     b
                 0,704    0,046    0,570      0,704    0,630      0,598    0,927     0,641     e
                 0,266    0,006    0,405      0,266    0,321      0,320    0,893     0,285     d
                 0,292    0,001    0,553      0,292    0,382      0,399    0,873     0,357     g
                 0,115    0,003    0,214      0,115    0,150      0,153    0,710     0,068     f
                 0,658    0,018    0,616      0,658    0,637      0,621    0,935     0,641     i
                 0,333    0,001    0,710      0,333    0,454      0,485    0,863     0,438     j
                 0,462    0,005    0,590      0,462    0,518      0,516    0,933     0,473     m
                 0,300    0,006    0,465      0,300    0,365      0,365    0,873     0,320     l
                 0,600    0,034    0,599      0,600    0,599      0,566    0,897     0,614     o
                 0,534    0,016    0,560      0,534    0,547      0,531    0,920     0,526     n
                 0,073    0,001    0,333      0,073    0,119      0,154    0,697     0,095     q
                 0,120    0,003    0,281      0,120    0,168      0,178    0,792     0,113     p
                 0,587    0,021    0,594      0,587    0,590      0,569    0,919     0,565     s
                 0,231    0,005    0,522      0,231    0,320      0,336    0,831     0,256     r
                 0,551    0,005    0,737      0,551    0,631      0,630    0,946     0,667     u
                 0,209    0,008    0,353      0,209    0,263      0,261    0,796     0,169     t
                 0,111    0,001    0,500      0,111    0,182      0,233    0,817     0,177     v
                 0,328    0,001    0,618      0,328    0,429      0,448    0,856     0,342     y
                 0,000    0,000    0,000      0,000    0,000      0,000    0,599     0,006     z
Weighted Avg.    0,704    0,051    0,679      0,704    0,683      0,650    0,930     0,708     


=== Confusion Matrix ===

    a    b    c    d    e    f    g    h    i    j    k    l    m    n    o    p    q    r    s    t    u    v    w    x    y    z   aa   <-- classified as
    5    0   12    0    0    4    3    0    1    0    1    2    2    0    0    0    0    2    0    0   22    0    0    4    0    0    0 |    a = ch
    0    1    3    0    0    3    0    0    4    1    0    0    0    0    1    0    1    1    0    0    0    0    0    0    0    0    0 |    b = rr
    2    1 4161    8    0   44    9    0   21    2    0    2   23    0    2    4   33   10    2    4   49    9    4   24    1    0    0 |    c = 0
    1    0   36   37    0   16    1    0   10    3    0    3    8    0    0    3    8    0    0    1    7    3    1    2    0    0    0 |    d = hs
    0    0    2    0   10    3    0    0    9    0    0    0    4    0    1    0    4    1    0    0    0    0    0    0    0    0    0 |    e = hg
    2    0   53    8    1 1560    7    1   57    3    4    2    9    0    0    7   55   13    0    2   12   10    0    6    1    2    0 |    f = a
    5    0   64    1    0   14   27    0   10    0    1    2    3    0    1    0   10    0    2    5   13    2    5   17    0    0    0 |    g = c
    0    0    3    0    0    8    0   32    8    2    0    0   10    0    2    0   10    1    0    0    1    1    4    0    0    0    0 |    h = b
    1    0   33    4    1   92    7    1  684    7    5    1   24    2   10    9   35   19    1    5   17    5    2    4    2    0    0 |    i = e
    0    0    7    1    0   36    0    2   20   47    1    0    2    0    0    6   34   13    0    0    0    1    5    1    0    1    0 |    j = d
    0    0    2    0    1   14    0    0   16    1   21    1    6    0    0    0    5    3    0    0    0    0    1    1    0    0    0 |    k = g
    0    0   16    1    0    7    1    0    7    0    0    9    2    0    0    0    3    0    0    6   21    3    0    2    0    0    0 |    l = f
    1    0   28    3    0   10    3    4   77    1    2    0  331    0    6    5    5    8    0    1    9    1    4    0    2    2    0 |    m = i
    0    0    4    3    0    9    2    0   10    0    0    2    0   22    0    0    0    1    0    0   11    2    0    0    0    0    0 |    n = j
    0    0    5    0    0   12    0    0   22    2    1    0   20    0   85    2   10   19    0    0    1    2    3    0    0    0    0 |    o = m
    1    0   11    2    0   32    1    0   27    3    0    1   25    0    4   67   15   21    0    0    3    5    2    0    2    1    0 |    p = l
    1    0   80    3    0  112    6    4   51   14    1    1   10    1   16    9  564   17    0    4   20    8   11    4    2    1    0 |    q = o
    1    0   20    5    0   36    3    2   43   12    0    0   15    0    7    8   26  233    0    0    8    4    5    6    1    1    0 |    r = n
    1    0   18    0    0    5    9    0    5    0    0    0    2    0    0    0    1    1    4    0    6    0    0    3    0    0    0 |    s = q
    1    1   49    3    0   19    3    0    8    2    0    3    1    1    1    0    7    2    0   16    8    2    1    5    0    0    0 |    t = p
    1    0  109    9    0   31    9    1   16    1    0   10   12    2    2    8   17   10    3    3  359    1    0    6    0    2    0 |    u = s
    1    1   32    5    1   77    2    4   39    7    1    0   11    0    2    5   23   14    0    4    7   71    0    0    0    1    0 |    v = r
    0    0    5    2    0   14    1    3   23    4    0    1    3    0    3    3   50    8    0    0    4    1  157    3    0    0    0 |    w = u
    0    0   85    3    0   21   16    0    4    2    0    1    5    0    0    0   11    8    0    6   14    3    4   49    0    2    0 |    x = t
    0    0    1    1    0   19    3    0   21    2    0    1    7    3    1    5   12    8    0    0    1    1    1    1   11    0    0 |    y = v
    1    0    4    0    0    4    0    1    6    0    0    0    2    0    0    3    3    3    0    0   11    1    3    1    0   21    0 |    z = y
    0    0    3    0    0    0    1    0    1    0    0    0    0    0    0    0    0    0    0    0    0    0    0    0    0    0    0 |   aa = z

=== Percent Confusion Matrix ===
a	b	c	d	e	f	g	h	i	j	k	l	m	n	o	p	q	r	s	t	u	v	w	x	y	z	aa	
8.62	0.0	20.69	0.0	0.0	6.9	5.17	0.0	1.72	0.0	1.72	3.45	3.45	0.0	0.0	0.0	0.0	3.45	0.0	0.0	37.93	0.0	0.0	6.9	0.0	0.0	0.0	 a = ch
0.0	6.67	20.0	0.0	0.0	20.0	0.0	0.0	26.67	6.67	0.0	0.0	0.0	0.0	6.67	0.0	6.67	6.67	0.0	0.0	0.0	0.0	0.0	0.0	0.0	0.0	0.0	 b = rr
0.05	0.02	94.25	0.18	0.0	1.0	0.2	0.0	0.48	0.05	0.0	0.05	0.52	0.0	0.05	0.09	0.75	0.23	0.05	0.09	1.11	0.2	0.09	0.54	0.02	0.0	0.0	 c = 0
0.71	0.0	25.71	26.43	0.0	11.43	0.71	0.0	7.14	2.14	0.0	2.14	5.71	0.0	0.0	2.14	5.71	0.0	0.0	0.71	5.0	2.14	0.71	1.43	0.0	0.0	0.0	 d = hs
0.0	0.0	5.88	0.0	29.41	8.82	0.0	0.0	26.47	0.0	0.0	0.0	11.76	0.0	2.94	0.0	11.76	2.94	0.0	0.0	0.0	0.0	0.0	0.0	0.0	0.0	0.0	 e = hg
0.11	0.0	2.92	0.44	0.06	85.95	0.39	0.06	3.14	0.17	0.22	0.11	0.5	0.0	0.0	0.39	3.03	0.72	0.0	0.11	0.66	0.55	0.0	0.33	0.06	0.11	0.0	 f = a
2.75	0.0	35.16	0.55	0.0	7.69	14.84	0.0	5.49	0.0	0.55	1.1	1.65	0.0	0.55	0.0	5.49	0.0	1.1	2.75	7.14	1.1	2.75	9.34	0.0	0.0	0.0	 g = c
0.0	0.0	3.66	0.0	0.0	9.76	0.0	39.02	9.76	2.44	0.0	0.0	12.2	0.0	2.44	0.0	12.2	1.22	0.0	0.0	1.22	1.22	4.88	0.0	0.0	0.0	0.0	 h = b
0.1	0.0	3.4	0.41	0.1	9.47	0.72	0.1	70.44	0.72	0.51	0.1	2.47	0.21	1.03	0.93	3.6	1.96	0.1	0.51	1.75	0.51	0.21	0.41	0.21	0.0	0.0	 i = e
0.0	0.0	3.95	0.56	0.0	20.34	0.0	1.13	11.3	26.55	0.56	0.0	1.13	0.0	0.0	3.39	19.21	7.34	0.0	0.0	0.0	0.56	2.82	0.56	0.0	0.56	0.0	 j = d
0.0	0.0	2.78	0.0	1.39	19.44	0.0	0.0	22.22	1.39	29.17	1.39	8.33	0.0	0.0	0.0	6.94	4.17	0.0	0.0	0.0	0.0	1.39	1.39	0.0	0.0	0.0	 k = g
0.0	0.0	20.51	1.28	0.0	8.97	1.28	0.0	8.97	0.0	0.0	11.54	2.56	0.0	0.0	0.0	3.85	0.0	0.0	7.69	26.92	3.85	0.0	2.56	0.0	0.0	0.0	 l = f
0.2	0.0	5.57	0.6	0.0	1.99	0.6	0.8	15.31	0.2	0.4	0.0	65.81	0.0	1.19	0.99	0.99	1.59	0.0	0.2	1.79	0.2	0.8	0.0	0.4	0.4	0.0	 m = i
0.0	0.0	6.06	4.55	0.0	13.64	3.03	0.0	15.15	0.0	0.0	3.03	0.0	33.33	0.0	0.0	0.0	1.52	0.0	0.0	16.67	3.03	0.0	0.0	0.0	0.0	0.0	 n = j
0.0	0.0	2.72	0.0	0.0	6.52	0.0	0.0	11.96	1.09	0.54	0.0	10.87	0.0	46.2	1.09	5.43	10.33	0.0	0.0	0.54	1.09	1.63	0.0	0.0	0.0	0.0	 o = m
0.45	0.0	4.93	0.9	0.0	14.35	0.45	0.0	12.11	1.35	0.0	0.45	11.21	0.0	1.79	30.04	6.73	9.42	0.0	0.0	1.35	2.24	0.9	0.0	0.9	0.45	0.0	 p = l
0.11	0.0	8.51	0.32	0.0	11.91	0.64	0.43	5.43	1.49	0.11	0.11	1.06	0.11	1.7	0.96	60.0	1.81	0.0	0.43	2.13	0.85	1.17	0.43	0.21	0.11	0.0	 q = o
0.23	0.0	4.59	1.15	0.0	8.26	0.69	0.46	9.86	2.75	0.0	0.0	3.44	0.0	1.61	1.83	5.96	53.44	0.0	0.0	1.83	0.92	1.15	1.38	0.23	0.23	0.0	 r = n
1.82	0.0	32.73	0.0	0.0	9.09	16.36	0.0	9.09	0.0	0.0	0.0	3.64	0.0	0.0	0.0	1.82	1.82	7.27	0.0	10.91	0.0	0.0	5.45	0.0	0.0	0.0	 s = q
0.75	0.75	36.84	2.26	0.0	14.29	2.26	0.0	6.02	1.5	0.0	2.26	0.75	0.75	0.75	0.0	5.26	1.5	0.0	12.03	6.02	1.5	0.75	3.76	0.0	0.0	0.0	 t = p
0.16	0.0	17.81	1.47	0.0	5.07	1.47	0.16	2.61	0.16	0.0	1.63	1.96	0.33	0.33	1.31	2.78	1.63	0.49	0.49	58.66	0.16	0.0	0.98	0.0	0.33	0.0	 u = s
0.32	0.32	10.39	1.62	0.32	25.0	0.65	1.3	12.66	2.27	0.32	0.0	3.57	0.0	0.65	1.62	7.47	4.55	0.0	1.3	2.27	23.05	0.0	0.0	0.0	0.32	0.0	 v = r
0.0	0.0	1.75	0.7	0.0	4.91	0.35	1.05	8.07	1.4	0.0	0.35	1.05	0.0	1.05	1.05	17.54	2.81	0.0	0.0	1.4	0.35	55.09	1.05	0.0	0.0	0.0	 w = u
0.0	0.0	36.32	1.28	0.0	8.97	6.84	0.0	1.71	0.85	0.0	0.43	2.14	0.0	0.0	0.0	4.7	3.42	0.0	2.56	5.98	1.28	1.71	20.94	0.0	0.85	0.0	 x = t
0.0	0.0	1.01	1.01	0.0	19.19	3.03	0.0	21.21	2.02	0.0	1.01	7.07	3.03	1.01	5.05	12.12	8.08	0.0	0.0	1.01	1.01	1.01	1.01	11.11	0.0	0.0	 y = v
1.56	0.0	6.25	0.0	0.0	6.25	0.0	1.56	9.38	0.0	0.0	0.0	3.13	0.0	0.0	4.69	4.69	4.69	0.0	0.0	17.19	1.56	4.69	1.56	0.0	32.81	0.0	 z = y
0.0	0.0	60.0	0.0	0.0	0.0	20.0	0.0	20.0	0.0	0.0	0.0	0.0	0.0	0.0	0.0	0.0	0.0	0.0	0.0	0.0	0.0	0.0	0.0	0.0	0.0	0.0	 aa = z
