Timestamp:2013-08-30-03:53:34
Inventario:I0
Intervalo:10ms
Ngramas:3
Clasificador:BayesNet
Relation Name:  I0-10ms-3gramas
Num Instances:  18294
Num Attributes: 31

     Name                      Type  Nom  Int Real     Missing      Unique  Dist
   1 0Int(dB)                   Num   0%  10%  90%     0 /  0%     7 /  0%   772 
   2 0Pitch(Hz)                 Num   0%  51%  49%     0 /  0%   816 /  4%  3063 
   3 0RawPitch                  Num   0%  54%  46%     0 /  0%   853 /  5%  2955 
   4 0SmPitch                   Num   0%  52%  48%     0 /  0%   827 /  5%  3024 
   5 0Melogram(st)              Num   0%  47%  53%     0 /  0%   581 /  3%  2807 
   6 0ZCross                    Num   0% 100%   0%     0 /  0%    10 /  0%    42 
   7 0F1(Hz)                    Num   0%  51%  49%     0 /  0%  2131 / 12%  4724 
   8 0F2(Hz)                    Num   0%  51%  49%     0 /  0%  4210 / 23%  6615 
   9 0F3(Hz)                    Num   0%  51%  49%     0 /  0%  3688 / 20%  6145 
  10 0F4(Hz)                    Num   0%  51%  49%     0 /  0%  3689 / 20%  6054 
  11 1Int(dB)                   Num   0%  10%  90%     0 /  0%     7 /  0%   772 
  12 1Pitch(Hz)                 Num   0%  51%  49%     0 /  0%   816 /  4%  3063 
  13 1RawPitch                  Num   0%  54%  46%     0 /  0%   853 /  5%  2955 
  14 1SmPitch                   Num   0%  52%  48%     0 /  0%   827 /  5%  3024 
  15 1Melogram(st)              Num   0%  47%  53%     0 /  0%   581 /  3%  2807 
  16 1ZCross                    Num   0% 100%   0%     0 /  0%    10 /  0%    42 
  17 1F1(Hz)                    Num   0%  51%  49%     0 /  0%  2131 / 12%  4724 
  18 1F2(Hz)                    Num   0%  51%  49%     0 /  0%  4210 / 23%  6615 
  19 1F3(Hz)                    Num   0%  51%  49%     0 /  0%  3688 / 20%  6145 
  20 1F4(Hz)                    Num   0%  51%  49%     0 /  0%  3689 / 20%  6054 
  21 2Int(dB)                   Num   0%  10%  90%     0 /  0%     7 /  0%   772 
  22 2Pitch(Hz)                 Num   0%  51%  49%     0 /  0%   817 /  4%  3064 
  23 2RawPitch                  Num   0%  54%  46%     0 /  0%   854 /  5%  2956 
  24 2SmPitch                   Num   0%  52%  48%     0 /  0%   828 /  5%  3025 
  25 2Melogram(st)              Num   0%  47%  53%     0 /  0%   582 /  3%  2808 
  26 2ZCross                    Num   0% 100%   0%     0 /  0%    10 /  0%    42 
  27 2F1(Hz)                    Num   0%  51%  49%     0 /  0%  2131 / 12%  4724 
  28 2F2(Hz)                    Num   0%  51%  49%     0 /  0%  4210 / 23%  6615 
  29 2F3(Hz)                    Num   0%  51%  49%     0 /  0%  3688 / 20%  6145 
  30 2F4(Hz)                    Num   0%  51%  49%     0 /  0%  3689 / 20%  6054 
  31 class                      Nom 100%   0%   0%     0 /  0%     0 /  0%    27 


Options: -D -Q weka.classifiers.bayes.net.search.local.K2 -- -P 1 -S BAYES -E weka.classifiers.bayes.net.estimate.SimpleEstimator -- -A 0.5 

Bayes Network Classifier
not using ADTree
#attributes=31 #classindex=30
Network structure (nodes followed by parents)
0Int(dB)(10): class 
0Pitch(Hz)(6): class 
0RawPitch(4): class 
0SmPitch(6): class 
0Melogram(st)(8): class 
0ZCross(10): class 
0F1(Hz)(11): class 
0F2(Hz)(9): class 
0F3(Hz)(6): class 
0F4(Hz)(10): class 
1Int(dB)(11): class 
1Pitch(Hz)(5): class 
1RawPitch(4): class 
1SmPitch(5): class 
1Melogram(st)(8): class 
1ZCross(10): class 
1F1(Hz)(11): class 
1F2(Hz)(9): class 
1F3(Hz)(10): class 
1F4(Hz)(9): class 
2Int(dB)(9): class 
2Pitch(Hz)(5): class 
2RawPitch(4): class 
2SmPitch(4): class 
2Melogram(st)(8): class 
2ZCross(10): class 
2F1(Hz)(15): class 
2F2(Hz)(10): class 
2F3(Hz)(8): class 
2F4(Hz)(7): class 
class(27): 
LogScore Bayes: -623382.954280213
LogScore BDeu: -654303.5604043012
LogScore MDL: -650505.613356916
LogScore ENTROPY: -622289.4191602943
LogScore AIC: -628039.4191602943




=== Stratified cross-validation ===

Correctly Classified Instances        9830               53.7335 %
Incorrectly Classified Instances      8464               46.2665 %
Kappa statistic                          0.4383
K&B Relative Info Score             755947.8344 %
K&B Information Score                25346.3033 bits      1.3855 bits/instance
Class complexity | order 0           61255.9747 bits      3.3484 bits/instance
Class complexity | scheme           179185.0612 bits      9.7947 bits/instance
Complexity improvement     (Sf)    -117929.0864 bits     -6.4463 bits/instance
Mean absolute error                      0.0347
Root mean squared error                  0.1667
Relative absolute error                 57.097  %
Root relative squared error             95.6439 %
Coverage of cases (0.95 level)          64.7152 %
Mean rel. region size (0.95 level)       7.0155 %
Total Number of Instances            18294     


=== Detailed Accuracy By Class ===

                 TP Rate  FP Rate  Precision  Recall   F-Measure  MCC      ROC Area  PRC Area  Class
                 0,159    0,004    0,163      0,159    0,161      0,157    0,907     0,079     ch
                 0,095    0,010    0,011      0,095    0,020      0,030    0,895     0,011     rr
                 0,900    0,088    0,858      0,900    0,878      0,804    0,963     0,956     0
                 0,136    0,018    0,079      0,136    0,100      0,090    0,813     0,067     hs
                 0,780    0,045    0,045      0,780    0,086      0,182    0,968     0,140     hg
                 0,623    0,047    0,694      0,623    0,657      0,603    0,919     0,742     a
                 0,237    0,022    0,143      0,237    0,179      0,168    0,875     0,111     c
                 0,126    0,009    0,082      0,126    0,099      0,094    0,894     0,048     b
                 0,296    0,023    0,527      0,296    0,379      0,358    0,877     0,432     e
                 0,244    0,023    0,134      0,244    0,173      0,165    0,861     0,103     d
                 0,271    0,034    0,045      0,271    0,078      0,099    0,843     0,039     g
                 0,101    0,006    0,105      0,101    0,103      0,097    0,881     0,053     f
                 0,417    0,017    0,511      0,417    0,459      0,441    0,913     0,437     i
                 0,208    0,002    0,429      0,208    0,280      0,296    0,893     0,224     j
                 0,114    0,006    0,217      0,114    0,149      0,148    0,867     0,127     m
                 0,419    0,056    0,120      0,419    0,187      0,199    0,871     0,125     l
                 0,179    0,010    0,598      0,179    0,276      0,301    0,831     0,387     o
                 0,115    0,014    0,227      0,115    0,153      0,140    0,862     0,168     n
                 0,099    0,003    0,138      0,099    0,115      0,113    0,850     0,077     q
                 0,079    0,005    0,144      0,079    0,102      0,099    0,850     0,063     p
                 0,235    0,012    0,502      0,235    0,321      0,322    0,883     0,352     s
                 0,045    0,006    0,156      0,045    0,070      0,072    0,793     0,091     r
                 0,416    0,008    0,542      0,416    0,471      0,464    0,915     0,500     u
                 0,089    0,011    0,137      0,089    0,108      0,096    0,861     0,110     t
                 0,141    0,017    0,062      0,141    0,086      0,083    0,840     0,047     v
                 0,400    0,014    0,130      0,400    0,196      0,221    0,890     0,142     y
                 0,000    0,001    0,000      0,000    0,000      -0,001   0,959     0,005     z
Weighted Avg.    0,537    0,047    0,598      0,537    0,548      0,511    0,910     0,597     


=== Confusion Matrix ===

    a    b    c    d    e    f    g    h    i    j    k    l    m    n    o    p    q    r    s    t    u    v    w    x    y    z   aa   <-- classified as
   14    0   15    3    0    5   21    0    2    0    0    2    1    0    0    3    0    5    1    1   12    0    0    2    0    1    0 |    a = ch
    0    2    0    0    4    6    0    0    1    0    0    0    0    0    0    6    0    1    0    0    0    1    0    0    0    0    0 |    b = rr
    6    6 6116   67   57   48   35    7   24   32   19   23   47    5    6   51   19   26    8   10   57   11    7   42   21   39    7 |    c = 0
    0    4   32   28   31    9    5    8    4    6    5    3    5    0    6   19    2    2    0    4   12    1    0    8   10    2    0 |    d = hs
    0    0    0    0   39    1    0    0    4    3    0    0    2    0    0    0    0    0    0    0    0    0    0    0    1    0    0 |    e = hg
    6   25   58   29   35 1673   48    8  100  108   80   12   21    0    0  166   64   37    6   12   17   45    9   22   75   27    1 |    f = a
    4    0  126   13    2    1   66    0    5    0    1    6    4    2    0    4    3    2    4    1   15    3    1   11    0    3    1 |    g = c
    0    2    0    0   14   18    0   15   12    3    8    0    2    0    7   24    2    2    0    0    0    0    6    0    2    2    0 |    h = b
    8   10   44   20  198  111   17   21  426   44  157    2   51    0    6  150   17   27    7   20   11    6   14   22   36   13    0 |    i = e
    0   12    0    6   21   33    0    8    3   65   22    0    6    0    7   41    0    9    0    0    0    2    5    1   14   11    0 |    j = d
    0    2    3    0   15   17    0    1    9    1   29    0   10    0    0    5    0    3    0    0    5    3    1    1    0    2    0 |    k = g
    0    6   30   10    7    8   14    0    4    0    2   12    0    3    0    1    4    4    0    1    6    0    0    3    1    1    2 |    l = f
    4    6   25    5  109    4   19   19   51    0   47    0  312    0   18   41    1   13   18    8    7    0    2   14    3   22    0 |    m = i
    0    1   10    6   10   14    4    0   10    0    3    3    1   21    0    1    1    0    0    2    8    3    0    0    3    0    0 |    n = j
    0    0    5    2   36   18    2   13   13   11   23    0   26    0   31   54    1   15    0    2    0    1    6    0    2   11    0 |    o = m
    0   12    1    2   21   20    4   12    6   13   11    0   14    0    7  137    7    9    0    0    3    2    7    1   13   25    0 |    p = l
    4   21  122   48   93  239   20   30   57  120   52    6    8    2   16  107  247   28    0   13    6   10   62   15   32   18    1 |    q = o
    0   30    8   21   83   52    0   19   13   18   75    0   31    0   24  125    2   75    0    0    9    1    9   12   23   20    0 |    r = n
    2    0   30    0    0    5    8    0    0    0    1    0   12    0    0    0    0    1    8    1    7    0    0    3    0    3    0 |    s = q
    1    3   59   13    9    8   20    2    6    8    1    9    0    8    0    5    3    1    0   16    5    4    1   13    2    6    0 |    t = p
   35   11  244   31   19   17   92    0    4   12   34   16   40    7    1   33    5   23    3    7  213    9    3   12    9   25    0 |    u = s
    0   14   29   24    9   67   11   12   24   18   35    9   10    1    0   70    3   12    0    4    7   20    7    4   43    5    2 |    v = r
    0    4    6    3   16   28   16    9   20    8   19    1    1    0    6   46   27   16    1    2    1    1  176    6    2    8    0 |    w = u
    2    1  154   17    3    3   51    0    0    3    6    7    6    0    1    0    2   16    1    6   16    3    6   31    7    8    0 |    x = t
    0    4    2    7   26    6    3    0   10   13    9    0    0    0    3   27    3    1    1    0    0    1    2    1   20    3    0 |    y = v
    0    1    4    0    1    0    4    0    0    0    0    3    0    0    4   22    0    2    0    1    6    1    1    2    5   38    0 |    z = y
    0    0    7    0    0    0    0    0    0    0    0    0    0    0    0    0    0    0    0    0    1    0    0    0    0    0    0 |   aa = z

=== Percent Confusion Matrix ===
a	b	c	d	e	f	g	h	i	j	k	l	m	n	o	p	q	r	s	t	u	v	w	x	y	z	aa	
15.91	0.0	17.05	3.41	0.0	5.68	23.86	0.0	2.27	0.0	0.0	2.27	1.14	0.0	0.0	3.41	0.0	5.68	1.14	1.14	13.64	0.0	0.0	2.27	0.0	1.14	0.0	 a = ch
0.0	9.52	0.0	0.0	19.05	28.57	0.0	0.0	4.76	0.0	0.0	0.0	0.0	0.0	0.0	28.57	0.0	4.76	0.0	0.0	0.0	4.76	0.0	0.0	0.0	0.0	0.0	 b = rr
0.09	0.09	89.99	0.99	0.84	0.71	0.52	0.1	0.35	0.47	0.28	0.34	0.69	0.07	0.09	0.75	0.28	0.38	0.12	0.15	0.84	0.16	0.1	0.62	0.31	0.57	0.1	 c = 0
0.0	1.94	15.53	13.59	15.05	4.37	2.43	3.88	1.94	2.91	2.43	1.46	2.43	0.0	2.91	9.22	0.97	0.97	0.0	1.94	5.83	0.49	0.0	3.88	4.85	0.97	0.0	 d = hs
0.0	0.0	0.0	0.0	78.0	2.0	0.0	0.0	8.0	6.0	0.0	0.0	4.0	0.0	0.0	0.0	0.0	0.0	0.0	0.0	0.0	0.0	0.0	0.0	2.0	0.0	0.0	 e = hg
0.22	0.93	2.16	1.08	1.3	62.33	1.79	0.3	3.73	4.02	2.98	0.45	0.78	0.0	0.0	6.18	2.38	1.38	0.22	0.45	0.63	1.68	0.34	0.82	2.79	1.01	0.04	 f = a
1.44	0.0	45.32	4.68	0.72	0.36	23.74	0.0	1.8	0.0	0.36	2.16	1.44	0.72	0.0	1.44	1.08	0.72	1.44	0.36	5.4	1.08	0.36	3.96	0.0	1.08	0.36	 g = c
0.0	1.68	0.0	0.0	11.76	15.13	0.0	12.61	10.08	2.52	6.72	0.0	1.68	0.0	5.88	20.17	1.68	1.68	0.0	0.0	0.0	0.0	5.04	0.0	1.68	1.68	0.0	 h = b
0.56	0.7	3.06	1.39	13.77	7.72	1.18	1.46	29.62	3.06	10.92	0.14	3.55	0.0	0.42	10.43	1.18	1.88	0.49	1.39	0.76	0.42	0.97	1.53	2.5	0.9	0.0	 i = e
0.0	4.51	0.0	2.26	7.89	12.41	0.0	3.01	1.13	24.44	8.27	0.0	2.26	0.0	2.63	15.41	0.0	3.38	0.0	0.0	0.0	0.75	1.88	0.38	5.26	4.14	0.0	 j = d
0.0	1.87	2.8	0.0	14.02	15.89	0.0	0.93	8.41	0.93	27.1	0.0	9.35	0.0	0.0	4.67	0.0	2.8	0.0	0.0	4.67	2.8	0.93	0.93	0.0	1.87	0.0	 k = g
0.0	5.04	25.21	8.4	5.88	6.72	11.76	0.0	3.36	0.0	1.68	10.08	0.0	2.52	0.0	0.84	3.36	3.36	0.0	0.84	5.04	0.0	0.0	2.52	0.84	0.84	1.68	 l = f
0.53	0.8	3.34	0.67	14.57	0.53	2.54	2.54	6.82	0.0	6.28	0.0	41.71	0.0	2.41	5.48	0.13	1.74	2.41	1.07	0.94	0.0	0.27	1.87	0.4	2.94	0.0	 m = i
0.0	0.99	9.9	5.94	9.9	13.86	3.96	0.0	9.9	0.0	2.97	2.97	0.99	20.79	0.0	0.99	0.99	0.0	0.0	1.98	7.92	2.97	0.0	0.0	2.97	0.0	0.0	 n = j
0.0	0.0	1.84	0.74	13.24	6.62	0.74	4.78	4.78	4.04	8.46	0.0	9.56	0.0	11.4	19.85	0.37	5.51	0.0	0.74	0.0	0.37	2.21	0.0	0.74	4.04	0.0	 o = m
0.0	3.67	0.31	0.61	6.42	6.12	1.22	3.67	1.83	3.98	3.36	0.0	4.28	0.0	2.14	41.9	2.14	2.75	0.0	0.0	0.92	0.61	2.14	0.31	3.98	7.65	0.0	 p = l
0.29	1.53	8.86	3.49	6.75	17.36	1.45	2.18	4.14	8.71	3.78	0.44	0.58	0.15	1.16	7.77	17.94	2.03	0.0	0.94	0.44	0.73	4.5	1.09	2.32	1.31	0.07	 q = o
0.0	4.62	1.23	3.23	12.77	8.0	0.0	2.92	2.0	2.77	11.54	0.0	4.77	0.0	3.69	19.23	0.31	11.54	0.0	0.0	1.38	0.15	1.38	1.85	3.54	3.08	0.0	 r = n
2.47	0.0	37.04	0.0	0.0	6.17	9.88	0.0	0.0	0.0	1.23	0.0	14.81	0.0	0.0	0.0	0.0	1.23	9.88	1.23	8.64	0.0	0.0	3.7	0.0	3.7	0.0	 s = q
0.49	1.48	29.06	6.4	4.43	3.94	9.85	0.99	2.96	3.94	0.49	4.43	0.0	3.94	0.0	2.46	1.48	0.49	0.0	7.88	2.46	1.97	0.49	6.4	0.99	2.96	0.0	 t = p
3.87	1.22	26.96	3.43	2.1	1.88	10.17	0.0	0.44	1.33	3.76	1.77	4.42	0.77	0.11	3.65	0.55	2.54	0.33	0.77	23.54	0.99	0.33	1.33	0.99	2.76	0.0	 u = s
0.0	3.18	6.59	5.45	2.05	15.23	2.5	2.73	5.45	4.09	7.95	2.05	2.27	0.23	0.0	15.91	0.68	2.73	0.0	0.91	1.59	4.55	1.59	0.91	9.77	1.14	0.45	 v = r
0.0	0.95	1.42	0.71	3.78	6.62	3.78	2.13	4.73	1.89	4.49	0.24	0.24	0.0	1.42	10.87	6.38	3.78	0.24	0.47	0.24	0.24	41.61	1.42	0.47	1.89	0.0	 w = u
0.57	0.29	44.0	4.86	0.86	0.86	14.57	0.0	0.0	0.86	1.71	2.0	1.71	0.0	0.29	0.0	0.57	4.57	0.29	1.71	4.57	0.86	1.71	8.86	2.0	2.29	0.0	 x = t
0.0	2.82	1.41	4.93	18.31	4.23	2.11	0.0	7.04	9.15	6.34	0.0	0.0	0.0	2.11	19.01	2.11	0.7	0.7	0.0	0.0	0.7	1.41	0.7	14.08	2.11	0.0	 y = v
0.0	1.05	4.21	0.0	1.05	0.0	4.21	0.0	0.0	0.0	0.0	3.16	0.0	0.0	4.21	23.16	0.0	2.11	0.0	1.05	6.32	1.05	1.05	2.11	5.26	40.0	0.0	 z = y
0.0	0.0	87.5	0.0	0.0	0.0	0.0	0.0	0.0	0.0	0.0	0.0	0.0	0.0	0.0	0.0	0.0	0.0	0.0	0.0	12.5	0.0	0.0	0.0	0.0	0.0	0.0	 aa = z
