Timestamp:2014-12-07-10:42:17
Inventario:I0
Intervalo:15ms
Ngramas:2
Clasificador:NaiveBayes
Relation Name:  I0-15ms-2gramas
Num Instances:  12188
Num Attributes: 21

     Name                      Type  Nom  Int Real     Missing      Unique  Dist
   1 0Int(dB)                   Num   0%  10%  90%     0 /  0%    10 /  0%   768 
   2 0Pitch(Hz)                 Num   0%  50%  50%     0 /  0%   940 /  8%  2714 
   3 0RawPitch                  Num   0%  53%  47%     0 /  0%   980 /  8%  2609 
   4 0SmPitch                   Num   0%  51%  49%     0 /  0%   957 /  8%  2691 
   5 0Melogram(st)              Num   0%  46%  54%     0 /  0%   837 /  7%  2573 
   6 0ZCross                    Num   0% 100%   0%     0 /  0%    10 /  0%    40 
   7 0F1(Hz)                    Num   0%  50%  50%     0 /  0%  2281 / 19%  3977 
   8 0F2(Hz)                    Num   0%  50%  50%     0 /  0%  3848 / 32%  5158 
   9 0F3(Hz)                    Num   0%  50%  50%     0 /  0%  3419 / 28%  4850 
  10 0F4(Hz)                    Num   0%  50%  50%     0 /  0%  3319 / 27%  4764 
  11 1Int(dB)                   Num   0%  10%  90%     0 /  0%    10 /  0%   768 
  12 1Pitch(Hz)                 Num   0%  50%  50%     0 /  0%   941 /  8%  2715 
  13 1RawPitch                  Num   0%  53%  47%     0 /  0%   979 /  8%  2609 
  14 1SmPitch                   Num   0%  51%  49%     0 /  0%   957 /  8%  2691 
  15 1Melogram(st)              Num   0%  46%  54%     0 /  0%   838 /  7%  2574 
  16 1ZCross                    Num   0% 100%   0%     0 /  0%    10 /  0%    40 
  17 1F1(Hz)                    Num   0%  50%  50%     0 /  0%  2281 / 19%  3977 
  18 1F2(Hz)                    Num   0%  50%  50%     0 /  0%  3848 / 32%  5158 
  19 1F3(Hz)                    Num   0%  50%  50%     0 /  0%  3419 / 28%  4850 
  20 1F4(Hz)                    Num   0%  50%  50%     0 /  0%  3319 / 27%  4764 
  21 class                      Nom 100%   0%   0%     0 /  0%     0 /  0%    27 


Naive Bayes Classifier

                    Class
Attribute              ch        rr         0        hs        hg         a         c         b         e         d         g         f         i         j         m         l         o         n         q         p         s         r         u         t         v         y         z
                      (0)       (0)    (0.36)    (0.01)       (0)    (0.15)    (0.01)    (0.01)    (0.08)    (0.01)    (0.01)    (0.01)    (0.04)    (0.01)    (0.02)    (0.02)    (0.08)    (0.04)       (0)    (0.01)    (0.05)    (0.03)    (0.02)    (0.02)    (0.01)    (0.01)       (0)
==============================================================================================================================================================================================================================================================================================
0Int(dB)
  mean            -21.2846   -8.6381  -50.0118  -16.7971   -10.404   -4.1575  -28.2521    -5.883   -6.5035   -7.4766   -6.8885  -19.1545  -10.0663  -14.0943    -7.526   -7.7649   -8.9829   -8.1081  -27.0695  -23.9407  -19.6552  -10.2911   -7.1056  -27.8939   -9.0226  -15.5039  -26.9599
  std. dev.         9.6713     4.614   14.6113   11.2168     5.961     9.907   10.1778    4.3896    9.1484    6.0362    6.9817    7.3574    8.7445    6.9192    6.5909    5.8292   12.0392     7.029   13.7075   11.4771    8.3008    9.7589    9.4113    9.7107    9.0203    5.8791    1.5758
  weight sum            58        15      4417       140        34      1815       182        82       971       177        72        78       503        66       184       223       940       436        55       133       612       308       285       234        99        64         5
  precision         0.1005    0.1005    0.1005    0.1005    0.1005    0.1005    0.1005    0.1005    0.1005    0.1005    0.1005    0.1005    0.1005    0.1005    0.1005    0.1005    0.1005    0.1005    0.1005    0.1005    0.1005    0.1005    0.1005    0.1005    0.1005    0.1005    0.1005

0Pitch(Hz)
  mean             71.3926  249.9806   12.1245  111.6333  146.3717  220.5508   42.7375  215.3616  183.4717  200.0956   217.664  120.4689  170.1872  181.3775  192.6144  175.2293  178.6603   197.456   93.7352  108.2177   84.9448   165.327   222.874   78.7782  175.7986  126.5281         0
  std. dev.       106.2352  119.8025    48.346    86.708   35.6368  106.6533      85.7   75.0849   90.6248   81.8085   86.9212  126.4136    80.118  124.6141   85.1118   65.6602  105.9497   85.1645  117.1352  125.1257  107.9113   88.6022   96.7144  115.0122   81.6023   65.3095    0.0305
  weight sum            58        15      4417       140        34      1815       182        82       971       177        72        78       503        66       184       223       940       436        55       133       612       308       285       234        99        64         5
  precision         0.1828    0.1828    0.1828    0.1828    0.1828    0.1828    0.1828    0.1828    0.1828    0.1828    0.1828    0.1828    0.1828    0.1828    0.1828    0.1828    0.1828    0.1828    0.1828    0.1828    0.1828    0.1828    0.1828    0.1828    0.1828    0.1828    0.1828

0RawPitch
  mean             66.1337  244.2921    9.8324   95.7385  134.9784   211.289   30.5856  212.3257  179.2232  194.4351  207.3634   81.4434  160.6735  132.5369  182.9595  162.8328  170.2865  185.7362   69.0398   85.1137   64.8225  157.2248  214.8787   54.1389  162.7313   95.7888         0
  std. dev.       105.3047  114.2638   42.7162   91.8264   60.1769  110.3223   72.4463   76.3731   94.3626   90.2297   98.5622  104.6868   84.5436  112.8858   92.9779   73.8176  111.2599   97.0818  110.0885  120.5797   99.8872   95.9405  100.3251  103.3996   90.1133   75.9176    0.0317
  weight sum            58        15      4417       140        34      1815       182        82       971       177        72        78       503        66       184       223       940       436        55       133       612       308       285       234        99        64         5
  precision           0.19      0.19      0.19      0.19      0.19      0.19      0.19      0.19      0.19      0.19      0.19      0.19      0.19      0.19      0.19      0.19      0.19      0.19      0.19      0.19      0.19      0.19      0.19      0.19      0.19      0.19      0.19

0SmPitch
  mean             71.3187  249.9809   10.5802  105.2478   147.071  219.0794   33.7207  215.3574  181.7709  199.4185  212.5412   99.6654  167.6412  145.8489  191.1016   175.333  176.3381  195.1206   84.9856  103.0125   78.3357   158.141  222.2202   64.9835  173.2187  121.0157         0
  std. dev.       106.1016  119.8082   43.6586    85.967   34.7216  107.8621   75.6237   75.0845   92.0323   83.1714   93.8745  114.3519   82.3894   135.267    87.183   65.6042  107.6496    88.115  114.6189  126.4985  105.4657   94.4218    96.345  107.4413   84.0147   68.1208    0.0307
  weight sum            58        15      4417       140        34      1815       182        82       971       177        72        78       503        66       184       223       940       436        55       133       612       308       285       234        99        64         5
  precision         0.1841    0.1841    0.1841    0.1841    0.1841    0.1841    0.1841    0.1841    0.1841    0.1841    0.1841    0.1841    0.1841    0.1841    0.1841    0.1841    0.1841    0.1841    0.1841    0.1841    0.1841    0.1841    0.1841    0.1841    0.1841    0.1841    0.1841

0Melogram(st)
  mean             19.6077   57.1388    3.8382   34.1376   49.3225    52.205   12.7958   55.3031    49.433   53.0523   52.3404   32.1031   47.5936   27.4894   51.3832   51.8774    46.689   51.6353   21.7538   27.1281   23.2087   44.2946   51.8876   20.1019   49.9865   43.9625   10.4247
  std. dev.        27.1247    8.7514   13.9973   23.7583    4.4117   16.2015   23.2099    6.3821   16.6562   10.6126    15.624   27.3951    17.453   28.8032   13.3772    7.8647   20.4728   14.2841    27.897   28.6853   27.1687   21.1968   18.0236   27.1952    13.166   15.1598   20.8493
  weight sum            58        15      4417       140        34      1815       182        82       971       177        72        78       503        66       184       223       940       436        55       133       612       308       285       234        99        64         5
  precision         0.0321    0.0321    0.0321    0.0321    0.0321    0.0321    0.0321    0.0321    0.0321    0.0321    0.0321    0.0321    0.0321    0.0321    0.0321    0.0321    0.0321    0.0321    0.0321    0.0321    0.0321    0.0321    0.0321    0.0321    0.0321    0.0321    0.0321

0ZCross
  mean               5.779    3.8957    0.1445    1.5278    3.3077    6.9738    0.8481    3.6707      4.81    3.8123    4.6706    0.9753    3.4699    3.8924     3.044    3.4956    4.0255    3.0573    1.9245    1.0611    3.4951    3.5941    3.6946    0.3298    3.5082    1.6538         0
  std. dev.          9.928    2.2727    0.8058    1.8477    2.1393    4.4735    2.3971    1.6788    3.2495    2.0932    2.6149     1.656    3.3736    3.6478    1.8914    2.0267    3.4165    2.0939     3.649     2.729    6.0768    2.6275    3.0049    0.9858    2.1565     1.765    0.1838
  weight sum            58        15      4417       140        34      1815       182        82       971       177        72        78       503        66       184       223       940       436        55       133       612       308       285       234        99        64         5
  precision         1.1026    1.1026    1.1026    1.1026    1.1026    1.1026    1.1026    1.1026    1.1026    1.1026    1.1026    1.1026    1.1026    1.1026    1.1026    1.1026    1.1026    1.1026    1.1026    1.1026    1.1026    1.1026    1.1026    1.1026    1.1026    1.1026    1.1026

0F1(Hz)
  mean            250.0914  540.4684   44.4946  460.2331  449.0433   664.627  122.9102  468.9733  448.7867  510.9363  525.8346  402.7725  347.8788  535.7815  445.8913  489.8805  460.8448  507.8223  198.2356  317.8602  292.5534  516.0583  479.4518  165.6477  496.6532  369.6068         0
  std. dev.       303.4198    187.58  156.5552  263.9602   82.5521   286.434  230.0997  132.5848  167.2097  140.7084  172.0577  328.0792  165.9413  288.1008  162.9588  148.5956  237.0895  152.5682  239.9157  313.0359  309.3148  221.7622  324.8579  231.0072  173.7959  172.1146     0.073
  weight sum            58        15      4417       140        34      1815       182        82       971       177        72        78       503        66       184       223       940       436        55       133       612       308       285       234        99        64         5
  precision          0.438     0.438     0.438     0.438     0.438     0.438     0.438     0.438     0.438     0.438     0.438     0.438     0.438     0.438     0.438     0.438     0.438     0.438     0.438     0.438     0.438     0.438     0.438     0.438     0.438     0.438     0.438

0F2(Hz)
  mean            761.0023  1585.983  133.6062 1335.8024 1948.8844 1411.2646  378.9585 1602.3278 1697.5367 1494.7328 1769.2148 1054.9849  1816.924 1593.7474 1666.0683  1664.865 1136.7816 1648.9076  849.9694  949.1628  904.2162 1418.5974 1012.0156  579.1114 1528.5249  1393.522         0
  std. dev.       879.5048  442.8865  464.3597  748.1748  361.5875   483.234  720.3432  358.5885  606.8332  278.4461  473.0726  836.6685  769.2522  746.5195  462.8215  379.5826   583.467  412.2239  999.7849  886.8005  920.1743  561.2007  498.3854  782.5506  469.4822  581.5237    0.0963
  weight sum            58        15      4417       140        34      1815       182        82       971       177        72        78       503        66       184       223       940       436        55       133       612       308       285       234        99        64         5
  precision         0.5776    0.5776    0.5776    0.5776    0.5776    0.5776    0.5776    0.5776    0.5776    0.5776    0.5776    0.5776    0.5776    0.5776    0.5776    0.5776    0.5776    0.5776    0.5776    0.5776    0.5776    0.5776    0.5776    0.5776    0.5776    0.5776    0.5776

0F3(Hz)
  mean           1260.1922 2658.6116  231.1113 2191.5429 2548.0488 2621.2562   670.982 2770.4978 2529.5236 2872.1485 3038.7871 1797.7158 2497.6197 2304.2154 2790.6686 2770.6291 2424.0221 2826.3944 1259.9252 1590.9878 1514.9732 2478.8106 2541.1097 1068.4595 2637.8065 2473.9069         0
  std. dev.      1460.1355  800.8591  786.3537 1135.9121  117.8871  877.3993 1240.7279  453.3517  892.9521  378.7918  719.1425 1418.9442 1063.4499 1084.9562  575.6843  599.2229 1093.5808  555.5731 1437.0492 1478.8939 1515.6148    980.19  990.0091  1419.254  780.9441 1054.5855    0.1416
  weight sum            58        15      4417       140        34      1815       182        82       971       177        72        78       503        66       184       223       940       436        55       133       612       308       285       234        99        64         5
  precision         0.8494    0.8494    0.8494    0.8494    0.8494    0.8494    0.8494    0.8494    0.8494    0.8494    0.8494    0.8494    0.8494    0.8494    0.8494    0.8494    0.8494    0.8494    0.8494    0.8494    0.8494    0.8494    0.8494    0.8494    0.8494    0.8494    0.8494

0F4(Hz)
  mean           1467.9942 3065.5121   277.447 2698.0749  3580.194 3025.4565  746.1066 3307.3771 3071.5364 3364.2827 3022.0342 2062.7171 2991.7043 2867.7883 3310.3857 3203.4712 2797.3211 3237.3338 1513.3032 1829.9252 1705.4187 2894.6122 2890.5441 1173.5735 3146.9171 2822.3712         0
  std. dev.      1698.0425   924.213  942.3686 1383.3367  101.1704 1002.2633 1383.9909  447.6939 1053.8859  394.5159  721.0039 1610.6178 1236.9689 1324.4549  617.8865  633.5254  1248.566  626.2945 1744.0692 1678.9036 1702.1861 1075.7808 1057.0684 1565.9515  866.9696 1184.4807    0.1451
  weight sum            58        15      4417       140        34      1815       182        82       971       177        72        78       503        66       184       223       940       436        55       133       612       308       285       234        99        64         5
  precision         0.8707    0.8707    0.8707    0.8707    0.8707    0.8707    0.8707    0.8707    0.8707    0.8707    0.8707    0.8707    0.8707    0.8707    0.8707    0.8707    0.8707    0.8707    0.8707    0.8707    0.8707    0.8707    0.8707    0.8707    0.8707    0.8707    0.8707

1Int(dB)
  mean            -19.9241  -10.0857  -50.5579  -20.3441  -10.8859   -3.3275  -24.5797   -5.9761   -5.5049   -7.8361   -7.3814  -21.3582   -9.1576  -15.5747   -7.6522   -8.2874   -8.3852   -9.3446  -22.7599  -23.1366  -21.4103  -11.9138   -5.5692  -25.6274    -8.786   -15.851  -27.6233
  std. dev.         8.7568    4.0742   13.7499   11.4098    5.8423    8.5772    9.2384    4.2448    8.2833    6.2597    7.5828    5.6522    8.3719    5.9541    5.8929    5.7665   12.0282    7.7338   10.9898   10.2483    6.9681    9.7822    7.6498    9.3441    6.8928    4.6955    2.2988
  weight sum            58        15      4417       140        34      1815       182        82       971       177        72        78       503        66       184       223       940       436        55       133       612       308       285       234        99        64         5
  precision         0.1005    0.1005    0.1005    0.1005    0.1005    0.1005    0.1005    0.1005    0.1005    0.1005    0.1005    0.1005    0.1005    0.1005    0.1005    0.1005    0.1005    0.1005    0.1005    0.1005    0.1005    0.1005    0.1005    0.1005    0.1005    0.1005    0.1005

1Pitch(Hz)
  mean             67.5252  249.5961    9.3571   91.9198   147.253  225.0079   74.1457  214.4821  189.9846  199.2072  215.8451   100.462  175.8084  168.6894  194.1565  174.3313  180.3637  191.6244  104.9485  106.3819   66.8505  163.2202  231.3108    98.347  181.4565   125.859         0
  std. dev.       107.9579  123.2075    43.029   86.3251   36.7152  102.2119  107.8152   73.5402   87.3032   83.2243   91.5699  123.2721   73.8088  126.5758   84.7792   63.5247  102.9621   88.4507  122.3126   119.806  101.3207   92.1643   84.4017  118.7236   72.0404   65.1401    0.0305
  weight sum            58        15      4417       140        34      1815       182        82       971       177        72        78       503        66       184       223       940       436        55       133       612       308       285       234        99        64         5
  precision         0.1828    0.1828    0.1828    0.1828    0.1828    0.1828    0.1828    0.1828    0.1828    0.1828    0.1828    0.1828    0.1828    0.1828    0.1828    0.1828    0.1828    0.1828    0.1828    0.1828    0.1828    0.1828    0.1828    0.1828    0.1828    0.1828    0.1828

1RawPitch
  mean             59.4185  235.9578    7.3672   76.0431  138.1132   215.767   49.4982  212.1658  186.8578  194.0122  203.5794   58.8099  168.3408  119.1223  184.1232  160.0017  174.1912  179.8195   69.1779   80.1211     44.71  158.4672  222.5963   70.8257  167.9801   93.1794         0
  std. dev.       100.6472  129.4433   36.8732   88.9827   61.4338  106.4781    88.076   75.2327   91.2535   91.7751  105.2011   91.4137   79.5481  106.2356   94.6293   73.5007  108.1025   99.7657  114.2125  113.7475   86.6102   95.6003   90.9444  110.5563   80.4602   74.3693    0.0317
  weight sum            58        15      4417       140        34      1815       182        82       971       177        72        78       503        66       184       223       940       436        55       133       612       308       285       234        99        64         5
  precision           0.19      0.19      0.19      0.19      0.19      0.19      0.19      0.19      0.19      0.19      0.19      0.19      0.19      0.19      0.19      0.19      0.19      0.19      0.19      0.19      0.19      0.19      0.19      0.19      0.19      0.19      0.19

1SmPitch
  mean             67.1323  249.6004    8.0627   84.9611   149.096  223.5892    64.147  214.4752  188.6266  198.3639  210.7412   79.4888  174.1996  134.3991  192.1171  174.4332  178.2642  189.2256   85.2601    96.716   58.5455  158.2103  230.9021   82.7693  179.1244  120.3713         0
  std. dev.        107.248  123.1903   38.1417   84.4039   34.3343   103.339  103.6883   73.5515   88.6539   84.9657   98.1062  106.9451   75.9109  135.4847   87.7433   63.4898  104.6347   91.0463  115.0944  121.6385   96.1366    95.792   84.0603  114.5351   74.6904   67.9226    0.0307
  weight sum            58        15      4417       140        34      1815       182        82       971       177        72        78       503        66       184       223       940       436        55       133       612       308       285       234        99        64         5
  precision         0.1841    0.1841    0.1841    0.1841    0.1841    0.1841    0.1841    0.1841    0.1841    0.1841    0.1841    0.1841    0.1841    0.1841    0.1841    0.1841    0.1841    0.1841    0.1841    0.1841    0.1841    0.1841    0.1841    0.1841    0.1841    0.1841    0.1841

1Melogram(st)
  mean             20.0597   56.8963    3.0759   28.5854   49.4194   53.5948   19.6867   55.2672   50.9897   52.6514   51.6383   27.1563    49.433   24.4046   51.4935   51.2416   47.3663   50.3765    22.656   27.4207    18.661   43.4271   54.7393   23.2145   51.6257   43.8803         0
  std. dev.        27.7197    9.0716   12.6713   24.8974    4.4238   13.6867   26.9586    6.3062   14.4101   11.4213   16.8042    27.662   14.7392   28.7738   13.4066    9.1948   19.6193   15.9841   27.9723   28.5387   26.1777   22.0374   13.2895   28.1608    9.6493   15.1305    0.0053
  weight sum            58        15      4417       140        34      1815       182        82       971       177        72        78       503        66       184       223       940       436        55       133       612       308       285       234        99        64         5
  precision         0.0321    0.0321    0.0321    0.0321    0.0321    0.0321    0.0321    0.0321    0.0321    0.0321    0.0321    0.0321    0.0321    0.0321    0.0321    0.0321    0.0321    0.0321    0.0321    0.0321    0.0321    0.0321    0.0321    0.0321    0.0321    0.0321    0.0321

1ZCross
  mean              7.6799    3.3812    0.1006    1.0002    3.1131    7.1475    1.4721    3.9262    4.8701    3.8434    4.4562     0.622    3.5072     3.742    2.7804     3.194    4.0889    2.4732    3.7888    0.8622    3.4933    3.0822    3.8532    0.6502    3.2966    1.4471         0
  std. dev.         11.511     2.294      0.68    1.5306    2.1802    4.3444    2.9722     1.688    2.9907    2.0838    2.5024    1.3629    3.0758    3.6662     1.503     1.776     2.998     1.643    5.4453    2.2557    6.3896    2.3474    2.8492    1.3341    1.8509    1.5455    0.1838
  weight sum            58        15      4417       140        34      1815       182        82       971       177        72        78       503        66       184       223       940       436        55       133       612       308       285       234        99        64         5
  precision         1.1026    1.1026    1.1026    1.1026    1.1026    1.1026    1.1026    1.1026    1.1026    1.1026    1.1026    1.1026    1.1026    1.1026    1.1026    1.1026    1.1026    1.1026    1.1026    1.1026    1.1026    1.1026    1.1026    1.1026    1.1026    1.1026    1.1026

1F1(Hz)
  mean            188.4276  599.5146   34.4817  406.6466  444.7532  705.7283  127.8946  472.8354  469.1052  515.2919  510.8869    331.11  370.0223  514.7495  436.5593  473.5006  487.7924  471.9452  219.1654  280.4994  221.2493   492.786  504.5577  163.3452  490.2597  361.4964         0
  std. dev.        283.058  131.9453  138.1328  293.7037   83.2706  248.1314   233.038  132.4207  136.7924  145.0907  175.1628  340.3969  133.9826  318.7919  153.6367  132.2957   218.941  155.0509  254.0063  304.7934  294.8042  227.0181   299.786  234.0141  163.6854  167.8174     0.073
  weight sum            58        15      4417       140        34      1815       182        82       971       177        72        78       503        66       184       223       940       436        55       133       612       308       285       234        99        64         5
  precision          0.438     0.438     0.438     0.438     0.438     0.438     0.438     0.438     0.438     0.438     0.438     0.438     0.438     0.438     0.438     0.438     0.438     0.438     0.438     0.438     0.438     0.438     0.438     0.438     0.438     0.438     0.438

1F2(Hz)
  mean             582.254 1655.3339  104.1698 1173.6939 1937.6721 1470.2135  378.8919 1567.9815 1803.6497 1484.1532 1734.4383  863.4872 2010.9745 1447.8501 1679.3752 1679.8878 1164.8777 1613.5559  867.8857  834.5412  697.8769 1395.3507 1075.9553  551.2507 1565.2815  1426.653         0
  std. dev.       838.4484  122.6896   412.975  827.3545  346.9736  382.5825  705.1441   345.791  490.0179  291.7647  519.4319  859.4324  600.2718  822.8275  408.7755  329.2422   526.346  450.5673  982.4149  869.0002  897.9368  596.7515   411.661  767.3792  381.4164   592.755    0.0963
  weight sum            58        15      4417       140        34      1815       182        82       971       177        72        78       503        66       184       223       940       436        55       133       612       308       285       234        99        64         5
  precision         0.5776    0.5776    0.5776    0.5776    0.5776    0.5776    0.5776    0.5776    0.5776    0.5776    0.5776    0.5776    0.5776    0.5776    0.5776    0.5776    0.5776    0.5776    0.5776    0.5776    0.5776    0.5776    0.5776    0.5776    0.5776    0.5776    0.5776

1F3(Hz)
  mean            956.7836 2879.6341  180.9842 1917.1397 2531.3849 2737.7643  688.8201 2757.8703 2651.8402 2866.2889 2990.6054 1469.8674 2714.2403 2123.7495  2788.882 2812.7732 2529.7403 2771.4618 1304.6053 1416.4517  1162.571 2419.9212 2728.7599 1006.6215 2698.2621 2479.1893         0
  std. dev.      1378.1536  412.1341  703.2706 1283.8867   113.605  702.1935 1233.8388  461.2274  731.0473  431.5143  804.4948 1462.0673  831.8369 1192.6206  501.5001  549.4819  990.6689  651.1415 1435.0242 1462.0442 1476.1604 1040.8353   731.591 1385.4742  643.6519 1054.0813    0.1416
  weight sum            58        15      4417       140        34      1815       182        82       971       177        72        78       503        66       184       223       940       436        55       133       612       308       285       234        99        64         5
  precision         0.8494    0.8494    0.8494    0.8494    0.8494    0.8494    0.8494    0.8494    0.8494    0.8494    0.8494    0.8494    0.8494    0.8494    0.8494    0.8494    0.8494    0.8494    0.8494    0.8494    0.8494    0.8494    0.8494    0.8494    0.8494    0.8494    0.8494

1F4(Hz)
  mean           1135.0531 3224.5544  217.2523 2364.2228  3591.692 3153.4622  804.2501 3299.2119 3206.8695 3354.8725 2990.2306 1683.5627 3233.1412 2674.6579 3339.9885 3238.2355 2916.3463 3186.2299  1564.736 1663.0119 1312.9842 2813.9735 3100.5588 1137.6491 3250.7027 2825.3097         0
  std. dev.      1634.2344  419.0741  842.5928 1570.8431   92.2165  795.7984 1443.5944  441.7568  845.6004  465.2171  811.3198 1660.0541  946.7373 1484.3649  523.4237  553.8865 1123.3047  750.6649 1735.2537 1691.4533 1664.3677 1153.6107  725.9921 1573.2029  666.8328 1186.6186    0.1451
  weight sum            58        15      4417       140        34      1815       182        82       971       177        72        78       503        66       184       223       940       436        55       133       612       308       285       234        99        64         5
  precision         0.8707    0.8707    0.8707    0.8707    0.8707    0.8707    0.8707    0.8707    0.8707    0.8707    0.8707    0.8707    0.8707    0.8707    0.8707    0.8707    0.8707    0.8707    0.8707    0.8707    0.8707    0.8707    0.8707    0.8707    0.8707    0.8707    0.8707





=== Stratified cross-validation ===

Correctly Classified Instances        4129               33.8776 %
Incorrectly Classified Instances      8059               66.1224 %
Kappa statistic                          0.2569
K&B Relative Info Score             273638.171  %
K&B Information Score                 9251.7344 bits      0.7591 bits/instance
Class complexity | order 0           41119.6666 bits      3.3738 bits/instance
Class complexity | scheme           306565.7173 bits     25.1531 bits/instance
Complexity improvement     (Sf)    -265446.0507 bits    -21.7793 bits/instance
Mean absolute error                      0.0493
Root mean squared error                  0.2013
Relative absolute error                 80.5782 %
Root relative squared error            115.1047 %
Coverage of cases (0.95 level)          46.0781 %
Mean rel. region size (0.95 level)       9.0657 %
Total Number of Instances            12188     


=== Detailed Accuracy By Class ===

                 TP Rate  FP Rate  Precision  Recall   F-Measure  MCC      ROC Area  PRC Area  Class
                 0,138    0,003    0,174      0,138    0,154      0,151    0,770     0,083     ch
                 0,133    0,009    0,019      0,133    0,033      0,047    0,780     0,013     rr
                 0,633    0,017    0,954      0,633    0,761      0,693    0,949     0,930     0
                 0,093    0,022    0,047      0,093    0,062      0,051    0,716     0,037     hs
                 0,824    0,132    0,017      0,824    0,034      0,107    0,939     0,071     hg
                 0,458    0,046    0,634      0,458    0,532      0,473    0,870     0,596     a
                 0,143    0,013    0,140      0,143    0,141      0,128    0,606     0,077     c
                 0,280    0,093    0,020      0,280    0,037      0,052    0,823     0,022     b
                 0,063    0,004    0,555      0,063    0,113      0,167    0,741     0,224     e
                 0,040    0,036    0,016      0,040    0,023      0,002    0,781     0,032     d
                 0,042    0,005    0,046      0,042    0,044      0,038    0,763     0,025     g
                 0,038    0,005    0,046      0,038    0,042      0,037    0,654     0,029     f
                 0,078    0,004    0,438      0,078    0,132      0,171    0,824     0,227     i
                 0,106    0,001    0,292      0,106    0,156      0,173    0,785     0,126     j
                 0,000    0,001    0,000      0,000    0,000      -0,005   0,779     0,036     m
                 0,296    0,055    0,091      0,296    0,139      0,137    0,827     0,068     l
                 0,017    0,005    0,219      0,017    0,032      0,041    0,724     0,159     o
                 0,016    0,017    0,035      0,016    0,022      -0,001   0,764     0,074     n
                 0,018    0,000    0,143      0,018    0,032      0,049    0,714     0,038     q
                 0,000    0,002    0,000      0,000    0,000      -0,004   0,651     0,030     p
                 0,157    0,007    0,552      0,157    0,244      0,276    0,669     0,272     s
                 0,019    0,002    0,188      0,019    0,035      0,053    0,701     0,059     r
                 0,158    0,005    0,441      0,158    0,233      0,254    0,843     0,209     u
                 0,124    0,022    0,098      0,124    0,110      0,091    0,616     0,069     t
                 0,000    0,000    0,000      0,000    0,000      -0,001   0,737     0,015     v
                 0,156    0,019    0,041      0,156    0,065      0,071    0,862     0,051     y
                 0,800    0,152    0,002      0,800    0,004      0,037    0,929     0,004     z
Weighted Avg.    0,339    0,019    0,574      0,339    0,402      0,376    0,835     0,496     


=== Confusion Matrix ===

    a    b    c    d    e    f    g    h    i    j    k    l    m    n    o    p    q    r    s    t    u    v    w    x    y    z   aa   <-- classified as
    8    0    3    3    0    4    6    1    0    3    0    0    0    1    0    3    0    1    0    0   11    1    0    4    0    0    9 |    a = ch
    0    2    0    0    8    3    0    1    0    0    0    0    0    0    0    0    0    0    0    0    0    0    1    0    0    0    0 |    b = rr
    0    6 2798   56   58    5    7   21    1   37    0   10    7    1    1   23    2   36    0    2   15    1    4   51    0   19 1256 |    c = 0
    0    2    6   13   43    4    0    8    1    3    0    4    0    0    0    8    0    2    0    0    6    2    0    7    0   10   21 |    d = hs
    0    0    0    0   28    0    0    1    0    0    0    0    0    0    0    2    0    1    0    0    0    0    0    0    0    2    0 |    e = hg
    1    9   19   23  261  831   18  180   10  194    3    1    4    3    0  106   25   16    2    4    5    5   16   34    0   14   31 |    f = a
    2    0   18    8    5    1   26    2    0    0    0    2    2    0    0    2    4    5    1    1   13    1    1   19    0    1   68 |    g = c
    0    3    0    0   25    7    0   23    0    3    3    0    0    0    0   14    0    0    0    0    0    0    3    0    0    1    0 |    h = b
    1   17    4   20  364  114   14  173   61   18   21    0   14    0    0   62    9   13    1    1    3    2    2   21    0   11   25 |    i = e
    0    6    1    3   53   17    0   54    0    7    2    0    0    0    0   27    0    1    0    0    0    0    0    0    0    6    0 |    j = d
    0    3    0    3   20   10    0   17    0    3    3    0    0    0    0   10    0    0    0    0    1    0    0    0    0    0    2 |    k = g
    0    1    0    7    8    4    3    4    0    2    0    3    0    0    0    2    0    5    0    0    6    1    0    8    0    3   21 |    l = f
    3    1    4   11  125   23    7   94   19    0   10    1   39    0   13   70    2    3    0    4    1    0    2   21    0   37   13 |    m = i
    0    1    2    8    4   10    1    5    3    0    0    2    2    7    0    1    1    6    0    1    3    3    0    0    0    0    6 |    n = j
    0    2    0    6   69   11    0   47    0    3    4    0    0    0    0   32    0    1    0    0    0    0    0    2    0    5    2 |    o = m
    0    6    0    2   77   11    2   37    1    6    0    1    1    0    0   66    0    2    0    0    0    0    1    2    0    8    0 |    p = l
    3   18    6   29  161  114    7  189    3   94    2    0    6    1    1  107   16   12    0    5    2    1   22   22    0   41   78 |    q = o
    0   15    0   18  118   30    0  118    1   12    6    2    7    0    0   64    0    7    0    0    0    0    1    7    0   23    7 |    r = n
    1    0   11    2    4    2    8    0    1    2    0    2    0    2    1    0    0    6    1    0    3    1    0    1    0    0    7 |    s = q
    0    0    8    7    8    7    8    4    0    6    0    4    0    0    0    3    1   13    0    0    3    2    1   23    0    4   31 |    t = p
   27    2   31   28   30   27   46   11    4   17    5   23    3    8    1   21    1   40    0    1   96    5    0   10    0   17  158 |    u = s
    0    4    3   17   58   32    1   47    1   14    6    3    0    1    0   56    1    9    0    0    3    6    1   16    1    7   21 |    v = r
    0    3    0    3   19   36    7   89    1   12    0    1    3    0    0   31    7    1    0    0    1    1   45   10    0   13    2 |    w = u
    0    4   17    8   17    1   22    1    0    5    0    5    1    0    0    0    4   18    2    3    1    0    1   29    0    7   88 |    x = t
    0    1    0    1   46    6    1   21    3    2    0    0    0    0    1    8    0    1    0    0    0    0    0    3    0    4    1 |    y = v
    0    0    1    1   28    0    2    4    0    0    0    1    0    0    0    6    0    3    0    0    1    0    1    5    0   10    1 |    z = y
    0    0    1    0    0    0    0    0    0    0    0    0    0    0    0    0    0    0    0    0    0    0    0    0    0    0    4 |   aa = z

=== Percent Confusion Matrix ===
a	b	c	d	e	f	g	h	i	j	k	l	m	n	o	p	q	r	s	t	u	v	w	x	y	z	aa	
13.79	0.0	5.17	5.17	0.0	6.9	10.34	1.72	0.0	5.17	0.0	0.0	0.0	1.72	0.0	5.17	0.0	1.72	0.0	0.0	18.97	1.72	0.0	6.9	0.0	0.0	15.52	 a = ch
0.0	13.33	0.0	0.0	53.33	20.0	0.0	6.67	0.0	0.0	0.0	0.0	0.0	0.0	0.0	0.0	0.0	0.0	0.0	0.0	0.0	0.0	6.67	0.0	0.0	0.0	0.0	 b = rr
0.0	0.14	63.35	1.27	1.31	0.11	0.16	0.48	0.02	0.84	0.0	0.23	0.16	0.02	0.02	0.52	0.05	0.82	0.0	0.05	0.34	0.02	0.09	1.15	0.0	0.43	28.44	 c = 0
0.0	1.43	4.29	9.29	30.71	2.86	0.0	5.71	0.71	2.14	0.0	2.86	0.0	0.0	0.0	5.71	0.0	1.43	0.0	0.0	4.29	1.43	0.0	5.0	0.0	7.14	15.0	 d = hs
0.0	0.0	0.0	0.0	82.35	0.0	0.0	2.94	0.0	0.0	0.0	0.0	0.0	0.0	0.0	5.88	0.0	2.94	0.0	0.0	0.0	0.0	0.0	0.0	0.0	5.88	0.0	 e = hg
0.06	0.5	1.05	1.27	14.38	45.79	0.99	9.92	0.55	10.69	0.17	0.06	0.22	0.17	0.0	5.84	1.38	0.88	0.11	0.22	0.28	0.28	0.88	1.87	0.0	0.77	1.71	 f = a
1.1	0.0	9.89	4.4	2.75	0.55	14.29	1.1	0.0	0.0	0.0	1.1	1.1	0.0	0.0	1.1	2.2	2.75	0.55	0.55	7.14	0.55	0.55	10.44	0.0	0.55	37.36	 g = c
0.0	3.66	0.0	0.0	30.49	8.54	0.0	28.05	0.0	3.66	3.66	0.0	0.0	0.0	0.0	17.07	0.0	0.0	0.0	0.0	0.0	0.0	3.66	0.0	0.0	1.22	0.0	 h = b
0.1	1.75	0.41	2.06	37.49	11.74	1.44	17.82	6.28	1.85	2.16	0.0	1.44	0.0	0.0	6.39	0.93	1.34	0.1	0.1	0.31	0.21	0.21	2.16	0.0	1.13	2.57	 i = e
0.0	3.39	0.56	1.69	29.94	9.6	0.0	30.51	0.0	3.95	1.13	0.0	0.0	0.0	0.0	15.25	0.0	0.56	0.0	0.0	0.0	0.0	0.0	0.0	0.0	3.39	0.0	 j = d
0.0	4.17	0.0	4.17	27.78	13.89	0.0	23.61	0.0	4.17	4.17	0.0	0.0	0.0	0.0	13.89	0.0	0.0	0.0	0.0	1.39	0.0	0.0	0.0	0.0	0.0	2.78	 k = g
0.0	1.28	0.0	8.97	10.26	5.13	3.85	5.13	0.0	2.56	0.0	3.85	0.0	0.0	0.0	2.56	0.0	6.41	0.0	0.0	7.69	1.28	0.0	10.26	0.0	3.85	26.92	 l = f
0.6	0.2	0.8	2.19	24.85	4.57	1.39	18.69	3.78	0.0	1.99	0.2	7.75	0.0	2.58	13.92	0.4	0.6	0.0	0.8	0.2	0.0	0.4	4.17	0.0	7.36	2.58	 m = i
0.0	1.52	3.03	12.12	6.06	15.15	1.52	7.58	4.55	0.0	0.0	3.03	3.03	10.61	0.0	1.52	1.52	9.09	0.0	1.52	4.55	4.55	0.0	0.0	0.0	0.0	9.09	 n = j
0.0	1.09	0.0	3.26	37.5	5.98	0.0	25.54	0.0	1.63	2.17	0.0	0.0	0.0	0.0	17.39	0.0	0.54	0.0	0.0	0.0	0.0	0.0	1.09	0.0	2.72	1.09	 o = m
0.0	2.69	0.0	0.9	34.53	4.93	0.9	16.59	0.45	2.69	0.0	0.45	0.45	0.0	0.0	29.6	0.0	0.9	0.0	0.0	0.0	0.0	0.45	0.9	0.0	3.59	0.0	 p = l
0.32	1.91	0.64	3.09	17.13	12.13	0.74	20.11	0.32	10.0	0.21	0.0	0.64	0.11	0.11	11.38	1.7	1.28	0.0	0.53	0.21	0.11	2.34	2.34	0.0	4.36	8.3	 q = o
0.0	3.44	0.0	4.13	27.06	6.88	0.0	27.06	0.23	2.75	1.38	0.46	1.61	0.0	0.0	14.68	0.0	1.61	0.0	0.0	0.0	0.0	0.23	1.61	0.0	5.28	1.61	 r = n
1.82	0.0	20.0	3.64	7.27	3.64	14.55	0.0	1.82	3.64	0.0	3.64	0.0	3.64	1.82	0.0	0.0	10.91	1.82	0.0	5.45	1.82	0.0	1.82	0.0	0.0	12.73	 s = q
0.0	0.0	6.02	5.26	6.02	5.26	6.02	3.01	0.0	4.51	0.0	3.01	0.0	0.0	0.0	2.26	0.75	9.77	0.0	0.0	2.26	1.5	0.75	17.29	0.0	3.01	23.31	 t = p
4.41	0.33	5.07	4.58	4.9	4.41	7.52	1.8	0.65	2.78	0.82	3.76	0.49	1.31	0.16	3.43	0.16	6.54	0.0	0.16	15.69	0.82	0.0	1.63	0.0	2.78	25.82	 u = s
0.0	1.3	0.97	5.52	18.83	10.39	0.32	15.26	0.32	4.55	1.95	0.97	0.0	0.32	0.0	18.18	0.32	2.92	0.0	0.0	0.97	1.95	0.32	5.19	0.32	2.27	6.82	 v = r
0.0	1.05	0.0	1.05	6.67	12.63	2.46	31.23	0.35	4.21	0.0	0.35	1.05	0.0	0.0	10.88	2.46	0.35	0.0	0.0	0.35	0.35	15.79	3.51	0.0	4.56	0.7	 w = u
0.0	1.71	7.26	3.42	7.26	0.43	9.4	0.43	0.0	2.14	0.0	2.14	0.43	0.0	0.0	0.0	1.71	7.69	0.85	1.28	0.43	0.0	0.43	12.39	0.0	2.99	37.61	 x = t
0.0	1.01	0.0	1.01	46.46	6.06	1.01	21.21	3.03	2.02	0.0	0.0	0.0	0.0	1.01	8.08	0.0	1.01	0.0	0.0	0.0	0.0	0.0	3.03	0.0	4.04	1.01	 y = v
0.0	0.0	1.56	1.56	43.75	0.0	3.13	6.25	0.0	0.0	0.0	1.56	0.0	0.0	0.0	9.38	0.0	4.69	0.0	0.0	1.56	0.0	1.56	7.81	0.0	15.63	1.56	 z = y
0.0	0.0	20.0	0.0	0.0	0.0	0.0	0.0	0.0	0.0	0.0	0.0	0.0	0.0	0.0	0.0	0.0	0.0	0.0	0.0	0.0	0.0	0.0	0.0	0.0	0.0	80.0	 aa = z
