Timestamp:2013-07-22-20:45:08
Inventario:I0
Intervalo:15ms
Ngramas:1
Clasificador:RandomForest
Relation Name:  I0-15ms-1gramas
Num Instances:  12189
Num Attributes: 11

     Name                      Type  Nom  Int Real     Missing      Unique  Dist
   1 0Int(dB)                   Num   0%  10%  90%     0 /  0%    10 /  0%   768 
   2 0Pitch(Hz)                 Num   0%  50%  50%     0 /  0%   941 /  8%  2715 
   3 0RawPitch                  Num   0%  53%  47%     0 /  0%   979 /  8%  2609 
   4 0SmPitch                   Num   0%  51%  49%     0 /  0%   957 /  8%  2691 
   5 0Melogram(st)              Num   0%  46%  54%     0 /  0%   838 /  7%  2574 
   6 0ZCross                    Num   0% 100%   0%     0 /  0%    10 /  0%    40 
   7 0F1(Hz)                    Num   0%  50%  50%     0 /  0%  2281 / 19%  3977 
   8 0F2(Hz)                    Num   0%  50%  50%     0 /  0%  3848 / 32%  5158 
   9 0F3(Hz)                    Num   0%  50%  50%     0 /  0%  3419 / 28%  4850 
  10 0F4(Hz)                    Num   0%  50%  50%     0 /  0%  3319 / 27%  4764 
  11 class                      Nom 100%   0%   0%     0 /  0%     0 /  0%    27 


Options: -I 10 -K 0 -S 1 -num-slots 4 

Random forest of 10 trees, each constructed while considering 4 random features.
Out of bag error: 0.3639





=== Stratified cross-validation ===

Correctly Classified Instances        8331               68.3485 %
Incorrectly Classified Instances      3858               31.6515 %
Kappa statistic                          0.6102
K&B Relative Info Score             709178.9315 %
K&B Information Score                23969.6471 bits      1.9665 bits/instance
Class complexity | order 0           41121.1307 bits      3.3736 bits/instance
Class complexity | scheme          1711347.3041 bits    140.401  bits/instance
Complexity improvement     (Sf)    -1670226.1734 bits   -137.0273 bits/instance
Mean absolute error                      0.0302
Root mean squared error                  0.1274
Relative absolute error                 49.3891 %
Root relative squared error             72.8339 %
Coverage of cases (0.95 level)          86.7996 %
Mean rel. region size (0.95 level)      11.3736 %
Total Number of Instances            12189     


=== Detailed Accuracy By Class ===

                 TP Rate  FP Rate  Precision  Recall   F-Measure  MCC      ROC Area  PRC Area  Class
                 0,103    0,003    0,133      0,103    0,117      0,114    0,685     0,059     ch
                 0,067    0,000    0,143      0,067    0,091      0,097    0,730     0,068     rr
                 0,932    0,080    0,868      0,932    0,899      0,839    0,971     0,954     0
                 0,171    0,005    0,286      0,171    0,214      0,214    0,703     0,103     hs
                 0,324    0,001    0,407      0,324    0,361      0,361    0,862     0,260     hg
                 0,833    0,055    0,727      0,833    0,776      0,736    0,947     0,846     a
                 0,154    0,010    0,194      0,154    0,172      0,162    0,719     0,087     c
                 0,280    0,004    0,333      0,280    0,305      0,301    0,834     0,203     b
                 0,692    0,050    0,543      0,692    0,608      0,575    0,917     0,619     e
                 0,237    0,007    0,336      0,237    0,278      0,274    0,846     0,204     d
                 0,250    0,001    0,514      0,250    0,336      0,356    0,858     0,280     g
                 0,115    0,003    0,205      0,115    0,148      0,150    0,682     0,077     f
                 0,650    0,018    0,609      0,650    0,629      0,613    0,911     0,615     i
                 0,197    0,002    0,394      0,197    0,263      0,276    0,770     0,185     j
                 0,429    0,006    0,506      0,429    0,465      0,459    0,872     0,383     m
                 0,368    0,008    0,469      0,368    0,412      0,406    0,875     0,341     l
                 0,591    0,036    0,577      0,591    0,584      0,549    0,878     0,598     o
                 0,475    0,015    0,545      0,475    0,507      0,492    0,908     0,506     n
                 0,109    0,001    0,300      0,109    0,160      0,179    0,658     0,069     q
                 0,098    0,006    0,160      0,098    0,121      0,118    0,693     0,060     p
                 0,480    0,025    0,502      0,480    0,491      0,465    0,865     0,465     s
                 0,159    0,008    0,336      0,159    0,216      0,218    0,734     0,164     r
                 0,600    0,004    0,781      0,600    0,679      0,678    0,931     0,685     u
                 0,137    0,011    0,193      0,137    0,160      0,149    0,724     0,103     t
                 0,182    0,002    0,450      0,182    0,259      0,282    0,745     0,124     v
                 0,359    0,002    0,523      0,359    0,426      0,431    0,867     0,362     y
                 0,000    0,000    0,000      0,000    0,000      -0,000   0,499     0,000     z
Weighted Avg.    0,683    0,048    0,658      0,683    0,666      0,631    0,909     0,683     


=== Confusion Matrix ===

    a    b    c    d    e    f    g    h    i    j    k    l    m    n    o    p    q    r    s    t    u    v    w    x    y    z   aa   <-- classified as
    6    0   13    1    0    3    2    0    1    0    0    0    1    2    0    1    1    0    3    1   22    0    1    0    0    0    0 |    a = ch
    0    1    1    0    0    4    0    0    4    0    0    0    0    0    0    0    1    2    0    1    0    1    0    0    0    0    0 |    b = rr
    3    0 4116    7    1   37   16    0   26    3    0    8   20    2    2    1   31    9    0   15   70    6    0   40    1    3    1 |    c = 0
    2    0   34   24    1   22    0    1   12    1    0    1    3    0    2    1   11    2    0    1   12    3    0    3    3    1    0 |    d = hs
    0    0    0    0   11    3    0    0   10    0    1    0    4    0    1    0    2    1    0    0    1    0    0    0    0    0    0 |    e = hg
    2    0   58    5    0 1511    9    0   71    8    2    0    8    1    2   13   62   14    0    4   17   17    2    7    0    2    0 |    f = a
    4    0   50    1    1   10   28    0   11    1    0    2    4    3    0    1   16    5    2    4   27    0    1   11    0    0    0 |    g = c
    0    0    1    0    0    9    0   23   14    2    0    0    9    1    3    1    8    6    0    0    0    1    4    0    0    0    0 |    h = b
    0    2   33    3    3   64    5    7  672    7    7    1   41    0   11   12   39   25    0    1   16   11    1    4    3    3    0 |    i = e
    1    1    2    2    0   32    0    3   20   42    0    0    5    0    1    4   39   14    0    0    0    6    3    2    0    0    0 |    j = d
    0    0    1    0    1   14    1    0   24    1   18    0    5    0    1    0    2    2    0    0    0    0    1    1    0    0    0 |    k = g
    2    0    8    2    0    2    7    0    5    0    0    9    1    3    0    1    3    1    0    2   25    1    0    4    2    0    0 |    l = f
    1    1   29    4    2    8    1    9   76    2    0    3  327    0    7    5    5    7    0    2    7    1    2    2    0    1    1 |    m = i
    2    0    6    4    1   14    0    0    9    0    0    2    1   13    0    0    2    0    1    0    8    0    1    1    0    0    1 |    n = j
    0    0    4    1    1    9    1    8   17    1    1    1   21    0   79    3   15   13    1    0    1    0    3    2    2    0    0 |    o = m
    1    0    4    3    0   37    0    1   30    2    0    0   15    0    3   82   20   15    0    1    1    5    2    1    0    0    0 |    p = l
    1    0   77    7    1   99    9    6   53   18    0    2    9    0   21   13  556   17    0    4   16   11    8   10    2    0    0 |    q = o
    0    1   15    3    1   28    7    1   62   17    0    1   12    0    9    8   34  207    1    0    6    3    9    7    3    1    0 |    r = n
    1    0   16    0    0    3    3    0    5    0    0    0    4    1    0    0    1    2    6    2    9    0    0    1    0    0    1 |    s = q
    0    0   38    3    1   14    4    0    6    1    0    3    2    1    2    2    6    4    3   13   10   10    0    8    1    1    0 |    t = p
   18    0  106    5    1   36   26    0   27    1    0    7   19    2    1    4   16    3    3   11  294    9    1   21    0    0    1 |    u = s
    0    0   34    4    0   83    4    6   38    9    1    1   11    2    2    7   22    9    0    3    9   49    3    5    5    1    0 |    v = r
    0    0    3    3    0    9    2    4   14    1    3    0    3    0    6    5   41   11    0    0    2    2  171    3    0    2    0 |    w = u
    1    0   86    0    0   14   15    0    7    3    0    3    7    0    2    0   14    9    0   14   22    4    0   32    0    1    0 |    x = t
    0    1    1    1    1    9    1    0   18    3    1    0    3    1    1    7   15    2    0    2    1    5    3    0   18    5    0 |    y = v
    0    0    5    1    0    5    3    0    6    2    1    0    2    0    0    4    1    0    0    0    7    1    3    0    0   23    0 |    z = y
    0    0    0    0    0    0    0    0    0    0    0    0    0    1    0    0    0    0    0    0    3    0    0    1    0    0    0 |   aa = z

=== Percent Confusion Matrix ===
a	b	c	d	e	f	g	h	i	j	k	l	m	n	o	p	q	r	s	t	u	v	w	x	y	z	aa	
10.34	0.0	22.41	1.72	0.0	5.17	3.45	0.0	1.72	0.0	0.0	0.0	1.72	3.45	0.0	1.72	1.72	0.0	5.17	1.72	37.93	0.0	1.72	0.0	0.0	0.0	0.0	 a = ch
0.0	6.67	6.67	0.0	0.0	26.67	0.0	0.0	26.67	0.0	0.0	0.0	0.0	0.0	0.0	0.0	6.67	13.33	0.0	6.67	0.0	6.67	0.0	0.0	0.0	0.0	0.0	 b = rr
0.07	0.0	93.16	0.16	0.02	0.84	0.36	0.0	0.59	0.07	0.0	0.18	0.45	0.05	0.05	0.02	0.7	0.2	0.0	0.34	1.58	0.14	0.0	0.91	0.02	0.07	0.02	 c = 0
1.43	0.0	24.29	17.14	0.71	15.71	0.0	0.71	8.57	0.71	0.0	0.71	2.14	0.0	1.43	0.71	7.86	1.43	0.0	0.71	8.57	2.14	0.0	2.14	2.14	0.71	0.0	 d = hs
0.0	0.0	0.0	0.0	32.35	8.82	0.0	0.0	29.41	0.0	2.94	0.0	11.76	0.0	2.94	0.0	5.88	2.94	0.0	0.0	2.94	0.0	0.0	0.0	0.0	0.0	0.0	 e = hg
0.11	0.0	3.2	0.28	0.0	83.25	0.5	0.0	3.91	0.44	0.11	0.0	0.44	0.06	0.11	0.72	3.42	0.77	0.0	0.22	0.94	0.94	0.11	0.39	0.0	0.11	0.0	 f = a
2.2	0.0	27.47	0.55	0.55	5.49	15.38	0.0	6.04	0.55	0.0	1.1	2.2	1.65	0.0	0.55	8.79	2.75	1.1	2.2	14.84	0.0	0.55	6.04	0.0	0.0	0.0	 g = c
0.0	0.0	1.22	0.0	0.0	10.98	0.0	28.05	17.07	2.44	0.0	0.0	10.98	1.22	3.66	1.22	9.76	7.32	0.0	0.0	0.0	1.22	4.88	0.0	0.0	0.0	0.0	 h = b
0.0	0.21	3.4	0.31	0.31	6.59	0.51	0.72	69.21	0.72	0.72	0.1	4.22	0.0	1.13	1.24	4.02	2.57	0.0	0.1	1.65	1.13	0.1	0.41	0.31	0.31	0.0	 i = e
0.56	0.56	1.13	1.13	0.0	18.08	0.0	1.69	11.3	23.73	0.0	0.0	2.82	0.0	0.56	2.26	22.03	7.91	0.0	0.0	0.0	3.39	1.69	1.13	0.0	0.0	0.0	 j = d
0.0	0.0	1.39	0.0	1.39	19.44	1.39	0.0	33.33	1.39	25.0	0.0	6.94	0.0	1.39	0.0	2.78	2.78	0.0	0.0	0.0	0.0	1.39	1.39	0.0	0.0	0.0	 k = g
2.56	0.0	10.26	2.56	0.0	2.56	8.97	0.0	6.41	0.0	0.0	11.54	1.28	3.85	0.0	1.28	3.85	1.28	0.0	2.56	32.05	1.28	0.0	5.13	2.56	0.0	0.0	 l = f
0.2	0.2	5.77	0.8	0.4	1.59	0.2	1.79	15.11	0.4	0.0	0.6	65.01	0.0	1.39	0.99	0.99	1.39	0.0	0.4	1.39	0.2	0.4	0.4	0.0	0.2	0.2	 m = i
3.03	0.0	9.09	6.06	1.52	21.21	0.0	0.0	13.64	0.0	0.0	3.03	1.52	19.7	0.0	0.0	3.03	0.0	1.52	0.0	12.12	0.0	1.52	1.52	0.0	0.0	1.52	 n = j
0.0	0.0	2.17	0.54	0.54	4.89	0.54	4.35	9.24	0.54	0.54	0.54	11.41	0.0	42.93	1.63	8.15	7.07	0.54	0.0	0.54	0.0	1.63	1.09	1.09	0.0	0.0	 o = m
0.45	0.0	1.79	1.35	0.0	16.59	0.0	0.45	13.45	0.9	0.0	0.0	6.73	0.0	1.35	36.77	8.97	6.73	0.0	0.45	0.45	2.24	0.9	0.45	0.0	0.0	0.0	 p = l
0.11	0.0	8.19	0.74	0.11	10.53	0.96	0.64	5.64	1.91	0.0	0.21	0.96	0.0	2.23	1.38	59.15	1.81	0.0	0.43	1.7	1.17	0.85	1.06	0.21	0.0	0.0	 q = o
0.0	0.23	3.44	0.69	0.23	6.42	1.61	0.23	14.22	3.9	0.0	0.23	2.75	0.0	2.06	1.83	7.8	47.48	0.23	0.0	1.38	0.69	2.06	1.61	0.69	0.23	0.0	 r = n
1.82	0.0	29.09	0.0	0.0	5.45	5.45	0.0	9.09	0.0	0.0	0.0	7.27	1.82	0.0	0.0	1.82	3.64	10.91	3.64	16.36	0.0	0.0	1.82	0.0	0.0	1.82	 s = q
0.0	0.0	28.57	2.26	0.75	10.53	3.01	0.0	4.51	0.75	0.0	2.26	1.5	0.75	1.5	1.5	4.51	3.01	2.26	9.77	7.52	7.52	0.0	6.02	0.75	0.75	0.0	 t = p
2.94	0.0	17.32	0.82	0.16	5.88	4.25	0.0	4.41	0.16	0.0	1.14	3.1	0.33	0.16	0.65	2.61	0.49	0.49	1.8	48.04	1.47	0.16	3.43	0.0	0.0	0.16	 u = s
0.0	0.0	11.04	1.3	0.0	26.95	1.3	1.95	12.34	2.92	0.32	0.32	3.57	0.65	0.65	2.27	7.14	2.92	0.0	0.97	2.92	15.91	0.97	1.62	1.62	0.32	0.0	 v = r
0.0	0.0	1.05	1.05	0.0	3.16	0.7	1.4	4.91	0.35	1.05	0.0	1.05	0.0	2.11	1.75	14.39	3.86	0.0	0.0	0.7	0.7	60.0	1.05	0.0	0.7	0.0	 w = u
0.43	0.0	36.75	0.0	0.0	5.98	6.41	0.0	2.99	1.28	0.0	1.28	2.99	0.0	0.85	0.0	5.98	3.85	0.0	5.98	9.4	1.71	0.0	13.68	0.0	0.43	0.0	 x = t
0.0	1.01	1.01	1.01	1.01	9.09	1.01	0.0	18.18	3.03	1.01	0.0	3.03	1.01	1.01	7.07	15.15	2.02	0.0	2.02	1.01	5.05	3.03	0.0	18.18	5.05	0.0	 y = v
0.0	0.0	7.81	1.56	0.0	7.81	4.69	0.0	9.38	3.13	1.56	0.0	3.13	0.0	0.0	6.25	1.56	0.0	0.0	0.0	10.94	1.56	4.69	0.0	0.0	35.94	0.0	 z = y
0.0	0.0	0.0	0.0	0.0	0.0	0.0	0.0	0.0	0.0	0.0	0.0	0.0	20.0	0.0	0.0	0.0	0.0	0.0	0.0	60.0	0.0	0.0	20.0	0.0	0.0	0.0	 aa = z
