Timestamp:2014-12-07-10:41:46
Inventario:I0
Intervalo:10ms
Ngramas:4
Clasificador:NaiveBayes
Relation Name:  I0-10ms-4gramas
Num Instances:  18293
Num Attributes: 41

     Name                      Type  Nom  Int Real     Missing      Unique  Dist
   1 0Int(dB)                   Num   0%  10%  90%     0 /  0%     7 /  0%   772 
   2 0Pitch(Hz)                 Num   0%  51%  49%     0 /  0%   816 /  4%  3063 
   3 0RawPitch                  Num   0%  54%  46%     0 /  0%   853 /  5%  2955 
   4 0SmPitch                   Num   0%  52%  48%     0 /  0%   827 /  5%  3024 
   5 0Melogram(st)              Num   0%  47%  53%     0 /  0%   581 /  3%  2807 
   6 0ZCross                    Num   0% 100%   0%     0 /  0%    10 /  0%    42 
   7 0F1(Hz)                    Num   0%  51%  49%     0 /  0%  2131 / 12%  4724 
   8 0F2(Hz)                    Num   0%  51%  49%     0 /  0%  4210 / 23%  6615 
   9 0F3(Hz)                    Num   0%  51%  49%     0 /  0%  3688 / 20%  6145 
  10 0F4(Hz)                    Num   0%  51%  49%     0 /  0%  3689 / 20%  6054 
  11 1Int(dB)                   Num   0%  10%  90%     0 /  0%     7 /  0%   772 
  12 1Pitch(Hz)                 Num   0%  51%  49%     0 /  0%   816 /  4%  3063 
  13 1RawPitch                  Num   0%  54%  46%     0 /  0%   853 /  5%  2955 
  14 1SmPitch                   Num   0%  52%  48%     0 /  0%   827 /  5%  3024 
  15 1Melogram(st)              Num   0%  47%  53%     0 /  0%   581 /  3%  2807 
  16 1ZCross                    Num   0% 100%   0%     0 /  0%    10 /  0%    42 
  17 1F1(Hz)                    Num   0%  51%  49%     0 /  0%  2131 / 12%  4724 
  18 1F2(Hz)                    Num   0%  51%  49%     0 /  0%  4210 / 23%  6615 
  19 1F3(Hz)                    Num   0%  51%  49%     0 /  0%  3688 / 20%  6145 
  20 1F4(Hz)                    Num   0%  51%  49%     0 /  0%  3689 / 20%  6054 
  21 2Int(dB)                   Num   0%  10%  90%     0 /  0%     7 /  0%   772 
  22 2Pitch(Hz)                 Num   0%  51%  49%     0 /  0%   816 /  4%  3063 
  23 2RawPitch                  Num   0%  54%  46%     0 /  0%   853 /  5%  2955 
  24 2SmPitch                   Num   0%  52%  48%     0 /  0%   827 /  5%  3024 
  25 2Melogram(st)              Num   0%  47%  53%     0 /  0%   581 /  3%  2807 
  26 2ZCross                    Num   0% 100%   0%     0 /  0%    10 /  0%    42 
  27 2F1(Hz)                    Num   0%  51%  49%     0 /  0%  2131 / 12%  4724 
  28 2F2(Hz)                    Num   0%  51%  49%     0 /  0%  4210 / 23%  6615 
  29 2F3(Hz)                    Num   0%  51%  49%     0 /  0%  3688 / 20%  6145 
  30 2F4(Hz)                    Num   0%  51%  49%     0 /  0%  3689 / 20%  6054 
  31 3Int(dB)                   Num   0%  10%  90%     0 /  0%     7 /  0%   772 
  32 3Pitch(Hz)                 Num   0%  51%  49%     0 /  0%   817 /  4%  3064 
  33 3RawPitch                  Num   0%  54%  46%     0 /  0%   854 /  5%  2956 
  34 3SmPitch                   Num   0%  52%  48%     0 /  0%   828 /  5%  3025 
  35 3Melogram(st)              Num   0%  47%  53%     0 /  0%   582 /  3%  2808 
  36 3ZCross                    Num   0% 100%   0%     0 /  0%    10 /  0%    42 
  37 3F1(Hz)                    Num   0%  51%  49%     0 /  0%  2131 / 12%  4724 
  38 3F2(Hz)                    Num   0%  51%  49%     0 /  0%  4210 / 23%  6615 
  39 3F3(Hz)                    Num   0%  51%  49%     0 /  0%  3688 / 20%  6145 
  40 3F4(Hz)                    Num   0%  51%  49%     0 /  0%  3689 / 20%  6054 
  41 class                      Nom 100%   0%   0%     0 /  0%     0 /  0%    27 


Naive Bayes Classifier

                    Class
Attribute              ch        rr         0        hs        hg         a         c         b         e         d         g         f         i         j         m         l         o         n         q         p         s         r         u         t         v         y         z
                      (0)       (0)    (0.37)    (0.01)       (0)    (0.15)    (0.02)    (0.01)    (0.08)    (0.01)    (0.01)    (0.01)    (0.04)    (0.01)    (0.01)    (0.02)    (0.08)    (0.04)       (0)    (0.01)    (0.05)    (0.02)    (0.02)    (0.02)    (0.01)    (0.01)       (0)
==============================================================================================================================================================================================================================================================================================
0Int(dB)
  mean            -20.8359   -7.8357  -48.5008  -13.7086   -8.8758   -5.4331  -29.9336   -5.1214   -8.2832   -6.8561   -6.7085  -15.7257  -11.5529  -11.4193   -7.6712   -7.2675  -10.1884   -7.1109  -28.9519  -22.0587  -17.8794   -8.7275    -9.141  -26.6863   -9.2987    -14.88  -25.8333
  std. dev.        11.0587    5.2358   16.5452     10.54    6.1643   11.5305   12.2916    4.4382   10.5574    5.8063     7.364    9.2617   10.0097    8.5567    8.2641    6.4151   12.4847    6.6144   15.6571   12.7003    9.6907    9.9049    11.517   11.4195   11.0785    7.6024    3.4835
  weight sum            88        21      6795       206        50      2684       278       119      1438       266       107       119       748       101       272       327      1377       650        81       203       905       440       423       350       142        95         8
  precision         0.1005    0.1005    0.1005    0.1005    0.1005    0.1005    0.1005    0.1005    0.1005    0.1005    0.1005    0.1005    0.1005    0.1005    0.1005    0.1005    0.1005    0.1005    0.1005    0.1005    0.1005    0.1005    0.1005    0.1005    0.1005    0.1005    0.1005

0Pitch(Hz)
  mean             96.5003  231.1639    17.615  128.9552  146.8661  213.0829   40.0419  218.4034  171.3761  203.5149  218.5288  138.8648  151.1778  188.9798  190.1666    173.83  169.4942  200.8599   94.1558  118.3898  104.4042  164.5158  206.5505   85.9555  169.2784  121.5785   41.7778
  std. dev.       111.5351  122.2054   57.6262   85.1482   37.6823  114.6122   76.9318    74.272   97.3583   80.9096    90.751  121.9929   90.4554  125.3411   86.5152    72.067  112.1681   83.4324   118.454  128.8201  111.3022   88.4486  112.6088  119.6348   90.5408   68.3559   72.3614
  weight sum            88        21      6795       206        50      2684       278       119      1438       266       107       119       748       101       272       327      1377       650        81       203       905       440       423       350       142        95         8
  precision         0.1626    0.1626    0.1626    0.1626    0.1626    0.1626    0.1626    0.1626    0.1626    0.1626    0.1626    0.1626    0.1626    0.1626    0.1626    0.1626    0.1626    0.1626    0.1626    0.1626    0.1626    0.1626    0.1626    0.1626    0.1626    0.1626    0.1626

0RawPitch
  mean             79.6903  223.9783    14.716  111.4938  132.8184  203.0546   32.9855  215.3253  165.9268  197.2577   208.433  106.4963  140.1369  148.3159  182.1557  166.2007  160.7417   189.674   82.8471  100.6873   83.1165    155.59  196.9115   61.4984  157.6784   97.9224         0
  std. dev.       109.9986  114.3265   52.3139   91.6477   55.2573  118.2204   77.2788   75.5487  101.4248   89.7337  101.0409  113.1544   92.6731  120.5437   92.8328   75.8255  117.1537   94.6912   116.648  127.5157  107.3414   96.7961  116.0658  107.8597   98.5353   77.8893     0.028
  weight sum            88        21      6795       206        50      2684       278       119      1438       266       107       119       748       101       272       327      1377       650        81       203       905       440       423       350       142        95         8
  precision         0.1679    0.1679    0.1679    0.1679    0.1679    0.1679    0.1679    0.1679    0.1679    0.1679    0.1679    0.1679    0.1679    0.1679    0.1679    0.1679    0.1679    0.1679    0.1679    0.1679    0.1679    0.1679    0.1679    0.1679    0.1679    0.1679    0.1679

0SmPitch
  mean             92.2471  231.1653   15.9847  124.1245  146.8795   211.064    37.467  218.4081  168.9406   202.821  216.7046  126.5194  148.7333  161.2188  188.5954  173.2086  166.8657  199.0157   89.3302  113.3293   98.0123  160.4303  203.2317   75.3926  165.1083  116.0598         0
  std. dev.       111.5457  122.2084   53.9912   85.1763   37.6753  115.9687   75.6302    74.278   99.8036   82.3739   93.1388  115.6273   91.0219  134.7655   88.5985   72.6613  113.6276   86.0849  118.2629  127.6641  110.3963   91.5224  114.3476  115.2535   94.2379   70.7507    0.0275
  weight sum            88        21      6795       206        50      2684       278       119      1438       266       107       119       748       101       272       327      1377       650        81       203       905       440       423       350       142        95         8
  precision         0.1647    0.1647    0.1647    0.1647    0.1647    0.1647    0.1647    0.1647    0.1647    0.1647    0.1647    0.1647    0.1647    0.1647    0.1647    0.1647    0.1647    0.1647    0.1647    0.1647    0.1647    0.1647    0.1647    0.1647    0.1647    0.1647    0.1647

0Melogram(st)
  mean             26.0979   57.3643    5.1045   38.7026   48.2378   49.9797   13.1522   55.6109   46.0304   53.5061   52.7475   38.6262   42.8057   33.4894    50.707   51.0962   44.1418   52.0734    23.833   31.1748   28.3718   45.5179   46.9326    22.765   48.0887   42.5515   19.5598
  std. dev.         28.118    8.2876   15.8989   21.8519    8.2387   19.2907   22.9134    6.3045   20.3297   10.0492   15.3301   25.7486   21.7211    28.268   14.5761   10.5787   22.6348   13.8222   28.2793   28.2291   27.4773   19.9981   23.1329   28.0466   16.0246   17.0383   25.2516
  weight sum            88        21      6795       206        50      2684       278       119      1438       266       107       119       748       101       272       327      1377       650        81       203       905       440       423       350       142        95         8
  precision         0.0294    0.0294    0.0294    0.0294    0.0294    0.0294    0.0294    0.0294    0.0294    0.0294    0.0294    0.0294    0.0294    0.0294    0.0294    0.0294    0.0294    0.0294    0.0294    0.0294    0.0294    0.0294    0.0294    0.0294    0.0294    0.0294    0.0294

0ZCross
  mean              3.5549    4.3705    0.3145    2.1398    3.5678    6.7688    0.6742     3.726    4.5442    3.7614    4.9291    1.7272    3.2766    4.2492    3.1889    3.6725    3.7485    3.5618    1.0852    1.5219    3.3096     4.119    3.4685    0.5097    3.8689     1.905         0
  std. dev.         7.5759    2.2734    1.5733    2.1701    2.1563    4.8593    2.0445    1.8524    3.6764    2.1704    3.0103    2.5097    3.9228    3.7823    2.4357    2.2053    3.6397    2.6376    2.5489     3.124    5.4711    2.9495    3.3113    1.2079    2.5876     1.817    0.2154
  weight sum            88        21      6795       206        50      2684       278       119      1438       266       107       119       748       101       272       327      1377       650        81       203       905       440       423       350       142        95         8
  precision         1.2927    1.2927    1.2927    1.2927    1.2927    1.2927    1.2927    1.2927    1.2927    1.2927    1.2927    1.2927    1.2927    1.2927    1.2927    1.2927    1.2927    1.2927    1.2927    1.2927    1.2927    1.2927    1.2927    1.2927    1.2927    1.2927    1.2927

0F1(Hz)
  mean            285.5997  532.8022   60.6312  498.4694  455.4529  620.3234  151.9451  474.2535  414.4876  511.1178  529.3915  465.0033  324.4815  529.7288  451.3106   501.262  427.1986  536.2175  211.9516  347.9353  348.8074  534.6777  438.9512  206.9589  494.7151  375.3107  180.9738
  std. dev.       297.2818   167.198  179.8204   228.804   82.2134  320.7571  244.2975  135.5903  204.0813   140.012  179.1174  296.6071  196.3871  255.9972  186.9857  170.6475  255.5101  150.7193  244.8753   307.183  307.8473  220.1614  351.0171  255.9461  188.9943  179.6194  313.4558
  weight sum            88        21      6795       206        50      2684       278       119      1438       266       107       119       748       101       272       327      1377       650        81       203       905       440       423       350       142        95         8
  precision         0.3688    0.3688    0.3688    0.3688    0.3688    0.3688    0.3688    0.3688    0.3688    0.3688    0.3688    0.3688    0.3688    0.3688    0.3688    0.3688    0.3688    0.3688    0.3688    0.3688    0.3688    0.3688    0.3688    0.3688    0.3688    0.3688    0.3688

0F2(Hz)
  mean            905.4545 1670.1385  182.9176 1451.1828 1925.3013 1343.7512  473.9632 1645.6032 1540.0099  1504.063 1736.0184 1240.9276 1594.9962 1693.5204 1619.2631 1621.1534   1087.12 1660.9777  915.2485 1054.5879 1067.1853  1421.641  933.7491  705.5951  1500.349 1356.0141  293.0736
  std. dev.       892.3112  399.0773  535.9925   644.956  379.5688  570.7682  776.0427  369.3258  736.2298  301.5818  498.0707  769.8844  886.9887  679.0257  560.1765  448.9116  643.6083  387.1771 1012.1413  877.1648  900.6688  537.7033  589.8158  835.9406  561.6817  584.4978  507.6184
  weight sum            88        21      6795       206        50      2684       278       119      1438       266       107       119       748       101       272       327      1377       650        81       203       905       440       423       350       142        95         8
  precision         0.4504    0.4504    0.4504    0.4504    0.4504    0.4504    0.4504    0.4504    0.4504    0.4504    0.4504    0.4504    0.4504    0.4504    0.4504    0.4504    0.4504    0.4504    0.4504    0.4504    0.4504    0.4504    0.4504    0.4504    0.4504    0.4504    0.4504

0F3(Hz)
  mean           1474.9754 2713.5172  313.2807  2389.578  2568.411 2493.0144  819.1591 2786.5235 2334.9624 2878.8995 3017.1308 2101.3383 2246.1444  2406.669 2720.6214 2711.0173 2276.2654 2861.9251 1360.5016 1745.1127 1782.6505 2518.6212 2280.9865 1265.5127  2567.551 2454.8271  943.2827
  std. dev.      1456.6099   700.354  898.6842  940.4939  117.1168 1031.7547 1306.3627  448.4005 1092.4038  387.0814  768.3313 1289.0157 1243.3357  991.2742  760.2796  701.9514 1203.3602  493.2515 1455.2679 1444.7474 1472.4171  942.7849 1204.2554 1465.1582  897.6094 1076.7153 1633.8135
  weight sum            88        21      6795       206        50      2684       278       119      1438       266       107       119       748       101       272       327      1377       650        81       203       905       440       423       350       142        95         8
  precision         0.6705    0.6705    0.6705    0.6705    0.6705    0.6705    0.6705    0.6705    0.6705    0.6705    0.6705    0.6705    0.6705    0.6705    0.6705    0.6705    0.6705    0.6705    0.6705    0.6705    0.6705    0.6705    0.6705    0.6705    0.6705    0.6705    0.6705

0F4(Hz)
  mean           1746.0073 3140.9252   377.076 2968.9052   3562.83 2869.0199  950.6141 3319.3698 2827.1616 3345.3023 2987.0366 2436.9189 2704.0163 2988.3894  3205.287 3140.9351 2631.6643 3260.0883  1623.443 2026.2186 2030.1928 2954.7647 2611.7192 1397.5324 3048.6162 2797.3815  747.4603
  std. dev.      1718.6506  826.4094 1079.3679 1151.6021  103.9486 1179.2712  1515.075  442.8365 1299.7201  404.4488  768.7934 1475.3912 1464.2027 1194.7003  850.2817  771.0389 1382.1236  538.1949 1755.3898 1656.2574 1672.2625 1033.1584 1326.9291 1623.2598 1021.6686 1204.7063 1294.6392
  weight sum            88        21      6795       206        50      2684       278       119      1438       266       107       119       748       101       272       327      1377       650        81       203       905       440       423       350       142        95         8
  precision         0.6851    0.6851    0.6851    0.6851    0.6851    0.6851    0.6851    0.6851    0.6851    0.6851    0.6851    0.6851    0.6851    0.6851    0.6851    0.6851    0.6851    0.6851    0.6851    0.6851    0.6851    0.6851    0.6851    0.6851    0.6851    0.6851    0.6851

1Int(dB)
  mean            -20.9559   -7.8596  -48.9834  -15.9805  -10.1946   -4.3411  -29.1881   -5.5978   -6.9781   -7.3579   -7.0016  -18.1728  -10.5648   -13.168   -7.6731   -7.6585   -9.2289   -7.7868  -28.5188  -23.5675  -19.1619   -9.7496    -7.821  -28.3273   -9.4976  -15.6312  -26.5998
  std. dev.        10.0435    3.9675   15.8904   11.0079    6.0131   10.2447   10.9234    4.4784     9.587    5.9065    7.3095    8.2982    9.3802    7.7817    7.4432    6.0414   12.1503    6.8658   14.1618   11.6543    8.5761    9.7619   10.4376   10.1397    9.5512     6.647    2.3369
  weight sum            88        21      6795       206        50      2684       278       119      1438       266       107       119       748       101       272       327      1377       650        81       203       905       440       423       350       142        95         8
  precision         0.1005    0.1005    0.1005    0.1005    0.1005    0.1005    0.1005    0.1005    0.1005    0.1005    0.1005    0.1005    0.1005    0.1005    0.1005    0.1005    0.1005    0.1005    0.1005    0.1005    0.1005    0.1005    0.1005    0.1005    0.1005    0.1005    0.1005

1Pitch(Hz)
  mean             82.3969  249.3795   15.5437  116.3238  145.3275  219.3888   32.7431  216.6608  179.7817   202.533  219.2614  118.2958  161.7269  175.8995   190.752  173.8325  175.9738  198.5444    88.088  105.9083   86.8035  163.3492  217.8099   69.1819    172.01   118.146   20.9194
  std. dev.       110.9488  117.3422   54.3378   86.7457   36.1977  108.9258   71.0621   73.8465   93.2543   81.9477   91.8205  123.5878   84.8365  128.6277   86.2771   68.7673  108.3955   85.2492   116.142  127.3386  108.2196   90.7189   101.251  112.2149   84.3881   68.7648   55.3476
  weight sum            88        21      6795       206        50      2684       278       119      1438       266       107       119       748       101       272       327      1377       650        81       203       905       440       423       350       142        95         8
  precision         0.1626    0.1626    0.1626    0.1626    0.1626    0.1626    0.1626    0.1626    0.1626    0.1626    0.1626    0.1626    0.1626    0.1626    0.1626    0.1626    0.1626    0.1626    0.1626    0.1626    0.1626    0.1626    0.1626    0.1626    0.1626    0.1626    0.1626

1RawPitch
  mean             61.5354   242.212   12.9587   96.6366  132.4087   209.432   24.6355  212.9431  175.0704  196.8233   208.703   86.0356  151.7646  130.5357  181.7612  162.6318  167.5572  186.7417   62.1882   82.0573   65.0783  156.0336  208.6619   46.9935  158.4223    93.464         0
  std. dev.       103.4637   110.361   49.1213   90.6567   60.3744  113.3348   65.9008   75.4549    97.669   90.7572  102.9477  108.9115   87.9735  118.3654    93.952    75.641  114.1306    97.161  107.1609  120.5848  100.0512   97.9103  106.1879   96.8202   93.6256   78.4594     0.028
  weight sum            88        21      6795       206        50      2684       278       119      1438       266       107       119       748       101       272       327      1377       650        81       203       905       440       423       350       142        95         8
  precision         0.1679    0.1679    0.1679    0.1679    0.1679    0.1679    0.1679    0.1679    0.1679    0.1679    0.1679    0.1679    0.1679    0.1679    0.1679    0.1679    0.1679    0.1679    0.1679    0.1679    0.1679    0.1679    0.1679    0.1679    0.1679    0.1679    0.1679

1SmPitch
  mean             76.7469  249.3805   13.9223  109.3318  146.1481  217.3522   30.3282  216.6596  177.2466  201.6691  217.4467  105.9494  159.4793  144.5184   189.195  173.2459  173.3248  196.7028   80.1517   98.7391   80.4159  159.3172  215.6213   60.9941  168.2789  112.6506         0
  std. dev.       108.2316  117.3622   50.3065   85.7936   35.3076  110.5715   69.6669   73.8548   95.7152   83.7815   94.1938  115.1239   85.9419  139.6083   88.3642   69.3828   110.039   87.8037  114.5091  126.0313  106.2433   93.4564  102.5619  107.3284    87.822    70.882    0.0275
  weight sum            88        21      6795       206        50      2684       278       119      1438       266       107       119       748       101       272       327      1377       650        81       203       905       440       423       350       142        95         8
  precision         0.1647    0.1647    0.1647    0.1647    0.1647    0.1647    0.1647    0.1647    0.1647    0.1647    0.1647    0.1647    0.1647    0.1647    0.1647    0.1647    0.1647    0.1647    0.1647    0.1647    0.1647    0.1647    0.1647    0.1647    0.1647    0.1647    0.1647

1Melogram(st)
  mean             21.2349   57.1807    4.6142   34.8622   48.0742   51.6565   11.6401   55.4766   48.2348   53.3655    52.783   33.1575   45.5707   27.4443   51.0213   51.2134   45.7502   51.5797   21.6502   27.3958   23.7716   44.8101   50.2186   18.4671   49.0984   42.3355     13.03
  std. dev.        27.5284    8.5182   15.1935   23.5441    8.1647   17.1205   22.1896     6.301   18.1696   10.1476   15.3641   27.4623   19.4988   28.7477   13.9302    9.7626   21.3432   14.5365   27.7492   28.6205   27.2419   20.7906   19.9908   26.8418   14.3126   16.9712   22.5687
  weight sum            88        21      6795       206        50      2684       278       119      1438       266       107       119       748       101       272       327      1377       650        81       203       905       440       423       350       142        95         8
  precision         0.0294    0.0294    0.0294    0.0294    0.0294    0.0294    0.0294    0.0294    0.0294    0.0294    0.0294    0.0294    0.0294    0.0294    0.0294    0.0294    0.0294    0.0294    0.0294    0.0294    0.0294    0.0294    0.0294    0.0294    0.0294    0.0294    0.0294

1ZCross
  mean              5.5086    4.3705    0.2452    1.6504    3.1283    7.0168    0.8091    3.6499     4.777    3.6642    4.6512    1.1623    3.3008    3.9548     2.918    3.4195    3.9062    3.0567    1.2288    1.1271    3.4795    3.7547    3.5022    0.3287    3.4502    1.6737         0
  std. dev.         9.9474    2.1659    1.2667    1.9426    2.1951    4.6291    2.5633    1.7387    3.5473    2.1396    2.9353     1.921    3.5385     3.678     1.986    2.1716    3.5254    2.2301    2.9846    2.7768    6.1001      2.82    3.0347    0.9124     2.274    1.7075    0.2154
  weight sum            88        21      6795       206        50      2684       278       119      1438       266       107       119       748       101       272       327      1377       650        81       203       905       440       423       350       142        95         8
  precision         1.2927    1.2927    1.2927    1.2927    1.2927    1.2927    1.2927    1.2927    1.2927    1.2927    1.2927    1.2927    1.2927    1.2927    1.2927    1.2927    1.2927    1.2927    1.2927    1.2927    1.2927    1.2927    1.2927    1.2927    1.2927    1.2927    1.2927

1F1(Hz)
  mean            241.8795  577.3882   53.5851  481.9929  448.5348  653.0371  126.2586  476.2678  432.7945  508.9856  521.4647  416.0994    337.77  513.6526  444.5724   491.436   450.362  517.3824  196.2265  304.9618  299.0719  521.0978  460.9396  165.9707  491.6144  362.7298   90.4869
  std. dev.       299.7203  126.4058  169.3624  249.3797   79.3072  298.2069  230.8866  135.4683  184.6991  146.3709  179.3598  320.3517  176.2367  285.8528  177.1726  160.2613  244.3368  151.7973  240.6253  309.5649   309.225   224.824  335.9081  239.6391  178.5511  179.0278  239.4058
  weight sum            88        21      6795       206        50      2684       278       119      1438       266       107       119       748       101       272       327      1377       650        81       203       905       440       423       350       142        95         8
  precision         0.3688    0.3688    0.3688    0.3688    0.3688    0.3688    0.3688    0.3688    0.3688    0.3688    0.3688    0.3688    0.3688    0.3688    0.3688    0.3688    0.3688    0.3688    0.3688    0.3688    0.3688    0.3688    0.3688    0.3688    0.3688    0.3688    0.3688

1F2(Hz)
  mean            740.8162 1717.0835  162.6594 1392.8958  1942.361 1391.5241  387.5794 1616.0193 1632.6744 1492.3451 1746.4904 1091.8083 1742.2077 1588.1043 1637.4846 1645.7265 1117.1452 1652.0883  836.6074  926.1613  919.2732 1410.0186  979.7948  563.1801 1516.2164  1364.334  146.5368
  std. dev.       874.7832  139.2649  507.4556  700.7361  373.1272  510.9891  722.9708  360.9883   673.554  306.0497  504.7605  820.2632  822.2232  766.0742  516.1279  416.3284  603.6027  398.5972  996.2152  892.3678  916.0888   561.229  538.5145  783.5509   504.353  608.6024     387.7
  weight sum            88        21      6795       206        50      2684       278       119      1438       266       107       119       748       101       272       327      1377       650        81       203       905       440       423       350       142        95         8
  precision         0.4504    0.4504    0.4504    0.4504    0.4504    0.4504    0.4504    0.4504    0.4504    0.4504    0.4504    0.4504    0.4504    0.4504    0.4504    0.4504    0.4504    0.4504    0.4504    0.4504    0.4504    0.4504    0.4504    0.4504    0.4504    0.4504    0.4504

1F3(Hz)
  mean           1217.7089  2873.489  279.4239 2285.8688 2553.8469 2587.3759  676.3123 2777.3782 2447.1049 2874.2561 3010.0494 1866.0237 2408.7343 2272.5675 2741.3194 2743.8245 2373.7752 2844.1279 1242.4865 1532.8718 1534.6809  2473.695 2430.7754 1023.1354 2606.0504 2424.9845  471.6413
  std. dev.      1440.3316  378.3556  854.4078 1042.2063  117.5177  927.5339  1227.288  457.5946  996.0136  420.4854  772.6826 1388.8081 1138.7559 1112.0899  685.3169  656.6609 1134.1201  526.5189  1429.252 1470.4193 1501.2811  981.2413  1089.578 1399.0465  819.6661 1100.7809 1247.8457
  weight sum            88        21      6795       206        50      2684       278       119      1438       266       107       119       748       101       272       327      1377       650        81       203       905       440       423       350       142        95         8
  precision         0.6705    0.6705    0.6705    0.6705    0.6705    0.6705    0.6705    0.6705    0.6705    0.6705    0.6705    0.6705    0.6705    0.6705    0.6705    0.6705    0.6705    0.6705    0.6705    0.6705    0.6705    0.6705    0.6705    0.6705    0.6705    0.6705    0.6705

1F4(Hz)
  mean           1443.1866 3261.5054  336.5089 2840.7488 3575.1484 2977.4756  782.1744 3313.7622  2953.752 3342.9508 2997.2301 2156.7357 2889.2593 2819.6206 3253.3609 3175.1636 2740.1433 3244.5741 1515.1018 1784.0727 1748.3441 2900.0163 2777.4425 1141.3817 3120.5147 2767.2869  373.7301
  std. dev.      1703.6279  440.8465 1026.8121 1278.4681    98.856 1058.3066 1419.7075  441.0831 1176.1247  450.7948  775.7465 1587.8913 1330.8507 1354.1713  758.7573  707.4163 1297.7013  587.1932 1759.0802 1691.3882 1706.8341 1082.8115 1184.8746 1564.0535   919.318  1238.506   988.797
  weight sum            88        21      6795       206        50      2684       278       119      1438       266       107       119       748       101       272       327      1377       650        81       203       905       440       423       350       142        95         8
  precision         0.6851    0.6851    0.6851    0.6851    0.6851    0.6851    0.6851    0.6851    0.6851    0.6851    0.6851    0.6851    0.6851    0.6851    0.6851    0.6851    0.6851    0.6851    0.6851    0.6851    0.6851    0.6851    0.6851    0.6851    0.6851    0.6851    0.6851

2Int(dB)
  mean            -20.5241   -8.9079  -49.4531  -18.3945  -10.9143   -3.4874  -27.1278   -5.9205   -5.9386   -7.8272   -7.3322  -20.2769   -9.6878  -14.5623   -7.7314   -8.0639    -8.538   -8.5421   -25.739  -24.0002  -20.4527  -10.9531    -6.523  -28.2288   -9.5797  -16.1719  -27.1778
  std. dev.         9.2709    3.9616   15.1922   11.2554    5.9465    9.0731   10.1168    4.4133    8.7524    5.9928    7.6223    6.8393    8.9009    6.8147    6.6716    5.7805   12.0283    7.1912   12.7573   10.6807    7.4939    9.5526    9.2325    9.0793     7.837    5.6953    1.8825
  weight sum            88        21      6795       206        50      2684       278       119      1438       266       107       119       748       101       272       327      1377       650        81       203       905       440       423       350       142        95         8
  precision         0.1005    0.1005    0.1005    0.1005    0.1005    0.1005    0.1005    0.1005    0.1005    0.1005    0.1005    0.1005    0.1005    0.1005    0.1005    0.1005    0.1005    0.1005    0.1005    0.1005    0.1005    0.1005    0.1005    0.1005    0.1005    0.1005    0.1005

2Pitch(Hz)
  mean             70.0807  248.8916   13.6918  102.0558  144.7583  224.2102   41.0014  215.5948  187.1289  201.6085  218.1275   99.9163   169.624  166.8513  191.7248  173.7241   180.298  195.2404   82.0202   96.6796   69.5972  162.7305  226.0414   66.2344  175.5686  117.2643         0
  std. dev.       108.4721  120.2835   51.1536   87.4688   35.9687  104.2012   82.5541    73.087   89.1848   83.5041   95.0512  122.3269   79.3475  129.3049   86.2093   66.2695  104.9788   87.1904  113.8397  124.0795  102.6853   92.1325   90.8899  108.7754   77.3773   68.4476    0.0271
  weight sum            88        21      6795       206        50      2684       278       119      1438       266       107       119       748       101       272       327      1377       650        81       203       905       440       423       350       142        95         8
  precision         0.1626    0.1626    0.1626    0.1626    0.1626    0.1626    0.1626    0.1626    0.1626    0.1626    0.1626    0.1626    0.1626    0.1626    0.1626    0.1626    0.1626    0.1626    0.1626    0.1626    0.1626    0.1626    0.1626    0.1626    0.1626    0.1626    0.1626

2RawPitch
  mean             47.6306  244.8591   11.1154   82.6437   134.424  214.0626   30.0392  212.5564  182.7671  195.8548  206.6453   65.8049  160.2257  118.2759  181.6908  160.8132  173.1119  183.4534   52.0184   74.6828    47.609  156.9347  217.7899   41.9111  161.9325   88.9685         0
  std. dev.        96.1387  116.4206   45.2414   88.6062   60.2341  109.3238     72.25   74.7057   93.8486   92.7432  107.5275  100.7144   83.7348   114.697   94.8138   74.6362   111.182   98.9471  104.5844   115.871   89.4023    98.019   96.3272   90.9775   87.1195   78.2522     0.028
  weight sum            88        21      6795       206        50      2684       278       119      1438       266       107       119       748       101       272       327      1377       650        81       203       905       440       423       350       142        95         8
  precision         0.1679    0.1679    0.1679    0.1679    0.1679    0.1679    0.1679    0.1679    0.1679    0.1679    0.1679    0.1679    0.1679    0.1679    0.1679    0.1679    0.1679    0.1679    0.1679    0.1679    0.1679    0.1679    0.1679    0.1679    0.1679    0.1679    0.1679

2SmPitch
  mean             64.2268  248.8941   12.1445   95.0621  146.6159  222.2798   35.2419  215.5965  185.0532  200.8491  216.3151   87.5723  167.3233  134.9539  189.8043  173.1633  177.9648  193.3881   68.1279   87.6433   62.7379  159.2636  225.0495   56.5674  172.2337  111.7801         0
  std. dev.       104.6392  120.3065   46.8932   85.3669    33.889  106.0002   79.1149   73.0933    91.154   85.1021   97.3174  111.7598   80.6951  140.9079   88.8931    66.872  106.8233   89.6175  108.6187  122.1285   99.0721   94.2653   91.3186  102.5507   80.5713   70.5142    0.0275
  weight sum            88        21      6795       206        50      2684       278       119      1438       266       107       119       748       101       272       327      1377       650        81       203       905       440       423       350       142        95         8
  precision         0.1647    0.1647    0.1647    0.1647    0.1647    0.1647    0.1647    0.1647    0.1647    0.1647    0.1647    0.1647    0.1647    0.1647    0.1647    0.1647    0.1647    0.1647    0.1647    0.1647    0.1647    0.1647    0.1647    0.1647    0.1647    0.1647    0.1647

2Melogram(st)
  mean             18.3304   57.0055    4.1833   30.8219   48.0494    53.038   13.1534   55.3978   50.1673   53.0952   52.3042   28.2039   47.7876   23.5686   51.0287   51.2117   46.7989   50.8912   18.1582   24.7793   19.2083   44.2001   52.9506    17.145   50.1795   42.2147     6.515
  std. dev.         26.881     8.789   14.5506   24.6142    8.1267   14.9413   23.5725    6.2667    15.729   10.7263   16.2008   28.0681   17.1488   28.3215   13.9559    9.3205   20.3195   15.4478   26.6522   28.5062   26.2584   21.4146   16.4082   26.2683   12.2902   16.9263   17.2371
  weight sum            88        21      6795       206        50      2684       278       119      1438       266       107       119       748       101       272       327      1377       650        81       203       905       440       423       350       142        95         8
  precision         0.0294    0.0294    0.0294    0.0294    0.0294    0.0294    0.0294    0.0294    0.0294    0.0294    0.0294    0.0294    0.0294    0.0294    0.0294    0.0294    0.0294    0.0294    0.0294    0.0294    0.0294    0.0294    0.0294    0.0294    0.0294    0.0294    0.0294

2ZCross
  mean              7.1098     3.878     0.176    1.2425    2.8698    7.2369    1.2136    3.6499    4.8777     3.601    4.4338     0.793    3.3458    3.8141    2.6852    3.1269    4.0104    2.6192    2.9045    0.8851    3.5567    3.3052    3.6091    0.3841    3.0769    1.4968         0
  std. dev.        11.2288    2.2567    0.9113    1.7081     2.073    4.4828    3.0992    1.7468    3.2885    2.1368    2.8448    1.6257    3.3619    3.6444    1.5427    1.9806    3.2415    1.8369    5.6311     2.407    6.4805     2.615     2.929    1.0549    1.9145     1.606    0.2154
  weight sum            88        21      6795       206        50      2684       278       119      1438       266       107       119       748       101       272       327      1377       650        81       203       905       440       423       350       142        95         8
  precision         1.2927    1.2927    1.2927    1.2927    1.2927    1.2927    1.2927    1.2927    1.2927    1.2927    1.2927    1.2927    1.2927    1.2927    1.2927    1.2927    1.2927    1.2927    1.2927    1.2927    1.2927    1.2927    1.2927    1.2927    1.2927    1.2927    1.2927

2F1(Hz)
  mean            186.7484  596.3535   46.3631  450.4309  446.2853  685.3401  108.1119  475.9176  452.4055  513.7324  508.9472  355.4012  353.4925  484.4467  438.0606  481.5807  474.0843  493.4379  194.7788  268.8187  246.6757  507.4675  482.6221  139.1274  487.9085  352.7381         0
  std. dev.        285.582  131.8171  157.5875   272.391   80.9776  270.5143  219.3566  132.9536  159.6131  147.7122   182.517  334.8181  155.8578  317.1139  169.9994  150.0679  229.5879  153.6286  244.1212  304.6746  302.7801  228.0568  319.3509  224.9236  169.4416  180.1138    0.0615
  weight sum            88        21      6795       206        50      2684       278       119      1438       266       107       119       748       101       272       327      1377       650        81       203       905       440       423       350       142        95         8
  precision         0.3688    0.3688    0.3688    0.3688    0.3688    0.3688    0.3688    0.3688    0.3688    0.3688    0.3688    0.3688    0.3688    0.3688    0.3688    0.3688    0.3688    0.3688    0.3688    0.3688    0.3688    0.3688    0.3688    0.3688    0.3688    0.3688    0.3688

2F2(Hz)
  mean            557.5339 1677.2585  141.7193 1302.9435 1938.1096 1439.7475  320.9953 1592.7064 1730.4304 1489.1875 1730.5088   921.643 1886.1841 1434.0044 1655.2822 1661.6792 1149.4791 1631.3556   811.932  816.0242  762.1553  1399.565 1027.4385  470.7218   1535.49 1370.9709         0
  std. dev.       818.9804  129.6918  475.9552  764.3072  363.0502  439.1719   665.828  356.6616  583.9406  299.1535  532.3332  849.5675  727.5947  850.1505  474.4892  375.5223  557.6755   421.869  987.4242   884.377  905.8102  578.0643  482.4236  737.8472  446.1294  632.1899    0.0751
  weight sum            88        21      6795       206        50      2684       278       119      1438       266       107       119       748       101       272       327      1377       650        81       203       905       440       423       350       142        95         8
  precision         0.4504    0.4504    0.4504    0.4504    0.4504    0.4504    0.4504    0.4504    0.4504    0.4504    0.4504    0.4504    0.4504    0.4504    0.4504    0.4504    0.4504    0.4504    0.4504    0.4504    0.4504    0.4504    0.4504    0.4504    0.4504    0.4504    0.4504

2F3(Hz)
  mean            924.8809 2873.0419  243.8749 2127.9338 2538.6792 2680.7979  581.1487 2768.7739 2566.2209 2878.9701 2976.1527  1580.627 2569.2982 2076.9357 2750.6083 2779.0351 2474.5963 2811.0177 1205.7557 1349.2428 1269.2773 2442.2833 2578.9648  860.1903 2648.9603 2393.4621         0
  std. dev.      1360.7308  399.6352  803.8509 1159.3081  115.8264  800.8336 1171.3084  462.7451  864.4824  419.4367  827.9906 1446.2534 1001.9819 1233.4839   622.276  607.6561 1047.0894  585.9109 1422.8996 1454.3339 1485.3307 1011.6955   937.242 1328.7103  732.7104 1123.0861    0.1118
  weight sum            88        21      6795       206        50      2684       278       119      1438       266       107       119       748       101       272       327      1377       650        81       203       905       440       423       350       142        95         8
  precision         0.6705    0.6705    0.6705    0.6705    0.6705    0.6705    0.6705    0.6705    0.6705    0.6705    0.6705    0.6705    0.6705    0.6705    0.6705    0.6705    0.6705    0.6705    0.6705    0.6705    0.6705    0.6705    0.6705    0.6705    0.6705    0.6705    0.6705

2F4(Hz)
  mean           1101.2987 3243.3662  293.9884 2648.2481 3587.3982 3084.2343  657.8236 3307.9819 3090.2109 3351.4375 2973.4111 1825.2207 3069.7504 2591.3756 3287.1003 3209.8195 2853.8724   3216.71 1463.8958 1593.1889 1447.4735 2854.5371 2942.8419  970.9291 3192.5289 2739.5434         0
  std. dev.      1618.8558  423.2397  966.8453 1428.4275   92.6757  910.7211 1327.5663  436.4847 1010.4123  448.5867  831.3383 1655.5543 1158.3793 1520.7459  681.3686  637.0083 1192.6404    667.17 1741.3978 1696.1758 1691.2509 1121.0024  994.8814 1502.9051  797.8462 1271.8129    0.1142
  weight sum            88        21      6795       206        50      2684       278       119      1438       266       107       119       748       101       272       327      1377       650        81       203       905       440       423       350       142        95         8
  precision         0.6851    0.6851    0.6851    0.6851    0.6851    0.6851    0.6851    0.6851    0.6851    0.6851    0.6851    0.6851    0.6851    0.6851    0.6851    0.6851    0.6851    0.6851    0.6851    0.6851    0.6851    0.6851    0.6851    0.6851    0.6851    0.6851    0.6851

3Int(dB)
  mean            -19.0814   -10.564  -49.8217  -20.7518   -10.651   -3.1239   -24.237   -5.8918   -5.4216   -7.8401    -7.615  -21.5769   -9.1229  -15.4779   -7.6993   -8.3034   -8.3525   -9.3733  -22.3313  -22.5999  -21.5058  -11.9183   -5.5461  -25.6222   -9.2619  -16.1571  -28.0322
  std. dev.         8.3794    4.2228   14.6169   11.3686    6.2337    8.4027    9.8677     4.366    8.2134    6.1435    7.8549    5.6378    8.6417    6.1848    6.0498     5.792   12.1594    7.7206   10.9438   10.4858    6.7641    9.7379    7.9501    9.8486     6.325    5.0145    3.0174
  weight sum            88        21      6795       206        50      2684       278       119      1438       266       107       119       748       101       272       327      1377       650        81       203       905       440       423       350       142        95         8
  precision         0.1005    0.1005    0.1005    0.1005    0.1005    0.1005    0.1005    0.1005    0.1005    0.1005    0.1005    0.1005    0.1005    0.1005    0.1005    0.1005    0.1005    0.1005    0.1005    0.1005    0.1005    0.1005    0.1005    0.1005    0.1005    0.1005    0.1005

3Pitch(Hz)
  mean             77.6495  248.6632   11.8153   88.6305  146.2458  226.0088   68.8773  215.3605  190.3918  201.0018  217.1294   89.6626  173.2212  160.2725  193.0406  173.5217  179.1301  191.7203   92.8244  101.0594   58.4205     162.5  230.9859   83.9606  179.4156  119.7435         0
  std. dev.        114.169  122.8744   47.9052   86.8337   37.7558  102.2025  104.3432   72.1803   87.4257   84.8129     97.99  119.8396   75.5653   128.781   85.9993   65.1768   103.979   89.2387   116.884  120.1185   97.2112   94.0654   83.0165  115.3984   70.8481   68.2851    0.0271
  weight sum            88        21      6795       206        50      2684       278       119      1438       266       107       119       748       101       272       327      1377       650        81       203       905       440       423       350       142        95         8
  precision         0.1626    0.1626    0.1626    0.1626    0.1626    0.1626    0.1626    0.1626    0.1626    0.1626    0.1626    0.1626    0.1626    0.1626    0.1626    0.1626    0.1626    0.1626    0.1626    0.1626    0.1626    0.1626    0.1626    0.1626    0.1626    0.1626    0.1626

3RawPitch
  mean             52.1893  240.3952    9.4625   69.5402   135.745   216.219   52.1615  213.0008  186.9416  195.4717   203.988   53.3253  164.8509  112.0009  182.4391  159.1457  172.8881  179.3233   53.0661   75.9229   35.4666  156.5619  221.8351   61.2075  165.4778   86.7859         0
  std. dev.        99.7193  129.1598   41.8782   85.3335   62.4099  107.4348   93.6374   74.2022   92.1579   93.1794  111.7049   91.6829   80.9322  111.4484   95.6759   75.4546  110.0663  101.2616  100.9754  112.2847   78.8653   98.0512   90.5835  101.7704   80.6042   76.2217     0.028
  weight sum            88        21      6795       206        50      2684       278       119      1438       266       107       119       748       101       272       327      1377       650        81       203       905       440       423       350       142        95         8
  precision         0.1679    0.1679    0.1679    0.1679    0.1679    0.1679    0.1679    0.1679    0.1679    0.1679    0.1679    0.1679    0.1679    0.1679    0.1679    0.1679    0.1679    0.1679    0.1679    0.1679    0.1679    0.1679    0.1679    0.1679    0.1679    0.1679    0.1679

3SmPitch
  mean             71.8091  248.6628   10.2255   81.6346  148.1583   224.319   58.5754  215.3632  188.8901  200.6341  215.3063   77.2901   170.918  128.4736  190.7569  172.9529  177.1958  189.2119   75.7723   90.2963   51.3331   159.705  230.1655   75.1964  176.6789  114.2394         0
  std. dev.       110.8409  122.8761   43.0597   83.6012   35.5963  103.8158  101.5424   72.1765   88.8533   85.6348  100.1796  107.8428   77.6434  139.0808   89.2888   65.7996  105.5718   92.1796  111.1442  118.5691   92.1664   95.5864   83.5323   111.752   74.1419   70.5684    0.0274
  weight sum            88        21      6795       206        50      2684       278       119      1438       266       107       119       748       101       272       327      1377       650        81       203       905       440       423       350       142        95         8
  precision         0.1647    0.1647    0.1647    0.1647    0.1647    0.1647    0.1647    0.1647    0.1647    0.1647    0.1647    0.1647    0.1647    0.1647    0.1647    0.1647    0.1647    0.1647    0.1647    0.1647    0.1647    0.1647    0.1647    0.1647    0.1647    0.1647    0.1647

3Melogram(st)
  mean             19.7831   56.8115    3.6608   27.2818   49.2962   53.6675   18.2983   55.3973    50.757   53.0359   51.8536    26.048   48.7629   22.0537   51.1178   51.1759   46.9889   49.9973   22.4883   25.8102   16.3662   43.5626   54.7081   21.5794   51.3611   42.8327         0
  std. dev.        27.5706    9.0272   13.7177   24.9859    4.5337   13.6842   26.4593    6.2177   14.7786   10.7827   16.9829   28.1169   15.7624   28.1228   13.9765    9.3126   20.0024   16.6205   28.1066   28.2544   25.2647   22.0153      13.2   27.8404    9.7628   16.4263    0.0049
  weight sum            88        21      6795       206        50      2684       278       119      1438       266       107       119       748       101       272       327      1377       650        81       203       905       440       423       350       142        95         8
  precision         0.0294    0.0294    0.0294    0.0294    0.0294    0.0294    0.0294    0.0294    0.0294    0.0294    0.0294    0.0294    0.0294    0.0294    0.0294    0.0294    0.0294    0.0294    0.0294    0.0294    0.0294    0.0294    0.0294    0.0294    0.0294    0.0294    0.0294

3ZCross
  mean              8.0352    3.3856    0.1408     0.935    3.0249    7.3294    1.6275    3.8237    4.8831    3.7468    4.3613    0.6192    3.3285    3.6989    2.5711    2.9846    4.0329     2.295    4.0696    0.9233    3.5638    2.9761     3.713    0.7054    2.9586    1.4968         0
  std. dev.        12.1849    2.3424    0.7915    1.4833    2.2481    4.4255    3.3215    1.8002    3.1607    2.1448    2.7409    1.4786    3.1155    3.6519    1.3416    1.8611    2.9611    1.5017     6.427    2.2102    6.6592     2.381    2.8728    1.4341    1.7054     1.595    0.2154
  weight sum            88        21      6795       206        50      2684       278       119      1438       266       107       119       748       101       272       327      1377       650        81       203       905       440       423       350       142        95         8
  precision         1.2927    1.2927    1.2927    1.2927    1.2927    1.2927    1.2927    1.2927    1.2927    1.2927    1.2927    1.2927    1.2927    1.2927    1.2927    1.2927    1.2927    1.2927    1.2927    1.2927    1.2927    1.2927    1.2927    1.2927    1.2927    1.2927    1.2927

3F1(Hz)
  mean            160.6998  613.5628    40.076   410.892  445.1347  710.3558  126.3501  477.7832  467.7497  516.3637  500.5551  293.0667  366.3373   470.795  432.8978  472.7167  488.3137    469.73  197.8336  262.9692  198.5962   493.922  499.4556  141.7193  489.0979  353.5416         0
  std. dev.       267.2971  138.1947  146.5436  293.3077   84.6291  245.4904  233.9364  132.4039  137.6849   149.061  184.0787  335.6295  136.8258  334.1598  164.9276  140.2743  220.1308   154.595  246.6861  296.9297  287.8838  231.1068   302.477  225.4522  159.5841   173.601    0.0615
  weight sum            88        21      6795       206        50      2684       278       119      1438       266       107       119       748       101       272       327      1377       650        81       203       905       440       423       350       142        95         8
  precision         0.3688    0.3688    0.3688    0.3688    0.3688    0.3688    0.3688    0.3688    0.3688    0.3688    0.3688    0.3688    0.3688    0.3688    0.3688    0.3688    0.3688    0.3688    0.3688    0.3688    0.3688    0.3688    0.3688    0.3688    0.3688    0.3688    0.3688

3F2(Hz)
  mean            507.3849 1646.3551  123.5058 1185.2173 1925.4093 1474.9501  353.8751 1576.1489 1804.3312  1487.044  1706.467  753.8431 1998.9223  1339.941 1667.1307 1670.6231 1157.6298 1607.4525   804.665  791.6004  620.4736 1384.7266 1072.0404  481.9616 1580.3836 1406.3078         0
  std. dev.       809.2374  124.3386  447.0173  819.2806  350.2846  373.1444  671.6031  352.2262  496.1344  307.7561  559.5245  846.5228  624.7892  881.0201  440.9842  341.4083  525.4581  447.1571   975.108  861.5481  872.6886  597.3845  424.8655   746.218  364.9676  626.0495    0.0751
  weight sum            88        21      6795       206        50      2684       278       119      1438       266       107       119       748       101       272       327      1377       650        81       203       905       440       423       350       142        95         8
  precision         0.4504    0.4504    0.4504    0.4504    0.4504    0.4504    0.4504    0.4504    0.4504    0.4504    0.4504    0.4504    0.4504    0.4504    0.4504    0.4504    0.4504    0.4504    0.4504    0.4504    0.4504    0.4504    0.4504    0.4504    0.4504    0.4504    0.4504

3F3(Hz)
  mean            815.6971 2878.1508  212.0997 1928.4643 2525.5501 2749.0319  668.7844 2760.3104 2653.2835 2875.6804 2943.5343 1292.8131 2693.2397 1959.5845 2751.0866 2808.2538 2526.8298 2775.5254 1207.9329 1334.5273 1028.4704 2410.6703 2703.6172  868.1084 2719.9525  2433.031         0
  std. dev.      1298.7799  422.0628  754.3371 1263.0595  111.9726  684.6052 1227.1559   469.379  742.6344  453.3058  876.6084 1442.3291  863.6174 1279.3581  576.3269  575.8686  995.0347  648.2804 1426.1474 1439.2326 1427.0793 1048.5757  758.4179 1330.4613  594.2459 1101.5516    0.1118
  weight sum            88        21      6795       206        50      2684       278       119      1438       266       107       119       748       101       272       327      1377       650        81       203       905       440       423       350       142        95         8
  precision         0.6705    0.6705    0.6705    0.6705    0.6705    0.6705    0.6705    0.6705    0.6705    0.6705    0.6705    0.6705    0.6705    0.6705    0.6705    0.6705    0.6705    0.6705    0.6705    0.6705    0.6705    0.6705    0.6705    0.6705    0.6705    0.6705    0.6705

3F4(Hz)
  mean            998.6249 3228.0327  256.0783 2406.8084   3591.92 3162.4058  773.8643  3303.497 3189.0151 3344.0454 2953.1522 1496.7859 3209.5559 2464.4123 3307.9787  3233.941 2910.5036 3182.3562 1443.9683  1591.677 1178.4883 2804.2139 3086.4504  985.6571   3287.48 2773.3087         0
  std. dev.      1588.9955  403.3343  908.4829 1563.9842   91.1897  774.8805 1420.2752  430.5134  856.4692  491.6785  883.5322 1658.5798  985.3806 1594.7315  625.5718  585.2383 1127.9374  747.5758 1718.2445 1694.5457 1633.2146 1165.5043  766.0819 1516.0453  587.4544 1242.1583    0.1142
  weight sum            88        21      6795       206        50      2684       278       119      1438       266       107       119       748       101       272       327      1377       650        81       203       905       440       423       350       142        95         8
  precision         0.6851    0.6851    0.6851    0.6851    0.6851    0.6851    0.6851    0.6851    0.6851    0.6851    0.6851    0.6851    0.6851    0.6851    0.6851    0.6851    0.6851    0.6851    0.6851    0.6851    0.6851    0.6851    0.6851    0.6851    0.6851    0.6851    0.6851





=== Stratified cross-validation ===

Correctly Classified Instances        5515               30.1481 %
Incorrectly Classified Instances     12778               69.8519 %
Kappa statistic                          0.2224
K&B Relative Info Score             311749.2526 %
K&B Information Score                10452.9446 bits      0.5714 bits/instance
Class complexity | order 0           61254.5461 bits      3.3485 bits/instance
Class complexity | scheme           795432.8172 bits     43.4829 bits/instance
Complexity improvement     (Sf)    -734178.2711 bits    -40.1344 bits/instance
Mean absolute error                      0.0518
Root mean squared error                  0.2174
Relative absolute error                 85.1566 %
Root relative squared error            124.7115 %
Coverage of cases (0.95 level)          34.6745 %
Mean rel. region size (0.95 level)       5.5259 %
Total Number of Instances            18293     


=== Detailed Accuracy By Class ===

                 TP Rate  FP Rate  Precision  Recall   F-Measure  MCC      ROC Area  PRC Area  Class
                 0,205    0,006    0,148      0,205    0,171      0,169    0,759     0,070     ch
                 0,333    0,019    0,020      0,333    0,037      0,077    0,825     0,022     rr
                 0,576    0,018    0,949      0,576    0,717      0,645    0,934     0,913     0
                 0,146    0,027    0,058      0,146    0,083      0,076    0,726     0,040     hs
                 0,880    0,134    0,018      0,880    0,035      0,114    0,940     0,065     hg
                 0,364    0,031    0,670      0,364    0,472      0,435    0,864     0,578     a
                 0,183    0,021    0,117      0,183    0,143      0,130    0,612     0,075     c
                 0,403    0,121    0,021      0,403    0,041      0,069    0,833     0,036     b
                 0,031    0,006    0,315      0,031    0,057      0,078    0,738     0,190     e
                 0,068    0,032    0,030      0,068    0,042      0,024    0,781     0,032     d
                 0,093    0,009    0,061      0,093    0,074      0,069    0,757     0,022     g
                 0,067    0,008    0,053      0,067    0,059      0,053    0,640     0,026     f
                 0,074    0,010    0,248      0,074    0,113      0,116    0,796     0,170     i
                 0,188    0,002    0,373      0,188    0,250      0,262    0,784     0,159     j
                 0,000    0,002    0,000      0,000    0,000      -0,006   0,768     0,032     m
                 0,156    0,033    0,080      0,156    0,106      0,089    0,808     0,054     l
                 0,008    0,004    0,153      0,008    0,015      0,018    0,709     0,146     o
                 0,009    0,016    0,021      0,009    0,013      -0,010   0,772     0,075     n
                 0,049    0,002    0,103      0,049    0,067      0,068    0,692     0,020     q
                 0,010    0,004    0,027      0,010    0,014      0,010    0,655     0,028     p
                 0,108    0,002    0,748      0,108    0,189      0,274    0,681     0,265     s
                 0,005    0,001    0,071      0,005    0,009      0,012    0,713     0,053     r
                 0,116    0,007    0,283      0,116    0,164      0,169    0,836     0,152     u
                 0,091    0,016    0,100      0,091    0,095      0,079    0,625     0,065     t
                 0,000    0,001    0,000      0,000    0,000      -0,002   0,732     0,015     v
                 0,095    0,016    0,029      0,095    0,045      0,044    0,853     0,026     y
                 0,875    0,169    0,002      0,875    0,005      0,039    0,859     0,003     z
Weighted Avg.    0,301    0,017    0,554      0,301    0,371      0,344    0,828     0,485     


=== Confusion Matrix ===

    a    b    c    d    e    f    g    h    i    j    k    l    m    n    o    p    q    r    s    t    u    v    w    x    y    z   aa   <-- classified as
   18    4    5    6    1    3   14    4    0    3    0    2    0    2    0    1    0    2    0    0    5    0    0    5    0    0   13 |    a = ch
    0    7    0    0   11    0    0    2    0    0    0    0    0    0    0    0    0    0    0    0    0    0    1    0    0    0    0 |    b = rr
    6   19 3913  116  129    8   15   79    4   55    3   28    3    4    1   30    3   68    1    1    2    3    5   66    0   28 2205 |    c = 0
    0    5    4   30   68    4    1   10    2    3    0    6    0    0    0   10    0    6    0    0    3    4    0   10    0    9   31 |    d = hs
    0    0    0    0   44    0    0    2    0    1    0    0    1    0    0    0    0    2    0    0    0    0    0    0    0    0    0 |    e = hg
    2   78   27   31  392  978   64  412   36  286   17    6   27    4    0   91   33   19   12   20    3    5   46   25    2   25   43 |    f = a
    5    0   34   18    9    0   51    5    0    0    0    8    1    0    0    0    1   10    6    4    4    0    1   17    1    1  102 |    g = c
    0   10    0    0   37    5    0   48    0    3    2    0    0    0    0   11    0    0    0    0    0    0    0    0    0    3    0 |    h = b
    9   30    8   23  492  112   32  335   45   22   62    6   58    1    1   49   12   16    5   13    3    1   24   24    1   16   38 |    i = e
    0   19    0    5   79   16    0   95    0   18    1    0    0    0    1   22    0    0    0    0    0    0    0    1    0    9    0 |    j = d
    0    7    0    1   31   12    0   26    0    0   10    4    1    0    0    9    0    1    0    0    0    0    0    1    0    1    3 |    k = g
    0    4    2   14   12    5    9    5    0    1    2    8    0    1    0    4    0   11    0    0    0    0    0    5    0    3   33 |    l = f
   10    3    7   18  191   28   28  158   25    3   19    1   55    1   13   68    4    9    2    8    3    0    4   22    0   43   25 |    m = i
    0    3    1   10    6    8    2    9    0    0    3    6    1   19    0    1    0    9    0    1    2    4    1    3    0    1   11 |    n = j
    0    3    2    6  105   14    1   83    0    9    2    0    3    0    0   27    0    0    0    0    0    0    0    4    0   10    3 |    o = m
    0   15    1    4  126    8    4   94    1    5    0    1    3    0    0   51    0    2    0    1    0    0    1    4    0    6    0 |    p = l
    6   29    5   43  248  119   30  347   20  106    7    5   32    3    0   99   11    7    5   14    0    1   34   23    4   57  122 |    q = o
    0   54    0   32  189   20    1  218    1   13   12    3    8    1    0   54    0    6    0    0    0    0    0    3    0   23   12 |    r = n
    3    0   15    4    7    3   10    3    0    3    0    3    0    1    0    0    0    6    4    0    5    0    0    0    0    0   14 |    s = q
    0    4   16   24   13    9   24    9    1    6    0   11    4    1    0    1    1   11    1    2    0    2    1   11    0    5   46 |    t = p
   62   27   46   70   52   27   73   29    2   21    6   32    1   13    0   19    0   54    0    0   98    4    1   32    0   18  218 |    u = s
    0   23    2   31   87   29    6   82    3   25   10    8    8    0    1   50    2   12    0    1    0    2    2   10    2    9   35 |    v = r
    1    5    6    2   31   47   14  148    3    5    4    1   12    0   19   24    3    2    2    8    2    2   49   11    1   19    2 |    w = u
    0    6   25   24   17    0   50    4    0    6    3   10    0    0    0    0    2   25    1    1    0    0    1   32    0    7  136 |    x = t
    0    3    2    1   64    5    3   32    0    4    2    0    3    0    1   11    0    1    0    0    0    0    0    3    0    6    1 |    y = v
    0    0    2    3   49    0    5    5    0    0    0    1    1    0    0    5    0    3    0    0    1    0    2    8    0    9    1 |    z = y
    0    0    0    0    0    0    0    0    0    0    0    0    0    0    0    0    0    0    0    0    0    0    0    1    0    0    7 |   aa = z

=== Percent Confusion Matrix ===
a	b	c	d	e	f	g	h	i	j	k	l	m	n	o	p	q	r	s	t	u	v	w	x	y	z	aa	
20.45	4.55	5.68	6.82	1.14	3.41	15.91	4.55	0.0	3.41	0.0	2.27	0.0	2.27	0.0	1.14	0.0	2.27	0.0	0.0	5.68	0.0	0.0	5.68	0.0	0.0	14.77	 a = ch
0.0	33.33	0.0	0.0	52.38	0.0	0.0	9.52	0.0	0.0	0.0	0.0	0.0	0.0	0.0	0.0	0.0	0.0	0.0	0.0	0.0	0.0	4.76	0.0	0.0	0.0	0.0	 b = rr
0.09	0.28	57.59	1.71	1.9	0.12	0.22	1.16	0.06	0.81	0.04	0.41	0.04	0.06	0.01	0.44	0.04	1.0	0.01	0.01	0.03	0.04	0.07	0.97	0.0	0.41	32.45	 c = 0
0.0	2.43	1.94	14.56	33.01	1.94	0.49	4.85	0.97	1.46	0.0	2.91	0.0	0.0	0.0	4.85	0.0	2.91	0.0	0.0	1.46	1.94	0.0	4.85	0.0	4.37	15.05	 d = hs
0.0	0.0	0.0	0.0	88.0	0.0	0.0	4.0	0.0	2.0	0.0	0.0	2.0	0.0	0.0	0.0	0.0	4.0	0.0	0.0	0.0	0.0	0.0	0.0	0.0	0.0	0.0	 e = hg
0.07	2.91	1.01	1.15	14.61	36.44	2.38	15.35	1.34	10.66	0.63	0.22	1.01	0.15	0.0	3.39	1.23	0.71	0.45	0.75	0.11	0.19	1.71	0.93	0.07	0.93	1.6	 f = a
1.8	0.0	12.23	6.47	3.24	0.0	18.35	1.8	0.0	0.0	0.0	2.88	0.36	0.0	0.0	0.0	0.36	3.6	2.16	1.44	1.44	0.0	0.36	6.12	0.36	0.36	36.69	 g = c
0.0	8.4	0.0	0.0	31.09	4.2	0.0	40.34	0.0	2.52	1.68	0.0	0.0	0.0	0.0	9.24	0.0	0.0	0.0	0.0	0.0	0.0	0.0	0.0	0.0	2.52	0.0	 h = b
0.63	2.09	0.56	1.6	34.21	7.79	2.23	23.3	3.13	1.53	4.31	0.42	4.03	0.07	0.07	3.41	0.83	1.11	0.35	0.9	0.21	0.07	1.67	1.67	0.07	1.11	2.64	 i = e
0.0	7.14	0.0	1.88	29.7	6.02	0.0	35.71	0.0	6.77	0.38	0.0	0.0	0.0	0.38	8.27	0.0	0.0	0.0	0.0	0.0	0.0	0.0	0.38	0.0	3.38	0.0	 j = d
0.0	6.54	0.0	0.93	28.97	11.21	0.0	24.3	0.0	0.0	9.35	3.74	0.93	0.0	0.0	8.41	0.0	0.93	0.0	0.0	0.0	0.0	0.0	0.93	0.0	0.93	2.8	 k = g
0.0	3.36	1.68	11.76	10.08	4.2	7.56	4.2	0.0	0.84	1.68	6.72	0.0	0.84	0.0	3.36	0.0	9.24	0.0	0.0	0.0	0.0	0.0	4.2	0.0	2.52	27.73	 l = f
1.34	0.4	0.94	2.41	25.53	3.74	3.74	21.12	3.34	0.4	2.54	0.13	7.35	0.13	1.74	9.09	0.53	1.2	0.27	1.07	0.4	0.0	0.53	2.94	0.0	5.75	3.34	 m = i
0.0	2.97	0.99	9.9	5.94	7.92	1.98	8.91	0.0	0.0	2.97	5.94	0.99	18.81	0.0	0.99	0.0	8.91	0.0	0.99	1.98	3.96	0.99	2.97	0.0	0.99	10.89	 n = j
0.0	1.1	0.74	2.21	38.6	5.15	0.37	30.51	0.0	3.31	0.74	0.0	1.1	0.0	0.0	9.93	0.0	0.0	0.0	0.0	0.0	0.0	0.0	1.47	0.0	3.68	1.1	 o = m
0.0	4.59	0.31	1.22	38.53	2.45	1.22	28.75	0.31	1.53	0.0	0.31	0.92	0.0	0.0	15.6	0.0	0.61	0.0	0.31	0.0	0.0	0.31	1.22	0.0	1.83	0.0	 p = l
0.44	2.11	0.36	3.12	18.01	8.64	2.18	25.2	1.45	7.7	0.51	0.36	2.32	0.22	0.0	7.19	0.8	0.51	0.36	1.02	0.0	0.07	2.47	1.67	0.29	4.14	8.86	 q = o
0.0	8.31	0.0	4.92	29.08	3.08	0.15	33.54	0.15	2.0	1.85	0.46	1.23	0.15	0.0	8.31	0.0	0.92	0.0	0.0	0.0	0.0	0.0	0.46	0.0	3.54	1.85	 r = n
3.7	0.0	18.52	4.94	8.64	3.7	12.35	3.7	0.0	3.7	0.0	3.7	0.0	1.23	0.0	0.0	0.0	7.41	4.94	0.0	6.17	0.0	0.0	0.0	0.0	0.0	17.28	 s = q
0.0	1.97	7.88	11.82	6.4	4.43	11.82	4.43	0.49	2.96	0.0	5.42	1.97	0.49	0.0	0.49	0.49	5.42	0.49	0.99	0.0	0.99	0.49	5.42	0.0	2.46	22.66	 t = p
6.85	2.98	5.08	7.73	5.75	2.98	8.07	3.2	0.22	2.32	0.66	3.54	0.11	1.44	0.0	2.1	0.0	5.97	0.0	0.0	10.83	0.44	0.11	3.54	0.0	1.99	24.09	 u = s
0.0	5.23	0.45	7.05	19.77	6.59	1.36	18.64	0.68	5.68	2.27	1.82	1.82	0.0	0.23	11.36	0.45	2.73	0.0	0.23	0.0	0.45	0.45	2.27	0.45	2.05	7.95	 v = r
0.24	1.18	1.42	0.47	7.33	11.11	3.31	34.99	0.71	1.18	0.95	0.24	2.84	0.0	4.49	5.67	0.71	0.47	0.47	1.89	0.47	0.47	11.58	2.6	0.24	4.49	0.47	 w = u
0.0	1.71	7.14	6.86	4.86	0.0	14.29	1.14	0.0	1.71	0.86	2.86	0.0	0.0	0.0	0.0	0.57	7.14	0.29	0.29	0.0	0.0	0.29	9.14	0.0	2.0	38.86	 x = t
0.0	2.11	1.41	0.7	45.07	3.52	2.11	22.54	0.0	2.82	1.41	0.0	2.11	0.0	0.7	7.75	0.0	0.7	0.0	0.0	0.0	0.0	0.0	2.11	0.0	4.23	0.7	 y = v
0.0	0.0	2.11	3.16	51.58	0.0	5.26	5.26	0.0	0.0	0.0	1.05	1.05	0.0	0.0	5.26	0.0	3.16	0.0	0.0	1.05	0.0	2.11	8.42	0.0	9.47	1.05	 z = y
0.0	0.0	0.0	0.0	0.0	0.0	0.0	0.0	0.0	0.0	0.0	0.0	0.0	0.0	0.0	0.0	0.0	0.0	0.0	0.0	0.0	0.0	0.0	12.5	0.0	0.0	87.5	 aa = z
