Timestamp:2013-08-30-03:53:47
Inventario:I0
Intervalo:10ms
Ngramas:4
Clasificador:BayesNet
Relation Name:  I0-10ms-4gramas
Num Instances:  18293
Num Attributes: 41

     Name                      Type  Nom  Int Real     Missing      Unique  Dist
   1 0Int(dB)                   Num   0%  10%  90%     0 /  0%     7 /  0%   772 
   2 0Pitch(Hz)                 Num   0%  51%  49%     0 /  0%   816 /  4%  3063 
   3 0RawPitch                  Num   0%  54%  46%     0 /  0%   853 /  5%  2955 
   4 0SmPitch                   Num   0%  52%  48%     0 /  0%   827 /  5%  3024 
   5 0Melogram(st)              Num   0%  47%  53%     0 /  0%   581 /  3%  2807 
   6 0ZCross                    Num   0% 100%   0%     0 /  0%    10 /  0%    42 
   7 0F1(Hz)                    Num   0%  51%  49%     0 /  0%  2131 / 12%  4724 
   8 0F2(Hz)                    Num   0%  51%  49%     0 /  0%  4210 / 23%  6615 
   9 0F3(Hz)                    Num   0%  51%  49%     0 /  0%  3688 / 20%  6145 
  10 0F4(Hz)                    Num   0%  51%  49%     0 /  0%  3689 / 20%  6054 
  11 1Int(dB)                   Num   0%  10%  90%     0 /  0%     7 /  0%   772 
  12 1Pitch(Hz)                 Num   0%  51%  49%     0 /  0%   816 /  4%  3063 
  13 1RawPitch                  Num   0%  54%  46%     0 /  0%   853 /  5%  2955 
  14 1SmPitch                   Num   0%  52%  48%     0 /  0%   827 /  5%  3024 
  15 1Melogram(st)              Num   0%  47%  53%     0 /  0%   581 /  3%  2807 
  16 1ZCross                    Num   0% 100%   0%     0 /  0%    10 /  0%    42 
  17 1F1(Hz)                    Num   0%  51%  49%     0 /  0%  2131 / 12%  4724 
  18 1F2(Hz)                    Num   0%  51%  49%     0 /  0%  4210 / 23%  6615 
  19 1F3(Hz)                    Num   0%  51%  49%     0 /  0%  3688 / 20%  6145 
  20 1F4(Hz)                    Num   0%  51%  49%     0 /  0%  3689 / 20%  6054 
  21 2Int(dB)                   Num   0%  10%  90%     0 /  0%     7 /  0%   772 
  22 2Pitch(Hz)                 Num   0%  51%  49%     0 /  0%   816 /  4%  3063 
  23 2RawPitch                  Num   0%  54%  46%     0 /  0%   853 /  5%  2955 
  24 2SmPitch                   Num   0%  52%  48%     0 /  0%   827 /  5%  3024 
  25 2Melogram(st)              Num   0%  47%  53%     0 /  0%   581 /  3%  2807 
  26 2ZCross                    Num   0% 100%   0%     0 /  0%    10 /  0%    42 
  27 2F1(Hz)                    Num   0%  51%  49%     0 /  0%  2131 / 12%  4724 
  28 2F2(Hz)                    Num   0%  51%  49%     0 /  0%  4210 / 23%  6615 
  29 2F3(Hz)                    Num   0%  51%  49%     0 /  0%  3688 / 20%  6145 
  30 2F4(Hz)                    Num   0%  51%  49%     0 /  0%  3689 / 20%  6054 
  31 3Int(dB)                   Num   0%  10%  90%     0 /  0%     7 /  0%   772 
  32 3Pitch(Hz)                 Num   0%  51%  49%     0 /  0%   817 /  4%  3064 
  33 3RawPitch                  Num   0%  54%  46%     0 /  0%   854 /  5%  2956 
  34 3SmPitch                   Num   0%  52%  48%     0 /  0%   828 /  5%  3025 
  35 3Melogram(st)              Num   0%  47%  53%     0 /  0%   582 /  3%  2808 
  36 3ZCross                    Num   0% 100%   0%     0 /  0%    10 /  0%    42 
  37 3F1(Hz)                    Num   0%  51%  49%     0 /  0%  2131 / 12%  4724 
  38 3F2(Hz)                    Num   0%  51%  49%     0 /  0%  4210 / 23%  6615 
  39 3F3(Hz)                    Num   0%  51%  49%     0 /  0%  3688 / 20%  6145 
  40 3F4(Hz)                    Num   0%  51%  49%     0 /  0%  3689 / 20%  6054 
  41 class                      Nom 100%   0%   0%     0 /  0%     0 /  0%    27 


Options: -D -Q weka.classifiers.bayes.net.search.local.K2 -- -P 1 -S BAYES -E weka.classifiers.bayes.net.estimate.SimpleEstimator -- -A 0.5 

Bayes Network Classifier
not using ADTree
#attributes=41 #classindex=40
Network structure (nodes followed by parents)
0Int(dB)(10): class 
0Pitch(Hz)(7): class 
0RawPitch(4): class 
0SmPitch(6): class 
0Melogram(st)(7): class 
0ZCross(9): class 
0F1(Hz)(10): class 
0F2(Hz)(10): class 
0F3(Hz)(7): class 
0F4(Hz)(9): class 
1Int(dB)(10): class 
1Pitch(Hz)(6): class 
1RawPitch(4): class 
1SmPitch(6): class 
1Melogram(st)(8): class 
1ZCross(10): class 
1F1(Hz)(11): class 
1F2(Hz)(9): class 
1F3(Hz)(6): class 
1F4(Hz)(10): class 
2Int(dB)(11): class 
2Pitch(Hz)(5): class 
2RawPitch(4): class 
2SmPitch(5): class 
2Melogram(st)(8): class 
2ZCross(10): class 
2F1(Hz)(11): class 
2F2(Hz)(9): class 
2F3(Hz)(10): class 
2F4(Hz)(9): class 
3Int(dB)(9): class 
3Pitch(Hz)(5): class 
3RawPitch(4): class 
3SmPitch(4): class 
3Melogram(st)(8): class 
3ZCross(10): class 
3F1(Hz)(15): class 
3F2(Hz)(10): class 
3F3(Hz)(8): class 
3F4(Hz)(7): class 
class(27): 
LogScore Bayes: -826867.7590209901
LogScore BDeu: -867689.5760110151
LogScore MDL: -862685.1863954498
LogScore ENTROPY: -825327.1533584949
LogScore AIC: -832940.1533584951




=== Stratified cross-validation ===

Correctly Classified Instances        9494               51.8996 %
Incorrectly Classified Instances      8799               48.1004 %
Kappa statistic                          0.4206
K&B Relative Info Score             706973.3266 %
K&B Information Score                23704.7978 bits      1.2958 bits/instance
Class complexity | order 0           61254.5461 bits      3.3485 bits/instance
Class complexity | scheme           239006.5584 bits     13.0655 bits/instance
Complexity improvement     (Sf)    -177752.0123 bits     -9.7169 bits/instance
Mean absolute error                      0.0359
Root mean squared error                  0.174 
Relative absolute error                 58.9907 %
Root relative squared error             99.8504 %
Coverage of cases (0.95 level)          59.859  %
Mean rel. region size (0.95 level)       6.0873 %
Total Number of Instances            18293     


=== Detailed Accuracy By Class ===

                 TP Rate  FP Rate  Precision  Recall   F-Measure  MCC      ROC Area  PRC Area  Class
                 0,125    0,004    0,122      0,125    0,124      0,119    0,892     0,063     ch
                 0,095    0,010    0,011      0,095    0,019      0,029    0,923     0,011     rr
                 0,889    0,077    0,872      0,889    0,880      0,809    0,960     0,953     0
                 0,160    0,019    0,088      0,160    0,113      0,105    0,822     0,067     hs
                 0,860    0,056    0,040      0,860    0,077      0,179    0,972     0,161     hg
                 0,582    0,043    0,702      0,582    0,637      0,584    0,912     0,721     a
                 0,295    0,031    0,127      0,295    0,177      0,175    0,866     0,113     c
                 0,168    0,012    0,082      0,168    0,110      0,109    0,913     0,051     b
                 0,232    0,016    0,549      0,232    0,326      0,324    0,865     0,402     e
                 0,244    0,028    0,115      0,244    0,156      0,150    0,866     0,094     d
                 0,280    0,038    0,042      0,280    0,073      0,095    0,840     0,031     g
                 0,118    0,007    0,098      0,118    0,107      0,101    0,888     0,060     f
                 0,392    0,017    0,497      0,392    0,438      0,420    0,907     0,411     i
                 0,228    0,001    0,489      0,228    0,311      0,331    0,900     0,254     j
                 0,107    0,005    0,248      0,107    0,149      0,154    0,864     0,130     m
                 0,385    0,058    0,109      0,385    0,169      0,178    0,864     0,119     l
                 0,154    0,009    0,592      0,154    0,244      0,277    0,828     0,372     o
                 0,128    0,013    0,260      0,128    0,171      0,162    0,856     0,167     n
                 0,074    0,003    0,092      0,074    0,082      0,079    0,849     0,037     q
                 0,049    0,005    0,094      0,049    0,065      0,061    0,850     0,057     p
                 0,201    0,013    0,447      0,201    0,277      0,277    0,880     0,334     s
                 0,052    0,006    0,169      0,052    0,080      0,082    0,795     0,101     r
                 0,416    0,009    0,537      0,416    0,469      0,462    0,911     0,491     u
                 0,109    0,012    0,150      0,109    0,126      0,113    0,856     0,116     t
                 0,099    0,015    0,050      0,099    0,067      0,060    0,833     0,040     v
                 0,421    0,014    0,136      0,421    0,205      0,232    0,888     0,176     y
                 0,125    0,001    0,037      0,125    0,057      0,067    0,963     0,010     z
Weighted Avg.    0,519    0,042    0,603      0,519    0,536      0,503    0,906     0,588     


=== Confusion Matrix ===

    a    b    c    d    e    f    g    h    i    j    k    l    m    n    o    p    q    r    s    t    u    v    w    x    y    z   aa   <-- classified as
   11    0   16    3    0    7   20    0    1    0    0    3    1    0    0    4    0    5    0    2    9    0    0    6    0    0    0 |    a = ch
    0    2    0    0    5    5    0    0    1    0    0    0    0    0    0    6    0    1    0    0    0    0    1    0    0    0    0 |    b = rr
   10    4 6041   64   63   44   54    6   17   41   25   31   46    3    4   55   17   22    9   13   78   10    7   50   29   40   12 |    c = 0
    0    4   25   33   39    9    8    5    1    8    3    6    4    0    3   24    2    2    0    3   12    2    1    4    4    3    1 |    d = hs
    0    0    0    0   43    1    0    1    1    1    0    0    1    0    0    0    0    0    0    0    0    1    0    0    1    0    0 |    e = hg
    9   38   60   27   68 1563   74   12   69  142   93    8   23    1    0  177   67   26    9   10   19   50   17   23   69   28    2 |    f = a
    2    0  117   16    2    0   82    0    5    1    2    7    2    1    0    3    2    3    2    1   14    3    2    9    1    1    0 |    g = c
    0    3    0    0   20   17    0   20    7    5    9    0    1    0    1   26    0    3    0    0    0    0    5    0    1    1    0 |    h = b
    7   14   45   20  259  108   34   36  334   51  155    3   62    3    5  144   13   26   14   19    6    8   15   18   26   13    0 |    i = e
    0   12    0    8   24   29    0   14    2   65   23    0    3    0    6   34    0   11    0    1    0    1    2    1   15   15    0 |    j = d
    0    4    2    0   19   14    0    1    6    2   30    0    9    0    0    6    0    2    0    0    5    4    0    2    0    1    0 |    k = g
    0    2   21   10    7    5   16    0    5    1    4   14    0    3    0    5    2    6    0    3    8    0    0    4    2    0    1 |    l = f
    3    2   24    8  114    4   22   23   43    0   57    0  293    0   18   43    0   17   16    5   12    0    3   21    5   15    0 |    m = i
    0    0    7    8    9    9    6    1    9    1    6    4    0   23    0    2    0    0    0    3    5    2    0    2    4    0    0 |    n = j
    0    0    5    2   45   17    2   16    6    8   31    0   29    0   29   50    1   14    0    2    0    1    4    0    1    9    0 |    o = m
    0   18    1    2   32   17    4   16    1   16   12    0   13    0    9  126    4   11    0    1    3    2    4    2   10   23    0 |    p = l
    7   19  117   44  123  207   34   38   42  125   60    3   16    0   14  118  212   30    2   12    8    9   71   15   24   23    4 |    q = o
    0   35    4   22   98   44    1   19    7   21   79    1   27    0   17  125    2   83    0    0    9    2    4   12   20   17    1 |    r = n
    1    0   29    0    1    5   12    0    0    0    2    2   10    0    0    0    0    2    6    1    4    0    0    3    0    3    0 |    s = q
    1    3   46   16    7    8   32    2    7    9    1   15    1   10    0    8    2    2    0   10    3    1    1   10    0    6    2 |    t = p
   39    8  193   38   21   20  141    0    2   20   44   20   38    3    1   41    1   22    3    9  182   11    0   13    9   26    0 |    u = s
    0    6   20   28   19   60   15   13   17   24   43    8    7    0    2   79    4    5    0    4    8   23    4    9   32    8    2 |    v = r
    0    5    8    2   16   26   20   19   15   10   20    1    1    0    4   40   25   10    3    4    2    1  176    5    1    9    0 |    w = u
    0    2  134   16    5    2   64    0    0    3    8   12    3    0    1    0    2   15    0    3   15    3    7   38    6   10    1 |    x = t
    0    6    3    8   30    6    2    0   10   12   10    0    0    0    2   26    2    0    1    0    0    2    2    2   14    4    0 |    y = v
    0    1    4    1    3    0    3    1    0    1    1    5    0    0    1   18    0    1    0    0    4    0    2    5    4   40    0 |    z = y
    0    0    6    0    0    0    0    0    0    0    0    0    0    0    0    0    0    0    0    0    1    0    0    0    0    0    1 |   aa = z

=== Percent Confusion Matrix ===
a	b	c	d	e	f	g	h	i	j	k	l	m	n	o	p	q	r	s	t	u	v	w	x	y	z	aa	
12.5	0.0	18.18	3.41	0.0	7.95	22.73	0.0	1.14	0.0	0.0	3.41	1.14	0.0	0.0	4.55	0.0	5.68	0.0	2.27	10.23	0.0	0.0	6.82	0.0	0.0	0.0	 a = ch
0.0	9.52	0.0	0.0	23.81	23.81	0.0	0.0	4.76	0.0	0.0	0.0	0.0	0.0	0.0	28.57	0.0	4.76	0.0	0.0	0.0	0.0	4.76	0.0	0.0	0.0	0.0	 b = rr
0.15	0.06	88.9	0.94	0.93	0.65	0.79	0.09	0.25	0.6	0.37	0.46	0.68	0.04	0.06	0.81	0.25	0.32	0.13	0.19	1.15	0.15	0.1	0.74	0.43	0.59	0.18	 c = 0
0.0	1.94	12.14	16.02	18.93	4.37	3.88	2.43	0.49	3.88	1.46	2.91	1.94	0.0	1.46	11.65	0.97	0.97	0.0	1.46	5.83	0.97	0.49	1.94	1.94	1.46	0.49	 d = hs
0.0	0.0	0.0	0.0	86.0	2.0	0.0	2.0	2.0	2.0	0.0	0.0	2.0	0.0	0.0	0.0	0.0	0.0	0.0	0.0	0.0	2.0	0.0	0.0	2.0	0.0	0.0	 e = hg
0.34	1.42	2.24	1.01	2.53	58.23	2.76	0.45	2.57	5.29	3.46	0.3	0.86	0.04	0.0	6.59	2.5	0.97	0.34	0.37	0.71	1.86	0.63	0.86	2.57	1.04	0.07	 f = a
0.72	0.0	42.09	5.76	0.72	0.0	29.5	0.0	1.8	0.36	0.72	2.52	0.72	0.36	0.0	1.08	0.72	1.08	0.72	0.36	5.04	1.08	0.72	3.24	0.36	0.36	0.0	 g = c
0.0	2.52	0.0	0.0	16.81	14.29	0.0	16.81	5.88	4.2	7.56	0.0	0.84	0.0	0.84	21.85	0.0	2.52	0.0	0.0	0.0	0.0	4.2	0.0	0.84	0.84	0.0	 h = b
0.49	0.97	3.13	1.39	18.01	7.51	2.36	2.5	23.23	3.55	10.78	0.21	4.31	0.21	0.35	10.01	0.9	1.81	0.97	1.32	0.42	0.56	1.04	1.25	1.81	0.9	0.0	 i = e
0.0	4.51	0.0	3.01	9.02	10.9	0.0	5.26	0.75	24.44	8.65	0.0	1.13	0.0	2.26	12.78	0.0	4.14	0.0	0.38	0.0	0.38	0.75	0.38	5.64	5.64	0.0	 j = d
0.0	3.74	1.87	0.0	17.76	13.08	0.0	0.93	5.61	1.87	28.04	0.0	8.41	0.0	0.0	5.61	0.0	1.87	0.0	0.0	4.67	3.74	0.0	1.87	0.0	0.93	0.0	 k = g
0.0	1.68	17.65	8.4	5.88	4.2	13.45	0.0	4.2	0.84	3.36	11.76	0.0	2.52	0.0	4.2	1.68	5.04	0.0	2.52	6.72	0.0	0.0	3.36	1.68	0.0	0.84	 l = f
0.4	0.27	3.21	1.07	15.24	0.53	2.94	3.07	5.75	0.0	7.62	0.0	39.17	0.0	2.41	5.75	0.0	2.27	2.14	0.67	1.6	0.0	0.4	2.81	0.67	2.01	0.0	 m = i
0.0	0.0	6.93	7.92	8.91	8.91	5.94	0.99	8.91	0.99	5.94	3.96	0.0	22.77	0.0	1.98	0.0	0.0	0.0	2.97	4.95	1.98	0.0	1.98	3.96	0.0	0.0	 n = j
0.0	0.0	1.84	0.74	16.54	6.25	0.74	5.88	2.21	2.94	11.4	0.0	10.66	0.0	10.66	18.38	0.37	5.15	0.0	0.74	0.0	0.37	1.47	0.0	0.37	3.31	0.0	 o = m
0.0	5.5	0.31	0.61	9.79	5.2	1.22	4.89	0.31	4.89	3.67	0.0	3.98	0.0	2.75	38.53	1.22	3.36	0.0	0.31	0.92	0.61	1.22	0.61	3.06	7.03	0.0	 p = l
0.51	1.38	8.5	3.2	8.93	15.03	2.47	2.76	3.05	9.08	4.36	0.22	1.16	0.0	1.02	8.57	15.4	2.18	0.15	0.87	0.58	0.65	5.16	1.09	1.74	1.67	0.29	 q = o
0.0	5.38	0.62	3.38	15.08	6.77	0.15	2.92	1.08	3.23	12.15	0.15	4.15	0.0	2.62	19.23	0.31	12.77	0.0	0.0	1.38	0.31	0.62	1.85	3.08	2.62	0.15	 r = n
1.23	0.0	35.8	0.0	1.23	6.17	14.81	0.0	0.0	0.0	2.47	2.47	12.35	0.0	0.0	0.0	0.0	2.47	7.41	1.23	4.94	0.0	0.0	3.7	0.0	3.7	0.0	 s = q
0.49	1.48	22.66	7.88	3.45	3.94	15.76	0.99	3.45	4.43	0.49	7.39	0.49	4.93	0.0	3.94	0.99	0.99	0.0	4.93	1.48	0.49	0.49	4.93	0.0	2.96	0.99	 t = p
4.31	0.88	21.33	4.2	2.32	2.21	15.58	0.0	0.22	2.21	4.86	2.21	4.2	0.33	0.11	4.53	0.11	2.43	0.33	0.99	20.11	1.22	0.0	1.44	0.99	2.87	0.0	 u = s
0.0	1.36	4.55	6.36	4.32	13.64	3.41	2.95	3.86	5.45	9.77	1.82	1.59	0.0	0.45	17.95	0.91	1.14	0.0	0.91	1.82	5.23	0.91	2.05	7.27	1.82	0.45	 v = r
0.0	1.18	1.89	0.47	3.78	6.15	4.73	4.49	3.55	2.36	4.73	0.24	0.24	0.0	0.95	9.46	5.91	2.36	0.71	0.95	0.47	0.24	41.61	1.18	0.24	2.13	0.0	 w = u
0.0	0.57	38.29	4.57	1.43	0.57	18.29	0.0	0.0	0.86	2.29	3.43	0.86	0.0	0.29	0.0	0.57	4.29	0.0	0.86	4.29	0.86	2.0	10.86	1.71	2.86	0.29	 x = t
0.0	4.23	2.11	5.63	21.13	4.23	1.41	0.0	7.04	8.45	7.04	0.0	0.0	0.0	1.41	18.31	1.41	0.0	0.7	0.0	0.0	1.41	1.41	1.41	9.86	2.82	0.0	 y = v
0.0	1.05	4.21	1.05	3.16	0.0	3.16	1.05	0.0	1.05	1.05	5.26	0.0	0.0	1.05	18.95	0.0	1.05	0.0	0.0	4.21	0.0	2.11	5.26	4.21	42.11	0.0	 z = y
0.0	0.0	75.0	0.0	0.0	0.0	0.0	0.0	0.0	0.0	0.0	0.0	0.0	0.0	0.0	0.0	0.0	0.0	0.0	0.0	12.5	0.0	0.0	0.0	0.0	0.0	12.5	 aa = z
