Timestamp:2013-07-22-20:45:24
Inventario:I0
Intervalo:15ms
Ngramas:2
Clasificador:RandomForest
Relation Name:  I0-15ms-2gramas
Num Instances:  12188
Num Attributes: 21

     Name                      Type  Nom  Int Real     Missing      Unique  Dist
   1 0Int(dB)                   Num   0%  10%  90%     0 /  0%    10 /  0%   768 
   2 0Pitch(Hz)                 Num   0%  50%  50%     0 /  0%   940 /  8%  2714 
   3 0RawPitch                  Num   0%  53%  47%     0 /  0%   980 /  8%  2609 
   4 0SmPitch                   Num   0%  51%  49%     0 /  0%   957 /  8%  2691 
   5 0Melogram(st)              Num   0%  46%  54%     0 /  0%   837 /  7%  2573 
   6 0ZCross                    Num   0% 100%   0%     0 /  0%    10 /  0%    40 
   7 0F1(Hz)                    Num   0%  50%  50%     0 /  0%  2281 / 19%  3977 
   8 0F2(Hz)                    Num   0%  50%  50%     0 /  0%  3848 / 32%  5158 
   9 0F3(Hz)                    Num   0%  50%  50%     0 /  0%  3419 / 28%  4850 
  10 0F4(Hz)                    Num   0%  50%  50%     0 /  0%  3319 / 27%  4764 
  11 1Int(dB)                   Num   0%  10%  90%     0 /  0%    10 /  0%   768 
  12 1Pitch(Hz)                 Num   0%  50%  50%     0 /  0%   941 /  8%  2715 
  13 1RawPitch                  Num   0%  53%  47%     0 /  0%   979 /  8%  2609 
  14 1SmPitch                   Num   0%  51%  49%     0 /  0%   957 /  8%  2691 
  15 1Melogram(st)              Num   0%  46%  54%     0 /  0%   838 /  7%  2574 
  16 1ZCross                    Num   0% 100%   0%     0 /  0%    10 /  0%    40 
  17 1F1(Hz)                    Num   0%  50%  50%     0 /  0%  2281 / 19%  3977 
  18 1F2(Hz)                    Num   0%  50%  50%     0 /  0%  3848 / 32%  5158 
  19 1F3(Hz)                    Num   0%  50%  50%     0 /  0%  3419 / 28%  4850 
  20 1F4(Hz)                    Num   0%  50%  50%     0 /  0%  3319 / 27%  4764 
  21 class                      Nom 100%   0%   0%     0 /  0%     0 /  0%    27 


Options: -I 10 -K 0 -S 1 -num-slots 4 

Random forest of 10 trees, each constructed while considering 5 random features.
Out of bag error: 0.3735





=== Stratified cross-validation ===

Correctly Classified Instances        8320               68.2639 %
Incorrectly Classified Instances      3868               31.7361 %
Kappa statistic                          0.6089
K&B Relative Info Score             715836.6627 %
K&B Information Score                24202.5103 bits      1.9858 bits/instance
Class complexity | order 0           41119.6666 bits      3.3738 bits/instance
Class complexity | scheme          1500480.9051 bits    123.1113 bits/instance
Complexity improvement     (Sf)    -1459361.2385 bits   -119.7375 bits/instance
Mean absolute error                      0.0305
Root mean squared error                  0.1267
Relative absolute error                 49.8365 %
Root relative squared error             72.482  %
Coverage of cases (0.95 level)          88.6035 %
Mean rel. region size (0.95 level)      11.9313 %
Total Number of Instances            12188     


=== Detailed Accuracy By Class ===

                 TP Rate  FP Rate  Precision  Recall   F-Measure  MCC      ROC Area  PRC Area  Class
                 0,052    0,002    0,111      0,052    0,071      0,073    0,685     0,045     ch
                 0,000    0,000    0,000      0,000    0,000      -0,001   0,695     0,023     rr
                 0,927    0,081    0,866      0,927    0,896      0,834    0,971     0,949     0
                 0,200    0,005    0,308      0,200    0,242      0,241    0,745     0,128     hs
                 0,324    0,001    0,579      0,324    0,415      0,432    0,832     0,292     hg
                 0,836    0,063    0,698      0,836    0,761      0,719    0,951     0,851     a
                 0,115    0,010    0,149      0,115    0,130      0,120    0,718     0,068     c
                 0,390    0,003    0,457      0,390    0,421      0,419    0,860     0,300     b
                 0,682    0,049    0,547      0,682    0,607      0,573    0,921     0,620     e
                 0,254    0,006    0,369      0,254    0,301      0,298    0,853     0,216     d
                 0,278    0,001    0,571      0,278    0,374      0,396    0,866     0,354     g
                 0,090    0,003    0,156      0,090    0,114      0,114    0,706     0,060     f
                 0,634    0,021    0,569      0,634    0,600      0,582    0,927     0,624     i
                 0,212    0,001    0,500      0,212    0,298      0,323    0,762     0,236     j
                 0,408    0,004    0,600      0,408    0,485      0,488    0,913     0,437     m
                 0,283    0,007    0,423      0,283    0,339      0,336    0,843     0,263     l
                 0,587    0,033    0,599      0,587    0,593      0,560    0,889     0,597     o
                 0,507    0,016    0,535      0,507    0,521      0,504    0,915     0,501     n
                 0,055    0,001    0,143      0,055    0,079      0,086    0,705     0,066     q
                 0,113    0,006    0,179      0,113    0,138      0,134    0,696     0,061     p
                 0,556    0,025    0,541      0,556    0,548      0,524    0,884     0,502     s
                 0,140    0,009    0,289      0,140    0,188      0,187    0,791     0,170     r
                 0,568    0,005    0,730      0,568    0,639      0,637    0,934     0,666     u
                 0,162    0,009    0,271      0,162    0,203      0,198    0,763     0,103     t
                 0,131    0,002    0,310      0,131    0,184      0,197    0,786     0,109     v
                 0,313    0,001    0,556      0,313    0,400      0,414    0,859     0,306     y
                 0,000    0,000    0,000      0,000    0,000      -0,000   0,499     0,000     z
Weighted Avg.    0,683    0,049    0,655      0,683    0,663      0,627    0,916     0,684     


=== Confusion Matrix ===

    a    b    c    d    e    f    g    h    i    j    k    l    m    n    o    p    q    r    s    t    u    v    w    x    y    z   aa   <-- classified as
    3    0    8    0    0    3    3    0    4    0    0    1    1    1    0    0    0    1    2    1   26    2    0    2    0    0    0 |    a = ch
    0    0    2    0    0    2    0    0    6    0    0    1    0    0    0    0    2    1    0    0    0    1    0    0    0    0    0 |    b = rr
    4    0 4096   12    2   43   23    0   29    5    0    6   21    1    1    3   36    7    7   18   61   12    2   25    2    1    0 |    c = 0
    0    0   40   28    0   19    0    0   10    1    0    1    8    0    2    2   11    4    0    2    9    1    0    1    1    0    0 |    d = hs
    0    0    1    1   11    3    0    0   12    1    0    0    3    0    0    0    0    1    0    0    0    0    1    0    0    0    0 |    e = hg
    1    1   61    5    0 1517   11    4   64    5    0    2    6    1    1   13   51   17    0    3   14   25    2    6    4    1    0 |    f = a
    3    0   51    1    0   25   21    0   10    0    0    5    3    1    0    0    8    2    4    4   27    3    3   10    1    0    0 |    g = c
    0    0    0    0    0    9    0   32    8    1    0    0   10    0    5    1    9    3    0    0    0    1    3    0    0    0    0 |    h = b
    1    0   37    6    1   83    5    6  662    6    5    1   53    0    7   10   31   20    0    5   17    4    4    4    2    1    0 |    i = e
    1    0    2    1    0   36    0    2   23   45    0    0    3    0    0    4   31   17    0    0    1    4    4    0    2    1    0 |    j = d
    0    0    3    0    0   17    0    0   17    1   20    0    5    0    0    2    2    3    0    0    0    0    1    1    0    0    0 |    k = g
    0    0   14    0    0    9    3    0    4    0    0    7    0    1    0    0    5    2    0    5   22    3    0    2    0    0    1 |    l = f
    0    0   24    4    0   15    1    6   79    1    2    0  319    0    5    9    1   11    1    2    7    3    3    4    4    2    0 |    m = i
    0    0    9    0    1   19    0    0    6    0    0    1    2   14    0    0    1    0    0    2   11    0    0    0    0    0    0 |    n = j
    0    0    5    0    1    9    1    4   16    4    0    0   24    0   75    4   16   12    0    1    2    2    6    1    1    0    0 |    o = m
    1    0    9    2    1   38    0    1   28    5    0    0   24    0    2   63   18   16    0    0    6    4    2    2    1    0    0 |    p = l
    2    1   86    5    0   98    5    4   55   16    4    1    9    0   12    8  552   28    0    6    9    6   14   12    6    1    0 |    q = o
    0    0   13    8    1   34    2    4   50   10    0    2   20    0    5    9   28  221    0    1    9    7    4    6    1    1    0 |    r = n
    2    0   19    0    0    2    9    0    3    0    0    0    2    0    0    0    4    0    3    0   11    0    0    0    0    0    0 |    s = q
    0    0   39    2    0   13   10    0    8    1    0    2    4    2    0    2    4    4    0   15   13    4    3    7    0    0    0 |    t = p
    7    0   99    8    1   26   17    0   20    0    0   10   17    3    1    0   17    8    1    6  340   11    1   14    2    2    1 |    u = s
    0    1   25    2    0   95    6    3   42    7    1    1    9    1    2   11   32    8    0    3    9   43    2    3    0    2    0 |    v = r
    0    0    5    3    0   14    5    4   20    5    2    0    4    0    5    4   37    9    0    1    3    2  162    0    0    0    0 |    w = u
    1    0   73    3    0   24   15    0   11    2    0    3    6    2    0    0   12    9    3    7   20    1    2   38    0    1    1 |    x = t
    1    0    3    0    0   15    3    0   19    3    1    0    3    1    2    4   13    7    0    1    0    5    1    1   13    3    0 |    y = v
    0    0    5    0    0    4    0    0    5    3    0    1    5    0    0    0    0    2    0    0    9    5    2    1    2   20    0 |    z = y
    0    0    0    0    0    0    1    0    0    0    0    0    0    0    0    0    0    0    0    1    3    0    0    0    0    0    0 |   aa = z

=== Percent Confusion Matrix ===
a	b	c	d	e	f	g	h	i	j	k	l	m	n	o	p	q	r	s	t	u	v	w	x	y	z	aa	
5.17	0.0	13.79	0.0	0.0	5.17	5.17	0.0	6.9	0.0	0.0	1.72	1.72	1.72	0.0	0.0	0.0	1.72	3.45	1.72	44.83	3.45	0.0	3.45	0.0	0.0	0.0	 a = ch
0.0	0.0	13.33	0.0	0.0	13.33	0.0	0.0	40.0	0.0	0.0	6.67	0.0	0.0	0.0	0.0	13.33	6.67	0.0	0.0	0.0	6.67	0.0	0.0	0.0	0.0	0.0	 b = rr
0.09	0.0	92.73	0.27	0.05	0.97	0.52	0.0	0.66	0.11	0.0	0.14	0.48	0.02	0.02	0.07	0.82	0.16	0.16	0.41	1.38	0.27	0.05	0.57	0.05	0.02	0.0	 c = 0
0.0	0.0	28.57	20.0	0.0	13.57	0.0	0.0	7.14	0.71	0.0	0.71	5.71	0.0	1.43	1.43	7.86	2.86	0.0	1.43	6.43	0.71	0.0	0.71	0.71	0.0	0.0	 d = hs
0.0	0.0	2.94	2.94	32.35	8.82	0.0	0.0	35.29	2.94	0.0	0.0	8.82	0.0	0.0	0.0	0.0	2.94	0.0	0.0	0.0	0.0	2.94	0.0	0.0	0.0	0.0	 e = hg
0.06	0.06	3.36	0.28	0.0	83.58	0.61	0.22	3.53	0.28	0.0	0.11	0.33	0.06	0.06	0.72	2.81	0.94	0.0	0.17	0.77	1.38	0.11	0.33	0.22	0.06	0.0	 f = a
1.65	0.0	28.02	0.55	0.0	13.74	11.54	0.0	5.49	0.0	0.0	2.75	1.65	0.55	0.0	0.0	4.4	1.1	2.2	2.2	14.84	1.65	1.65	5.49	0.55	0.0	0.0	 g = c
0.0	0.0	0.0	0.0	0.0	10.98	0.0	39.02	9.76	1.22	0.0	0.0	12.2	0.0	6.1	1.22	10.98	3.66	0.0	0.0	0.0	1.22	3.66	0.0	0.0	0.0	0.0	 h = b
0.1	0.0	3.81	0.62	0.1	8.55	0.51	0.62	68.18	0.62	0.51	0.1	5.46	0.0	0.72	1.03	3.19	2.06	0.0	0.51	1.75	0.41	0.41	0.41	0.21	0.1	0.0	 i = e
0.56	0.0	1.13	0.56	0.0	20.34	0.0	1.13	12.99	25.42	0.0	0.0	1.69	0.0	0.0	2.26	17.51	9.6	0.0	0.0	0.56	2.26	2.26	0.0	1.13	0.56	0.0	 j = d
0.0	0.0	4.17	0.0	0.0	23.61	0.0	0.0	23.61	1.39	27.78	0.0	6.94	0.0	0.0	2.78	2.78	4.17	0.0	0.0	0.0	0.0	1.39	1.39	0.0	0.0	0.0	 k = g
0.0	0.0	17.95	0.0	0.0	11.54	3.85	0.0	5.13	0.0	0.0	8.97	0.0	1.28	0.0	0.0	6.41	2.56	0.0	6.41	28.21	3.85	0.0	2.56	0.0	0.0	1.28	 l = f
0.0	0.0	4.77	0.8	0.0	2.98	0.2	1.19	15.71	0.2	0.4	0.0	63.42	0.0	0.99	1.79	0.2	2.19	0.2	0.4	1.39	0.6	0.6	0.8	0.8	0.4	0.0	 m = i
0.0	0.0	13.64	0.0	1.52	28.79	0.0	0.0	9.09	0.0	0.0	1.52	3.03	21.21	0.0	0.0	1.52	0.0	0.0	3.03	16.67	0.0	0.0	0.0	0.0	0.0	0.0	 n = j
0.0	0.0	2.72	0.0	0.54	4.89	0.54	2.17	8.7	2.17	0.0	0.0	13.04	0.0	40.76	2.17	8.7	6.52	0.0	0.54	1.09	1.09	3.26	0.54	0.54	0.0	0.0	 o = m
0.45	0.0	4.04	0.9	0.45	17.04	0.0	0.45	12.56	2.24	0.0	0.0	10.76	0.0	0.9	28.25	8.07	7.17	0.0	0.0	2.69	1.79	0.9	0.9	0.45	0.0	0.0	 p = l
0.21	0.11	9.15	0.53	0.0	10.43	0.53	0.43	5.85	1.7	0.43	0.11	0.96	0.0	1.28	0.85	58.72	2.98	0.0	0.64	0.96	0.64	1.49	1.28	0.64	0.11	0.0	 q = o
0.0	0.0	2.98	1.83	0.23	7.8	0.46	0.92	11.47	2.29	0.0	0.46	4.59	0.0	1.15	2.06	6.42	50.69	0.0	0.23	2.06	1.61	0.92	1.38	0.23	0.23	0.0	 r = n
3.64	0.0	34.55	0.0	0.0	3.64	16.36	0.0	5.45	0.0	0.0	0.0	3.64	0.0	0.0	0.0	7.27	0.0	5.45	0.0	20.0	0.0	0.0	0.0	0.0	0.0	0.0	 s = q
0.0	0.0	29.32	1.5	0.0	9.77	7.52	0.0	6.02	0.75	0.0	1.5	3.01	1.5	0.0	1.5	3.01	3.01	0.0	11.28	9.77	3.01	2.26	5.26	0.0	0.0	0.0	 t = p
1.14	0.0	16.18	1.31	0.16	4.25	2.78	0.0	3.27	0.0	0.0	1.63	2.78	0.49	0.16	0.0	2.78	1.31	0.16	0.98	55.56	1.8	0.16	2.29	0.33	0.33	0.16	 u = s
0.0	0.32	8.12	0.65	0.0	30.84	1.95	0.97	13.64	2.27	0.32	0.32	2.92	0.32	0.65	3.57	10.39	2.6	0.0	0.97	2.92	13.96	0.65	0.97	0.0	0.65	0.0	 v = r
0.0	0.0	1.75	1.05	0.0	4.91	1.75	1.4	7.02	1.75	0.7	0.0	1.4	0.0	1.75	1.4	12.98	3.16	0.0	0.35	1.05	0.7	56.84	0.0	0.0	0.0	0.0	 w = u
0.43	0.0	31.2	1.28	0.0	10.26	6.41	0.0	4.7	0.85	0.0	1.28	2.56	0.85	0.0	0.0	5.13	3.85	1.28	2.99	8.55	0.43	0.85	16.24	0.0	0.43	0.43	 x = t
1.01	0.0	3.03	0.0	0.0	15.15	3.03	0.0	19.19	3.03	1.01	0.0	3.03	1.01	2.02	4.04	13.13	7.07	0.0	1.01	0.0	5.05	1.01	1.01	13.13	3.03	0.0	 y = v
0.0	0.0	7.81	0.0	0.0	6.25	0.0	0.0	7.81	4.69	0.0	1.56	7.81	0.0	0.0	0.0	0.0	3.13	0.0	0.0	14.06	7.81	3.13	1.56	3.13	31.25	0.0	 z = y
0.0	0.0	0.0	0.0	0.0	0.0	20.0	0.0	0.0	0.0	0.0	0.0	0.0	0.0	0.0	0.0	0.0	0.0	0.0	20.0	60.0	0.0	0.0	0.0	0.0	0.0	0.0	 aa = z
