Timestamp:2013-08-30-03:54:27
Inventario:I0
Intervalo:15ms
Ngramas:2
Clasificador:BayesNet
Relation Name:  I0-15ms-2gramas
Num Instances:  12188
Num Attributes: 21

     Name                      Type  Nom  Int Real     Missing      Unique  Dist
   1 0Int(dB)                   Num   0%  10%  90%     0 /  0%    10 /  0%   768 
   2 0Pitch(Hz)                 Num   0%  50%  50%     0 /  0%   940 /  8%  2714 
   3 0RawPitch                  Num   0%  53%  47%     0 /  0%   980 /  8%  2609 
   4 0SmPitch                   Num   0%  51%  49%     0 /  0%   957 /  8%  2691 
   5 0Melogram(st)              Num   0%  46%  54%     0 /  0%   837 /  7%  2573 
   6 0ZCross                    Num   0% 100%   0%     0 /  0%    10 /  0%    40 
   7 0F1(Hz)                    Num   0%  50%  50%     0 /  0%  2281 / 19%  3977 
   8 0F2(Hz)                    Num   0%  50%  50%     0 /  0%  3848 / 32%  5158 
   9 0F3(Hz)                    Num   0%  50%  50%     0 /  0%  3419 / 28%  4850 
  10 0F4(Hz)                    Num   0%  50%  50%     0 /  0%  3319 / 27%  4764 
  11 1Int(dB)                   Num   0%  10%  90%     0 /  0%    10 /  0%   768 
  12 1Pitch(Hz)                 Num   0%  50%  50%     0 /  0%   941 /  8%  2715 
  13 1RawPitch                  Num   0%  53%  47%     0 /  0%   979 /  8%  2609 
  14 1SmPitch                   Num   0%  51%  49%     0 /  0%   957 /  8%  2691 
  15 1Melogram(st)              Num   0%  46%  54%     0 /  0%   838 /  7%  2574 
  16 1ZCross                    Num   0% 100%   0%     0 /  0%    10 /  0%    40 
  17 1F1(Hz)                    Num   0%  50%  50%     0 /  0%  2281 / 19%  3977 
  18 1F2(Hz)                    Num   0%  50%  50%     0 /  0%  3848 / 32%  5158 
  19 1F3(Hz)                    Num   0%  50%  50%     0 /  0%  3419 / 28%  4850 
  20 1F4(Hz)                    Num   0%  50%  50%     0 /  0%  3319 / 27%  4764 
  21 class                      Nom 100%   0%   0%     0 /  0%     0 /  0%    27 


Options: -D -Q weka.classifiers.bayes.net.search.local.K2 -- -P 1 -S BAYES -E weka.classifiers.bayes.net.estimate.SimpleEstimator -- -A 0.5 

Bayes Network Classifier
not using ADTree
#attributes=21 #classindex=20
Network structure (nodes followed by parents)
0Int(dB)(8): class 
0Pitch(Hz)(4): class 
0RawPitch(4): class 
0SmPitch(4): class 
0Melogram(st)(7): class 
0ZCross(8): class 
0F1(Hz)(8): class 
0F2(Hz)(7): class 
0F3(Hz)(6): class 
0F4(Hz)(6): class 
1Int(dB)(8): class 
1Pitch(Hz)(4): class 
1RawPitch(4): class 
1SmPitch(4): class 
1Melogram(st)(7): class 
1ZCross(8): class 
1F1(Hz)(8): class 
1F2(Hz)(9): class 
1F3(Hz)(6): class 
1F4(Hz)(5): class 
class(27): 
LogScore Bayes: -253670.6569141716
LogScore BDeu: -268012.6036765731
LogScore MDL: -266281.14336453937
LogScore ENTROPY: -252822.7030506183
LogScore AIC: -255683.7030506183




=== Stratified cross-validation ===

Correctly Classified Instances        6652               54.5783 %
Incorrectly Classified Instances      5536               45.4217 %
Kappa statistic                          0.4467
K&B Relative Info Score             523482.7236 %
K&B Information Score                17699.0041 bits      1.4522 bits/instance
Class complexity | order 0           41119.6666 bits      3.3738 bits/instance
Class complexity | scheme            79211.4714 bits      6.4991 bits/instance
Complexity improvement     (Sf)     -38091.8048 bits     -3.1254 bits/instance
Mean absolute error                      0.0349
Root mean squared error                  0.1574
Relative absolute error                 57.0005 %
Root relative squared error             90.0244 %
Coverage of cases (0.95 level)          71.6032 %
Mean rel. region size (0.95 level)      10.0858 %
Total Number of Instances            12188     


=== Detailed Accuracy By Class ===

                 TP Rate  FP Rate  Precision  Recall   F-Measure  MCC      ROC Area  PRC Area  Class
                 0,086    0,002    0,185      0,086    0,118      0,124    0,888     0,067     ch
                 0,000    0,001    0,000      0,000    0,000      -0,001   0,803     0,007     rr
                 0,919    0,093    0,849      0,919    0,883      0,813    0,971     0,962     0
                 0,071    0,016    0,049      0,071    0,058      0,046    0,785     0,041     hs
                 0,559    0,025    0,059      0,559    0,106      0,175    0,946     0,115     hg
                 0,658    0,062    0,648      0,658    0,653      0,592    0,917     0,731     a
                 0,170    0,014    0,158      0,170    0,164      0,151    0,878     0,101     c
                 0,024    0,004    0,042      0,024    0,031      0,027    0,868     0,033     b
                 0,348    0,033    0,475      0,348    0,402      0,364    0,877     0,438     e
                 0,198    0,023    0,111      0,198    0,142      0,132    0,849     0,082     d
                 0,167    0,018    0,052      0,167    0,079      0,084    0,812     0,034     g
                 0,051    0,004    0,073      0,051    0,060      0,056    0,876     0,040     f
                 0,475    0,023    0,468      0,475    0,471      0,448    0,917     0,449     i
                 0,106    0,002    0,200      0,106    0,139      0,142    0,875     0,114     j
                 0,082    0,007    0,155      0,082    0,107      0,102    0,870     0,108     m
                 0,426    0,067    0,106      0,426    0,169      0,184    0,867     0,109     l
                 0,181    0,013    0,541      0,181    0,271      0,283    0,827     0,366     o
                 0,094    0,018    0,161      0,094    0,119      0,099    0,855     0,143     n
                 0,055    0,003    0,083      0,055    0,066      0,064    0,819     0,024     q
                 0,023    0,003    0,088      0,023    0,036      0,039    0,839     0,056     p
                 0,288    0,018    0,460      0,288    0,354      0,338    0,888     0,356     s
                 0,049    0,005    0,192      0,049    0,078      0,085    0,777     0,088     r
                 0,435    0,012    0,464      0,435    0,449      0,437    0,915     0,467     u
                 0,094    0,011    0,141      0,094    0,113      0,101    0,867     0,112     t
                 0,081    0,013    0,048      0,081    0,060      0,052    0,823     0,036     v
                 0,375    0,015    0,119      0,375    0,180      0,204    0,888     0,140     y
                 0,000    0,000    0,000      0,000    0,000      -0,000   0,960     0,006     z
Weighted Avg.    0,546    0,052    0,565      0,546    0,541      0,502    0,910     0,588     


=== Confusion Matrix ===

    a    b    c    d    e    f    g    h    i    j    k    l    m    n    o    p    q    r    s    t    u    v    w    x    y    z   aa   <-- classified as
    5    0   14    2    0    3    7    0    2    0    0    1    0    2    0    2    1    2    0    0   13    1    0    2    0    1    0 |    a = ch
    0    0    0    0    0    5    0    0    2    0    0    0    0    0    0    6    0    0    0    0    0    0    1    0    0    1    0 |    b = rr
    2    1 4060   39   19   26   11    0   11   17    5   15   29   12    0   32   11   14    4    1   46    6    5   22    2   25    2 |    c = 0
    0    1   27   10   13    8    1    0    4    5    0    1    8    1    5   25    2    2    0    2   16    4    0    2    2    1    0 |    d = hs
    0    0    0    1   19    1    0    0    3    1    0    0    4    0    0    1    2    1    0    0    0    0    0    0    1    0    0 |    e = hg
    4    2   49   15    9 1194   22    2   83   58   23    4    9    1    2  136   55   19    3    5   15   23    8   18   40   16    0 |    f = a
    1    0   88    9    1    0   31    0    5    0    1    2    5    0    0    2    3    1    2    1   21    2    1    5    0    1    0 |    g = c
    0    0    0    0    7   13    0    2   11    6    1    0    5    0    4   18    4    3    0    0    0    0    7    0    1    0    0 |    h = b
    0    3   30   14   76  103   11    4  338   22   69    3   54    0    1  119   18   31    7    4   10    0   11   14   18   11    0 |    i = e
    0    0    0    1    4   28    0    4    8   35    6    0    6    0    9   28    6   13    0    0    1    0    4    3   10   11    0 |    j = d
    0    1    2    0    8   16    0    0    7    1   12    1   10    0    0    5    1    3    0    0    1    1    0    1    1    1    0 |    k = g
    0    0   21    4    5    7    2    0    2    0    2    4    0    1    0    2    2    4    1    4   10    0    0    4    1    2    0 |    l = f
    0    0   15    8   37    6   14    8   61    1   21    0  239    0   13   30    0   16    5    0    8    0    1    7    5    8    0 |    m = i
    1    0    6    6    4   14    3    0    6    0    2    2    2    7    0    2    1    3    0    1    3    3    0    0    0    0    0 |    n = j
    0    0    2    1   15   14    0    0   14    9   11    0   27    0   15   42    0   11    0    0    0    2   11    2    0    8    0 |    o = m
    0    1    0    3    7   23    3    7   13    5    4    0   20    0    2   95    0   13    0    0    1    0    4    0   11   11    0 |    p = l
    2    1   85   26   36  188   12    5   53  101   19    1   13    1   10   85  170   12    2    7    8    6   56    9   17   15    0 |    q = o
    0    3    7   15   33   57    0    7   27   10   24    1   24    0   23   99    2   41    1    0    5    0   17    7   19   14    0 |    r = n
    0    0   24    1    1    3    2    0    1    0    1    1    7    1    0    0    0    1    3    0    7    0    0    0    0    2    0 |    s = q
    0    0   38    6    3    8    9    2    1    4    0    6    0    4    0    4    2    6    0    3   13    1    1   14    0    8    0 |    t = p
   10    2  181   17    4   30   26    0    6    7    8    5   34    5    0   30    4   22    6    2  176    7    2    5    3   20    0 |    u = s
    1    0   22   15    1   61    2    5   23   11    8    3   12    0    1   63    4   10    1    2    8   15    4   10   20    6    0 |    v = r
    0    1    4    1    7   23    7    1   16    9    8    1    2    0    7   28   21   11    1    0    1    0  124    7    0    4    1 |    w = u
    1    0   99    8    1    2   29    0    1    3    4    3    1    0    4    0    4    8    0    2   15    3    8   22    6   10    0 |    x = t
    0    0    1    3   14    9    2    0   13    9    2    0    0    0    1   24    1    4    0    0    0    4    0    2    8    2    0 |    y = v
    0    0    2    1    0    0    2    1    0    1    0    1    0    0    0   21    0    3    0    0    5    0    2    0    1   24    0 |    z = y
    0    0    5    0    0    0    0    0    0    0    0    0    0    0    0    0    0    0    0    0    0    0    0    0    0    0    0 |   aa = z

=== Percent Confusion Matrix ===
a	b	c	d	e	f	g	h	i	j	k	l	m	n	o	p	q	r	s	t	u	v	w	x	y	z	aa	
8.62	0.0	24.14	3.45	0.0	5.17	12.07	0.0	3.45	0.0	0.0	1.72	0.0	3.45	0.0	3.45	1.72	3.45	0.0	0.0	22.41	1.72	0.0	3.45	0.0	1.72	0.0	 a = ch
0.0	0.0	0.0	0.0	0.0	33.33	0.0	0.0	13.33	0.0	0.0	0.0	0.0	0.0	0.0	40.0	0.0	0.0	0.0	0.0	0.0	0.0	6.67	0.0	0.0	6.67	0.0	 b = rr
0.05	0.02	91.92	0.88	0.43	0.59	0.25	0.0	0.25	0.38	0.11	0.34	0.66	0.27	0.0	0.72	0.25	0.32	0.09	0.02	1.04	0.14	0.11	0.5	0.05	0.57	0.05	 c = 0
0.0	0.71	19.29	7.14	9.29	5.71	0.71	0.0	2.86	3.57	0.0	0.71	5.71	0.71	3.57	17.86	1.43	1.43	0.0	1.43	11.43	2.86	0.0	1.43	1.43	0.71	0.0	 d = hs
0.0	0.0	0.0	2.94	55.88	2.94	0.0	0.0	8.82	2.94	0.0	0.0	11.76	0.0	0.0	2.94	5.88	2.94	0.0	0.0	0.0	0.0	0.0	0.0	2.94	0.0	0.0	 e = hg
0.22	0.11	2.7	0.83	0.5	65.79	1.21	0.11	4.57	3.2	1.27	0.22	0.5	0.06	0.11	7.49	3.03	1.05	0.17	0.28	0.83	1.27	0.44	0.99	2.2	0.88	0.0	 f = a
0.55	0.0	48.35	4.95	0.55	0.0	17.03	0.0	2.75	0.0	0.55	1.1	2.75	0.0	0.0	1.1	1.65	0.55	1.1	0.55	11.54	1.1	0.55	2.75	0.0	0.55	0.0	 g = c
0.0	0.0	0.0	0.0	8.54	15.85	0.0	2.44	13.41	7.32	1.22	0.0	6.1	0.0	4.88	21.95	4.88	3.66	0.0	0.0	0.0	0.0	8.54	0.0	1.22	0.0	0.0	 h = b
0.0	0.31	3.09	1.44	7.83	10.61	1.13	0.41	34.81	2.27	7.11	0.31	5.56	0.0	0.1	12.26	1.85	3.19	0.72	0.41	1.03	0.0	1.13	1.44	1.85	1.13	0.0	 i = e
0.0	0.0	0.0	0.56	2.26	15.82	0.0	2.26	4.52	19.77	3.39	0.0	3.39	0.0	5.08	15.82	3.39	7.34	0.0	0.0	0.56	0.0	2.26	1.69	5.65	6.21	0.0	 j = d
0.0	1.39	2.78	0.0	11.11	22.22	0.0	0.0	9.72	1.39	16.67	1.39	13.89	0.0	0.0	6.94	1.39	4.17	0.0	0.0	1.39	1.39	0.0	1.39	1.39	1.39	0.0	 k = g
0.0	0.0	26.92	5.13	6.41	8.97	2.56	0.0	2.56	0.0	2.56	5.13	0.0	1.28	0.0	2.56	2.56	5.13	1.28	5.13	12.82	0.0	0.0	5.13	1.28	2.56	0.0	 l = f
0.0	0.0	2.98	1.59	7.36	1.19	2.78	1.59	12.13	0.2	4.17	0.0	47.51	0.0	2.58	5.96	0.0	3.18	0.99	0.0	1.59	0.0	0.2	1.39	0.99	1.59	0.0	 m = i
1.52	0.0	9.09	9.09	6.06	21.21	4.55	0.0	9.09	0.0	3.03	3.03	3.03	10.61	0.0	3.03	1.52	4.55	0.0	1.52	4.55	4.55	0.0	0.0	0.0	0.0	0.0	 n = j
0.0	0.0	1.09	0.54	8.15	7.61	0.0	0.0	7.61	4.89	5.98	0.0	14.67	0.0	8.15	22.83	0.0	5.98	0.0	0.0	0.0	1.09	5.98	1.09	0.0	4.35	0.0	 o = m
0.0	0.45	0.0	1.35	3.14	10.31	1.35	3.14	5.83	2.24	1.79	0.0	8.97	0.0	0.9	42.6	0.0	5.83	0.0	0.0	0.45	0.0	1.79	0.0	4.93	4.93	0.0	 p = l
0.21	0.11	9.04	2.77	3.83	20.0	1.28	0.53	5.64	10.74	2.02	0.11	1.38	0.11	1.06	9.04	18.09	1.28	0.21	0.74	0.85	0.64	5.96	0.96	1.81	1.6	0.0	 q = o
0.0	0.69	1.61	3.44	7.57	13.07	0.0	1.61	6.19	2.29	5.5	0.23	5.5	0.0	5.28	22.71	0.46	9.4	0.23	0.0	1.15	0.0	3.9	1.61	4.36	3.21	0.0	 r = n
0.0	0.0	43.64	1.82	1.82	5.45	3.64	0.0	1.82	0.0	1.82	1.82	12.73	1.82	0.0	0.0	0.0	1.82	5.45	0.0	12.73	0.0	0.0	0.0	0.0	3.64	0.0	 s = q
0.0	0.0	28.57	4.51	2.26	6.02	6.77	1.5	0.75	3.01	0.0	4.51	0.0	3.01	0.0	3.01	1.5	4.51	0.0	2.26	9.77	0.75	0.75	10.53	0.0	6.02	0.0	 t = p
1.63	0.33	29.58	2.78	0.65	4.9	4.25	0.0	0.98	1.14	1.31	0.82	5.56	0.82	0.0	4.9	0.65	3.59	0.98	0.33	28.76	1.14	0.33	0.82	0.49	3.27	0.0	 u = s
0.32	0.0	7.14	4.87	0.32	19.81	0.65	1.62	7.47	3.57	2.6	0.97	3.9	0.0	0.32	20.45	1.3	3.25	0.32	0.65	2.6	4.87	1.3	3.25	6.49	1.95	0.0	 v = r
0.0	0.35	1.4	0.35	2.46	8.07	2.46	0.35	5.61	3.16	2.81	0.35	0.7	0.0	2.46	9.82	7.37	3.86	0.35	0.0	0.35	0.0	43.51	2.46	0.0	1.4	0.35	 w = u
0.43	0.0	42.31	3.42	0.43	0.85	12.39	0.0	0.43	1.28	1.71	1.28	0.43	0.0	1.71	0.0	1.71	3.42	0.0	0.85	6.41	1.28	3.42	9.4	2.56	4.27	0.0	 x = t
0.0	0.0	1.01	3.03	14.14	9.09	2.02	0.0	13.13	9.09	2.02	0.0	0.0	0.0	1.01	24.24	1.01	4.04	0.0	0.0	0.0	4.04	0.0	2.02	8.08	2.02	0.0	 y = v
0.0	0.0	3.13	1.56	0.0	0.0	3.13	1.56	0.0	1.56	0.0	1.56	0.0	0.0	0.0	32.81	0.0	4.69	0.0	0.0	7.81	0.0	3.13	0.0	1.56	37.5	0.0	 z = y
0.0	0.0	100.0	0.0	0.0	0.0	0.0	0.0	0.0	0.0	0.0	0.0	0.0	0.0	0.0	0.0	0.0	0.0	0.0	0.0	0.0	0.0	0.0	0.0	0.0	0.0	0.0	 aa = z
