Timestamp:2013-08-30-03:33:32
Inventario:I0
Intervalo:1ms
Ngramas:4
Clasificador:BayesNet
Relation Name:  I0-1ms-4gramas
Num Instances:  183401
Num Attributes: 41

     Name                      Type  Nom  Int Real     Missing      Unique  Dist
   1 0Int(dB)                   Num   0%   9%  91%     0 /  0%     2 /  0%   779 
   2 0Pitch(Hz)                 Num   0%  51%  49%     0 /  0%   256 /  0%  4213 
   3 0RawPitch                  Num   0%  55%  45%     0 /  0%   417 /  0%  4119 
   4 0SmPitch                   Num   0%  53%  47%     0 /  0%   263 /  0%  4193 
   5 0Melogram(st)              Num   0%  49%  51%     0 /  0%   133 /  0%  3454 
   6 0ZCross                    Num   0% 100%   0%     0 /  0%     4 /  0%    58 
   7 0F1(Hz)                    Num   0%  52%  48%     0 /  0%  1154 /  1%  4824 
   8 0F2(Hz)                    Num   0%  52%  48%     0 /  0%  2223 /  1%  6697 
   9 0F3(Hz)                    Num   0%  53%  47%     0 /  0%  1930 /  1%  6200 
  10 0F4(Hz)                    Num   0%  52%  48%     0 /  0%  1933 /  1%  6096 
  11 1Int(dB)                   Num   0%   9%  91%     0 /  0%     3 /  0%   780 
  12 1Pitch(Hz)                 Num   0%  51%  49%     0 /  0%   256 /  0%  4213 
  13 1RawPitch                  Num   0%  55%  45%     0 /  0%   417 /  0%  4119 
  14 1SmPitch                   Num   0%  53%  47%     0 /  0%   263 /  0%  4193 
  15 1Melogram(st)              Num   0%  49%  51%     0 /  0%   133 /  0%  3454 
  16 1ZCross                    Num   0% 100%   0%     0 /  0%     4 /  0%    58 
  17 1F1(Hz)                    Num   0%  52%  48%     0 /  0%  1154 /  1%  4824 
  18 1F2(Hz)                    Num   0%  52%  48%     0 /  0%  2223 /  1%  6697 
  19 1F3(Hz)                    Num   0%  53%  47%     0 /  0%  1930 /  1%  6200 
  20 1F4(Hz)                    Num   0%  52%  48%     0 /  0%  1933 /  1%  6096 
  21 2Int(dB)                   Num   0%   9%  91%     0 /  0%     4 /  0%   781 
  22 2Pitch(Hz)                 Num   0%  51%  49%     0 /  0%   256 /  0%  4213 
  23 2RawPitch                  Num   0%  55%  45%     0 /  0%   417 /  0%  4119 
  24 2SmPitch                   Num   0%  53%  47%     0 /  0%   263 /  0%  4193 
  25 2Melogram(st)              Num   0%  49%  51%     0 /  0%   133 /  0%  3454 
  26 2ZCross                    Num   0% 100%   0%     0 /  0%     4 /  0%    58 
  27 2F1(Hz)                    Num   0%  52%  48%     0 /  0%  1154 /  1%  4824 
  28 2F2(Hz)                    Num   0%  52%  48%     0 /  0%  2223 /  1%  6697 
  29 2F3(Hz)                    Num   0%  53%  47%     0 /  0%  1930 /  1%  6200 
  30 2F4(Hz)                    Num   0%  52%  48%     0 /  0%  1933 /  1%  6096 
  31 3Int(dB)                   Num   0%   9%  91%     0 /  0%     3 /  0%   781 
  32 3Pitch(Hz)                 Num   0%  51%  49%     0 /  0%   256 /  0%  4213 
  33 3RawPitch                  Num   0%  55%  45%     0 /  0%   417 /  0%  4119 
  34 3SmPitch                   Num   0%  53%  47%     0 /  0%   263 /  0%  4193 
  35 3Melogram(st)              Num   0%  49%  51%     0 /  0%   133 /  0%  3454 
  36 3ZCross                    Num   0% 100%   0%     0 /  0%     4 /  0%    58 
  37 3F1(Hz)                    Num   0%  52%  48%     0 /  0%  1154 /  1%  4824 
  38 3F2(Hz)                    Num   0%  52%  48%     0 /  0%  2223 /  1%  6697 
  39 3F3(Hz)                    Num   0%  53%  47%     0 /  0%  1930 /  1%  6200 
  40 3F4(Hz)                    Num   0%  52%  48%     0 /  0%  1933 /  1%  6096 
  41 class                      Nom 100%   0%   0%     0 /  0%     0 /  0%    27 


Options: -D -Q weka.classifiers.bayes.net.search.local.K2 -- -P 1 -S BAYES -E weka.classifiers.bayes.net.estimate.SimpleEstimator -- -A 0.5 

Bayes Network Classifier
not using ADTree
#attributes=41 #classindex=40
Network structure (nodes followed by parents)
0Int(dB)(34): class 
0Pitch(Hz)(86): class 
0RawPitch(57): class 
0SmPitch(79): class 
0Melogram(st)(85): class 
0ZCross(19): class 
0F1(Hz)(2817): class 
0F2(Hz)(3593): class 
0F3(Hz)(3780): class 
0F4(Hz)(3701): class 
1Int(dB)(34): class 
1Pitch(Hz)(89): class 
1RawPitch(58): class 
1SmPitch(79): class 
1Melogram(st)(86): class 
1ZCross(19): class 
1F1(Hz)(2802): class 
1F2(Hz)(3580): class 
1F3(Hz)(3751): class 
1F4(Hz)(3692): class 
2Int(dB)(33): class 
2Pitch(Hz)(90): class 
2RawPitch(54): class 
2SmPitch(79): class 
2Melogram(st)(88): class 
2ZCross(19): class 
2F1(Hz)(2785): class 
2F2(Hz)(3605): class 
2F3(Hz)(3755): class 
2F4(Hz)(3661): class 
3Int(dB)(33): class 
3Pitch(Hz)(95): class 
3RawPitch(58): class 
3SmPitch(79): class 
3Melogram(st)(88): class 
3ZCross(18): class 
3F1(Hz)(2785): class 
3F2(Hz)(3608): class 
3F3(Hz)(3772): class 
3F4(Hz)(3673): class 
class(27): 
LogScore Bayes: -2.147925185958649E7
LogScore BDeu: -4.2888296902894944E7
LogScore MDL: -3.67064661991525E7
LogScore ENTROPY: -2.7416565357637327E7
LogScore AIC: -2.8949624357637323E7




=== Stratified cross-validation ===

Correctly Classified Instances      147715               80.5421 %
Incorrectly Classified Instances     35686               19.4579 %
Kappa statistic                          0.7567
K&B Relative Info Score            13786270.4631 %
K&B Information Score               452726.2055 bits      2.4685 bits/instance
Class complexity | order 0          602178.7356 bits      3.2834 bits/instance
Class complexity | scheme          1699359.9241 bits      9.2658 bits/instance
Complexity improvement     (Sf)    -1097181.1885 bits     -5.9824 bits/instance
Mean absolute error                      0.0145
Root mean squared error                  0.1169
Relative absolute error                 24.22   %
Root relative squared error             67.6497 %
Coverage of cases (0.95 level)          82.0966 %
Mean rel. region size (0.95 level)       3.9708 %
Total Number of Instances           183401     


=== Detailed Accuracy By Class ===

                 TP Rate  FP Rate  Precision  Recall   F-Measure  MCC      ROC Area  PRC Area  Class
                 0,254    0,002    0,430      0,254    0,319      0,328    0,958     0,290     ch
                 0,986    0,006    0,154      0,986    0,267      0,389    1,000     0,812     rr
                 0,896    0,120    0,828      0,896    0,861      0,766    0,972     0,962     0
                 0,614    0,004    0,636      0,614    0,625      0,621    0,942     0,619     hs
                 0,982    0,012    0,180      0,982    0,305      0,418    0,999     0,861     hg
                 0,808    0,004    0,974      0,808    0,883      0,871    0,979     0,954     a
                 0,198    0,003    0,516      0,198    0,286      0,314    0,940     0,315     c
                 0,981    0,005    0,568      0,981    0,719      0,744    0,999     0,936     b
                 0,795    0,004    0,936      0,795    0,860      0,852    0,972     0,913     e
                 0,915    0,005    0,713      0,915    0,802      0,805    0,991     0,861     d
                 0,887    0,006    0,488      0,887    0,630      0,656    0,960     0,816     g
                 0,397    0,002    0,614      0,397    0,482      0,491    0,970     0,444     f
                 0,829    0,003    0,912      0,829    0,869      0,865    0,967     0,891     i
                 0,671    0,002    0,697      0,671    0,684      0,682    0,960     0,673     j
                 0,935    0,003    0,824      0,935    0,876      0,876    0,989     0,925     m
                 0,945    0,005    0,779      0,945    0,854      0,855    0,991     0,894     l
                 0,758    0,005    0,920      0,758    0,831      0,824    0,943     0,866     o
                 0,882    0,004    0,888      0,882    0,885      0,881    0,976     0,914     n
                 0,383    0,002    0,469      0,383    0,422      0,421    0,939     0,394     q
                 0,385    0,002    0,731      0,385    0,504      0,527    0,954     0,453     p
                 0,557    0,016    0,643      0,557    0,597      0,580    0,970     0,696     s
                 0,782    0,006    0,763      0,782    0,773      0,767    0,940     0,782     r
                 0,904    0,002    0,920      0,904    0,912      0,910    0,984     0,933     u
                 0,241    0,004    0,554      0,241    0,336      0,358    0,937     0,351     t
                 0,950    0,005    0,603      0,950    0,738      0,755    0,984     0,859     v
                 0,784    0,010    0,272      0,784    0,404      0,458    0,956     0,725     y
                 0,000    0,006    0,000      0,000    0,000      -0,001   0,888     0,002     z
Weighted Avg.    0,805    0,050    0,829      0,805    0,808      0,769    0,969     0,881     


=== Confusion Matrix ===

     a     b     c     d     e     f     g     h     i     j     k     l     m     n     o     p     q     r     s     t     u     v     w     x     y     z    aa   <-- classified as
   217     0   278     0     0     0     4     0     0     0     1     0     0     0     0     0     9     0     0     0   333     3     0     3     6     0     0 |     a = ch
     0   214     0     0     0     2     0     0     1     0     0     0     0     0     0     0     0     0     0     0     0     0     0     0     0     0     0 |     b = rr
   128   309 64612   231   912   234    88   278   426   243   264   156   283   236   145   210   308   235   215   141   318   296   145   148   374   756   423 |     c = 0
     0     6   640  1197     2     0     8     3    22     6     0     0     1     0     0    10     9     0     0     0    38     0     0     2     4     2     0 |     d = hs
     0     1     0     0   483     0     0     0     2     0     0     0     3     0     0     0     0     0     0     0     0     0     2     0     1     0     0 |     e = hg
    43   346   732   142   678 21095   111   232    14   205   308    58    47    19   128   333   123   143    70    47   208   238    38   100   162   387   108 |     f = a
     6     5  1418     5     7     8   537     0    29     3     2     2    20     0     7     0    39     0     1     6   523    18    44    34     1     0     0 |     g = c
     0     0     0     0     0     2     0  1173     0     0     1     0    10     0     7     0     0     0     0     0     0     3     0     0     0     0     0 |     h = b
    25   151   516   112   194    35    31    66 10924   141   142    25    38    16    65   112    68   157    36    30    92   176    40    73   124   228   123 |     i = e
     0    19    24     3     7    12     2     0    15  2395     1     1     1     0     1     0    12    23     0     8     2     5     7     4     2    44    29 |     j = d
     0     1    65     1     8     8     4     0    10     0   961     2     3     0     0     0     0     0     0     1     9     5     1     0     0     2     2 |     k = g
     0     4   565     1     7     3     1     0     9     0     1   461     4     0     0     0     9     0     0     2    70     2     2    17     0     2     0 |     l = f
    20     7   325    24    44    10    44    73    17    19    46     6  5872     1    33    49    45    16     7     2    96    58     2    55    67    57    88 |     m = i
     0     1   182     0     5     0     9     1     6     0     0     0     0   657     0     0     0     0     1     0   110     0     0     7     0     0     0 |     n = j
     0    11    41     9     1     3     2    11     6     0     6     1    13     0  2442     0    19     0     3     4     1     0     2     3     0    16    19 |     o = m
     0     0    17    13     4    12     2     9    15     0     8     0     6     0    10  3034    12    10     1     0    26    13     2     1     0     6     9 |     p = l
    13   167  1408    54   142    44    53    93     6   250   153    18    38     1    93    75 10033    74     8    17    63    67     0    55    61   105   143 |     q = o
     9    37   236     8    43    35    14    10    30    33    26     7    20     0     3    14    10  5562     1     0     2     4    20    45     6    50    83 |     r = n
     5     1   282     0     4     0     4     0    13     0     0     0     0     0     0     0     2     0   322     6   189    11     0     1     0     0     0 |     s = q
     0     0   964     4     5    15    25     3    20     0     0     2     0     0     0     5    24     0     0   771    97    33     2    24     2     9     0 |     t = p
    10    78  3215     9    78    65    14    41    16    23    12     2    32     6     4    15    19     8     5     1  4920    14    15    31    60   133     0 |     u = s
     6    13   458    32    17    37    21    48    58    32     6     7    23     2     2    11    15     0     0     9    65  3244     0    18     3    19     2 |     v = r
     7     6    60     5    16     1    22    16     4     6    19     3     4     4    23    15    25    13    14     3    25    16  3738    29     2    42    19 |     w = u
    16    11  1815    25    16    38    39     8    26     1    10     0    12     1     0     3   122    26     1     7   357    39     3   822     0    11     0 |     x = t
     0     0    17     7     0     2     1     1     5     0     1     0     9     0     0     0     3     0     0     0    15     1     0     8  1331     0     0 |     y = v
     0     0    65     0     4     0     4     0     3     0     0     0     0     0     0    10     0     0     2     0    97     3     1     3     0   698     0 |     z = y
     0     0    65     0     0     0     0     0     0     0     0     0     0     0     0     0     0     0     0     0     0     0     0     0     0     0     0 |    aa = z

=== Percent Confusion Matrix ===
a	b	c	d	e	f	g	h	i	j	k	l	m	n	o	p	q	r	s	t	u	v	w	x	y	z	aa	
25.41	0.0	32.55	0.0	0.0	0.0	0.47	0.0	0.0	0.0	0.12	0.0	0.0	0.0	0.0	0.0	1.05	0.0	0.0	0.0	38.99	0.35	0.0	0.35	0.7	0.0	0.0	 a = ch
0.0	98.62	0.0	0.0	0.0	0.92	0.0	0.0	0.46	0.0	0.0	0.0	0.0	0.0	0.0	0.0	0.0	0.0	0.0	0.0	0.0	0.0	0.0	0.0	0.0	0.0	0.0	 b = rr
0.18	0.43	89.6	0.32	1.26	0.32	0.12	0.39	0.59	0.34	0.37	0.22	0.39	0.33	0.2	0.29	0.43	0.33	0.3	0.2	0.44	0.41	0.2	0.21	0.52	1.05	0.59	 c = 0
0.0	0.31	32.82	61.38	0.1	0.0	0.41	0.15	1.13	0.31	0.0	0.0	0.05	0.0	0.0	0.51	0.46	0.0	0.0	0.0	1.95	0.0	0.0	0.1	0.21	0.1	0.0	 d = hs
0.0	0.2	0.0	0.0	98.17	0.0	0.0	0.0	0.41	0.0	0.0	0.0	0.61	0.0	0.0	0.0	0.0	0.0	0.0	0.0	0.0	0.0	0.41	0.0	0.2	0.0	0.0	 e = hg
0.16	1.32	2.8	0.54	2.6	80.78	0.43	0.89	0.05	0.78	1.18	0.22	0.18	0.07	0.49	1.28	0.47	0.55	0.27	0.18	0.8	0.91	0.15	0.38	0.62	1.48	0.41	 f = a
0.22	0.18	52.23	0.18	0.26	0.29	19.78	0.0	1.07	0.11	0.07	0.07	0.74	0.0	0.26	0.0	1.44	0.0	0.04	0.22	19.26	0.66	1.62	1.25	0.04	0.0	0.0	 g = c
0.0	0.0	0.0	0.0	0.0	0.17	0.0	98.08	0.0	0.0	0.08	0.0	0.84	0.0	0.59	0.0	0.0	0.0	0.0	0.0	0.0	0.25	0.0	0.0	0.0	0.0	0.0	 h = b
0.18	1.1	3.76	0.82	1.41	0.25	0.23	0.48	79.51	1.03	1.03	0.18	0.28	0.12	0.47	0.82	0.49	1.14	0.26	0.22	0.67	1.28	0.29	0.53	0.9	1.66	0.9	 i = e
0.0	0.73	0.92	0.11	0.27	0.46	0.08	0.0	0.57	91.52	0.04	0.04	0.04	0.0	0.04	0.0	0.46	0.88	0.0	0.31	0.08	0.19	0.27	0.15	0.08	1.68	1.11	 j = d
0.0	0.09	6.0	0.09	0.74	0.74	0.37	0.0	0.92	0.0	88.73	0.18	0.28	0.0	0.0	0.0	0.0	0.0	0.0	0.09	0.83	0.46	0.09	0.0	0.0	0.18	0.18	 k = g
0.0	0.34	48.71	0.09	0.6	0.26	0.09	0.0	0.78	0.0	0.09	39.74	0.34	0.0	0.0	0.0	0.78	0.0	0.0	0.17	6.03	0.17	0.17	1.47	0.0	0.17	0.0	 l = f
0.28	0.1	4.59	0.34	0.62	0.14	0.62	1.03	0.24	0.27	0.65	0.08	82.9	0.01	0.47	0.69	0.64	0.23	0.1	0.03	1.36	0.82	0.03	0.78	0.95	0.8	1.24	 m = i
0.0	0.1	18.59	0.0	0.51	0.0	0.92	0.1	0.61	0.0	0.0	0.0	0.0	67.11	0.0	0.0	0.0	0.0	0.1	0.0	11.24	0.0	0.0	0.72	0.0	0.0	0.0	 n = j
0.0	0.42	1.57	0.34	0.04	0.11	0.08	0.42	0.23	0.0	0.23	0.04	0.5	0.0	93.46	0.0	0.73	0.0	0.11	0.15	0.04	0.0	0.08	0.11	0.0	0.61	0.73	 o = m
0.0	0.0	0.53	0.4	0.12	0.37	0.06	0.28	0.47	0.0	0.25	0.0	0.19	0.0	0.31	94.52	0.37	0.31	0.03	0.0	0.81	0.4	0.06	0.03	0.0	0.19	0.28	 p = l
0.1	1.26	10.64	0.41	1.07	0.33	0.4	0.7	0.05	1.89	1.16	0.14	0.29	0.01	0.7	0.57	75.81	0.56	0.06	0.13	0.48	0.51	0.0	0.42	0.46	0.79	1.08	 q = o
0.14	0.59	3.74	0.13	0.68	0.55	0.22	0.16	0.48	0.52	0.41	0.11	0.32	0.0	0.05	0.22	0.16	88.17	0.02	0.0	0.03	0.06	0.32	0.71	0.1	0.79	1.32	 r = n
0.6	0.12	33.57	0.0	0.48	0.0	0.48	0.0	1.55	0.0	0.0	0.0	0.0	0.0	0.0	0.0	0.24	0.0	38.33	0.71	22.5	1.31	0.0	0.12	0.0	0.0	0.0	 s = q
0.0	0.0	48.08	0.2	0.25	0.75	1.25	0.15	1.0	0.0	0.0	0.1	0.0	0.0	0.0	0.25	1.2	0.0	0.0	38.45	4.84	1.65	0.1	1.2	0.1	0.45	0.0	 t = p
0.11	0.88	36.43	0.1	0.88	0.74	0.16	0.46	0.18	0.26	0.14	0.02	0.36	0.07	0.05	0.17	0.22	0.09	0.06	0.01	55.74	0.16	0.17	0.35	0.68	1.51	0.0	 u = s
0.14	0.31	11.04	0.77	0.41	0.89	0.51	1.16	1.4	0.77	0.14	0.17	0.55	0.05	0.05	0.27	0.36	0.0	0.0	0.22	1.57	78.21	0.0	0.43	0.07	0.46	0.05	 v = r
0.17	0.15	1.45	0.12	0.39	0.02	0.53	0.39	0.1	0.15	0.46	0.07	0.1	0.1	0.56	0.36	0.6	0.31	0.34	0.07	0.6	0.39	90.36	0.7	0.05	1.02	0.46	 w = u
0.47	0.32	53.24	0.73	0.47	1.11	1.14	0.23	0.76	0.03	0.29	0.0	0.35	0.03	0.0	0.09	3.58	0.76	0.03	0.21	10.47	1.14	0.09	24.11	0.0	0.32	0.0	 x = t
0.0	0.0	1.21	0.5	0.0	0.14	0.07	0.07	0.36	0.0	0.07	0.0	0.64	0.0	0.0	0.0	0.21	0.0	0.0	0.0	1.07	0.07	0.0	0.57	95.0	0.0	0.0	 y = v
0.0	0.0	7.3	0.0	0.45	0.0	0.45	0.0	0.34	0.0	0.0	0.0	0.0	0.0	0.0	1.12	0.0	0.0	0.22	0.0	10.9	0.34	0.11	0.34	0.0	78.43	0.0	 z = y
0.0	0.0	100.0	0.0	0.0	0.0	0.0	0.0	0.0	0.0	0.0	0.0	0.0	0.0	0.0	0.0	0.0	0.0	0.0	0.0	0.0	0.0	0.0	0.0	0.0	0.0	0.0	 aa = z
