Timestamp:2013-08-30-03:28:22
Inventario:I0
Intervalo:1ms
Ngramas:2
Clasificador:BayesNet
Relation Name:  I0-1ms-2gramas
Num Instances:  183403
Num Attributes: 21

     Name                      Type  Nom  Int Real     Missing      Unique  Dist
   1 0Int(dB)                   Num   0%   9%  91%     0 /  0%     4 /  0%   781 
   2 0Pitch(Hz)                 Num   0%  51%  49%     0 /  0%   256 /  0%  4213 
   3 0RawPitch                  Num   0%  55%  45%     0 /  0%   417 /  0%  4119 
   4 0SmPitch                   Num   0%  53%  47%     0 /  0%   263 /  0%  4193 
   5 0Melogram(st)              Num   0%  49%  51%     0 /  0%   133 /  0%  3454 
   6 0ZCross                    Num   0% 100%   0%     0 /  0%     4 /  0%    58 
   7 0F1(Hz)                    Num   0%  52%  48%     0 /  0%  1154 /  1%  4824 
   8 0F2(Hz)                    Num   0%  52%  48%     0 /  0%  2223 /  1%  6697 
   9 0F3(Hz)                    Num   0%  53%  47%     0 /  0%  1930 /  1%  6200 
  10 0F4(Hz)                    Num   0%  52%  48%     0 /  0%  1933 /  1%  6096 
  11 1Int(dB)                   Num   0%   9%  91%     0 /  0%     3 /  0%   781 
  12 1Pitch(Hz)                 Num   0%  51%  49%     0 /  0%   256 /  0%  4213 
  13 1RawPitch                  Num   0%  55%  45%     0 /  0%   417 /  0%  4119 
  14 1SmPitch                   Num   0%  53%  47%     0 /  0%   263 /  0%  4193 
  15 1Melogram(st)              Num   0%  49%  51%     0 /  0%   133 /  0%  3454 
  16 1ZCross                    Num   0% 100%   0%     0 /  0%     4 /  0%    58 
  17 1F1(Hz)                    Num   0%  52%  48%     0 /  0%  1154 /  1%  4824 
  18 1F2(Hz)                    Num   0%  52%  48%     0 /  0%  2223 /  1%  6697 
  19 1F3(Hz)                    Num   0%  53%  47%     0 /  0%  1930 /  1%  6200 
  20 1F4(Hz)                    Num   0%  52%  48%     0 /  0%  1933 /  1%  6096 
  21 class                      Nom 100%   0%   0%     0 /  0%     0 /  0%    27 


Options: -D -Q weka.classifiers.bayes.net.search.local.K2 -- -P 1 -S BAYES -E weka.classifiers.bayes.net.estimate.SimpleEstimator -- -A 0.5 

Bayes Network Classifier
not using ADTree
#attributes=21 #classindex=20
Network structure (nodes followed by parents)
0Int(dB)(33): class 
0Pitch(Hz)(90): class 
0RawPitch(54): class 
0SmPitch(79): class 
0Melogram(st)(88): class 
0ZCross(19): class 
0F1(Hz)(2785): class 
0F2(Hz)(3605): class 
0F3(Hz)(3755): class 
0F4(Hz)(3661): class 
1Int(dB)(33): class 
1Pitch(Hz)(95): class 
1RawPitch(58): class 
1SmPitch(79): class 
1Melogram(st)(88): class 
1ZCross(18): class 
1F1(Hz)(2785): class 
1F2(Hz)(3608): class 
1F3(Hz)(3772): class 
1F4(Hz)(3673): class 
class(27): 
LogScore Bayes: -1.0936475093808752E7
LogScore BDeu: -2.162737013443019E7
LogScore MDL: -1.854095503643831E7
LogScore ENTROPY: -1.3901075452177094E7
LogScore AIC: -1.4666767452177098E7




=== Stratified cross-validation ===

Correctly Classified Instances      147845               80.6121 %
Incorrectly Classified Instances     35558               19.3879 %
Kappa statistic                          0.7567
K&B Relative Info Score            13801391.5268 %
K&B Information Score               453216.6314 bits      2.4712 bits/instance
Class complexity | order 0          602181.4289 bits      3.2834 bits/instance
Class complexity | scheme           877985.4116 bits      4.7872 bits/instance
Complexity improvement     (Sf)    -275803.9827 bits     -1.5038 bits/instance
Mean absolute error                      0.0146
Root mean squared error                  0.1142
Relative absolute error                 24.4055 %
Root relative squared error             66.0549 %
Coverage of cases (0.95 level)          83.6257 %
Mean rel. region size (0.95 level)       4.3114 %
Total Number of Instances           183403     


=== Detailed Accuracy By Class ===

                 TP Rate  FP Rate  Precision  Recall   F-Measure  MCC      ROC Area  PRC Area  Class
                 0,217    0,001    0,433      0,217    0,289      0,304    0,956     0,275     ch
                 0,977    0,005    0,176      0,977    0,298      0,413    0,999     0,909     rr
                 0,902    0,126    0,823      0,902    0,860      0,765    0,972     0,963     0
                 0,591    0,004    0,614      0,591    0,602      0,598    0,936     0,599     hs
                 0,976    0,010    0,202      0,976    0,335      0,442    0,998     0,905     hg
                 0,825    0,005    0,966      0,825    0,890      0,877    0,978     0,953     a
                 0,194    0,002    0,543      0,194    0,286      0,319    0,937     0,310     c
                 0,967    0,005    0,565      0,967    0,713      0,737    0,998     0,904     b
                 0,801    0,006    0,922      0,801    0,857      0,849    0,971     0,907     e
                 0,903    0,006    0,702      0,903    0,790      0,793    0,990     0,855     d
                 0,871    0,005    0,506      0,871    0,640      0,662    0,958     0,836     g
                 0,377    0,001    0,621      0,377    0,469      0,481    0,966     0,421     f
                 0,833    0,004    0,902      0,833    0,866      0,862    0,967     0,889     i
                 0,655    0,001    0,712      0,655    0,682      0,681    0,956     0,671     j
                 0,917    0,003    0,821      0,917    0,866      0,866    0,988     0,926     m
                 0,936    0,005    0,775      0,936    0,848      0,849    0,991     0,892     l
                 0,758    0,006    0,905      0,758    0,825      0,816    0,940     0,861     o
                 0,863    0,004    0,880      0,863    0,872      0,867    0,974     0,905     n
                 0,360    0,002    0,474      0,360    0,409      0,411    0,937     0,383     q
                 0,364    0,001    0,738      0,364    0,487      0,514    0,948     0,436     p
                 0,532    0,014    0,650      0,532    0,585      0,570    0,969     0,680     s
                 0,764    0,006    0,754      0,764    0,759      0,753    0,937     0,772     r
                 0,899    0,002    0,906      0,899    0,902      0,900    0,984     0,934     u
                 0,225    0,004    0,532      0,225    0,317      0,339    0,934     0,339     t
                 0,933    0,005    0,603      0,933    0,733      0,748    0,985     0,857     v
                 0,772    0,009    0,290      0,772    0,422      0,469    0,953     0,739     y
                 0,000    0,004    0,000      0,000    0,000      -0,001   0,871     0,001     z
Weighted Avg.    0,806    0,053    0,823      0,806    0,805      0,766    0,968     0,878     


=== Confusion Matrix ===

     a     b     c     d     e     f     g     h     i     j     k     l     m     n     o     p     q     r     s     t     u     v     w     x     y     z    aa   <-- classified as
   185     0   290     0     0     1     3     0     0     0     2     0     1     0     0     0    10     0     0     0   349     3     0     5     5     0     0 |     a = ch
     0   212     0     0     0     3     0     0     2     0     0     0     0     0     0     0     0     0     0     0     0     0     0     0     0     0     0 |     b = rr
   107   281 65033   253   815   312    73   255   479   252   246   146   296   218   134   200   349   239   185   136   267   308   174   154   337   712   155 |     c = 0
     0     3   687  1153     5     0     0     3    36     6     0     0     3     0     3     8    12     0     0     0    18     0     2     0     6     5     0 |     d = hs
     0     1     0     0   480     0     0     0     2     0     0     0     5     0     0     0     0     0     0     0     0     0     3     0     1     0     0 |     e = hg
    40   243   789   164   524 21553    96   198    30   196   259    61    42    13   116   331   131   156    66    50   172   228    38    87   163   294    75 |     f = a
     4     2  1439     4     0     6   526     0    30     3     3     1    15     0     4     0    54     0     2     3   504    19    49    43     2     2     0 |     g = c
     0     2     0     0     0     2     0  1156     0     0     2     0    15     0     6     0     0     0     0     0     0     5     5     0     2     1     0 |     h = b
    16   141   531   107   146    55    35    78 11005   139   102    29    36     9    67   124    79   175    44    28    89   180    43    63   141   172   106 |     i = e
     1    18    31     4    11    10     1     5    23  2363     6     1     2     0     1     1    17    24     0     4     1    10     7     2     2    48    24 |     j = d
     0     2    69     2     9    10     3     0    14     0   943     0     7     0     0     0     4     2     0     0     7     7     3     1     0     0     0 |     k = g
     0     3   596     0     4     3     2     0    11     0     2   437     6     0     0     0    11     0     0     1    56     3     1    20     2     2     0 |     l = f
    16     6   341    25    51    16    34    73    28    12    33     1  5902     2    40    40    64    19    11     1    84    47     2    57    58    55    65 |     m = i
     0     0   196     0     7     0     9     1     6     0     0     0     0   641     0     0     2     0     1     1   109     0     1     5     0     0     0 |     n = j
     0    10    41     8     4     8     1    14     6     0    10     0    26     0  2396     3    32     0     1     3     3     0     8     2     2    21    14 |     o = m
     0     5    19    11     6    17     3    10    22     1    13     0     7     0    15  3003    13     9     0     0    23    11     1     1     2     8    10 |     p = l
    10   129  1454    58   130    55    37   117     6   278   147     7    42     4    89    76 10033    72     6    16    39    81     8    59    69   107   105 |     q = o
    11    35   255    11    54    51     7    14    59    44    36     5    29     0     7    22     9  5446     2     2     0     3    20    49    13    48    76 |     r = n
     1     0   295     0     4     0     7     0    17     0     0     0     1     0     0     0     5     0   302     1   188    13     2     2     0     2     0 |     s = q
     4     3   985     5     2    20    20     4    18     0     0     1     0     1     1     9    33     0     0   729    96    35     0    24     4    11     0 |     t = p
    10    57  3454    11    64    79    18    25    30    23    13     4    49     5     6    15    32     3     7     2  4697    19    12    35    42   112     2 |     u = s
     5    14   478    29    23    44    15    52    71    37    15     5    33     1     1    16    21     0     0     9    55  3170     2    23     4    23     2 |     v = r
     5    18    62     9    12     1    23    25     3     9    18     4     2     5    31    12    26    15     8     0    25    17  3718    30     3    41    15 |     w = u
    12    13  1836    22    14    53    46    11    29     2    10     0    12     1     0     3   146    26     1     1   344    42     2   768     1    14     0 |     x = t
     0     7    16     2     1     5     4     6     9     0     1     2     9     0     1     0     4     0     0     1    12     1     1     9  1307     3     0 |     y = v
     0     0    76     1     5     0     6     0     4     0     1     0     0     0     0    11     0     0     1     0    88     4     2     4     0   687     0 |     z = y
     0     0    65     0     0     0     0     0     0     0     0     0     0     0     0     0     0     0     0     0     0     0     0     0     0     0     0 |    aa = z

=== Percent Confusion Matrix ===
a	b	c	d	e	f	g	h	i	j	k	l	m	n	o	p	q	r	s	t	u	v	w	x	y	z	aa	
21.66	0.0	33.96	0.0	0.0	0.12	0.35	0.0	0.0	0.0	0.23	0.0	0.12	0.0	0.0	0.0	1.17	0.0	0.0	0.0	40.87	0.35	0.0	0.59	0.59	0.0	0.0	 a = ch
0.0	97.7	0.0	0.0	0.0	1.38	0.0	0.0	0.92	0.0	0.0	0.0	0.0	0.0	0.0	0.0	0.0	0.0	0.0	0.0	0.0	0.0	0.0	0.0	0.0	0.0	0.0	 b = rr
0.15	0.39	90.18	0.35	1.13	0.43	0.1	0.35	0.66	0.35	0.34	0.2	0.41	0.3	0.19	0.28	0.48	0.33	0.26	0.19	0.37	0.43	0.24	0.21	0.47	0.99	0.21	 c = 0
0.0	0.15	35.23	59.13	0.26	0.0	0.0	0.15	1.85	0.31	0.0	0.0	0.15	0.0	0.15	0.41	0.62	0.0	0.0	0.0	0.92	0.0	0.1	0.0	0.31	0.26	0.0	 d = hs
0.0	0.2	0.0	0.0	97.56	0.0	0.0	0.0	0.41	0.0	0.0	0.0	1.02	0.0	0.0	0.0	0.0	0.0	0.0	0.0	0.0	0.0	0.61	0.0	0.2	0.0	0.0	 e = hg
0.15	0.93	3.02	0.63	2.01	82.53	0.37	0.76	0.11	0.75	0.99	0.23	0.16	0.05	0.44	1.27	0.5	0.6	0.25	0.19	0.66	0.87	0.15	0.33	0.62	1.13	0.29	 f = a
0.15	0.07	53.0	0.15	0.0	0.22	19.37	0.0	1.1	0.11	0.11	0.04	0.55	0.0	0.15	0.0	1.99	0.0	0.07	0.11	18.56	0.7	1.8	1.58	0.07	0.07	0.0	 g = c
0.0	0.17	0.0	0.0	0.0	0.17	0.0	96.66	0.0	0.0	0.17	0.0	1.25	0.0	0.5	0.0	0.0	0.0	0.0	0.0	0.0	0.42	0.42	0.0	0.17	0.08	0.0	 h = b
0.12	1.03	3.86	0.78	1.06	0.4	0.25	0.57	80.09	1.01	0.74	0.21	0.26	0.07	0.49	0.9	0.57	1.27	0.32	0.2	0.65	1.31	0.31	0.46	1.03	1.25	0.77	 i = e
0.04	0.69	1.18	0.15	0.42	0.38	0.04	0.19	0.88	90.29	0.23	0.04	0.08	0.0	0.04	0.04	0.65	0.92	0.0	0.15	0.04	0.38	0.27	0.08	0.08	1.83	0.92	 j = d
0.0	0.18	6.37	0.18	0.83	0.92	0.28	0.0	1.29	0.0	87.07	0.0	0.65	0.0	0.0	0.0	0.37	0.18	0.0	0.0	0.65	0.65	0.28	0.09	0.0	0.0	0.0	 k = g
0.0	0.26	51.38	0.0	0.34	0.26	0.17	0.0	0.95	0.0	0.17	37.67	0.52	0.0	0.0	0.0	0.95	0.0	0.0	0.09	4.83	0.26	0.09	1.72	0.17	0.17	0.0	 l = f
0.23	0.08	4.81	0.35	0.72	0.23	0.48	1.03	0.4	0.17	0.47	0.01	83.33	0.03	0.56	0.56	0.9	0.27	0.16	0.01	1.19	0.66	0.03	0.8	0.82	0.78	0.92	 m = i
0.0	0.0	20.02	0.0	0.72	0.0	0.92	0.1	0.61	0.0	0.0	0.0	0.0	65.47	0.0	0.0	0.2	0.0	0.1	0.1	11.13	0.0	0.1	0.51	0.0	0.0	0.0	 n = j
0.0	0.38	1.57	0.31	0.15	0.31	0.04	0.54	0.23	0.0	0.38	0.0	1.0	0.0	91.7	0.11	1.22	0.0	0.04	0.11	0.11	0.0	0.31	0.08	0.08	0.8	0.54	 o = m
0.0	0.16	0.59	0.34	0.19	0.53	0.09	0.31	0.69	0.03	0.4	0.0	0.22	0.0	0.47	93.55	0.4	0.28	0.0	0.0	0.72	0.34	0.03	0.03	0.06	0.25	0.31	 p = l
0.08	0.97	10.99	0.44	0.98	0.42	0.28	0.88	0.05	2.1	1.11	0.05	0.32	0.03	0.67	0.57	75.81	0.54	0.05	0.12	0.29	0.61	0.06	0.45	0.52	0.81	0.79	 q = o
0.17	0.55	4.04	0.17	0.86	0.81	0.11	0.22	0.94	0.7	0.57	0.08	0.46	0.0	0.11	0.35	0.14	86.33	0.03	0.03	0.0	0.05	0.32	0.78	0.21	0.76	1.2	 r = n
0.12	0.0	35.12	0.0	0.48	0.0	0.83	0.0	2.02	0.0	0.0	0.0	0.12	0.0	0.0	0.0	0.6	0.0	35.95	0.12	22.38	1.55	0.24	0.24	0.0	0.24	0.0	 s = q
0.2	0.15	49.13	0.25	0.1	1.0	1.0	0.2	0.9	0.0	0.0	0.05	0.0	0.05	0.05	0.45	1.65	0.0	0.0	36.36	4.79	1.75	0.0	1.2	0.2	0.55	0.0	 t = p
0.11	0.65	39.13	0.12	0.73	0.9	0.2	0.28	0.34	0.26	0.15	0.05	0.56	0.06	0.07	0.17	0.36	0.03	0.08	0.02	53.22	0.22	0.14	0.4	0.48	1.27	0.02	 u = s
0.12	0.34	11.52	0.7	0.55	1.06	0.36	1.25	1.71	0.89	0.36	0.12	0.8	0.02	0.02	0.39	0.51	0.0	0.0	0.22	1.33	76.42	0.05	0.55	0.1	0.55	0.05	 v = r
0.12	0.44	1.5	0.22	0.29	0.02	0.56	0.6	0.07	0.22	0.44	0.1	0.05	0.12	0.75	0.29	0.63	0.36	0.19	0.0	0.6	0.41	89.87	0.73	0.07	0.99	0.36	 w = u
0.35	0.38	53.86	0.65	0.41	1.55	1.35	0.32	0.85	0.06	0.29	0.0	0.35	0.03	0.0	0.09	4.28	0.76	0.03	0.03	10.09	1.23	0.06	22.53	0.03	0.41	0.0	 x = t
0.0	0.5	1.14	0.14	0.07	0.36	0.29	0.43	0.64	0.0	0.07	0.14	0.64	0.0	0.07	0.0	0.29	0.0	0.0	0.07	0.86	0.07	0.07	0.64	93.29	0.21	0.0	 y = v
0.0	0.0	8.54	0.11	0.56	0.0	0.67	0.0	0.45	0.0	0.11	0.0	0.0	0.0	0.0	1.24	0.0	0.0	0.11	0.0	9.89	0.45	0.22	0.45	0.0	77.19	0.0	 z = y
0.0	0.0	100.0	0.0	0.0	0.0	0.0	0.0	0.0	0.0	0.0	0.0	0.0	0.0	0.0	0.0	0.0	0.0	0.0	0.0	0.0	0.0	0.0	0.0	0.0	0.0	0.0	 aa = z
