Timestamp:2013-08-30-03:54:03
Inventario:I0
Intervalo:10ms
Ngramas:5
Clasificador:BayesNet
Relation Name:  I0-10ms-5gramas
Num Instances:  18292
Num Attributes: 51

     Name                      Type  Nom  Int Real     Missing      Unique  Dist
   1 0Int(dB)                   Num   0%  10%  90%     0 /  0%     7 /  0%   772 
   2 0Pitch(Hz)                 Num   0%  51%  49%     0 /  0%   816 /  4%  3063 
   3 0RawPitch                  Num   0%  54%  46%     0 /  0%   853 /  5%  2955 
   4 0SmPitch                   Num   0%  52%  48%     0 /  0%   827 /  5%  3024 
   5 0Melogram(st)              Num   0%  47%  53%     0 /  0%   581 /  3%  2807 
   6 0ZCross                    Num   0% 100%   0%     0 /  0%    10 /  0%    42 
   7 0F1(Hz)                    Num   0%  51%  49%     0 /  0%  2131 / 12%  4724 
   8 0F2(Hz)                    Num   0%  51%  49%     0 /  0%  4210 / 23%  6615 
   9 0F3(Hz)                    Num   0%  51%  49%     0 /  0%  3688 / 20%  6145 
  10 0F4(Hz)                    Num   0%  51%  49%     0 /  0%  3689 / 20%  6054 
  11 1Int(dB)                   Num   0%  10%  90%     0 /  0%     7 /  0%   772 
  12 1Pitch(Hz)                 Num   0%  51%  49%     0 /  0%   816 /  4%  3063 
  13 1RawPitch                  Num   0%  54%  46%     0 /  0%   853 /  5%  2955 
  14 1SmPitch                   Num   0%  52%  48%     0 /  0%   827 /  5%  3024 
  15 1Melogram(st)              Num   0%  47%  53%     0 /  0%   581 /  3%  2807 
  16 1ZCross                    Num   0% 100%   0%     0 /  0%    10 /  0%    42 
  17 1F1(Hz)                    Num   0%  51%  49%     0 /  0%  2131 / 12%  4724 
  18 1F2(Hz)                    Num   0%  51%  49%     0 /  0%  4210 / 23%  6615 
  19 1F3(Hz)                    Num   0%  51%  49%     0 /  0%  3688 / 20%  6145 
  20 1F4(Hz)                    Num   0%  51%  49%     0 /  0%  3689 / 20%  6054 
  21 2Int(dB)                   Num   0%  10%  90%     0 /  0%     7 /  0%   772 
  22 2Pitch(Hz)                 Num   0%  51%  49%     0 /  0%   816 /  4%  3063 
  23 2RawPitch                  Num   0%  54%  46%     0 /  0%   853 /  5%  2955 
  24 2SmPitch                   Num   0%  52%  48%     0 /  0%   827 /  5%  3024 
  25 2Melogram(st)              Num   0%  47%  53%     0 /  0%   581 /  3%  2807 
  26 2ZCross                    Num   0% 100%   0%     0 /  0%    10 /  0%    42 
  27 2F1(Hz)                    Num   0%  51%  49%     0 /  0%  2131 / 12%  4724 
  28 2F2(Hz)                    Num   0%  51%  49%     0 /  0%  4210 / 23%  6615 
  29 2F3(Hz)                    Num   0%  51%  49%     0 /  0%  3688 / 20%  6145 
  30 2F4(Hz)                    Num   0%  51%  49%     0 /  0%  3689 / 20%  6054 
  31 3Int(dB)                   Num   0%  10%  90%     0 /  0%     7 /  0%   772 
  32 3Pitch(Hz)                 Num   0%  51%  49%     0 /  0%   816 /  4%  3063 
  33 3RawPitch                  Num   0%  54%  46%     0 /  0%   853 /  5%  2955 
  34 3SmPitch                   Num   0%  52%  48%     0 /  0%   827 /  5%  3024 
  35 3Melogram(st)              Num   0%  47%  53%     0 /  0%   581 /  3%  2807 
  36 3ZCross                    Num   0% 100%   0%     0 /  0%    10 /  0%    42 
  37 3F1(Hz)                    Num   0%  51%  49%     0 /  0%  2131 / 12%  4724 
  38 3F2(Hz)                    Num   0%  51%  49%     0 /  0%  4210 / 23%  6615 
  39 3F3(Hz)                    Num   0%  51%  49%     0 /  0%  3688 / 20%  6145 
  40 3F4(Hz)                    Num   0%  51%  49%     0 /  0%  3689 / 20%  6054 
  41 4Int(dB)                   Num   0%  10%  90%     0 /  0%     7 /  0%   772 
  42 4Pitch(Hz)                 Num   0%  51%  49%     0 /  0%   817 /  4%  3064 
  43 4RawPitch                  Num   0%  54%  46%     0 /  0%   854 /  5%  2956 
  44 4SmPitch                   Num   0%  52%  48%     0 /  0%   828 /  5%  3025 
  45 4Melogram(st)              Num   0%  47%  53%     0 /  0%   582 /  3%  2808 
  46 4ZCross                    Num   0% 100%   0%     0 /  0%    10 /  0%    42 
  47 4F1(Hz)                    Num   0%  51%  49%     0 /  0%  2131 / 12%  4724 
  48 4F2(Hz)                    Num   0%  51%  49%     0 /  0%  4210 / 23%  6615 
  49 4F3(Hz)                    Num   0%  51%  49%     0 /  0%  3688 / 20%  6145 
  50 4F4(Hz)                    Num   0%  51%  49%     0 /  0%  3689 / 20%  6054 
  51 class                      Nom 100%   0%   0%     0 /  0%     0 /  0%    27 


Options: -D -Q weka.classifiers.bayes.net.search.local.K2 -- -P 1 -S BAYES -E weka.classifiers.bayes.net.estimate.SimpleEstimator -- -A 0.5 

Bayes Network Classifier
not using ADTree
#attributes=51 #classindex=50
Network structure (nodes followed by parents)
0Int(dB)(9): class 
0Pitch(Hz)(6): class 
0RawPitch(4): class 
0SmPitch(6): class 
0Melogram(st)(8): class 
0ZCross(5): class 
0F1(Hz)(8): class 
0F2(Hz)(13): class 
0F3(Hz)(7): class 
0F4(Hz)(10): class 
1Int(dB)(10): class 
1Pitch(Hz)(7): class 
1RawPitch(4): class 
1SmPitch(6): class 
1Melogram(st)(7): class 
1ZCross(9): class 
1F1(Hz)(10): class 
1F2(Hz)(10): class 
1F3(Hz)(7): class 
1F4(Hz)(9): class 
2Int(dB)(10): class 
2Pitch(Hz)(6): class 
2RawPitch(4): class 
2SmPitch(6): class 
2Melogram(st)(8): class 
2ZCross(10): class 
2F1(Hz)(11): class 
2F2(Hz)(9): class 
2F3(Hz)(6): class 
2F4(Hz)(10): class 
3Int(dB)(11): class 
3Pitch(Hz)(5): class 
3RawPitch(4): class 
3SmPitch(5): class 
3Melogram(st)(8): class 
3ZCross(10): class 
3F1(Hz)(11): class 
3F2(Hz)(9): class 
3F3(Hz)(10): class 
3F4(Hz)(9): class 
4Int(dB)(9): class 
4Pitch(Hz)(5): class 
4RawPitch(4): class 
4SmPitch(4): class 
4Melogram(st)(8): class 
4ZCross(10): class 
4F1(Hz)(15): class 
4F2(Hz)(10): class 
4F3(Hz)(8): class 
4F4(Hz)(7): class 
class(27): 
LogScore Bayes: -1028676.3394826447
LogScore BDeu: -1078945.3758364536
LogScore MDL: -1072845.9550100937
LogScore ENTROPY: -1026743.6608593495
LogScore AIC: -1036138.6608593495




=== Stratified cross-validation ===

Correctly Classified Instances        9198               50.2843 %
Incorrectly Classified Instances      9094               49.7157 %
Kappa statistic                          0.4048
K&B Relative Info Score             675068.1796 %
K&B Information Score                22635.0012 bits      1.2374 bits/instance
Class complexity | order 0           61253.1173 bits      3.3486 bits/instance
Class complexity | scheme           298383.2246 bits     16.3122 bits/instance
Complexity improvement     (Sf)    -237130.1073 bits    -12.9636 bits/instance
Mean absolute error                      0.0369
Root mean squared error                  0.1792
Relative absolute error                 60.676  %
Root relative squared error            102.8064 %
Coverage of cases (0.95 level)          56.932  %
Mean rel. region size (0.95 level)       5.5983 %
Total Number of Instances            18292     


=== Detailed Accuracy By Class ===

                 TP Rate  FP Rate  Precision  Recall   F-Measure  MCC      ROC Area  PRC Area  Class
                 0,102    0,003    0,136      0,102    0,117      0,114    0,905     0,063     ch
                 0,143    0,008    0,019      0,143    0,034      0,049    0,924     0,015     rr
                 0,880    0,069    0,883      0,880    0,882      0,812    0,957     0,950     0
                 0,165    0,021    0,081      0,165    0,109      0,101    0,826     0,068     hs
                 0,900    0,064    0,037      0,900    0,071      0,175    0,972     0,173     hg
                 0,531    0,040    0,694      0,531    0,601      0,550    0,905     0,701     a
                 0,313    0,041    0,106      0,313    0,159      0,161    0,859     0,105     c
                 0,218    0,017    0,080      0,218    0,117      0,123    0,916     0,061     b
                 0,179    0,012    0,550      0,179    0,270      0,284    0,854     0,372     e
                 0,244    0,030    0,108      0,244    0,149      0,144    0,869     0,084     d
                 0,299    0,042    0,040      0,299    0,071      0,096    0,848     0,034     g
                 0,160    0,008    0,119      0,160    0,137      0,132    0,885     0,059     f
                 0,385    0,018    0,475      0,385    0,425      0,406    0,901     0,390     i
                 0,267    0,001    0,574      0,267    0,365      0,390    0,909     0,264     j
                 0,096    0,004    0,243      0,096    0,137      0,145    0,859     0,134     m
                 0,376    0,056    0,108      0,376    0,168      0,176    0,860     0,120     l
                 0,134    0,009    0,561      0,134    0,217      0,249    0,820     0,348     o
                 0,120    0,014    0,245      0,120    0,161      0,150    0,850     0,159     n
                 0,049    0,004    0,048      0,049    0,048      0,044    0,835     0,029     q
                 0,039    0,004    0,098      0,039    0,056      0,055    0,853     0,058     p
                 0,188    0,012    0,444      0,188    0,264      0,266    0,879     0,320     s
                 0,075    0,007    0,212      0,075    0,111      0,113    0,800     0,107     r
                 0,418    0,009    0,532      0,418    0,468      0,461    0,907     0,483     u
                 0,137    0,013    0,172      0,137    0,153      0,139    0,853     0,127     t
                 0,070    0,014    0,039      0,070    0,050      0,042    0,826     0,045     v
                 0,411    0,013    0,139      0,411    0,208      0,233    0,898     0,195     y
                 0,125    0,002    0,026      0,125    0,043      0,056    0,966     0,021     z
Weighted Avg.    0,503    0,039    0,603      0,503    0,524      0,493    0,902     0,578     


=== Confusion Matrix ===

    a    b    c    d    e    f    g    h    i    j    k    l    m    n    o    p    q    r    s    t    u    v    w    x    y    z   aa   <-- classified as
    9    1   16    1    0    3   24    0    1    0    0    6    2    0    0    6    0    5    0    0    8    1    0    3    0    2    0 |    a = ch
    0    3    0    0    4    4    0    0    1    1    0    0    0    0    0    5    0    2    0    0    0    0    1    0    0    0    0 |    b = rr
    9    8 5980   74   76   41   70    9   13   36   26   36   47    2    3   59   11   22    9   15   78    8    8   68   30   39   17 |    c = 0
    0    4   17   34   37    6   13    6    4    8    5    4    3    1    4   21    3    3    1    4   13    1    0    3    5    5    1 |    d = hs
    0    0    0    0   45    1    0    0    0    1    0    0    0    0    0    0    0    0    0    0    0    1    0    0    2    0    0 |    e = hg
    4   30   61   27  106 1424  104   17   66  174  121    9   24    2    2  180   77   29   18    8   17   61   18   16   65   19    5 |    f = a
    2    0  107   18    4    0   87    0    5    1    2    8    1    0    0    4    2    4    2    2   11    1    1   15    1    0    0 |    g = c
    0    0    0    0   21   16    0   26    6    3   13    0    2    0    5   23    0    1    0    0    0    0    2    0    0    1    0 |    h = b
    6    8   46   26  289  110   49   49  257   55  164    5   77    2    7  139   13   25   16   10    6    5   20   19   22   12    1 |    i = e
    0   13    0    6   34   21    0   11    2   65   28    0    0    0    3   30    0   16    0    0    0    2    3    1   10   21    0 |    j = d
    0    4    1    0   19    9    1    3    3    3   32    0    9    0    0    4    0    6    0    0    4    7    0    2    0    0    0 |    k = g
    0    3   13    9    9    8   18    0    4    1    4   19    0    2    0    6    1    4    0    5    6    2    0    4    0    0    1 |    l = f
    4    1   22   10  126    5   34   32   21    3   62    0  288    0   18   38    0   12   22    3    6    0    4   19    2   16    0 |    m = i
    0    0    6    7    9    6    6    1    7    0    6    5    0   27    0    5    0    2    0    3    6    2    0    0    3    0    0 |    n = j
    0    0    5    1   43   18    3   19    1   11   29    0   29    0   26   53    2   15    0    2    0    2    2    1    1    9    0 |    o = m
    0   11    1    2   38   16    4   19    1   13   21    0   14    0   11  123    3    8    0    0    3    3    3    4    7   22    0 |    p = l
    4   11  114   55  141  199   62   54   34  110   63    3   19    1   14  117  185   31    5    5    7    8   74   11   28   18    4 |    q = o
    0   34    2   27  101   47    2   24    3   27   83    2   29    0    3  126    2   78    0    0    6    3    4   11   16   19    1 |    r = n
    0    0   27    0    0    4   16    0    0    0    2    0   12    0    0    1    0    4    4    0    7    0    0    2    0    2    0 |    s = q
    1    2   33   19   10    9   44    3    7    5    1   16    1    8    0    9    2    3    1    8    2    0    1   11    2    3    2 |    t = p
   23    8  175   52   25   18  152    1    2   19   49   28   35    1    1   46    0   23    2    9  170    8    2   20   10   24    2 |    u = s
    0    2   14   29   20   56   20   18   15   29   49    6    9    1    2   66    5    2    0    4    7   33    2   11   31    7    2 |    v = r
    1    6    8    2   18   25   28   33    7   13   14    0    1    0    4   36   19    6    2    2    3    2  177    5    4    7    0 |    w = u
    3    3  112   15    5    1   73    0    0    3    8    9    2    0    0    1    2   17    0    2   17    3    7   48    7   11    1 |    x = t
    0    4    3    5   35    5    5    0    7   18   13    0    0    0    2   21    3    0    1    0    0    3    2    1   10    4    0 |    y = v
    0    1    4    0    4    0    3    1    0    5    0    3    2    0    2   15    0    1    1    0    5    0    2    4    3   39    0 |    z = y
    0    0    5    0    0    0    1    0    0    0    0    0    0    0    0    0    0    0    0    0    1    0    0    0    0    0    1 |   aa = z

=== Percent Confusion Matrix ===
a	b	c	d	e	f	g	h	i	j	k	l	m	n	o	p	q	r	s	t	u	v	w	x	y	z	aa	
10.23	1.14	18.18	1.14	0.0	3.41	27.27	0.0	1.14	0.0	0.0	6.82	2.27	0.0	0.0	6.82	0.0	5.68	0.0	0.0	9.09	1.14	0.0	3.41	0.0	2.27	0.0	 a = ch
0.0	14.29	0.0	0.0	19.05	19.05	0.0	0.0	4.76	4.76	0.0	0.0	0.0	0.0	0.0	23.81	0.0	9.52	0.0	0.0	0.0	0.0	4.76	0.0	0.0	0.0	0.0	 b = rr
0.13	0.12	88.02	1.09	1.12	0.6	1.03	0.13	0.19	0.53	0.38	0.53	0.69	0.03	0.04	0.87	0.16	0.32	0.13	0.22	1.15	0.12	0.12	1.0	0.44	0.57	0.25	 c = 0
0.0	1.94	8.25	16.5	17.96	2.91	6.31	2.91	1.94	3.88	2.43	1.94	1.46	0.49	1.94	10.19	1.46	1.46	0.49	1.94	6.31	0.49	0.0	1.46	2.43	2.43	0.49	 d = hs
0.0	0.0	0.0	0.0	90.0	2.0	0.0	0.0	0.0	2.0	0.0	0.0	0.0	0.0	0.0	0.0	0.0	0.0	0.0	0.0	0.0	2.0	0.0	0.0	4.0	0.0	0.0	 e = hg
0.15	1.12	2.27	1.01	3.95	53.06	3.87	0.63	2.46	6.48	4.51	0.34	0.89	0.07	0.07	6.71	2.87	1.08	0.67	0.3	0.63	2.27	0.67	0.6	2.42	0.71	0.19	 f = a
0.72	0.0	38.49	6.47	1.44	0.0	31.29	0.0	1.8	0.36	0.72	2.88	0.36	0.0	0.0	1.44	0.72	1.44	0.72	0.72	3.96	0.36	0.36	5.4	0.36	0.0	0.0	 g = c
0.0	0.0	0.0	0.0	17.65	13.45	0.0	21.85	5.04	2.52	10.92	0.0	1.68	0.0	4.2	19.33	0.0	0.84	0.0	0.0	0.0	0.0	1.68	0.0	0.0	0.84	0.0	 h = b
0.42	0.56	3.2	1.81	20.1	7.65	3.41	3.41	17.87	3.82	11.4	0.35	5.35	0.14	0.49	9.67	0.9	1.74	1.11	0.7	0.42	0.35	1.39	1.32	1.53	0.83	0.07	 i = e
0.0	4.89	0.0	2.26	12.78	7.89	0.0	4.14	0.75	24.44	10.53	0.0	0.0	0.0	1.13	11.28	0.0	6.02	0.0	0.0	0.0	0.75	1.13	0.38	3.76	7.89	0.0	 j = d
0.0	3.74	0.93	0.0	17.76	8.41	0.93	2.8	2.8	2.8	29.91	0.0	8.41	0.0	0.0	3.74	0.0	5.61	0.0	0.0	3.74	6.54	0.0	1.87	0.0	0.0	0.0	 k = g
0.0	2.52	10.92	7.56	7.56	6.72	15.13	0.0	3.36	0.84	3.36	15.97	0.0	1.68	0.0	5.04	0.84	3.36	0.0	4.2	5.04	1.68	0.0	3.36	0.0	0.0	0.84	 l = f
0.53	0.13	2.94	1.34	16.84	0.67	4.55	4.28	2.81	0.4	8.29	0.0	38.5	0.0	2.41	5.08	0.0	1.6	2.94	0.4	0.8	0.0	0.53	2.54	0.27	2.14	0.0	 m = i
0.0	0.0	5.94	6.93	8.91	5.94	5.94	0.99	6.93	0.0	5.94	4.95	0.0	26.73	0.0	4.95	0.0	1.98	0.0	2.97	5.94	1.98	0.0	0.0	2.97	0.0	0.0	 n = j
0.0	0.0	1.84	0.37	15.81	6.62	1.1	6.99	0.37	4.04	10.66	0.0	10.66	0.0	9.56	19.49	0.74	5.51	0.0	0.74	0.0	0.74	0.74	0.37	0.37	3.31	0.0	 o = m
0.0	3.36	0.31	0.61	11.62	4.89	1.22	5.81	0.31	3.98	6.42	0.0	4.28	0.0	3.36	37.61	0.92	2.45	0.0	0.0	0.92	0.92	0.92	1.22	2.14	6.73	0.0	 p = l
0.29	0.8	8.28	3.99	10.24	14.45	4.5	3.92	2.47	7.99	4.58	0.22	1.38	0.07	1.02	8.5	13.44	2.25	0.36	0.36	0.51	0.58	5.37	0.8	2.03	1.31	0.29	 q = o
0.0	5.23	0.31	4.15	15.54	7.23	0.31	3.69	0.46	4.15	12.77	0.31	4.46	0.0	0.46	19.38	0.31	12.0	0.0	0.0	0.92	0.46	0.62	1.69	2.46	2.92	0.15	 r = n
0.0	0.0	33.33	0.0	0.0	4.94	19.75	0.0	0.0	0.0	2.47	0.0	14.81	0.0	0.0	1.23	0.0	4.94	4.94	0.0	8.64	0.0	0.0	2.47	0.0	2.47	0.0	 s = q
0.49	0.99	16.26	9.36	4.93	4.43	21.67	1.48	3.45	2.46	0.49	7.88	0.49	3.94	0.0	4.43	0.99	1.48	0.49	3.94	0.99	0.0	0.49	5.42	0.99	1.48	0.99	 t = p
2.54	0.88	19.34	5.75	2.76	1.99	16.8	0.11	0.22	2.1	5.41	3.09	3.87	0.11	0.11	5.08	0.0	2.54	0.22	0.99	18.78	0.88	0.22	2.21	1.1	2.65	0.22	 u = s
0.0	0.45	3.18	6.59	4.55	12.73	4.55	4.09	3.41	6.59	11.14	1.36	2.05	0.23	0.45	15.0	1.14	0.45	0.0	0.91	1.59	7.5	0.45	2.5	7.05	1.59	0.45	 v = r
0.24	1.42	1.89	0.47	4.26	5.91	6.62	7.8	1.65	3.07	3.31	0.0	0.24	0.0	0.95	8.51	4.49	1.42	0.47	0.47	0.71	0.47	41.84	1.18	0.95	1.65	0.0	 w = u
0.86	0.86	32.0	4.29	1.43	0.29	20.86	0.0	0.0	0.86	2.29	2.57	0.57	0.0	0.0	0.29	0.57	4.86	0.0	0.57	4.86	0.86	2.0	13.71	2.0	3.14	0.29	 x = t
0.0	2.82	2.11	3.52	24.65	3.52	3.52	0.0	4.93	12.68	9.15	0.0	0.0	0.0	1.41	14.79	2.11	0.0	0.7	0.0	0.0	2.11	1.41	0.7	7.04	2.82	0.0	 y = v
0.0	1.05	4.21	0.0	4.21	0.0	3.16	1.05	0.0	5.26	0.0	3.16	2.11	0.0	2.11	15.79	0.0	1.05	1.05	0.0	5.26	0.0	2.11	4.21	3.16	41.05	0.0	 z = y
0.0	0.0	62.5	0.0	0.0	0.0	12.5	0.0	0.0	0.0	0.0	0.0	0.0	0.0	0.0	0.0	0.0	0.0	0.0	0.0	12.5	0.0	0.0	0.0	0.0	0.0	12.5	 aa = z
