Timestamp:2013-07-22-20:08:27
Inventario:I0
Intervalo:1ms
Ngramas:1
Clasificador:RandomForest
Relation Name:  I0-1ms-1gramas
Num Instances:  183404
Num Attributes: 11

     Name                      Type  Nom  Int Real     Missing      Unique  Dist
   1 0Int(dB)                   Num   0%   9%  91%     0 /  0%     3 /  0%   781 
   2 0Pitch(Hz)                 Num   0%  51%  49%     0 /  0%   256 /  0%  4213 
   3 0RawPitch                  Num   0%  55%  45%     0 /  0%   417 /  0%  4119 
   4 0SmPitch                   Num   0%  53%  47%     0 /  0%   263 /  0%  4193 
   5 0Melogram(st)              Num   0%  49%  51%     0 /  0%   133 /  0%  3454 
   6 0ZCross                    Num   0% 100%   0%     0 /  0%     4 /  0%    58 
   7 0F1(Hz)                    Num   0%  52%  48%     0 /  0%  1154 /  1%  4824 
   8 0F2(Hz)                    Num   0%  52%  48%     0 /  0%  2223 /  1%  6697 
   9 0F3(Hz)                    Num   0%  53%  47%     0 /  0%  1930 /  1%  6200 
  10 0F4(Hz)                    Num   0%  52%  48%     0 /  0%  1933 /  1%  6096 
  11 class                      Nom 100%   0%   0%     0 /  0%     0 /  0%    27 


Options: -I 10 -K 0 -S 1 -num-slots 4 

Random forest of 10 trees, each constructed while considering 4 random features.
Out of bag error: 0.1144





=== Stratified cross-validation ===

Correctly Classified Instances      165685               90.3388 %
Incorrectly Classified Instances     17719                9.6612 %
Kappa statistic                          0.8776
K&B Relative Info Score            15634085.6702 %
K&B Information Score               513397.8608 bits      2.7993 bits/instance
Class complexity | order 0          602182.7755 bits      3.2834 bits/instance
Class complexity | scheme          2705082.144  bits     14.7493 bits/instance
Complexity improvement     (Sf)    -2102899.3685 bits    -11.4659 bits/instance
Mean absolute error                      0.0112
Root mean squared error                  0.0729
Relative absolute error                 18.8186 %
Root relative squared error             42.1797 %
Coverage of cases (0.95 level)          97.7209 %
Mean rel. region size (0.95 level)       8.8001 %
Total Number of Instances           183404     


=== Detailed Accuracy By Class ===

                 TP Rate  FP Rate  Precision  Recall   F-Measure  MCC      ROC Area  PRC Area  Class
                 0,374    0,001    0,660      0,374    0,477      0,495    0,862     0,413     ch
                 0,968    0,000    0,991      0,968    0,979      0,979    0,998     0,992     rr
                 0,980    0,090    0,876      0,980    0,925      0,876    0,991     0,985     0
                 0,629    0,000    0,977      0,629    0,765      0,782    0,956     0,705     hs
                 0,961    0,000    0,992      0,961    0,976      0,976    0,997     0,988     hg
                 0,958    0,004    0,973      0,958    0,966      0,960    0,993     0,983     a
                 0,347    0,002    0,702      0,347    0,464      0,488    0,919     0,433     c
                 0,968    0,000    0,972      0,968    0,970      0,970    0,998     0,986     b
                 0,941    0,003    0,967      0,941    0,954      0,950    0,992     0,971     e
                 0,956    0,000    0,968      0,956    0,962      0,962    0,995     0,980     d
                 0,904    0,000    0,971      0,904    0,936      0,937    0,980     0,931     g
                 0,419    0,000    0,947      0,419    0,581      0,629    0,963     0,546     f
                 0,924    0,001    0,967      0,924    0,945      0,943    0,987     0,956     i
                 0,706    0,000    0,923      0,706    0,800      0,806    0,941     0,764     j
                 0,957    0,000    0,977      0,957    0,967      0,967    0,991     0,974     m
                 0,955    0,001    0,970      0,955    0,962      0,962    0,994     0,979     l
                 0,871    0,002    0,976      0,871    0,921      0,917    0,985     0,935     o
                 0,933    0,001    0,974      0,933    0,953      0,952    0,992     0,965     n
                 0,446    0,001    0,796      0,446    0,572      0,595    0,850     0,478     q
                 0,460    0,001    0,910      0,460    0,611      0,645    0,947     0,579     p
                 0,743    0,024    0,613      0,743    0,672      0,657    0,976     0,772     s
                 0,828    0,001    0,963      0,828    0,891      0,891    0,981     0,895     r
                 0,960    0,000    0,979      0,960    0,970      0,969    0,992     0,980     u
                 0,358    0,002    0,783      0,358    0,491      0,524    0,933     0,486     t
                 0,951    0,000    0,983      0,951    0,967      0,967    0,991     0,975     v
                 0,830    0,000    0,966      0,830    0,893      0,895    0,955     0,878     y
                 0,000    0,000    0,000      0,000    0,000      0,000    0,759     0,007     z
Weighted Avg.    0,903    0,038    0,906      0,903    0,898      0,878    0,985     0,931     


=== Confusion Matrix ===

     a     b     c     d     e     f     g     h     i     j     k     l     m     n     o     p     q     r     s     t     u     v     w     x     y     z    aa   <-- classified as
   319     0   140     0     0     8    20     0     2     0     0     0     0     2     0     0     3     1     7     2   339     0     0     9     0     2     0 |     a = ch
     0   210     0     0     0     2     0     0     4     0     0     0     0     0     0     0     0     1     0     0     0     0     0     0     0     0     0 |     b = rr
     6     0 70660    12     1   125    47     6    88    20     9     4    48     7     8    13    40    27     4    12   883    24    16    51     4     2     0 |     c = 0
     0     0   620  1226     0     9     1     0     6     0     0     0     0     0     0     2     1     0     0     0    81     3     0     1     0     0     0 |     d = hs
     0     0     5     0   473     6     0     0     4     0     0     0     3     0     0     0     0     1     0     0     0     0     0     0     0     0     0 |     e = hg
     5     2   594     5     1 25029    41     5    20    11     4     2    17     4     9    24    30    27     5     7   205    29     7    26     3     3     0 |     f = a
    23     0  1042     1     0    39   941     0    18     0     0     3     3    11     2     0    17     0    29    11   497     5    12    61     0     0     0 |     g = c
     0     0     4     0     0     9     0  1158     4     0     0     0    11     0     1     0     2     1     0     0     0     3     2     1     0     0     0 |     h = b
     3     0   478     5     0    34    24     5 12930     9     4     1    10     2     9     9    16    28     4    11    97    25     8    22     4     2     0 |     i = e
     0     0    19     1     0    22     0     0    17  2503     0     0     1     0     0     0    24    13     0     0    15     1     1     0     0     0     0 |     j = d
     0     0    60     0     0    10     0     0     8     0   979     0     6     0     0     0     2     0     0     0    16     1     1     0     0     0     0 |     k = g
     0     0   240     0     0     5     9     0     5     0     0   486     1     2     0     0     2     1     0     0   396     2     1    10     0     0     0 |     l = f
     0     0   338     0     0    24     7     9    26     1     3     0  6544     1     1    14     4     3     2     3    74     5     6    12     6     0     0 |     m = i
     1     0    82     0     0     4    18     0     2     0     0     1     2   691     0     0     0     0     2     2   168     0     2     4     0     0     0 |     n = j
     0     0    40     0     0     6     1     2    14     1     0     0    13     0  2501     1    11     2     0     1    10     1     7     2     0     0     0 |     o = m
     1     0    36     0     0    50     2     0    20     1     0     0     8     0     2  3066    10     3     0     0     5     3     1     2     0     0     0 |     p = l
     4     0  1343     1     1    52    16     1    27    20     2     2    13     0    11    12 11526    20     0     6   148     9     3    14     3     0     0 |     q = o
     4     0   222     0     0    41     0     0    45    10     1     0     8     0     1     3    14  5887     0     0    58     1     3     9     1     0     0 |     r = n
     5     0   217     0     0     8    46     0    15     0     0     0     0     2     0     1     1     0   375     2   156     1     3     7     0     1     0 |     s = q
     1     0   757     0     0    24    16     0    13     1     0     1     7     3     0     4    13     0     2   923   216     5     0    17     0     2     0 |     t = p
   101     0  1841     0     0    44    75     0    15     0     2     6    20    14     2     2    16     0    29    11  6559     2     3    73     1    10     0 |     u = s
     0     0   385     0     0    86     7     2    40     4     1     1    13     1     0     3    23     5     2     8   121  3436     2     7     0     1     0 |     v = r
     0     0    50     2     1    11    10     2     9     3     2     0     7     3     9     5     9     7     3     1    18     3  3973     6     1     2     0 |     w = u
    10     0  1409     2     0    63    55     1    28     0     1     6    19     4     4     2    30    18     7    13   509     3     5  1219     0     1     0 |     x = t
     0     0    19     0     0    12     1     0    12     2     0     0     9     0     0     0     8     0     0     0     6     0     0     0  1332     0     0 |     y = v
     0     0    28     0     0     2     3     0     4     0     0     0     2     2     0     1     4     0     0     1    95     5     2     2     0   739     0 |     z = y
     0     0    33     0     0     0     0     0     0     0     0     0     0     0     0     0     0     0     0     0    30     0     0     2     0     0     0 |    aa = z

=== Percent Confusion Matrix ===
a	b	c	d	e	f	g	h	i	j	k	l	m	n	o	p	q	r	s	t	u	v	w	x	y	z	aa	
37.35	0.0	16.39	0.0	0.0	0.94	2.34	0.0	0.23	0.0	0.0	0.0	0.0	0.23	0.0	0.0	0.35	0.12	0.82	0.23	39.7	0.0	0.0	1.05	0.0	0.23	0.0	 a = ch
0.0	96.77	0.0	0.0	0.0	0.92	0.0	0.0	1.84	0.0	0.0	0.0	0.0	0.0	0.0	0.0	0.0	0.46	0.0	0.0	0.0	0.0	0.0	0.0	0.0	0.0	0.0	 b = rr
0.01	0.0	97.98	0.02	0.0	0.17	0.07	0.01	0.12	0.03	0.01	0.01	0.07	0.01	0.01	0.02	0.06	0.04	0.01	0.02	1.22	0.03	0.02	0.07	0.01	0.0	0.0	 c = 0
0.0	0.0	31.79	62.87	0.0	0.46	0.05	0.0	0.31	0.0	0.0	0.0	0.0	0.0	0.0	0.1	0.05	0.0	0.0	0.0	4.15	0.15	0.0	0.05	0.0	0.0	0.0	 d = hs
0.0	0.0	1.02	0.0	96.14	1.22	0.0	0.0	0.81	0.0	0.0	0.0	0.61	0.0	0.0	0.0	0.0	0.2	0.0	0.0	0.0	0.0	0.0	0.0	0.0	0.0	0.0	 e = hg
0.02	0.01	2.27	0.02	0.0	95.84	0.16	0.02	0.08	0.04	0.02	0.01	0.07	0.02	0.03	0.09	0.11	0.1	0.02	0.03	0.78	0.11	0.03	0.1	0.01	0.01	0.0	 f = a
0.85	0.0	38.38	0.04	0.0	1.44	34.66	0.0	0.66	0.0	0.0	0.11	0.11	0.41	0.07	0.0	0.63	0.0	1.07	0.41	18.31	0.18	0.44	2.25	0.0	0.0	0.0	 g = c
0.0	0.0	0.33	0.0	0.0	0.75	0.0	96.82	0.33	0.0	0.0	0.0	0.92	0.0	0.08	0.0	0.17	0.08	0.0	0.0	0.0	0.25	0.17	0.08	0.0	0.0	0.0	 h = b
0.02	0.0	3.48	0.04	0.0	0.25	0.17	0.04	94.1	0.07	0.03	0.01	0.07	0.01	0.07	0.07	0.12	0.2	0.03	0.08	0.71	0.18	0.06	0.16	0.03	0.01	0.0	 i = e
0.0	0.0	0.73	0.04	0.0	0.84	0.0	0.0	0.65	95.64	0.0	0.0	0.04	0.0	0.0	0.0	0.92	0.5	0.0	0.0	0.57	0.04	0.04	0.0	0.0	0.0	0.0	 j = d
0.0	0.0	5.54	0.0	0.0	0.92	0.0	0.0	0.74	0.0	90.4	0.0	0.55	0.0	0.0	0.0	0.18	0.0	0.0	0.0	1.48	0.09	0.09	0.0	0.0	0.0	0.0	 k = g
0.0	0.0	20.69	0.0	0.0	0.43	0.78	0.0	0.43	0.0	0.0	41.9	0.09	0.17	0.0	0.0	0.17	0.09	0.0	0.0	34.14	0.17	0.09	0.86	0.0	0.0	0.0	 l = f
0.0	0.0	4.77	0.0	0.0	0.34	0.1	0.13	0.37	0.01	0.04	0.0	92.39	0.01	0.01	0.2	0.06	0.04	0.03	0.04	1.04	0.07	0.08	0.17	0.08	0.0	0.0	 m = i
0.1	0.0	8.38	0.0	0.0	0.41	1.84	0.0	0.2	0.0	0.0	0.1	0.2	70.58	0.0	0.0	0.0	0.0	0.2	0.2	17.16	0.0	0.2	0.41	0.0	0.0	0.0	 n = j
0.0	0.0	1.53	0.0	0.0	0.23	0.04	0.08	0.54	0.04	0.0	0.0	0.5	0.0	95.71	0.04	0.42	0.08	0.0	0.04	0.38	0.04	0.27	0.08	0.0	0.0	0.0	 o = m
0.03	0.0	1.12	0.0	0.0	1.56	0.06	0.0	0.62	0.03	0.0	0.0	0.25	0.0	0.06	95.51	0.31	0.09	0.0	0.0	0.16	0.09	0.03	0.06	0.0	0.0	0.0	 p = l
0.03	0.0	10.15	0.01	0.01	0.39	0.12	0.01	0.2	0.15	0.02	0.02	0.1	0.0	0.08	0.09	87.09	0.15	0.0	0.05	1.12	0.07	0.02	0.11	0.02	0.0	0.0	 q = o
0.06	0.0	3.52	0.0	0.0	0.65	0.0	0.0	0.71	0.16	0.02	0.0	0.13	0.0	0.02	0.05	0.22	93.33	0.0	0.0	0.92	0.02	0.05	0.14	0.02	0.0	0.0	 r = n
0.6	0.0	25.83	0.0	0.0	0.95	5.48	0.0	1.79	0.0	0.0	0.0	0.0	0.24	0.0	0.12	0.12	0.0	44.64	0.24	18.57	0.12	0.36	0.83	0.0	0.12	0.0	 s = q
0.05	0.0	37.76	0.0	0.0	1.2	0.8	0.0	0.65	0.05	0.0	0.05	0.35	0.15	0.0	0.2	0.65	0.0	0.1	46.03	10.77	0.25	0.0	0.85	0.0	0.1	0.0	 t = p
1.14	0.0	20.86	0.0	0.0	0.5	0.85	0.0	0.17	0.0	0.02	0.07	0.23	0.16	0.02	0.02	0.18	0.0	0.33	0.12	74.31	0.02	0.03	0.83	0.01	0.11	0.0	 u = s
0.0	0.0	9.28	0.0	0.0	2.07	0.17	0.05	0.96	0.1	0.02	0.02	0.31	0.02	0.0	0.07	0.55	0.12	0.05	0.19	2.92	82.84	0.05	0.17	0.0	0.02	0.0	 v = r
0.0	0.0	1.21	0.05	0.02	0.27	0.24	0.05	0.22	0.07	0.05	0.0	0.17	0.07	0.22	0.12	0.22	0.17	0.07	0.02	0.44	0.07	96.04	0.15	0.02	0.05	0.0	 w = u
0.29	0.0	41.33	0.06	0.0	1.85	1.61	0.03	0.82	0.0	0.03	0.18	0.56	0.12	0.12	0.06	0.88	0.53	0.21	0.38	14.93	0.09	0.15	35.76	0.0	0.03	0.0	 x = t
0.0	0.0	1.36	0.0	0.0	0.86	0.07	0.0	0.86	0.14	0.0	0.0	0.64	0.0	0.0	0.0	0.57	0.0	0.0	0.0	0.43	0.0	0.0	0.0	95.07	0.0	0.0	 y = v
0.0	0.0	3.15	0.0	0.0	0.22	0.34	0.0	0.45	0.0	0.0	0.0	0.22	0.22	0.0	0.11	0.45	0.0	0.0	0.11	10.67	0.56	0.22	0.22	0.0	83.03	0.0	 z = y
0.0	0.0	50.77	0.0	0.0	0.0	0.0	0.0	0.0	0.0	0.0	0.0	0.0	0.0	0.0	0.0	0.0	0.0	0.0	0.0	46.15	0.0	0.0	3.08	0.0	0.0	0.0	 aa = z
