Timestamp:2013-07-22-20:43:44
Inventario:I0
Intervalo:10ms
Ngramas:3
Clasificador:RandomForest
Relation Name:  I0-10ms-3gramas
Num Instances:  18294
Num Attributes: 31

     Name                      Type  Nom  Int Real     Missing      Unique  Dist
   1 0Int(dB)                   Num   0%  10%  90%     0 /  0%     7 /  0%   772 
   2 0Pitch(Hz)                 Num   0%  51%  49%     0 /  0%   816 /  4%  3063 
   3 0RawPitch                  Num   0%  54%  46%     0 /  0%   853 /  5%  2955 
   4 0SmPitch                   Num   0%  52%  48%     0 /  0%   827 /  5%  3024 
   5 0Melogram(st)              Num   0%  47%  53%     0 /  0%   581 /  3%  2807 
   6 0ZCross                    Num   0% 100%   0%     0 /  0%    10 /  0%    42 
   7 0F1(Hz)                    Num   0%  51%  49%     0 /  0%  2131 / 12%  4724 
   8 0F2(Hz)                    Num   0%  51%  49%     0 /  0%  4210 / 23%  6615 
   9 0F3(Hz)                    Num   0%  51%  49%     0 /  0%  3688 / 20%  6145 
  10 0F4(Hz)                    Num   0%  51%  49%     0 /  0%  3689 / 20%  6054 
  11 1Int(dB)                   Num   0%  10%  90%     0 /  0%     7 /  0%   772 
  12 1Pitch(Hz)                 Num   0%  51%  49%     0 /  0%   816 /  4%  3063 
  13 1RawPitch                  Num   0%  54%  46%     0 /  0%   853 /  5%  2955 
  14 1SmPitch                   Num   0%  52%  48%     0 /  0%   827 /  5%  3024 
  15 1Melogram(st)              Num   0%  47%  53%     0 /  0%   581 /  3%  2807 
  16 1ZCross                    Num   0% 100%   0%     0 /  0%    10 /  0%    42 
  17 1F1(Hz)                    Num   0%  51%  49%     0 /  0%  2131 / 12%  4724 
  18 1F2(Hz)                    Num   0%  51%  49%     0 /  0%  4210 / 23%  6615 
  19 1F3(Hz)                    Num   0%  51%  49%     0 /  0%  3688 / 20%  6145 
  20 1F4(Hz)                    Num   0%  51%  49%     0 /  0%  3689 / 20%  6054 
  21 2Int(dB)                   Num   0%  10%  90%     0 /  0%     7 /  0%   772 
  22 2Pitch(Hz)                 Num   0%  51%  49%     0 /  0%   817 /  4%  3064 
  23 2RawPitch                  Num   0%  54%  46%     0 /  0%   854 /  5%  2956 
  24 2SmPitch                   Num   0%  52%  48%     0 /  0%   828 /  5%  3025 
  25 2Melogram(st)              Num   0%  47%  53%     0 /  0%   582 /  3%  2808 
  26 2ZCross                    Num   0% 100%   0%     0 /  0%    10 /  0%    42 
  27 2F1(Hz)                    Num   0%  51%  49%     0 /  0%  2131 / 12%  4724 
  28 2F2(Hz)                    Num   0%  51%  49%     0 /  0%  4210 / 23%  6615 
  29 2F3(Hz)                    Num   0%  51%  49%     0 /  0%  3688 / 20%  6145 
  30 2F4(Hz)                    Num   0%  51%  49%     0 /  0%  3689 / 20%  6054 
  31 class                      Nom 100%   0%   0%     0 /  0%     0 /  0%    27 


Options: -I 10 -K 0 -S 1 -num-slots 4 

Random forest of 10 trees, each constructed while considering 5 random features.
Out of bag error: 0.3166





=== Stratified cross-validation ===

Correctly Classified Instances       13652               74.6256 %
Incorrectly Classified Instances      4642               25.3744 %
Kappa statistic                          0.6845
K&B Relative Info Score            1198109.1009 %
K&B Information Score                40171.6035 bits      2.1959 bits/instance
Class complexity | order 0           61255.9747 bits      3.3484 bits/instance
Class complexity | scheme          1556222.3049 bits     85.0674 bits/instance
Complexity improvement     (Sf)    -1494966.3301 bits    -81.7189 bits/instance
Mean absolute error                      0.0277
Root mean squared error                  0.1169
Relative absolute error                 45.5209 %
Root relative squared error             67.0665 %
Coverage of cases (0.95 level)          92.1504 %
Mean rel. region size (0.95 level)      11.6484 %
Total Number of Instances            18294     


=== Detailed Accuracy By Class ===

                 TP Rate  FP Rate  Precision  Recall   F-Measure  MCC      ROC Area  PRC Area  Class
                 0,205    0,003    0,257      0,205    0,228      0,226    0,778     0,126     ch
                 0,238    0,000    0,500      0,238    0,323      0,345    0,854     0,277     rr
                 0,938    0,090    0,860      0,938    0,897      0,834    0,972     0,953     0
                 0,403    0,003    0,572      0,403    0,473      0,475    0,852     0,387     hs
                 0,480    0,000    0,727      0,480    0,578      0,590    0,897     0,532     hg
                 0,871    0,049    0,755      0,871    0,809      0,776    0,962     0,882     a
                 0,212    0,009    0,268      0,212    0,237      0,228    0,744     0,105     c
                 0,479    0,002    0,582      0,479    0,525      0,525    0,941     0,470     b
                 0,780    0,039    0,633      0,780    0,699      0,674    0,943     0,732     e
                 0,470    0,004    0,616      0,470    0,533      0,532    0,943     0,515     d
                 0,486    0,001    0,765      0,486    0,594      0,608    0,934     0,582     g
                 0,168    0,003    0,282      0,168    0,211      0,214    0,834     0,144     f
                 0,691    0,014    0,683      0,691    0,687      0,674    0,945     0,718     i
                 0,327    0,000    0,805      0,327    0,465      0,511    0,818     0,389     j
                 0,636    0,003    0,749      0,636    0,688      0,686    0,964     0,680     m
                 0,520    0,004    0,691      0,520    0,593      0,593    0,923     0,546     l
                 0,663    0,024    0,691      0,663    0,677      0,651    0,923     0,706     o
                 0,646    0,011    0,693      0,646    0,669      0,657    0,951     0,688     n
                 0,198    0,001    0,516      0,198    0,286      0,318    0,743     0,127     q
                 0,167    0,003    0,362      0,167    0,229      0,241    0,777     0,132     p
                 0,607    0,020    0,610      0,607    0,608      0,588    0,923     0,609     s
                 0,257    0,005    0,565      0,257    0,353      0,371    0,852     0,306     r
                 0,674    0,004    0,819      0,674    0,739      0,737    0,948     0,758     u
                 0,203    0,008    0,338      0,203    0,254      0,251    0,801     0,174     t
                 0,296    0,001    0,689      0,296    0,414      0,449    0,907     0,399     v
                 0,442    0,000    0,894      0,442    0,592      0,627    0,903     0,484     y
                 0,000    0,000    0,000      0,000    0,000      -0,000   0,623     0,023     z
Weighted Avg.    0,746    0,048    0,731      0,746    0,732      0,699    0,940     0,759     


=== Confusion Matrix ===

    a    b    c    d    e    f    g    h    i    j    k    l    m    n    o    p    q    r    s    t    u    v    w    x    y    z   aa   <-- classified as
   18    0   14    0    0    4    6    0    2    0    0    1    1    0    0    2    1    1    1    0   34    0    0    3    0    0    0 |    a = ch
    1    5    4    0    0    4    0    0    4    0    0    0    0    0    0    0    0    3    0    0    0    0    0    0    0    0    0 |    b = rr
    5    0 6372   11    4   64   19    1   48    5    0    9   35    4    2    3   55   18    3   15   75   13    6   27    2    0    0 |    c = 0
    3    0   50   83    0   21    1    0   11    0    1    0    7    0    2    1    7    2    0    2   10    1    3    1    0    0    0 |    d = hs
    0    0    4    1   24    4    0    0   14    0    0    0    1    0    1    0    0    1    0    0    0    0    0    0    0    0    0 |    e = hg
    2    1   86    7    0 2338   10    5   77    8    0    3    8    1    3    6   56   13    1    6   16   20    0   14    1    2    0 |    f = a
    8    0   83    3    0   36   59    0    9    0    1    4    7    0    0    0   10    2    6    6   27    1    1   14    0    0    1 |    g = c
    0    0    1    0    1   13    0   57    8    3    0    0   13    0    5    0   11    3    0    0    0    2    2    0    0    0    0 |    h = b
    0    2   55    2    0   73    7    5 1121    8    4    1   37    0    4    8   34   27    0    2   21    4    4   14    5    0    0 |    i = e
    0    0    9    1    0   40    0    1   35  125    0    0    4    0    2    4   29   10    0    0    0    2    2    1    1    0    0 |    j = d
    0    0    5    2    0   13    3    0   18    1   52    0    5    0    1    0    3    2    0    0    0    2    0    0    0    0    0 |    k = g
    0    0   23    3    0    6    5    0    4    0    0   20    2    0    0    0    3    2    0    7   39    1    0    4    0    0    0 |    l = f
    4    0   35    2    1   12    5    4  106    0    2    0  517    0    6    3    9    7    0    6   17    2    2    4    3    1    0 |    m = i
    2    0   10    2    1   14    2    0   10    0    0    6    0   33    1    0    3    2    0    0   13    0    1    1    0    0    0 |    n = j
    0    0    8    1    0   15    0    4   16    0    2    0   21    0  173    3   11   10    0    0    1    1    3    2    1    0    0 |    o = m
    1    0   10    0    0   46    0    2   26    4    0    0   20    0    0  170   17   10    0    0    4    8    5    2    2    0    0 |    p = l
    1    0  144    7    0  109   16    9   51   17    2    0    4    0   19    9  913   23    0    2   13   10   18    6    3    1    0 |    q = o
    0    0   28    2    1   47    4    2   59   12    1    0   13    0    5    8   26  420    0    0    9    2    5    6    0    0    0 |    r = n
    2    0   17    1    0    6   14    0    1    0    0    0    4    1    0    0    3    2   16    0   11    1    0    2    0    0    0 |    s = q
    3    0   72    3    0   19   10    0    7    3    0    7    3    0    2    2    7    0    0   34   12    3    2   14    0    0    0 |    t = p
   10    0  165    6    1   33   19    0   24    1    1   15   18    0    1    4   18    3    1    9  549    8    1   16    0    0    2 |    u = s
    3    1   57    2    0  119    3    3   51    7    1    4   10    0    1   11   29   10    0    1    7  113    1    4    1    0    1 |    v = r
    2    0   11    0    0   16    6    4   16    2    1    0    6    2    2    5   46   13    0    1    0    0  285    4    0    1    0 |    w = u
    5    0  131    6    0   22   29    0   13    4    0    1    8    0    1    1   15   12    3    2   24    0    1   71    0    0    1 |    x = t
    0    1    5    0    0   18    0    1   30    1    0    0   11    0    0    3   15    7    0    1    1    3    3    0   42    0    0 |    y = v
    0    0    7    0    0    5    1    0    9    2    0    0    2    0    0    3    1    3    0    0   14    3    3    0    0   42    0 |    z = y
    0    0    2    0    0    1    1    0    1    0    0    0    0    0    0    0    0    0    0    0    3    0    0    0    0    0    0 |   aa = z

=== Percent Confusion Matrix ===
a	b	c	d	e	f	g	h	i	j	k	l	m	n	o	p	q	r	s	t	u	v	w	x	y	z	aa	
20.45	0.0	15.91	0.0	0.0	4.55	6.82	0.0	2.27	0.0	0.0	1.14	1.14	0.0	0.0	2.27	1.14	1.14	1.14	0.0	38.64	0.0	0.0	3.41	0.0	0.0	0.0	 a = ch
4.76	23.81	19.05	0.0	0.0	19.05	0.0	0.0	19.05	0.0	0.0	0.0	0.0	0.0	0.0	0.0	0.0	14.29	0.0	0.0	0.0	0.0	0.0	0.0	0.0	0.0	0.0	 b = rr
0.07	0.0	93.76	0.16	0.06	0.94	0.28	0.01	0.71	0.07	0.0	0.13	0.52	0.06	0.03	0.04	0.81	0.26	0.04	0.22	1.1	0.19	0.09	0.4	0.03	0.0	0.0	 c = 0
1.46	0.0	24.27	40.29	0.0	10.19	0.49	0.0	5.34	0.0	0.49	0.0	3.4	0.0	0.97	0.49	3.4	0.97	0.0	0.97	4.85	0.49	1.46	0.49	0.0	0.0	0.0	 d = hs
0.0	0.0	8.0	2.0	48.0	8.0	0.0	0.0	28.0	0.0	0.0	0.0	2.0	0.0	2.0	0.0	0.0	2.0	0.0	0.0	0.0	0.0	0.0	0.0	0.0	0.0	0.0	 e = hg
0.07	0.04	3.2	0.26	0.0	87.11	0.37	0.19	2.87	0.3	0.0	0.11	0.3	0.04	0.11	0.22	2.09	0.48	0.04	0.22	0.6	0.75	0.0	0.52	0.04	0.07	0.0	 f = a
2.88	0.0	29.86	1.08	0.0	12.95	21.22	0.0	3.24	0.0	0.36	1.44	2.52	0.0	0.0	0.0	3.6	0.72	2.16	2.16	9.71	0.36	0.36	5.04	0.0	0.0	0.36	 g = c
0.0	0.0	0.84	0.0	0.84	10.92	0.0	47.9	6.72	2.52	0.0	0.0	10.92	0.0	4.2	0.0	9.24	2.52	0.0	0.0	0.0	1.68	1.68	0.0	0.0	0.0	0.0	 h = b
0.0	0.14	3.82	0.14	0.0	5.08	0.49	0.35	77.96	0.56	0.28	0.07	2.57	0.0	0.28	0.56	2.36	1.88	0.0	0.14	1.46	0.28	0.28	0.97	0.35	0.0	0.0	 i = e
0.0	0.0	3.38	0.38	0.0	15.04	0.0	0.38	13.16	46.99	0.0	0.0	1.5	0.0	0.75	1.5	10.9	3.76	0.0	0.0	0.0	0.75	0.75	0.38	0.38	0.0	0.0	 j = d
0.0	0.0	4.67	1.87	0.0	12.15	2.8	0.0	16.82	0.93	48.6	0.0	4.67	0.0	0.93	0.0	2.8	1.87	0.0	0.0	0.0	1.87	0.0	0.0	0.0	0.0	0.0	 k = g
0.0	0.0	19.33	2.52	0.0	5.04	4.2	0.0	3.36	0.0	0.0	16.81	1.68	0.0	0.0	0.0	2.52	1.68	0.0	5.88	32.77	0.84	0.0	3.36	0.0	0.0	0.0	 l = f
0.53	0.0	4.68	0.27	0.13	1.6	0.67	0.53	14.17	0.0	0.27	0.0	69.12	0.0	0.8	0.4	1.2	0.94	0.0	0.8	2.27	0.27	0.27	0.53	0.4	0.13	0.0	 m = i
1.98	0.0	9.9	1.98	0.99	13.86	1.98	0.0	9.9	0.0	0.0	5.94	0.0	32.67	0.99	0.0	2.97	1.98	0.0	0.0	12.87	0.0	0.99	0.99	0.0	0.0	0.0	 n = j
0.0	0.0	2.94	0.37	0.0	5.51	0.0	1.47	5.88	0.0	0.74	0.0	7.72	0.0	63.6	1.1	4.04	3.68	0.0	0.0	0.37	0.37	1.1	0.74	0.37	0.0	0.0	 o = m
0.31	0.0	3.06	0.0	0.0	14.07	0.0	0.61	7.95	1.22	0.0	0.0	6.12	0.0	0.0	51.99	5.2	3.06	0.0	0.0	1.22	2.45	1.53	0.61	0.61	0.0	0.0	 p = l
0.07	0.0	10.46	0.51	0.0	7.92	1.16	0.65	3.7	1.23	0.15	0.0	0.29	0.0	1.38	0.65	66.3	1.67	0.0	0.15	0.94	0.73	1.31	0.44	0.22	0.07	0.0	 q = o
0.0	0.0	4.31	0.31	0.15	7.23	0.62	0.31	9.08	1.85	0.15	0.0	2.0	0.0	0.77	1.23	4.0	64.62	0.0	0.0	1.38	0.31	0.77	0.92	0.0	0.0	0.0	 r = n
2.47	0.0	20.99	1.23	0.0	7.41	17.28	0.0	1.23	0.0	0.0	0.0	4.94	1.23	0.0	0.0	3.7	2.47	19.75	0.0	13.58	1.23	0.0	2.47	0.0	0.0	0.0	 s = q
1.48	0.0	35.47	1.48	0.0	9.36	4.93	0.0	3.45	1.48	0.0	3.45	1.48	0.0	0.99	0.99	3.45	0.0	0.0	16.75	5.91	1.48	0.99	6.9	0.0	0.0	0.0	 t = p
1.1	0.0	18.23	0.66	0.11	3.65	2.1	0.0	2.65	0.11	0.11	1.66	1.99	0.0	0.11	0.44	1.99	0.33	0.11	0.99	60.66	0.88	0.11	1.77	0.0	0.0	0.22	 u = s
0.68	0.23	12.95	0.45	0.0	27.05	0.68	0.68	11.59	1.59	0.23	0.91	2.27	0.0	0.23	2.5	6.59	2.27	0.0	0.23	1.59	25.68	0.23	0.91	0.23	0.0	0.23	 v = r
0.47	0.0	2.6	0.0	0.0	3.78	1.42	0.95	3.78	0.47	0.24	0.0	1.42	0.47	0.47	1.18	10.87	3.07	0.0	0.24	0.0	0.0	67.38	0.95	0.0	0.24	0.0	 w = u
1.43	0.0	37.43	1.71	0.0	6.29	8.29	0.0	3.71	1.14	0.0	0.29	2.29	0.0	0.29	0.29	4.29	3.43	0.86	0.57	6.86	0.0	0.29	20.29	0.0	0.0	0.29	 x = t
0.0	0.7	3.52	0.0	0.0	12.68	0.0	0.7	21.13	0.7	0.0	0.0	7.75	0.0	0.0	2.11	10.56	4.93	0.0	0.7	0.7	2.11	2.11	0.0	29.58	0.0	0.0	 y = v
0.0	0.0	7.37	0.0	0.0	5.26	1.05	0.0	9.47	2.11	0.0	0.0	2.11	0.0	0.0	3.16	1.05	3.16	0.0	0.0	14.74	3.16	3.16	0.0	0.0	44.21	0.0	 z = y
0.0	0.0	25.0	0.0	0.0	12.5	12.5	0.0	12.5	0.0	0.0	0.0	0.0	0.0	0.0	0.0	0.0	0.0	0.0	0.0	37.5	0.0	0.0	0.0	0.0	0.0	0.0	 aa = z
