Timestamp:2014-12-07-10:29:03
Inventario:I0
Intervalo:1ms
Ngramas:3
Clasificador:NaiveBayes
Relation Name:  I0-1ms-3gramas
Num Instances:  183402
Num Attributes: 31

     Name                      Type  Nom  Int Real     Missing      Unique  Dist
   1 0Int(dB)                   Num   0%   9%  91%     0 /  0%     3 /  0%   780 
   2 0Pitch(Hz)                 Num   0%  51%  49%     0 /  0%   256 /  0%  4213 
   3 0RawPitch                  Num   0%  55%  45%     0 /  0%   417 /  0%  4119 
   4 0SmPitch                   Num   0%  53%  47%     0 /  0%   263 /  0%  4193 
   5 0Melogram(st)              Num   0%  49%  51%     0 /  0%   133 /  0%  3454 
   6 0ZCross                    Num   0% 100%   0%     0 /  0%     4 /  0%    58 
   7 0F1(Hz)                    Num   0%  52%  48%     0 /  0%  1154 /  1%  4824 
   8 0F2(Hz)                    Num   0%  52%  48%     0 /  0%  2223 /  1%  6697 
   9 0F3(Hz)                    Num   0%  53%  47%     0 /  0%  1930 /  1%  6200 
  10 0F4(Hz)                    Num   0%  52%  48%     0 /  0%  1933 /  1%  6096 
  11 1Int(dB)                   Num   0%   9%  91%     0 /  0%     4 /  0%   781 
  12 1Pitch(Hz)                 Num   0%  51%  49%     0 /  0%   256 /  0%  4213 
  13 1RawPitch                  Num   0%  55%  45%     0 /  0%   417 /  0%  4119 
  14 1SmPitch                   Num   0%  53%  47%     0 /  0%   263 /  0%  4193 
  15 1Melogram(st)              Num   0%  49%  51%     0 /  0%   133 /  0%  3454 
  16 1ZCross                    Num   0% 100%   0%     0 /  0%     4 /  0%    58 
  17 1F1(Hz)                    Num   0%  52%  48%     0 /  0%  1154 /  1%  4824 
  18 1F2(Hz)                    Num   0%  52%  48%     0 /  0%  2223 /  1%  6697 
  19 1F3(Hz)                    Num   0%  53%  47%     0 /  0%  1930 /  1%  6200 
  20 1F4(Hz)                    Num   0%  52%  48%     0 /  0%  1933 /  1%  6096 
  21 2Int(dB)                   Num   0%   9%  91%     0 /  0%     3 /  0%   781 
  22 2Pitch(Hz)                 Num   0%  51%  49%     0 /  0%   256 /  0%  4213 
  23 2RawPitch                  Num   0%  55%  45%     0 /  0%   417 /  0%  4119 
  24 2SmPitch                   Num   0%  53%  47%     0 /  0%   263 /  0%  4193 
  25 2Melogram(st)              Num   0%  49%  51%     0 /  0%   133 /  0%  3454 
  26 2ZCross                    Num   0% 100%   0%     0 /  0%     4 /  0%    58 
  27 2F1(Hz)                    Num   0%  52%  48%     0 /  0%  1154 /  1%  4824 
  28 2F2(Hz)                    Num   0%  52%  48%     0 /  0%  2223 /  1%  6697 
  29 2F3(Hz)                    Num   0%  53%  47%     0 /  0%  1930 /  1%  6200 
  30 2F4(Hz)                    Num   0%  52%  48%     0 /  0%  1933 /  1%  6096 
  31 class                      Nom 100%   0%   0%     0 /  0%     0 /  0%    27 


Naive Bayes Classifier

                    Class
Attribute              ch        rr         0        hs        hg         a         c         b         e         d         g         f         i         j         m         l         o         n         q         p         s         r         u         t         v         y         z
                      (0)       (0)    (0.39)    (0.01)       (0)    (0.14)    (0.01)    (0.01)    (0.07)    (0.01)    (0.01)    (0.01)    (0.04)    (0.01)    (0.01)    (0.02)    (0.07)    (0.03)       (0)    (0.01)    (0.05)    (0.02)    (0.02)    (0.02)    (0.01)       (0)       (0)
==============================================================================================================================================================================================================================================================================================
0Int(dB)
  mean            -19.4137  -11.0618  -48.0652  -20.9984  -10.8917   -2.8333   -24.362   -5.9081   -5.1527   -7.7772   -7.6912  -22.1144   -8.6835  -15.7812   -7.5641   -8.2368   -8.1232   -9.3163  -22.0593  -22.6392  -21.6827  -11.8724   -5.1335  -25.3356   -9.1923   -16.376  -26.8607
  std. dev.          8.249    4.3873   16.3662   11.2536    6.3361    8.1621   10.0114    4.2787    8.0415    6.1585    8.0009    5.3424     8.344    6.0954    5.9874    5.6804   12.1734     7.699   11.2702   10.6224     6.534    9.3204    7.6759    10.311    6.6721    4.7913    1.9776
  weight sum           854       217     72115      1950       492     26115      2715      1196     13740      2617      1083      1160      7083       979      2613      3210     13234      6308       840      2005      8826      4148      4137      3409      1401       890        65
  precision         0.1039    0.1039    0.1039    0.1039    0.1039    0.1039    0.1039    0.1039    0.1039    0.1039    0.1039    0.1039    0.1039    0.1039    0.1039    0.1039    0.1039    0.1039    0.1039    0.1039    0.1039    0.1039    0.1039    0.1039    0.1039    0.1039    0.1039

0Pitch(Hz)
  mean             50.7934  245.4172   17.1388   80.5664  147.0326  226.6316   52.2284  216.1402  190.0442  202.2132  211.9162   72.5843  172.8092  150.8264  194.3592  174.7367  178.3926  189.5523   82.6862   78.8393   43.4348  161.7823  229.1151   69.6188  178.0226  111.7473         0
  std. dev.       100.0659  122.0858   56.9505   86.5944   39.1455  103.6375   96.6772   72.3698   88.0362   84.4717  101.6738  114.0976   76.7258  132.0925   87.2448   64.1343  105.3465   90.4331  115.1836  114.0226    87.066   95.6159   84.6861  109.6797   72.5141   69.3822    0.0197
  weight sum           854       217     72115      1950       492     26115      2715      1196     13740      2617      1083      1160      7083       979      2613      3210     13234      6308       840      2005      8826      4148      4137      3409      1401       890        65
  precision         0.1184    0.1184    0.1184    0.1184    0.1184    0.1184    0.1184    0.1184    0.1184    0.1184    0.1184    0.1184    0.1184    0.1184    0.1184    0.1184    0.1184    0.1184    0.1184    0.1184    0.1184    0.1184    0.1184    0.1184    0.1184    0.1184    0.1184

0RawPitch
  mean             33.0973  236.2089   14.0524   62.4429   124.418  216.9867   35.2563  213.7548  185.3904  195.4751  201.4818   34.9874  165.1915    89.613  183.2168  158.0045  172.5714  175.7375     43.79    60.771   23.2296  155.1303  220.3812   44.6844  163.4211   75.4426         0
  std. dev.        83.3058  132.1702   51.6498   83.8815   83.3131  110.1795   82.0594    76.047   95.8388   95.5093  112.5636   76.8413   84.2064  112.4484   98.7768   79.3558  113.2081  104.1967   92.5923  107.7831    66.269  104.1269   93.3578   92.3617   85.3825   77.8937    0.0202
  weight sum           854       217     72115      1950       492     26115      2715      1196     13740      2617      1083      1160      7083       979      2613      3210     13234      6308       840      2005      8826      4148      4137      3409      1401       890        65
  precision         0.1214    0.1214    0.1214    0.1214    0.1214    0.1214    0.1214    0.1214    0.1214    0.1214    0.1214    0.1214    0.1214    0.1214    0.1214    0.1214    0.1214    0.1214    0.1214    0.1214    0.1214    0.1214    0.1214    0.1214    0.1214    0.1214    0.1214

0SmPitch
  mean             47.5147  245.4181   15.5182   74.0591  149.1505  224.9108   44.5704  216.1401  188.5286  201.5673  210.3612   55.1646  170.4162  107.5252  191.3561  172.9259  176.1475  186.6494    64.577   69.6791    35.951  158.8033  228.5834   59.6771   173.751  106.5791         0
  std. dev.        96.9604  122.0815    53.252   83.5672   36.6275  105.2152   91.8403   72.3699   89.2681   85.7059  103.4558   96.1306   79.2706  136.9531   91.6579   66.3878  107.6301    93.263  106.6957  111.3671   80.8658   97.1978   85.0153  104.4676   77.4465    71.673    0.0198
  weight sum           854       217     72115      1950       492     26115      2715      1196     13740      2617      1083      1160      7083       979      2613      3210     13234      6308       840      2005      8826      4148      4137      3409      1401       890        65
  precision          0.119     0.119     0.119     0.119     0.119     0.119     0.119     0.119     0.119     0.119     0.119     0.119     0.119     0.119     0.119     0.119     0.119     0.119     0.119     0.119     0.119     0.119     0.119     0.119     0.119     0.119     0.119

0Melogram(st)
  mean             14.0879   56.5682    5.0368   24.8271   49.3841   53.2261   14.1044   55.0436   50.3338   53.0058   51.1216   19.6032   48.3994   14.7722    50.934   51.1089   46.4929    49.705    17.948   20.3846   11.7906   42.8576   54.0407   16.6371   50.6069   39.8445         0
  std. dev.        24.9544    9.0181   15.7743   25.0716    4.6172   14.7485   24.5718     7.999    15.575    11.354   17.8431   26.6747   16.3496    25.655    14.588    9.7835   20.5401   16.8983   26.4945   27.3127   22.6993   22.5475   14.2925   26.1573   11.6158   18.6162     0.004
  weight sum           854       217     72115      1950       492     26115      2715      1196     13740      2617      1083      1160      7083       979      2613      3210     13234      6308       840      2005      8826      4148      4137      3409      1401       890        65
  precision         0.0239    0.0239    0.0239    0.0239    0.0239    0.0239    0.0239    0.0239    0.0239    0.0239    0.0239    0.0239    0.0239    0.0239    0.0239    0.0239    0.0239    0.0239    0.0239    0.0239    0.0239    0.0239    0.0239    0.0239    0.0239    0.0239    0.0239

0ZCross
  mean               8.717    3.4981    0.2663    0.9935    3.3815    7.8631       1.7    4.1467    5.2522    4.0659    4.6038    0.6289    3.7306    3.9299    2.8552     3.292    4.3707    2.4764    4.3657    1.0231    3.7282    3.2126    4.0724    0.8683    3.2255    1.5355         0
  std. dev.        12.8804    2.7049     1.162    1.7502    2.5308    4.5366    3.7118    1.9413    3.3232    2.2648     2.893    1.5506    3.2938    3.9692    1.5319    2.0373    3.0828    1.6373    7.3826    2.2954    7.1411    2.5862    2.9865    1.7564    1.9719     1.732    0.1696
  weight sum           854       217     72115      1950       492     26115      2715      1196     13740      2617      1083      1160      7083       979      2613      3210     13234      6308       840      2005      8826      4148      4137      3409      1401       890        65
  precision         1.0175    1.0175    1.0175    1.0175    1.0175    1.0175    1.0175    1.0175    1.0175    1.0175    1.0175    1.0175    1.0175    1.0175    1.0175    1.0175    1.0175    1.0175    1.0175    1.0175    1.0175    1.0175    1.0175    1.0175    1.0175    1.0175    1.0175

0F1(Hz)
  mean            121.6061  608.4303   55.2552  374.0311  446.3233  707.9926   93.3661  479.2744  463.9738  517.1175  492.1557  259.1234  361.4648  442.6371  431.8669  470.4567  484.0118  463.2043  178.6858  225.0223  168.9797  481.7612  498.5025  112.7397  481.3045    336.78         0
  std. dev.       248.3444  137.2592  168.6102  301.9726   85.2327  255.4631  207.1849  132.8724  146.1336  153.4041   194.247  331.0026  144.5804  348.1936  163.6214  139.6711  226.7963  156.8499   245.195  291.9111  276.3136  236.7371  308.2875  209.9747  170.2068  185.9761    0.0602
  weight sum           854       217     72115      1950       492     26115      2715      1196     13740      2617      1083      1160      7083       979      2613      3210     13234      6308       840      2005      8826      4148      4137      3409      1401       890        65
  precision         0.3611    0.3611    0.3611    0.3611    0.3611    0.3611    0.3611    0.3611    0.3611    0.3611    0.3611    0.3611    0.3611    0.3611    0.3611    0.3611    0.3611    0.3611    0.3611    0.3611    0.3611    0.3611    0.3611    0.3611    0.3611    0.3611    0.3611

0F2(Hz)
  mean            369.0814 1639.9217  173.0675  1077.349 1933.7501 1458.6488  272.5047 1574.5004 1786.3109  1484.039 1683.9156  671.9378 1973.7484 1237.5226 1665.4019 1669.8433 1138.3786 1594.1783  716.3684  668.0649  528.2133 1363.9975 1052.4199  376.3264 1567.0875 1332.5302         0
  std. dev.       721.6568  127.4157  522.6785  849.7278  346.2648  397.2685   619.183   344.113  528.1199  322.7423  599.3204  837.2947  671.6296  914.2406  437.4764   339.553  536.2083  457.2799  954.2634    837.81  838.4578  623.5588  425.1574  682.8044  416.2243  675.2365    0.0741
  weight sum           854       217     72115      1950       492     26115      2715      1196     13740      2617      1083      1160      7083       979      2613      3210     13234      6308       840      2005      8826      4148      4137      3409      1401       890        65
  precision         0.4448    0.4448    0.4448    0.4448    0.4448    0.4448    0.4448    0.4448    0.4448    0.4448    0.4448    0.4448    0.4448    0.4448    0.4448    0.4448    0.4448    0.4448    0.4448    0.4448    0.4448    0.4448    0.4448    0.4448    0.4448    0.4448    0.4448

0F3(Hz)
  mean            607.6728 2865.3461  295.0862 1761.5658 2524.8787 2720.7293  499.9091 2754.6172 2620.1056 2867.8184  2887.372 1146.9885 2654.8736 1826.5929 2747.4266 2812.5933 2496.9201 2754.3718 1070.6095 1137.1107  876.8981 2370.7761 2674.1003  678.7491 2668.1438 2289.2593         0
  std. dev.      1187.6252  417.5591  876.1293 1328.8807  113.6133  732.0431 1097.3957  468.8957  787.0306   507.148  943.5462 1424.3085  926.0878 1338.1872  568.4352  580.6592 1027.3116  679.2964 1390.7803 1412.7108 1376.5073 1090.3771  785.3599 1220.0156  678.3081 1174.3712    0.1108
  weight sum           854       217     72115      1950       492     26115      2715      1196     13740      2617      1083      1160      7083       979      2613      3210     13234      6308       840      2005      8826      4148      4137      3409      1401       890        65
  precision         0.6646    0.6646    0.6646    0.6646    0.6646    0.6646    0.6646    0.6646    0.6646    0.6646    0.6646    0.6646    0.6646    0.6646    0.6646    0.6646    0.6646    0.6646    0.6646    0.6646    0.6646    0.6646    0.6646    0.6646    0.6646    0.6646    0.6646

0F4(Hz)
  mean            723.8864 3237.1913  354.6228 2192.0951 3589.4837 3132.5114  580.0975 3299.1241  3156.326 3321.3909 2928.1402 1318.0881 3155.7849 2287.8591 3311.9965 3236.6933 2872.8522  3162.836 1294.4175 1357.5651  991.8696 2743.6078 3065.6415  781.3509 3235.9969   2658.91         0
  std. dev.      1414.6824  403.9693 1050.4882 1640.4181   90.1376  830.1868 1275.2872  440.7006  913.7122  554.7594  958.8293 1626.5593 1058.3659 1664.3819   615.418  587.0344 1164.6509  784.2691 1692.5355 1665.0433 1554.9073 1208.9724  804.1571 1409.5459  709.7605 1353.3023    0.1134
  weight sum           854       217     72115      1950       492     26115      2715      1196     13740      2617      1083      1160      7083       979      2613      3210     13234      6308       840      2005      8826      4148      4137      3409      1401       890        65
  precision         0.6804    0.6804    0.6804    0.6804    0.6804    0.6804    0.6804    0.6804    0.6804    0.6804    0.6804    0.6804    0.6804    0.6804    0.6804    0.6804    0.6804    0.6804    0.6804    0.6804    0.6804    0.6804    0.6804    0.6804    0.6804    0.6804    0.6804

1Int(dB)
  mean            -19.2461   -11.137  -48.0905  -21.2263  -10.7936   -2.8369  -23.9747   -5.8726   -5.1597   -7.7263   -7.7014  -22.1756   -8.6607  -15.7973   -7.5452   -8.2279   -8.1449    -9.398  -21.6971  -22.3737  -21.7426  -11.8923   -5.0726  -24.8849   -9.1191  -16.3413  -26.8486
  std. dev.         8.1796    4.3722   16.3155   11.2739    6.3902    8.1342   10.0531    4.2886    8.0314    6.1746    7.9943    5.2897    8.3453    6.1002    5.9714     5.731   12.1979    7.7661   11.1815   10.6909      6.52    9.3872    7.5754   10.5207    6.5755    4.7539    1.9432
  weight sum           854       217     72115      1950       492     26115      2715      1196     13740      2617      1083      1160      7083       979      2613      3210     13234      6308       840      2005      8826      4148      4137      3409      1401       890        65
  precision         0.1037    0.1037    0.1037    0.1037    0.1037    0.1037    0.1037    0.1037    0.1037    0.1037    0.1037    0.1037    0.1037    0.1037    0.1037    0.1037    0.1037    0.1037    0.1037    0.1037    0.1037    0.1037    0.1037    0.1037    0.1037    0.1037    0.1037

1Pitch(Hz)
  mean             52.0668  245.4548    16.961   79.2185  147.3103  226.6395   55.4702  216.1585   190.258  202.1991  211.8357   71.3211  173.0302   150.472  194.4694  174.6963  178.1206  189.1164   84.6126    80.036   42.5825  161.8374  229.3502   72.6725  178.4924  111.8035         0
  std. dev.       100.8809  122.3156   56.6733   86.3447   39.4441  103.6004   99.0189   72.2735   87.8928   84.5042  101.9447  113.5143   76.4927   131.986   87.2682   64.1196   105.326   90.7617  116.2629  113.8479   86.4703   95.7751   84.2123  111.0321   71.9353   69.3897    0.0197
  weight sum           854       217     72115      1950       492     26115      2715      1196     13740      2617      1083      1160      7083       979      2613      3210     13234      6308       840      2005      8826      4148      4137      3409      1401       890        65
  precision         0.1184    0.1184    0.1184    0.1184    0.1184    0.1184    0.1184    0.1184    0.1184    0.1184    0.1184    0.1184    0.1184    0.1184    0.1184    0.1184    0.1184    0.1184    0.1184    0.1184    0.1184    0.1184    0.1184    0.1184    0.1184    0.1184    0.1184

1RawPitch
  mean             33.7924  235.9727   13.9203   61.1382  124.8483    217.01   38.0279  213.8557  185.5139   195.358  201.5101    33.977  165.4701   89.1819  183.2907  157.9993   172.363  175.0884   45.7874   62.1014   22.2867  154.9441  220.5579   47.8946  163.7864   76.0122         0
  std. dev.         83.892  132.6662   51.4522   83.3164   83.0866  110.1658   85.1904   75.9087   95.7233   95.4733  112.6818   75.6446   84.0796  112.0342   98.8447   79.5776  113.1234  104.5373    94.598  108.0571   64.9857  104.3173   92.9298   94.6875   84.8654   77.9953    0.0202
  weight sum           854       217     72115      1950       492     26115      2715      1196     13740      2617      1083      1160      7083       979      2613      3210     13234      6308       840      2005      8826      4148      4137      3409      1401       890        65
  precision         0.1214    0.1214    0.1214    0.1214    0.1214    0.1214    0.1214    0.1214    0.1214    0.1214    0.1214    0.1214    0.1214    0.1214    0.1214    0.1214    0.1214    0.1214    0.1214    0.1214    0.1214    0.1214    0.1214    0.1214    0.1214    0.1214    0.1214

1SmPitch
  mean             48.5925   245.456   15.3489   72.7123  149.4291  224.9616   47.6363  216.1584  188.8112   201.591  210.4603   53.8979  170.6319  107.1725  191.3387  172.7801  175.8934  186.0285   66.1833   70.8391   35.0362  158.8398  228.8462   62.7585  174.2832  106.6286         0
  std. dev.        97.7825    122.31   52.9677   83.2033   36.9317   105.126    94.459   72.2735   89.0812   85.6638  103.5242   95.1992   79.0959  136.7364   91.8633   66.5132   107.593   93.7073  107.9794  111.2508   80.0251   97.3601   84.5411  106.1799   76.8976   71.6849    0.0198
  weight sum           854       217     72115      1950       492     26115      2715      1196     13740      2617      1083      1160      7083       979      2613      3210     13234      6308       840      2005      8826      4148      4137      3409      1401       890        65
  precision          0.119     0.119     0.119     0.119     0.119     0.119     0.119     0.119     0.119     0.119     0.119     0.119     0.119     0.119     0.119     0.119     0.119     0.119     0.119     0.119     0.119     0.119     0.119     0.119     0.119     0.119     0.119

1Melogram(st)
  mean             14.3562   56.5592    4.9859   24.4577   49.4109   53.2506   14.7332   55.0479    50.379   53.0359   51.0783   19.3291   48.4716   14.7356   50.9466   51.0881   46.4586   49.5865    18.431   20.7372   11.5578    42.876     54.16   17.3439   50.7346   39.8539         0
  std. dev.        25.1102    9.0368   15.7046   25.0491    4.6372   14.6917   24.9554     7.995   15.5007   11.2662   17.9128   26.5935   16.2405    25.656   14.5906    9.8243   20.5573   17.0551   26.6943   27.3707     22.55   22.5422   14.0434   26.4609   11.3756   18.6194     0.004
  weight sum           854       217     72115      1950       492     26115      2715      1196     13740      2617      1083      1160      7083       979      2613      3210     13234      6308       840      2005      8826      4148      4137      3409      1401       890        65
  precision         0.0239    0.0239    0.0239    0.0239    0.0239    0.0239    0.0239    0.0239    0.0239    0.0239    0.0239    0.0239    0.0239    0.0239    0.0239    0.0239    0.0239    0.0239    0.0239    0.0239    0.0239    0.0239    0.0239    0.0239    0.0239    0.0239    0.0239

1ZCross
  mean              8.7575    3.5075    0.2635    0.9737    3.4187    7.8565    1.7503     4.174    5.2408     4.097    4.6029     0.614    3.7393    3.9195    2.8571    3.2977    4.3663    2.4622    4.3936    1.0592    3.7228    3.2131    4.0771    0.9441    3.2386    1.5446         0
  std. dev.        12.8748    2.7122    1.1594    1.7416    2.5423    4.5414    3.7194     1.952    3.3253    2.2657    2.8824    1.5338    3.2999    3.9677    1.5274    2.0313     3.087    1.6387    7.3581    2.2987     7.143    2.5871    2.9819    1.8242    1.9711    1.7332    0.1696
  weight sum           854       217     72115      1950       492     26115      2715      1196     13740      2617      1083      1160      7083       979      2613      3210     13234      6308       840      2005      8826      4148      4137      3409      1401       890        65
  precision         1.0175    1.0175    1.0175    1.0175    1.0175    1.0175    1.0175    1.0175    1.0175    1.0175    1.0175    1.0175    1.0175    1.0175    1.0175    1.0175    1.0175    1.0175    1.0175    1.0175    1.0175    1.0175    1.0175    1.0175    1.0175    1.0175    1.0175

1F1(Hz)
  mean            119.0453  610.2726   54.6953  369.3806  446.4562  709.9451   96.7676  479.7554  465.3474  517.5928  491.6485  253.7586  362.5437   441.169  431.7023  469.9812  485.0896  461.0344   178.976  225.3731  164.2283  481.0339  499.8715  115.8207  481.5242  336.4757         0
  std. dev.       245.7442  137.7957  167.7972  303.0257   85.8982  253.5114  210.0239  132.7483  144.1266  153.4125  194.5674  329.5646  142.9356  349.6979  163.1554  138.6687  226.1543  157.0684  245.3509  291.1141  273.7313  236.1936  306.7882  212.4052  168.6742  185.6772    0.0602
  weight sum           854       217     72115      1950       492     26115      2715      1196     13740      2617      1083      1160      7083       979      2613      3210     13234      6308       840      2005      8826      4148      4137      3409      1401       890        65
  precision         0.3611    0.3611    0.3611    0.3611    0.3611    0.3611    0.3611    0.3611    0.3611    0.3611    0.3611    0.3611    0.3611    0.3611    0.3611    0.3611    0.3611    0.3611    0.3611    0.3611    0.3611    0.3611    0.3611    0.3611    0.3611    0.3611    0.3611

1F2(Hz)
  mean            363.3411 1636.3383   171.346 1063.8206  1931.421 1461.2516  282.0003 1573.1525 1793.0334 1484.0603 1681.1007  659.5127 1983.2786 1227.7023 1666.3384 1670.5036  1138.672 1591.5726  715.7657  669.0664  514.0321 1364.9711 1056.4734   386.335 1572.7594 1333.8093         0
  std. dev.       718.0845  126.4731  520.3678  852.4815  346.9034  392.1592  626.6308  343.7654  519.5885  323.8039  601.4811  834.9172  662.5587  915.4801  434.1956  336.0066  533.7441  459.9848  953.1633  835.8385  831.7399  623.7455  419.7581  690.7237  408.7214  675.8375    0.0741
  weight sum           854       217     72115      1950       492     26115      2715      1196     13740      2617      1083      1160      7083       979      2613      3210     13234      6308       840      2005      8826      4148      4137      3409      1401       890        65
  precision         0.4448    0.4448    0.4448    0.4448    0.4448    0.4448    0.4448    0.4448    0.4448    0.4448    0.4448    0.4448    0.4448    0.4448    0.4448    0.4448    0.4448    0.4448    0.4448    0.4448    0.4448    0.4448    0.4448    0.4448    0.4448    0.4448    0.4448

1F3(Hz)
  mean             595.774 2865.8116  292.1102 1739.1394 2524.0898 2725.9366  517.9505  2753.747 2628.2257 2867.5444 2884.2338 1123.9679 2665.7831 1814.2908 2747.6651 2815.5603 2500.7441 2750.3101 1069.9283 1140.4886  852.9205 2371.5583 2684.8467  693.5855 2675.9477 2289.2198         0
  std. dev.      1176.7261  419.8192   872.183 1334.9066  113.2976  723.2634 1111.8204   469.172  775.3306  510.3194  947.4571 1418.2106  914.1503 1340.7453  563.3729  577.1912 1023.7463  685.7233 1389.9209 1411.2331 1365.0692 1090.3764  768.1272 1228.7623  664.5544 1174.1718    0.1108
  weight sum           854       217     72115      1950       492     26115      2715      1196     13740      2617      1083      1160      7083       979      2613      3210     13234      6308       840      2005      8826      4148      4137      3409      1401       890        65
  precision         0.6646    0.6646    0.6646    0.6646    0.6646    0.6646    0.6646    0.6646    0.6646    0.6646    0.6646    0.6646    0.6646    0.6646    0.6646    0.6646    0.6646    0.6646    0.6646    0.6646    0.6646    0.6646    0.6646    0.6646    0.6646    0.6646    0.6646

1F4(Hz)
  mean            712.8288 3235.4824  351.1292 2164.6724 3589.9691 3138.0998  603.2762 3298.5717  3165.364 3320.3356 2926.4358 1293.2555 3167.5238 2274.7614 3313.8921 3239.2282 2876.6923 3158.6565 1293.1596 1364.3293  965.4569 2743.8027 3077.7233  800.1838 3245.6604 2659.1608         0
  std. dev.      1407.7589  401.8328 1045.9775 1648.4189   89.6674  819.8326 1296.4012  440.2602  898.8907  558.3815  963.4929 1621.7347 1043.4405 1669.5538  608.9784  581.4997 1160.0433  792.4391 1690.6904 1666.4146 1543.1362 1209.1445  781.3188  1422.858  688.8197 1353.5672    0.1134
  weight sum           854       217     72115      1950       492     26115      2715      1196     13740      2617      1083      1160      7083       979      2613      3210     13234      6308       840      2005      8826      4148      4137      3409      1401       890        65
  precision         0.6804    0.6804    0.6804    0.6804    0.6804    0.6804    0.6804    0.6804    0.6804    0.6804    0.6804    0.6804    0.6804    0.6804    0.6804    0.6804    0.6804    0.6804    0.6804    0.6804    0.6804    0.6804    0.6804    0.6804    0.6804    0.6804    0.6804

2Int(dB)
  mean            -19.0693  -11.1929   -48.118  -21.4539  -10.6857   -2.8485  -23.5795   -5.8343   -5.1788   -7.6697   -7.7106  -22.2242    -8.647  -15.8035   -7.5286   -8.2156   -8.1757    -9.481  -21.3191  -22.0995   -21.795  -11.9049   -5.0188  -24.4128   -9.0381  -16.3031  -26.8422
  std. dev.          8.129    4.3665   16.2753   11.2925    6.4451    8.1159    10.105    4.2962    8.0296    6.1925    7.9841    5.2537    8.3528    6.1174    5.9642     5.786   12.2243    7.8348   11.1005   10.7676    6.5211    9.4638    7.4803   10.7318    6.4921    4.7228    1.9264
  weight sum           854       217     72115      1950       492     26115      2715      1196     13740      2617      1083      1160      7083       979      2613      3210     13234      6308       840      2005      8826      4148      4137      3409      1401       890        65
  precision         0.1037    0.1037    0.1037    0.1037    0.1037    0.1037    0.1037    0.1037    0.1037    0.1037    0.1037    0.1037    0.1037    0.1037    0.1037    0.1037    0.1037    0.1037    0.1037    0.1037    0.1037    0.1037    0.1037    0.1037    0.1037    0.1037    0.1037

2Pitch(Hz)
  mean             53.6149  245.5105   16.7879   77.8783  147.6037  226.6268   58.8245  216.1852  190.4015  202.1811  211.7569   70.3188  173.2101  150.1202  194.5754  174.6634  177.8211  188.6283   86.5438   81.2312   41.8358  161.9416  229.5826   75.8013  178.8654  111.8696         0
  std. dev.       101.8479  122.5449   56.4054   86.0819   39.7611  103.5824  101.3106   72.1796   87.7758    84.529   102.216  113.1138   76.2773  131.8831   87.2898   64.1077  105.3227   91.1347  117.3053  113.6613     85.96   95.8855   83.7347  112.3277   71.5113   69.4017    0.0197
  weight sum           854       217     72115      1950       492     26115      2715      1196     13740      2617      1083      1160      7083       979      2613      3210     13234      6308       840      2005      8826      4148      4137      3409      1401       890        65
  precision         0.1184    0.1184    0.1184    0.1184    0.1184    0.1184    0.1184    0.1184    0.1184    0.1184    0.1184    0.1184    0.1184    0.1184    0.1184    0.1184    0.1184    0.1184    0.1184    0.1184    0.1184    0.1184    0.1184    0.1184    0.1184    0.1184    0.1184

2RawPitch
  mean             34.6937  235.8698   13.7657   59.8825  125.1561  217.0254   40.9928  213.8567  185.6605  195.1733  201.5228   32.8638  165.7379   88.7789  183.3567  157.9095  172.1393  174.5068   47.7808   63.4782   21.4572  154.7487  220.7885   51.0815  164.1606   76.6678         0
  std. dev.         84.628  133.0649   51.2115   82.7749   82.8749  110.1492   88.2877   75.8797   95.6276   95.4762  112.8537   74.3015   83.9735   111.652   98.9332   79.7395  113.0491  104.8628   96.5154  108.1378   63.8258  104.4982   92.5273   96.7696   84.2928   78.1874    0.0202
  weight sum           854       217     72115      1950       492     26115      2715      1196     13740      2617      1083      1160      7083       979      2613      3210     13234      6308       840      2005      8826      4148      4137      3409      1401       890        65
  precision         0.1214    0.1214    0.1214    0.1214    0.1214    0.1214    0.1214    0.1214    0.1214    0.1214    0.1214    0.1214    0.1214    0.1214    0.1214    0.1214    0.1214    0.1214    0.1214    0.1214    0.1214    0.1214    0.1214    0.1214    0.1214    0.1214    0.1214

2SmPitch
  mean             49.6608  245.5113   15.1795   71.3735  149.7231  224.9976   50.8815   216.185  189.0092  201.6147  210.5612   52.8846  170.7795  106.8215  191.3175  172.6418  175.6214  185.4113   67.7951   72.1021   34.2779   158.903  229.0387   65.8327  174.8258  106.6879         0
  std. dev.        98.5681  122.5397   52.6864   82.8258    37.254  105.0568   97.0589   72.1793   88.9353     85.61  103.5941   94.5125    78.963  136.5236   92.0664   66.6408  107.5646   94.1494   109.231  111.1535   79.3177   97.5018   84.1352  107.7671   76.3484    71.702    0.0198
  weight sum           854       217     72115      1950       492     26115      2715      1196     13740      2617      1083      1160      7083       979      2613      3210     13234      6308       840      2005      8826      4148      4137      3409      1401       890        65
  precision          0.119     0.119     0.119     0.119     0.119     0.119     0.119     0.119     0.119     0.119     0.119     0.119     0.119     0.119     0.119     0.119     0.119     0.119     0.119     0.119     0.119     0.119     0.119     0.119     0.119     0.119     0.119

2Melogram(st)
  mean             14.6917   56.5513    4.9363    24.089   49.4391   53.2675   15.3806   55.0532   50.4242   53.0658   51.0349   19.1087   48.5268    14.765   50.9591   51.0681   46.3993   49.4588    18.914   21.0764   11.3511   42.8927   54.2789   18.1163   50.8281   39.8644         0
  std. dev.        25.2998     9.055   15.6359    25.022    4.6578   14.6493   25.3248    7.9909   15.4261   11.1774   17.9822    26.534   16.1496   25.7022   14.5933    9.8647   20.5969   17.2205   26.8841   27.4078   22.4179   22.5367   13.7888    26.768    11.212   18.6232     0.004
  weight sum           854       217     72115      1950       492     26115      2715      1196     13740      2617      1083      1160      7083       979      2613      3210     13234      6308       840      2005      8826      4148      4137      3409      1401       890        65
  precision         0.0239    0.0239    0.0239    0.0239    0.0239    0.0239    0.0239    0.0239    0.0239    0.0239    0.0239    0.0239    0.0239    0.0239    0.0239    0.0239    0.0239    0.0239    0.0239    0.0239    0.0239    0.0239    0.0239    0.0239    0.0239    0.0239    0.0239

2ZCross
  mean              8.7945    3.5215    0.2613    0.9554     3.458    7.8466    1.7978    4.2072    5.2275    4.1262     4.602       0.6    3.7468    3.9112    2.8599    3.3005    4.3624    2.4508    4.4154    1.1013    3.7182    3.2182    4.0827    1.0268    3.2545     1.556         0
  std. dev.        12.8628    2.7177     1.158    1.7326    2.5541    4.5485    3.7224    1.9666     3.329    2.2672    2.8724    1.5154    3.3104    3.9682    1.5248    2.0175    3.0942    1.6439    7.3309    2.3038    7.1446    2.5912    2.9766    1.8967    1.9703    1.7331    0.1696
  weight sum           854       217     72115      1950       492     26115      2715      1196     13740      2617      1083      1160      7083       979      2613      3210     13234      6308       840      2005      8826      4148      4137      3409      1401       890        65
  precision         1.0175    1.0175    1.0175    1.0175    1.0175    1.0175    1.0175    1.0175    1.0175    1.0175    1.0175    1.0175    1.0175    1.0175    1.0175    1.0175    1.0175    1.0175    1.0175    1.0175    1.0175    1.0175    1.0175    1.0175    1.0175    1.0175    1.0175

2F1(Hz)
  mean            117.8655  612.1148   54.1452  364.7313  446.6639  711.8181   100.516  480.1591   466.604  518.0523  491.6499  248.3937  363.6076  439.5832  431.5642  469.5534   485.985  458.9035  179.8985  225.7231  159.6277  480.1411  501.0702  119.4161  481.9773  336.1847         0
  std. dev.       244.1103  138.3056   167.001  304.0067   86.6805  251.6267  212.9908  132.6334  142.2478   153.457  194.3911  328.0324  141.3453  351.0043  162.7076    137.64  225.6523   157.255  245.7108  290.3141  271.0649  235.7298  305.5336   215.237  167.0079  185.3977    0.0602
  weight sum           854       217     72115      1950       492     26115      2715      1196     13740      2617      1083      1160      7083       979      2613      3210     13234      6308       840      2005      8826      4148      4137      3409      1401       890        65
  precision         0.3611    0.3611    0.3611    0.3611    0.3611    0.3611    0.3611    0.3611    0.3611    0.3611    0.3611    0.3611    0.3611    0.3611    0.3611    0.3611    0.3611    0.3611    0.3611    0.3611    0.3611    0.3611    0.3611    0.3611    0.3611    0.3611    0.3611

2F2(Hz)
  mean            361.5815 1632.7549  169.6356 1050.2838   1928.94 1463.7337  292.1848 1572.4123 1799.2434 1484.1145 1680.0266  647.0877 1992.3968 1218.1002 1667.4462 1671.0258  1138.609 1588.9417  717.5218  670.0462  500.4451 1365.5147 1060.1575  397.8192 1578.5615 1335.0998         0
  std. dev.       717.1972  125.4212  518.0391    855.01    347.64  387.1874  634.0404  343.7643  511.5475  324.8835  601.5161  832.3474  653.6523  916.7891  430.8522  332.5965   531.629  462.6799  952.7368  833.8404  825.0266   624.257  414.9703  699.3765  400.9497  676.4383    0.0741
  weight sum           854       217     72115      1950       492     26115      2715      1196     13740      2617      1083      1160      7083       979      2613      3210     13234      6308       840      2005      8826      4148      4137      3409      1401       890        65
  precision         0.4448    0.4448    0.4448    0.4448    0.4448    0.4448    0.4448    0.4448    0.4448    0.4448    0.4448    0.4448    0.4448    0.4448    0.4448    0.4448    0.4448    0.4448    0.4448    0.4448    0.4448    0.4448    0.4448    0.4448    0.4448    0.4448    0.4448

2F3(Hz)
  mean            589.9024 2866.2771  289.1632 1716.7103 2523.2929 2730.9563  537.8201  2752.944 2635.6414 2867.2678 2884.1098 1100.9472 2676.2267  1801.929 2747.9045 2818.5543 2503.6829 2746.2749 1072.4324 1143.8554  830.1185 2371.4578 2694.2989  711.3029 2683.8208 2289.1003         0
  std. dev.      1169.2259  422.0667  868.2206 1340.5272   112.982  714.7452 1126.9157  469.4092   764.297   513.436  947.3313  1411.711   902.456 1343.1512  558.3353  573.6833 1021.0061  692.0989 1389.6731 1409.7328  1353.937 1090.8183   752.613 1239.5025   650.406 1173.9484    0.1108
  weight sum           854       217     72115      1950       492     26115      2715      1196     13740      2617      1083      1160      7083       979      2613      3210     13234      6308       840      2005      8826      4148      4137      3409      1401       890        65
  precision         0.6646    0.6646    0.6646    0.6646    0.6646    0.6646    0.6646    0.6646    0.6646    0.6646    0.6646    0.6646    0.6646    0.6646    0.6646    0.6646    0.6646    0.6646    0.6646    0.6646    0.6646    0.6646    0.6646    0.6646    0.6646    0.6646    0.6646

2F4(Hz)
  mean             710.116 3233.7736  347.6746 2137.2442 3590.2388 3143.4133  629.0302 3298.0831 3173.7603 3319.2569 2927.2908 1268.4229 3178.8998 2261.4489 3315.7815 3241.7085 2879.5448 3154.4825 1295.6998 1371.0518   940.078 2743.4389 3088.1777  821.7414 3255.3058  2659.368         0
  std. dev.      1407.1215  399.6776 1041.4777 1655.9273   89.1474   809.765  1318.959  439.8976  884.9534   561.953  964.0065 1616.5143 1028.8621  1674.423  602.4578  576.0183 1156.4562  800.5068 1689.4794 1667.7138 1531.2204 1210.0756  760.6201 1437.2095  667.0532 1353.8047    0.1134
  weight sum           854       217     72115      1950       492     26115      2715      1196     13740      2617      1083      1160      7083       979      2613      3210     13234      6308       840      2005      8826      4148      4137      3409      1401       890        65
  precision         0.6804    0.6804    0.6804    0.6804    0.6804    0.6804    0.6804    0.6804    0.6804    0.6804    0.6804    0.6804    0.6804    0.6804    0.6804    0.6804    0.6804    0.6804    0.6804    0.6804    0.6804    0.6804    0.6804    0.6804    0.6804    0.6804    0.6804





=== Stratified cross-validation ===

Correctly Classified Instances       56889               31.0187 %
Incorrectly Classified Instances    126513               68.9813 %
Kappa statistic                          0.2318
K&B Relative Info Score            3352070.189  %
K&B Information Score               110077.9081 bits      0.6002 bits/instance
Class complexity | order 0          602180.0822 bits      3.2834 bits/instance
Class complexity | scheme          10056998.4443 bits     54.8358 bits/instance
Complexity improvement     (Sf)    -9454818.362 bits    -51.5524 bits/instance
Mean absolute error                      0.0514
Root mean squared error                  0.2147
Relative absolute error                 86.0103 %
Root relative squared error            124.2425 %
Coverage of cases (0.95 level)          37.0296 %
Mean rel. region size (0.95 level)       6.2516 %
Total Number of Instances           183402     


=== Detailed Accuracy By Class ===

                 TP Rate  FP Rate  Precision  Recall   F-Measure  MCC      ROC Area  PRC Area  Class
                 0,207    0,003    0,226      0,207    0,216      0,213    0,628     0,105     ch
                 0,309    0,015    0,023      0,309    0,044      0,081    0,893     0,050     rr
                 0,503    0,015    0,955      0,503    0,659      0,588    0,882     0,866     0
                 0,117    0,022    0,054      0,117    0,074      0,065    0,613     0,035     hs
                 0,941    0,132    0,019      0,941    0,037      0,123    0,954     0,115     hg
                 0,500    0,041    0,668      0,500    0,572      0,520    0,888     0,633     a
                 0,043    0,005    0,111      0,043    0,062      0,061    0,460     0,045     c
                 0,366    0,109    0,022      0,366    0,041      0,066    0,825     0,024     b
                 0,081    0,006    0,527      0,081    0,141      0,186    0,760     0,228     e
                 0,029    0,010    0,041      0,029    0,034      0,023    0,776     0,034     d
                 0,030    0,002    0,083      0,030    0,045      0,047    0,747     0,023     g
                 0,016    0,002    0,043      0,016    0,024      0,023    0,474     0,016     f
                 0,067    0,002    0,618      0,067    0,122      0,196    0,837     0,299     i
                 0,202    0,003    0,253      0,202    0,225      0,222    0,729     0,130     j
                 0,001    0,003    0,005      0,001    0,002      -0,005   0,797     0,038     m
                 0,317    0,052    0,097      0,317    0,149      0,150    0,834     0,071     l
                 0,005    0,002    0,152      0,005    0,010      0,015    0,748     0,174     o
                 0,019    0,010    0,063      0,019    0,029      0,016    0,780     0,079     n
                 0,021    0,001    0,090      0,021    0,035      0,042    0,617     0,024     q
                 0,007    0,001    0,056      0,007    0,012      0,016    0,490     0,027     p
                 0,141    0,003    0,727      0,141    0,236      0,308    0,560     0,266     s
                 0,012    0,004    0,066      0,012    0,021      0,019    0,689     0,043     r
                 0,266    0,004    0,592      0,266    0,367      0,388    0,863     0,339     u
                 0,089    0,009    0,158      0,089    0,114      0,106    0,474     0,060     t
                 0,000    0,002    0,000      0,000    0,000      -0,004   0,757     0,015     v
                 0,148    0,019    0,037      0,148    0,060      0,066    0,838     0,027     y
                 1,000    0,227    0,002      1,000    0,003      0,035    0,902     0,002     z
Weighted Avg.    0,310    0,016    0,609      0,310    0,388      0,363    0,806     0,503     


=== Confusion Matrix ===

     a     b     c     d     e     f     g     h     i     j     k     l     m     n     o     p     q     r     s     t     u     v     w     x     y     z    aa   <-- classified as
   177    28    58     7    29    18    22    19     1     2     0     3     0     5     0    19     0    16     6     2   126     3     0    21     0     2   290 |     a = ch
     0    67     0     0    98    19     0    10     0     5     0     0     0     0     0     5     0     0     0     0     0     0     0     0     0    13     0 |     b = rr
     3   294 36288   996  1905   250    81  1117    50   240     1    97    95    32    72  1013    30   475     1    32    18   103    50   310    36   589 27937 |     c = 0
     0    26    64   228   538    39     1    96     2     6     0    18     5    12     0    92     0    11     0     0    13    35     8     0     9   123   624 |     d = hs
     0     1     0     0   463     1     0    21     0     4     0     0     0     0     0     2     0     0     0     0     0     0     0     0     0     0     0 |     e = hg
     8   546   172   241  3818 13054   110  3986   159   835     0    26    19   124     1  1431   148    59    50    26    11   173    36   132    44   263   643 |     f = a
    77     4   153   114    87     2   117    74    10    13     0    20     5    27     0    45    21    48    13    29   137    22    18   228     0    26  1425 |     g = c
     0    56     0     0   357   101     0   438     1     1    22     0     0     0     0   165     0     6     0     0     0     7    38     0     0     4     0 |     h = b
     0   195    29   262  5238  1579    91  2963  1117    44   116     9    13    51    33   893    76   128    10    33     1    45    30   119     0   174   491 |     i = e
     0   127    19    31   745   289     0   921    12    77     8     6     0     0     5   295     0     2     0     0     0    11     0     0     0    53    16 |     j = d
     0    32     2    26   278   187     0   267     4     6    33     5    38     0    21   106     0     2     0     0     1     1     0     8     0     1    65 |     k = g
     0    64    25   115    72     6    11    42     6     0     4    19     0     6     0    18     3    29     0     0     3    23     0    59    15    45   595 |     l = f
     0    11    40   149  1773   321    70  1263   481     0    80     6   478    15   339  1087    19    26     4    24     3    16     1   131     0   425   321 |     m = i
     2    17    57    69    49    98     8    42     7     1     0     9     0   198    19     0    18    58    13     1     5    48     1    20     0    30   209 |     n = j
     0    36     0    83  1023   158     0   663     0    39     0     2     0     0     3   392     0     8     0     1     0     1    95    11     0    58    40 |     o = m
     0   152     1    33  1090   109     6   595    21     3     0     3     0     0     7  1016     4    24     0     7     0     4     0    31     0    86    18 |     p = l
     1   255    29   371  2303  1934    52  3516   103   380     0    26     2    33    14  1227    70   112    32    34     0    40   413    70   232   585  1400 |     q = o
     0   328     8   284  1862   291     0  1811    32    23    44     8    42     3     3   861     1   118     0     1     2    12    56     6     0   270   242 |     r = n
    68     0    43    36    68    20    23    33     9    12     0     6     1    28     3    13     0    52    18     0    79     2     0    23     0    17   286 |     s = q
     0    36    74   152   140    53    63    47     2    17    15    29     0     9     0   129    12    73    10    14     1    57     0    78     0    64   930 |     t = p
   444   223   682   540   239   153   151    42    39    44     3    75    51   177    34   250    20   278    20     5  1246    61     0   136     4   217  3692 |     u = s
     0   243    49   221   841   261    29   768    43    55    69    18    20     6     6   650     3   143     1     7     3    51    10    74    26    93   458 |     v = r
     0    29    11    35   321   476    24  1206     1    45     0     4     0     9    17   463    17    13     0     8     1    19  1099    86    20   185    48 |     w = u
     2    84   159   179   117    11   190    93     1    17     1    41     5    47     4    33    19   170    21    21    32    34     0   303     0    41  1784 |     x = t
     0     2     4    12   735    98     0   272    20     0     0     2     0     0    28   127     0    12     0     0     0     8     0    27     0    40    14 |     y = v
     0     0    19    26   371     0     4    51     0     5     0     5     0     2     3   110     1    12     0     7    31     0     0    39     0   132    72 |     z = y
     0     0     0     0     0     0     0     0     0     0     0     0     0     0     0     0     0     0     0     0     0     0     0     0     0     0    65 |    aa = z

=== Percent Confusion Matrix ===
a	b	c	d	e	f	g	h	i	j	k	l	m	n	o	p	q	r	s	t	u	v	w	x	y	z	aa	
20.73	3.28	6.79	0.82	3.4	2.11	2.58	2.22	0.12	0.23	0.0	0.35	0.0	0.59	0.0	2.22	0.0	1.87	0.7	0.23	14.75	0.35	0.0	2.46	0.0	0.23	33.96	 a = ch
0.0	30.88	0.0	0.0	45.16	8.76	0.0	4.61	0.0	2.3	0.0	0.0	0.0	0.0	0.0	2.3	0.0	0.0	0.0	0.0	0.0	0.0	0.0	0.0	0.0	5.99	0.0	 b = rr
0.0	0.41	50.32	1.38	2.64	0.35	0.11	1.55	0.07	0.33	0.0	0.13	0.13	0.04	0.1	1.4	0.04	0.66	0.0	0.04	0.02	0.14	0.07	0.43	0.05	0.82	38.74	 c = 0
0.0	1.33	3.28	11.69	27.59	2.0	0.05	4.92	0.1	0.31	0.0	0.92	0.26	0.62	0.0	4.72	0.0	0.56	0.0	0.0	0.67	1.79	0.41	0.0	0.46	6.31	32.0	 d = hs
0.0	0.2	0.0	0.0	94.11	0.2	0.0	4.27	0.0	0.81	0.0	0.0	0.0	0.0	0.0	0.41	0.0	0.0	0.0	0.0	0.0	0.0	0.0	0.0	0.0	0.0	0.0	 e = hg
0.03	2.09	0.66	0.92	14.62	49.99	0.42	15.26	0.61	3.2	0.0	0.1	0.07	0.47	0.0	5.48	0.57	0.23	0.19	0.1	0.04	0.66	0.14	0.51	0.17	1.01	2.46	 f = a
2.84	0.15	5.64	4.2	3.2	0.07	4.31	2.73	0.37	0.48	0.0	0.74	0.18	0.99	0.0	1.66	0.77	1.77	0.48	1.07	5.05	0.81	0.66	8.4	0.0	0.96	52.49	 g = c
0.0	4.68	0.0	0.0	29.85	8.44	0.0	36.62	0.08	0.08	1.84	0.0	0.0	0.0	0.0	13.8	0.0	0.5	0.0	0.0	0.0	0.59	3.18	0.0	0.0	0.33	0.0	 h = b
0.0	1.42	0.21	1.91	38.12	11.49	0.66	21.56	8.13	0.32	0.84	0.07	0.09	0.37	0.24	6.5	0.55	0.93	0.07	0.24	0.01	0.33	0.22	0.87	0.0	1.27	3.57	 i = e
0.0	4.85	0.73	1.18	28.47	11.04	0.0	35.19	0.46	2.94	0.31	0.23	0.0	0.0	0.19	11.27	0.0	0.08	0.0	0.0	0.0	0.42	0.0	0.0	0.0	2.03	0.61	 j = d
0.0	2.95	0.18	2.4	25.67	17.27	0.0	24.65	0.37	0.55	3.05	0.46	3.51	0.0	1.94	9.79	0.0	0.18	0.0	0.0	0.09	0.09	0.0	0.74	0.0	0.09	6.0	 k = g
0.0	5.52	2.16	9.91	6.21	0.52	0.95	3.62	0.52	0.0	0.34	1.64	0.0	0.52	0.0	1.55	0.26	2.5	0.0	0.0	0.26	1.98	0.0	5.09	1.29	3.88	51.29	 l = f
0.0	0.16	0.56	2.1	25.03	4.53	0.99	17.83	6.79	0.0	1.13	0.08	6.75	0.21	4.79	15.35	0.27	0.37	0.06	0.34	0.04	0.23	0.01	1.85	0.0	6.0	4.53	 m = i
0.2	1.74	5.82	7.05	5.01	10.01	0.82	4.29	0.72	0.1	0.0	0.92	0.0	20.22	1.94	0.0	1.84	5.92	1.33	0.1	0.51	4.9	0.1	2.04	0.0	3.06	21.35	 n = j
0.0	1.38	0.0	3.18	39.15	6.05	0.0	25.37	0.0	1.49	0.0	0.08	0.0	0.0	0.11	15.0	0.0	0.31	0.0	0.04	0.0	0.04	3.64	0.42	0.0	2.22	1.53	 o = m
0.0	4.74	0.03	1.03	33.96	3.4	0.19	18.54	0.65	0.09	0.0	0.09	0.0	0.0	0.22	31.65	0.12	0.75	0.0	0.22	0.0	0.12	0.0	0.97	0.0	2.68	0.56	 p = l
0.01	1.93	0.22	2.8	17.4	14.61	0.39	26.57	0.78	2.87	0.0	0.2	0.02	0.25	0.11	9.27	0.53	0.85	0.24	0.26	0.0	0.3	3.12	0.53	1.75	4.42	10.58	 q = o
0.0	5.2	0.13	4.5	29.52	4.61	0.0	28.71	0.51	0.36	0.7	0.13	0.67	0.05	0.05	13.65	0.02	1.87	0.0	0.02	0.03	0.19	0.89	0.1	0.0	4.28	3.84	 r = n
8.1	0.0	5.12	4.29	8.1	2.38	2.74	3.93	1.07	1.43	0.0	0.71	0.12	3.33	0.36	1.55	0.0	6.19	2.14	0.0	9.4	0.24	0.0	2.74	0.0	2.02	34.05	 s = q
0.0	1.8	3.69	7.58	6.98	2.64	3.14	2.34	0.1	0.85	0.75	1.45	0.0	0.45	0.0	6.43	0.6	3.64	0.5	0.7	0.05	2.84	0.0	3.89	0.0	3.19	46.38	 t = p
5.03	2.53	7.73	6.12	2.71	1.73	1.71	0.48	0.44	0.5	0.03	0.85	0.58	2.01	0.39	2.83	0.23	3.15	0.23	0.06	14.12	0.69	0.0	1.54	0.05	2.46	41.83	 u = s
0.0	5.86	1.18	5.33	20.27	6.29	0.7	18.51	1.04	1.33	1.66	0.43	0.48	0.14	0.14	15.67	0.07	3.45	0.02	0.17	0.07	1.23	0.24	1.78	0.63	2.24	11.04	 v = r
0.0	0.7	0.27	0.85	7.76	11.51	0.58	29.15	0.02	1.09	0.0	0.1	0.0	0.22	0.41	11.19	0.41	0.31	0.0	0.19	0.02	0.46	26.57	2.08	0.48	4.47	1.16	 w = u
0.06	2.46	4.66	5.25	3.43	0.32	5.57	2.73	0.03	0.5	0.03	1.2	0.15	1.38	0.12	0.97	0.56	4.99	0.62	0.62	0.94	1.0	0.0	8.89	0.0	1.2	52.33	 x = t
0.0	0.14	0.29	0.86	52.46	7.0	0.0	19.41	1.43	0.0	0.0	0.14	0.0	0.0	2.0	9.06	0.0	0.86	0.0	0.0	0.0	0.57	0.0	1.93	0.0	2.86	1.0	 y = v
0.0	0.0	2.13	2.92	41.69	0.0	0.45	5.73	0.0	0.56	0.0	0.56	0.0	0.22	0.34	12.36	0.11	1.35	0.0	0.79	3.48	0.0	0.0	4.38	0.0	14.83	8.09	 z = y
0.0	0.0	0.0	0.0	0.0	0.0	0.0	0.0	0.0	0.0	0.0	0.0	0.0	0.0	0.0	0.0	0.0	0.0	0.0	0.0	0.0	0.0	0.0	0.0	0.0	0.0	100.0	 aa = z
