Timestamp:2013-07-22-20:45:43
Inventario:I0
Intervalo:15ms
Ngramas:3
Clasificador:RandomForest
Relation Name:  I0-15ms-3gramas
Num Instances:  12187
Num Attributes: 31

     Name                      Type  Nom  Int Real     Missing      Unique  Dist
   1 0Int(dB)                   Num   0%  10%  90%     0 /  0%    10 /  0%   768 
   2 0Pitch(Hz)                 Num   0%  50%  50%     0 /  0%   940 /  8%  2714 
   3 0RawPitch                  Num   0%  53%  47%     0 /  0%   980 /  8%  2609 
   4 0SmPitch                   Num   0%  51%  49%     0 /  0%   957 /  8%  2691 
   5 0Melogram(st)              Num   0%  46%  54%     0 /  0%   837 /  7%  2573 
   6 0ZCross                    Num   0% 100%   0%     0 /  0%    10 /  0%    40 
   7 0F1(Hz)                    Num   0%  50%  50%     0 /  0%  2281 / 19%  3977 
   8 0F2(Hz)                    Num   0%  50%  50%     0 /  0%  3848 / 32%  5158 
   9 0F3(Hz)                    Num   0%  50%  50%     0 /  0%  3419 / 28%  4850 
  10 0F4(Hz)                    Num   0%  50%  50%     0 /  0%  3319 / 27%  4764 
  11 1Int(dB)                   Num   0%  10%  90%     0 /  0%    10 /  0%   768 
  12 1Pitch(Hz)                 Num   0%  50%  50%     0 /  0%   940 /  8%  2714 
  13 1RawPitch                  Num   0%  53%  47%     0 /  0%   980 /  8%  2609 
  14 1SmPitch                   Num   0%  51%  49%     0 /  0%   957 /  8%  2691 
  15 1Melogram(st)              Num   0%  46%  54%     0 /  0%   837 /  7%  2573 
  16 1ZCross                    Num   0% 100%   0%     0 /  0%    10 /  0%    40 
  17 1F1(Hz)                    Num   0%  50%  50%     0 /  0%  2281 / 19%  3977 
  18 1F2(Hz)                    Num   0%  50%  50%     0 /  0%  3848 / 32%  5158 
  19 1F3(Hz)                    Num   0%  50%  50%     0 /  0%  3419 / 28%  4850 
  20 1F4(Hz)                    Num   0%  50%  50%     0 /  0%  3319 / 27%  4764 
  21 2Int(dB)                   Num   0%  10%  90%     0 /  0%    10 /  0%   768 
  22 2Pitch(Hz)                 Num   0%  50%  50%     0 /  0%   941 /  8%  2715 
  23 2RawPitch                  Num   0%  53%  47%     0 /  0%   979 /  8%  2609 
  24 2SmPitch                   Num   0%  51%  49%     0 /  0%   957 /  8%  2691 
  25 2Melogram(st)              Num   0%  46%  54%     0 /  0%   838 /  7%  2574 
  26 2ZCross                    Num   0% 100%   0%     0 /  0%    10 /  0%    40 
  27 2F1(Hz)                    Num   0%  50%  50%     0 /  0%  2281 / 19%  3977 
  28 2F2(Hz)                    Num   0%  50%  50%     0 /  0%  3848 / 32%  5158 
  29 2F3(Hz)                    Num   0%  50%  50%     0 /  0%  3419 / 28%  4850 
  30 2F4(Hz)                    Num   0%  50%  50%     0 /  0%  3319 / 27%  4764 
  31 class                      Nom 100%   0%   0%     0 /  0%     0 /  0%    27 


Options: -I 10 -K 0 -S 1 -num-slots 4 

Random forest of 10 trees, each constructed while considering 5 random features.
Out of bag error: 0.3678





=== Stratified cross-validation ===

Correctly Classified Instances        8508               69.8121 %
Incorrectly Classified Instances      3679               30.1879 %
Kappa statistic                          0.6264
K&B Relative Info Score             728630.5271 %
K&B Information Score                24632.6752 bits      2.0212 bits/instance
Class complexity | order 0           41118.2022 bits      3.3739 bits/instance
Class complexity | scheme          1304411.1753 bits    107.033  bits/instance
Complexity improvement     (Sf)    -1263292.9731 bits   -103.6591 bits/instance
Mean absolute error                      0.0305
Root mean squared error                  0.1244
Relative absolute error                 49.8861 %
Root relative squared error             71.1228 %
Coverage of cases (0.95 level)          90.1124 %
Mean rel. region size (0.95 level)      12.5592 %
Total Number of Instances            12187     


=== Detailed Accuracy By Class ===

                 TP Rate  FP Rate  Precision  Recall   F-Measure  MCC      ROC Area  PRC Area  Class
                 0,103    0,002    0,188      0,103    0,133      0,136    0,770     0,068     ch
                 0,000    0,000    0,000      0,000    0,000      -0,001   0,661     0,012     rr
                 0,940    0,090    0,856      0,940    0,896      0,835    0,975     0,955     0
                 0,250    0,004    0,407      0,250    0,310      0,313    0,787     0,188     hs
                 0,235    0,001    0,421      0,235    0,302      0,313    0,846     0,238     hg
                 0,851    0,061    0,711      0,851    0,775      0,735    0,955     0,865     a
                 0,176    0,010    0,209      0,176    0,191      0,181    0,759     0,102     c
                 0,439    0,002    0,590      0,439    0,503      0,506    0,884     0,352     b
                 0,682    0,048    0,552      0,682    0,610      0,576    0,922     0,613     e
                 0,266    0,006    0,395      0,266    0,318      0,316    0,882     0,305     d
                 0,181    0,001    0,464      0,181    0,260      0,287    0,891     0,250     g
                 0,179    0,002    0,326      0,179    0,231      0,238    0,783     0,101     f
                 0,634    0,020    0,580      0,634    0,606      0,589    0,928     0,627     i
                 0,273    0,001    0,621      0,273    0,379      0,409    0,822     0,289     j
                 0,467    0,004    0,614      0,467    0,531      0,530    0,911     0,481     m
                 0,341    0,007    0,490      0,341    0,402      0,400    0,855     0,309     l
                 0,613    0,033    0,606      0,613    0,609      0,576    0,900     0,613     o
                 0,548    0,014    0,589      0,548    0,568      0,553    0,919     0,539     n
                 0,091    0,001    0,238      0,091    0,132      0,145    0,687     0,087     q
                 0,105    0,003    0,304      0,105    0,156      0,174    0,710     0,109     p
                 0,554    0,021    0,580      0,554    0,567      0,545    0,903     0,536     s
                 0,179    0,006    0,420      0,179    0,251      0,262    0,809     0,219     r
                 0,561    0,004    0,766      0,561    0,648      0,649    0,926     0,661     u
                 0,162    0,008    0,295      0,162    0,209      0,208    0,795     0,143     t
                 0,152    0,001    0,536      0,152    0,236      0,282    0,770     0,150     v
                 0,266    0,001    0,548      0,266    0,358      0,379    0,856     0,247     y
                 0,000    0,000    0,000      0,000    0,000      -0,000   0,498     0,000     z
Weighted Avg.    0,698    0,051    0,673      0,698    0,677      0,643    0,924     0,699     


=== Confusion Matrix ===

    a    b    c    d    e    f    g    h    i    j    k    l    m    n    o    p    q    r    s    t    u    v    w    x    y    z   aa   <-- classified as
    6    0   14    0    0    5    5    0    0    1    0    0    1    1    0    0    2    1    2    0   17    0    0    3    0    0    0 |    a = ch
    0    0    1    0    0    3    0    0    5    0    0    0    0    0    0    0    3    2    0    0    0    1    0    0    0    0    0 |    b = rr
    2    0 4153    4    0   51   19    0   22    2    1    4   17    0    0    3   33   10    4    9   55    8    1   17    1    0    0 |    c = 0
    2    0   31   35    1   23    2    0   12    1    0    0    6    0    1    2    5    1    0    0    8    3    4    2    0    1    0 |    d = hs
    0    0    3    1    8    3    0    0    8    0    0    0    4    1    0    1    1    2    0    0    1    0    1    0    0    0    0 |    e = hg
    0    2   58    3    1 1545   12    0   64    5    0    0   11    0    0   14   48   17    1    2   14   13    0    5    0    0    0 |    f = a
    1    0   56    2    0   17   32    0    9    0    0    5    3    1    0    1    9    1    6    2   14    2    2   17    1    0    1 |    g = c
    0    0    2    0    0   10    0   36    8    0    0    0    6    0    2    2    8    3    0    0    1    1    3    0    0    0    0 |    h = b
    1    0   33    8    2   74   10    4  662    8    5    0   58    2    3    9   41   18    0    0   18    4    3    4    1    2    1 |    i = e
    0    0    7    2    0   37    0    2   21   47    1    0    1    0    1    3   30   16    0    0    0    4    3    1    0    1    0 |    j = d
    0    0    4    0    1   20    0    0   15    3   13    0    5    0    0    0    7    2    0    0    0    2    0    0    0    0    0 |    k = g
    1    0   13    2    0    3    5    0    5    0    0   14    0    0    0    0    2    3    0    1   22    6    0    1    0    0    0 |    l = f
    1    0   30    5    2   11    2    2   80    0    3    0  319    0    7   11    4    9    0    2    5    0    2    5    2    1    0 |    m = i
    0    0   11    5    0   10    1    0    6    1    0    2    0   18    1    0    0    1    0    0    9    0    1    0    0    0    0 |    n = j
    1    0    4    0    1    9    1    2   18    3    1    0   20    0   86    3   16   14    1    0    0    2    2    0    0    0    0 |    o = m
    2    1    8    3    1   30    0    4   31    1    1    0   19    1    3   76   18    9    0    0    3    3    4    0    2    3    0 |    p = l
    1    2   86    1    0  103    8    3   53   16    2    1   10    0   15    6  576   14    0    2   15    7   12    5    2    0    0 |    q = o
    0    0   19    1    2   31    2    0   61   12    0    0   13    0    9    7   18  239    0    1   10    4    2    4    1    0    0 |    r = n
    4    0   20    0    0    4    7    0    4    0    0    0    5    0    0    0    0    0    5    0    4    1    0    1    0    0    0 |    s = q
    0    0   51    1    0   11    7    0    6    0    0    5    3    1    1    1    8    4    0   14    7    2    2    9    0    0    0 |    t = p
    9    0  115    5    0   25   12    0   25    0    0    7   11    2    3    2   19    9    1    7  339    4    1   12    0    4    0 |    u = s
    1    0   36    2    0   84    2    5   29    7    0    2   12    2    2    7   29    9    0    2   10   55    2    4    3    2    1 |    v = r
    0    0    4    1    0   18    2    3   17    4    1    0    9    0    3    3   45    8    0    0    5    1  160    1    0    0    0 |    w = u
    0    0   89    2    0   19   23    0   11    5    0    2    5    0    0    0   11    7    1    4   13    3    1   38    0    0    0 |    x = t
    0    1    2    3    0   22    1    0   19    0    0    1    7    0    3    3   14    4    0    0    0    3    1    0   15    0    0 |    y = v
    0    0    2    0    0    5    0    0    8    3    0    0    5    0    0    1    3    3    0    0   14    1    2    0    0   17    0 |    z = y
    0    0    2    0    0    0    0    0    1    0    0    0    0    0    0    0    1    0    0    0    0    1    0    0    0    0    0 |   aa = z

=== Percent Confusion Matrix ===
a	b	c	d	e	f	g	h	i	j	k	l	m	n	o	p	q	r	s	t	u	v	w	x	y	z	aa	
10.34	0.0	24.14	0.0	0.0	8.62	8.62	0.0	0.0	1.72	0.0	0.0	1.72	1.72	0.0	0.0	3.45	1.72	3.45	0.0	29.31	0.0	0.0	5.17	0.0	0.0	0.0	 a = ch
0.0	0.0	6.67	0.0	0.0	20.0	0.0	0.0	33.33	0.0	0.0	0.0	0.0	0.0	0.0	0.0	20.0	13.33	0.0	0.0	0.0	6.67	0.0	0.0	0.0	0.0	0.0	 b = rr
0.05	0.0	94.04	0.09	0.0	1.15	0.43	0.0	0.5	0.05	0.02	0.09	0.38	0.0	0.0	0.07	0.75	0.23	0.09	0.2	1.25	0.18	0.02	0.38	0.02	0.0	0.0	 c = 0
1.43	0.0	22.14	25.0	0.71	16.43	1.43	0.0	8.57	0.71	0.0	0.0	4.29	0.0	0.71	1.43	3.57	0.71	0.0	0.0	5.71	2.14	2.86	1.43	0.0	0.71	0.0	 d = hs
0.0	0.0	8.82	2.94	23.53	8.82	0.0	0.0	23.53	0.0	0.0	0.0	11.76	2.94	0.0	2.94	2.94	5.88	0.0	0.0	2.94	0.0	2.94	0.0	0.0	0.0	0.0	 e = hg
0.0	0.11	3.2	0.17	0.06	85.12	0.66	0.0	3.53	0.28	0.0	0.0	0.61	0.0	0.0	0.77	2.64	0.94	0.06	0.11	0.77	0.72	0.0	0.28	0.0	0.0	0.0	 f = a
0.55	0.0	30.77	1.1	0.0	9.34	17.58	0.0	4.95	0.0	0.0	2.75	1.65	0.55	0.0	0.55	4.95	0.55	3.3	1.1	7.69	1.1	1.1	9.34	0.55	0.0	0.55	 g = c
0.0	0.0	2.44	0.0	0.0	12.2	0.0	43.9	9.76	0.0	0.0	0.0	7.32	0.0	2.44	2.44	9.76	3.66	0.0	0.0	1.22	1.22	3.66	0.0	0.0	0.0	0.0	 h = b
0.1	0.0	3.4	0.82	0.21	7.62	1.03	0.41	68.18	0.82	0.51	0.0	5.97	0.21	0.31	0.93	4.22	1.85	0.0	0.0	1.85	0.41	0.31	0.41	0.1	0.21	0.1	 i = e
0.0	0.0	3.95	1.13	0.0	20.9	0.0	1.13	11.86	26.55	0.56	0.0	0.56	0.0	0.56	1.69	16.95	9.04	0.0	0.0	0.0	2.26	1.69	0.56	0.0	0.56	0.0	 j = d
0.0	0.0	5.56	0.0	1.39	27.78	0.0	0.0	20.83	4.17	18.06	0.0	6.94	0.0	0.0	0.0	9.72	2.78	0.0	0.0	0.0	2.78	0.0	0.0	0.0	0.0	0.0	 k = g
1.28	0.0	16.67	2.56	0.0	3.85	6.41	0.0	6.41	0.0	0.0	17.95	0.0	0.0	0.0	0.0	2.56	3.85	0.0	1.28	28.21	7.69	0.0	1.28	0.0	0.0	0.0	 l = f
0.2	0.0	5.96	0.99	0.4	2.19	0.4	0.4	15.9	0.0	0.6	0.0	63.42	0.0	1.39	2.19	0.8	1.79	0.0	0.4	0.99	0.0	0.4	0.99	0.4	0.2	0.0	 m = i
0.0	0.0	16.67	7.58	0.0	15.15	1.52	0.0	9.09	1.52	0.0	3.03	0.0	27.27	1.52	0.0	0.0	1.52	0.0	0.0	13.64	0.0	1.52	0.0	0.0	0.0	0.0	 n = j
0.54	0.0	2.17	0.0	0.54	4.89	0.54	1.09	9.78	1.63	0.54	0.0	10.87	0.0	46.74	1.63	8.7	7.61	0.54	0.0	0.0	1.09	1.09	0.0	0.0	0.0	0.0	 o = m
0.9	0.45	3.59	1.35	0.45	13.45	0.0	1.79	13.9	0.45	0.45	0.0	8.52	0.45	1.35	34.08	8.07	4.04	0.0	0.0	1.35	1.35	1.79	0.0	0.9	1.35	0.0	 p = l
0.11	0.21	9.15	0.11	0.0	10.96	0.85	0.32	5.64	1.7	0.21	0.11	1.06	0.0	1.6	0.64	61.28	1.49	0.0	0.21	1.6	0.74	1.28	0.53	0.21	0.0	0.0	 q = o
0.0	0.0	4.36	0.23	0.46	7.11	0.46	0.0	13.99	2.75	0.0	0.0	2.98	0.0	2.06	1.61	4.13	54.82	0.0	0.23	2.29	0.92	0.46	0.92	0.23	0.0	0.0	 r = n
7.27	0.0	36.36	0.0	0.0	7.27	12.73	0.0	7.27	0.0	0.0	0.0	9.09	0.0	0.0	0.0	0.0	0.0	9.09	0.0	7.27	1.82	0.0	1.82	0.0	0.0	0.0	 s = q
0.0	0.0	38.35	0.75	0.0	8.27	5.26	0.0	4.51	0.0	0.0	3.76	2.26	0.75	0.75	0.75	6.02	3.01	0.0	10.53	5.26	1.5	1.5	6.77	0.0	0.0	0.0	 t = p
1.47	0.0	18.79	0.82	0.0	4.08	1.96	0.0	4.08	0.0	0.0	1.14	1.8	0.33	0.49	0.33	3.1	1.47	0.16	1.14	55.39	0.65	0.16	1.96	0.0	0.65	0.0	 u = s
0.32	0.0	11.69	0.65	0.0	27.27	0.65	1.62	9.42	2.27	0.0	0.65	3.9	0.65	0.65	2.27	9.42	2.92	0.0	0.65	3.25	17.86	0.65	1.3	0.97	0.65	0.32	 v = r
0.0	0.0	1.4	0.35	0.0	6.32	0.7	1.05	5.96	1.4	0.35	0.0	3.16	0.0	1.05	1.05	15.79	2.81	0.0	0.0	1.75	0.35	56.14	0.35	0.0	0.0	0.0	 w = u
0.0	0.0	38.03	0.85	0.0	8.12	9.83	0.0	4.7	2.14	0.0	0.85	2.14	0.0	0.0	0.0	4.7	2.99	0.43	1.71	5.56	1.28	0.43	16.24	0.0	0.0	0.0	 x = t
0.0	1.01	2.02	3.03	0.0	22.22	1.01	0.0	19.19	0.0	0.0	1.01	7.07	0.0	3.03	3.03	14.14	4.04	0.0	0.0	0.0	3.03	1.01	0.0	15.15	0.0	0.0	 y = v
0.0	0.0	3.13	0.0	0.0	7.81	0.0	0.0	12.5	4.69	0.0	0.0	7.81	0.0	0.0	1.56	4.69	4.69	0.0	0.0	21.88	1.56	3.13	0.0	0.0	26.56	0.0	 z = y
0.0	0.0	40.0	0.0	0.0	0.0	0.0	0.0	20.0	0.0	0.0	0.0	0.0	0.0	0.0	0.0	20.0	0.0	0.0	0.0	0.0	20.0	0.0	0.0	0.0	0.0	0.0	 aa = z
