Timestamp:2014-12-07-10:28:05
Inventario:I0
Intervalo:1ms
Ngramas:2
Clasificador:NaiveBayes
Relation Name:  I0-1ms-2gramas
Num Instances:  183403
Num Attributes: 21

     Name                      Type  Nom  Int Real     Missing      Unique  Dist
   1 0Int(dB)                   Num   0%   9%  91%     0 /  0%     4 /  0%   781 
   2 0Pitch(Hz)                 Num   0%  51%  49%     0 /  0%   256 /  0%  4213 
   3 0RawPitch                  Num   0%  55%  45%     0 /  0%   417 /  0%  4119 
   4 0SmPitch                   Num   0%  53%  47%     0 /  0%   263 /  0%  4193 
   5 0Melogram(st)              Num   0%  49%  51%     0 /  0%   133 /  0%  3454 
   6 0ZCross                    Num   0% 100%   0%     0 /  0%     4 /  0%    58 
   7 0F1(Hz)                    Num   0%  52%  48%     0 /  0%  1154 /  1%  4824 
   8 0F2(Hz)                    Num   0%  52%  48%     0 /  0%  2223 /  1%  6697 
   9 0F3(Hz)                    Num   0%  53%  47%     0 /  0%  1930 /  1%  6200 
  10 0F4(Hz)                    Num   0%  52%  48%     0 /  0%  1933 /  1%  6096 
  11 1Int(dB)                   Num   0%   9%  91%     0 /  0%     3 /  0%   781 
  12 1Pitch(Hz)                 Num   0%  51%  49%     0 /  0%   256 /  0%  4213 
  13 1RawPitch                  Num   0%  55%  45%     0 /  0%   417 /  0%  4119 
  14 1SmPitch                   Num   0%  53%  47%     0 /  0%   263 /  0%  4193 
  15 1Melogram(st)              Num   0%  49%  51%     0 /  0%   133 /  0%  3454 
  16 1ZCross                    Num   0% 100%   0%     0 /  0%     4 /  0%    58 
  17 1F1(Hz)                    Num   0%  52%  48%     0 /  0%  1154 /  1%  4824 
  18 1F2(Hz)                    Num   0%  52%  48%     0 /  0%  2223 /  1%  6697 
  19 1F3(Hz)                    Num   0%  53%  47%     0 /  0%  1930 /  1%  6200 
  20 1F4(Hz)                    Num   0%  52%  48%     0 /  0%  1933 /  1%  6096 
  21 class                      Nom 100%   0%   0%     0 /  0%     0 /  0%    27 


Naive Bayes Classifier

                    Class
Attribute              ch        rr         0        hs        hg         a         c         b         e         d         g         f         i         j         m         l         o         n         q         p         s         r         u         t         v         y         z
                      (0)       (0)    (0.39)    (0.01)       (0)    (0.14)    (0.01)    (0.01)    (0.07)    (0.01)    (0.01)    (0.01)    (0.04)    (0.01)    (0.01)    (0.02)    (0.07)    (0.03)       (0)    (0.01)    (0.05)    (0.02)    (0.02)    (0.02)    (0.01)       (0)       (0)
==============================================================================================================================================================================================================================================================================================
0Int(dB)
  mean            -19.2461   -11.137  -48.0905  -21.2263  -10.7936   -2.8369  -23.9747   -5.8726   -5.1597   -7.7263   -7.7014  -22.1756   -8.6607  -15.7973   -7.5452   -8.2279   -8.1449    -9.398  -21.6971  -22.3737  -21.7426  -11.8923   -5.0726  -24.8849   -9.1191  -16.3413  -26.8486
  std. dev.         8.1796    4.3722   16.3154   11.2739    6.3902    8.1342   10.0531    4.2886    8.0314    6.1746    7.9943    5.2897    8.3453    6.1002    5.9714     5.731   12.1979    7.7661   11.1815   10.6909      6.52    9.3872    7.5754   10.5207    6.5755    4.7539    1.9432
  weight sum           854       217     72116      1950       492     26115      2715      1196     13740      2617      1083      1160      7083       979      2613      3210     13234      6308       840      2005      8826      4148      4137      3409      1401       890        65
  precision         0.1037    0.1037    0.1037    0.1037    0.1037    0.1037    0.1037    0.1037    0.1037    0.1037    0.1037    0.1037    0.1037    0.1037    0.1037    0.1037    0.1037    0.1037    0.1037    0.1037    0.1037    0.1037    0.1037    0.1037    0.1037    0.1037    0.1037

0Pitch(Hz)
  mean             52.0668  245.4548   16.9607   79.2185  147.3103  226.6395   55.4702  216.1585   190.258  202.1991  211.8357   71.3211  173.0302   150.472  194.4694  174.6963  178.1206  189.1164   84.6126    80.036   42.5825  161.8374  229.3502   72.6725  178.4924  111.8035         0
  std. dev.       100.8809  122.3156    56.673   86.3447   39.4441  103.6004   99.0189   72.2735   87.8928   84.5042  101.9447  113.5143   76.4927   131.986   87.2682   64.1196   105.326   90.7617  116.2629  113.8479   86.4703   95.7751   84.2123  111.0321   71.9353   69.3897    0.0197
  weight sum           854       217     72116      1950       492     26115      2715      1196     13740      2617      1083      1160      7083       979      2613      3210     13234      6308       840      2005      8826      4148      4137      3409      1401       890        65
  precision         0.1184    0.1184    0.1184    0.1184    0.1184    0.1184    0.1184    0.1184    0.1184    0.1184    0.1184    0.1184    0.1184    0.1184    0.1184    0.1184    0.1184    0.1184    0.1184    0.1184    0.1184    0.1184    0.1184    0.1184    0.1184    0.1184    0.1184

0RawPitch
  mean             33.7924  235.9727   13.9201   61.1382  124.8483    217.01   38.0279  213.8557  185.5139   195.358  201.5101    33.977  165.4701   89.1819  183.2907  157.9993   172.363  175.0884   45.7874   62.1014   22.2867  154.9441  220.5579   47.8946  163.7864   76.0122         0
  std. dev.         83.892  132.6662   51.4519   83.3164   83.0866  110.1658   85.1904   75.9087   95.7233   95.4733  112.6818   75.6446   84.0796  112.0342   98.8447   79.5776  113.1234  104.5373    94.598  108.0571   64.9857  104.3173   92.9298   94.6875   84.8654   77.9953    0.0202
  weight sum           854       217     72116      1950       492     26115      2715      1196     13740      2617      1083      1160      7083       979      2613      3210     13234      6308       840      2005      8826      4148      4137      3409      1401       890        65
  precision         0.1214    0.1214    0.1214    0.1214    0.1214    0.1214    0.1214    0.1214    0.1214    0.1214    0.1214    0.1214    0.1214    0.1214    0.1214    0.1214    0.1214    0.1214    0.1214    0.1214    0.1214    0.1214    0.1214    0.1214    0.1214    0.1214    0.1214

0SmPitch
  mean             48.5925   245.456   15.3486   72.7123  149.4291  224.9616   47.6363  216.1584  188.8112   201.591  210.4603   53.8979  170.6319  107.1725  191.3387  172.7801  175.8934  186.0285   66.1833   70.8391   35.0362  158.8398  228.8462   62.7585  174.2832  106.6286         0
  std. dev.        97.7825    122.31   52.9674   83.2033   36.9317   105.126    94.459   72.2735   89.0812   85.6638  103.5242   95.1992   79.0959  136.7364   91.8633   66.5132   107.593   93.7073  107.9794  111.2508   80.0251   97.3601   84.5411  106.1799   76.8976   71.6849    0.0198
  weight sum           854       217     72116      1950       492     26115      2715      1196     13740      2617      1083      1160      7083       979      2613      3210     13234      6308       840      2005      8826      4148      4137      3409      1401       890        65
  precision          0.119     0.119     0.119     0.119     0.119     0.119     0.119     0.119     0.119     0.119     0.119     0.119     0.119     0.119     0.119     0.119     0.119     0.119     0.119     0.119     0.119     0.119     0.119     0.119     0.119     0.119     0.119

0Melogram(st)
  mean             14.3562   56.5592    4.9859   24.4577   49.4109   53.2506   14.7332   55.0479    50.379   53.0359   51.0783   19.3291   48.4716   14.7356   50.9466   51.0881   46.4586   49.5865    18.431   20.7372   11.5578    42.876     54.16   17.3439   50.7346   39.8539         0
  std. dev.        25.1102    9.0368   15.7045   25.0491    4.6372   14.6917   24.9554     7.995   15.5007   11.2662   17.9128   26.5935   16.2405    25.656   14.5906    9.8243   20.5573   17.0551   26.6943   27.3707     22.55   22.5422   14.0434   26.4609   11.3756   18.6194     0.004
  weight sum           854       217     72116      1950       492     26115      2715      1196     13740      2617      1083      1160      7083       979      2613      3210     13234      6308       840      2005      8826      4148      4137      3409      1401       890        65
  precision         0.0239    0.0239    0.0239    0.0239    0.0239    0.0239    0.0239    0.0239    0.0239    0.0239    0.0239    0.0239    0.0239    0.0239    0.0239    0.0239    0.0239    0.0239    0.0239    0.0239    0.0239    0.0239    0.0239    0.0239    0.0239    0.0239    0.0239

0ZCross
  mean              8.7575    3.5075    0.2635    0.9737    3.4187    7.8565    1.7503     4.174    5.2408     4.097    4.6029     0.614    3.7393    3.9195    2.8571    3.2977    4.3663    2.4622    4.3936    1.0592    3.7228    3.2131    4.0771    0.9441    3.2386    1.5446         0
  std. dev.        12.8748    2.7122    1.1594    1.7416    2.5423    4.5414    3.7194     1.952    3.3253    2.2657    2.8824    1.5338    3.2999    3.9677    1.5274    2.0313     3.087    1.6387    7.3581    2.2987     7.143    2.5871    2.9819    1.8242    1.9711    1.7332    0.1696
  weight sum           854       217     72116      1950       492     26115      2715      1196     13740      2617      1083      1160      7083       979      2613      3210     13234      6308       840      2005      8826      4148      4137      3409      1401       890        65
  precision         1.0175    1.0175    1.0175    1.0175    1.0175    1.0175    1.0175    1.0175    1.0175    1.0175    1.0175    1.0175    1.0175    1.0175    1.0175    1.0175    1.0175    1.0175    1.0175    1.0175    1.0175    1.0175    1.0175    1.0175    1.0175    1.0175    1.0175

0F1(Hz)
  mean            119.0453  610.2726   54.6945  369.3806  446.4562  709.9451   96.7676  479.7554  465.3474  517.5928  491.6485  253.7586  362.5437   441.169  431.7023  469.9812  485.0896  461.0344   178.976  225.3731  164.2283  481.0339  499.8715  115.8207  481.5242  336.4757         0
  std. dev.       245.7442  137.7957  167.7961  303.0257   85.8982  253.5114  210.0239  132.7483  144.1266  153.4125  194.5674  329.5646  142.9356  349.6979  163.1554  138.6687  226.1543  157.0684  245.3509  291.1141  273.7313  236.1936  306.7882  212.4052  168.6742  185.6772    0.0602
  weight sum           854       217     72116      1950       492     26115      2715      1196     13740      2617      1083      1160      7083       979      2613      3210     13234      6308       840      2005      8826      4148      4137      3409      1401       890        65
  precision         0.3611    0.3611    0.3611    0.3611    0.3611    0.3611    0.3611    0.3611    0.3611    0.3611    0.3611    0.3611    0.3611    0.3611    0.3611    0.3611    0.3611    0.3611    0.3611    0.3611    0.3611    0.3611    0.3611    0.3611    0.3611    0.3611    0.3611

0F2(Hz)
  mean            363.3411 1636.3383  171.3436 1063.8206  1931.421 1461.2516  282.0003 1573.1525 1793.0334 1484.0603 1681.1007  659.5127 1983.2786 1227.7023 1666.3384 1670.5036  1138.672 1591.5726  715.7657  669.0664  514.0321 1364.9711 1056.4734   386.335 1572.7594 1333.8093         0
  std. dev.       718.0845  126.4731  520.3646  852.4815  346.9034  392.1592  626.6308  343.7654  519.5885  323.8039  601.4811  834.9172  662.5587  915.4801  434.1956  336.0066  533.7441  459.9848  953.1633  835.8385  831.7399  623.7455  419.7581  690.7237  408.7214  675.8375    0.0741
  weight sum           854       217     72116      1950       492     26115      2715      1196     13740      2617      1083      1160      7083       979      2613      3210     13234      6308       840      2005      8826      4148      4137      3409      1401       890        65
  precision         0.4448    0.4448    0.4448    0.4448    0.4448    0.4448    0.4448    0.4448    0.4448    0.4448    0.4448    0.4448    0.4448    0.4448    0.4448    0.4448    0.4448    0.4448    0.4448    0.4448    0.4448    0.4448    0.4448    0.4448    0.4448    0.4448    0.4448

0F3(Hz)
  mean             595.774 2865.8116  292.1061 1739.1394 2524.0898 2725.9366  517.9505  2753.747 2628.2257 2867.5444 2884.2338 1123.9679 2665.7831 1814.2908 2747.6651 2815.5603 2500.7441 2750.3101 1069.9283 1140.4886  852.9205 2371.5583 2684.8467  693.5855 2675.9477 2289.2198         0
  std. dev.      1176.7261  419.8192  872.1776 1334.9066  113.2976  723.2634 1111.8204   469.172  775.3306  510.3194  947.4571 1418.2106  914.1503 1340.7453  563.3729  577.1912 1023.7463  685.7233 1389.9209 1411.2331 1365.0692 1090.3764  768.1272 1228.7623  664.5544 1174.1718    0.1108
  weight sum           854       217     72116      1950       492     26115      2715      1196     13740      2617      1083      1160      7083       979      2613      3210     13234      6308       840      2005      8826      4148      4137      3409      1401       890        65
  precision         0.6646    0.6646    0.6646    0.6646    0.6646    0.6646    0.6646    0.6646    0.6646    0.6646    0.6646    0.6646    0.6646    0.6646    0.6646    0.6646    0.6646    0.6646    0.6646    0.6646    0.6646    0.6646    0.6646    0.6646    0.6646    0.6646    0.6646

0F4(Hz)
  mean            712.8288 3235.4824  351.1243 2164.6724 3589.9691 3138.0998  603.2762 3298.5717  3165.364 3320.3356 2926.4358 1293.2555 3167.5238 2274.7614 3313.8921 3239.2282 2876.6923 3158.6565 1293.1596 1364.3293  965.4569 2743.8027 3077.7233  800.1838 3245.6604 2659.1608         0
  std. dev.      1407.7589  401.8328 1045.9711 1648.4189   89.6674  819.8326 1296.4012  440.2602  898.8907  558.3815  963.4929 1621.7347 1043.4405 1669.5538  608.9784  581.4997 1160.0433  792.4391 1690.6904 1666.4146 1543.1362 1209.1445  781.3188  1422.858  688.8197 1353.5672    0.1134
  weight sum           854       217     72116      1950       492     26115      2715      1196     13740      2617      1083      1160      7083       979      2613      3210     13234      6308       840      2005      8826      4148      4137      3409      1401       890        65
  precision         0.6804    0.6804    0.6804    0.6804    0.6804    0.6804    0.6804    0.6804    0.6804    0.6804    0.6804    0.6804    0.6804    0.6804    0.6804    0.6804    0.6804    0.6804    0.6804    0.6804    0.6804    0.6804    0.6804    0.6804    0.6804    0.6804    0.6804

1Int(dB)
  mean            -19.0693  -11.1929   -48.118  -21.4539  -10.6857   -2.8485  -23.5795   -5.8343   -5.1788   -7.6697   -7.7106  -22.2242    -8.647  -15.8035   -7.5286   -8.2156   -8.1757    -9.481  -21.3191  -22.0995   -21.795  -11.9049   -5.0188  -24.4128   -9.0381  -16.3031  -26.8422
  std. dev.          8.129    4.3665   16.2752   11.2925    6.4451    8.1159    10.105    4.2962    8.0296    6.1925    7.9841    5.2537    8.3528    6.1174    5.9642     5.786   12.2243    7.8348   11.1005   10.7676    6.5211    9.4638    7.4803   10.7318    6.4921    4.7228    1.9264
  weight sum           854       217     72116      1950       492     26115      2715      1196     13740      2617      1083      1160      7083       979      2613      3210     13234      6308       840      2005      8826      4148      4137      3409      1401       890        65
  precision         0.1037    0.1037    0.1037    0.1037    0.1037    0.1037    0.1037    0.1037    0.1037    0.1037    0.1037    0.1037    0.1037    0.1037    0.1037    0.1037    0.1037    0.1037    0.1037    0.1037    0.1037    0.1037    0.1037    0.1037    0.1037    0.1037    0.1037

1Pitch(Hz)
  mean             53.6149  245.5105   16.7877   77.8783  147.6037  226.6268   58.8245  216.1852  190.4015  202.1811  211.7569   70.3188  173.2101  150.1202  194.5754  174.6634  177.8211  188.6283   86.5438   81.2312   41.8358  161.9416  229.5826   75.8013  178.8654  111.8696         0
  std. dev.       101.8479  122.5449   56.4051   86.0819   39.7611  103.5824  101.3106   72.1796   87.7758    84.529   102.216  113.1138   76.2773  131.8831   87.2898   64.1077  105.3227   91.1347  117.3053  113.6613     85.96   95.8855   83.7347  112.3277   71.5113   69.4017    0.0197
  weight sum           854       217     72116      1950       492     26115      2715      1196     13740      2617      1083      1160      7083       979      2613      3210     13234      6308       840      2005      8826      4148      4137      3409      1401       890        65
  precision         0.1184    0.1184    0.1184    0.1184    0.1184    0.1184    0.1184    0.1184    0.1184    0.1184    0.1184    0.1184    0.1184    0.1184    0.1184    0.1184    0.1184    0.1184    0.1184    0.1184    0.1184    0.1184    0.1184    0.1184    0.1184    0.1184    0.1184

1RawPitch
  mean             34.6937  235.8698   13.7655   59.8825  125.1561  217.0254   40.9928  213.8567  185.6605  195.1733  201.5228   32.8638  165.7379   88.7789  183.3567  157.9095  172.1393  174.5068   47.7808   63.4782   21.4572  154.7487  220.7885   51.0815  164.1606   76.6678         0
  std. dev.         84.628  133.0649   51.2112   82.7749   82.8749  110.1492   88.2877   75.8797   95.6276   95.4762  112.8537   74.3015   83.9735   111.652   98.9332   79.7395  113.0491  104.8628   96.5154  108.1378   63.8258  104.4982   92.5273   96.7696   84.2928   78.1874    0.0202
  weight sum           854       217     72116      1950       492     26115      2715      1196     13740      2617      1083      1160      7083       979      2613      3210     13234      6308       840      2005      8826      4148      4137      3409      1401       890        65
  precision         0.1214    0.1214    0.1214    0.1214    0.1214    0.1214    0.1214    0.1214    0.1214    0.1214    0.1214    0.1214    0.1214    0.1214    0.1214    0.1214    0.1214    0.1214    0.1214    0.1214    0.1214    0.1214    0.1214    0.1214    0.1214    0.1214    0.1214

1SmPitch
  mean             49.6608  245.5113   15.1793   71.3735  149.7231  224.9976   50.8815   216.185  189.0092  201.6147  210.5612   52.8846  170.7795  106.8215  191.3175  172.6418  175.6214  185.4113   67.7951   72.1021   34.2779   158.903  229.0387   65.8327  174.8258  106.6879         0
  std. dev.        98.5681  122.5397   52.6861   82.8258    37.254  105.0568   97.0589   72.1793   88.9353     85.61  103.5941   94.5125    78.963  136.5236   92.0664   66.6408  107.5646   94.1494   109.231  111.1535   79.3177   97.5018   84.1352  107.7671   76.3484    71.702    0.0198
  weight sum           854       217     72116      1950       492     26115      2715      1196     13740      2617      1083      1160      7083       979      2613      3210     13234      6308       840      2005      8826      4148      4137      3409      1401       890        65
  precision          0.119     0.119     0.119     0.119     0.119     0.119     0.119     0.119     0.119     0.119     0.119     0.119     0.119     0.119     0.119     0.119     0.119     0.119     0.119     0.119     0.119     0.119     0.119     0.119     0.119     0.119     0.119

1Melogram(st)
  mean             14.6917   56.5513    4.9362    24.089   49.4391   53.2675   15.3806   55.0532   50.4242   53.0658   51.0349   19.1087   48.5268    14.765   50.9591   51.0681   46.3993   49.4588    18.914   21.0764   11.3511   42.8927   54.2789   18.1163   50.8281   39.8644         0
  std. dev.        25.2998     9.055   15.6358    25.022    4.6578   14.6493   25.3248    7.9909   15.4261   11.1774   17.9822    26.534   16.1496   25.7022   14.5933    9.8647   20.5969   17.2205   26.8841   27.4078   22.4179   22.5367   13.7888    26.768    11.212   18.6232     0.004
  weight sum           854       217     72116      1950       492     26115      2715      1196     13740      2617      1083      1160      7083       979      2613      3210     13234      6308       840      2005      8826      4148      4137      3409      1401       890        65
  precision         0.0239    0.0239    0.0239    0.0239    0.0239    0.0239    0.0239    0.0239    0.0239    0.0239    0.0239    0.0239    0.0239    0.0239    0.0239    0.0239    0.0239    0.0239    0.0239    0.0239    0.0239    0.0239    0.0239    0.0239    0.0239    0.0239    0.0239

1ZCross
  mean              8.7945    3.5215    0.2613    0.9554     3.458    7.8466    1.7978    4.2072    5.2275    4.1262     4.602       0.6    3.7468    3.9112    2.8599    3.3005    4.3624    2.4508    4.4154    1.1013    3.7182    3.2182    4.0827    1.0268    3.2545     1.556         0
  std. dev.        12.8628    2.7177     1.158    1.7326    2.5541    4.5485    3.7224    1.9666     3.329    2.2672    2.8724    1.5154    3.3104    3.9682    1.5248    2.0175    3.0942    1.6439    7.3309    2.3038    7.1446    2.5912    2.9766    1.8967    1.9703    1.7331    0.1696
  weight sum           854       217     72116      1950       492     26115      2715      1196     13740      2617      1083      1160      7083       979      2613      3210     13234      6308       840      2005      8826      4148      4137      3409      1401       890        65
  precision         1.0175    1.0175    1.0175    1.0175    1.0175    1.0175    1.0175    1.0175    1.0175    1.0175    1.0175    1.0175    1.0175    1.0175    1.0175    1.0175    1.0175    1.0175    1.0175    1.0175    1.0175    1.0175    1.0175    1.0175    1.0175    1.0175    1.0175

1F1(Hz)
  mean            117.8655  612.1148   54.1445  364.7313  446.6639  711.8181   100.516  480.1591   466.604  518.0523  491.6499  248.3937  363.6076  439.5832  431.5642  469.5534   485.985  458.9035  179.8985  225.7231  159.6277  480.1411  501.0702  119.4161  481.9773  336.1847         0
  std. dev.       244.1103  138.3056  166.9999  304.0067   86.6805  251.6267  212.9908  132.6334  142.2478   153.457  194.3911  328.0324  141.3453  351.0043  162.7076    137.64  225.6523   157.255  245.7108  290.3141  271.0649  235.7298  305.5336   215.237  167.0079  185.3977    0.0602
  weight sum           854       217     72116      1950       492     26115      2715      1196     13740      2617      1083      1160      7083       979      2613      3210     13234      6308       840      2005      8826      4148      4137      3409      1401       890        65
  precision         0.3611    0.3611    0.3611    0.3611    0.3611    0.3611    0.3611    0.3611    0.3611    0.3611    0.3611    0.3611    0.3611    0.3611    0.3611    0.3611    0.3611    0.3611    0.3611    0.3611    0.3611    0.3611    0.3611    0.3611    0.3611    0.3611    0.3611

1F2(Hz)
  mean            361.5815 1632.7549  169.6332 1050.2838   1928.94 1463.7337  292.1848 1572.4123 1799.2434 1484.1145 1680.0266  647.0877 1992.3968 1218.1002 1667.4462 1671.0258  1138.609 1588.9417  717.5218  670.0462  500.4451 1365.5147 1060.1575  397.8192 1578.5615 1335.0998         0
  std. dev.       717.1972  125.4212  518.0359    855.01    347.64  387.1874  634.0404  343.7643  511.5475  324.8835  601.5161  832.3474  653.6523  916.7891  430.8522  332.5965   531.629  462.6799  952.7368  833.8404  825.0266   624.257  414.9703  699.3765  400.9497  676.4383    0.0741
  weight sum           854       217     72116      1950       492     26115      2715      1196     13740      2617      1083      1160      7083       979      2613      3210     13234      6308       840      2005      8826      4148      4137      3409      1401       890        65
  precision         0.4448    0.4448    0.4448    0.4448    0.4448    0.4448    0.4448    0.4448    0.4448    0.4448    0.4448    0.4448    0.4448    0.4448    0.4448    0.4448    0.4448    0.4448    0.4448    0.4448    0.4448    0.4448    0.4448    0.4448    0.4448    0.4448    0.4448

1F3(Hz)
  mean            589.9024 2866.2771  289.1592 1716.7103 2523.2929 2730.9563  537.8201  2752.944 2635.6414 2867.2678 2884.1098 1100.9472 2676.2267  1801.929 2747.9045 2818.5543 2503.6829 2746.2749 1072.4324 1143.8554  830.1185 2371.4578 2694.2989  711.3029 2683.8208 2289.1003         0
  std. dev.      1169.2259  422.0667  868.2153 1340.5272   112.982  714.7452 1126.9157  469.4092   764.297   513.436  947.3313  1411.711   902.456 1343.1512  558.3353  573.6833 1021.0061  692.0989 1389.6731 1409.7328  1353.937 1090.8183   752.613 1239.5025   650.406 1173.9484    0.1108
  weight sum           854       217     72116      1950       492     26115      2715      1196     13740      2617      1083      1160      7083       979      2613      3210     13234      6308       840      2005      8826      4148      4137      3409      1401       890        65
  precision         0.6646    0.6646    0.6646    0.6646    0.6646    0.6646    0.6646    0.6646    0.6646    0.6646    0.6646    0.6646    0.6646    0.6646    0.6646    0.6646    0.6646    0.6646    0.6646    0.6646    0.6646    0.6646    0.6646    0.6646    0.6646    0.6646    0.6646

1F4(Hz)
  mean             710.116 3233.7736  347.6697 2137.2442 3590.2388 3143.4133  629.0302 3298.0831 3173.7603 3319.2569 2927.2908 1268.4229 3178.8998 2261.4489 3315.7815 3241.7085 2879.5448 3154.4825 1295.6998 1371.0518   940.078 2743.4389 3088.1777  821.7414 3255.3058  2659.368         0
  std. dev.      1407.1215  399.6776 1041.4713 1655.9273   89.1474   809.765  1318.959  439.8976  884.9534   561.953  964.0065 1616.5143 1028.8621  1674.423  602.4578  576.0183 1156.4562  800.5068 1689.4794 1667.7138 1531.2204 1210.0756  760.6201 1437.2095  667.0532 1353.8047    0.1134
  weight sum           854       217     72116      1950       492     26115      2715      1196     13740      2617      1083      1160      7083       979      2613      3210     13234      6308       840      2005      8826      4148      4137      3409      1401       890        65
  precision         0.6804    0.6804    0.6804    0.6804    0.6804    0.6804    0.6804    0.6804    0.6804    0.6804    0.6804    0.6804    0.6804    0.6804    0.6804    0.6804    0.6804    0.6804    0.6804    0.6804    0.6804    0.6804    0.6804    0.6804    0.6804    0.6804    0.6804





=== Stratified cross-validation ===

Correctly Classified Instances       59022               32.1816 %
Incorrectly Classified Instances    124381               67.8184 %
Kappa statistic                          0.2418
K&B Relative Info Score            3777613.8542 %
K&B Information Score               124051.0729 bits      0.6764 bits/instance
Class complexity | order 0          602181.4289 bits      3.2834 bits/instance
Class complexity | scheme          6594778.0351 bits     35.9579 bits/instance
Complexity improvement     (Sf)    -5992596.6062 bits    -32.6745 bits/instance
Mean absolute error                      0.0508
Root mean squared error                  0.2072
Relative absolute error                 85.0284 %
Root relative squared error            119.8955 %
Coverage of cases (0.95 level)          43.4638 %
Mean rel. region size (0.95 level)       8.5432 %
Total Number of Instances           183403     


=== Detailed Accuracy By Class ===

                 TP Rate  FP Rate  Precision  Recall   F-Measure  MCC      ROC Area  PRC Area  Class
                 0,186    0,003    0,245      0,186    0,212      0,211    0,616     0,103     ch
                 0,276    0,010    0,032      0,276    0,057      0,090    0,899     0,053     rr
                 0,509    0,016    0,955      0,509    0,664      0,592    0,886     0,872     0
                 0,124    0,023    0,054      0,124    0,075      0,067    0,610     0,036     hs
                 0,925    0,126    0,019      0,925    0,038      0,124    0,953     0,109     hg
                 0,544    0,050    0,645      0,544    0,590      0,531    0,889     0,634     a
                 0,026    0,004    0,090      0,026    0,041      0,041    0,451     0,043     c
                 0,306    0,095    0,021      0,306    0,039      0,057    0,828     0,024     b
                 0,104    0,010    0,463      0,104    0,169      0,193    0,768     0,240     e
                 0,033    0,010    0,047      0,033    0,039      0,028    0,784     0,038     d
                 0,008    0,001    0,057      0,008    0,015      0,020    0,752     0,023     g
                 0,006    0,001    0,040      0,006    0,010      0,013    0,465     0,015     f
                 0,083    0,002    0,585      0,083    0,145      0,211    0,842     0,315     i
                 0,156    0,002    0,252      0,156    0,193      0,195    0,721     0,119     j
                 0,001    0,003    0,005      0,001    0,002      -0,004   0,803     0,039     m
                 0,344    0,060    0,093      0,344    0,147      0,152    0,840     0,076     l
                 0,006    0,003    0,139      0,006    0,012      0,015    0,753     0,180     o
                 0,025    0,013    0,066      0,025    0,037      0,020    0,783     0,080     n
                 0,018    0,001    0,099      0,018    0,030      0,040    0,609     0,023     q
                 0,007    0,001    0,099      0,007    0,014      0,024    0,485     0,024     p
                 0,160    0,004    0,678      0,160    0,259      0,315    0,546     0,260     s
                 0,011    0,004    0,065      0,011    0,019      0,018    0,690     0,043     r
                 0,278    0,004    0,616      0,278    0,384      0,406    0,867     0,350     u
                 0,098    0,010    0,163      0,098    0,123      0,114    0,466     0,059     t
                 0,000    0,001    0,000      0,000    0,000      -0,003   0,767     0,016     v
                 0,143    0,016    0,042      0,143    0,065      0,069    0,838     0,029     y
                 1,000    0,226    0,002      1,000    0,003      0,035    0,918     0,002     z
Weighted Avg.    0,322    0,018    0,597      0,322    0,397      0,368    0,808     0,507     


=== Confusion Matrix ===

     a     b     c     d     e     f     g     h     i     j     k     l     m     n     o     p     q     r     s     t     u     v     w     x     y     z    aa   <-- classified as
   159    20    61     7    30    21     6    20     2     1     0     2     0     5     0    17     1    24     2     0   152     2     0    28     0     1   293 |     a = ch
     0    60     0     0    97    24     0    10     0     7     0     0     0     0     0     7     0     0     0     0     0     0     0     0     0    12     0 |     b = rr
     2   194 36692  1029  1832   343    69  1000    80   231     0    35   110    23    69  1123    71   538     1    18    55    90    60   320    16   518 27597 |     c = 0
     0    12    59   241   508    59     1    90     4    20     0     8     6    10     0   121     1    17     0     0    20    29     0     0     8   101   635 |     d = hs
     0     1     0     0   455     3     0    19     0     6     0     0     0     0     0     6     0     2     0     0     0     0     0     0     0     0     0 |     e = hg
     6   325   183   257  3460 14194   112  3337   180   729     0    14    25    88     1  1671   168    80    42    14    21   157     3   136    39   232   641 |     f = a
    67     0   175   119    93     3    71    73    11    16     0     9     4    22     0    47    25    61    11    14   172    21    16   251     0    17  1417 |     g = c
     0    50     0     0   333   129     0   366    31     0     2     0     0     0     0   230     0     3     0     0     0     8    41     0     0     3     0 |     h = b
     0   155    30   277  5103  1794    86  2554  1425    31    45     2    36    45    49  1061    74   158     9    21     5    33     8   132     0   115   492 |     i = e
     0    95    18    33   724   344     0   854    43    86     0     1     0     0     3   328     0     3     0     0     1    12     0     0     0    54    18 |     j = d
     0    32     2    27   268   192     0   226    36     6     9     3    48     0    29   112     0    17     0     0     1     1     0     8     0     0    66 |     k = g
     0    36    24   118    72    32     6    43     5     1     0     7     0     5     0    22     9    39     0     0     9    16     0    62     9    40   605 |     l = f
     0     6    37   151  1654   361    61   968   810     0    35     2   588    13   280  1169    24    30     3     7     8    18     0   148     0   383   327 |     m = i
     2    12    60    76    51   114     8    40    10     1     0     4     0   153    18     0    39    59    10     0     7    55     0    24     0    22   214 |     n = j
     0    26     1   101   998   189     0   648     0    23     0     1     0     0     3   420     0    12     0     0     0     1    99    11     0    41    39 |     o = m
     0    63     2    39  1056   185     5   544    28     3     0     1     0     0     6  1105     2    33     0     3     0     4     0    35     0    77    19 |     p = l
     0   165    37   399  2176  2327    53  3099   168   395     0     8     0    13    11  1430    82   305    24    27     6    31   435    65    66   499  1413 |     q = o
     0   209     2   297  1821   407     0  1674    63    41    29     3    90     4     5   975     2   160     0     0     6    12    42     7     0   209   250 |     r = n
    53     0    50    38    68    21    11    33     9    14     0     2     5    25     3     9     4    53    15     2   102     1     0    24     0    15   283 |     s = q
     0    33    81   160   137    67    57    41     2    20     0    12     0     6     1   140    19    85     5    15     9    50     0    78     0    54   933 |     t = p
   358   161   653   580   228   174    38    31    49    55     2    31    65   141    25   262    24   320    17     1  1411    67     0   161     2   166  3804 |     u = s
     0   146    53   227   827   360    24   657    74    62    35     9    24     4     3   759     4   172     0     4     6    46    13    75    20    81   463 |     v = r
     0    29    11    39   308   559    20  1044     8    49     0     1     0     8    10   519    17    30     0     7     1    12  1152    87     5   170    51 |     w = u
     1    72   176   183   116    18   159   103     0    15     0    20     4    43     7    43    23   181    12    11    58    26     0   335     0    37  1766 |     x = t
     0     0     4    13   714   100     0   240    40     1     0     0     0     0    28   158     0    14     0     1     0    10     0    27     0    38    13 |     y = v
     0     0    22    27   348     0     0    46     0     2     0     1     0     0     9   132     0    22     0     6    31     1     0    42     0   127    74 |     z = y
     0     0     0     0     0     0     0     0     0     0     0     0     0     0     0     0     0     0     0     0     0     0     0     0     0     0    65 |    aa = z

=== Percent Confusion Matrix ===
a	b	c	d	e	f	g	h	i	j	k	l	m	n	o	p	q	r	s	t	u	v	w	x	y	z	aa	
18.62	2.34	7.14	0.82	3.51	2.46	0.7	2.34	0.23	0.12	0.0	0.23	0.0	0.59	0.0	1.99	0.12	2.81	0.23	0.0	17.8	0.23	0.0	3.28	0.0	0.12	34.31	 a = ch
0.0	27.65	0.0	0.0	44.7	11.06	0.0	4.61	0.0	3.23	0.0	0.0	0.0	0.0	0.0	3.23	0.0	0.0	0.0	0.0	0.0	0.0	0.0	0.0	0.0	5.53	0.0	 b = rr
0.0	0.27	50.88	1.43	2.54	0.48	0.1	1.39	0.11	0.32	0.0	0.05	0.15	0.03	0.1	1.56	0.1	0.75	0.0	0.02	0.08	0.12	0.08	0.44	0.02	0.72	38.27	 c = 0
0.0	0.62	3.03	12.36	26.05	3.03	0.05	4.62	0.21	1.03	0.0	0.41	0.31	0.51	0.0	6.21	0.05	0.87	0.0	0.0	1.03	1.49	0.0	0.0	0.41	5.18	32.56	 d = hs
0.0	0.2	0.0	0.0	92.48	0.61	0.0	3.86	0.0	1.22	0.0	0.0	0.0	0.0	0.0	1.22	0.0	0.41	0.0	0.0	0.0	0.0	0.0	0.0	0.0	0.0	0.0	 e = hg
0.02	1.24	0.7	0.98	13.25	54.35	0.43	12.78	0.69	2.79	0.0	0.05	0.1	0.34	0.0	6.4	0.64	0.31	0.16	0.05	0.08	0.6	0.01	0.52	0.15	0.89	2.45	 f = a
2.47	0.0	6.45	4.38	3.43	0.11	2.62	2.69	0.41	0.59	0.0	0.33	0.15	0.81	0.0	1.73	0.92	2.25	0.41	0.52	6.34	0.77	0.59	9.24	0.0	0.63	52.19	 g = c
0.0	4.18	0.0	0.0	27.84	10.79	0.0	30.6	2.59	0.0	0.17	0.0	0.0	0.0	0.0	19.23	0.0	0.25	0.0	0.0	0.0	0.67	3.43	0.0	0.0	0.25	0.0	 h = b
0.0	1.13	0.22	2.02	37.14	13.06	0.63	18.59	10.37	0.23	0.33	0.01	0.26	0.33	0.36	7.72	0.54	1.15	0.07	0.15	0.04	0.24	0.06	0.96	0.0	0.84	3.58	 i = e
0.0	3.63	0.69	1.26	27.67	13.14	0.0	32.63	1.64	3.29	0.0	0.04	0.0	0.0	0.11	12.53	0.0	0.11	0.0	0.0	0.04	0.46	0.0	0.0	0.0	2.06	0.69	 j = d
0.0	2.95	0.18	2.49	24.75	17.73	0.0	20.87	3.32	0.55	0.83	0.28	4.43	0.0	2.68	10.34	0.0	1.57	0.0	0.0	0.09	0.09	0.0	0.74	0.0	0.0	6.09	 k = g
0.0	3.1	2.07	10.17	6.21	2.76	0.52	3.71	0.43	0.09	0.0	0.6	0.0	0.43	0.0	1.9	0.78	3.36	0.0	0.0	0.78	1.38	0.0	5.34	0.78	3.45	52.16	 l = f
0.0	0.08	0.52	2.13	23.35	5.1	0.86	13.67	11.44	0.0	0.49	0.03	8.3	0.18	3.95	16.5	0.34	0.42	0.04	0.1	0.11	0.25	0.0	2.09	0.0	5.41	4.62	 m = i
0.2	1.23	6.13	7.76	5.21	11.64	0.82	4.09	1.02	0.1	0.0	0.41	0.0	15.63	1.84	0.0	3.98	6.03	1.02	0.0	0.72	5.62	0.0	2.45	0.0	2.25	21.86	 n = j
0.0	1.0	0.04	3.87	38.19	7.23	0.0	24.8	0.0	0.88	0.0	0.04	0.0	0.0	0.11	16.07	0.0	0.46	0.0	0.0	0.0	0.04	3.79	0.42	0.0	1.57	1.49	 o = m
0.0	1.96	0.06	1.21	32.9	5.76	0.16	16.95	0.87	0.09	0.0	0.03	0.0	0.0	0.19	34.42	0.06	1.03	0.0	0.09	0.0	0.12	0.0	1.09	0.0	2.4	0.59	 p = l
0.0	1.25	0.28	3.01	16.44	17.58	0.4	23.42	1.27	2.98	0.0	0.06	0.0	0.1	0.08	10.81	0.62	2.3	0.18	0.2	0.05	0.23	3.29	0.49	0.5	3.77	10.68	 q = o
0.0	3.31	0.03	4.71	28.87	6.45	0.0	26.54	1.0	0.65	0.46	0.05	1.43	0.06	0.08	15.46	0.03	2.54	0.0	0.0	0.1	0.19	0.67	0.11	0.0	3.31	3.96	 r = n
6.31	0.0	5.95	4.52	8.1	2.5	1.31	3.93	1.07	1.67	0.0	0.24	0.6	2.98	0.36	1.07	0.48	6.31	1.79	0.24	12.14	0.12	0.0	2.86	0.0	1.79	33.69	 s = q
0.0	1.65	4.04	7.98	6.83	3.34	2.84	2.04	0.1	1.0	0.0	0.6	0.0	0.3	0.05	6.98	0.95	4.24	0.25	0.75	0.45	2.49	0.0	3.89	0.0	2.69	46.53	 t = p
4.06	1.82	7.4	6.57	2.58	1.97	0.43	0.35	0.56	0.62	0.02	0.35	0.74	1.6	0.28	2.97	0.27	3.63	0.19	0.01	15.99	0.76	0.0	1.82	0.02	1.88	43.1	 u = s
0.0	3.52	1.28	5.47	19.94	8.68	0.58	15.84	1.78	1.49	0.84	0.22	0.58	0.1	0.07	18.3	0.1	4.15	0.0	0.1	0.14	1.11	0.31	1.81	0.48	1.95	11.16	 v = r
0.0	0.7	0.27	0.94	7.45	13.51	0.48	25.24	0.19	1.18	0.0	0.02	0.0	0.19	0.24	12.55	0.41	0.73	0.0	0.17	0.02	0.29	27.85	2.1	0.12	4.11	1.23	 w = u
0.03	2.11	5.16	5.37	3.4	0.53	4.66	3.02	0.0	0.44	0.0	0.59	0.12	1.26	0.21	1.26	0.67	5.31	0.35	0.32	1.7	0.76	0.0	9.83	0.0	1.09	51.8	 x = t
0.0	0.0	0.29	0.93	50.96	7.14	0.0	17.13	2.86	0.07	0.0	0.0	0.0	0.0	2.0	11.28	0.0	1.0	0.0	0.07	0.0	0.71	0.0	1.93	0.0	2.71	0.93	 y = v
0.0	0.0	2.47	3.03	39.1	0.0	0.0	5.17	0.0	0.22	0.0	0.11	0.0	0.0	1.01	14.83	0.0	2.47	0.0	0.67	3.48	0.11	0.0	4.72	0.0	14.27	8.31	 z = y
0.0	0.0	0.0	0.0	0.0	0.0	0.0	0.0	0.0	0.0	0.0	0.0	0.0	0.0	0.0	0.0	0.0	0.0	0.0	0.0	0.0	0.0	0.0	0.0	0.0	0.0	100.0	 aa = z
