Timestamp:2013-08-30-03:53:19
Inventario:I0
Intervalo:10ms
Ngramas:1
Clasificador:BayesNet
Relation Name:  I0-10ms-1gramas
Num Instances:  18296
Num Attributes: 11

     Name                      Type  Nom  Int Real     Missing      Unique  Dist
   1 0Int(dB)                   Num   0%  10%  90%     0 /  0%     7 /  0%   772 
   2 0Pitch(Hz)                 Num   0%  51%  49%     0 /  0%   817 /  4%  3064 
   3 0RawPitch                  Num   0%  54%  46%     0 /  0%   854 /  5%  2956 
   4 0SmPitch                   Num   0%  52%  48%     0 /  0%   828 /  5%  3025 
   5 0Melogram(st)              Num   0%  47%  53%     0 /  0%   582 /  3%  2808 
   6 0ZCross                    Num   0% 100%   0%     0 /  0%    10 /  0%    42 
   7 0F1(Hz)                    Num   0%  51%  49%     0 /  0%  2131 / 12%  4724 
   8 0F2(Hz)                    Num   0%  51%  49%     0 /  0%  4210 / 23%  6615 
   9 0F3(Hz)                    Num   0%  51%  49%     0 /  0%  3688 / 20%  6145 
  10 0F4(Hz)                    Num   0%  51%  49%     0 /  0%  3689 / 20%  6054 
  11 class                      Nom 100%   0%   0%     0 /  0%     0 /  0%    27 


Options: -D -Q weka.classifiers.bayes.net.search.local.K2 -- -P 1 -S BAYES -E weka.classifiers.bayes.net.estimate.SimpleEstimator -- -A 0.5 

Bayes Network Classifier
not using ADTree
#attributes=11 #classindex=10
Network structure (nodes followed by parents)
0Int(dB)(9): class 
0Pitch(Hz)(5): class 
0RawPitch(4): class 
0SmPitch(4): class 
0Melogram(st)(8): class 
0ZCross(10): class 
0F1(Hz)(15): class 
0F2(Hz)(10): class 
0F3(Hz)(8): class 
0F4(Hz)(7): class 
class(27): 
LogScore Bayes: -226539.2925392186
LogScore BDeu: -236861.1605549474
LogScore MDL: -235623.1423432108
LogScore ENTROPY: -226220.91099240776
LogScore AIC: -228136.91099240776




=== Stratified cross-validation ===

Correctly Classified Instances       10711               58.5429 %
Incorrectly Classified Instances      7585               41.4571 %
Kappa statistic                          0.4838
K&B Relative Info Score             856142.1899 %
K&B Information Score                28705.3474 bits      1.5689 bits/instance
Class complexity | order 0           61258.8315 bits      3.3482 bits/instance
Class complexity | scheme            70307.9427 bits      3.8428 bits/instance
Complexity improvement     (Sf)      -9049.1113 bits     -0.4946 bits/instance
Mean absolute error                      0.0337
Root mean squared error                  0.1458
Relative absolute error                 55.4486 %
Root relative squared error             83.6275 %
Coverage of cases (0.95 level)          81.7501 %
Mean rel. region size (0.95 level)      14.3865 %
Total Number of Instances            18296     


=== Detailed Accuracy By Class ===

                 TP Rate  FP Rate  Precision  Recall   F-Measure  MCC      ROC Area  PRC Area  Class
                 0,068    0,001    0,182      0,068    0,099      0,109    0,880     0,115     ch
                 0,000    0,000    0,000      0,000    0,000      -0,001   0,858     0,006     rr
                 0,923    0,117    0,824      0,923    0,870      0,790    0,968     0,959     0
                 0,160    0,016    0,101      0,160    0,124      0,115    0,801     0,072     hs
                 0,300    0,008    0,093      0,300    0,142      0,163    0,948     0,072     hg
                 0,740    0,075    0,629      0,740    0,680      0,622    0,931     0,769     a
                 0,004    0,001    0,043      0,004    0,007      0,008    0,862     0,091     c
                 0,034    0,002    0,108      0,034    0,051      0,057    0,894     0,049     b
                 0,522    0,051    0,466      0,522    0,492      0,447    0,899     0,500     e
                 0,117    0,008    0,177      0,117    0,141      0,133    0,857     0,114     d
                 0,037    0,008    0,027      0,037    0,031      0,025    0,844     0,031     g
                 0,042    0,002    0,125      0,042    0,063      0,069    0,883     0,067     f
                 0,527    0,025    0,473      0,527    0,498      0,477    0,926     0,494     i
                 0,129    0,001    0,433      0,129    0,198      0,234    0,882     0,173     j
                 0,121    0,007    0,209      0,121    0,153      0,150    0,883     0,125     m
                 0,333    0,049    0,109      0,333    0,165      0,166    0,879     0,113     l
                 0,286    0,022    0,512      0,286    0,367      0,347    0,837     0,404     o
                 0,165    0,020    0,231      0,165    0,192      0,170    0,869     0,184     n
                 0,037    0,001    0,136      0,037    0,058      0,069    0,861     0,050     q
                 0,010    0,003    0,041      0,010    0,016      0,015    0,834     0,048     p
                 0,326    0,018    0,479      0,326    0,388      0,370    0,897     0,388     s
                 0,034    0,007    0,106      0,034    0,052      0,047    0,792     0,089     r
                 0,423    0,010    0,510      0,423    0,463      0,453    0,928     0,513     u
                 0,046    0,003    0,222      0,046    0,076      0,093    0,861     0,119     t
                 0,141    0,013    0,078      0,141    0,101      0,096    0,860     0,042     v
                 0,263    0,010    0,123      0,263    0,167      0,173    0,886     0,133     y
                 0,000    0,000    0,000      0,000    0,000      -0,000   0,942     0,004     z
Weighted Avg.    0,585    0,065    0,560      0,585    0,563      0,517    0,917     0,613     


=== Confusion Matrix ===

    a    b    c    d    e    f    g    h    i    j    k    l    m    n    o    p    q    r    s    t    u    v    w    x    y    z   aa   <-- classified as
    6    0   27    2    0    4    1    0    5    0    0    0    1    0    0    1    0    5    0    1   30    1    0    1    0    3    0 |    a = ch
    0    0    0    0    0    8    0    0    7    0    0    0    0    0    0    1    2    0    0    0    0    0    0    0    2    1    0 |    b = rr
    1    0 6272   47   15   84    2    0   49   13    4   10   55    3    4   46   40   22    5    8   47   20    4    6   16   24    1 |    c = 0
    0    0   59   33    7   14    0    4   14    2    0    0   11    1    2    8   12    4    0    0   10    7    1    0   12    5    0 |    d = hs
    0    0    0    1   15    4    0    0    9    2    0    0   12    0    2    3    1    0    0    0    0    0    0    0    1    0    0 |    e = hg
    5    1   74   24    2 1985    4    0  150   21    3    5   10    1    1  125   86   41    0    3   25   36    7    7   45   23    0 |    f = a
    8    0  140   15    1    3    1    0    9    0    5    3    5    0    2    1    9    5    0    0   59    3    2    5    0    2    0 |    g = c
    0    0    0    0    0   23    0    4   19    0    0    0    5    0    3   29   10    8    0    0    0    0   13    0    3    2    0 |    h = b
    1    0   52   23   32  178    2    3  750    7   44    0   74    1    7  132   31   42    1    7   16    3    9    5   13    5    0 |    i = e
    0    1    1    6    3   52    0    0   40   31    4    0    9    0    7   44   24   15    0    0    1    2    3    0   17    6    0 |    j = d
    0    0    6    0    1   34    0    0   21    0    4    0   15    0    0    2    5    6    0    0    1    5    2    0    5    0    0 |    k = g
    0    0   54   10    3   11    0    0    4    0    2    5    0    2    0    1    5    4    0    1   10    2    0    1    1    3    0 |    l = f
    1    0   36    8   19   13    2    7  131    1   13    0  394    0   27   41    3   12    8    3   14    2    2    4    1    6    0 |    m = i
    0    1   18   10    5   21    1    0   17    0    0    0    1   13    1    0    0    0    0    1    9    2    0    0    1    0    0 |    n = j
    0    0    4    2   12   28    0    1   31    3    7    0   43    0   33   53    3   18    0    1    2    2   16    0    4    9    0 |    o = m
    0    0    3    6    5   35    0    3   39    6    2    0   35    0    8  109   13   25    0    0    1    1    6    2   10   18    0 |    p = l
    1    1  144   37    8  328    2    4   98   48   15    1   15    0   13   92  394   47    0    6    7   11   70    2   25    8    0 |    q = o
    0    0   22   14   12  108    0    2   74    4   19    0   62    0   27  107   13  107    1    0    5    2   23    2   25   21    0 |    r = n
    1    0   28    1    0    8    0    0    2    0    0    0   13    0    0    0    0    3    3    1   19    0    0    0    0    2    0 |    s = q
    2    2   88   17    1   11    0    2    9    2    0    7    0    4    0   12   12    6    0    2    7    3    1    5    3    7    0 |    t = p
    5    1  330   24    5   43    3    0   22    9    7    4   48    4    0   18   12   21    3    6  295   17    1    9    5   13    0 |    u = s
    0    0   51   23    0   99    0    3   55    5    9    2   12    1    2   68   20   19    0    3    5   15    7    1   34    6    0 |    v = r
    0    1    6    1    5   40    0    4   30    3    6    0    0    0    8   46   53   20    0    3    3    3  179    4    3    5    0 |    w = u
    2    0  183   14    0    9    4    0    6    3    2    2    7    0    1    2   10   22    1    3   43    3    4   16    7    6    0 |    x = t
    0    1    1    5   10   12    0    0   17   11    4    0    2    0    7   27   10    6    0    0    1    2    1    1   20    4    0 |    y = v
    0    0    8    3    0    1    1    0    2    4    0    1    4    0    3   28    1    5    0    0    6    0    0    1    2   25    0 |    z = y
    0    0    8    0    0    0    0    0    0    0    0    0    0    0    0    0    0    0    0    0    0    0    0    0    0    0    0 |   aa = z

=== Percent Confusion Matrix ===
a	b	c	d	e	f	g	h	i	j	k	l	m	n	o	p	q	r	s	t	u	v	w	x	y	z	aa	
6.82	0.0	30.68	2.27	0.0	4.55	1.14	0.0	5.68	0.0	0.0	0.0	1.14	0.0	0.0	1.14	0.0	5.68	0.0	1.14	34.09	1.14	0.0	1.14	0.0	3.41	0.0	 a = ch
0.0	0.0	0.0	0.0	0.0	38.1	0.0	0.0	33.33	0.0	0.0	0.0	0.0	0.0	0.0	4.76	9.52	0.0	0.0	0.0	0.0	0.0	0.0	0.0	9.52	4.76	0.0	 b = rr
0.01	0.0	92.26	0.69	0.22	1.24	0.03	0.0	0.72	0.19	0.06	0.15	0.81	0.04	0.06	0.68	0.59	0.32	0.07	0.12	0.69	0.29	0.06	0.09	0.24	0.35	0.01	 c = 0
0.0	0.0	28.64	16.02	3.4	6.8	0.0	1.94	6.8	0.97	0.0	0.0	5.34	0.49	0.97	3.88	5.83	1.94	0.0	0.0	4.85	3.4	0.49	0.0	5.83	2.43	0.0	 d = hs
0.0	0.0	0.0	2.0	30.0	8.0	0.0	0.0	18.0	4.0	0.0	0.0	24.0	0.0	4.0	6.0	2.0	0.0	0.0	0.0	0.0	0.0	0.0	0.0	2.0	0.0	0.0	 e = hg
0.19	0.04	2.76	0.89	0.07	73.96	0.15	0.0	5.59	0.78	0.11	0.19	0.37	0.04	0.04	4.66	3.2	1.53	0.0	0.11	0.93	1.34	0.26	0.26	1.68	0.86	0.0	 f = a
2.88	0.0	50.36	5.4	0.36	1.08	0.36	0.0	3.24	0.0	1.8	1.08	1.8	0.0	0.72	0.36	3.24	1.8	0.0	0.0	21.22	1.08	0.72	1.8	0.0	0.72	0.0	 g = c
0.0	0.0	0.0	0.0	0.0	19.33	0.0	3.36	15.97	0.0	0.0	0.0	4.2	0.0	2.52	24.37	8.4	6.72	0.0	0.0	0.0	0.0	10.92	0.0	2.52	1.68	0.0	 h = b
0.07	0.0	3.62	1.6	2.23	12.38	0.14	0.21	52.16	0.49	3.06	0.0	5.15	0.07	0.49	9.18	2.16	2.92	0.07	0.49	1.11	0.21	0.63	0.35	0.9	0.35	0.0	 i = e
0.0	0.38	0.38	2.26	1.13	19.55	0.0	0.0	15.04	11.65	1.5	0.0	3.38	0.0	2.63	16.54	9.02	5.64	0.0	0.0	0.38	0.75	1.13	0.0	6.39	2.26	0.0	 j = d
0.0	0.0	5.61	0.0	0.93	31.78	0.0	0.0	19.63	0.0	3.74	0.0	14.02	0.0	0.0	1.87	4.67	5.61	0.0	0.0	0.93	4.67	1.87	0.0	4.67	0.0	0.0	 k = g
0.0	0.0	45.38	8.4	2.52	9.24	0.0	0.0	3.36	0.0	1.68	4.2	0.0	1.68	0.0	0.84	4.2	3.36	0.0	0.84	8.4	1.68	0.0	0.84	0.84	2.52	0.0	 l = f
0.13	0.0	4.81	1.07	2.54	1.74	0.27	0.94	17.51	0.13	1.74	0.0	52.67	0.0	3.61	5.48	0.4	1.6	1.07	0.4	1.87	0.27	0.27	0.53	0.13	0.8	0.0	 m = i
0.0	0.99	17.82	9.9	4.95	20.79	0.99	0.0	16.83	0.0	0.0	0.0	0.99	12.87	0.99	0.0	0.0	0.0	0.0	0.99	8.91	1.98	0.0	0.0	0.99	0.0	0.0	 n = j
0.0	0.0	1.47	0.74	4.41	10.29	0.0	0.37	11.4	1.1	2.57	0.0	15.81	0.0	12.13	19.49	1.1	6.62	0.0	0.37	0.74	0.74	5.88	0.0	1.47	3.31	0.0	 o = m
0.0	0.0	0.92	1.83	1.53	10.7	0.0	0.92	11.93	1.83	0.61	0.0	10.7	0.0	2.45	33.33	3.98	7.65	0.0	0.0	0.31	0.31	1.83	0.61	3.06	5.5	0.0	 p = l
0.07	0.07	10.46	2.69	0.58	23.82	0.15	0.29	7.12	3.49	1.09	0.07	1.09	0.0	0.94	6.68	28.61	3.41	0.0	0.44	0.51	0.8	5.08	0.15	1.82	0.58	0.0	 q = o
0.0	0.0	3.38	2.15	1.85	16.62	0.0	0.31	11.38	0.62	2.92	0.0	9.54	0.0	4.15	16.46	2.0	16.46	0.15	0.0	0.77	0.31	3.54	0.31	3.85	3.23	0.0	 r = n
1.23	0.0	34.57	1.23	0.0	9.88	0.0	0.0	2.47	0.0	0.0	0.0	16.05	0.0	0.0	0.0	0.0	3.7	3.7	1.23	23.46	0.0	0.0	0.0	0.0	2.47	0.0	 s = q
0.99	0.99	43.35	8.37	0.49	5.42	0.0	0.99	4.43	0.99	0.0	3.45	0.0	1.97	0.0	5.91	5.91	2.96	0.0	0.99	3.45	1.48	0.49	2.46	1.48	3.45	0.0	 t = p
0.55	0.11	36.46	2.65	0.55	4.75	0.33	0.0	2.43	0.99	0.77	0.44	5.3	0.44	0.0	1.99	1.33	2.32	0.33	0.66	32.6	1.88	0.11	0.99	0.55	1.44	0.0	 u = s
0.0	0.0	11.59	5.23	0.0	22.5	0.0	0.68	12.5	1.14	2.05	0.45	2.73	0.23	0.45	15.45	4.55	4.32	0.0	0.68	1.14	3.41	1.59	0.23	7.73	1.36	0.0	 v = r
0.0	0.24	1.42	0.24	1.18	9.46	0.0	0.95	7.09	0.71	1.42	0.0	0.0	0.0	1.89	10.87	12.53	4.73	0.0	0.71	0.71	0.71	42.32	0.95	0.71	1.18	0.0	 w = u
0.57	0.0	52.29	4.0	0.0	2.57	1.14	0.0	1.71	0.86	0.57	0.57	2.0	0.0	0.29	0.57	2.86	6.29	0.29	0.86	12.29	0.86	1.14	4.57	2.0	1.71	0.0	 x = t
0.0	0.7	0.7	3.52	7.04	8.45	0.0	0.0	11.97	7.75	2.82	0.0	1.41	0.0	4.93	19.01	7.04	4.23	0.0	0.0	0.7	1.41	0.7	0.7	14.08	2.82	0.0	 y = v
0.0	0.0	8.42	3.16	0.0	1.05	1.05	0.0	2.11	4.21	0.0	1.05	4.21	0.0	3.16	29.47	1.05	5.26	0.0	0.0	6.32	0.0	0.0	1.05	2.11	26.32	0.0	 z = y
0.0	0.0	100.0	0.0	0.0	0.0	0.0	0.0	0.0	0.0	0.0	0.0	0.0	0.0	0.0	0.0	0.0	0.0	0.0	0.0	0.0	0.0	0.0	0.0	0.0	0.0	0.0	 aa = z
