Timestamp:2013-08-30-03:54:53
Inventario:I0
Intervalo:15ms
Ngramas:5
Clasificador:BayesNet
Relation Name:  I0-15ms-5gramas
Num Instances:  12185
Num Attributes: 51

     Name                      Type  Nom  Int Real     Missing      Unique  Dist
   1 0Int(dB)                   Num   0%  10%  90%     0 /  0%    10 /  0%   768 
   2 0Pitch(Hz)                 Num   0%  50%  50%     0 /  0%   940 /  8%  2714 
   3 0RawPitch                  Num   0%  53%  47%     0 /  0%   980 /  8%  2609 
   4 0SmPitch                   Num   0%  51%  49%     0 /  0%   957 /  8%  2691 
   5 0Melogram(st)              Num   0%  46%  54%     0 /  0%   837 /  7%  2573 
   6 0ZCross                    Num   0% 100%   0%     0 /  0%    10 /  0%    40 
   7 0F1(Hz)                    Num   0%  50%  50%     0 /  0%  2281 / 19%  3977 
   8 0F2(Hz)                    Num   0%  50%  50%     0 /  0%  3848 / 32%  5158 
   9 0F3(Hz)                    Num   0%  50%  50%     0 /  0%  3419 / 28%  4850 
  10 0F4(Hz)                    Num   0%  50%  50%     0 /  0%  3319 / 27%  4764 
  11 1Int(dB)                   Num   0%  10%  90%     0 /  0%    10 /  0%   768 
  12 1Pitch(Hz)                 Num   0%  50%  50%     0 /  0%   940 /  8%  2714 
  13 1RawPitch                  Num   0%  53%  47%     0 /  0%   980 /  8%  2609 
  14 1SmPitch                   Num   0%  51%  49%     0 /  0%   957 /  8%  2691 
  15 1Melogram(st)              Num   0%  46%  54%     0 /  0%   837 /  7%  2573 
  16 1ZCross                    Num   0% 100%   0%     0 /  0%    10 /  0%    40 
  17 1F1(Hz)                    Num   0%  50%  50%     0 /  0%  2281 / 19%  3977 
  18 1F2(Hz)                    Num   0%  50%  50%     0 /  0%  3848 / 32%  5158 
  19 1F3(Hz)                    Num   0%  50%  50%     0 /  0%  3419 / 28%  4850 
  20 1F4(Hz)                    Num   0%  50%  50%     0 /  0%  3319 / 27%  4764 
  21 2Int(dB)                   Num   0%  10%  90%     0 /  0%    10 /  0%   768 
  22 2Pitch(Hz)                 Num   0%  50%  50%     0 /  0%   940 /  8%  2714 
  23 2RawPitch                  Num   0%  53%  47%     0 /  0%   980 /  8%  2609 
  24 2SmPitch                   Num   0%  51%  49%     0 /  0%   957 /  8%  2691 
  25 2Melogram(st)              Num   0%  46%  54%     0 /  0%   837 /  7%  2573 
  26 2ZCross                    Num   0% 100%   0%     0 /  0%    10 /  0%    40 
  27 2F1(Hz)                    Num   0%  50%  50%     0 /  0%  2281 / 19%  3977 
  28 2F2(Hz)                    Num   0%  50%  50%     0 /  0%  3848 / 32%  5158 
  29 2F3(Hz)                    Num   0%  50%  50%     0 /  0%  3419 / 28%  4850 
  30 2F4(Hz)                    Num   0%  50%  50%     0 /  0%  3319 / 27%  4764 
  31 3Int(dB)                   Num   0%  10%  90%     0 /  0%    10 /  0%   768 
  32 3Pitch(Hz)                 Num   0%  50%  50%     0 /  0%   940 /  8%  2714 
  33 3RawPitch                  Num   0%  53%  47%     0 /  0%   980 /  8%  2609 
  34 3SmPitch                   Num   0%  51%  49%     0 /  0%   957 /  8%  2691 
  35 3Melogram(st)              Num   0%  46%  54%     0 /  0%   837 /  7%  2573 
  36 3ZCross                    Num   0% 100%   0%     0 /  0%    10 /  0%    40 
  37 3F1(Hz)                    Num   0%  50%  50%     0 /  0%  2281 / 19%  3977 
  38 3F2(Hz)                    Num   0%  50%  50%     0 /  0%  3848 / 32%  5158 
  39 3F3(Hz)                    Num   0%  50%  50%     0 /  0%  3419 / 28%  4850 
  40 3F4(Hz)                    Num   0%  50%  50%     0 /  0%  3319 / 27%  4764 
  41 4Int(dB)                   Num   0%  10%  90%     0 /  0%    10 /  0%   768 
  42 4Pitch(Hz)                 Num   0%  50%  50%     0 /  0%   941 /  8%  2715 
  43 4RawPitch                  Num   0%  53%  47%     0 /  0%   979 /  8%  2609 
  44 4SmPitch                   Num   0%  51%  49%     0 /  0%   957 /  8%  2691 
  45 4Melogram(st)              Num   0%  46%  54%     0 /  0%   838 /  7%  2574 
  46 4ZCross                    Num   0% 100%   0%     0 /  0%    10 /  0%    40 
  47 4F1(Hz)                    Num   0%  50%  50%     0 /  0%  2281 / 19%  3977 
  48 4F2(Hz)                    Num   0%  50%  50%     0 /  0%  3848 / 32%  5158 
  49 4F3(Hz)                    Num   0%  50%  50%     0 /  0%  3419 / 28%  4850 
  50 4F4(Hz)                    Num   0%  50%  50%     0 /  0%  3319 / 27%  4764 
  51 class                      Nom 100%   0%   0%     0 /  0%     0 /  0%    27 


Options: -D -Q weka.classifiers.bayes.net.search.local.K2 -- -P 1 -S BAYES -E weka.classifiers.bayes.net.estimate.SimpleEstimator -- -A 0.5 

Bayes Network Classifier
not using ADTree
#attributes=51 #classindex=50
Network structure (nodes followed by parents)
0Int(dB)(8): class 
0Pitch(Hz)(5): class 
0RawPitch(4): class 
0SmPitch(4): class 
0Melogram(st)(5): class 
0ZCross(4): class 
0F1(Hz)(8): class 
0F2(Hz)(7): class 
0F3(Hz)(4): class 
0F4(Hz)(3): class 
1Int(dB)(7): class 
1Pitch(Hz)(4): class 
1RawPitch(4): class 
1SmPitch(4): class 
1Melogram(st)(5): class 
1ZCross(4): class 
1F1(Hz)(9): class 
1F2(Hz)(6): class 
1F3(Hz)(4): class 
1F4(Hz)(3): class 
2Int(dB)(8): class 
2Pitch(Hz)(4): class 
2RawPitch(4): class 
2SmPitch(4): class 
2Melogram(st)(7): class 
2ZCross(5): class 
2F1(Hz)(8): class 
2F2(Hz)(8): class 
2F3(Hz)(4): class 
2F4(Hz)(3): class 
3Int(dB)(8): class 
3Pitch(Hz)(4): class 
3RawPitch(4): class 
3SmPitch(4): class 
3Melogram(st)(7): class 
3ZCross(8): class 
3F1(Hz)(8): class 
3F2(Hz)(7): class 
3F3(Hz)(6): class 
3F4(Hz)(6): class 
4Int(dB)(8): class 
4Pitch(Hz)(4): class 
4RawPitch(4): class 
4SmPitch(4): class 
4Melogram(st)(7): class 
4ZCross(8): class 
4F1(Hz)(8): class 
4F2(Hz)(9): class 
4F3(Hz)(6): class 
4F4(Hz)(5): class 
class(27): 
LogScore Bayes: -585782.0871417177
LogScore BDeu: -616699.3290439937
LogScore MDL: -613023.4109832498
LogScore ENTROPY: -583435.3737449929
LogScore AIC: -589725.373744993




=== Stratified cross-validation ===

Correctly Classified Instances        5771               47.3615 %
Incorrectly Classified Instances      6414               52.6385 %
Kappa statistic                          0.3762
K&B Relative Info Score             415886.4996 %
K&B Information Score                14061.0433 bits      1.154  bits/instance
Class complexity | order 0           41115.2727 bits      3.3743 bits/instance
Class complexity | scheme           187606.2686 bits     15.3965 bits/instance
Complexity improvement     (Sf)    -146490.9959 bits    -12.0222 bits/instance
Mean absolute error                      0.0392
Root mean squared error                  0.1822
Relative absolute error                 64.0393 %
Root relative squared error            104.2014 %
Coverage of cases (0.95 level)          55.24   %
Mean rel. region size (0.95 level)       6.2542 %
Total Number of Instances            12185     


=== Detailed Accuracy By Class ===

                 TP Rate  FP Rate  Precision  Recall   F-Measure  MCC      ROC Area  PRC Area  Class
                 0,121    0,006    0,082      0,121    0,098      0,094    0,902     0,102     ch
                 0,000    0,001    0,000      0,000    0,000      -0,001   0,768     0,003     rr
                 0,882    0,064    0,887      0,882    0,885      0,820    0,961     0,952     0
                 0,107    0,022    0,053      0,107    0,071      0,060    0,806     0,048     hs
                 0,706    0,076    0,025      0,706    0,049      0,124    0,948     0,071     hg
                 0,457    0,037    0,685      0,457    0,548      0,500    0,891     0,655     a
                 0,330    0,042    0,107      0,330    0,162      0,167    0,854     0,109     c
                 0,171    0,014    0,077      0,171    0,106      0,106    0,883     0,046     b
                 0,124    0,010    0,517      0,124    0,200      0,225    0,839     0,335     e
                 0,249    0,039    0,086      0,249    0,128      0,125    0,843     0,063     d
                 0,319    0,049    0,038      0,319    0,067      0,095    0,816     0,024     g
                 0,167    0,011    0,090      0,167    0,117      0,115    0,858     0,052     f
                 0,260    0,018    0,382      0,260    0,310      0,291    0,887     0,343     i
                 0,182    0,002    0,364      0,182    0,242      0,254    0,915     0,194     j
                 0,054    0,003    0,213      0,054    0,087      0,101    0,838     0,092     m
                 0,417    0,064    0,109      0,417    0,173      0,185    0,850     0,125     l
                 0,133    0,012    0,475      0,133    0,208      0,222    0,799     0,296     o
                 0,080    0,015    0,163      0,080    0,108      0,092    0,835     0,123     n
                 0,018    0,009    0,010      0,018    0,013      0,007    0,777     0,013     q
                 0,045    0,003    0,158      0,045    0,070      0,079    0,815     0,051     p
                 0,176    0,010    0,480      0,176    0,258      0,270    0,846     0,302     s
                 0,101    0,011    0,186      0,101    0,131      0,120    0,790     0,099     r
                 0,372    0,014    0,397      0,372    0,384      0,370    0,897     0,395     u
                 0,167    0,012    0,214      0,167    0,188      0,175    0,864     0,135     t
                 0,051    0,004    0,085      0,051    0,063      0,060    0,798     0,036     v
                 0,406    0,014    0,131      0,406    0,198      0,224    0,890     0,204     y
                 0,000    0,002    0,000      0,000    0,000      -0,001   0,937     0,011     z
Weighted Avg.    0,474    0,036    0,581      0,474    0,495      0,467    0,891     0,551     


=== Confusion Matrix ===

    a    b    c    d    e    f    g    h    i    j    k    l    m    n    o    p    q    r    s    t    u    v    w    x    y    z   aa   <-- classified as
    7    0    5    2    0    1   12    0    0    1    1    1    0    2    0    3    0    6    1    0    8    1    0    5    0    2    0 |    a = ch
    0    0    0    1    6    3    0    0    0    0    2    0    0    0    0    1    0    0    1    0    0    0    1    0    0    0    0 |    b = rr
   28    0 3894   58   41   10   83    2    2   29   14   36   16    2    3   34    3   13    2   10   33   16    4   39    7   26    9 |    c = 0
    1    0    9   15   26    4   10    2    2    8    4    4    6    0    1   19    3    4    0    2   10    3    0    3    1    3    0 |    d = hs
    0    0    0    1   24    1    0    1    1    1    0    0    0    0    0    2    0    1    0    0    0    1    0    0    1    0    0 |    e = hg
    0    4   57   11   84  829   65   12   41  164  102    7   23    2    0  147   81   11   27    2   12   59   26   13   16   19    1 |    f = a
    3    0   61   15    2    0   60    0    2    1    3    5    0    0    1    3    0    4    4    2    9    1    1    5    0    0    0 |    g = c
    0    0    0    0   21    7    0   14    3    7   10    0    2    0    2   13    0    1    0    0    0    0    2    0    0    0    0 |    h = b
    1    3   31   18  211   63   37   22  120   49  109    6   80    2    2  104    9   27   23    0    2    7   22   11    2    8    2 |    i = e
    0    0    0    1   19   17    0    7    5   44   22    0    0    0    0   28    3    5    0    0    0    1    3    3    4   15    0 |    j = d
    0    1    0    0   16    4    2    1    2    4   23    2    0    0    2    7    0    2    1    0    0    4    0    0    1    0    0 |    k = g
    2    0    5    8    7    2   10    0    2    2    6   13    0    2    0    2    0    3    0    3    4    2    0    3    0    1    1 |    l = f
    5    0   12    8  135    2   32   20   11    2   36    0  131    0   11   34    0   17   18    1    5    2    6    6    1    8    0 |    m = i
    1    0    1    5    9    7    5    0    3    0    6    4    0   12    0    1    0    4    0    2    3    3    0    0    0    0    0 |    n = j
    0    0    4    0   36   12    0    7    1    9   24    0   24    0   10   26    3   12    0    0    0    2    6    2    0    6    0 |    o = m
    0    0    0    2   26   11    5   13    3    6   16    1   10    0    2   93    3    8    0    0    1    6    2    1    4   10    0 |    p = l
    3    0   78   27  101  123   46   22   15  112   45    3   14    0    1   86  125   13   15    3    3    7   61   11    4   19    3 |    q = o
    3    1    0   21   88   32    2   13    3   22   70    1   12    0    4   91    3   35    0    1    3    5    6    8    3    9    0 |    r = n
    0    0   19    2    2    4    7    0    0    0    4    1    5    0    1    1    0    1    1    0    2    0    0    3    0    2    0 |    s = q
    2    0   17   14    7    4   24    1    1    8    3   12    3    7    0    2    1    7    0    6    4    1    2    3    0    3    1 |    t = p
   21    0  118   40   37   18   76    0    0    9   42   25    4    3    1   39    0   21    2    2  108    6    3   16    1   20    0 |    u = s
    0    0    4   19   13   35   20   10    9   13   33    8    6    1    0   55   11    9    0    2    7   31    6    6    7    3    0 |    v = r
    0    0    7    2   13   15   16   33    3    6   15    1    4    0    5   17   18    1    7    1    0    4  106    4    2    4    1 |    w = u
    8    0   59   10    6    1   41    1    0    6   11   11    2    0    0    5    0    8    1    1    5    1    5   39    0   12    1 |    x = t
    0    0    3    3   20    5    4    0    3    7   11    0    0    0    1   26    0    1    1    0    0    4    2    0    5    3    0 |    y = v
    0    0    2    0    3    0    1    1    0    0    0    3    1    0    0   16    0    1    1    0    5    0    3    1    0   26    0 |    z = y
    0    0    2    0    0    0    2    0    0    0    0    0    0    0    0    0    0    0    0    0    1    0    0    0    0    0    0 |   aa = z

=== Percent Confusion Matrix ===
a	b	c	d	e	f	g	h	i	j	k	l	m	n	o	p	q	r	s	t	u	v	w	x	y	z	aa	
12.07	0.0	8.62	3.45	0.0	1.72	20.69	0.0	0.0	1.72	1.72	1.72	0.0	3.45	0.0	5.17	0.0	10.34	1.72	0.0	13.79	1.72	0.0	8.62	0.0	3.45	0.0	 a = ch
0.0	0.0	0.0	6.67	40.0	20.0	0.0	0.0	0.0	0.0	13.33	0.0	0.0	0.0	0.0	6.67	0.0	0.0	6.67	0.0	0.0	0.0	6.67	0.0	0.0	0.0	0.0	 b = rr
0.63	0.0	88.22	1.31	0.93	0.23	1.88	0.05	0.05	0.66	0.32	0.82	0.36	0.05	0.07	0.77	0.07	0.29	0.05	0.23	0.75	0.36	0.09	0.88	0.16	0.59	0.2	 c = 0
0.71	0.0	6.43	10.71	18.57	2.86	7.14	1.43	1.43	5.71	2.86	2.86	4.29	0.0	0.71	13.57	2.14	2.86	0.0	1.43	7.14	2.14	0.0	2.14	0.71	2.14	0.0	 d = hs
0.0	0.0	0.0	2.94	70.59	2.94	0.0	2.94	2.94	2.94	0.0	0.0	0.0	0.0	0.0	5.88	0.0	2.94	0.0	0.0	0.0	2.94	0.0	0.0	2.94	0.0	0.0	 e = hg
0.0	0.22	3.14	0.61	4.63	45.67	3.58	0.66	2.26	9.04	5.62	0.39	1.27	0.11	0.0	8.1	4.46	0.61	1.49	0.11	0.66	3.25	1.43	0.72	0.88	1.05	0.06	 f = a
1.65	0.0	33.52	8.24	1.1	0.0	32.97	0.0	1.1	0.55	1.65	2.75	0.0	0.0	0.55	1.65	0.0	2.2	2.2	1.1	4.95	0.55	0.55	2.75	0.0	0.0	0.0	 g = c
0.0	0.0	0.0	0.0	25.61	8.54	0.0	17.07	3.66	8.54	12.2	0.0	2.44	0.0	2.44	15.85	0.0	1.22	0.0	0.0	0.0	0.0	2.44	0.0	0.0	0.0	0.0	 h = b
0.1	0.31	3.19	1.85	21.73	6.49	3.81	2.27	12.36	5.05	11.23	0.62	8.24	0.21	0.21	10.71	0.93	2.78	2.37	0.0	0.21	0.72	2.27	1.13	0.21	0.82	0.21	 i = e
0.0	0.0	0.0	0.56	10.73	9.6	0.0	3.95	2.82	24.86	12.43	0.0	0.0	0.0	0.0	15.82	1.69	2.82	0.0	0.0	0.0	0.56	1.69	1.69	2.26	8.47	0.0	 j = d
0.0	1.39	0.0	0.0	22.22	5.56	2.78	1.39	2.78	5.56	31.94	2.78	0.0	0.0	2.78	9.72	0.0	2.78	1.39	0.0	0.0	5.56	0.0	0.0	1.39	0.0	0.0	 k = g
2.56	0.0	6.41	10.26	8.97	2.56	12.82	0.0	2.56	2.56	7.69	16.67	0.0	2.56	0.0	2.56	0.0	3.85	0.0	3.85	5.13	2.56	0.0	3.85	0.0	1.28	1.28	 l = f
0.99	0.0	2.39	1.59	26.84	0.4	6.36	3.98	2.19	0.4	7.16	0.0	26.04	0.0	2.19	6.76	0.0	3.38	3.58	0.2	0.99	0.4	1.19	1.19	0.2	1.59	0.0	 m = i
1.52	0.0	1.52	7.58	13.64	10.61	7.58	0.0	4.55	0.0	9.09	6.06	0.0	18.18	0.0	1.52	0.0	6.06	0.0	3.03	4.55	4.55	0.0	0.0	0.0	0.0	0.0	 n = j
0.0	0.0	2.17	0.0	19.57	6.52	0.0	3.8	0.54	4.89	13.04	0.0	13.04	0.0	5.43	14.13	1.63	6.52	0.0	0.0	0.0	1.09	3.26	1.09	0.0	3.26	0.0	 o = m
0.0	0.0	0.0	0.9	11.66	4.93	2.24	5.83	1.35	2.69	7.17	0.45	4.48	0.0	0.9	41.7	1.35	3.59	0.0	0.0	0.45	2.69	0.9	0.45	1.79	4.48	0.0	 p = l
0.32	0.0	8.3	2.87	10.74	13.09	4.89	2.34	1.6	11.91	4.79	0.32	1.49	0.0	0.11	9.15	13.3	1.38	1.6	0.32	0.32	0.74	6.49	1.17	0.43	2.02	0.32	 q = o
0.69	0.23	0.0	4.82	20.18	7.34	0.46	2.98	0.69	5.05	16.06	0.23	2.75	0.0	0.92	20.87	0.69	8.03	0.0	0.23	0.69	1.15	1.38	1.83	0.69	2.06	0.0	 r = n
0.0	0.0	34.55	3.64	3.64	7.27	12.73	0.0	0.0	0.0	7.27	1.82	9.09	0.0	1.82	1.82	0.0	1.82	1.82	0.0	3.64	0.0	0.0	5.45	0.0	3.64	0.0	 s = q
1.5	0.0	12.78	10.53	5.26	3.01	18.05	0.75	0.75	6.02	2.26	9.02	2.26	5.26	0.0	1.5	0.75	5.26	0.0	4.51	3.01	0.75	1.5	2.26	0.0	2.26	0.75	 t = p
3.43	0.0	19.28	6.54	6.05	2.94	12.42	0.0	0.0	1.47	6.86	4.08	0.65	0.49	0.16	6.37	0.0	3.43	0.33	0.33	17.65	0.98	0.49	2.61	0.16	3.27	0.0	 u = s
0.0	0.0	1.3	6.17	4.22	11.36	6.49	3.25	2.92	4.22	10.71	2.6	1.95	0.32	0.0	17.86	3.57	2.92	0.0	0.65	2.27	10.06	1.95	1.95	2.27	0.97	0.0	 v = r
0.0	0.0	2.46	0.7	4.56	5.26	5.61	11.58	1.05	2.11	5.26	0.35	1.4	0.0	1.75	5.96	6.32	0.35	2.46	0.35	0.0	1.4	37.19	1.4	0.7	1.4	0.35	 w = u
3.42	0.0	25.21	4.27	2.56	0.43	17.52	0.43	0.0	2.56	4.7	4.7	0.85	0.0	0.0	2.14	0.0	3.42	0.43	0.43	2.14	0.43	2.14	16.67	0.0	5.13	0.43	 x = t
0.0	0.0	3.03	3.03	20.2	5.05	4.04	0.0	3.03	7.07	11.11	0.0	0.0	0.0	1.01	26.26	0.0	1.01	1.01	0.0	0.0	4.04	2.02	0.0	5.05	3.03	0.0	 y = v
0.0	0.0	3.13	0.0	4.69	0.0	1.56	1.56	0.0	0.0	0.0	4.69	1.56	0.0	0.0	25.0	0.0	1.56	1.56	0.0	7.81	0.0	4.69	1.56	0.0	40.63	0.0	 z = y
0.0	0.0	40.0	0.0	0.0	0.0	40.0	0.0	0.0	0.0	0.0	0.0	0.0	0.0	0.0	0.0	0.0	0.0	0.0	0.0	20.0	0.0	0.0	0.0	0.0	0.0	0.0	 aa = z
