Timestamp:2013-08-30-03:54:34
Inventario:I0
Intervalo:15ms
Ngramas:3
Clasificador:BayesNet
Relation Name:  I0-15ms-3gramas
Num Instances:  12187
Num Attributes: 31

     Name                      Type  Nom  Int Real     Missing      Unique  Dist
   1 0Int(dB)                   Num   0%  10%  90%     0 /  0%    10 /  0%   768 
   2 0Pitch(Hz)                 Num   0%  50%  50%     0 /  0%   940 /  8%  2714 
   3 0RawPitch                  Num   0%  53%  47%     0 /  0%   980 /  8%  2609 
   4 0SmPitch                   Num   0%  51%  49%     0 /  0%   957 /  8%  2691 
   5 0Melogram(st)              Num   0%  46%  54%     0 /  0%   837 /  7%  2573 
   6 0ZCross                    Num   0% 100%   0%     0 /  0%    10 /  0%    40 
   7 0F1(Hz)                    Num   0%  50%  50%     0 /  0%  2281 / 19%  3977 
   8 0F2(Hz)                    Num   0%  50%  50%     0 /  0%  3848 / 32%  5158 
   9 0F3(Hz)                    Num   0%  50%  50%     0 /  0%  3419 / 28%  4850 
  10 0F4(Hz)                    Num   0%  50%  50%     0 /  0%  3319 / 27%  4764 
  11 1Int(dB)                   Num   0%  10%  90%     0 /  0%    10 /  0%   768 
  12 1Pitch(Hz)                 Num   0%  50%  50%     0 /  0%   940 /  8%  2714 
  13 1RawPitch                  Num   0%  53%  47%     0 /  0%   980 /  8%  2609 
  14 1SmPitch                   Num   0%  51%  49%     0 /  0%   957 /  8%  2691 
  15 1Melogram(st)              Num   0%  46%  54%     0 /  0%   837 /  7%  2573 
  16 1ZCross                    Num   0% 100%   0%     0 /  0%    10 /  0%    40 
  17 1F1(Hz)                    Num   0%  50%  50%     0 /  0%  2281 / 19%  3977 
  18 1F2(Hz)                    Num   0%  50%  50%     0 /  0%  3848 / 32%  5158 
  19 1F3(Hz)                    Num   0%  50%  50%     0 /  0%  3419 / 28%  4850 
  20 1F4(Hz)                    Num   0%  50%  50%     0 /  0%  3319 / 27%  4764 
  21 2Int(dB)                   Num   0%  10%  90%     0 /  0%    10 /  0%   768 
  22 2Pitch(Hz)                 Num   0%  50%  50%     0 /  0%   941 /  8%  2715 
  23 2RawPitch                  Num   0%  53%  47%     0 /  0%   979 /  8%  2609 
  24 2SmPitch                   Num   0%  51%  49%     0 /  0%   957 /  8%  2691 
  25 2Melogram(st)              Num   0%  46%  54%     0 /  0%   838 /  7%  2574 
  26 2ZCross                    Num   0% 100%   0%     0 /  0%    10 /  0%    40 
  27 2F1(Hz)                    Num   0%  50%  50%     0 /  0%  2281 / 19%  3977 
  28 2F2(Hz)                    Num   0%  50%  50%     0 /  0%  3848 / 32%  5158 
  29 2F3(Hz)                    Num   0%  50%  50%     0 /  0%  3419 / 28%  4850 
  30 2F4(Hz)                    Num   0%  50%  50%     0 /  0%  3319 / 27%  4764 
  31 class                      Nom 100%   0%   0%     0 /  0%     0 /  0%    27 


Options: -D -Q weka.classifiers.bayes.net.search.local.K2 -- -P 1 -S BAYES -E weka.classifiers.bayes.net.estimate.SimpleEstimator -- -A 0.5 

Bayes Network Classifier
not using ADTree
#attributes=31 #classindex=30
Network structure (nodes followed by parents)
0Int(dB)(8): class 
0Pitch(Hz)(4): class 
0RawPitch(4): class 
0SmPitch(4): class 
0Melogram(st)(7): class 
0ZCross(5): class 
0F1(Hz)(8): class 
0F2(Hz)(8): class 
0F3(Hz)(4): class 
0F4(Hz)(3): class 
1Int(dB)(8): class 
1Pitch(Hz)(4): class 
1RawPitch(4): class 
1SmPitch(4): class 
1Melogram(st)(7): class 
1ZCross(8): class 
1F1(Hz)(8): class 
1F2(Hz)(7): class 
1F3(Hz)(6): class 
1F4(Hz)(6): class 
2Int(dB)(8): class 
2Pitch(Hz)(4): class 
2RawPitch(4): class 
2SmPitch(4): class 
2Melogram(st)(7): class 
2ZCross(8): class 
2F1(Hz)(8): class 
2F2(Hz)(9): class 
2F3(Hz)(6): class 
2F4(Hz)(5): class 
class(27): 
LogScore Bayes: -362768.5489854011
LogScore BDeu: -383067.11870810465
LogScore MDL: -380661.91057198483
LogScore ENTROPY: -361488.1516409626
LogScore AIC: -365564.15164096246




=== Stratified cross-validation ===

Correctly Classified Instances        6257               51.3416 %
Incorrectly Classified Instances      5930               48.6584 %
Kappa statistic                          0.4151
K&B Relative Info Score             476899.3474 %
K&B Information Score                16122.4466 bits      1.3229 bits/instance
Class complexity | order 0           41118.2022 bits      3.3739 bits/instance
Class complexity | scheme           114847.0179 bits      9.4237 bits/instance
Complexity improvement     (Sf)     -73728.8156 bits     -6.0498 bits/instance
Mean absolute error                      0.0365
Root mean squared error                  0.168 
Relative absolute error                 59.6021 %
Root relative squared error             96.0603 %
Coverage of cases (0.95 level)          64.0929 %
Mean rel. region size (0.95 level)       7.9733 %
Total Number of Instances            12187     


=== Detailed Accuracy By Class ===

                 TP Rate  FP Rate  Precision  Recall   F-Measure  MCC      ROC Area  PRC Area  Class
                 0,052    0,002    0,125      0,052    0,073      0,078    0,893     0,052     ch
                 0,000    0,001    0,000      0,000    0,000      -0,001   0,817     0,004     rr
                 0,905    0,075    0,873      0,905    0,889      0,824    0,968     0,959     0
                 0,100    0,019    0,059      0,100    0,074      0,063    0,791     0,043     hs
                 0,588    0,041    0,038      0,588    0,072      0,142    0,945     0,097     hg
                 0,580    0,053    0,658      0,580    0,617      0,556    0,906     0,701     a
                 0,286    0,030    0,125      0,286    0,174      0,170    0,869     0,119     c
                 0,061    0,010    0,039      0,061    0,048      0,041    0,878     0,035     b
                 0,234    0,019    0,511      0,234    0,321      0,310    0,865     0,405     e
                 0,260    0,036    0,097      0,260    0,141      0,139    0,852     0,080     d
                 0,181    0,031    0,034      0,181    0,057      0,066    0,804     0,025     g
                 0,077    0,007    0,066      0,077    0,071      0,065    0,873     0,058     f
                 0,406    0,020    0,467      0,406    0,434      0,413    0,907     0,399     i
                 0,121    0,002    0,267      0,121    0,167      0,177    0,889     0,156     j
                 0,071    0,005    0,165      0,071    0,099      0,099    0,863     0,100     m
                 0,439    0,071    0,103      0,439    0,167      0,184    0,861     0,103     l
                 0,135    0,010    0,523      0,135    0,215      0,238    0,818     0,348     o
                 0,094    0,018    0,165      0,094    0,120      0,101    0,851     0,137     n
                 0,036    0,005    0,033      0,036    0,035      0,030    0,798     0,017     q
                 0,030    0,002    0,138      0,030    0,049      0,060    0,837     0,055     p
                 0,216    0,016    0,423      0,216    0,286      0,277    0,881     0,332     s
                 0,045    0,006    0,157      0,045    0,071      0,072    0,780     0,100     r
                 0,407    0,011    0,462      0,407    0,433      0,421    0,903     0,454     u
                 0,124    0,014    0,151      0,124    0,136      0,122    0,859     0,109     t
                 0,071    0,011    0,051      0,071    0,059      0,051    0,809     0,030     v
                 0,406    0,014    0,134      0,406    0,202      0,227    0,894     0,137     y
                 0,000    0,001    0,000      0,000    0,000      -0,001   0,953     0,005     z
Weighted Avg.    0,513    0,044    0,573      0,513    0,522      0,488    0,904     0,575     


=== Confusion Matrix ===

    a    b    c    d    e    f    g    h    i    j    k    l    m    n    o    p    q    r    s    t    u    v    w    x    y    z   aa   <-- classified as
    3    0   10    1    0    2   14    0    2    0    0    2    0    0    0    4    1    3    0    0   10    2    0    2    0    2    0 |    a = ch
    0    0    0    1    2    5    0    0    1    0    0    0    0    0    0    5    0    0    1    0    0    0    0    0    0    0    0 |    b = rr
    2    0 3997   48   25   25   32    0    6   26    8   23   26    4    0   35    8   11    5    9   48    6    5   32    0   31    4 |    c = 0
    0    0   18   14   16    8    8    3    1    7    2    4    4    1    1   23    2    4    1    1   12    4    1    0    3    2    0 |    d = hs
    0    0    0    0   20    1    0    0    3    1    0    0    4    0    1    0    1    1    0    0    0    0    0    0    2    0    0 |    e = hg
    4    1   44   12   28 1053   42   10   65  120   43    6    9    1    1  147   61   22   14    2   15   27    9   25   37   16    1 |    f = a
    0    0   75   11    2    0   52    0    3    0    0    4    4    0    0    3    0    3    3    1   12    0    2    5    1    0    1 |    g = c
    0    0    0    0    7   12    0    5    5    7    5    0    2    0    5   20    3    7    0    0    0    0    4    0    0    0    0 |    h = b
    1    2   28   14  137   88   26   20  227   36   94    1   61    3    3  131    9   24   13    3    7    3   15   12   11    1    1 |    i = e
    0    1    0    0    7   23    0    8    5   46   12    0    0    0    3   32    1   11    0    0    0    0    1    4   11   12    0 |    j = d
    0    1    1    0   10   14    1    2    3    3   13    0    7    0    0    9    0    2    0    0    3    2    1    0    0    0    0 |    k = g
    0    0   12    6    5    5   11    0    2    0    4    6    0    2    0    4    1    3    0    3    8    0    0    2    1    2    1 |    l = f
    1    0   13    7   62    3   18   14   34    1   35    0  204    0   12   38    0   17    9    0   10    1    2   13    2    7    0 |    m = i
    0    0    4    6    4   12    3    0    6    0    3    2    1    8    1    4    0    2    0    1    4    4    0    1    0    0    0 |    n = j
    0    0    2    1   26   12    0    5    4   13   15    0   25    0   13   33    1   14    0    1    0    1    9    2    1    6    0 |    o = m
    0    0    0    2   16   22    2    9    2    6    6    0   15    0    2   98    2   15    0    0    3    1    1    3    7   11    0 |    p = l
    1    2   78   30   61  154   30    9   30  125   34    3   11    0   10   87  127   15    4    2    8    4   63   13   20   18    1 |    q = o
    0    2    3   17   43   50    1   17    8   18   47    3   19    0   13  112    0   41    0    0    6    2    7    8    9   10    0 |    r = n
    0    0   21    1    2    3    8    0    0    0    2    1    7    0    0    0    0    1    2    0    3    0    0    1    0    3    0 |    s = q
    0    0   28   12    5    8   20    2    4    7    0    6    1    4    1    3    0    3    1    4    9    2    0    8    0    5    0 |    t = p
   10    4  141   28   16   23   83    0    2   14   23   13   24    6    0   34    1   17    2    0  132    9    2    7    1   20    0 |    u = s
    1    0   13   14    1   51    9    9   13   19   21    9    7    1    0   63    5   11    0    1    9   14    4   10   17    6    0 |    v = r
    1    3    4    2    7   20   12   10   11   14    7    1    3    0    9   24   16    8    2    0    0    2  116    9    1    2    1 |    w = u
    0    0   81    8    3    2   40    0    0    4    6    6    3    0    3    2    1    9    2    1    9    2    6   29    5   12    0 |    x = t
    0    0    1    3   18    5    3    2    7    8    6    0    0    0    1   24    3    3    0    0    0    3    1    2    7    2    0 |    y = v
    0    0    2    0    0    0    2    2    0    0    0    1    0    0    0   18    0    1    1    0    4    0    2    3    2   26    0 |    z = y
    0    0    4    0    0    0    0    0    0    0    0    0    0    0    0    0    0    0    0    0    0    0    0    1    0    0    0 |   aa = z

=== Percent Confusion Matrix ===
a	b	c	d	e	f	g	h	i	j	k	l	m	n	o	p	q	r	s	t	u	v	w	x	y	z	aa	
5.17	0.0	17.24	1.72	0.0	3.45	24.14	0.0	3.45	0.0	0.0	3.45	0.0	0.0	0.0	6.9	1.72	5.17	0.0	0.0	17.24	3.45	0.0	3.45	0.0	3.45	0.0	 a = ch
0.0	0.0	0.0	6.67	13.33	33.33	0.0	0.0	6.67	0.0	0.0	0.0	0.0	0.0	0.0	33.33	0.0	0.0	6.67	0.0	0.0	0.0	0.0	0.0	0.0	0.0	0.0	 b = rr
0.05	0.0	90.51	1.09	0.57	0.57	0.72	0.0	0.14	0.59	0.18	0.52	0.59	0.09	0.0	0.79	0.18	0.25	0.11	0.2	1.09	0.14	0.11	0.72	0.0	0.7	0.09	 c = 0
0.0	0.0	12.86	10.0	11.43	5.71	5.71	2.14	0.71	5.0	1.43	2.86	2.86	0.71	0.71	16.43	1.43	2.86	0.71	0.71	8.57	2.86	0.71	0.0	2.14	1.43	0.0	 d = hs
0.0	0.0	0.0	0.0	58.82	2.94	0.0	0.0	8.82	2.94	0.0	0.0	11.76	0.0	2.94	0.0	2.94	2.94	0.0	0.0	0.0	0.0	0.0	0.0	5.88	0.0	0.0	 e = hg
0.22	0.06	2.42	0.66	1.54	58.02	2.31	0.55	3.58	6.61	2.37	0.33	0.5	0.06	0.06	8.1	3.36	1.21	0.77	0.11	0.83	1.49	0.5	1.38	2.04	0.88	0.06	 f = a
0.0	0.0	41.21	6.04	1.1	0.0	28.57	0.0	1.65	0.0	0.0	2.2	2.2	0.0	0.0	1.65	0.0	1.65	1.65	0.55	6.59	0.0	1.1	2.75	0.55	0.0	0.55	 g = c
0.0	0.0	0.0	0.0	8.54	14.63	0.0	6.1	6.1	8.54	6.1	0.0	2.44	0.0	6.1	24.39	3.66	8.54	0.0	0.0	0.0	0.0	4.88	0.0	0.0	0.0	0.0	 h = b
0.1	0.21	2.88	1.44	14.11	9.06	2.68	2.06	23.38	3.71	9.68	0.1	6.28	0.31	0.31	13.49	0.93	2.47	1.34	0.31	0.72	0.31	1.54	1.24	1.13	0.1	0.1	 i = e
0.0	0.56	0.0	0.0	3.95	12.99	0.0	4.52	2.82	25.99	6.78	0.0	0.0	0.0	1.69	18.08	0.56	6.21	0.0	0.0	0.0	0.0	0.56	2.26	6.21	6.78	0.0	 j = d
0.0	1.39	1.39	0.0	13.89	19.44	1.39	2.78	4.17	4.17	18.06	0.0	9.72	0.0	0.0	12.5	0.0	2.78	0.0	0.0	4.17	2.78	1.39	0.0	0.0	0.0	0.0	 k = g
0.0	0.0	15.38	7.69	6.41	6.41	14.1	0.0	2.56	0.0	5.13	7.69	0.0	2.56	0.0	5.13	1.28	3.85	0.0	3.85	10.26	0.0	0.0	2.56	1.28	2.56	1.28	 l = f
0.2	0.0	2.58	1.39	12.33	0.6	3.58	2.78	6.76	0.2	6.96	0.0	40.56	0.0	2.39	7.55	0.0	3.38	1.79	0.0	1.99	0.2	0.4	2.58	0.4	1.39	0.0	 m = i
0.0	0.0	6.06	9.09	6.06	18.18	4.55	0.0	9.09	0.0	4.55	3.03	1.52	12.12	1.52	6.06	0.0	3.03	0.0	1.52	6.06	6.06	0.0	1.52	0.0	0.0	0.0	 n = j
0.0	0.0	1.09	0.54	14.13	6.52	0.0	2.72	2.17	7.07	8.15	0.0	13.59	0.0	7.07	17.93	0.54	7.61	0.0	0.54	0.0	0.54	4.89	1.09	0.54	3.26	0.0	 o = m
0.0	0.0	0.0	0.9	7.17	9.87	0.9	4.04	0.9	2.69	2.69	0.0	6.73	0.0	0.9	43.95	0.9	6.73	0.0	0.0	1.35	0.45	0.45	1.35	3.14	4.93	0.0	 p = l
0.11	0.21	8.3	3.19	6.49	16.38	3.19	0.96	3.19	13.3	3.62	0.32	1.17	0.0	1.06	9.26	13.51	1.6	0.43	0.21	0.85	0.43	6.7	1.38	2.13	1.91	0.11	 q = o
0.0	0.46	0.69	3.9	9.86	11.47	0.23	3.9	1.83	4.13	10.78	0.69	4.36	0.0	2.98	25.69	0.0	9.4	0.0	0.0	1.38	0.46	1.61	1.83	2.06	2.29	0.0	 r = n
0.0	0.0	38.18	1.82	3.64	5.45	14.55	0.0	0.0	0.0	3.64	1.82	12.73	0.0	0.0	0.0	0.0	1.82	3.64	0.0	5.45	0.0	0.0	1.82	0.0	5.45	0.0	 s = q
0.0	0.0	21.05	9.02	3.76	6.02	15.04	1.5	3.01	5.26	0.0	4.51	0.75	3.01	0.75	2.26	0.0	2.26	0.75	3.01	6.77	1.5	0.0	6.02	0.0	3.76	0.0	 t = p
1.63	0.65	23.04	4.58	2.61	3.76	13.56	0.0	0.33	2.29	3.76	2.12	3.92	0.98	0.0	5.56	0.16	2.78	0.33	0.0	21.57	1.47	0.33	1.14	0.16	3.27	0.0	 u = s
0.32	0.0	4.22	4.55	0.32	16.56	2.92	2.92	4.22	6.17	6.82	2.92	2.27	0.32	0.0	20.45	1.62	3.57	0.0	0.32	2.92	4.55	1.3	3.25	5.52	1.95	0.0	 v = r
0.35	1.05	1.4	0.7	2.46	7.02	4.21	3.51	3.86	4.91	2.46	0.35	1.05	0.0	3.16	8.42	5.61	2.81	0.7	0.0	0.0	0.7	40.7	3.16	0.35	0.7	0.35	 w = u
0.0	0.0	34.62	3.42	1.28	0.85	17.09	0.0	0.0	1.71	2.56	2.56	1.28	0.0	1.28	0.85	0.43	3.85	0.85	0.43	3.85	0.85	2.56	12.39	2.14	5.13	0.0	 x = t
0.0	0.0	1.01	3.03	18.18	5.05	3.03	2.02	7.07	8.08	6.06	0.0	0.0	0.0	1.01	24.24	3.03	3.03	0.0	0.0	0.0	3.03	1.01	2.02	7.07	2.02	0.0	 y = v
0.0	0.0	3.13	0.0	0.0	0.0	3.13	3.13	0.0	0.0	0.0	1.56	0.0	0.0	0.0	28.13	0.0	1.56	1.56	0.0	6.25	0.0	3.13	4.69	3.13	40.63	0.0	 z = y
0.0	0.0	80.0	0.0	0.0	0.0	0.0	0.0	0.0	0.0	0.0	0.0	0.0	0.0	0.0	0.0	0.0	0.0	0.0	0.0	0.0	0.0	0.0	20.0	0.0	0.0	0.0	 aa = z
