Timestamp:2013-08-30-03:27:28
Inventario:I0
Intervalo:1ms
Ngramas:1
Clasificador:BayesNet
Relation Name:  I0-1ms-1gramas
Num Instances:  183404
Num Attributes: 11

     Name                      Type  Nom  Int Real     Missing      Unique  Dist
   1 0Int(dB)                   Num   0%   9%  91%     0 /  0%     3 /  0%   781 
   2 0Pitch(Hz)                 Num   0%  51%  49%     0 /  0%   256 /  0%  4213 
   3 0RawPitch                  Num   0%  55%  45%     0 /  0%   417 /  0%  4119 
   4 0SmPitch                   Num   0%  53%  47%     0 /  0%   263 /  0%  4193 
   5 0Melogram(st)              Num   0%  49%  51%     0 /  0%   133 /  0%  3454 
   6 0ZCross                    Num   0% 100%   0%     0 /  0%     4 /  0%    58 
   7 0F1(Hz)                    Num   0%  52%  48%     0 /  0%  1154 /  1%  4824 
   8 0F2(Hz)                    Num   0%  52%  48%     0 /  0%  2223 /  1%  6697 
   9 0F3(Hz)                    Num   0%  53%  47%     0 /  0%  1930 /  1%  6200 
  10 0F4(Hz)                    Num   0%  52%  48%     0 /  0%  1933 /  1%  6096 
  11 class                      Nom 100%   0%   0%     0 /  0%     0 /  0%    27 


Options: -D -Q weka.classifiers.bayes.net.search.local.K2 -- -P 1 -S BAYES -E weka.classifiers.bayes.net.estimate.SimpleEstimator -- -A 0.5 

Bayes Network Classifier
not using ADTree
#attributes=11 #classindex=10
Network structure (nodes followed by parents)
0Int(dB)(33): class 
0Pitch(Hz)(95): class 
0RawPitch(58): class 
0SmPitch(79): class 
0Melogram(st)(88): class 
0ZCross(18): class 
0F1(Hz)(2785): class 
0F2(Hz)(3608): class 
0F3(Hz)(3772): class 
0F4(Hz)(3673): class 
class(27): 
LogScore Bayes: -5673730.997141223
LogScore BDeu: -1.1027100099797454E7
LogScore MDL: -9481593.524001013
LogScore ENTROPY: -7158301.661146023
LogScore AIC: -7541700.661146023




=== Stratified cross-validation ===

Correctly Classified Instances      148327               80.8745 %
Incorrectly Classified Instances     35077               19.1255 %
Kappa statistic                          0.7586
K&B Relative Info Score            13817472.3756 %
K&B Information Score               453743.2446 bits      2.474  bits/instance
Class complexity | order 0          602182.7755 bits      3.2834 bits/instance
Class complexity | scheme           474958.7103 bits      2.5897 bits/instance
Complexity improvement     (Sf)     127224.0651 bits      0.6937 bits/instance
Mean absolute error                      0.0149
Root mean squared error                  0.11  
Relative absolute error                 24.9886 %
Root relative squared error             63.6229 %
Coverage of cases (0.95 level)          85.7778 %
Mean rel. region size (0.95 level)       5.0636 %
Total Number of Instances           183404     


=== Detailed Accuracy By Class ===

                 TP Rate  FP Rate  Precision  Recall   F-Measure  MCC      ROC Area  PRC Area  Class
                 0,194    0,001    0,514      0,194    0,282      0,314    0,953     0,264     ch
                 0,959    0,003    0,257      0,959    0,406      0,496    0,999     0,898     rr
                 0,908    0,135    0,813      0,908    0,858      0,760    0,972     0,963     0
                 0,571    0,004    0,631      0,571    0,600      0,596    0,928     0,582     hs
                 0,955    0,007    0,266      0,955    0,416      0,502    0,998     0,891     hg
                 0,857    0,008    0,949      0,857    0,900      0,886    0,977     0,951     a
                 0,167    0,002    0,580      0,167    0,259      0,306    0,934     0,296     c
                 0,933    0,004    0,602      0,933    0,732      0,748    0,998     0,890     b
                 0,813    0,008    0,893      0,813    0,851      0,841    0,970     0,901     e
                 0,880    0,006    0,691      0,880    0,774      0,776    0,989     0,847     d
                 0,846    0,004    0,564      0,846    0,677      0,688    0,956     0,826     g
                 0,355    0,002    0,551      0,355    0,432      0,440    0,960     0,401     f
                 0,828    0,004    0,885      0,828    0,856      0,850    0,965     0,883     i
                 0,636    0,001    0,741      0,636    0,685      0,685    0,949     0,660     j
                 0,892    0,003    0,808      0,892    0,848      0,846    0,987     0,915     m
                 0,905    0,005    0,759      0,905    0,825      0,825    0,990     0,883     l
                 0,770    0,008    0,877      0,770    0,820      0,809    0,935     0,855     o
                 0,858    0,004    0,872      0,858    0,865      0,860    0,972     0,897     n
                 0,345    0,001    0,556      0,345    0,426      0,436    0,930     0,374     q
                 0,350    0,001    0,748      0,350    0,477      0,508    0,941     0,420     p
                 0,504    0,012    0,675      0,504    0,577      0,566    0,968     0,666     s
                 0,744    0,006    0,735      0,744    0,740      0,734    0,932     0,761     r
                 0,884    0,003    0,880      0,884    0,882      0,879    0,984     0,926     u
                 0,207    0,003    0,560      0,207    0,302      0,333    0,932     0,332     t
                 0,897    0,004    0,620      0,897    0,733      0,743    0,984     0,850     v
                 0,753    0,007    0,348      0,753    0,476      0,508    0,949     0,728     y
                 0,000    0,001    0,000      0,000    0,000      -0,000   0,843     0,001     z
Weighted Avg.    0,809    0,057    0,814      0,809    0,802      0,762    0,967     0,873     


=== Confusion Matrix ===

     a     b     c     d     e     f     g     h     i     j     k     l     m     n     o     p     q     r     s     t     u     v     w     x     y     z    aa   <-- classified as
   166     0   324     0     0     1     3     0     0     1     2     0     1     0     1     0    12     1     0     0   327     3     0     7     5     0     0 |     a = ch
     0   208     0     0     0     3     0     0     2     0     0     0     1     0     1     0     0     0     0     0     0     1     0     0     0     1     0 |     b = rr
    71   202 65484   216   640   436    58   192   572   253   219   103   299   180   149   240   458   255   121   107   224   327   191   127   315   637    41 |     c = 0
     0     2   703  1113     4     2     0     1    39     6     1     1     3     1     5     8    20     3     0     1    19     1     4     0     4     9     0 |     d = hs
     0     0     0     0   470     1     0     0     3     0     1     0    10     0     0     0     0     2     0     0     0     0     3     0     1     1     0 |     e = hg
    22   102   864   164   275 22373    79   109   101   177   176    71    52    11    79   292   180   139    45    46   144   224    44    76   104   151    15 |     f = a
     1     1  1600     4     1    12   453     0    36     1     4     0    15     0     6     0    74     0     2     4   391    23    54    32     1     0     0 |     g = c
     0     3     0     0     2    10     0  1116     2     2     7     0    21     0     5     1     1     5     0     0     0     8     9     0     1     3     0 |     h = b
    10    93   563    86    82   120    33    81 11175   134    72    59    60    10    67   120   115   174    39    31    91   182    59    49   125    94    16 |     i = e
     0    15    34     5    15    31     0     8    38  2304     7    10     8     0     2     5    24    33     0     3     1    15     8     2     4    41     4 |     j = d
     0     1    78     2     6    22     0     2    17     3   916     1    12     0     1     6     4     2     0     0     0     7     3     0     0     0     0 |     k = g
     0     0   619     1     4     7     1     0    19     0     1   412     8     0     0     0    14     0     1     0    48     4     0    17     2     2     0 |     l = f
     5     5   363    29    40    21    22    80    59    22    22    33  5863     1    48    45    89    29     4     0    77    61     9    45    58    46     7 |     m = i
     0     0   219     1     4     2     3     1     8     0     0     0     0   623     0     0     8     0     0     3   100     0     2     4     0     1     0 |     n = j
     0    12    43     5     6    14     0    21    11     4    17     0    44     0  2330     9    45     7     1     4     3     2    14     2     6    10     3 |     o = m
     0     3    26    14    25    27     2    17    38    10    14     0    15     0    23  2905    19    11     0     0    23    13     8     0     8     9     0 |     p = l
    10    65  1489    53    61   135    18   102    47   286    84    18    48     3    89    80 10187    80     3    18    26    91    42    51    60    78    10 |     q = o
    12    26   275    12    42    82     0    24    94    54    22    15    36     1    20    31    22  5410     3     3     1     8    22    42    18    24     9 |     r = n
     1     0   321     0     1     0     8     0    27     1     0     1     0     0     0     0     4     0   290     2   164    14     1     3     0     2     0 |     s = q
     5     2  1031     4     3    28    18     1    32     1     0     1     2     4     1     7    43     0     1   702    65    25     0    19     4     6     0 |     t = p
     6    28  3788     8    34    96    17    18    36    15     6     3    56     1     5    16    46     5     4     4  4448    29     8    36    36    76     1 |     u = s
     3    11   523    19    19    68     6    41    93    41    20     4    38     3     5    23    33     6     0     7    49  3088     9    16     7    15     1 |     v = r
     4    11    71     9     9    15    27    28    11    14    24    10     5     2    41    18    45    18     5     0    21    21  3659    22    12    35     0 |     w = u
     7    11  1952    15    13    67    28     4    33     1     6     5    12     1     0     4   169    23     3     3   287    48     2   705     1     9     0 |     x = t
     0     6    33     1     5    14     0     6    19     3     4     1    13     0     3     7     7     1     0     0     7     1     4     2  1257     7     0 |     y = v
     0     1    94     2     8     0     5     1     9     1     0     0     1     0     3    12     0     0     0     0    72     6     3     2     0   670     0 |     z = y
     0     0    65     0     0     0     0     0     0     0     0     0     0     0     0     0     0     0     0     0     0     0     0     0     0     0     0 |    aa = z

=== Percent Confusion Matrix ===
a	b	c	d	e	f	g	h	i	j	k	l	m	n	o	p	q	r	s	t	u	v	w	x	y	z	aa	
19.44	0.0	37.94	0.0	0.0	0.12	0.35	0.0	0.0	0.12	0.23	0.0	0.12	0.0	0.12	0.0	1.41	0.12	0.0	0.0	38.29	0.35	0.0	0.82	0.59	0.0	0.0	 a = ch
0.0	95.85	0.0	0.0	0.0	1.38	0.0	0.0	0.92	0.0	0.0	0.0	0.46	0.0	0.46	0.0	0.0	0.0	0.0	0.0	0.0	0.46	0.0	0.0	0.0	0.46	0.0	 b = rr
0.1	0.28	90.8	0.3	0.89	0.6	0.08	0.27	0.79	0.35	0.3	0.14	0.41	0.25	0.21	0.33	0.64	0.35	0.17	0.15	0.31	0.45	0.26	0.18	0.44	0.88	0.06	 c = 0
0.0	0.1	36.05	57.08	0.21	0.1	0.0	0.05	2.0	0.31	0.05	0.05	0.15	0.05	0.26	0.41	1.03	0.15	0.0	0.05	0.97	0.05	0.21	0.0	0.21	0.46	0.0	 d = hs
0.0	0.0	0.0	0.0	95.53	0.2	0.0	0.0	0.61	0.0	0.2	0.0	2.03	0.0	0.0	0.0	0.0	0.41	0.0	0.0	0.0	0.0	0.61	0.0	0.2	0.2	0.0	 e = hg
0.08	0.39	3.31	0.63	1.05	85.67	0.3	0.42	0.39	0.68	0.67	0.27	0.2	0.04	0.3	1.12	0.69	0.53	0.17	0.18	0.55	0.86	0.17	0.29	0.4	0.58	0.06	 f = a
0.04	0.04	58.93	0.15	0.04	0.44	16.69	0.0	1.33	0.04	0.15	0.0	0.55	0.0	0.22	0.0	2.73	0.0	0.07	0.15	14.4	0.85	1.99	1.18	0.04	0.0	0.0	 g = c
0.0	0.25	0.0	0.0	0.17	0.84	0.0	93.31	0.17	0.17	0.59	0.0	1.76	0.0	0.42	0.08	0.08	0.42	0.0	0.0	0.0	0.67	0.75	0.0	0.08	0.25	0.0	 h = b
0.07	0.68	4.1	0.63	0.6	0.87	0.24	0.59	81.33	0.98	0.52	0.43	0.44	0.07	0.49	0.87	0.84	1.27	0.28	0.23	0.66	1.32	0.43	0.36	0.91	0.68	0.12	 i = e
0.0	0.57	1.3	0.19	0.57	1.18	0.0	0.31	1.45	88.04	0.27	0.38	0.31	0.0	0.08	0.19	0.92	1.26	0.0	0.11	0.04	0.57	0.31	0.08	0.15	1.57	0.15	 j = d
0.0	0.09	7.2	0.18	0.55	2.03	0.0	0.18	1.57	0.28	84.58	0.09	1.11	0.0	0.09	0.55	0.37	0.18	0.0	0.0	0.0	0.65	0.28	0.0	0.0	0.0	0.0	 k = g
0.0	0.0	53.36	0.09	0.34	0.6	0.09	0.0	1.64	0.0	0.09	35.52	0.69	0.0	0.0	0.0	1.21	0.0	0.09	0.0	4.14	0.34	0.0	1.47	0.17	0.17	0.0	 l = f
0.07	0.07	5.12	0.41	0.56	0.3	0.31	1.13	0.83	0.31	0.31	0.47	82.78	0.01	0.68	0.64	1.26	0.41	0.06	0.0	1.09	0.86	0.13	0.64	0.82	0.65	0.1	 m = i
0.0	0.0	22.37	0.1	0.41	0.2	0.31	0.1	0.82	0.0	0.0	0.0	0.0	63.64	0.0	0.0	0.82	0.0	0.0	0.31	10.21	0.0	0.2	0.41	0.0	0.1	0.0	 n = j
0.0	0.46	1.65	0.19	0.23	0.54	0.0	0.8	0.42	0.15	0.65	0.0	1.68	0.0	89.17	0.34	1.72	0.27	0.04	0.15	0.11	0.08	0.54	0.08	0.23	0.38	0.11	 o = m
0.0	0.09	0.81	0.44	0.78	0.84	0.06	0.53	1.18	0.31	0.44	0.0	0.47	0.0	0.72	90.5	0.59	0.34	0.0	0.0	0.72	0.4	0.25	0.0	0.25	0.28	0.0	 p = l
0.08	0.49	11.25	0.4	0.46	1.02	0.14	0.77	0.36	2.16	0.63	0.14	0.36	0.02	0.67	0.6	76.98	0.6	0.02	0.14	0.2	0.69	0.32	0.39	0.45	0.59	0.08	 q = o
0.19	0.41	4.36	0.19	0.67	1.3	0.0	0.38	1.49	0.86	0.35	0.24	0.57	0.02	0.32	0.49	0.35	85.76	0.05	0.05	0.02	0.13	0.35	0.67	0.29	0.38	0.14	 r = n
0.12	0.0	38.21	0.0	0.12	0.0	0.95	0.0	3.21	0.12	0.0	0.12	0.0	0.0	0.0	0.0	0.48	0.0	34.52	0.24	19.52	1.67	0.12	0.36	0.0	0.24	0.0	 s = q
0.25	0.1	51.42	0.2	0.15	1.4	0.9	0.05	1.6	0.05	0.0	0.05	0.1	0.2	0.05	0.35	2.14	0.0	0.05	35.01	3.24	1.25	0.0	0.95	0.2	0.3	0.0	 t = p
0.07	0.32	42.92	0.09	0.39	1.09	0.19	0.2	0.41	0.17	0.07	0.03	0.63	0.01	0.06	0.18	0.52	0.06	0.05	0.05	50.4	0.33	0.09	0.41	0.41	0.86	0.01	 u = s
0.07	0.27	12.61	0.46	0.46	1.64	0.14	0.99	2.24	0.99	0.48	0.1	0.92	0.07	0.12	0.55	0.8	0.14	0.0	0.17	1.18	74.45	0.22	0.39	0.17	0.36	0.02	 v = r
0.1	0.27	1.72	0.22	0.22	0.36	0.65	0.68	0.27	0.34	0.58	0.24	0.12	0.05	0.99	0.44	1.09	0.44	0.12	0.0	0.51	0.51	88.45	0.53	0.29	0.85	0.0	 w = u
0.21	0.32	57.26	0.44	0.38	1.97	0.82	0.12	0.97	0.03	0.18	0.15	0.35	0.03	0.0	0.12	4.96	0.67	0.09	0.09	8.42	1.41	0.06	20.68	0.03	0.26	0.0	 x = t
0.0	0.43	2.36	0.07	0.36	1.0	0.0	0.43	1.36	0.21	0.29	0.07	0.93	0.0	0.21	0.5	0.5	0.07	0.0	0.0	0.5	0.07	0.29	0.14	89.72	0.5	0.0	 y = v
0.0	0.11	10.56	0.22	0.9	0.0	0.56	0.11	1.01	0.11	0.0	0.0	0.11	0.0	0.34	1.35	0.0	0.0	0.0	0.0	8.09	0.67	0.34	0.22	0.0	75.28	0.0	 z = y
0.0	0.0	100.0	0.0	0.0	0.0	0.0	0.0	0.0	0.0	0.0	0.0	0.0	0.0	0.0	0.0	0.0	0.0	0.0	0.0	0.0	0.0	0.0	0.0	0.0	0.0	0.0	 aa = z
