Timestamp:2014-12-07-10:41:19
Inventario:I0
Intervalo:10ms
Ngramas:1
Clasificador:NaiveBayes
Relation Name:  I0-10ms-1gramas
Num Instances:  18296
Num Attributes: 11

     Name                      Type  Nom  Int Real     Missing      Unique  Dist
   1 0Int(dB)                   Num   0%  10%  90%     0 /  0%     7 /  0%   772 
   2 0Pitch(Hz)                 Num   0%  51%  49%     0 /  0%   817 /  4%  3064 
   3 0RawPitch                  Num   0%  54%  46%     0 /  0%   854 /  5%  2956 
   4 0SmPitch                   Num   0%  52%  48%     0 /  0%   828 /  5%  3025 
   5 0Melogram(st)              Num   0%  47%  53%     0 /  0%   582 /  3%  2808 
   6 0ZCross                    Num   0% 100%   0%     0 /  0%    10 /  0%    42 
   7 0F1(Hz)                    Num   0%  51%  49%     0 /  0%  2131 / 12%  4724 
   8 0F2(Hz)                    Num   0%  51%  49%     0 /  0%  4210 / 23%  6615 
   9 0F3(Hz)                    Num   0%  51%  49%     0 /  0%  3688 / 20%  6145 
  10 0F4(Hz)                    Num   0%  51%  49%     0 /  0%  3689 / 20%  6054 
  11 class                      Nom 100%   0%   0%     0 /  0%     0 /  0%    27 


Naive Bayes Classifier

                    Class
Attribute              ch        rr         0        hs        hg         a         c         b         e         d         g         f         i         j         m         l         o         n         q         p         s         r         u         t         v         y         z
                      (0)       (0)    (0.37)    (0.01)       (0)    (0.15)    (0.02)    (0.01)    (0.08)    (0.01)    (0.01)    (0.01)    (0.04)    (0.01)    (0.01)    (0.02)    (0.08)    (0.04)       (0)    (0.01)    (0.05)    (0.02)    (0.02)    (0.02)    (0.01)    (0.01)       (0)
==============================================================================================================================================================================================================================================================================================
0Int(dB)
  mean            -19.0814   -10.564  -49.8193  -20.7518   -10.651   -3.1239   -24.237   -5.8918   -5.4216   -7.8401    -7.615  -21.5769   -9.1229  -15.4779   -7.6993   -8.3034   -8.3525   -9.3733  -22.3313  -22.5999  -21.5058  -11.9183   -5.5461  -25.6222   -9.2619  -16.1571  -28.0322
  std. dev.         8.3794    4.2228   14.6142   11.3686    6.2337    8.4027    9.8677     4.366    8.2134    6.1435    7.8549    5.6378    8.6417    6.1848    6.0498     5.792   12.1594    7.7206   10.9438   10.4858    6.7641    9.7379    7.9501    9.8486     6.325    5.0145    3.0174
  weight sum            88        21      6798       206        50      2684       278       119      1438       266       107       119       748       101       272       327      1377       650        81       203       905       440       423       350       142        95         8
  precision         0.1005    0.1005    0.1005    0.1005    0.1005    0.1005    0.1005    0.1005    0.1005    0.1005    0.1005    0.1005    0.1005    0.1005    0.1005    0.1005    0.1005    0.1005    0.1005    0.1005    0.1005    0.1005    0.1005    0.1005    0.1005    0.1005    0.1005

0Pitch(Hz)
  mean             77.6495  248.6632   11.8101   88.6305  146.2458  226.0088   68.8773  215.3605  190.3918  201.0018  217.1294   89.6626  173.2212  160.2725  193.0406  173.5217  179.1301  191.7203   92.8244  101.0594   58.4205     162.5  230.9859   83.9606  179.4156  119.7435         0
  std. dev.        114.169  122.8744   47.8952   86.8337   37.7558  102.2025  104.3432   72.1803   87.4257   84.8129     97.99  119.8396   75.5653   128.781   85.9993   65.1768   103.979   89.2387   116.884  120.1185   97.2112   94.0654   83.0165  115.3984   70.8481   68.2851    0.0271
  weight sum            88        21      6798       206        50      2684       278       119      1438       266       107       119       748       101       272       327      1377       650        81       203       905       440       423       350       142        95         8
  precision         0.1626    0.1626    0.1626    0.1626    0.1626    0.1626    0.1626    0.1626    0.1626    0.1626    0.1626    0.1626    0.1626    0.1626    0.1626    0.1626    0.1626    0.1626    0.1626    0.1626    0.1626    0.1626    0.1626    0.1626    0.1626    0.1626    0.1626

0RawPitch
  mean             52.1893  240.3952    9.4583   69.5402   135.745   216.219   52.1615  213.0008  186.9416  195.4717   203.988   53.3253  164.8509  112.0009  182.4391  159.1457  172.8881  179.3233   53.0661   75.9229   35.4666  156.5619  221.8351   61.2075  165.4778   86.7859         0
  std. dev.        99.7193  129.1598   41.8694   85.3335   62.4099  107.4348   93.6374   74.2022   92.1579   93.1794  111.7049   91.6829   80.9322  111.4484   95.6759   75.4546  110.0663  101.2616  100.9754  112.2847   78.8653   98.0512   90.5835  101.7704   80.6042   76.2217     0.028
  weight sum            88        21      6798       206        50      2684       278       119      1438       266       107       119       748       101       272       327      1377       650        81       203       905       440       423       350       142        95         8
  precision         0.1679    0.1679    0.1679    0.1679    0.1679    0.1679    0.1679    0.1679    0.1679    0.1679    0.1679    0.1679    0.1679    0.1679    0.1679    0.1679    0.1679    0.1679    0.1679    0.1679    0.1679    0.1679    0.1679    0.1679    0.1679    0.1679    0.1679

0SmPitch
  mean             71.8091  248.6628    10.221   81.6346  148.1583   224.319   58.5754  215.3632  188.8901  200.6341  215.3063   77.2901   170.918  128.4736  190.7569  172.9529  177.1958  189.2119   75.7723   90.2963   51.3331   159.705  230.1655   75.1964  176.6789  114.2394         0
  std. dev.       110.8409  122.8761   43.0507   83.6012   35.5963  103.8158  101.5424   72.1765   88.8533   85.6348  100.1796  107.8428   77.6434  139.0808   89.2888   65.7996  105.5718   92.1796  111.1442  118.5691   92.1664   95.5864   83.5323   111.752   74.1419   70.5684    0.0274
  weight sum            88        21      6798       206        50      2684       278       119      1438       266       107       119       748       101       272       327      1377       650        81       203       905       440       423       350       142        95         8
  precision         0.1647    0.1647    0.1647    0.1647    0.1647    0.1647    0.1647    0.1647    0.1647    0.1647    0.1647    0.1647    0.1647    0.1647    0.1647    0.1647    0.1647    0.1647    0.1647    0.1647    0.1647    0.1647    0.1647    0.1647    0.1647    0.1647    0.1647

0Melogram(st)
  mean             19.7831   56.8115    3.6592   27.2818   49.2962   53.6675   18.2983   55.3973    50.757   53.0359   51.8536    26.048   48.7629   22.0537   51.1178   51.1759   46.9889   49.9973   22.4883   25.8102   16.3662   43.5626   54.7081   21.5794   51.3611   42.8327         0
  std. dev.        27.5706    9.0272   13.7149   24.9859    4.5337   13.6842   26.4593    6.2177   14.7786   10.7827   16.9829   28.1169   15.7624   28.1228   13.9765    9.3126   20.0024   16.6205   28.1066   28.2544   25.2647   22.0153      13.2   27.8404    9.7628   16.4263    0.0049
  weight sum            88        21      6798       206        50      2684       278       119      1438       266       107       119       748       101       272       327      1377       650        81       203       905       440       423       350       142        95         8
  precision         0.0294    0.0294    0.0294    0.0294    0.0294    0.0294    0.0294    0.0294    0.0294    0.0294    0.0294    0.0294    0.0294    0.0294    0.0294    0.0294    0.0294    0.0294    0.0294    0.0294    0.0294    0.0294    0.0294    0.0294    0.0294    0.0294    0.0294

0ZCross
  mean              8.0352    3.3856    0.1407     0.935    3.0249    7.3294    1.6275    3.8237    4.8831    3.7468    4.3613    0.6192    3.3285    3.6989    2.5711    2.9846    4.0329     2.295    4.0696    0.9233    3.5638    2.9761     3.713    0.7054    2.9586    1.4968         0
  std. dev.        12.1849    2.3424    0.7913    1.4833    2.2481    4.4255    3.3215    1.8002    3.1607    2.1448    2.7409    1.4786    3.1155    3.6519    1.3416    1.8611    2.9611    1.5017     6.427    2.2102    6.6592     2.381    2.8728    1.4341    1.7054     1.595    0.2154
  weight sum            88        21      6798       206        50      2684       278       119      1438       266       107       119       748       101       272       327      1377       650        81       203       905       440       423       350       142        95         8
  precision         1.2927    1.2927    1.2927    1.2927    1.2927    1.2927    1.2927    1.2927    1.2927    1.2927    1.2927    1.2927    1.2927    1.2927    1.2927    1.2927    1.2927    1.2927    1.2927    1.2927    1.2927    1.2927    1.2927    1.2927    1.2927    1.2927    1.2927

0F1(Hz)
  mean            160.6998  613.5628   40.0583   410.892  445.1347  710.3558  126.3501  477.7832  467.7497  516.3637  500.5551  293.0667  366.3373   470.795  432.8978  472.7167  488.3137    469.73  197.8336  262.9692  198.5962   493.922  499.4556  141.7193  489.0979  353.5416         0
  std. dev.       267.2971  138.1947  146.5136  293.3077   84.6291  245.4904  233.9364  132.4039  137.6849   149.061  184.0787  335.6295  136.8258  334.1598  164.9276  140.2743  220.1308   154.595  246.6861  296.9297  287.8838  231.1068   302.477  225.4522  159.5841   173.601    0.0615
  weight sum            88        21      6798       206        50      2684       278       119      1438       266       107       119       748       101       272       327      1377       650        81       203       905       440       423       350       142        95         8
  precision         0.3688    0.3688    0.3688    0.3688    0.3688    0.3688    0.3688    0.3688    0.3688    0.3688    0.3688    0.3688    0.3688    0.3688    0.3688    0.3688    0.3688    0.3688    0.3688    0.3688    0.3688    0.3688    0.3688    0.3688    0.3688    0.3688    0.3688

0F2(Hz)
  mean            507.3849 1646.3551  123.4513 1185.2173 1925.4093 1474.9501  353.8751 1576.1489 1804.3312  1487.044  1706.467  753.8431 1998.9223  1339.941 1667.1307 1670.6231 1157.6298 1607.4525   804.665  791.6004  620.4736 1384.7266 1072.0404  481.9616 1580.3836 1406.3078         0
  std. dev.       809.2374  124.3386  446.9262  819.2806  350.2846  373.1444  671.6031  352.2262  496.1344  307.7561  559.5245  846.5228  624.7892  881.0201  440.9842  341.4083  525.4581  447.1571   975.108  861.5481  872.6886  597.3845  424.8655   746.218  364.9676  626.0495    0.0751
  weight sum            88        21      6798       206        50      2684       278       119      1438       266       107       119       748       101       272       327      1377       650        81       203       905       440       423       350       142        95         8
  precision         0.4504    0.4504    0.4504    0.4504    0.4504    0.4504    0.4504    0.4504    0.4504    0.4504    0.4504    0.4504    0.4504    0.4504    0.4504    0.4504    0.4504    0.4504    0.4504    0.4504    0.4504    0.4504    0.4504    0.4504    0.4504    0.4504    0.4504

0F3(Hz)
  mean            815.6971 2878.1508  212.0061 1928.4643 2525.5501 2749.0319  668.7844 2760.3104 2653.2835 2875.6804 2943.5343 1292.8131 2693.2397 1959.5845 2751.0866 2808.2538 2526.8298 2775.5254 1207.9329 1334.5273 1028.4704 2410.6703 2703.6172  868.1084 2719.9525  2433.031         0
  std. dev.      1298.7799  422.0628  754.1838 1263.0595  111.9726  684.6052 1227.1559   469.379  742.6344  453.3058  876.6084 1442.3291  863.6174 1279.3581  576.3269  575.8686  995.0347  648.2804 1426.1474 1439.2326 1427.0793 1048.5757  758.4179 1330.4613  594.2459 1101.5516    0.1118
  weight sum            88        21      6798       206        50      2684       278       119      1438       266       107       119       748       101       272       327      1377       650        81       203       905       440       423       350       142        95         8
  precision         0.6705    0.6705    0.6705    0.6705    0.6705    0.6705    0.6705    0.6705    0.6705    0.6705    0.6705    0.6705    0.6705    0.6705    0.6705    0.6705    0.6705    0.6705    0.6705    0.6705    0.6705    0.6705    0.6705    0.6705    0.6705    0.6705    0.6705

0F4(Hz)
  mean            998.6249 3228.0327  255.9653 2406.8084   3591.92 3162.4058  773.8643  3303.497 3189.0151 3344.0454 2953.1522 1496.7859 3209.5559 2464.4123 3307.9787  3233.941 2910.5036 3182.3562 1443.9683  1591.677 1178.4883 2804.2139 3086.4504  985.6571   3287.48 2773.3087         0
  std. dev.      1588.9955  403.3343  908.2983 1563.9842   91.1897  774.8805 1420.2752  430.5134  856.4692  491.6785  883.5322 1658.5798  985.3806 1594.7315  625.5718  585.2383 1127.9374  747.5758 1718.2445 1694.5457 1633.2146 1165.5043  766.0819 1516.0453  587.4544 1242.1583    0.1142
  weight sum            88        21      6798       206        50      2684       278       119      1438       266       107       119       748       101       272       327      1377       650        81       203       905       440       423       350       142        95         8
  precision         0.6851    0.6851    0.6851    0.6851    0.6851    0.6851    0.6851    0.6851    0.6851    0.6851    0.6851    0.6851    0.6851    0.6851    0.6851    0.6851    0.6851    0.6851    0.6851    0.6851    0.6851    0.6851    0.6851    0.6851    0.6851    0.6851    0.6851





=== Stratified cross-validation ===

Correctly Classified Instances        5231               28.5909 %
Incorrectly Classified Instances     13065               71.4091 %
Kappa statistic                          0.219 
K&B Relative Info Score             392447.9902 %
K&B Information Score                13158.2768 bits      0.7192 bits/instance
Class complexity | order 0           61258.8315 bits      3.3482 bits/instance
Class complexity | scheme           403548.0011 bits     22.0566 bits/instance
Complexity improvement     (Sf)    -342289.1696 bits    -18.7084 bits/instance
Mean absolute error                      0.055 
Root mean squared error                  0.2045
Relative absolute error                 90.5382 %
Root relative squared error            117.3338 %
Coverage of cases (0.95 level)          53.4762 %
Mean rel. region size (0.95 level)      15.8169 %
Total Number of Instances            18296     


=== Detailed Accuracy By Class ===

                 TP Rate  FP Rate  Precision  Recall   F-Measure  MCC      ROC Area  PRC Area  Class
                 0,125    0,002    0,220      0,125    0,159      0,163    0,643     0,104     ch
                 0,000    0,001    0,000      0,000    0,000      -0,001   0,880     0,024     rr
                 0,354    0,011    0,950      0,354    0,516      0,480    0,894     0,840     0
                 0,160    0,027    0,062      0,160    0,090      0,084    0,672     0,047     hs
                 0,820    0,107    0,021      0,820    0,040      0,119    0,941     0,066     hg
                 0,683    0,087    0,575      0,683    0,625      0,556    0,890     0,631     a
                 0,018    0,004    0,066      0,018    0,028      0,027    0,482     0,046     c
                 0,176    0,051    0,022      0,176    0,040      0,046    0,826     0,021     b
                 0,203    0,029    0,372      0,203    0,263      0,231    0,791     0,282     e
                 0,015    0,007    0,031      0,015    0,020      0,012    0,791     0,039     d
                 0,000    0,000    0,000      0,000    0,000      0,000    0,762     0,025     g
                 0,000    0,000    0,000      0,000    0,000      0,000    0,532     0,017     f
                 0,139    0,005    0,523      0,139    0,220      0,255    0,853     0,317     i
                 0,059    0,001    0,375      0,059    0,103      0,148    0,722     0,111     j
                 0,000    0,001    0,000      0,000    0,000      -0,003   0,821     0,045     m
                 0,361    0,065    0,092      0,361    0,147      0,154    0,850     0,080     l
                 0,007    0,004    0,141      0,007    0,014      0,016    0,755     0,188     o
                 0,052    0,026    0,069      0,052    0,059      0,030    0,787     0,082     n
                 0,000    0,000    0,000      0,000    0,000      -0,001   0,633     0,018     q
                 0,005    0,001    0,077      0,005    0,009      0,017    0,534     0,024     p
                 0,169    0,004    0,699      0,169    0,272      0,330    0,575     0,261     s
                 0,005    0,002    0,053      0,005    0,008      0,009    0,690     0,045     r
                 0,239    0,003    0,687      0,239    0,354      0,398    0,863     0,356     u
                 0,094    0,010    0,151      0,094    0,116      0,106    0,490     0,057     t
                 0,000    0,000    0,000      0,000    0,000      -0,001   0,801     0,021     v
                 0,126    0,009    0,071      0,126    0,091      0,088    0,852     0,045     y
                 1,000    0,283    0,002      1,000    0,003      0,033    0,915     0,003     z
Weighted Avg.    0,286    0,023    0,564      0,286    0,347      0,326    0,816     0,486     


=== Confusion Matrix ===

    a    b    c    d    e    f    g    h    i    j    k    l    m    n    o    p    q    r    s    t    u    v    w    x    y    z   aa   <-- classified as
   11    0    4    2    0    5    2    3    1    0    0    0    0    0    0    3    0    7    0    0   20    0    0    3    0    0   27 |    a = ch
    0    0    0    0    7    8    0    1    0    0    0    0    0    0    0    3    0    1    0    0    0    0    0    0    0    1    0 |    b = rr
    0    1 2409   96   99   52    5   32   12   20    0    0   23    0    0   66   13   68    0    1    1    5    1   22    1   15 3856 |    c = 0
    0    0    6   33   50   14    0    6    3    1    0    0    3    0    0   19    4    5    0    0    0    1    0    0    0    7   54 |    d = hs
    0    0    0    0   41    2    0    0    0    1    0    0    2    0    0    2    0    0    0    0    0    0    0    0    1    1    0 |    e = hg
    0    2   12   41  249 1833   11  102   50   30    0    0    3    4    0  196   14   36    1    1    2    5    0   16    1    9   66 |    f = a
    8    0   13   19   12    4    5    1    5    1    0    0    2    1    0    6    0    9    0    2   22    3    1   25    0    1  138 |    g = c
    0    0    0    0   23   22    0   21   13    0    0    0    0    0    0   35    0    1    0    0    0    0    4    0    0    0    0 |    h = b
    0    4    1   33  466  274    7  110  292    1    0    0    7    1    1  123    4   32    0    1    1    0    0   17    0   12   51 |    i = e
    0    0    1    4   73   60    0   57   15    4    0    0    0    0    0   39    0    3    0    0    1    1    0    0    0    7    1 |    j = d
    0    0    0    4   22   37    0    5   13    0    0    0    6    0    0    9    0    5    0    0    0    0    0    1    0    0    5 |    k = g
    0    0    1   12    9   13    1    3    0    3    0    0    0    0    0    3    1    7    0    0    1    1    0    9    0    2   53 |    l = f
    0    0    2   27  150   47    6   47  181    0    0    0  104    0    6  100    0   12    0    1    1    0    0   16    0   15   33 |    m = i
    0    0    4   10   10   17    1    4    3    0    0    0    0    6    0    0    8    8    0    0    0    6    0    5    0    0   19 |    n = j
    0    0    0   11   95   32    0   37   11    2    0    0    5    0    0   52    0    9    0    0    0    0    9    2    0    3    4 |    o = m
    0    0    1    4   90   32    2   36   16    4    0    0    1    0    0  118    0   12    0    0    0    0    0    2    0    7    2 |    p = l
    1    1    4   54  181  364    5  203   85   33    0    0    0    1    0  149   10   82    1    2    0    0   29   11    1   22  138 |    q = o
    0    2    0   34  161   99    0  127   15    8    0    0   18    0    0  107    1   34    0    0    0    0    0    0    0   22   22 |    r = n
    3    0    6    3    5    5    1    0    2    2    0    0    3    1    0    0    0    9    0    0   13    1    0    1    0    0   26 |    s = q
    0    0    6   20   15   13    6    5    0    2    0    0    0    0    0   15    2   21    0    1    0    2    0   12    0    1   82 |    t = p
   27    0   45   61   32   55    1    3   17    4    0    0   18    1    0   34    7   45    0    2  153    8    0   23    0    9  360 |    u = s
    0    0    6   29   71   77    0   39   28    4    0    0    2    0    0   95    0   26    0    0    0    2    2    8    0    5   46 |    v = r
    0    1    1    4   24  100    4   72   13    4    0    0    0    0    0   55    5   11    0    0    0    2  101    9    0   12    5 |    w = u
    0    2   10   25   16    9   19    5    1    3    0    0    2    1    0    5    2   33    0    1    1    1    0   33    0    3  178 |    x = t
    0    0    0    1   64   12    0   18    8    0    0    0    0    0    1   24    0    7    0    0    0    0    0    2    0    4    1 |    y = v
    0    0    3    2   29    0    0    2    0    0    0    0    0    0    2   23    0   10    0    1    3    0    0    2    0   12    6 |    z = y
    0    0    0    0    0    0    0    0    0    0    0    0    0    0    0    0    0    0    0    0    0    0    0    0    0    0    8 |   aa = z

=== Percent Confusion Matrix ===
a	b	c	d	e	f	g	h	i	j	k	l	m	n	o	p	q	r	s	t	u	v	w	x	y	z	aa	
12.5	0.0	4.55	2.27	0.0	5.68	2.27	3.41	1.14	0.0	0.0	0.0	0.0	0.0	0.0	3.41	0.0	7.95	0.0	0.0	22.73	0.0	0.0	3.41	0.0	0.0	30.68	 a = ch
0.0	0.0	0.0	0.0	33.33	38.1	0.0	4.76	0.0	0.0	0.0	0.0	0.0	0.0	0.0	14.29	0.0	4.76	0.0	0.0	0.0	0.0	0.0	0.0	0.0	4.76	0.0	 b = rr
0.0	0.01	35.44	1.41	1.46	0.76	0.07	0.47	0.18	0.29	0.0	0.0	0.34	0.0	0.0	0.97	0.19	1.0	0.0	0.01	0.01	0.07	0.01	0.32	0.01	0.22	56.72	 c = 0
0.0	0.0	2.91	16.02	24.27	6.8	0.0	2.91	1.46	0.49	0.0	0.0	1.46	0.0	0.0	9.22	1.94	2.43	0.0	0.0	0.0	0.49	0.0	0.0	0.0	3.4	26.21	 d = hs
0.0	0.0	0.0	0.0	82.0	4.0	0.0	0.0	0.0	2.0	0.0	0.0	4.0	0.0	0.0	4.0	0.0	0.0	0.0	0.0	0.0	0.0	0.0	0.0	2.0	2.0	0.0	 e = hg
0.0	0.07	0.45	1.53	9.28	68.29	0.41	3.8	1.86	1.12	0.0	0.0	0.11	0.15	0.0	7.3	0.52	1.34	0.04	0.04	0.07	0.19	0.0	0.6	0.04	0.34	2.46	 f = a
2.88	0.0	4.68	6.83	4.32	1.44	1.8	0.36	1.8	0.36	0.0	0.0	0.72	0.36	0.0	2.16	0.0	3.24	0.0	0.72	7.91	1.08	0.36	8.99	0.0	0.36	49.64	 g = c
0.0	0.0	0.0	0.0	19.33	18.49	0.0	17.65	10.92	0.0	0.0	0.0	0.0	0.0	0.0	29.41	0.0	0.84	0.0	0.0	0.0	0.0	3.36	0.0	0.0	0.0	0.0	 h = b
0.0	0.28	0.07	2.29	32.41	19.05	0.49	7.65	20.31	0.07	0.0	0.0	0.49	0.07	0.07	8.55	0.28	2.23	0.0	0.07	0.07	0.0	0.0	1.18	0.0	0.83	3.55	 i = e
0.0	0.0	0.38	1.5	27.44	22.56	0.0	21.43	5.64	1.5	0.0	0.0	0.0	0.0	0.0	14.66	0.0	1.13	0.0	0.0	0.38	0.38	0.0	0.0	0.0	2.63	0.38	 j = d
0.0	0.0	0.0	3.74	20.56	34.58	0.0	4.67	12.15	0.0	0.0	0.0	5.61	0.0	0.0	8.41	0.0	4.67	0.0	0.0	0.0	0.0	0.0	0.93	0.0	0.0	4.67	 k = g
0.0	0.0	0.84	10.08	7.56	10.92	0.84	2.52	0.0	2.52	0.0	0.0	0.0	0.0	0.0	2.52	0.84	5.88	0.0	0.0	0.84	0.84	0.0	7.56	0.0	1.68	44.54	 l = f
0.0	0.0	0.27	3.61	20.05	6.28	0.8	6.28	24.2	0.0	0.0	0.0	13.9	0.0	0.8	13.37	0.0	1.6	0.0	0.13	0.13	0.0	0.0	2.14	0.0	2.01	4.41	 m = i
0.0	0.0	3.96	9.9	9.9	16.83	0.99	3.96	2.97	0.0	0.0	0.0	0.0	5.94	0.0	0.0	7.92	7.92	0.0	0.0	0.0	5.94	0.0	4.95	0.0	0.0	18.81	 n = j
0.0	0.0	0.0	4.04	34.93	11.76	0.0	13.6	4.04	0.74	0.0	0.0	1.84	0.0	0.0	19.12	0.0	3.31	0.0	0.0	0.0	0.0	3.31	0.74	0.0	1.1	1.47	 o = m
0.0	0.0	0.31	1.22	27.52	9.79	0.61	11.01	4.89	1.22	0.0	0.0	0.31	0.0	0.0	36.09	0.0	3.67	0.0	0.0	0.0	0.0	0.0	0.61	0.0	2.14	0.61	 p = l
0.07	0.07	0.29	3.92	13.14	26.43	0.36	14.74	6.17	2.4	0.0	0.0	0.0	0.07	0.0	10.82	0.73	5.95	0.07	0.15	0.0	0.0	2.11	0.8	0.07	1.6	10.02	 q = o
0.0	0.31	0.0	5.23	24.77	15.23	0.0	19.54	2.31	1.23	0.0	0.0	2.77	0.0	0.0	16.46	0.15	5.23	0.0	0.0	0.0	0.0	0.0	0.0	0.0	3.38	3.38	 r = n
3.7	0.0	7.41	3.7	6.17	6.17	1.23	0.0	2.47	2.47	0.0	0.0	3.7	1.23	0.0	0.0	0.0	11.11	0.0	0.0	16.05	1.23	0.0	1.23	0.0	0.0	32.1	 s = q
0.0	0.0	2.96	9.85	7.39	6.4	2.96	2.46	0.0	0.99	0.0	0.0	0.0	0.0	0.0	7.39	0.99	10.34	0.0	0.49	0.0	0.99	0.0	5.91	0.0	0.49	40.39	 t = p
2.98	0.0	4.97	6.74	3.54	6.08	0.11	0.33	1.88	0.44	0.0	0.0	1.99	0.11	0.0	3.76	0.77	4.97	0.0	0.22	16.91	0.88	0.0	2.54	0.0	0.99	39.78	 u = s
0.0	0.0	1.36	6.59	16.14	17.5	0.0	8.86	6.36	0.91	0.0	0.0	0.45	0.0	0.0	21.59	0.0	5.91	0.0	0.0	0.0	0.45	0.45	1.82	0.0	1.14	10.45	 v = r
0.0	0.24	0.24	0.95	5.67	23.64	0.95	17.02	3.07	0.95	0.0	0.0	0.0	0.0	0.0	13.0	1.18	2.6	0.0	0.0	0.0	0.47	23.88	2.13	0.0	2.84	1.18	 w = u
0.0	0.57	2.86	7.14	4.57	2.57	5.43	1.43	0.29	0.86	0.0	0.0	0.57	0.29	0.0	1.43	0.57	9.43	0.0	0.29	0.29	0.29	0.0	9.43	0.0	0.86	50.86	 x = t
0.0	0.0	0.0	0.7	45.07	8.45	0.0	12.68	5.63	0.0	0.0	0.0	0.0	0.0	0.7	16.9	0.0	4.93	0.0	0.0	0.0	0.0	0.0	1.41	0.0	2.82	0.7	 y = v
0.0	0.0	3.16	2.11	30.53	0.0	0.0	2.11	0.0	0.0	0.0	0.0	0.0	0.0	2.11	24.21	0.0	10.53	0.0	1.05	3.16	0.0	0.0	2.11	0.0	12.63	6.32	 z = y
0.0	0.0	0.0	0.0	0.0	0.0	0.0	0.0	0.0	0.0	0.0	0.0	0.0	0.0	0.0	0.0	0.0	0.0	0.0	0.0	0.0	0.0	0.0	0.0	0.0	0.0	100.0	 aa = z
