Timestamp:2013-07-22-20:14:32
Inventario:I0
Intervalo:1ms
Ngramas:3
Clasificador:RandomForest
Relation Name:  I0-1ms-3gramas
Num Instances:  183402
Num Attributes: 31

     Name                      Type  Nom  Int Real     Missing      Unique  Dist
   1 0Int(dB)                   Num   0%   9%  91%     0 /  0%     3 /  0%   780 
   2 0Pitch(Hz)                 Num   0%  51%  49%     0 /  0%   256 /  0%  4213 
   3 0RawPitch                  Num   0%  55%  45%     0 /  0%   417 /  0%  4119 
   4 0SmPitch                   Num   0%  53%  47%     0 /  0%   263 /  0%  4193 
   5 0Melogram(st)              Num   0%  49%  51%     0 /  0%   133 /  0%  3454 
   6 0ZCross                    Num   0% 100%   0%     0 /  0%     4 /  0%    58 
   7 0F1(Hz)                    Num   0%  52%  48%     0 /  0%  1154 /  1%  4824 
   8 0F2(Hz)                    Num   0%  52%  48%     0 /  0%  2223 /  1%  6697 
   9 0F3(Hz)                    Num   0%  53%  47%     0 /  0%  1930 /  1%  6200 
  10 0F4(Hz)                    Num   0%  52%  48%     0 /  0%  1933 /  1%  6096 
  11 1Int(dB)                   Num   0%   9%  91%     0 /  0%     4 /  0%   781 
  12 1Pitch(Hz)                 Num   0%  51%  49%     0 /  0%   256 /  0%  4213 
  13 1RawPitch                  Num   0%  55%  45%     0 /  0%   417 /  0%  4119 
  14 1SmPitch                   Num   0%  53%  47%     0 /  0%   263 /  0%  4193 
  15 1Melogram(st)              Num   0%  49%  51%     0 /  0%   133 /  0%  3454 
  16 1ZCross                    Num   0% 100%   0%     0 /  0%     4 /  0%    58 
  17 1F1(Hz)                    Num   0%  52%  48%     0 /  0%  1154 /  1%  4824 
  18 1F2(Hz)                    Num   0%  52%  48%     0 /  0%  2223 /  1%  6697 
  19 1F3(Hz)                    Num   0%  53%  47%     0 /  0%  1930 /  1%  6200 
  20 1F4(Hz)                    Num   0%  52%  48%     0 /  0%  1933 /  1%  6096 
  21 2Int(dB)                   Num   0%   9%  91%     0 /  0%     3 /  0%   781 
  22 2Pitch(Hz)                 Num   0%  51%  49%     0 /  0%   256 /  0%  4213 
  23 2RawPitch                  Num   0%  55%  45%     0 /  0%   417 /  0%  4119 
  24 2SmPitch                   Num   0%  53%  47%     0 /  0%   263 /  0%  4193 
  25 2Melogram(st)              Num   0%  49%  51%     0 /  0%   133 /  0%  3454 
  26 2ZCross                    Num   0% 100%   0%     0 /  0%     4 /  0%    58 
  27 2F1(Hz)                    Num   0%  52%  48%     0 /  0%  1154 /  1%  4824 
  28 2F2(Hz)                    Num   0%  52%  48%     0 /  0%  2223 /  1%  6697 
  29 2F3(Hz)                    Num   0%  53%  47%     0 /  0%  1930 /  1%  6200 
  30 2F4(Hz)                    Num   0%  52%  48%     0 /  0%  1933 /  1%  6096 
  31 class                      Nom 100%   0%   0%     0 /  0%     0 /  0%    27 


Options: -I 10 -K 0 -S 1 -num-slots 4 

Random forest of 10 trees, each constructed while considering 5 random features.
Out of bag error: 0.1308





=== Stratified cross-validation ===

Correctly Classified Instances      163495               89.1457 %
Incorrectly Classified Instances     19907               10.8543 %
Kappa statistic                          0.8643
K&B Relative Info Score            15512102.3596 %
K&B Information Score               509398.5749 bits      2.7775 bits/instance
Class complexity | order 0          602180.0822 bits      3.2834 bits/instance
Class complexity | scheme          10327187.8007 bits     56.309  bits/instance
Complexity improvement     (Sf)    -9725007.7184 bits    -53.0256 bits/instance
Mean absolute error                      0.0114
Root mean squared error                  0.0783
Relative absolute error                 19.0692 %
Root relative squared error             45.3043 %
Coverage of cases (0.95 level)          94.5895 %
Mean rel. region size (0.95 level)       6.2145 %
Total Number of Instances           183402     


=== Detailed Accuracy By Class ===

                 TP Rate  FP Rate  Precision  Recall   F-Measure  MCC      ROC Area  PRC Area  Class
                 0,386    0,002    0,487      0,386    0,431      0,432    0,798     0,387     ch
                 0,977    0,000    0,968      0,977    0,972      0,972    1,000     0,993     rr
                 0,947    0,062    0,908      0,947    0,927      0,878    0,982     0,964     0
                 0,648    0,003    0,730      0,648    0,687      0,685    0,861     0,661     hs
                 0,972    0,000    0,988      0,972    0,980      0,979    0,997     0,991     hg
                 0,960    0,007    0,956      0,960    0,958      0,951    0,987     0,976     a
                 0,383    0,007    0,437      0,383    0,409      0,401    0,807     0,352     c
                 0,963    0,000    0,970      0,963    0,966      0,966    0,998     0,991     b
                 0,941    0,005    0,942      0,941    0,941      0,937    0,982     0,961     e
                 0,959    0,000    0,966      0,959    0,962      0,962    0,996     0,985     d
                 0,895    0,000    0,931      0,895    0,912      0,912    0,970     0,928     g
                 0,471    0,003    0,529      0,471    0,498      0,496    0,833     0,471     f
                 0,923    0,002    0,940      0,923    0,931      0,929    0,977     0,947     i
                 0,694    0,001    0,773      0,694    0,731      0,731    0,891     0,720     j
                 0,961    0,000    0,974      0,961    0,968      0,967    0,991     0,978     m
                 0,958    0,001    0,970      0,958    0,964      0,963    0,996     0,984     l
                 0,877    0,006    0,922      0,877    0,899      0,891    0,956     0,910     o
                 0,936    0,002    0,951      0,936    0,943      0,942    0,983     0,960     n
                 0,444    0,001    0,621      0,444    0,518      0,523    0,799     0,467     q
                 0,474    0,004    0,576      0,474    0,520      0,518    0,827     0,482     p
                 0,708    0,017    0,673      0,708    0,690      0,674    0,934     0,722     s
                 0,838    0,002    0,894      0,838    0,865      0,863    0,947     0,870     r
                 0,958    0,001    0,975      0,958    0,966      0,965    0,992     0,979     u
                 0,400    0,008    0,486      0,400    0,439      0,431    0,820     0,383     t
                 0,937    0,000    0,975      0,937    0,956      0,955    0,994     0,976     v
                 0,835    0,000    0,907      0,835    0,870      0,870    0,944     0,865     y
                 0,000    0,000    0,000      0,000    0,000      -0,000   0,522     0,001     z
Weighted Avg.    0,891    0,028    0,888      0,891    0,889      0,867    0,966     0,910     


=== Confusion Matrix ===

     a     b     c     d     e     f     g     h     i     j     k     l     m     n     o     p     q     r     s     t     u     v     w     x     y     z    aa   <-- classified as
   330     0   110     3     0    20    43     0     7     0     1    11     3     4     0     0     8     0    10    11   258     3     1    30     0     1     0 |     a = ch
     0   212     0     0     0     2     0     0     3     0     0     0     0     0     0     0     0     0     0     0     0     0     0     0     0     0     0 |     b = rr
    72     0 68262   204     2   281   389     5   201    12    18    84   126    36    15    28   459    65    53   218   887   121    23   532     5     5    12 |     c = 0
     3     0   405  1264     0    20    22     0    22     0     2    13     6     3     1     2    22    13     4    22    81    10     1    32     0     0     2 |     d = hs
     0     0     2     0   478     4     0     0     3     0     0     0     3     0     0     0     0     1     0     0     0     0     1     0     0     0     0 |     e = hg
    10     5   439    17     1 25074    83     5    35     7     9    14    24     8    11    20    23    25     8    42   121    42     7    74     5     4     2 |     f = a
    33     0   732    21     0    91  1041     0    42     1     1    27    18    15     6     1    55    11    52    52   286    24    12   185     4     2     3 |     g = c
     0     0     5     0     0    13     0  1152     4     0     0     0     8     0     2     1     3     0     0     0     0     5     3     0     0     0     0 |     h = b
     7     2   313    19     0    43    51     5 12925    13     8    14    23     2     4     9    29    27    11    30    91    36     0    63     7     6     2 |     i = e
     0     0    13     1     0    16     1     0    24  2509     0     3     2     0     0     0    19    10     0     0     9     5     2     1     0     1     1 |     j = d
     3     0    34     3     0    20     0     0    14     0   969     4     3     0     0     0     5     1     1     4    13     2     2     5     0     0     0 |     k = g
    11     0   123    10     0    23    35     0    16     2     2   546     9    13     0     0    23    11     6    24   260     6     0    33     0     5     2 |     l = f
     2     0   252    10     1    39    25     5    39     1     3     3  6538     2     3     9    11     4     2    17    52     7    10    39     6     3     0 |     m = i
     6     0    55     3     0    19    23     0    10     0     0    20     4   679     0     0     9     3     5     7   116     1     0    12     2     4     1 |     n = j
     0     0    30     1     0     9     5     1     8     0     0     0    16     0  2511     3     6     0     0     6     5     0     6     6     0     0     0 |     o = m
     3     0    34     1     0    35     1     0    17     1     0     0     7     0     4  3076    13     2     0     4     3     4     3     0     0     2     0 |     p = l
     5     0  1061    24     2    75    47     3    31    27     1    28    18     6     8    12 11600    24     8    34   122    22     2    63     4     4     3 |     q = o
     1     0   124    11     0    39    14     0    47    10     1    16     9     3     0     2    33  5903     0    14    52     2     1    24     0     0     2 |     r = n
    18     0   176     3     0    13    81     0    16     0     1     8     2     6     0     0     7     3   373    10    78     2     4    38     0     1     0 |     s = q
     7     0   475    24     0    76    80     0    36     1     1    26    16     5     2     1    30    14     8   951   142    22     5    74     0     5     4 |     t = p
   120     0  1197    66     0    90   200     0    72     3    12   161    43    74     2     1   102    46    33    99  6245    51     6   164     1    22    16 |     u = s
     4     0   249    13     0    85    19     4    51     4     3    12    15     3     0     2    36     2     2    24    92  3474     2    48     0     4     0 |     v = r
     1     0    44     0     0    22    14     6    15     1     2     0    16     1     3     2    10     3     5     5     7     2  3963    12     0     3     0 |     w = u
    40     0  1025    28     0   105   193     1    55     2     7    35    31    11     4     2    70    34    20    67   265    37     6  1364     0     4     3 |     x = t
     0     0    16     0     0    17     6     1    19     1     0     0    10     2     1     0     6     0     0     0     3     2     2     2  1313     0     0 |     y = v
     0     0    18     3     0     6     5     0     4     1     0     5     5     4     0     1     5     0     0     4    74     4     4     4     0   743     0 |     z = y
     1     0    16     3     0     1     2     0     1     1     0     3     0     1     0     0     2     3     0     6    22     0     0     3     0     0     0 |    aa = z

=== Percent Confusion Matrix ===
a	b	c	d	e	f	g	h	i	j	k	l	m	n	o	p	q	r	s	t	u	v	w	x	y	z	aa	
38.64	0.0	12.88	0.35	0.0	2.34	5.04	0.0	0.82	0.0	0.12	1.29	0.35	0.47	0.0	0.0	0.94	0.0	1.17	1.29	30.21	0.35	0.12	3.51	0.0	0.12	0.0	 a = ch
0.0	97.7	0.0	0.0	0.0	0.92	0.0	0.0	1.38	0.0	0.0	0.0	0.0	0.0	0.0	0.0	0.0	0.0	0.0	0.0	0.0	0.0	0.0	0.0	0.0	0.0	0.0	 b = rr
0.1	0.0	94.66	0.28	0.0	0.39	0.54	0.01	0.28	0.02	0.02	0.12	0.17	0.05	0.02	0.04	0.64	0.09	0.07	0.3	1.23	0.17	0.03	0.74	0.01	0.01	0.02	 c = 0
0.15	0.0	20.77	64.82	0.0	1.03	1.13	0.0	1.13	0.0	0.1	0.67	0.31	0.15	0.05	0.1	1.13	0.67	0.21	1.13	4.15	0.51	0.05	1.64	0.0	0.0	0.1	 d = hs
0.0	0.0	0.41	0.0	97.15	0.81	0.0	0.0	0.61	0.0	0.0	0.0	0.61	0.0	0.0	0.0	0.0	0.2	0.0	0.0	0.0	0.0	0.2	0.0	0.0	0.0	0.0	 e = hg
0.04	0.02	1.68	0.07	0.0	96.01	0.32	0.02	0.13	0.03	0.03	0.05	0.09	0.03	0.04	0.08	0.09	0.1	0.03	0.16	0.46	0.16	0.03	0.28	0.02	0.02	0.01	 f = a
1.22	0.0	26.96	0.77	0.0	3.35	38.34	0.0	1.55	0.04	0.04	0.99	0.66	0.55	0.22	0.04	2.03	0.41	1.92	1.92	10.53	0.88	0.44	6.81	0.15	0.07	0.11	 g = c
0.0	0.0	0.42	0.0	0.0	1.09	0.0	96.32	0.33	0.0	0.0	0.0	0.67	0.0	0.17	0.08	0.25	0.0	0.0	0.0	0.0	0.42	0.25	0.0	0.0	0.0	0.0	 h = b
0.05	0.01	2.28	0.14	0.0	0.31	0.37	0.04	94.07	0.09	0.06	0.1	0.17	0.01	0.03	0.07	0.21	0.2	0.08	0.22	0.66	0.26	0.0	0.46	0.05	0.04	0.01	 i = e
0.0	0.0	0.5	0.04	0.0	0.61	0.04	0.0	0.92	95.87	0.0	0.11	0.08	0.0	0.0	0.0	0.73	0.38	0.0	0.0	0.34	0.19	0.08	0.04	0.0	0.04	0.04	 j = d
0.28	0.0	3.14	0.28	0.0	1.85	0.0	0.0	1.29	0.0	89.47	0.37	0.28	0.0	0.0	0.0	0.46	0.09	0.09	0.37	1.2	0.18	0.18	0.46	0.0	0.0	0.0	 k = g
0.95	0.0	10.6	0.86	0.0	1.98	3.02	0.0	1.38	0.17	0.17	47.07	0.78	1.12	0.0	0.0	1.98	0.95	0.52	2.07	22.41	0.52	0.0	2.84	0.0	0.43	0.17	 l = f
0.03	0.0	3.56	0.14	0.01	0.55	0.35	0.07	0.55	0.01	0.04	0.04	92.31	0.03	0.04	0.13	0.16	0.06	0.03	0.24	0.73	0.1	0.14	0.55	0.08	0.04	0.0	 m = i
0.61	0.0	5.62	0.31	0.0	1.94	2.35	0.0	1.02	0.0	0.0	2.04	0.41	69.36	0.0	0.0	0.92	0.31	0.51	0.72	11.85	0.1	0.0	1.23	0.2	0.41	0.1	 n = j
0.0	0.0	1.15	0.04	0.0	0.34	0.19	0.04	0.31	0.0	0.0	0.0	0.61	0.0	96.1	0.11	0.23	0.0	0.0	0.23	0.19	0.0	0.23	0.23	0.0	0.0	0.0	 o = m
0.09	0.0	1.06	0.03	0.0	1.09	0.03	0.0	0.53	0.03	0.0	0.0	0.22	0.0	0.12	95.83	0.4	0.06	0.0	0.12	0.09	0.12	0.09	0.0	0.0	0.06	0.0	 p = l
0.04	0.0	8.02	0.18	0.02	0.57	0.36	0.02	0.23	0.2	0.01	0.21	0.14	0.05	0.06	0.09	87.65	0.18	0.06	0.26	0.92	0.17	0.02	0.48	0.03	0.03	0.02	 q = o
0.02	0.0	1.97	0.17	0.0	0.62	0.22	0.0	0.75	0.16	0.02	0.25	0.14	0.05	0.0	0.03	0.52	93.58	0.0	0.22	0.82	0.03	0.02	0.38	0.0	0.0	0.03	 r = n
2.14	0.0	20.95	0.36	0.0	1.55	9.64	0.0	1.9	0.0	0.12	0.95	0.24	0.71	0.0	0.0	0.83	0.36	44.4	1.19	9.29	0.24	0.48	4.52	0.0	0.12	0.0	 s = q
0.35	0.0	23.69	1.2	0.0	3.79	3.99	0.0	1.8	0.05	0.05	1.3	0.8	0.25	0.1	0.05	1.5	0.7	0.4	47.43	7.08	1.1	0.25	3.69	0.0	0.25	0.2	 t = p
1.36	0.0	13.56	0.75	0.0	1.02	2.27	0.0	0.82	0.03	0.14	1.82	0.49	0.84	0.02	0.01	1.16	0.52	0.37	1.12	70.76	0.58	0.07	1.86	0.01	0.25	0.18	 u = s
0.1	0.0	6.0	0.31	0.0	2.05	0.46	0.1	1.23	0.1	0.07	0.29	0.36	0.07	0.0	0.05	0.87	0.05	0.05	0.58	2.22	83.75	0.05	1.16	0.0	0.1	0.0	 v = r
0.02	0.0	1.06	0.0	0.0	0.53	0.34	0.15	0.36	0.02	0.05	0.0	0.39	0.02	0.07	0.05	0.24	0.07	0.12	0.12	0.17	0.05	95.79	0.29	0.0	0.07	0.0	 w = u
1.17	0.0	30.07	0.82	0.0	3.08	5.66	0.03	1.61	0.06	0.21	1.03	0.91	0.32	0.12	0.06	2.05	1.0	0.59	1.97	7.77	1.09	0.18	40.01	0.0	0.12	0.09	 x = t
0.0	0.0	1.14	0.0	0.0	1.21	0.43	0.07	1.36	0.07	0.0	0.0	0.71	0.14	0.07	0.0	0.43	0.0	0.0	0.0	0.21	0.14	0.14	0.14	93.72	0.0	0.0	 y = v
0.0	0.0	2.02	0.34	0.0	0.67	0.56	0.0	0.45	0.11	0.0	0.56	0.56	0.45	0.0	0.11	0.56	0.0	0.0	0.45	8.31	0.45	0.45	0.45	0.0	83.48	0.0	 z = y
1.54	0.0	24.62	4.62	0.0	1.54	3.08	0.0	1.54	1.54	0.0	4.62	0.0	1.54	0.0	0.0	3.08	4.62	0.0	9.23	33.85	0.0	0.0	4.62	0.0	0.0	0.0	 aa = z
