Timestamp:2013-08-30-03:30:27
Inventario:I0
Intervalo:1ms
Ngramas:3
Clasificador:BayesNet
Relation Name:  I0-1ms-3gramas
Num Instances:  183402
Num Attributes: 31

     Name                      Type  Nom  Int Real     Missing      Unique  Dist
   1 0Int(dB)                   Num   0%   9%  91%     0 /  0%     3 /  0%   780 
   2 0Pitch(Hz)                 Num   0%  51%  49%     0 /  0%   256 /  0%  4213 
   3 0RawPitch                  Num   0%  55%  45%     0 /  0%   417 /  0%  4119 
   4 0SmPitch                   Num   0%  53%  47%     0 /  0%   263 /  0%  4193 
   5 0Melogram(st)              Num   0%  49%  51%     0 /  0%   133 /  0%  3454 
   6 0ZCross                    Num   0% 100%   0%     0 /  0%     4 /  0%    58 
   7 0F1(Hz)                    Num   0%  52%  48%     0 /  0%  1154 /  1%  4824 
   8 0F2(Hz)                    Num   0%  52%  48%     0 /  0%  2223 /  1%  6697 
   9 0F3(Hz)                    Num   0%  53%  47%     0 /  0%  1930 /  1%  6200 
  10 0F4(Hz)                    Num   0%  52%  48%     0 /  0%  1933 /  1%  6096 
  11 1Int(dB)                   Num   0%   9%  91%     0 /  0%     4 /  0%   781 
  12 1Pitch(Hz)                 Num   0%  51%  49%     0 /  0%   256 /  0%  4213 
  13 1RawPitch                  Num   0%  55%  45%     0 /  0%   417 /  0%  4119 
  14 1SmPitch                   Num   0%  53%  47%     0 /  0%   263 /  0%  4193 
  15 1Melogram(st)              Num   0%  49%  51%     0 /  0%   133 /  0%  3454 
  16 1ZCross                    Num   0% 100%   0%     0 /  0%     4 /  0%    58 
  17 1F1(Hz)                    Num   0%  52%  48%     0 /  0%  1154 /  1%  4824 
  18 1F2(Hz)                    Num   0%  52%  48%     0 /  0%  2223 /  1%  6697 
  19 1F3(Hz)                    Num   0%  53%  47%     0 /  0%  1930 /  1%  6200 
  20 1F4(Hz)                    Num   0%  52%  48%     0 /  0%  1933 /  1%  6096 
  21 2Int(dB)                   Num   0%   9%  91%     0 /  0%     3 /  0%   781 
  22 2Pitch(Hz)                 Num   0%  51%  49%     0 /  0%   256 /  0%  4213 
  23 2RawPitch                  Num   0%  55%  45%     0 /  0%   417 /  0%  4119 
  24 2SmPitch                   Num   0%  53%  47%     0 /  0%   263 /  0%  4193 
  25 2Melogram(st)              Num   0%  49%  51%     0 /  0%   133 /  0%  3454 
  26 2ZCross                    Num   0% 100%   0%     0 /  0%     4 /  0%    58 
  27 2F1(Hz)                    Num   0%  52%  48%     0 /  0%  1154 /  1%  4824 
  28 2F2(Hz)                    Num   0%  52%  48%     0 /  0%  2223 /  1%  6697 
  29 2F3(Hz)                    Num   0%  53%  47%     0 /  0%  1930 /  1%  6200 
  30 2F4(Hz)                    Num   0%  52%  48%     0 /  0%  1933 /  1%  6096 
  31 class                      Nom 100%   0%   0%     0 /  0%     0 /  0%    27 


Options: -D -Q weka.classifiers.bayes.net.search.local.K2 -- -P 1 -S BAYES -E weka.classifiers.bayes.net.estimate.SimpleEstimator -- -A 0.5 

Bayes Network Classifier
not using ADTree
#attributes=31 #classindex=30
Network structure (nodes followed by parents)
0Int(dB)(34): class 
0Pitch(Hz)(89): class 
0RawPitch(58): class 
0SmPitch(79): class 
0Melogram(st)(86): class 
0ZCross(19): class 
0F1(Hz)(2802): class 
0F2(Hz)(3580): class 
0F3(Hz)(3751): class 
0F4(Hz)(3692): class 
1Int(dB)(33): class 
1Pitch(Hz)(90): class 
1RawPitch(54): class 
1SmPitch(79): class 
1Melogram(st)(88): class 
1ZCross(19): class 
1F1(Hz)(2785): class 
1F2(Hz)(3605): class 
1F3(Hz)(3755): class 
1F4(Hz)(3661): class 
2Int(dB)(33): class 
2Pitch(Hz)(95): class 
2RawPitch(58): class 
2SmPitch(79): class 
2Melogram(st)(88): class 
2ZCross(18): class 
2F1(Hz)(2785): class 
2F2(Hz)(3608): class 
2F3(Hz)(3772): class 
2F4(Hz)(3673): class 
class(27): 
LogScore Bayes: -1.6209271984799376E7
LogScore BDeu: -3.2246005530015327E7
LogScore MDL: -2.76161432262377E7
LogScore ENTROPY: -2.0656242144990757E7
LogScore AIC: -2.180479414499076E7




=== Stratified cross-validation ===

Correctly Classified Instances      147704               80.5357 %
Incorrectly Classified Instances     35698               19.4643 %
Kappa statistic                          0.7563
K&B Relative Info Score            13783147.4405 %
K&B Information Score               452621.7982 bits      2.4679 bits/instance
Class complexity | order 0          602180.0822 bits      3.2834 bits/instance
Class complexity | scheme          1289513.8619 bits      7.0311 bits/instance
Complexity improvement     (Sf)    -687333.7796 bits     -3.7477 bits/instance
Mean absolute error                      0.0145
Root mean squared error                  0.116 
Relative absolute error                 24.2884 %
Root relative squared error             67.1329 %
Coverage of cases (0.95 level)          82.5171 %
Mean rel. region size (0.95 level)       4.0592 %
Total Number of Instances           183402     


=== Detailed Accuracy By Class ===

                 TP Rate  FP Rate  Precision  Recall   F-Measure  MCC      ROC Area  PRC Area  Class
                 0,234    0,002    0,420      0,234    0,301      0,311    0,957     0,286     ch
                 0,982    0,006    0,162      0,982    0,279      0,398    1,000     0,866     rr
                 0,898    0,123    0,826      0,898    0,861      0,766    0,972     0,962     0
                 0,604    0,004    0,636      0,604    0,619      0,616    0,939     0,612     hs
                 0,980    0,011    0,187      0,980    0,315      0,426    0,998     0,881     hg
                 0,813    0,004    0,972      0,813    0,885      0,873    0,979     0,954     a
                 0,196    0,003    0,524      0,196    0,285      0,314    0,938     0,314     c
                 0,978    0,005    0,572      0,978    0,722      0,746    0,999     0,929     b
                 0,798    0,005    0,929      0,798    0,859      0,851    0,972     0,910     e
                 0,914    0,005    0,710      0,914    0,799      0,802    0,991     0,862     d
                 0,876    0,005    0,489      0,876    0,628      0,652    0,959     0,828     g
                 0,384    0,002    0,613      0,384    0,472      0,483    0,968     0,432     f
                 0,832    0,003    0,909      0,832    0,869      0,865    0,967     0,891     i
                 0,662    0,002    0,699      0,662    0,680      0,679    0,959     0,675     j
                 0,928    0,003    0,823      0,928    0,872      0,872    0,989     0,928     m
                 0,940    0,005    0,783      0,940    0,855      0,855    0,991     0,894     l
                 0,757    0,005    0,916      0,757    0,829      0,821    0,942     0,863     o
                 0,874    0,004    0,885      0,874    0,879      0,875    0,975     0,909     n
                 0,376    0,002    0,461      0,376    0,414      0,414    0,939     0,392     q
                 0,376    0,001    0,736      0,376    0,498      0,523    0,952     0,446     p
                 0,546    0,015    0,641      0,546    0,590      0,573    0,970     0,689     s
                 0,776    0,006    0,757      0,776    0,766      0,761    0,939     0,778     r
                 0,902    0,002    0,915      0,902    0,908      0,906    0,984     0,935     u
                 0,232    0,004    0,541      0,232    0,325      0,347    0,936     0,347     t
                 0,941    0,005    0,592      0,941    0,727      0,744    0,985     0,859     v
                 0,781    0,010    0,280      0,781    0,412      0,464    0,954     0,731     y
                 0,000    0,005    0,000      0,000    0,000      -0,001   0,880     0,001     z
Weighted Avg.    0,805    0,051    0,826      0,805    0,807      0,768    0,969     0,880     


=== Confusion Matrix ===

     a     b     c     d     e     f     g     h     i     j     k     l     m     n     o     p     q     r     s     t     u     v     w     x     y     z    aa   <-- classified as
   200     0   285     0     0     0     3     0     0     0     2     0     0     0     0     0     9     0     0     0   340     3     0     6     6     0     0 |     a = ch
     0   213     0     0     0     2     0     0     2     0     0     0     0     0     0     0     0     0     0     0     0     0     0     0     0     0     0 |     b = rr
   124   303 64779   222   876   262    88   267   439   241   256   146   294   232   140   193   325   228   216   145   323   298   162   149   362   745   300 |     c = 0
     0     6   654  1177     5     0     0     2    29     6     0     0     3     0     0     9    10     0     0     0    37     0     0     2     7     3     0 |     d = hs
     0     1     0     0   482     1     0     0     2     0     0     0     4     0     0     0     0     0     0     0     0     0     2     0     0     0     0 |     e = hg
    41   291   750   152   630 21236   108   221    22   202   302    60    45    15   124   328   126   153    69    45   189   235    34    94   184   353   106 |     f = a
     5     2  1423     4     5     8   531     1    30     3     3     2    17     0     7     1    43     0     2     5   521    16    46    37     2     1     0 |     g = c
     0     0     0     0     0     1     0  1170     0     0     2     0     9     0     6     0     0     0     0     0     0     5     1     0     2     0     0 |     h = b
    22   137   521   119   175    37    33    64 10970   138   119    28    34    13    65   113    71   169    39    26    95   177    39    66   141   205   124 |     i = e
     0    19    28     1     6     6     2     1    18  2392     6     2     1     0     1     0    11    27     0     4     0     9     7     5     0    45    26 |     j = d
     0     3    66     2    11    10     3     0    13     0   949     2     4     0     0     0     0     0     0     0     9     7     2     0     0     2     0 |     k = g
     0     4   581     1     5     4     2     0    11     0     1   446     4     0     0     0    10     0     0     0    65     2     2    19     1     2     0 |     l = f
    19    10   329    23    49    13    48    66    16    18    43     6  5893     1    45    40    47    14    10     2    86    51     1    59    59    54    81 |     m = i
     0     0   188     0     7     0    10     0     6     0     0     0     0   648     0     0     0     0     1     2   112     0     1     4     0     0     0 |     n = j
     0     9    41     8     1     3     1    13     6     0     9     1    20     0  2426     0    22     0     2     3     3     0     7     3     0    19    16 |     o = m
     0     3    18    12     4    13     1    14    22     0     9     0     7     0    13  3019    12     7     1     0    25    12     2     1     0     5    10 |     p = l
    10   168  1432    51   125    45    34    96     7   267   158    17    32     2    86    74 10020    75     8    16    50    85     4    60    68   111   133 |     q = o
    10    33   244     4    49    40    11    12    45    37    31     4    24     0     2    17    11  5514     2     1     0     4    18    47    17    43    88 |     r = n
     2     0   290     0     3     0     6     0    15     0     0     0     0     0     0     0     2     0   316     4   187    13     0     1     0     1     0 |     s = q
     4     0   971     4     5    17    21     2    21     0     0     1     0     1     0     7    29     0     0   754   101    34     1    22     3     7     0 |     t = p
    14    73  3320     9    78    71    15    29    29    23    11     3    39     7     6    15    22     3     6     2  4817    19    14    32    51   118     0 |     u = s
     6    12   462    31    19    41    16    51    63    34     7     7    28     2     1    12    15     0     0     9    65  3218     0    21     3    22     3 |     v = r
     6     9    56     6    19     1    21    19     6     7    18     1     3     4    27    13    26    15    11     3    28    19  3730    29     3    39    18 |     w = u
    13    12  1827    24    15    44    50    11    26     1    13     0    13     2     0     4   128    26     0     3   350    40     3   790     0    14     0 |     x = t
     0     4    17     1     1     3     4     5     7     0     1     1    11     0     0     0     3     0     0     0    14     0     0    10  1319     0     0 |     y = v
     0     0    67     0     2     0     5     0     4     0     0     1     0     0     0    11     0     0     2     0    95     4     1     3     0   695     0 |     z = y
     0     0    65     0     0     0     0     0     0     0     0     0     0     0     0     0     0     0     0     0     0     0     0     0     0     0     0 |    aa = z

=== Percent Confusion Matrix ===
a	b	c	d	e	f	g	h	i	j	k	l	m	n	o	p	q	r	s	t	u	v	w	x	y	z	aa	
23.42	0.0	33.37	0.0	0.0	0.0	0.35	0.0	0.0	0.0	0.23	0.0	0.0	0.0	0.0	0.0	1.05	0.0	0.0	0.0	39.81	0.35	0.0	0.7	0.7	0.0	0.0	 a = ch
0.0	98.16	0.0	0.0	0.0	0.92	0.0	0.0	0.92	0.0	0.0	0.0	0.0	0.0	0.0	0.0	0.0	0.0	0.0	0.0	0.0	0.0	0.0	0.0	0.0	0.0	0.0	 b = rr
0.17	0.42	89.83	0.31	1.21	0.36	0.12	0.37	0.61	0.33	0.35	0.2	0.41	0.32	0.19	0.27	0.45	0.32	0.3	0.2	0.45	0.41	0.22	0.21	0.5	1.03	0.42	 c = 0
0.0	0.31	33.54	60.36	0.26	0.0	0.0	0.1	1.49	0.31	0.0	0.0	0.15	0.0	0.0	0.46	0.51	0.0	0.0	0.0	1.9	0.0	0.0	0.1	0.36	0.15	0.0	 d = hs
0.0	0.2	0.0	0.0	97.97	0.2	0.0	0.0	0.41	0.0	0.0	0.0	0.81	0.0	0.0	0.0	0.0	0.0	0.0	0.0	0.0	0.0	0.41	0.0	0.0	0.0	0.0	 e = hg
0.16	1.11	2.87	0.58	2.41	81.32	0.41	0.85	0.08	0.77	1.16	0.23	0.17	0.06	0.47	1.26	0.48	0.59	0.26	0.17	0.72	0.9	0.13	0.36	0.7	1.35	0.41	 f = a
0.18	0.07	52.41	0.15	0.18	0.29	19.56	0.04	1.1	0.11	0.11	0.07	0.63	0.0	0.26	0.04	1.58	0.0	0.07	0.18	19.19	0.59	1.69	1.36	0.07	0.04	0.0	 g = c
0.0	0.0	0.0	0.0	0.0	0.08	0.0	97.83	0.0	0.0	0.17	0.0	0.75	0.0	0.5	0.0	0.0	0.0	0.0	0.0	0.0	0.42	0.08	0.0	0.17	0.0	0.0	 h = b
0.16	1.0	3.79	0.87	1.27	0.27	0.24	0.47	79.84	1.0	0.87	0.2	0.25	0.09	0.47	0.82	0.52	1.23	0.28	0.19	0.69	1.29	0.28	0.48	1.03	1.49	0.9	 i = e
0.0	0.73	1.07	0.04	0.23	0.23	0.08	0.04	0.69	91.4	0.23	0.08	0.04	0.0	0.04	0.0	0.42	1.03	0.0	0.15	0.0	0.34	0.27	0.19	0.0	1.72	0.99	 j = d
0.0	0.28	6.09	0.18	1.02	0.92	0.28	0.0	1.2	0.0	87.63	0.18	0.37	0.0	0.0	0.0	0.0	0.0	0.0	0.0	0.83	0.65	0.18	0.0	0.0	0.18	0.0	 k = g
0.0	0.34	50.09	0.09	0.43	0.34	0.17	0.0	0.95	0.0	0.09	38.45	0.34	0.0	0.0	0.0	0.86	0.0	0.0	0.0	5.6	0.17	0.17	1.64	0.09	0.17	0.0	 l = f
0.27	0.14	4.64	0.32	0.69	0.18	0.68	0.93	0.23	0.25	0.61	0.08	83.2	0.01	0.64	0.56	0.66	0.2	0.14	0.03	1.21	0.72	0.01	0.83	0.83	0.76	1.14	 m = i
0.0	0.0	19.2	0.0	0.72	0.0	1.02	0.0	0.61	0.0	0.0	0.0	0.0	66.19	0.0	0.0	0.0	0.0	0.1	0.2	11.44	0.0	0.1	0.41	0.0	0.0	0.0	 n = j
0.0	0.34	1.57	0.31	0.04	0.11	0.04	0.5	0.23	0.0	0.34	0.04	0.77	0.0	92.84	0.0	0.84	0.0	0.08	0.11	0.11	0.0	0.27	0.11	0.0	0.73	0.61	 o = m
0.0	0.09	0.56	0.37	0.12	0.4	0.03	0.44	0.69	0.0	0.28	0.0	0.22	0.0	0.4	94.05	0.37	0.22	0.03	0.0	0.78	0.37	0.06	0.03	0.0	0.16	0.31	 p = l
0.08	1.27	10.82	0.39	0.94	0.34	0.26	0.73	0.05	2.02	1.19	0.13	0.24	0.02	0.65	0.56	75.71	0.57	0.06	0.12	0.38	0.64	0.03	0.45	0.51	0.84	1.0	 q = o
0.16	0.52	3.87	0.06	0.78	0.63	0.17	0.19	0.71	0.59	0.49	0.06	0.38	0.0	0.03	0.27	0.17	87.41	0.03	0.02	0.0	0.06	0.29	0.75	0.27	0.68	1.4	 r = n
0.24	0.0	34.52	0.0	0.36	0.0	0.71	0.0	1.79	0.0	0.0	0.0	0.0	0.0	0.0	0.0	0.24	0.0	37.62	0.48	22.26	1.55	0.0	0.12	0.0	0.12	0.0	 s = q
0.2	0.0	48.43	0.2	0.25	0.85	1.05	0.1	1.05	0.0	0.0	0.05	0.0	0.05	0.0	0.35	1.45	0.0	0.0	37.61	5.04	1.7	0.05	1.1	0.15	0.35	0.0	 t = p
0.16	0.83	37.62	0.1	0.88	0.8	0.17	0.33	0.33	0.26	0.12	0.03	0.44	0.08	0.07	0.17	0.25	0.03	0.07	0.02	54.58	0.22	0.16	0.36	0.58	1.34	0.0	 u = s
0.14	0.29	11.14	0.75	0.46	0.99	0.39	1.23	1.52	0.82	0.17	0.17	0.68	0.05	0.02	0.29	0.36	0.0	0.0	0.22	1.57	77.58	0.0	0.51	0.07	0.53	0.07	 v = r
0.15	0.22	1.35	0.15	0.46	0.02	0.51	0.46	0.15	0.17	0.44	0.02	0.07	0.1	0.65	0.31	0.63	0.36	0.27	0.07	0.68	0.46	90.16	0.7	0.07	0.94	0.44	 w = u
0.38	0.35	53.59	0.7	0.44	1.29	1.47	0.32	0.76	0.03	0.38	0.0	0.38	0.06	0.0	0.12	3.75	0.76	0.0	0.09	10.27	1.17	0.09	23.17	0.0	0.41	0.0	 x = t
0.0	0.29	1.21	0.07	0.07	0.21	0.29	0.36	0.5	0.0	0.07	0.07	0.79	0.0	0.0	0.0	0.21	0.0	0.0	0.0	1.0	0.0	0.0	0.71	94.15	0.0	0.0	 y = v
0.0	0.0	7.53	0.0	0.22	0.0	0.56	0.0	0.45	0.0	0.0	0.11	0.0	0.0	0.0	1.24	0.0	0.0	0.22	0.0	10.67	0.45	0.11	0.34	0.0	78.09	0.0	 z = y
0.0	0.0	100.0	0.0	0.0	0.0	0.0	0.0	0.0	0.0	0.0	0.0	0.0	0.0	0.0	0.0	0.0	0.0	0.0	0.0	0.0	0.0	0.0	0.0	0.0	0.0	0.0	 aa = z
