Timestamp:2013-08-30-03:53:25
Inventario:I0
Intervalo:10ms
Ngramas:2
Clasificador:BayesNet
Relation Name:  I0-10ms-2gramas
Num Instances:  18295
Num Attributes: 21

     Name                      Type  Nom  Int Real     Missing      Unique  Dist
   1 0Int(dB)                   Num   0%  10%  90%     0 /  0%     7 /  0%   772 
   2 0Pitch(Hz)                 Num   0%  51%  49%     0 /  0%   816 /  4%  3063 
   3 0RawPitch                  Num   0%  54%  46%     0 /  0%   853 /  5%  2955 
   4 0SmPitch                   Num   0%  52%  48%     0 /  0%   827 /  5%  3024 
   5 0Melogram(st)              Num   0%  47%  53%     0 /  0%   581 /  3%  2807 
   6 0ZCross                    Num   0% 100%   0%     0 /  0%    10 /  0%    42 
   7 0F1(Hz)                    Num   0%  51%  49%     0 /  0%  2131 / 12%  4724 
   8 0F2(Hz)                    Num   0%  51%  49%     0 /  0%  4210 / 23%  6615 
   9 0F3(Hz)                    Num   0%  51%  49%     0 /  0%  3688 / 20%  6145 
  10 0F4(Hz)                    Num   0%  51%  49%     0 /  0%  3689 / 20%  6054 
  11 1Int(dB)                   Num   0%  10%  90%     0 /  0%     7 /  0%   772 
  12 1Pitch(Hz)                 Num   0%  51%  49%     0 /  0%   817 /  4%  3064 
  13 1RawPitch                  Num   0%  54%  46%     0 /  0%   854 /  5%  2956 
  14 1SmPitch                   Num   0%  52%  48%     0 /  0%   828 /  5%  3025 
  15 1Melogram(st)              Num   0%  47%  53%     0 /  0%   582 /  3%  2808 
  16 1ZCross                    Num   0% 100%   0%     0 /  0%    10 /  0%    42 
  17 1F1(Hz)                    Num   0%  51%  49%     0 /  0%  2131 / 12%  4724 
  18 1F2(Hz)                    Num   0%  51%  49%     0 /  0%  4210 / 23%  6615 
  19 1F3(Hz)                    Num   0%  51%  49%     0 /  0%  3688 / 20%  6145 
  20 1F4(Hz)                    Num   0%  51%  49%     0 /  0%  3689 / 20%  6054 
  21 class                      Nom 100%   0%   0%     0 /  0%     0 /  0%    27 


Options: -D -Q weka.classifiers.bayes.net.search.local.K2 -- -P 1 -S BAYES -E weka.classifiers.bayes.net.estimate.SimpleEstimator -- -A 0.5 

Bayes Network Classifier
not using ADTree
#attributes=21 #classindex=20
Network structure (nodes followed by parents)
0Int(dB)(11): class 
0Pitch(Hz)(5): class 
0RawPitch(4): class 
0SmPitch(5): class 
0Melogram(st)(8): class 
0ZCross(10): class 
0F1(Hz)(11): class 
0F2(Hz)(9): class 
0F3(Hz)(10): class 
0F4(Hz)(9): class 
1Int(dB)(9): class 
1Pitch(Hz)(5): class 
1RawPitch(4): class 
1SmPitch(4): class 
1Melogram(st)(8): class 
1ZCross(10): class 
1F1(Hz)(15): class 
1F2(Hz)(10): class 
1F3(Hz)(8): class 
1F4(Hz)(7): class 
class(27): 
LogScore Bayes: -422432.12466625497
LogScore BDeu: -443244.2395028855
LogScore MDL: -440687.93459827267
LogScore ENTROPY: -421746.1752587879
LogScore AIC: -425606.1752587879




=== Stratified cross-validation ===

Correctly Classified Instances       10268               56.1246 %
Incorrectly Classified Instances      8027               43.8754 %
Kappa statistic                          0.4614
K&B Relative Info Score             810786.6362 %
K&B Information Score                27190.1649 bits      1.4862 bits/instance
Class complexity | order 0           61257.4032 bits      3.3483 bits/instance
Class complexity | scheme           121822.6936 bits      6.6588 bits/instance
Complexity improvement     (Sf)     -60565.2904 bits     -3.3105 bits/instance
Mean absolute error                      0.0336
Root mean squared error                  0.1573
Relative absolute error                 55.2668 %
Root relative squared error             90.2471 %
Coverage of cases (0.95 level)          71.0303 %
Mean rel. region size (0.95 level)       8.9494 %
Total Number of Instances            18295     


=== Detailed Accuracy By Class ===

                 TP Rate  FP Rate  Precision  Recall   F-Measure  MCC      ROC Area  PRC Area  Class
                 0,125    0,003    0,162      0,125    0,141      0,139    0,896     0,097     ch
                 0,000    0,004    0,000      0,000    0,000      -0,002   0,896     0,008     rr
                 0,911    0,105    0,836      0,911    0,872      0,793    0,966     0,958     0
                 0,155    0,017    0,093      0,155    0,116      0,107    0,809     0,065     hs
                 0,660    0,030    0,057      0,660    0,104      0,187    0,960     0,100     hg
                 0,673    0,054    0,683      0,673    0,678      0,623    0,927     0,760     a
                 0,094    0,008    0,160      0,094    0,118      0,112    0,875     0,105     c
                 0,076    0,007    0,068      0,076    0,072      0,065    0,890     0,049     b
                 0,407    0,031    0,532      0,407    0,461      0,426    0,888     0,470     e
                 0,233    0,017    0,171      0,233    0,197      0,186    0,865     0,122     d
                 0,252    0,026    0,055      0,252    0,090      0,106    0,843     0,037     g
                 0,076    0,004    0,101      0,076    0,087      0,082    0,884     0,055     f
                 0,476    0,019    0,510      0,476    0,492      0,472    0,920     0,463     i
                 0,208    0,002    0,404      0,208    0,275      0,287    0,889     0,210     j
                 0,114    0,007    0,207      0,114    0,147      0,144    0,871     0,123     m
                 0,394    0,053    0,119      0,394    0,182      0,191    0,877     0,124     l
                 0,213    0,013    0,570      0,213    0,310      0,319    0,835     0,391     o
                 0,131    0,016    0,229      0,131    0,167      0,150    0,868     0,174     n
                 0,074    0,002    0,140      0,074    0,097      0,099    0,856     0,070     q
                 0,039    0,004    0,108      0,039    0,058      0,059    0,853     0,063     p
                 0,285    0,016    0,484      0,285    0,359      0,347    0,890     0,369     s
                 0,041    0,006    0,144      0,041    0,064      0,065    0,793     0,091     r
                 0,437    0,009    0,530      0,437    0,479      0,470    0,920     0,506     u
                 0,080    0,007    0,184      0,080    0,112      0,110    0,869     0,115     t
                 0,148    0,019    0,056      0,148    0,082      0,080    0,853     0,044     v
                 0,379    0,015    0,119      0,379    0,181      0,205    0,894     0,143     y
                 0,000    0,000    0,000      0,000    0,000      -0,000   0,963     0,006     z
Weighted Avg.    0,561    0,055    0,586      0,561    0,560      0,518    0,915     0,606     


=== Confusion Matrix ===

    a    b    c    d    e    f    g    h    i    j    k    l    m    n    o    p    q    r    s    t    u    v    w    x    y    z   aa   <-- classified as
   11    0   26    1    0    5    7    0    3    0    0    0    1    0    0    2    0    5    2    1   21    0    0    0    0    3    0 |    a = ch
    0    0    0    1    2    7    0    0    3    0    0    0    0    0    0    6    0    1    0    0    0    0    0    0    1    0    0 |    b = rr
    1    5 6193   53   41   54   10    4   28   19   13   19   50    5    4   56   27   25    6   14   67   16    5   11   26   40    5 |    c = 0
    0    2   44   32   24   10    1    6    7    6    1    5    6    1    4   12    7    3    0    1   10    3    1    4   12    4    0 |    d = hs
    0    0    0    0   33    3    0    0    6    3    0    0    1    0    0    2    1    0    0    0    0    0    0    0    0    1    0 |    e = hg
    8    9   67   28   11 1806   17    5  120   60   59   10   16    1    2  144   74   43    3    5   20   36    8   17   80   35    0 |    f = a
    7    0  140   13    1    2   26    0    5    0    4    3    6    3    0    4    4    2    0    4   38    2    3    8    0    3    0 |    g = c
    0    0    0    0    9   21    0    9   14    0    7    0    4    0    3   24    6    4    0    0    0    0   10    0    6    2    0 |    h = b
    2    5   49   20  117  125    7   17  585   26  115    5   61    0    2  155   20   27    6    9   13    0   13   13   34   12    0 |    i = e
    0    5    0    6   15   38    0    6   13   62   13    0    5    0    5   41    4   15    0    0    1    3    4    1   21    8    0 |    j = d
    0    0    4    0    8   19    0    0   14    1   27    0   13    0    0    4    1    2    0    0    4    3    2    0    1    4    0 |    k = g
    0    3   41   10    6    7    8    0    5    0    1    9    0    3    0    1    4    6    0    1   10    0    0    3    0    1    0 |    l = f
    0    1   28    9   69    5   10   15   67    0   42    0  356    0   32   43    1   10   10    5   12    0    1   11    3   18    0 |    m = i
    0    0   16    5    7   15    0    0   11    0    4    2    2   21    0    0    1    0    0    1    7    4    0    2    3    0    0 |    n = j
    0    0    4    1   35   20    0    5   17    5   21    0   32    0   31   50    1   17    0    2    1    0   14    1    5   10    0 |    o = m
    0    6    2    2   16   26    2    8   14    7    3    0   20    0    8  129    9   18    0    0    1    2    6    1   19   28    0 |    p = l
    4    9  131   42   53  268    8   23   77  104   43    4   13    0   18  105  293   24    0    6    9   10   66    7   40   20    0 |    q = o
    0   15   14   18   64   67    0   14   30   11   60    1   43    0   24  117    3   85    0    0   10    1   16    5   28   23    1 |    r = n
    5    0   29    1    0    6    4    0    1    0    1    0   12    0    0    0    0    1    6    0   13    0    0    0    0    2    0 |    s = q
    1    2   74   20    6    8    7    3    8    3    0    9    0    6    0    5    5    3    0    8    8    5    2   11    2    7    0 |    t = p
   26    7  309   35   16   21   13    1    6   11   24    9   41   11    2   27    4   18    6    4  258   11    1   10   11   23    0 |    u = s
    1    4   41   23    6   75    2    8   29   20   30    4    9    1    1   68   11   14    0    6    7   18    6    5   43    8    0 |    v = r
    0    4    6    4   18   28    3    6   22    7   14    1    1    0    5   45   28   18    2    2    1    1  185   10    6    6    0 |    w = u
    2    0  171   12    2    1   37    1    2    2    4    7    6    0    1    1    5   22    2    5   15    8    3   28    7    6    0 |    x = t
    0    1    2    8   24    7    0    0   13   14    9    0    0    0    4   21    5    5    0    0    0    1    2    2   21    3    0 |    y = v
    0    0    6    1    0    0    1    1    0    2    0    1    0    0    4   25    0    3    0    0    7    1    1    2    4   36    0 |    z = y
    0    0    8    0    0    0    0    0    0    0    0    0    0    0    0    0    0    0    0    0    0    0    0    0    0    0    0 |   aa = z

=== Percent Confusion Matrix ===
a	b	c	d	e	f	g	h	i	j	k	l	m	n	o	p	q	r	s	t	u	v	w	x	y	z	aa	
12.5	0.0	29.55	1.14	0.0	5.68	7.95	0.0	3.41	0.0	0.0	0.0	1.14	0.0	0.0	2.27	0.0	5.68	2.27	1.14	23.86	0.0	0.0	0.0	0.0	3.41	0.0	 a = ch
0.0	0.0	0.0	4.76	9.52	33.33	0.0	0.0	14.29	0.0	0.0	0.0	0.0	0.0	0.0	28.57	0.0	4.76	0.0	0.0	0.0	0.0	0.0	0.0	4.76	0.0	0.0	 b = rr
0.01	0.07	91.11	0.78	0.6	0.79	0.15	0.06	0.41	0.28	0.19	0.28	0.74	0.07	0.06	0.82	0.4	0.37	0.09	0.21	0.99	0.24	0.07	0.16	0.38	0.59	0.07	 c = 0
0.0	0.97	21.36	15.53	11.65	4.85	0.49	2.91	3.4	2.91	0.49	2.43	2.91	0.49	1.94	5.83	3.4	1.46	0.0	0.49	4.85	1.46	0.49	1.94	5.83	1.94	0.0	 d = hs
0.0	0.0	0.0	0.0	66.0	6.0	0.0	0.0	12.0	6.0	0.0	0.0	2.0	0.0	0.0	4.0	2.0	0.0	0.0	0.0	0.0	0.0	0.0	0.0	0.0	2.0	0.0	 e = hg
0.3	0.34	2.5	1.04	0.41	67.29	0.63	0.19	4.47	2.24	2.2	0.37	0.6	0.04	0.07	5.37	2.76	1.6	0.11	0.19	0.75	1.34	0.3	0.63	2.98	1.3	0.0	 f = a
2.52	0.0	50.36	4.68	0.36	0.72	9.35	0.0	1.8	0.0	1.44	1.08	2.16	1.08	0.0	1.44	1.44	0.72	0.0	1.44	13.67	0.72	1.08	2.88	0.0	1.08	0.0	 g = c
0.0	0.0	0.0	0.0	7.56	17.65	0.0	7.56	11.76	0.0	5.88	0.0	3.36	0.0	2.52	20.17	5.04	3.36	0.0	0.0	0.0	0.0	8.4	0.0	5.04	1.68	0.0	 h = b
0.14	0.35	3.41	1.39	8.14	8.69	0.49	1.18	40.68	1.81	8.0	0.35	4.24	0.0	0.14	10.78	1.39	1.88	0.42	0.63	0.9	0.0	0.9	0.9	2.36	0.83	0.0	 i = e
0.0	1.88	0.0	2.26	5.64	14.29	0.0	2.26	4.89	23.31	4.89	0.0	1.88	0.0	1.88	15.41	1.5	5.64	0.0	0.0	0.38	1.13	1.5	0.38	7.89	3.01	0.0	 j = d
0.0	0.0	3.74	0.0	7.48	17.76	0.0	0.0	13.08	0.93	25.23	0.0	12.15	0.0	0.0	3.74	0.93	1.87	0.0	0.0	3.74	2.8	1.87	0.0	0.93	3.74	0.0	 k = g
0.0	2.52	34.45	8.4	5.04	5.88	6.72	0.0	4.2	0.0	0.84	7.56	0.0	2.52	0.0	0.84	3.36	5.04	0.0	0.84	8.4	0.0	0.0	2.52	0.0	0.84	0.0	 l = f
0.0	0.13	3.74	1.2	9.22	0.67	1.34	2.01	8.96	0.0	5.61	0.0	47.59	0.0	4.28	5.75	0.13	1.34	1.34	0.67	1.6	0.0	0.13	1.47	0.4	2.41	0.0	 m = i
0.0	0.0	15.84	4.95	6.93	14.85	0.0	0.0	10.89	0.0	3.96	1.98	1.98	20.79	0.0	0.0	0.99	0.0	0.0	0.99	6.93	3.96	0.0	1.98	2.97	0.0	0.0	 n = j
0.0	0.0	1.47	0.37	12.87	7.35	0.0	1.84	6.25	1.84	7.72	0.0	11.76	0.0	11.4	18.38	0.37	6.25	0.0	0.74	0.37	0.0	5.15	0.37	1.84	3.68	0.0	 o = m
0.0	1.83	0.61	0.61	4.89	7.95	0.61	2.45	4.28	2.14	0.92	0.0	6.12	0.0	2.45	39.45	2.75	5.5	0.0	0.0	0.31	0.61	1.83	0.31	5.81	8.56	0.0	 p = l
0.29	0.65	9.51	3.05	3.85	19.46	0.58	1.67	5.59	7.55	3.12	0.29	0.94	0.0	1.31	7.63	21.28	1.74	0.0	0.44	0.65	0.73	4.79	0.51	2.9	1.45	0.0	 q = o
0.0	2.31	2.15	2.77	9.85	10.31	0.0	2.15	4.62	1.69	9.23	0.15	6.62	0.0	3.69	18.0	0.46	13.08	0.0	0.0	1.54	0.15	2.46	0.77	4.31	3.54	0.15	 r = n
6.17	0.0	35.8	1.23	0.0	7.41	4.94	0.0	1.23	0.0	1.23	0.0	14.81	0.0	0.0	0.0	0.0	1.23	7.41	0.0	16.05	0.0	0.0	0.0	0.0	2.47	0.0	 s = q
0.49	0.99	36.45	9.85	2.96	3.94	3.45	1.48	3.94	1.48	0.0	4.43	0.0	2.96	0.0	2.46	2.46	1.48	0.0	3.94	3.94	2.46	0.99	5.42	0.99	3.45	0.0	 t = p
2.87	0.77	34.14	3.87	1.77	2.32	1.44	0.11	0.66	1.22	2.65	0.99	4.53	1.22	0.22	2.98	0.44	1.99	0.66	0.44	28.51	1.22	0.11	1.1	1.22	2.54	0.0	 u = s
0.23	0.91	9.32	5.23	1.36	17.05	0.45	1.82	6.59	4.55	6.82	0.91	2.05	0.23	0.23	15.45	2.5	3.18	0.0	1.36	1.59	4.09	1.36	1.14	9.77	1.82	0.0	 v = r
0.0	0.95	1.42	0.95	4.26	6.62	0.71	1.42	5.2	1.65	3.31	0.24	0.24	0.0	1.18	10.64	6.62	4.26	0.47	0.47	0.24	0.24	43.74	2.36	1.42	1.42	0.0	 w = u
0.57	0.0	48.86	3.43	0.57	0.29	10.57	0.29	0.57	0.57	1.14	2.0	1.71	0.0	0.29	0.29	1.43	6.29	0.57	1.43	4.29	2.29	0.86	8.0	2.0	1.71	0.0	 x = t
0.0	0.7	1.41	5.63	16.9	4.93	0.0	0.0	9.15	9.86	6.34	0.0	0.0	0.0	2.82	14.79	3.52	3.52	0.0	0.0	0.0	0.7	1.41	1.41	14.79	2.11	0.0	 y = v
0.0	0.0	6.32	1.05	0.0	0.0	1.05	1.05	0.0	2.11	0.0	1.05	0.0	0.0	4.21	26.32	0.0	3.16	0.0	0.0	7.37	1.05	1.05	2.11	4.21	37.89	0.0	 z = y
0.0	0.0	100.0	0.0	0.0	0.0	0.0	0.0	0.0	0.0	0.0	0.0	0.0	0.0	0.0	0.0	0.0	0.0	0.0	0.0	0.0	0.0	0.0	0.0	0.0	0.0	0.0	 aa = z
