Timestamp:2014-12-07-10:36:38
Inventario:I0
Intervalo:2ms
Ngramas:5
Clasificador:NaiveBayes
Relation Name:  I0-2ms-5gramas
Num Instances:  91699
Num Attributes: 51

     Name                      Type  Nom  Int Real     Missing      Unique  Dist
   1 0Int(dB)                   Num   0%   9%  91%     0 /  0%     4 /  0%   779 
   2 0Pitch(Hz)                 Num   0%  52%  48%     0 /  0%   471 /  1%  4016 
   3 0RawPitch                  Num   0%  55%  45%     0 /  0%   550 /  1%  4014 
   4 0SmPitch                   Num   0%  53%  47%     0 /  0%   491 /  1%  3998 
   5 0Melogram(st)              Num   0%  49%  51%     0 /  0%   212 /  0%  3363 
   6 0ZCross                    Num   0% 100%   0%     0 /  0%     6 /  0%    54 
   7 0F1(Hz)                    Num   0%  52%  48%     0 /  0%  1126 /  1%  4776 
   8 0F2(Hz)                    Num   0%  52%  48%     0 /  0%  2304 /  3%  6727 
   9 0F3(Hz)                    Num   0%  52%  48%     0 /  0%  1967 /  2%  6224 
  10 0F4(Hz)                    Num   0%  52%  48%     0 /  0%  1884 /  2%  6074 
  11 1Int(dB)                   Num   0%   9%  91%     0 /  0%     4 /  0%   779 
  12 1Pitch(Hz)                 Num   0%  52%  48%     0 /  0%   471 /  1%  4016 
  13 1RawPitch                  Num   0%  55%  45%     0 /  0%   550 /  1%  4014 
  14 1SmPitch                   Num   0%  53%  47%     0 /  0%   491 /  1%  3998 
  15 1Melogram(st)              Num   0%  49%  51%     0 /  0%   212 /  0%  3363 
  16 1ZCross                    Num   0% 100%   0%     0 /  0%     6 /  0%    54 
  17 1F1(Hz)                    Num   0%  52%  48%     0 /  0%  1126 /  1%  4776 
  18 1F2(Hz)                    Num   0%  52%  48%     0 /  0%  2304 /  3%  6727 
  19 1F3(Hz)                    Num   0%  52%  48%     0 /  0%  1967 /  2%  6224 
  20 1F4(Hz)                    Num   0%  52%  48%     0 /  0%  1884 /  2%  6074 
  21 2Int(dB)                   Num   0%   9%  91%     0 /  0%     4 /  0%   779 
  22 2Pitch(Hz)                 Num   0%  52%  48%     0 /  0%   471 /  1%  4016 
  23 2RawPitch                  Num   0%  55%  45%     0 /  0%   550 /  1%  4014 
  24 2SmPitch                   Num   0%  53%  47%     0 /  0%   491 /  1%  3998 
  25 2Melogram(st)              Num   0%  49%  51%     0 /  0%   212 /  0%  3363 
  26 2ZCross                    Num   0% 100%   0%     0 /  0%     6 /  0%    54 
  27 2F1(Hz)                    Num   0%  52%  48%     0 /  0%  1126 /  1%  4776 
  28 2F2(Hz)                    Num   0%  52%  48%     0 /  0%  2304 /  3%  6727 
  29 2F3(Hz)                    Num   0%  52%  48%     0 /  0%  1967 /  2%  6224 
  30 2F4(Hz)                    Num   0%  52%  48%     0 /  0%  1884 /  2%  6074 
  31 3Int(dB)                   Num   0%   9%  91%     0 /  0%     5 /  0%   780 
  32 3Pitch(Hz)                 Num   0%  52%  48%     0 /  0%   471 /  1%  4016 
  33 3RawPitch                  Num   0%  55%  45%     0 /  0%   550 /  1%  4014 
  34 3SmPitch                   Num   0%  53%  47%     0 /  0%   491 /  1%  3998 
  35 3Melogram(st)              Num   0%  49%  51%     0 /  0%   212 /  0%  3363 
  36 3ZCross                    Num   0% 100%   0%     0 /  0%     6 /  0%    54 
  37 3F1(Hz)                    Num   0%  52%  48%     0 /  0%  1126 /  1%  4776 
  38 3F2(Hz)                    Num   0%  52%  48%     0 /  0%  2304 /  3%  6727 
  39 3F3(Hz)                    Num   0%  52%  48%     0 /  0%  1967 /  2%  6224 
  40 3F4(Hz)                    Num   0%  52%  48%     0 /  0%  1884 /  2%  6074 
  41 4Int(dB)                   Num   0%   9%  91%     0 /  0%     6 /  0%   781 
  42 4Pitch(Hz)                 Num   0%  52%  48%     0 /  0%   471 /  1%  4016 
  43 4RawPitch                  Num   0%  55%  45%     0 /  0%   550 /  1%  4014 
  44 4SmPitch                   Num   0%  53%  47%     0 /  0%   491 /  1%  3998 
  45 4Melogram(st)              Num   0%  49%  51%     0 /  0%   212 /  0%  3363 
  46 4ZCross                    Num   0% 100%   0%     0 /  0%     6 /  0%    54 
  47 4F1(Hz)                    Num   0%  52%  48%     0 /  0%  1126 /  1%  4776 
  48 4F2(Hz)                    Num   0%  52%  48%     0 /  0%  2304 /  3%  6727 
  49 4F3(Hz)                    Num   0%  52%  48%     0 /  0%  1967 /  2%  6224 
  50 4F4(Hz)                    Num   0%  52%  48%     0 /  0%  1884 /  2%  6074 
  51 class                      Nom 100%   0%   0%     0 /  0%     0 /  0%    27 


Naive Bayes Classifier

                    Class
Attribute              ch        rr         0        hs        hg         a         c         b         e         d         g         f         i         j         m         l         o         n         q         p         s         r         u         t         v         y         z
                      (0)       (0)    (0.39)    (0.01)       (0)    (0.14)    (0.01)    (0.01)    (0.08)    (0.01)    (0.01)    (0.01)    (0.04)    (0.01)    (0.01)    (0.02)    (0.07)    (0.03)       (0)    (0.01)    (0.05)    (0.02)    (0.02)    (0.02)    (0.01)       (0)       (0)
==============================================================================================================================================================================================================================================================================================
0Int(dB)
  mean            -20.3172  -10.1752  -48.0155  -19.5183  -11.2872   -3.0037  -26.4943   -6.0417   -5.3785   -7.9239   -7.5716  -21.4408   -9.0207  -15.4037   -7.6509    -8.173   -8.2069   -8.8338  -24.3582  -23.9849  -21.1326  -11.5602   -5.7377   -27.648   -9.5313   -16.416   -27.099
  std. dev.         8.9399    4.6234   16.5374    11.165     6.014    8.5752    9.9622    4.2746    8.3213    6.0571    7.9629    5.8889    8.4876    6.3554    6.2631    5.5859   12.0984    7.3371   12.3624   10.3704    6.8931     9.164    8.5115    9.2322    7.6279    5.1983    2.2279
  weight sum           429       109     35829       980       247     13106      1361       599      6910      1313       544       582      3561       491      1311      1613      6646      3164       419      1005      4423      2084      2080      1710       704       446        33
  precision          0.104     0.104     0.104     0.104     0.104     0.104     0.104     0.104     0.104     0.104     0.104     0.104     0.104     0.104     0.104     0.104     0.104     0.104     0.104     0.104     0.104     0.104     0.104     0.104     0.104     0.104     0.104

0Pitch(Hz)
  mean             50.9058  245.3178   17.7734   89.7215  145.9383  225.6679   36.6638  216.0535  187.8311  202.6032  212.3172   82.8781  170.7104  155.1985  193.1899   174.561  179.0057  192.2973   74.1485   78.4132   52.5857  161.2622  226.5988      56.9  175.3105  112.7705         0
  std. dev.        99.2567  120.2687   57.9278    87.893   37.1385  104.5165   81.4255   72.9076    89.376   83.8188   99.5343  118.2697   78.6629  132.2749   87.3167   64.9672  106.0757   88.6314  110.7793  116.8242   93.3467   94.8221   88.9001  103.0293   76.2651   69.2746    0.0207
  weight sum           429       109     35829       980       247     13106      1361       599      6910      1313       544       582      3561       491      1311      1613      6646      3164       419      1005      4423      2084      2080      1710       704       446        33
  precision         0.1242    0.1242    0.1242    0.1242    0.1242    0.1242    0.1242    0.1242    0.1242    0.1242    0.1242    0.1242    0.1242    0.1242    0.1242    0.1242    0.1242    0.1242    0.1242    0.1242    0.1242    0.1242    0.1242    0.1242    0.1242    0.1242    0.1242

0RawPitch
  mean             32.6766  234.7299   14.6304   71.8836  121.6116  215.8138   23.3103  213.5391  183.7354  196.1632  201.0622   44.0185  162.6083   99.5584   182.195  159.5102  172.8374  179.5967    38.923   57.7963   32.2206  154.8855  217.8451   32.2922  160.5819   77.0272         0
  std. dev.        83.2246  127.6578   52.4273   87.2731   77.9289  110.6954   66.2422   76.5038   96.0886   94.4755   111.368   85.9835    85.103  116.3836   98.1718   78.1098  113.3864  101.8272     89.42  108.4034   76.9244  102.0992   96.4573   82.0135   87.8693   78.4932    0.0207
  weight sum           429       109     35829       980       247     13106      1361       599      6910      1313       544       582      3561       491      1311      1613      6646      3164       419      1005      4423      2084      2080      1710       704       446        33
  precision         0.1243    0.1243    0.1243    0.1243    0.1243    0.1243    0.1243    0.1243    0.1243    0.1243    0.1243    0.1243    0.1243    0.1243    0.1243    0.1243    0.1243    0.1243    0.1243    0.1243    0.1243    0.1243    0.1243    0.1243    0.1243    0.1243    0.1243

0SmPitch
  mean             47.7555  245.3088   16.1104   83.3338  147.8735  223.7495   30.1668  216.0548  186.0241  201.8358   210.591   65.2703   168.338  113.6621   190.832  173.4579  176.7654  189.8167   59.1579   69.8243    45.256  158.2252  226.1601   45.9552  170.7975  108.1979         0
  std. dev.        96.3751    120.27   54.1814   85.5452   35.0493   106.329   75.4766   72.9089   90.8509   85.3346  101.5515  102.2294   80.7898  138.8003   90.7545   66.2686   108.303   91.3077  102.7365  114.5551    88.644   96.5199   88.9264   95.5017   80.8505   71.3149    0.0208
  weight sum           429       109     35829       980       247     13106      1361       599      6910      1313       544       582      3561       491      1311      1613      6646      3164       419      1005      4423      2084      2080      1710       704       446        33
  precision         0.1248    0.1248    0.1248    0.1248    0.1248    0.1248    0.1248    0.1248    0.1248    0.1248    0.1248    0.1248    0.1248    0.1248    0.1248    0.1248    0.1248    0.1248    0.1248    0.1248    0.1248    0.1248    0.1248    0.1248    0.1248    0.1248    0.1248

0Melogram(st)
  mean             13.3666   56.6713    5.1965   27.5547   48.6059   52.9467   11.0346   55.1892    49.922    53.012   51.3805    22.515   47.8174   16.4052   50.8857   51.1675   46.5449   50.3956   16.2587   20.1561   14.3547   42.8021   53.0541   13.7356    49.906   40.1496         0
  std. dev.        24.4443    8.8885   15.9896    25.066    7.0036   15.2754    22.301    7.3705   16.1676   11.4113   17.3779   27.3924   17.1258   26.3962   14.5168     9.652   20.5679   16.0051   25.7746   27.5288   24.2148   22.5088   16.0665   24.6111   12.8561   18.3902    0.0041
  weight sum           429       109     35829       980       247     13106      1361       599      6910      1313       544       582      3561       491      1311      1613      6646      3164       419      1005      4423      2084      2080      1710       704       446        33
  precision         0.0246    0.0246    0.0246    0.0246    0.0246    0.0246    0.0246    0.0246    0.0246    0.0246    0.0246    0.0246    0.0246    0.0246    0.0246    0.0246    0.0246    0.0246    0.0246    0.0246    0.0246    0.0246    0.0246    0.0246    0.0246    0.0246    0.0246

0ZCross
  mean              8.2002    3.7296    0.2856    1.1567    3.1916    7.6308    1.3734    4.0344    5.2787     4.007    4.6439    0.7429    3.7163    3.9032    2.9196    3.3638    4.4166    2.6591    3.8681    0.8786    3.6619     3.357    4.0361    0.5132     3.231    1.5216         0
  std. dev.        12.6274    2.6487    1.2294    1.8161    2.3742      4.42    3.5242    1.8192    3.2387    2.2977    2.8536    1.6848    3.3178    3.8002    1.6093    2.1176    3.1384    1.7701    7.1456    2.3411    6.9543    2.6608    2.9674    1.3763     2.048    1.7643    0.1792
  weight sum           429       109     35829       980       247     13106      1361       599      6910      1313       544       582      3561       491      1311      1613      6646      3164       419      1005      4423      2084      2080      1710       704       446        33
  precision         1.0755    1.0755    1.0755    1.0755    1.0755    1.0755    1.0755    1.0755    1.0755    1.0755    1.0755    1.0755    1.0755    1.0755    1.0755    1.0755    1.0755    1.0755    1.0755    1.0755    1.0755    1.0755    1.0755    1.0755    1.0755    1.0755    1.0755

0F1(Hz)
  mean            147.6599  596.3727   57.3408  404.6967  447.0717  692.8572   84.8496  476.8406  454.8987  515.8198  497.3815  298.0146  353.0997  453.9827  433.7472  474.7436  475.4813  478.3989  177.9721  234.6279  204.0423  488.7241   486.782  112.2231  480.7187  343.9695         0
  std. dev.       268.3835  131.6871  171.9957  292.8825   82.4268   269.961  199.1648  133.5224  158.1126  153.2421  192.4681  337.0903  155.6609  336.8282   165.575  146.6523  232.0738  155.7505  243.6859  299.4066   291.674   237.537  318.7346  208.5919  178.3481  184.7139    0.0608
  weight sum           429       109     35829       980       247     13106      1361       599      6910      1313       544       582      3561       491      1311      1613      6646      3164       419      1005      4423      2084      2080      1710       704       446        33
  precision         0.3648    0.3648    0.3648    0.3648    0.3648    0.3648    0.3648    0.3648    0.3648    0.3648    0.3648    0.3648    0.3648    0.3648    0.3648    0.3648    0.3648    0.3648    0.3648    0.3648    0.3648    0.3648    0.3648    0.3648    0.3648    0.3648    0.3648

0F2(Hz)
  mean            438.7807 1663.7651  178.8136 1165.2394 1940.9704 1437.3926  252.4283 1587.7374 1742.5255 1484.7429 1701.3685  768.5942 1902.4024 1310.9924 1660.7047 1664.1581 1133.1289 1611.0672  725.9558  696.5031  634.6039 1367.9098 1023.5726  374.7485  1536.264 1344.2169         0
  std. dev.       763.7015   133.943  530.2888  824.4981  353.3999  434.9862   606.916  348.3445  577.7434  316.4817  581.7532  850.5348   731.953  902.1022  457.1241   363.874  555.0163  441.7558  962.4577  856.8711  879.3785  616.6041  463.4328  676.3881  461.2494  656.9571    0.0738
  weight sum           429       109     35829       980       247     13106      1361       599      6910      1313       544       582      3561       491      1311      1613      6646      3164       419      1005      4423      2084      2080      1710       704       446        33
  precision         0.4429    0.4429    0.4429    0.4429    0.4429    0.4429    0.4429    0.4429    0.4429    0.4429    0.4429    0.4429    0.4429    0.4429    0.4429    0.4429    0.4429    0.4429    0.4429    0.4429    0.4429    0.4429    0.4429    0.4429    0.4429    0.4429    0.4429

0F3(Hz)
  mean            734.8634 2862.2991  305.4176 1907.8592 2532.6054 2679.6749  456.0088 2762.0149  2568.342 2870.3858  2911.038 1319.2477 2574.2129 1918.2604 2748.7229 2791.8023 2464.8989 2780.0218 1082.8012 1174.6721 1056.6073 2380.6745 2590.9737   687.245 2621.5075 2328.8941         0
  std. dev.      1280.2164  400.8464  889.8408 1278.2527  116.0607  798.1066   1060.66  467.1395   855.128  484.6471  913.7181 1453.0786 1006.8574 1314.9743  595.4952   605.452 1057.4006  640.0467 1396.6022 1434.0904 1445.7498 1078.0652  902.8727 1227.1379  755.1701 1155.1341    0.1103
  weight sum           429       109     35829       980       247     13106      1361       599      6910      1313       544       582      3561       491      1311      1613      6646      3164       419      1005      4423      2084      2080      1710       704       446        33
  precision          0.662     0.662     0.662     0.662     0.662     0.662     0.662     0.662     0.662     0.662     0.662     0.662     0.662     0.662     0.662     0.662     0.662     0.662     0.662     0.662     0.662     0.662     0.662     0.662     0.662     0.662     0.662

0F4(Hz)
  mean            856.9748 3250.5633  366.4808 2372.0005 3588.6484 3086.9115   522.455 3301.3646 3099.7413 3326.3476 2940.8195 1511.9404  3068.994 2386.0761 3301.8706 3219.3563 2838.7661 3186.9125 1313.5819 1380.8956 1192.0387 2761.1962 2971.2354  786.3931 3176.2331 2691.8039         0
  std. dev.      1492.9412  418.4441 1065.5405 1574.8014   91.6543  907.7376 1218.1174  445.2628 1000.8098  527.8028  924.2323  1653.712 1160.3846 1621.8498  647.7444  625.3505 1202.1915  733.3016 1706.6007 1665.7287  1628.556 1193.8721  956.3763 1408.1057  824.8802 1321.3737    0.1138
  weight sum           429       109     35829       980       247     13106      1361       599      6910      1313       544       582      3561       491      1311      1613      6646      3164       419      1005      4423      2084      2080      1710       704       446        33
  precision         0.6829    0.6829    0.6829    0.6829    0.6829    0.6829    0.6829    0.6829    0.6829    0.6829    0.6829    0.6829    0.6829    0.6829    0.6829    0.6829    0.6829    0.6829    0.6829    0.6829    0.6829    0.6829    0.6829    0.6829    0.6829    0.6829    0.6829

1Int(dB)
  mean            -20.0814  -10.5044  -48.1014  -19.9915  -11.2017   -2.9292  -25.8903   -6.0247   -5.2725   -7.9123   -7.6259  -21.6781   -8.8919  -15.5674   -7.6335   -8.2187    -8.154   -8.9868  -23.7422  -23.6387   -21.336  -11.7183    -5.542  -27.0518   -9.4568  -16.4251  -27.0297
  std. dev.         8.6975    4.5839   16.4155   11.1942    6.0745    8.4179    9.9319     4.265    8.2012    6.0943    7.9979    5.6905    8.4155     6.235    6.1533    5.5898   12.1079    7.4422   11.9929     10.41    6.7455    9.1852    8.2546    9.4789    7.3215    5.0374    2.1797
  weight sum           429       109     35829       980       247     13106      1361       599      6910      1313       544       582      3561       491      1311      1613      6646      3164       419      1005      4423      2084      2080      1710       704       446        33
  precision          0.104     0.104     0.104     0.104     0.104     0.104     0.104     0.104     0.104     0.104     0.104     0.104     0.104     0.104     0.104     0.104     0.104     0.104     0.104     0.104     0.104     0.104     0.104     0.104     0.104     0.104     0.104

1Pitch(Hz)
  mean             50.2234  245.3246   17.4133   86.9157  146.2993  226.1482   41.0401  216.0575  188.7056  202.4816  212.1539   79.9769  171.6528  153.8765  193.4764  174.6203   179.115  191.5554   75.5296   78.7792   49.7038  161.4856   227.888   60.4374  176.0636  112.7992         0
  std. dev.        99.0944   120.737   57.3927   87.5514   37.5467   104.004   86.2555    72.736   88.8894   84.0743  100.1128   117.196    77.843  132.0873   87.2746   64.6094  105.6864   89.0808   111.158   115.913   91.4869   95.0578   87.0635   104.772   75.0159   69.2638    0.0207
  weight sum           429       109     35829       980       247     13106      1361       599      6910      1313       544       582      3561       491      1311      1613      6646      3164       419      1005      4423      2084      2080      1710       704       446        33
  precision         0.1242    0.1242    0.1242    0.1242    0.1242    0.1242    0.1242    0.1242    0.1242    0.1242    0.1242    0.1242    0.1242    0.1242    0.1242    0.1242    0.1242    0.1242    0.1242    0.1242    0.1242    0.1242    0.1242    0.1242    0.1242    0.1242    0.1242

1RawPitch
  mean             33.2687  235.2829   14.2992   69.0321  122.9771  216.3361   26.5395  213.5245  184.6007  196.0974  200.8431   41.6776   163.826   97.5394  182.3833  159.0177  173.0518   178.586   39.1908    58.382   29.3958   155.116  218.9774    35.728  161.5013   76.5304         0
  std. dev.        83.8837  130.2895   51.8254   86.3021   79.0478  110.1985   70.7448   76.3561   95.7338   94.5196  111.8798   83.6836   84.4289  115.3631   98.3207   78.1938  113.1417  102.4499    88.767  107.6168   73.8522  102.3135   95.0579   84.7256   86.9899   77.8232    0.0207
  weight sum           429       109     35829       980       247     13106      1361       599      6910      1313       544       582      3561       491      1311      1613      6646      3164       419      1005      4423      2084      2080      1710       704       446        33
  precision         0.1243    0.1243    0.1243    0.1243    0.1243    0.1243    0.1243    0.1243    0.1243    0.1243    0.1243    0.1243    0.1243    0.1243    0.1243    0.1243    0.1243    0.1243    0.1243    0.1243    0.1243    0.1243    0.1243    0.1243    0.1243    0.1243    0.1243

1SmPitch
  mean             47.5083  245.3168   15.7548   80.5288  148.2397  224.2665   33.9394  216.0588  187.0281  201.7878  210.4263   62.3691   169.294  112.0013  191.0426  173.4126  176.9741  188.9618   59.9428   69.8858   42.4662  158.3001  227.3868   49.2524  171.6697  108.2233         0
  std. dev.        96.4015  120.7357   53.6105   84.9843   35.4547  105.7755   80.3139   72.7365   90.2619   85.4406   102.116  100.4787   80.1089  138.2917    90.839   66.0612  107.8927   91.8092  102.8604  113.6751   86.4826   96.7983   87.2185   97.5935   79.6555   71.3067    0.0208
  weight sum           429       109     35829       980       247     13106      1361       599      6910      1313       544       582      3561       491      1311      1613      6646      3164       419      1005      4423      2084      2080      1710       704       446        33
  precision         0.1248    0.1248    0.1248    0.1248    0.1248    0.1248    0.1248    0.1248    0.1248    0.1248    0.1248    0.1248    0.1248    0.1248    0.1248    0.1248    0.1248    0.1248    0.1248    0.1248    0.1248    0.1248    0.1248    0.1248    0.1248    0.1248    0.1248

1Melogram(st)
  mean             13.3729    56.638    5.1111   26.8065   48.8622   53.0908   11.9097   55.1933   50.1378   53.0329   51.2937   21.8558   48.1087   15.8609   50.8951   51.1622   46.5873   50.2471   16.6513   20.2346   13.5267   42.8016   53.4674   14.5358   50.1413   40.1525         0
  std. dev.        24.4565    8.9267   15.8764   25.0844    6.3119   15.0134   23.0085    7.3641    15.863   11.3319   17.5216   27.2496   16.7578   26.1595   14.5221    9.6509   20.5055    16.198   25.9463   27.4594   23.7634    22.537   15.3794   25.0798    12.426     18.39    0.0041
  weight sum           429       109     35829       980       247     13106      1361       599      6910      1313       544       582      3561       491      1311      1613      6646      3164       419      1005      4423      2084      2080      1710       704       446        33
  precision         0.0246    0.0246    0.0246    0.0246    0.0246    0.0246    0.0246    0.0246    0.0246    0.0246    0.0246    0.0246    0.0246    0.0246    0.0246    0.0246    0.0246    0.0246    0.0246    0.0246    0.0246    0.0246    0.0246    0.0246    0.0246    0.0246    0.0246

1ZCross
  mean              8.4007    3.6112    0.2716    1.0974    3.2438     7.649     1.465    4.0936    5.2821    4.0422    4.6301    0.7004    3.7217    3.8879    2.9057    3.3418    4.4284    2.6003    4.0452    0.9107    3.6697    3.2976    4.0615    0.5906    3.2249    1.4975         0
  std. dev.        12.7759    2.6445    1.1738     1.785    2.4038    4.4061    3.5901    1.8391    3.2153    2.3029    2.8257    1.6357    3.2672    3.8076    1.5786    2.0864    3.0869    1.7188    7.2346    2.3259      7.01     2.629    2.9528    1.4637     2.023    1.7496    0.1792
  weight sum           429       109     35829       980       247     13106      1361       599      6910      1313       544       582      3561       491      1311      1613      6646      3164       419      1005      4423      2084      2080      1710       704       446        33
  precision         1.0755    1.0755    1.0755    1.0755    1.0755    1.0755    1.0755    1.0755    1.0755    1.0755    1.0755    1.0755    1.0755    1.0755    1.0755    1.0755    1.0755    1.0755    1.0755    1.0755    1.0755    1.0755    1.0755    1.0755    1.0755    1.0755    1.0755

1F1(Hz)
  mean            139.3938  599.5484   56.1168  396.3509  446.6966  698.1813   87.3804  477.4739  458.0799  516.4293  496.0244   286.696  356.2436  450.3233  433.0158  473.3047  478.8171  473.5739  177.8615  232.1592  193.7042  486.5569  491.0591  110.8796  480.9576  342.2848         0
  std. dev.       263.1216  133.2238  170.1221  296.2238   83.2259  264.6522  201.8375  133.4657   153.926  153.3271  192.8271  335.6989  151.5566  340.7035   164.744  144.0338  229.7252  156.0531   244.348  297.4114  287.7848  237.5487  315.0618  207.7433  176.0877  184.7472    0.0608
  weight sum           429       109     35829       980       247     13106      1361       599      6910      1313       544       582      3561       491      1311      1613      6646      3164       419      1005      4423      2084      2080      1710       704       446        33
  precision         0.3648    0.3648    0.3648    0.3648    0.3648    0.3648    0.3648    0.3648    0.3648    0.3648    0.3648    0.3648    0.3648    0.3648    0.3648    0.3648    0.3648    0.3648    0.3648    0.3648    0.3648    0.3648    0.3648    0.3648    0.3648    0.3648    0.3648

1F2(Hz)
  mean            415.1138 1657.5122   175.327  1140.595 1938.5552 1445.5065   257.741  1583.175 1757.7095 1484.2771 1696.1477  740.7273 1928.7407 1287.2103 1662.6235 1666.6072 1136.7974 1606.1341  720.6943  688.7215   602.889 1366.2084 1034.0495  370.9606 1545.0307 1342.9121         0
  std. dev.        750.593  132.8942  525.6626  832.7628  351.0059  421.4524  610.0717  347.2082  560.9633  317.9388  586.4555  847.9213  710.0757  907.2907   450.193  354.6206  547.7396  446.5217  959.5712   851.354  868.7595  619.0355  450.6215  675.5264  446.9761  661.0009    0.0738
  weight sum           429       109     35829       980       247     13106      1361       599      6910      1313       544       582      3561       491      1311      1613      6646      3164       419      1005      4423      2084      2080      1710       704       446        33
  precision         0.4429    0.4429    0.4429    0.4429    0.4429    0.4429    0.4429    0.4429    0.4429    0.4429    0.4429    0.4429    0.4429    0.4429    0.4429    0.4429    0.4429    0.4429    0.4429    0.4429    0.4429    0.4429    0.4429    0.4429    0.4429    0.4429    0.4429

1F3(Hz)
  mean            693.1016 2863.0523  299.2748 1865.9724 2529.8688 2695.0591  467.5858 2759.7978 2586.6864 2869.9416 2904.8205 1268.9381 2604.0226 1888.8521 2748.6558 2799.3682 2478.8191 2772.6545 1075.5189 1165.1811 1003.3428 2377.3357 2621.0935  677.0177 2636.4126  2321.119         0
  std. dev.      1253.8141  405.4758  881.7348 1294.2128   115.268  774.0597 1070.1079   467.798  831.7891  490.8925  922.2259 1446.1988  977.1249 1324.3057  585.7127  594.9981 1044.4223  651.9338 1394.3168 1428.5118 1428.3456 1083.1653  864.0366 1220.1397  731.3779 1158.6797    0.1103
  weight sum           429       109     35829       980       247     13106      1361       599      6910      1313       544       582      3561       491      1311      1613      6646      3164       419      1005      4423      2084      2080      1710       704       446        33
  precision          0.662     0.662     0.662     0.662     0.662     0.662     0.662     0.662     0.662     0.662     0.662     0.662     0.662     0.662     0.662     0.662     0.662     0.662     0.662     0.662     0.662     0.662     0.662     0.662     0.662     0.662     0.662

1F4(Hz)
  mean            810.6773 3247.2305  359.4106  2321.255 3589.0769 3104.1871  538.4086 3300.2736 3119.9567 3324.9964 2937.2998 1456.4364 3102.2711 2352.5284 3306.1053 3226.5791 2854.0576 3179.7397 1303.3765  1375.534 1132.2096  2753.868 3004.6925  776.3099 3195.6733 2685.8925         0
  std. dev.      1466.6397  414.4551 1056.6689 1595.9185   91.2311  879.6068  1234.864  443.7001  971.1133  535.6773  933.7861 1648.6351 1123.1453 1636.3165  635.8911  609.8466 1186.1932  748.7879 1701.6572 1665.7521  1609.425 1199.4411  906.3874 1403.3422  789.8578 1327.9192    0.1138
  weight sum           429       109     35829       980       247     13106      1361       599      6910      1313       544       582      3561       491      1311      1613      6646      3164       419      1005      4423      2084      2080      1710       704       446        33
  precision         0.6829    0.6829    0.6829    0.6829    0.6829    0.6829    0.6829    0.6829    0.6829    0.6829    0.6829    0.6829    0.6829    0.6829    0.6829    0.6829    0.6829    0.6829    0.6829    0.6829    0.6829    0.6829    0.6829    0.6829    0.6829    0.6829    0.6829

2Int(dB)
  mean            -19.8143  -10.7848  -48.1801   -20.458  -11.0746   -2.8822  -25.2342   -5.9863    -5.205   -7.8714   -7.6694  -21.8784   -8.7895  -15.6892   -7.6106   -8.2488   -8.1324   -9.1439  -23.0885  -23.2254  -21.5156  -11.8393   -5.3672  -26.3478   -9.3539  -16.4023   -26.973
  std. dev.         8.4748    4.4935   16.3018   11.2278    6.1681    8.2937    9.9399    4.2622    8.1176    6.1238    8.0179    5.5298    8.3703    6.1431    6.0661    5.6219   12.1307    7.5607   11.6307   10.4886    6.6321    9.2424     8.007     9.808    7.0185    4.8998    2.1072
  weight sum           429       109     35829       980       247     13106      1361       599      6910      1313       544       582      3561       491      1311      1613      6646      3164       419      1005      4423      2084      2080      1710       704       446        33
  precision          0.104     0.104     0.104     0.104     0.104     0.104     0.104     0.104     0.104     0.104     0.104     0.104     0.104     0.104     0.104     0.104     0.104     0.104     0.104     0.104     0.104     0.104     0.104     0.104     0.104     0.104     0.104

2Pitch(Hz)
  mean             51.0957  245.3554   17.0619   84.1511  146.7389  226.4412   46.0223  216.0859  189.4672  202.3729   211.995   77.0855  172.4288  153.1457  193.7686   174.623  178.9677  190.7047   78.4433   79.6069   47.2217  161.6026  228.8154   65.0356   176.872  112.8563         0
  std. dev.         99.958   121.194   56.8545   87.1585   38.0498  103.6761   91.0161   72.5636   88.3909   84.3095   100.683  116.0635   77.1572  131.8494   87.2218   64.4062  105.4237    89.656  112.8788  115.1786   89.7787   95.3425   85.6072  107.1135   73.7813   69.2593    0.0207
  weight sum           429       109     35829       980       247     13106      1361       599      6910      1313       544       582      3561       491      1311      1613      6646      3164       419      1005      4423      2084      2080      1710       704       446        33
  precision         0.1242    0.1242    0.1242    0.1242    0.1242    0.1242    0.1242    0.1242    0.1242    0.1242    0.1242    0.1242    0.1242    0.1242    0.1242    0.1242    0.1242    0.1242    0.1242    0.1242    0.1242    0.1242    0.1242    0.1242    0.1242    0.1242    0.1242

2RawPitch
  mean             33.9784  236.6909   13.9627   66.1469  123.5023  216.7286   30.9191   213.376  185.2835  196.0699  201.0682   39.4896  164.8572   95.6852  182.7137  158.5474  173.0225  177.4833   40.3066   59.7026     26.86  155.4929  219.9054   39.8978  162.3452   76.4805         0
  std. dev.        84.7743  130.4265   51.2554    85.152   79.5414  109.7993   76.4945   76.2646   95.4466   94.5325  112.0453   81.2737   83.8605  114.2828   98.3056   78.3444  112.8916  103.0478   88.5284  107.4738    70.828  102.7886   93.8544   88.0488   85.8739    77.765    0.0207
  weight sum           429       109     35829       980       247     13106      1361       599      6910      1313       544       582      3561       491      1311      1613      6646      3164       419      1005      4423      2084      2080      1710       704       446        33
  precision         0.1243    0.1243    0.1243    0.1243    0.1243    0.1243    0.1243    0.1243    0.1243    0.1243    0.1243    0.1243    0.1243    0.1243    0.1243    0.1243    0.1243    0.1243    0.1243    0.1243    0.1243    0.1243    0.1243    0.1243    0.1243    0.1243    0.1243

2SmPitch
  mean             47.6945  245.3477   15.4236   77.7657  148.6812  224.6461   38.7196  216.0865  187.8876  201.7462  210.2676   59.4771  170.0743  110.7061  191.0786  173.2044  176.8295  188.0416   61.7616   70.3075     39.92  158.4702  228.2489   53.9529  172.5994  108.2745         0
  std. dev.        96.6081  121.1911   53.0684   84.3704   35.9602  105.3468    85.669   72.5638   89.6855   85.5321  102.6729   98.6395   79.5741  137.7176   91.1571   66.1453  107.6308   92.3591  104.4924  112.8983   84.3422   97.0297   85.8949  100.7942   78.4767    71.307    0.0208
  weight sum           429       109     35829       980       247     13106      1361       599      6910      1313       544       582      3561       491      1311      1613      6646      3164       419      1005      4423      2084      2080      1710       704       446        33
  precision         0.1248    0.1248    0.1248    0.1248    0.1248    0.1248    0.1248    0.1248    0.1248    0.1248    0.1248    0.1248    0.1248    0.1248    0.1248    0.1248    0.1248    0.1248    0.1248    0.1248    0.1248    0.1248    0.1248    0.1248    0.1248    0.1248    0.1248

2Melogram(st)
  mean             13.8084   56.6073    5.0218   26.0632   49.1238   53.1995   13.0393   55.1998    50.296   53.0238   51.2077   21.2107   48.3177    15.552    50.918   51.1593   46.5862   50.0162   17.3333   20.4189   12.8322   42.8258   53.7993   15.6252    50.382   40.1606         0
  std. dev.        24.7679    8.9613   15.7549   25.0848    5.5283   14.8034   23.8361    7.3575   15.6299   11.3416   17.6638   27.1061   16.4721   26.0328   14.5278    9.6498   20.4797   16.5039    26.256    27.415    23.356    22.547     14.79   25.6559   11.9774    18.392    0.0041
  weight sum           429       109     35829       980       247     13106      1361       599      6910      1313       544       582      3561       491      1311      1613      6646      3164       419      1005      4423      2084      2080      1710       704       446        33
  precision         0.0246    0.0246    0.0246    0.0246    0.0246    0.0246    0.0246    0.0246    0.0246    0.0246    0.0246    0.0246    0.0246    0.0246    0.0246    0.0246    0.0246    0.0246    0.0246    0.0246    0.0246    0.0246    0.0246    0.0246    0.0246    0.0246    0.0246

2ZCross
  mean              8.5361    3.5323    0.2613    1.0447    3.2917    7.6575    1.5591    4.1457    5.2767    4.0832    4.6123    0.6615    3.7235    3.8638    2.8958    3.3338    4.4336    2.5531    4.1607    0.9599    3.6726      3.26    4.0842    0.6899    3.2325    1.4926         0
  std. dev.        12.8415    2.6428    1.1466    1.7582    2.4426    4.3984    3.6274      1.85     3.209    2.3026    2.8138    1.5911    3.2289    3.8157    1.5608    2.0682    3.0623    1.6919    7.2383    2.3283    7.0371     2.605    2.9396     1.578    2.0169    1.7374    0.1792
  weight sum           429       109     35829       980       247     13106      1361       599      6910      1313       544       582      3561       491      1311      1613      6646      3164       419      1005      4423      2084      2080      1710       704       446        33
  precision         1.0755    1.0755    1.0755    1.0755    1.0755    1.0755    1.0755    1.0755    1.0755    1.0755    1.0755    1.0755    1.0755    1.0755    1.0755    1.0755    1.0755    1.0755    1.0755    1.0755    1.0755    1.0755    1.0755    1.0755    1.0755    1.0755    1.0755

2F1(Hz)
  mean            133.3877  603.0018    54.986  386.9224  446.3362  703.1148   91.2217  478.1559  461.0472  516.9777  494.7364   275.299  359.1654  447.3978  432.4282  471.8215  481.7752  468.8564  177.5281   230.559  183.5633  484.6064  494.6223   111.558  481.2011  340.5894         0
  std. dev.       258.4276  134.6059  168.4366  298.8434   84.1197  259.6485   205.413   133.248  149.9473  153.3857  193.2131  333.8421  147.6819  343.8324  163.8473  141.8944  227.7162  156.2529  244.6379  295.3702  283.5146  237.2579   311.451  208.6912  173.2575  184.7458    0.0608
  weight sum           429       109     35829       980       247     13106      1361       599      6910      1313       544       582      3561       491      1311      1613      6646      3164       419      1005      4423      2084      2080      1710       704       446        33
  precision         0.3648    0.3648    0.3648    0.3648    0.3648    0.3648    0.3648    0.3648    0.3648    0.3648    0.3648    0.3648    0.3648    0.3648    0.3648    0.3648    0.3648    0.3648    0.3648    0.3648    0.3648    0.3648    0.3648    0.3648    0.3648    0.3648    0.3648

2F2(Hz)
  mean            399.6301 1649.5731  171.9953 1114.0629 1936.5346 1452.9007  267.1199 1578.8816 1772.0574 1484.0198  1690.892  712.8855 1952.7441 1267.4745 1664.6932 1667.9758 1139.4043 1601.2188  715.5469  684.4114  571.9519 1365.1115 1043.9884  372.4335  1555.058 1341.6034         0
  std. dev.       741.8388  129.9137  521.2486  840.5424  348.5484  408.4804  616.3071  346.1089  544.5249  319.4464  591.0274  844.4121  688.7429  910.6307   443.251  347.5339  541.1664  451.1073  956.8357  846.4718  857.1484  620.9288  438.5623   677.747  432.4859  665.0111    0.0738
  weight sum           429       109     35829       980       247     13106      1361       599      6910      1313       544       582      3561       491      1311      1613      6646      3164       419      1005      4423      2084      2080      1710       704       446        33
  precision         0.4429    0.4429    0.4429    0.4429    0.4429    0.4429    0.4429    0.4429    0.4429    0.4429    0.4429    0.4429    0.4429    0.4429    0.4429    0.4429    0.4429    0.4429    0.4429    0.4429    0.4429    0.4429    0.4429    0.4429    0.4429    0.4429    0.4429

2F3(Hz)
  mean            663.8042 2863.8236  293.4431 1821.4233 2527.7809 2709.1782  486.9028 2757.8449 2603.6899 2869.5564 2898.5203 1218.6763 2631.3817 1864.3773 2748.6699 2805.2632 2490.7242 2765.1826 1068.0091 1160.7623  951.3372 2375.1702 2648.1475  676.6971 2651.4351 2313.3484         0
  std. dev.      1232.3098  410.0913  874.0689  1309.707  114.3528  751.1237 1085.3162  468.5344  809.0505  497.3337  930.4514  1437.573  948.5385 1330.5212  575.8762  588.2323 1033.2776   663.504 1391.6822 1423.2568 1409.1088 1087.0005  826.0863 1219.1928   706.522 1162.1591    0.1103
  weight sum           429       109     35829       980       247     13106      1361       599      6910      1313       544       582      3561       491      1311      1613      6646      3164       419      1005      4423      2084      2080      1710       704       446        33
  precision          0.662     0.662     0.662     0.662     0.662     0.662     0.662     0.662     0.662     0.662     0.662     0.662     0.662     0.662     0.662     0.662     0.662     0.662     0.662     0.662     0.662     0.662     0.662     0.662     0.662     0.662     0.662

2F4(Hz)
  mean            781.1138 3243.6283  352.5601 2266.9155 3589.2732 3119.9026   564.712 3299.3776 3139.0513 3323.5678 2933.6281 1400.8092 3132.5813 2326.3656 3310.1128 3231.6038 2866.8671 3172.4359 1292.9951 1377.0587 1073.9571  2748.427 3035.0863  777.4436 3215.0116  2679.984         0
  std. dev.      1450.2466  410.1502 1047.8695 1616.3082   90.7041  852.7347 1261.0993  442.1307  942.3082  543.3417  943.1766 1641.5102 1087.3648 1647.6679  623.6724  599.3615 1172.3377  763.8481 1696.4011 1667.2311 1588.4951 1203.6062  857.2082 1405.4346  752.7086 1334.4391    0.1138
  weight sum           429       109     35829       980       247     13106      1361       599      6910      1313       544       582      3561       491      1311      1613      6646      3164       419      1005      4423      2084      2080      1710       704       446        33
  precision         0.6829    0.6829    0.6829    0.6829    0.6829    0.6829    0.6829    0.6829    0.6829    0.6829    0.6829    0.6829    0.6829    0.6829    0.6829    0.6829    0.6829    0.6829    0.6829    0.6829    0.6829    0.6829    0.6829    0.6829    0.6829    0.6829    0.6829

3Int(dB)
  mean            -19.5109  -11.0073  -48.2529  -20.9187  -10.9119   -2.8635  -24.5216   -5.9294   -5.1801   -7.7997    -7.701  -22.0464   -8.7172  -15.7648   -7.5829   -8.2546    -8.146   -9.3069  -22.3902  -22.7543  -21.6704  -11.9208   -5.2139  -25.5417   -9.2274  -16.3545  -26.9195
  std. dev.         8.2851    4.3947   16.2028   11.2611    6.2832     8.205    9.9872    4.2721     8.069    6.1523    8.0193    5.4006    8.3524       6.1    6.0121    5.6912   12.1698    7.6889   11.3302   10.5956    6.5601    9.3387    7.7793   10.1924    6.7468    4.7964    2.0302
  weight sum           429       109     35829       980       247     13106      1361       599      6910      1313       544       582      3561       491      1311      1613      6646      3164       419      1005      4423      2084      2080      1710       704       446        33
  precision         0.1039    0.1039    0.1039    0.1039    0.1039    0.1039    0.1039    0.1039    0.1039    0.1039    0.1039    0.1039    0.1039    0.1039    0.1039    0.1039    0.1039    0.1039    0.1039    0.1039    0.1039    0.1039    0.1039    0.1039    0.1039    0.1039    0.1039

3Pitch(Hz)
  mean              53.055  245.4112   16.6936   81.4297  147.2402  226.5987   52.1217  216.1255  190.0868  202.2726  211.8361   74.5716  173.0539  152.4343  193.9847   174.651  178.5997  189.8479   82.7165   80.8753   45.0192  161.8022  229.3808   70.4675  177.7413  112.9413         0
  std. dev.       101.6332  121.6508   56.2818   86.7208   38.6144  103.4873   96.0705   72.3848   87.9634   84.5208  101.2436  114.9864   76.5412  131.6271   87.2817   64.2206   105.265   90.2682  115.2103  114.4697   88.2177   95.5801    84.526  109.6127   72.5746   69.2632    0.0207
  weight sum           429       109     35829       980       247     13106      1361       599      6910      1313       544       582      3561       491      1311      1613      6646      3164       419      1005      4423      2084      2080      1710       704       446        33
  precision         0.1242    0.1242    0.1242    0.1242    0.1242    0.1242    0.1242    0.1242    0.1242    0.1242    0.1242    0.1242    0.1242    0.1242    0.1242    0.1242    0.1242    0.1242    0.1242    0.1242    0.1242    0.1242    0.1242    0.1242    0.1242    0.1242    0.1242

3RawPitch
  mean             35.0966  237.4787   13.6795   63.5842  125.6235  216.9833   35.7069  213.7345  185.5725  195.9629  201.2902   37.3932  165.7052    94.585  182.9788  158.1608  172.7286  176.3158   42.8127    61.901   24.5966  155.4059  220.4839   45.1998  163.2642   76.9389         0
  std. dev.        85.5772  130.3747   50.8144   84.1847   81.4257  109.5973    82.006   75.7161   95.2181    94.473  112.1972   78.9964   83.3185  113.5516   98.3378   78.6389  112.6688   103.679    90.899  107.8677   67.9056  103.0698   93.0053   92.3545   84.7866   77.6904    0.0207
  weight sum           429       109     35829       980       247     13106      1361       599      6910      1313       544       582      3561       491      1311      1613      6646      3164       419      1005      4423      2084      2080      1710       704       446        33
  precision         0.1243    0.1243    0.1243    0.1243    0.1243    0.1243    0.1243    0.1243    0.1243    0.1243    0.1243    0.1243    0.1243    0.1243    0.1243    0.1243    0.1243    0.1243    0.1243    0.1243    0.1243    0.1243    0.1243    0.1243    0.1243    0.1243    0.1243

3SmPitch
  mean             49.2589  245.4038   15.0759   75.0475  149.1843  224.8531   44.3406  216.1252  188.5362  201.7143  210.1091   56.9592  170.6841  109.9994  191.0396  173.0212  176.5062   187.086   65.3564    71.317   37.6125  158.7242  228.8712   59.7232  173.5937  108.3503         0
  std. dev.        98.2717  121.6464    52.491   83.7122   36.5302  105.0838   91.2308   72.3842   89.2414   85.5991  103.2196   96.9061   79.0929   137.282   91.5792   66.2464  107.4391   92.9814  107.1905  112.1782   82.2768   97.2184   84.8121  104.3006   77.3273   71.3178    0.0208
  weight sum           429       109     35829       980       247     13106      1361       599      6910      1313       544       582      3561       491      1311      1613      6646      3164       419      1005      4423      2084      2080      1710       704       446        33
  precision         0.1248    0.1248    0.1248    0.1248    0.1248    0.1248    0.1248    0.1248    0.1248    0.1248    0.1248    0.1248    0.1248    0.1248    0.1248    0.1248    0.1248    0.1248    0.1248    0.1248    0.1248    0.1248    0.1248    0.1248    0.1248    0.1248    0.1248

3Melogram(st)
  mean             14.3645   56.5827    4.9297   25.3245   49.3918   53.2812    14.256   55.2076   50.4037   53.0165   51.1216   20.5647   48.4912   15.2451   50.9419    51.089   46.5516   49.7864   18.1628   20.9437    12.231   42.8431   54.0704   16.9436   50.6286    40.174         0
  std. dev.        25.1228    8.9962   15.6286   25.0675    4.6052    14.633   24.6395    7.3502   15.4597   11.3502   17.8042   26.9454   16.2162   25.9051   14.5333     9.813    20.484   16.8012   26.6158   27.4663   22.9916   22.5552   14.2652    26.274   11.5084   18.3961    0.0041
  weight sum           429       109     35829       980       247     13106      1361       599      6910      1313       544       582      3561       491      1311      1613      6646      3164       419      1005      4423      2084      2080      1710       704       446        33
  precision         0.0246    0.0246    0.0246    0.0246    0.0246    0.0246    0.0246    0.0246    0.0246    0.0246    0.0246    0.0246    0.0246    0.0246    0.0246    0.0246    0.0246    0.0246    0.0246    0.0246    0.0246    0.0246    0.0246    0.0246    0.0246    0.0246    0.0246

3ZCross
  mean              8.6263    3.4928    0.2535    0.9954     3.344    7.6556    1.6523    4.1942    5.2659    4.1291    4.6044    0.6301    3.7314    3.8397    2.8999    3.3331    4.4315    2.5136    4.2429    1.0209    3.6677    3.2398    4.0992     0.817     3.257    1.5047         0
  std. dev.        12.8551     2.655    1.1335    1.7306    2.4749    4.3982    3.6493    1.8633    3.2124    2.2988    2.8002     1.563    3.2172    3.8168    1.5523    2.0447    3.0586    1.6801    7.2062    2.3298    7.0481    2.5951    2.9273    1.7098    2.0151    1.7367    0.1792
  weight sum           429       109     35829       980       247     13106      1361       599      6910      1313       544       582      3561       491      1311      1613      6646      3164       419      1005      4423      2084      2080      1710       704       446        33
  precision         1.0755    1.0755    1.0755    1.0755    1.0755    1.0755    1.0755    1.0755    1.0755    1.0755    1.0755    1.0755    1.0755    1.0755    1.0755    1.0755    1.0755    1.0755    1.0755    1.0755    1.0755    1.0755    1.0755    1.0755    1.0755    1.0755    1.0755

3F1(Hz)
  mean            128.2914  606.6561   53.8406   377.559  445.9981  707.5898   96.5191  478.7776   463.877  517.6211  493.6582  264.6058  361.6146  444.4025  431.9925  470.7042  484.2054  464.4221  178.9209  229.5986  173.7896  482.9867  498.0573  114.8691  481.3778  339.0682         0
  std. dev.       253.6563  135.8221  166.7285  301.1992   84.9548  255.0771  210.0173  132.9683   146.053  153.3903  193.7355  331.4298  144.1442  346.8653  162.9402  139.8782  226.2125  156.5183  244.9245   293.483  278.8392   236.414   307.944  211.3763  170.3673  184.8167    0.0608
  weight sum           429       109     35829       980       247     13106      1361       599      6910      1313       544       582      3561       491      1311      1613      6646      3164       419      1005      4423      2084      2080      1710       704       446        33
  precision         0.3648    0.3648    0.3648    0.3648    0.3648    0.3648    0.3648    0.3648    0.3648    0.3648    0.3648    0.3648    0.3648    0.3648    0.3648    0.3648    0.3648    0.3648    0.3648    0.3648    0.3648    0.3648    0.3648    0.3648    0.3648    0.3648    0.3648

3F2(Hz)
  mean             388.191 1642.3654  168.5764 1087.3619 1933.3843 1459.3145   281.343 1574.8537  1785.616 1484.0387  1685.462  688.1209 1974.0792 1247.7422 1666.6278 1669.5867 1140.4987 1596.3773  719.3351  681.5872  542.5552 1365.7541  1053.554  382.8591 1565.3074 1340.2619         0
  std. dev.       735.3138  128.3605  516.6569  847.2366  347.9232  396.5725  626.9333  345.2052  528.1297  321.3149  595.4503  840.7309  669.1502  913.5333  436.4381  340.5242  535.6978  455.6778  956.3571  841.6713  844.8303  621.6712  426.6176  686.2131  417.5257  668.9618    0.0738
  weight sum           429       109     35829       980       247     13106      1361       599      6910      1313       544       582      3561       491      1311      1613      6646      3164       419      1005      4423      2084      2080      1710       704       446        33
  precision         0.4429    0.4429    0.4429    0.4429    0.4429    0.4429    0.4429    0.4429    0.4429    0.4429    0.4429    0.4429    0.4429    0.4429    0.4429    0.4429    0.4429    0.4429    0.4429    0.4429    0.4429    0.4429    0.4429    0.4429    0.4429    0.4429    0.4429

3F3(Hz)
  mean            640.1455 2864.7468  287.4429  1776.831 2525.9047 2721.5862  515.2883 2756.1064 2619.8245 2868.9125 2892.2992 1172.7962 2655.6632  1839.866 2749.0804 2811.0606  2499.568 2757.8361 1074.4145 1159.6036  901.6451 2375.2496  2673.852  691.9532 2666.5649 2305.4337         0
  std. dev.      1212.3465  414.6611   866.044 1323.5103  113.6465   730.267  1108.999  469.1644  786.5019  503.7764  938.5627 1427.4483  922.4738 1336.2367  565.8469   581.352 1024.8703  674.8642 1393.0709  1419.103 1388.2759  1088.151  787.5699 1228.7246  680.3656 1165.4962    0.1103
  weight sum           429       109     35829       980       247     13106      1361       599      6910      1313       544       582      3561       491      1311      1613      6646      3164       419      1005      4423      2084      2080      1710       704       446        33
  precision          0.662     0.662     0.662     0.662     0.662     0.662     0.662     0.662     0.662     0.662     0.662     0.662     0.662     0.662     0.662     0.662     0.662     0.662     0.662     0.662     0.662     0.662     0.662     0.662     0.662     0.662     0.662

3F4(Hz)
  mean            759.1191 3240.2202  345.5151  2212.445 3589.7874 3133.6693  600.4093 3298.5511 3157.1809  3321.865  2929.841 1351.3161 3159.0187 2300.3113 3313.8615 3236.6187 2876.1426 3165.1653 1296.8087 1381.1823 1018.8495 2747.0761  3063.919  796.0222 3234.2907 2673.9087         0
  std. dev.      1437.6027  405.9827 1038.6777 1634.5471   90.0103  828.2659 1293.8916  440.6092  913.7543  550.7347  952.5181 1634.1033 1054.7924 1658.6161  611.0322  588.5113 1161.7476   778.559 1692.8335 1668.5326 1566.5853 1205.2967  806.6532 1418.5861  713.2798 1340.9217    0.1138
  weight sum           429       109     35829       980       247     13106      1361       599      6910      1313       544       582      3561       491      1311      1613      6646      3164       419      1005      4423      2084      2080      1710       704       446        33
  precision         0.6829    0.6829    0.6829    0.6829    0.6829    0.6829    0.6829    0.6829    0.6829    0.6829    0.6829    0.6829    0.6829    0.6829    0.6829    0.6829    0.6829    0.6829    0.6829    0.6829    0.6829    0.6829    0.6829    0.6829    0.6829    0.6829    0.6829

4Int(dB)
  mean             -19.167  -11.1625  -48.3072  -21.3733  -10.7149   -2.8733  -23.7499   -5.8567    -5.199   -7.7016    -7.722  -22.1621    -8.676  -15.7996   -7.5498   -8.2338   -8.1936   -9.4747  -21.6533  -22.2328  -21.7905  -11.9633   -5.0927   -24.646   -9.0796  -16.2809  -26.9132
  std. dev.         8.1498    4.3485   16.1121   11.2969    6.3965     8.153    10.064    4.2899    8.0531     6.187    8.0048     5.303    8.3577    6.1062    5.9847    5.7838   12.2208    7.8239   11.1291    10.732    6.5355    9.4776    7.5769   10.6113    6.5355    4.7292    1.9983
  weight sum           429       109     35829       980       247     13106      1361       599      6910      1313       544       582      3561       491      1311      1613      6646      3164       419      1005      4423      2084      2080      1710       704       446        33
  precision         0.1037    0.1037    0.1037    0.1037    0.1037    0.1037    0.1037    0.1037    0.1037    0.1037    0.1037    0.1037    0.1037    0.1037    0.1037    0.1037    0.1037    0.1037    0.1037    0.1037    0.1037    0.1037    0.1037    0.1037    0.1037    0.1037    0.1037

4Pitch(Hz)
  mean             56.1744  245.4989   16.3396   78.7475  147.7994  226.6129   58.8225  216.1719  190.3791  202.2426  211.6788   72.9488  173.4856   151.728  194.2012  174.5722  178.0537  188.9788   86.5762   82.9837   43.4105  161.9067  229.8416   76.3545   178.673  113.0563         0
  std. dev.       103.5574  122.1103   55.7299   86.2324   39.2295  103.4134  100.8457   72.2007   87.7367   84.5819  101.7909  114.3539   76.0683  131.4173    87.328   64.1927  105.2226   90.9256  117.3245  113.9286   87.1375   95.8943   83.5753  112.1165   71.4053   69.2765    0.0207
  weight sum           429       109     35829       980       247     13106      1361       599      6910      1313       544       582      3561       491      1311      1613      6646      3164       419      1005      4423      2084      2080      1710       704       446        33
  precision         0.1242    0.1242    0.1242    0.1242    0.1242    0.1242    0.1242    0.1242    0.1242    0.1242    0.1242    0.1242    0.1242    0.1242    0.1242    0.1242    0.1242    0.1242    0.1242    0.1242    0.1242    0.1242    0.1242    0.1242    0.1242    0.1242    0.1242

4RawPitch
  mean             36.8283  237.1082   13.3739   61.0304  126.6695   217.004   41.3269   214.048   185.837  195.8324  201.3727     35.58  166.2787   93.7222  183.0521  158.1521  172.2852  175.0833   46.7847   64.3873   22.8249  155.0697  220.9278   51.7319  164.1733   78.1119         0
  std. dev.        86.8567  131.2913   50.3505   83.1284   81.3085  109.5778   87.5523   75.3247   95.0002    94.326  112.4119   76.9137   83.0617  112.7751   98.5689   79.0227  112.5036  104.3204   94.8817  108.0557   65.5791  103.4592   92.1417   97.0795   83.6029   77.8304    0.0207
  weight sum           429       109     35829       980       247     13106      1361       599      6910      1313       544       582      3561       491      1311      1613      6646      3164       419      1005      4423      2084      2080      1710       704       446        33
  precision         0.1243    0.1243    0.1243    0.1243    0.1243    0.1243    0.1243    0.1243    0.1243    0.1243    0.1243    0.1243    0.1243    0.1243    0.1243    0.1243    0.1243    0.1243    0.1243    0.1243    0.1243    0.1243    0.1243    0.1243    0.1243    0.1243    0.1243

4SmPitch
  mean             51.4241   245.493   14.7419   72.3683   149.744  224.9527   50.8196  216.1717  188.9642  201.7614  210.3094   55.3229  171.0525  109.2932  191.0026  172.7326  175.9682  185.8484   68.5748   73.3523   35.9417  158.7909  229.2536   65.8623  174.6514  108.4533         0
  std. dev.        99.8801  122.1055   51.9315   83.0011   37.1513  104.9064     96.64   72.2005   88.9263   85.5097  103.3642   95.8289   78.7886  136.8568   91.9871   66.4974  107.3853     93.87  109.6847  111.7359   80.8162   97.5388   84.0032   107.596   76.2155     71.34    0.0208
  weight sum           429       109     35829       980       247     13106      1361       599      6910      1313       544       582      3561       491      1311      1613      6646      3164       419      1005      4423      2084      2080      1710       704       446        33
  precision         0.1248    0.1248    0.1248    0.1248    0.1248    0.1248    0.1248    0.1248    0.1248    0.1248    0.1248    0.1248    0.1248    0.1248    0.1248    0.1248    0.1248    0.1248    0.1248    0.1248    0.1248    0.1248    0.1248    0.1248    0.1248    0.1248    0.1248

4Melogram(st)
  mean             15.0364   56.5644    4.8258   24.5896   49.4453   53.3304   15.5492   55.2167   50.4842   53.0765   51.0353   20.2223   48.6341   15.3027    50.967   51.0478   46.4749   49.5504   19.1315   21.5242   11.7665   42.8546   54.3072   18.3824   50.8827   40.1928         0
  std. dev.        25.5007    9.0321   15.4837   25.0323    4.6454   14.5188   25.3908    7.3415   15.3213   11.1742    17.943   26.8757   15.9951   25.9932   14.5387    9.8934   20.5262   17.1147   26.9971   27.5209   22.7033   22.5632   13.7628   26.8468   11.0179   18.4023    0.0041
  weight sum           429       109     35829       980       247     13106      1361       599      6910      1313       544       582      3561       491      1311      1613      6646      3164       419      1005      4423      2084      2080      1710       704       446        33
  precision         0.0246    0.0246    0.0246    0.0246    0.0246    0.0246    0.0246    0.0246    0.0246    0.0246    0.0246    0.0246    0.0246    0.0246    0.0246    0.0246    0.0246    0.0246    0.0246    0.0246    0.0246    0.0246    0.0246    0.0246    0.0246    0.0246    0.0246

4ZCross
  mean              8.6965    3.5125    0.2484    0.9526    3.4311    7.6409    1.7471    4.2516    5.2438    4.1913    4.6044    0.6024    3.7483      3.82    2.9073    3.3424    4.4237    2.4864    4.2993    1.0937    3.6553    3.2352    4.1111    0.9711    3.2829     1.524         0
  std. dev.        12.8365    2.6848    1.1311    1.7085    2.5088    4.4087    3.6599    1.8832    3.2168    2.3027    2.7858    1.5323    3.2275    3.8153     1.545    2.0294    3.0692    1.6824    7.1565    2.3383    7.0516    2.5918    2.9164    1.8529    2.0133    1.7378    0.1792
  weight sum           429       109     35829       980       247     13106      1361       599      6910      1313       544       582      3561       491      1311      1613      6646      3164       419      1005      4423      2084      2080      1710       704       446        33
  precision         1.0755    1.0755    1.0755    1.0755    1.0755    1.0755    1.0755    1.0755    1.0755    1.0755    1.0755    1.0755    1.0755    1.0755    1.0755    1.0755    1.0755    1.0755    1.0755    1.0755    1.0755    1.0755    1.0755    1.0755    1.0755    1.0755    1.0755

4F1(Hz)
  mean            123.1942  610.3237   52.7372  368.3069  446.2683  711.4514  103.9964  479.6898  466.4894  518.4309  493.4169  253.9126    363.75  441.3575  431.6196  469.7752  486.2046  460.1312  179.5033  230.2918  164.4121  481.1626  500.6341  121.5571  481.6653  338.4737         0
  std. dev.       248.6749   136.924  165.1061  303.3364   86.2804  251.2217  215.8387  132.7071  142.2388  153.3851  193.2624   328.652  140.8431  349.6798  162.0165  137.8408  225.0865  156.9404  245.2362  291.8796  273.8217  235.4575  305.2064  216.3685  167.2786   184.244    0.0608
  weight sum           429       109     35829       980       247     13106      1361       599      6910      1313       544       582      3561       491      1311      1613      6646      3164       419      1005      4423      2084      2080      1710       704       446        33
  precision         0.3648    0.3648    0.3648    0.3648    0.3648    0.3648    0.3648    0.3648    0.3648    0.3648    0.3648    0.3648    0.3648    0.3648    0.3648    0.3648    0.3648    0.3648    0.3648    0.3648    0.3648    0.3648    0.3648    0.3648    0.3648    0.3648    0.3648

4F2(Hz)
  mean            376.7654 1635.2349  165.1296  1060.434 1928.7405 1464.3906    301.66 1572.2172 1798.4442 1484.1075 1683.3446  663.3563  1993.047 1228.3789 1668.4402 1670.8104 1140.7371 1591.1826  718.1291  683.5759  514.6794 1366.8989 1061.2779  404.8713 1576.6312 1342.8267         0
  std. dev.       728.5768  126.5237  511.8838  852.8257  349.1637  386.4941  641.4848  344.4831  511.8666  323.4684  595.5085  836.3005  650.7685   916.305  429.7958  333.6483  531.1147  461.0869  954.1605  837.7058  831.9432  622.7216  416.4942  702.9583  402.2539  670.1431    0.0738
  weight sum           429       109     35829       980       247     13106      1361       599      6910      1313       544       582      3561       491      1311      1613      6646      3164       419      1005      4423      2084      2080      1710       704       446        33
  precision         0.4429    0.4429    0.4429    0.4429    0.4429    0.4429    0.4429    0.4429    0.4429    0.4429    0.4429    0.4429    0.4429    0.4429    0.4429    0.4429    0.4429    0.4429    0.4429    0.4429    0.4429    0.4429    0.4429    0.4429    0.4429    0.4429    0.4429

4F3(Hz)
  mean            616.4638 2865.6822  281.5482 1732.2063 2524.3394 2731.7626  554.9263 2754.3524 2634.9785 2868.2959 2891.9207 1126.9161 2677.3565 1815.2793 2749.5582 2817.0102 2506.4348 2749.7681 1073.0478 1166.3549  854.4172 2375.0752 2694.0925  725.1378 2682.0069 2305.2749         0
  std. dev.      1191.5389  419.1793  858.0862 1335.6596  113.0258  712.9707 1138.7381  469.7834  764.1593  510.0445  938.3439 1415.7652  898.3116 1341.4367  555.7281  574.4479 1018.6433   687.776 1391.3525 1416.0614 1366.2348 1089.0427  755.1652  1247.971  652.7644 1165.0756    0.1103
  weight sum           429       109     35829       980       247     13106      1361       599      6910      1313       544       582      3561       491      1311      1613      6646      3164       419      1005      4423      2084      2080      1710       704       446        33
  precision          0.662     0.662     0.662     0.662     0.662     0.662     0.662     0.662     0.662     0.662     0.662     0.662     0.662     0.662     0.662     0.662     0.662     0.662     0.662     0.662     0.662     0.662     0.662     0.662     0.662     0.662     0.662

4F4(Hz)
  mean              737.11  3236.831  338.5454 2157.8741 3590.7467  3144.537  651.7847 3297.5319   3174.33 3319.7801 2931.5846 1301.8229 3182.3609 2273.9788 3317.6185 3241.5892 2882.7851 3156.8141 1294.2891 1394.6656  966.9549  2746.307 3086.3027  837.3184 3253.5009 2674.3681         0
  std. dev.      1424.4748  401.7635 1029.4374 1650.7102   89.0647  807.8569 1338.2161  439.7233  885.5429  557.8761  953.5669 1625.1562 1024.5862 1668.8588  598.0784  577.5834 1153.5603  794.8923 1689.1398 1671.0354 1544.0952 1207.1513   763.546  1446.252  671.0726 1341.4249    0.1138
  weight sum           429       109     35829       980       247     13106      1361       599      6910      1313       544       582      3561       491      1311      1613      6646      3164       419      1005      4423      2084      2080      1710       704       446        33
  precision         0.6829    0.6829    0.6829    0.6829    0.6829    0.6829    0.6829    0.6829    0.6829    0.6829    0.6829    0.6829    0.6829    0.6829    0.6829    0.6829    0.6829    0.6829    0.6829    0.6829    0.6829    0.6829    0.6829    0.6829    0.6829    0.6829    0.6829





=== Stratified cross-validation ===

Correctly Classified Instances       26182               28.5521 %
Incorrectly Classified Instances     65517               71.4479 %
Kappa statistic                          0.2102
K&B Relative Info Score            1393056.4554 %
K&B Information Score                45860.6479 bits      0.5001 bits/instance
Class complexity | order 0          301792.8497 bits      3.2911 bits/instance
Class complexity | scheme          8587073.8706 bits     93.6441 bits/instance
Complexity improvement     (Sf)    -8285281.0209 bits    -90.353  bits/instance
Mean absolute error                      0.053 
Root mean squared error                  0.2233
Relative absolute error                 88.5087 %
Root relative squared error            129.0503 %
Coverage of cases (0.95 level)          31.7637 %
Mean rel. region size (0.95 level)       4.8994 %
Total Number of Instances            91699     


=== Detailed Accuracy By Class ===

                 TP Rate  FP Rate  Precision  Recall   F-Measure  MCC      ROC Area  PRC Area  Class
                 0,240    0,005    0,197      0,240    0,216      0,213    0,655     0,108     ch
                 0,367    0,020    0,021      0,367    0,041      0,085    0,881     0,051     rr
                 0,481    0,016    0,951      0,481    0,639      0,570    0,865     0,841     0
                 0,101    0,020    0,053      0,101    0,069      0,059    0,646     0,033     hs
                 0,931    0,133    0,019      0,931    0,037      0,121    0,957     0,125     hg
                 0,438    0,034    0,681      0,438    0,533      0,489    0,884     0,612     a
                 0,098    0,010    0,126      0,098    0,111      0,100    0,476     0,058     c
                 0,422    0,127    0,021      0,422    0,041      0,071    0,825     0,024     b
                 0,057    0,004    0,522      0,057    0,104      0,155    0,751     0,213     e
                 0,014    0,014    0,015      0,014    0,015      0,001    0,768     0,030     d
                 0,037    0,003    0,065      0,037    0,047      0,045    0,743     0,021     g
                 0,064    0,007    0,052      0,064    0,057      0,051    0,531     0,021     f
                 0,057    0,002    0,534      0,057    0,103      0,165    0,826     0,240     i
                 0,238    0,004    0,253      0,238    0,246      0,242    0,748     0,141     j
                 0,001    0,002    0,005      0,001    0,001      -0,004   0,784     0,035     m
                 0,255    0,045    0,093      0,255    0,136      0,129    0,823     0,064     l
                 0,007    0,003    0,165      0,007    0,013      0,019    0,739     0,161     o
                 0,013    0,009    0,050      0,013    0,020      0,008    0,769     0,075     n
                 0,026    0,001    0,097      0,026    0,041      0,048    0,646     0,028     q
                 0,013    0,003    0,040      0,013    0,020      0,017    0,525     0,029     p
                 0,080    0,001    0,769      0,080    0,146      0,240    0,603     0,269     s
                 0,022    0,005    0,100      0,022    0,036      0,036    0,693     0,044     r
                 0,201    0,004    0,528      0,201    0,291      0,317    0,852     0,281     u
                 0,074    0,008    0,152      0,074    0,100      0,095    0,505     0,060     t
                 0,000    0,002    0,000      0,000    0,000      -0,004   0,740     0,014     v
                 0,141    0,021    0,031      0,141    0,051      0,057    0,847     0,027     y
                 1,000    0,228    0,002      1,000    0,003      0,035    0,890     0,002     z
Weighted Avg.    0,286    0,015    0,606      0,286    0,365      0,342    0,800     0,483     


=== Confusion Matrix ===

     a     b     c     d     e     f     g     h     i     j     k     l     m     n     o     p     q     r     s     t     u     v     w     x     y     z    aa   <-- classified as
   103    23    19     5    10    10    53     4     1     3     0    11     0     5     0     7     0     6     3     2    21     3     0     5     0     2   133 |     a = ch
     0    40     0     0    53     4     0     7     0     0     0     0     0     0     0     0     0     0     0     0     0     0     0     0     0     5     0 |     b = rr
     3   183 17226   449   925    86    53   606    32   143     3   164    44    26    36   402    21   220     5    38    17    42    23   123    22   338 14599 |     c = 0
     0    16    36    99   278     9     9    51     5     6     0    34     1     7     0    42     0    13     0     0     5    20     7     0     2    73   267 |     d = hs
     0     1     0     0   230     0     0    10     0     1     0     0     0     0     0     2     0     1     0     0     0     0     0     0     0     2     0 |     e = hg
     2   386    81   109  1911  5742    86  2378    81   683     5    42     5    74     1   624    89    42    24    38     0    98    69    65    33   136   302 |     f = a
    46     3    74    48    34     0   134    22     5     3     0    29     6    18     0    17     8    21    11    26    21    11    11    87     0    22   704 |     g = c
     0    34     0     0   184    39     0   253     0     1    10     0     0     0     0    64     0     3     0     0     0     2     4     0     1     4     0 |     h = b
     0   115    18   114  2623   651    41  1729   397    25   110    19    31    34    13   361    46    58    20    44     1    24    40    60     0   103   233 |     i = e
     0    84     8    16   369   115     0   516     0    19     5     8     0     0     1   128     0     1     0     0     0     5     0     1     0    32     5 |     j = d
     0    28     4    11   143    78     0   155     0     0    20     8     7     0     2    55     0     1     0     0     0     0     0     4     0     2    26 |     k = g
     0    32    22    49    36     3    12    20     3     6     5    37     0     4     0     9     0    15     0     0     0    14     0    22     9    27   257 |     l = f
     2    11    23    60   911   150    30   824   135     0    53     8   202    10   103   488    14     6     6    41     4    16     5    63     0   248   148 |     m = i
     0     9    21    28    19    46     4    26     4     2     0    15     0   117     5     3     2    27     6     2     6    28     0     8     1    14    98 |     n = j
     0    22     1    35   518    75     1   388     0    29     0     2     2     0     1   172     0     0     0     2     0     0     7     4     0    32    20 |     o = m
     0    83     2    16   562    50     0   380     8     0     0     4     1     1     1   412     3     8     0     7     0     3     2    15     0    49     6 |     p = l
     6   152    29   166  1180   801    17  1966    40   220     1    39    13    31     1   584    44    26    10    32     0    27   174    39    84   302   662 |     q = o
     0   248    12   127   946    76     1  1018     5    14    31    17    23     1     2   343     2    40     0     1     1     2    16     1     0   142    95 |     r = n
    43     0    11    16    31    12    51    10     7     7     0    11     0    11     3     5     0    22    11     0    18     1     0     6     0    11   132 |     s = q
     0    18    58    65    59    23    36    28     0    11    14    38     2     7     0    49     1    31     2    13     5    35     2    41     3    41   423 |     t = p
   319   150   315   233   145    74   373    40    19    28     7   125    24    83    12   107     8   131     5     7   356    39     1    52     2   142  1626 |     u = s
     0   165    29   106   409   113    13   420    11    21    42    33     9     2     3   292     5    36     1     8     0    45     7    38    16    57   203 |     v = r
     0    18     9    16   153   229     7   766     0    17     1     5     2     7     8   180    13     5     0    19     0    12   418    43    24   102    26 |     w = u
     0    36   101    89    52     1   128    23     0    10     0    46     5    24     2     7     9    86     9    39     2    21     4   127     1    31   857 |     x = t
     0     4     3     5   362    46     1   149     8     4     0     4     1     0    10    53     1     5     0     1     0     1     0    13     0    25     8 |     y = v
     0     4     8    10   209     0    14    32     0     0     0     9     0     0     0    35     0     1     0     6     6     1     2    18     0    63    28 |     z = y
     0     0     0     0     0     0     0     0     0     0     0     0     0     0     0     0     0     0     0     0     0     0     0     0     0     0    33 |    aa = z

=== Percent Confusion Matrix ===
a	b	c	d	e	f	g	h	i	j	k	l	m	n	o	p	q	r	s	t	u	v	w	x	y	z	aa	
24.01	5.36	4.43	1.17	2.33	2.33	12.35	0.93	0.23	0.7	0.0	2.56	0.0	1.17	0.0	1.63	0.0	1.4	0.7	0.47	4.9	0.7	0.0	1.17	0.0	0.47	31.0	 a = ch
0.0	36.7	0.0	0.0	48.62	3.67	0.0	6.42	0.0	0.0	0.0	0.0	0.0	0.0	0.0	0.0	0.0	0.0	0.0	0.0	0.0	0.0	0.0	0.0	0.0	4.59	0.0	 b = rr
0.01	0.51	48.08	1.25	2.58	0.24	0.15	1.69	0.09	0.4	0.01	0.46	0.12	0.07	0.1	1.12	0.06	0.61	0.01	0.11	0.05	0.12	0.06	0.34	0.06	0.94	40.75	 c = 0
0.0	1.63	3.67	10.1	28.37	0.92	0.92	5.2	0.51	0.61	0.0	3.47	0.1	0.71	0.0	4.29	0.0	1.33	0.0	0.0	0.51	2.04	0.71	0.0	0.2	7.45	27.24	 d = hs
0.0	0.4	0.0	0.0	93.12	0.0	0.0	4.05	0.0	0.4	0.0	0.0	0.0	0.0	0.0	0.81	0.0	0.4	0.0	0.0	0.0	0.0	0.0	0.0	0.0	0.81	0.0	 e = hg
0.02	2.95	0.62	0.83	14.58	43.81	0.66	18.14	0.62	5.21	0.04	0.32	0.04	0.56	0.01	4.76	0.68	0.32	0.18	0.29	0.0	0.75	0.53	0.5	0.25	1.04	2.3	 f = a
3.38	0.22	5.44	3.53	2.5	0.0	9.85	1.62	0.37	0.22	0.0	2.13	0.44	1.32	0.0	1.25	0.59	1.54	0.81	1.91	1.54	0.81	0.81	6.39	0.0	1.62	51.73	 g = c
0.0	5.68	0.0	0.0	30.72	6.51	0.0	42.24	0.0	0.17	1.67	0.0	0.0	0.0	0.0	10.68	0.0	0.5	0.0	0.0	0.0	0.33	0.67	0.0	0.17	0.67	0.0	 h = b
0.0	1.66	0.26	1.65	37.96	9.42	0.59	25.02	5.75	0.36	1.59	0.27	0.45	0.49	0.19	5.22	0.67	0.84	0.29	0.64	0.01	0.35	0.58	0.87	0.0	1.49	3.37	 i = e
0.0	6.4	0.61	1.22	28.1	8.76	0.0	39.3	0.0	1.45	0.38	0.61	0.0	0.0	0.08	9.75	0.0	0.08	0.0	0.0	0.0	0.38	0.0	0.08	0.0	2.44	0.38	 j = d
0.0	5.15	0.74	2.02	26.29	14.34	0.0	28.49	0.0	0.0	3.68	1.47	1.29	0.0	0.37	10.11	0.0	0.18	0.0	0.0	0.0	0.0	0.0	0.74	0.0	0.37	4.78	 k = g
0.0	5.5	3.78	8.42	6.19	0.52	2.06	3.44	0.52	1.03	0.86	6.36	0.0	0.69	0.0	1.55	0.0	2.58	0.0	0.0	0.0	2.41	0.0	3.78	1.55	4.64	44.16	 l = f
0.06	0.31	0.65	1.68	25.58	4.21	0.84	23.14	3.79	0.0	1.49	0.22	5.67	0.28	2.89	13.7	0.39	0.17	0.17	1.15	0.11	0.45	0.14	1.77	0.0	6.96	4.16	 m = i
0.0	1.83	4.28	5.7	3.87	9.37	0.81	5.3	0.81	0.41	0.0	3.05	0.0	23.83	1.02	0.61	0.41	5.5	1.22	0.41	1.22	5.7	0.0	1.63	0.2	2.85	19.96	 n = j
0.0	1.68	0.08	2.67	39.51	5.72	0.08	29.6	0.0	2.21	0.0	0.15	0.15	0.0	0.08	13.12	0.0	0.0	0.0	0.15	0.0	0.0	0.53	0.31	0.0	2.44	1.53	 o = m
0.0	5.15	0.12	0.99	34.84	3.1	0.0	23.56	0.5	0.0	0.0	0.25	0.06	0.06	0.06	25.54	0.19	0.5	0.0	0.43	0.0	0.19	0.12	0.93	0.0	3.04	0.37	 p = l
0.09	2.29	0.44	2.5	17.76	12.05	0.26	29.58	0.6	3.31	0.02	0.59	0.2	0.47	0.02	8.79	0.66	0.39	0.15	0.48	0.0	0.41	2.62	0.59	1.26	4.54	9.96	 q = o
0.0	7.84	0.38	4.01	29.9	2.4	0.03	32.17	0.16	0.44	0.98	0.54	0.73	0.03	0.06	10.84	0.06	1.26	0.0	0.03	0.03	0.06	0.51	0.03	0.0	4.49	3.0	 r = n
10.26	0.0	2.63	3.82	7.4	2.86	12.17	2.39	1.67	1.67	0.0	2.63	0.0	2.63	0.72	1.19	0.0	5.25	2.63	0.0	4.3	0.24	0.0	1.43	0.0	2.63	31.5	 s = q
0.0	1.79	5.77	6.47	5.87	2.29	3.58	2.79	0.0	1.09	1.39	3.78	0.2	0.7	0.0	4.88	0.1	3.08	0.2	1.29	0.5	3.48	0.2	4.08	0.3	4.08	42.09	 t = p
7.21	3.39	7.12	5.27	3.28	1.67	8.43	0.9	0.43	0.63	0.16	2.83	0.54	1.88	0.27	2.42	0.18	2.96	0.11	0.16	8.05	0.88	0.02	1.18	0.05	3.21	36.76	 u = s
0.0	7.92	1.39	5.09	19.63	5.42	0.62	20.15	0.53	1.01	2.02	1.58	0.43	0.1	0.14	14.01	0.24	1.73	0.05	0.38	0.0	2.16	0.34	1.82	0.77	2.74	9.74	 v = r
0.0	0.87	0.43	0.77	7.36	11.01	0.34	36.83	0.0	0.82	0.05	0.24	0.1	0.34	0.38	8.65	0.63	0.24	0.0	0.91	0.0	0.58	20.1	2.07	1.15	4.9	1.25	 w = u
0.0	2.11	5.91	5.2	3.04	0.06	7.49	1.35	0.0	0.58	0.0	2.69	0.29	1.4	0.12	0.41	0.53	5.03	0.53	2.28	0.12	1.23	0.23	7.43	0.06	1.81	50.12	 x = t
0.0	0.57	0.43	0.71	51.42	6.53	0.14	21.16	1.14	0.57	0.0	0.57	0.14	0.0	1.42	7.53	0.14	0.71	0.0	0.14	0.0	0.14	0.0	1.85	0.0	3.55	1.14	 y = v
0.0	0.9	1.79	2.24	46.86	0.0	3.14	7.17	0.0	0.0	0.0	2.02	0.0	0.0	0.0	7.85	0.0	0.22	0.0	1.35	1.35	0.22	0.45	4.04	0.0	14.13	6.28	 z = y
0.0	0.0	0.0	0.0	0.0	0.0	0.0	0.0	0.0	0.0	0.0	0.0	0.0	0.0	0.0	0.0	0.0	0.0	0.0	0.0	0.0	0.0	0.0	0.0	0.0	0.0	100.0	 aa = z
