Timestamp:2013-07-22-20:46:43
Inventario:I0
Intervalo:20ms
Ngramas:1
Clasificador:RandomForest
Relation Name:  I0-20ms-1gramas
Num Instances:  9129
Num Attributes: 11

     Name                      Type  Nom  Int Real     Missing      Unique  Dist
   1 0Int(dB)                   Num   0%  11%  89%     0 /  0%    14 /  0%   764 
   2 0Pitch(Hz)                 Num   0%  49%  51%     0 /  0%  1033 / 11%  2440 
   3 0RawPitch                  Num   0%  52%  48%     0 /  0%  1062 / 12%  2369 
   4 0SmPitch                   Num   0%  50%  50%     0 /  0%  1056 / 12%  2419 
   5 0Melogram(st)              Num   0%  45%  55%     0 /  0%   938 / 10%  2342 
   6 0ZCross                    Num   0% 100%   0%     0 /  0%     7 /  0%    34 
   7 0F1(Hz)                    Num   0%  49%  51%     0 /  0%  2180 / 24%  3398 
   8 0F2(Hz)                    Num   0%  49%  51%     0 /  0%  3463 / 38%  4259 
   9 0F3(Hz)                    Num   0%  49%  51%     0 /  0%  3209 / 35%  4087 
  10 0F4(Hz)                    Num   0%  49%  51%     0 /  0%  3134 / 34%  4027 
  11 class                      Nom 100%   0%   0%     0 /  0%     0 /  0%    27 


Options: -I 10 -K 0 -S 1 -num-slots 4 

Random forest of 10 trees, each constructed while considering 4 random features.
Out of bag error: 0.4039





=== Stratified cross-validation ===

Correctly Classified Instances        5860               64.191  %
Incorrectly Classified Instances      3269               35.809  %
Kappa statistic                          0.5613
K&B Relative Info Score             486001.4012 %
K&B Information Score                16557.0197 bits      1.8137 bits/instance
Class complexity | order 0           31019.3567 bits      3.3979 bits/instance
Class complexity | scheme          1582445.8009 bits    173.3427 bits/instance
Complexity improvement     (Sf)    -1551426.4443 bits   -169.9448 bits/instance
Mean absolute error                      0.0324
Root mean squared error                  0.134 
Relative absolute error                 52.6408 %
Root relative squared error             76.4142 %
Coverage of cases (0.95 level)          83.8208 %
Mean rel. region size (0.95 level)      11.6698 %
Total Number of Instances             9129     


=== Detailed Accuracy By Class ===

                 TP Rate  FP Rate  Precision  Recall   F-Measure  MCC      ROC Area  PRC Area  Class
                 0,025    0,003    0,034      0,025    0,029      0,026    0,563     0,014     ch
                 0,000    0,001    0,000      0,000    0,000      -0,001   0,586     0,009     rr
                 0,924    0,081    0,862      0,924    0,892      0,831    0,970     0,946     0
                 0,136    0,008    0,170      0,136    0,152      0,143    0,716     0,066     hs
                 0,259    0,001    0,467      0,259    0,333      0,346    0,771     0,172     hg
                 0,799    0,066    0,680      0,799    0,735      0,686    0,924     0,808     a
                 0,101    0,010    0,139      0,101    0,117      0,107    0,644     0,048     c
                 0,158    0,004    0,214      0,158    0,182      0,180    0,725     0,070     b
                 0,645    0,057    0,503      0,645    0,565      0,526    0,901     0,545     e
                 0,120    0,008    0,176      0,120    0,143      0,135    0,757     0,084     d
                 0,167    0,002    0,345      0,167    0,225      0,236    0,817     0,191     g
                 0,066    0,004    0,093      0,066    0,077      0,073    0,620     0,025     f
                 0,584    0,021    0,547      0,584    0,565      0,546    0,890     0,539     i
                 0,265    0,003    0,333      0,265    0,295      0,294    0,785     0,232     j
                 0,291    0,007    0,383      0,291    0,331      0,325    0,832     0,248     m
                 0,206    0,009    0,292      0,206    0,242      0,234    0,798     0,157     l
                 0,562    0,042    0,528      0,562    0,545      0,505    0,859     0,551     o
                 0,423    0,019    0,464      0,423    0,442      0,423    0,868     0,378     n
                 0,000    0,002    0,000      0,000    0,000      -0,003   0,601     0,016     q
                 0,069    0,005    0,132      0,069    0,091      0,088    0,594     0,029     p
                 0,413    0,029    0,434      0,413    0,423      0,393    0,849     0,417     s
                 0,088    0,008    0,227      0,088    0,127      0,129    0,715     0,090     r
                 0,486    0,005    0,697      0,486    0,573      0,574    0,907     0,572     u
                 0,119    0,009    0,208      0,119    0,151      0,145    0,683     0,071     t
                 0,065    0,002    0,200      0,065    0,098      0,110    0,733     0,062     v
                 0,292    0,002    0,483      0,292    0,364      0,373    0,844     0,220     y
                 0,000    0,000    0,000      0,000    0,000      -0,000   0,499     0,001     z
Weighted Avg.    0,642    0,051    0,609      0,642    0,621      0,582    0,888     0,634     


=== Confusion Matrix ===

    a    b    c    d    e    f    g    h    i    j    k    l    m    n    o    p    q    r    s    t    u    v    w    x    y    z   aa   <-- classified as
    1    0    9    0    0    4    3    0    0    0    0    0    1    0    0    0    2    1    0    0   17    0    1    1    0    0    0 |    a = ch
    0    0    1    0    0    3    0    0    4    0    0    0    0    0    0    0    2    0    0    0    1    0    0    0    0    0    0 |    b = rr
    2    2 2992    8    0   23   12    0   17    1    1    6   12    5    1    1   41    6    3   16   60    1    0   22    2    3    0 |    c = 0
    0    0   24   15    0   17    0    0   10    1    1    1    2    1    1    5   10    4    1    1    9    2    2    1    1    1    0 |    d = hs
    0    0    2    0    7    3    0    0    7    1    0    0    3    1    1    0    1    1    0    0    0    0    0    0    0    0    0 |    e = hg
    1    2   45   11    0 1093    5    2   62    8    0    1   10    3    2   16   57    7    1    3   14   16    2    6    0    1    0 |    f = a
    2    0   40    1    0    8   14    0    7    1    0    5    0    2    0    0    7    3    7    1   30    1    2    6    1    0    0 |    g = c
    0    0    1    0    1    5    0    9   11    1    0    0    0    0    8    2    9    3    0    0    0    3    4    0    0    0    0 |    h = b
    0    2   23    7    3   76    5    1  481    3    5    1   30    2    7    6   27   30    2    4   17    6    2    2    4    0    0 |    i = e
    0    0    3    3    0   22    2    3   20   16    2    0    3    0    2    5   31   13    0    0    0    2    5    1    0    0    0 |    j = d
    0    0    2    0    0    9    2    0   16    1   10    0    8    1    1    0    8    0    0    0    0    0    0    0    1    1    0 |    k = g
    0    0   10    2    0   13    2    1    3    0    0    4    0    1    0    1    2    0    0    2   14    3    0    2    1    0    0 |    l = f
    0    0   22    3    2   12    3    1   67    1    1    0  225    1    6    5    4   13    0    1    9    2    1    6    0    0    0 |    m = i
    1    0    4    1    0    9    1    0    6    0    1    1    3   13    0    0    1    0    0    2    6    0    0    0    0    0    0 |    n = j
    0    0    1    0    2   10    0    5   19    6    0    0   19    0   41    1   16   13    0    2    1    0    4    0    1    0    0 |    o = m
    1    0    6    4    0   29    0    1   23    1    0    1   18    0    5   33   13   10    0    0    0    6    6    0    2    1    0 |    p = l
    1    1   59    6    0   74    3    4   46   15    3    1    6    0   11   12  400   30    1    1   13    8    8    7    0    1    1 |    q = o
    1    1   15    4    0   30    1    5   48   12    2    0   20    0    8    5   24  142    0    0    8    1    4    3    1    1    0 |    r = n
    2    0   10    0    0    3    3    0    3    0    0    0    2    0    0    0    1    2    0    0   14    0    0    3    0    0    0 |    s = q
    1    0   29    5    0   14    3    0    6    0    1    6    3    1    1    1    2    0    0    7    7    6    1    5    1    0    1 |    t = p
   10    0   85    4    0   42   23    0   28    2    0    8   18    4    1    1   15    5    7    4  191    3    1    8    1    1    1 |    u = s
    1    0   18    4    0   69    0    3   20    9    1    3   12    1    3   11   24    6    0    4    8   20    1    5    2    1    0 |    v = r
    1    0    5    4    0   10    1    7   14    5    0    0    4    0    4    3   33   14    0    1    1    1  106    2    0    2    0 |    w = u
    3    0   57    5    0   14   16    0   11    3    0    5    6    2    0    1    9    1    0    3   11    7    0   21    2    0    0 |    x = t
    0    1    2    1    0   12    1    0   22    1    1    0    3    0    4    2   17    0    0    1    1    0    1    0    5    2    0 |    y = v
    1    0    5    0    0    4    1    0    6    3    0    0    3    0    0    2    0    2    0    0    6    0    1    0    0   14    0 |    z = y
    0    0    1    0    0    0    0    0    0    0    0    0    0    1    0    0    1    0    0    0    2    0    0    0    0    0    0 |   aa = z

=== Percent Confusion Matrix ===
a	b	c	d	e	f	g	h	i	j	k	l	m	n	o	p	q	r	s	t	u	v	w	x	y	z	aa	
2.5	0.0	22.5	0.0	0.0	10.0	7.5	0.0	0.0	0.0	0.0	0.0	2.5	0.0	0.0	0.0	5.0	2.5	0.0	0.0	42.5	0.0	2.5	2.5	0.0	0.0	0.0	 a = ch
0.0	0.0	9.09	0.0	0.0	27.27	0.0	0.0	36.36	0.0	0.0	0.0	0.0	0.0	0.0	0.0	18.18	0.0	0.0	0.0	9.09	0.0	0.0	0.0	0.0	0.0	0.0	 b = rr
0.06	0.06	92.43	0.25	0.0	0.71	0.37	0.0	0.53	0.03	0.03	0.19	0.37	0.15	0.03	0.03	1.27	0.19	0.09	0.49	1.85	0.03	0.0	0.68	0.06	0.09	0.0	 c = 0
0.0	0.0	21.82	13.64	0.0	15.45	0.0	0.0	9.09	0.91	0.91	0.91	1.82	0.91	0.91	4.55	9.09	3.64	0.91	0.91	8.18	1.82	1.82	0.91	0.91	0.91	0.0	 d = hs
0.0	0.0	7.41	0.0	25.93	11.11	0.0	0.0	25.93	3.7	0.0	0.0	11.11	3.7	3.7	0.0	3.7	3.7	0.0	0.0	0.0	0.0	0.0	0.0	0.0	0.0	0.0	 e = hg
0.07	0.15	3.29	0.8	0.0	79.9	0.37	0.15	4.53	0.58	0.0	0.07	0.73	0.22	0.15	1.17	4.17	0.51	0.07	0.22	1.02	1.17	0.15	0.44	0.0	0.07	0.0	 f = a
1.45	0.0	28.99	0.72	0.0	5.8	10.14	0.0	5.07	0.72	0.0	3.62	0.0	1.45	0.0	0.0	5.07	2.17	5.07	0.72	21.74	0.72	1.45	4.35	0.72	0.0	0.0	 g = c
0.0	0.0	1.75	0.0	1.75	8.77	0.0	15.79	19.3	1.75	0.0	0.0	0.0	0.0	14.04	3.51	15.79	5.26	0.0	0.0	0.0	5.26	7.02	0.0	0.0	0.0	0.0	 h = b
0.0	0.27	3.08	0.94	0.4	10.19	0.67	0.13	64.48	0.4	0.67	0.13	4.02	0.27	0.94	0.8	3.62	4.02	0.27	0.54	2.28	0.8	0.27	0.27	0.54	0.0	0.0	 i = e
0.0	0.0	2.26	2.26	0.0	16.54	1.5	2.26	15.04	12.03	1.5	0.0	2.26	0.0	1.5	3.76	23.31	9.77	0.0	0.0	0.0	1.5	3.76	0.75	0.0	0.0	0.0	 j = d
0.0	0.0	3.33	0.0	0.0	15.0	3.33	0.0	26.67	1.67	16.67	0.0	13.33	1.67	1.67	0.0	13.33	0.0	0.0	0.0	0.0	0.0	0.0	0.0	1.67	1.67	0.0	 k = g
0.0	0.0	16.39	3.28	0.0	21.31	3.28	1.64	4.92	0.0	0.0	6.56	0.0	1.64	0.0	1.64	3.28	0.0	0.0	3.28	22.95	4.92	0.0	3.28	1.64	0.0	0.0	 l = f
0.0	0.0	5.71	0.78	0.52	3.12	0.78	0.26	17.4	0.26	0.26	0.0	58.44	0.26	1.56	1.3	1.04	3.38	0.0	0.26	2.34	0.52	0.26	1.56	0.0	0.0	0.0	 m = i
2.04	0.0	8.16	2.04	0.0	18.37	2.04	0.0	12.24	0.0	2.04	2.04	6.12	26.53	0.0	0.0	2.04	0.0	0.0	4.08	12.24	0.0	0.0	0.0	0.0	0.0	0.0	 n = j
0.0	0.0	0.71	0.0	1.42	7.09	0.0	3.55	13.48	4.26	0.0	0.0	13.48	0.0	29.08	0.71	11.35	9.22	0.0	1.42	0.71	0.0	2.84	0.0	0.71	0.0	0.0	 o = m
0.63	0.0	3.75	2.5	0.0	18.13	0.0	0.63	14.38	0.63	0.0	0.63	11.25	0.0	3.13	20.63	8.13	6.25	0.0	0.0	0.0	3.75	3.75	0.0	1.25	0.63	0.0	 p = l
0.14	0.14	8.29	0.84	0.0	10.39	0.42	0.56	6.46	2.11	0.42	0.14	0.84	0.0	1.54	1.69	56.18	4.21	0.14	0.14	1.83	1.12	1.12	0.98	0.0	0.14	0.14	 q = o
0.3	0.3	4.46	1.19	0.0	8.93	0.3	1.49	14.29	3.57	0.6	0.0	5.95	0.0	2.38	1.49	7.14	42.26	0.0	0.0	2.38	0.3	1.19	0.89	0.3	0.3	0.0	 r = n
4.65	0.0	23.26	0.0	0.0	6.98	6.98	0.0	6.98	0.0	0.0	0.0	4.65	0.0	0.0	0.0	2.33	4.65	0.0	0.0	32.56	0.0	0.0	6.98	0.0	0.0	0.0	 s = q
0.99	0.0	28.71	4.95	0.0	13.86	2.97	0.0	5.94	0.0	0.99	5.94	2.97	0.99	0.99	0.99	1.98	0.0	0.0	6.93	6.93	5.94	0.99	4.95	0.99	0.0	0.99	 t = p
2.16	0.0	18.36	0.86	0.0	9.07	4.97	0.0	6.05	0.43	0.0	1.73	3.89	0.86	0.22	0.22	3.24	1.08	1.51	0.86	41.25	0.65	0.22	1.73	0.22	0.22	0.22	 u = s
0.44	0.0	7.96	1.77	0.0	30.53	0.0	1.33	8.85	3.98	0.44	1.33	5.31	0.44	1.33	4.87	10.62	2.65	0.0	1.77	3.54	8.85	0.44	2.21	0.88	0.44	0.0	 v = r
0.46	0.0	2.29	1.83	0.0	4.59	0.46	3.21	6.42	2.29	0.0	0.0	1.83	0.0	1.83	1.38	15.14	6.42	0.0	0.46	0.46	0.46	48.62	0.92	0.0	0.92	0.0	 w = u
1.69	0.0	32.2	2.82	0.0	7.91	9.04	0.0	6.21	1.69	0.0	2.82	3.39	1.13	0.0	0.56	5.08	0.56	0.0	1.69	6.21	3.95	0.0	11.86	1.13	0.0	0.0	 x = t
0.0	1.3	2.6	1.3	0.0	15.58	1.3	0.0	28.57	1.3	1.3	0.0	3.9	0.0	5.19	2.6	22.08	0.0	0.0	1.3	1.3	0.0	1.3	0.0	6.49	2.6	0.0	 y = v
2.08	0.0	10.42	0.0	0.0	8.33	2.08	0.0	12.5	6.25	0.0	0.0	6.25	0.0	0.0	4.17	0.0	4.17	0.0	0.0	12.5	0.0	2.08	0.0	0.0	29.17	0.0	 z = y
0.0	0.0	20.0	0.0	0.0	0.0	0.0	0.0	0.0	0.0	0.0	0.0	0.0	20.0	0.0	0.0	20.0	0.0	0.0	0.0	40.0	0.0	0.0	0.0	0.0	0.0	0.0	 aa = z
