Timestamp:2013-08-30-03:55:22
Inventario:I0
Intervalo:20ms
Ngramas:4
Clasificador:BayesNet
Relation Name:  I0-20ms-4gramas
Num Instances:  9126
Num Attributes: 41

     Name                      Type  Nom  Int Real     Missing      Unique  Dist
   1 0Int(dB)                   Num   0%  11%  89%     0 /  0%    14 /  0%   764 
   2 0Pitch(Hz)                 Num   0%  49%  51%     0 /  0%  1033 / 11%  2440 
   3 0RawPitch                  Num   0%  52%  48%     0 /  0%  1062 / 12%  2369 
   4 0SmPitch                   Num   0%  50%  50%     0 /  0%  1056 / 12%  2419 
   5 0Melogram(st)              Num   0%  45%  55%     0 /  0%   937 / 10%  2341 
   6 0ZCross                    Num   0% 100%   0%     0 /  0%     7 /  0%    34 
   7 0F1(Hz)                    Num   0%  49%  51%     0 /  0%  2180 / 24%  3398 
   8 0F2(Hz)                    Num   0%  49%  51%     0 /  0%  3463 / 38%  4259 
   9 0F3(Hz)                    Num   0%  49%  51%     0 /  0%  3209 / 35%  4087 
  10 0F4(Hz)                    Num   0%  49%  51%     0 /  0%  3134 / 34%  4027 
  11 1Int(dB)                   Num   0%  11%  89%     0 /  0%    14 /  0%   764 
  12 1Pitch(Hz)                 Num   0%  49%  51%     0 /  0%  1033 / 11%  2440 
  13 1RawPitch                  Num   0%  52%  48%     0 /  0%  1062 / 12%  2369 
  14 1SmPitch                   Num   0%  50%  50%     0 /  0%  1056 / 12%  2419 
  15 1Melogram(st)              Num   0%  45%  55%     0 /  0%   937 / 10%  2341 
  16 1ZCross                    Num   0% 100%   0%     0 /  0%     7 /  0%    34 
  17 1F1(Hz)                    Num   0%  49%  51%     0 /  0%  2180 / 24%  3398 
  18 1F2(Hz)                    Num   0%  49%  51%     0 /  0%  3463 / 38%  4259 
  19 1F3(Hz)                    Num   0%  49%  51%     0 /  0%  3209 / 35%  4087 
  20 1F4(Hz)                    Num   0%  49%  51%     0 /  0%  3134 / 34%  4027 
  21 2Int(dB)                   Num   0%  11%  89%     0 /  0%    14 /  0%   764 
  22 2Pitch(Hz)                 Num   0%  49%  51%     0 /  0%  1033 / 11%  2440 
  23 2RawPitch                  Num   0%  52%  48%     0 /  0%  1062 / 12%  2369 
  24 2SmPitch                   Num   0%  50%  50%     0 /  0%  1056 / 12%  2419 
  25 2Melogram(st)              Num   0%  45%  55%     0 /  0%   937 / 10%  2341 
  26 2ZCross                    Num   0% 100%   0%     0 /  0%     7 /  0%    34 
  27 2F1(Hz)                    Num   0%  49%  51%     0 /  0%  2180 / 24%  3398 
  28 2F2(Hz)                    Num   0%  49%  51%     0 /  0%  3463 / 38%  4259 
  29 2F3(Hz)                    Num   0%  49%  51%     0 /  0%  3209 / 35%  4087 
  30 2F4(Hz)                    Num   0%  49%  51%     0 /  0%  3134 / 34%  4027 
  31 3Int(dB)                   Num   0%  11%  89%     0 /  0%    14 /  0%   764 
  32 3Pitch(Hz)                 Num   0%  49%  51%     0 /  0%  1033 / 11%  2440 
  33 3RawPitch                  Num   0%  52%  48%     0 /  0%  1062 / 12%  2369 
  34 3SmPitch                   Num   0%  50%  50%     0 /  0%  1056 / 12%  2419 
  35 3Melogram(st)              Num   0%  45%  55%     0 /  0%   938 / 10%  2342 
  36 3ZCross                    Num   0% 100%   0%     0 /  0%     7 /  0%    34 
  37 3F1(Hz)                    Num   0%  49%  51%     0 /  0%  2180 / 24%  3398 
  38 3F2(Hz)                    Num   0%  49%  51%     0 /  0%  3463 / 38%  4259 
  39 3F3(Hz)                    Num   0%  49%  51%     0 /  0%  3209 / 35%  4087 
  40 3F4(Hz)                    Num   0%  49%  51%     0 /  0%  3134 / 34%  4027 
  41 class                      Nom 100%   0%   0%     0 /  0%     0 /  0%    27 


Options: -D -Q weka.classifiers.bayes.net.search.local.K2 -- -P 1 -S BAYES -E weka.classifiers.bayes.net.estimate.SimpleEstimator -- -A 0.5 

Bayes Network Classifier
not using ADTree
#attributes=41 #classindex=40
Network structure (nodes followed by parents)
0Int(dB)(8): class 
0Pitch(Hz)(4): class 
0RawPitch(4): class 
0SmPitch(4): class 
0Melogram(st)(5): class 
0ZCross(4): class 
0F1(Hz)(6): class 
0F2(Hz)(5): class 
0F3(Hz)(3): class 
0F4(Hz)(2): class 
1Int(dB)(7): class 
1Pitch(Hz)(4): class 
1RawPitch(4): class 
1SmPitch(4): class 
1Melogram(st)(5): class 
1ZCross(3): class 
1F1(Hz)(7): class 
1F2(Hz)(6): class 
1F3(Hz)(3): class 
1F4(Hz)(3): class 
2Int(dB)(7): class 
2Pitch(Hz)(4): class 
2RawPitch(4): class 
2SmPitch(4): class 
2Melogram(st)(7): class 
2ZCross(4): class 
2F1(Hz)(8): class 
2F2(Hz)(6): class 
2F3(Hz)(3): class 
2F4(Hz)(3): class 
3Int(dB)(8): class 
3Pitch(Hz)(4): class 
3RawPitch(4): class 
3SmPitch(4): class 
3Melogram(st)(7): class 
3ZCross(6): class 
3F1(Hz)(8): class 
3F2(Hz)(9): class 
3F3(Hz)(3): class 
3F4(Hz)(3): class 
class(27): 
LogScore Bayes: -331944.3617860696
LogScore BDeu: -352285.7963757962
LogScore MDL: -349715.4713048751
LogScore ENTROPY: -330269.4538160031
LogScore AIC: -334534.4538160031




=== Stratified cross-validation ===

Correctly Classified Instances        4300               47.1181 %
Incorrectly Classified Instances      4826               52.8819 %
Kappa statistic                          0.3751
K&B Relative Info Score             317507.742  %
K&B Information Score                10817.6744 bits      1.1854 bits/instance
Class complexity | order 0           31014.8678 bits      3.3985 bits/instance
Class complexity | scheme           109189.036  bits     11.9646 bits/instance
Complexity improvement     (Sf)     -78174.1682 bits     -8.5661 bits/instance
Mean absolute error                      0.0396
Root mean squared error                  0.1776
Relative absolute error                 64.2853 %
Root relative squared error            101.2746 %
Coverage of cases (0.95 level)          57.6923 %
Mean rel. region size (0.95 level)       7.6615 %
Total Number of Instances             9126     


=== Detailed Accuracy By Class ===

                 TP Rate  FP Rate  Precision  Recall   F-Measure  MCC      ROC Area  PRC Area  Class
                 0,125    0,003    0,143      0,125    0,133      0,130    0,879     0,090     ch
                 0,000    0,001    0,000      0,000    0,000      -0,001   0,752     0,003     rr
                 0,889    0,062    0,887      0,889    0,888      0,826    0,964     0,953     0
                 0,118    0,026    0,053      0,118    0,073      0,062    0,795     0,049     hs
                 0,704    0,071    0,029      0,704    0,055      0,132    0,940     0,067     hg
                 0,477    0,040    0,675      0,477    0,559      0,507    0,889     0,651     a
                 0,254    0,040    0,089      0,254    0,132      0,129    0,825     0,081     c
                 0,088    0,014    0,039      0,088    0,054      0,049    0,887     0,036     b
                 0,126    0,010    0,534      0,126    0,204      0,232    0,846     0,336     e
                 0,226    0,040    0,078      0,226    0,115      0,111    0,834     0,058     d
                 0,167    0,038    0,028      0,167    0,048      0,053    0,804     0,020     g
                 0,082    0,010    0,052      0,082    0,064      0,057    0,860     0,040     f
                 0,275    0,018    0,398      0,275    0,326      0,307    0,884     0,333     i
                 0,163    0,002    0,267      0,163    0,203      0,205    0,899     0,149     j
                 0,007    0,002    0,067      0,007    0,013      0,017    0,827     0,087     m
                 0,388    0,058    0,106      0,388    0,166      0,176    0,844     0,094     l
                 0,136    0,013    0,471      0,136    0,211      0,223    0,793     0,286     o
                 0,107    0,030    0,120      0,107    0,113      0,081    0,830     0,120     n
                 0,023    0,011    0,010      0,023    0,014      0,008    0,747     0,012     q
                 0,020    0,001    0,250      0,020    0,037      0,068    0,795     0,048     p
                 0,194    0,014    0,421      0,194    0,266      0,261    0,826     0,282     s
                 0,146    0,019    0,162      0,146    0,153      0,133    0,787     0,105     r
                 0,339    0,014    0,379      0,339    0,358      0,344    0,891     0,360     u
                 0,147    0,011    0,213      0,147    0,174      0,164    0,862     0,130     t
                 0,026    0,004    0,057      0,026    0,036      0,033    0,790     0,033     v
                 0,354    0,014    0,121      0,354    0,181      0,200    0,865     0,153     y
                 0,000    0,001    0,000      0,000    0,000      -0,001   0,921     0,009     z
Weighted Avg.    0,471    0,037    0,568      0,471    0,491      0,462    0,888     0,541     


=== Confusion Matrix ===

    a    b    c    d    e    f    g    h    i    j    k    l    m    n    o    p    q    r    s    t    u    v    w    x    y    z   aa   <-- classified as
    5    0    4    1    0    2    8    1    0    0    0    3    0    1    0    1    0    6    0    0    5    1    0    2    0    0    0 |    a = ch
    0    0    0    0    3    2    0    0    0    0    1    0    0    0    0    3    0    1    0    0    0    0    1    0    0    0    0 |    b = rr
    8    0 2876   51   30    8   76    0    2    9    7   22    7    0    2   14    3   13    1    1   28   22    3   22    4   21    4 |    c = 0
    0    0    6   13   20    3    7    1    1    6    3    5    5    0    0   13    1    4    0    0    8    8    2    3    0    1    0 |    d = hs
    0    0    0    0   19    1    0    1    1    1    0    0    0    0    0    1    0    1    0    0    0    0    0    0    2    0    0 |    e = hg
    1    2   42   15   55  653   42   13   30  104   53    4   14    2    0   95   56   19   34    0   11   78   22    7    8    7    1 |    f = a
    1    0   45   14    4    0   35    0    1    2    0    3    1    0    0    4    0    5    4    0    9    0    0    8    0    1    1 |    g = c
    0    0    0    0    8    4    0    5    2    9    8    0    1    0    2   12    1    3    0    0    0    0    2    0    0    0    0 |    h = b
    0    1   24   11  134   48   19   10   94   51   85    4   63    1    1   81   10   35   21    1    5    5   22   10    2    8    0 |    i = e
    0    1    0    1   13   15    0    3    4   30   10    0    0    0    0   21    2   11    0    0    0    4    2    3    2   11    0 |    j = d
    0    1    0    1   14    7    1    4    1    2   10    1    2    0    0    8    0    2    0    0    1    4    1    0    0    0    0 |    k = g
    2    0    4    9    4    1    4    0    1    0    6    5    0    2    0    5    0    5    0    1    6    1    0    4    0    0    1 |    l = f
    2    0    8    8   95    2   17    9   10    4   31    0  106    1    4   29    0   17   17    0    5    1    4    7    0    8    0 |    m = i
    0    0    1    4    5    5    2    1    2    0    6    2    1    8    0    2    0    3    0    0    4    3    0    0    0    0    0 |    n = j
    0    0    4    0   31    8    1    5    0    6   12    0   15    0    1   24    2   17    0    0    0    2    8    0    0    5    0 |    o = m
    0    0    1    1   20    5    3    9    1    4    8    1    6    0    1   62    4   16    1    0    1    3    3    0    5    5    0 |    p = l
    1    0   60   27   68  101   33   29   10   85   21    3   11    0    0   47   97   29    8    1    6    3   39    6    7   19    1 |    q = o
    1    0    0   17   63   28    2   11    4   30   48    1   12    0    1   57    3   36    0    0    2    9    1    5    0    5    0 |    r = n
    1    0   15    2    3    3    5    0    0    0    2    1    3    1    0    1    0    2    1    0    1    0    0    1    0    1    0 |    s = q
    0    0   12    9    4    3   19    0    0    6    3    6    2    6    0    0    0    9    1    2    6    3    0    5    0    5    0 |    t = p
    9    0   84   38   29   15   56    1    0    7   13   21    2    6    1   27    2   29    2    0   90   12    2    7    0    8    2 |    u = s
    0    0    4   11   12   31   13    3    4   14   12    3    4    0    1   34    6   18    0    2    8   33    3    5    3    2    0 |    v = r
    0    0    6    2    7   18   13   18    6    8    8    1    6    0    1    9   16    8    6    0    1    3   74    1    0    6    0 |    w = u
    4    0   41    9    5    1   31    1    0    5    5    8    2    1    0    2    0    8    0    0   12    4    3   26    0    9    0 |    x = t
    0    0    4    1   16    3    1    2    2    3    6    1    1    1    0   20    3    3    1    0    0    5    1    0    2    1    0 |    y = v
    0    0    1    0    1    0    2    2    0    1    0    1    2    0    0   13    0    1    1    0    4    0    2    0    0   17    0 |    z = y
    0    0    2    0    0    0    2    0    0    0    0    0    0    0    0    0    0    0    0    0    1    0    0    0    0    0    0 |   aa = z

=== Percent Confusion Matrix ===
a	b	c	d	e	f	g	h	i	j	k	l	m	n	o	p	q	r	s	t	u	v	w	x	y	z	aa	
12.5	0.0	10.0	2.5	0.0	5.0	20.0	2.5	0.0	0.0	0.0	7.5	0.0	2.5	0.0	2.5	0.0	15.0	0.0	0.0	12.5	2.5	0.0	5.0	0.0	0.0	0.0	 a = ch
0.0	0.0	0.0	0.0	27.27	18.18	0.0	0.0	0.0	0.0	9.09	0.0	0.0	0.0	0.0	27.27	0.0	9.09	0.0	0.0	0.0	0.0	9.09	0.0	0.0	0.0	0.0	 b = rr
0.25	0.0	88.93	1.58	0.93	0.25	2.35	0.0	0.06	0.28	0.22	0.68	0.22	0.0	0.06	0.43	0.09	0.4	0.03	0.03	0.87	0.68	0.09	0.68	0.12	0.65	0.12	 c = 0
0.0	0.0	5.45	11.82	18.18	2.73	6.36	0.91	0.91	5.45	2.73	4.55	4.55	0.0	0.0	11.82	0.91	3.64	0.0	0.0	7.27	7.27	1.82	2.73	0.0	0.91	0.0	 d = hs
0.0	0.0	0.0	0.0	70.37	3.7	0.0	3.7	3.7	3.7	0.0	0.0	0.0	0.0	0.0	3.7	0.0	3.7	0.0	0.0	0.0	0.0	0.0	0.0	7.41	0.0	0.0	 e = hg
0.07	0.15	3.07	1.1	4.02	47.73	3.07	0.95	2.19	7.6	3.87	0.29	1.02	0.15	0.0	6.94	4.09	1.39	2.49	0.0	0.8	5.7	1.61	0.51	0.58	0.51	0.07	 f = a
0.72	0.0	32.61	10.14	2.9	0.0	25.36	0.0	0.72	1.45	0.0	2.17	0.72	0.0	0.0	2.9	0.0	3.62	2.9	0.0	6.52	0.0	0.0	5.8	0.0	0.72	0.72	 g = c
0.0	0.0	0.0	0.0	14.04	7.02	0.0	8.77	3.51	15.79	14.04	0.0	1.75	0.0	3.51	21.05	1.75	5.26	0.0	0.0	0.0	0.0	3.51	0.0	0.0	0.0	0.0	 h = b
0.0	0.13	3.22	1.47	17.96	6.43	2.55	1.34	12.6	6.84	11.39	0.54	8.45	0.13	0.13	10.86	1.34	4.69	2.82	0.13	0.67	0.67	2.95	1.34	0.27	1.07	0.0	 i = e
0.0	0.75	0.0	0.75	9.77	11.28	0.0	2.26	3.01	22.56	7.52	0.0	0.0	0.0	0.0	15.79	1.5	8.27	0.0	0.0	0.0	3.01	1.5	2.26	1.5	8.27	0.0	 j = d
0.0	1.67	0.0	1.67	23.33	11.67	1.67	6.67	1.67	3.33	16.67	1.67	3.33	0.0	0.0	13.33	0.0	3.33	0.0	0.0	1.67	6.67	1.67	0.0	0.0	0.0	0.0	 k = g
3.28	0.0	6.56	14.75	6.56	1.64	6.56	0.0	1.64	0.0	9.84	8.2	0.0	3.28	0.0	8.2	0.0	8.2	0.0	1.64	9.84	1.64	0.0	6.56	0.0	0.0	1.64	 l = f
0.52	0.0	2.08	2.08	24.68	0.52	4.42	2.34	2.6	1.04	8.05	0.0	27.53	0.26	1.04	7.53	0.0	4.42	4.42	0.0	1.3	0.26	1.04	1.82	0.0	2.08	0.0	 m = i
0.0	0.0	2.04	8.16	10.2	10.2	4.08	2.04	4.08	0.0	12.24	4.08	2.04	16.33	0.0	4.08	0.0	6.12	0.0	0.0	8.16	6.12	0.0	0.0	0.0	0.0	0.0	 n = j
0.0	0.0	2.84	0.0	21.99	5.67	0.71	3.55	0.0	4.26	8.51	0.0	10.64	0.0	0.71	17.02	1.42	12.06	0.0	0.0	0.0	1.42	5.67	0.0	0.0	3.55	0.0	 o = m
0.0	0.0	0.63	0.63	12.5	3.13	1.88	5.63	0.63	2.5	5.0	0.63	3.75	0.0	0.63	38.75	2.5	10.0	0.63	0.0	0.63	1.88	1.88	0.0	3.13	3.13	0.0	 p = l
0.14	0.0	8.43	3.79	9.55	14.19	4.63	4.07	1.4	11.94	2.95	0.42	1.54	0.0	0.0	6.6	13.62	4.07	1.12	0.14	0.84	0.42	5.48	0.84	0.98	2.67	0.14	 q = o
0.3	0.0	0.0	5.06	18.75	8.33	0.6	3.27	1.19	8.93	14.29	0.3	3.57	0.0	0.3	16.96	0.89	10.71	0.0	0.0	0.6	2.68	0.3	1.49	0.0	1.49	0.0	 r = n
2.33	0.0	34.88	4.65	6.98	6.98	11.63	0.0	0.0	0.0	4.65	2.33	6.98	2.33	0.0	2.33	0.0	4.65	2.33	0.0	2.33	0.0	0.0	2.33	0.0	2.33	0.0	 s = q
0.0	0.0	11.88	8.91	3.96	2.97	18.81	0.0	0.0	5.94	2.97	5.94	1.98	5.94	0.0	0.0	0.0	8.91	0.99	1.98	5.94	2.97	0.0	4.95	0.0	4.95	0.0	 t = p
1.94	0.0	18.14	8.21	6.26	3.24	12.1	0.22	0.0	1.51	2.81	4.54	0.43	1.3	0.22	5.83	0.43	6.26	0.43	0.0	19.44	2.59	0.43	1.51	0.0	1.73	0.43	 u = s
0.0	0.0	1.77	4.87	5.31	13.72	5.75	1.33	1.77	6.19	5.31	1.33	1.77	0.0	0.44	15.04	2.65	7.96	0.0	0.88	3.54	14.6	1.33	2.21	1.33	0.88	0.0	 v = r
0.0	0.0	2.75	0.92	3.21	8.26	5.96	8.26	2.75	3.67	3.67	0.46	2.75	0.0	0.46	4.13	7.34	3.67	2.75	0.0	0.46	1.38	33.94	0.46	0.0	2.75	0.0	 w = u
2.26	0.0	23.16	5.08	2.82	0.56	17.51	0.56	0.0	2.82	2.82	4.52	1.13	0.56	0.0	1.13	0.0	4.52	0.0	0.0	6.78	2.26	1.69	14.69	0.0	5.08	0.0	 x = t
0.0	0.0	5.19	1.3	20.78	3.9	1.3	2.6	2.6	3.9	7.79	1.3	1.3	1.3	0.0	25.97	3.9	3.9	1.3	0.0	0.0	6.49	1.3	0.0	2.6	1.3	0.0	 y = v
0.0	0.0	2.08	0.0	2.08	0.0	4.17	4.17	0.0	2.08	0.0	2.08	4.17	0.0	0.0	27.08	0.0	2.08	2.08	0.0	8.33	0.0	4.17	0.0	0.0	35.42	0.0	 z = y
0.0	0.0	40.0	0.0	0.0	0.0	40.0	0.0	0.0	0.0	0.0	0.0	0.0	0.0	0.0	0.0	0.0	0.0	0.0	0.0	20.0	0.0	0.0	0.0	0.0	0.0	0.0	 aa = z
