Timestamp:2013-07-22-20:30:16
Inventario:I0
Intervalo:2ms
Ngramas:3
Clasificador:RandomForest
Relation Name:  I0-2ms-3gramas
Num Instances:  91701
Num Attributes: 31

     Name                      Type  Nom  Int Real     Missing      Unique  Dist
   1 0Int(dB)                   Num   0%   9%  91%     0 /  0%     4 /  0%   779 
   2 0Pitch(Hz)                 Num   0%  52%  48%     0 /  0%   471 /  1%  4016 
   3 0RawPitch                  Num   0%  55%  45%     0 /  0%   550 /  1%  4014 
   4 0SmPitch                   Num   0%  53%  47%     0 /  0%   491 /  1%  3998 
   5 0Melogram(st)              Num   0%  49%  51%     0 /  0%   212 /  0%  3363 
   6 0ZCross                    Num   0% 100%   0%     0 /  0%     6 /  0%    54 
   7 0F1(Hz)                    Num   0%  52%  48%     0 /  0%  1126 /  1%  4776 
   8 0F2(Hz)                    Num   0%  52%  48%     0 /  0%  2304 /  3%  6727 
   9 0F3(Hz)                    Num   0%  52%  48%     0 /  0%  1967 /  2%  6224 
  10 0F4(Hz)                    Num   0%  52%  48%     0 /  0%  1884 /  2%  6074 
  11 1Int(dB)                   Num   0%   9%  91%     0 /  0%     5 /  0%   780 
  12 1Pitch(Hz)                 Num   0%  52%  48%     0 /  0%   471 /  1%  4016 
  13 1RawPitch                  Num   0%  55%  45%     0 /  0%   550 /  1%  4014 
  14 1SmPitch                   Num   0%  53%  47%     0 /  0%   491 /  1%  3998 
  15 1Melogram(st)              Num   0%  49%  51%     0 /  0%   212 /  0%  3363 
  16 1ZCross                    Num   0% 100%   0%     0 /  0%     6 /  0%    54 
  17 1F1(Hz)                    Num   0%  52%  48%     0 /  0%  1126 /  1%  4776 
  18 1F2(Hz)                    Num   0%  52%  48%     0 /  0%  2304 /  3%  6727 
  19 1F3(Hz)                    Num   0%  52%  48%     0 /  0%  1967 /  2%  6224 
  20 1F4(Hz)                    Num   0%  52%  48%     0 /  0%  1884 /  2%  6074 
  21 2Int(dB)                   Num   0%   9%  91%     0 /  0%     6 /  0%   781 
  22 2Pitch(Hz)                 Num   0%  52%  48%     0 /  0%   471 /  1%  4016 
  23 2RawPitch                  Num   0%  55%  45%     0 /  0%   550 /  1%  4014 
  24 2SmPitch                   Num   0%  53%  47%     0 /  0%   491 /  1%  3998 
  25 2Melogram(st)              Num   0%  49%  51%     0 /  0%   212 /  0%  3363 
  26 2ZCross                    Num   0% 100%   0%     0 /  0%     6 /  0%    54 
  27 2F1(Hz)                    Num   0%  52%  48%     0 /  0%  1126 /  1%  4776 
  28 2F2(Hz)                    Num   0%  52%  48%     0 /  0%  2304 /  3%  6727 
  29 2F3(Hz)                    Num   0%  52%  48%     0 /  0%  1967 /  2%  6224 
  30 2F4(Hz)                    Num   0%  52%  48%     0 /  0%  1884 /  2%  6074 
  31 class                      Nom 100%   0%   0%     0 /  0%     0 /  0%    27 


Options: -I 10 -K 0 -S 1 -num-slots 4 

Random forest of 10 trees, each constructed while considering 5 random features.
Out of bag error: 0.1612





=== Stratified cross-validation ===

Correctly Classified Instances       80097               87.3458 %
Incorrectly Classified Instances     11604               12.6542 %
Kappa statistic                          0.8416
K&B Relative Info Score            7453022.3614 %
K&B Information Score               245354.3086 bits      2.6756 bits/instance
Class complexity | order 0          301795.5612 bits      3.2911 bits/instance
Class complexity | scheme          5294161.6024 bits     57.7329 bits/instance
Complexity improvement     (Sf)    -4992366.0412 bits    -54.4418 bits/instance
Mean absolute error                      0.0149
Root mean squared error                  0.0853
Relative absolute error                 24.8877 %
Root relative squared error             49.2986 %
Coverage of cases (0.95 level)          94.6238 %
Mean rel. region size (0.95 level)       7.5593 %
Total Number of Instances            91701     


=== Detailed Accuracy By Class ===

                 TP Rate  FP Rate  Precision  Recall   F-Measure  MCC      ROC Area  PRC Area  Class
                 0,333    0,002    0,453      0,333    0,384      0,386    0,794     0,342     ch
                 0,936    0,000    0,962      0,936    0,949      0,949    0,995     0,976     rr
                 0,947    0,074    0,892      0,947    0,919      0,865    0,981     0,963     0
                 0,636    0,002    0,763      0,636    0,693      0,693    0,862     0,648     hs
                 0,915    0,000    0,974      0,915    0,944      0,944    0,988     0,959     hg
                 0,947    0,012    0,928      0,947    0,937      0,927    0,985     0,968     a
                 0,315    0,008    0,386      0,315    0,347      0,340    0,793     0,267     c
                 0,937    0,000    0,956      0,937    0,946      0,946    0,998     0,974     b
                 0,915    0,008    0,907      0,915    0,911      0,904    0,978     0,942     e
                 0,906    0,001    0,930      0,906    0,918      0,917    0,993     0,954     d
                 0,866    0,000    0,948      0,866    0,905      0,905    0,967     0,913     g
                 0,431    0,003    0,487      0,431    0,458      0,455    0,827     0,416     f
                 0,893    0,004    0,905      0,893    0,899      0,895    0,973     0,926     i
                 0,670    0,001    0,791      0,670    0,725      0,727    0,883     0,684     j
                 0,931    0,001    0,951      0,931    0,941      0,940    0,988     0,961     m
                 0,899    0,001    0,934      0,899    0,916      0,915    0,992     0,954     l
                 0,851    0,008    0,896      0,851    0,873      0,864    0,954     0,892     o
                 0,914    0,002    0,929      0,914    0,922      0,919    0,981     0,946     n
                 0,375    0,001    0,602      0,375    0,462      0,473    0,805     0,383     q
                 0,411    0,004    0,541      0,411    0,467      0,467    0,814     0,406     p
                 0,700    0,016    0,683      0,700    0,692      0,676    0,937     0,721     s
                 0,766    0,002    0,877      0,766    0,818      0,816    0,943     0,826     r
                 0,923    0,001    0,964      0,923    0,943      0,942    0,987     0,962     u
                 0,315    0,007    0,445      0,315    0,369      0,365    0,810     0,297     t
                 0,876    0,000    0,957      0,876    0,915      0,915    0,985     0,938     v
                 0,787    0,000    0,898      0,787    0,839      0,840    0,942     0,841     y
                 0,000    0,000    0,000      0,000    0,000      -0,000   0,559     0,002     z
Weighted Avg.    0,873    0,033    0,867      0,873    0,869      0,844    0,964     0,896     


=== Confusion Matrix ===

     a     b     c     d     e     f     g     h     i     j     k     l     m     n     o     p     q     r     s     t     u     v     w     x     y     z    aa   <-- classified as
   143     0    73     1     0     9    18     0     5     0     1     6     2     4     0     0     2     1     6     1   128     6     0    21     1     1     0 |     a = ch
     0   102     2     0     0     1     0     0     4     0     0     0     0     0     0     0     0     0     0     0     0     0     0     0     0     0     0 |     b = rr
    28     0 33944    76     3   179   181     2   143    14     6    46    84    10    11    28   242    46    35    98   381    55     9   195     4     5     6 |     c = 0
     3     0   221   623     0    13    11     0     9     0     0     2     8     0     0     1    18     1     0    10    38     5     1    16     0     0     0 |     d = hs
     0     0     1     0   226     8     0     0     6     0     0     0     3     0     0     0     0     0     0     0     0     0     1     2     0     0     0 |     e = hg
     6     2   278     6     2 12409    47     7    36    15     6     9    17     1     6    22    37    22     4    18    59    31     8    50     4     4     0 |     f = a
    25     0   439     8     0    59   429     0    28     0     0    13    10     9     2     0    28     6    31    29   142     8     7    86     0     1     1 |     g = c
     0     0     3     0     0    15     0   561     4     0     0     1     8     0     1     0     1     1     0     0     0     3     1     0     0     0     0 |     h = b
     3     1   215     7     0    53    33     3  6323    13     3     6    26     6     9    12    33    27     5    21    40    27     9    29     6     0     0 |     i = e
     0     0    22     1     0    27     0     0    26  1190     0     1     3     0     0     0    25    11     0     0     2     2     1     1     0     1     0 |     j = d
     0     0    23     0     0    12     1     0    12     0   471     0     7     0     0     0     4     0     0     1     7     1     1     3     0     0     1 |     k = g
     4     0    80     4     0    10    15     0     7     0     0   251     9    13     0     0    16     5     3    10   133     3     0    14     0     2     3 |     l = f
     1     0   151     4     0    35    13     5    57     3     1     3  3181     1     4     7    12     3     2     9    31     8     2    20     7     1     0 |     m = i
     4     0    35     3     0    12    11     0     9     0     0    11     0   329     0     0     5     1     1     3    58     1     0     6     0     1     1 |     n = j
     2     0    18     1     0     4     2     4     8     0     0     1    18     0  1221     1    15     1     0     1     1     1     4     8     0     0     0 |     o = m
     1     0    36     1     0    51     4     0    27     1     0     0    12     0     3  1450    12     5     0     0     2     4     4     0     0     0     0 |     p = l
     5     1   587     9     0    77    28     2    35    24     2    18    12     9    10    12  5659    23     0    21    55    21     6    26     2     2     0 |     q = o
     2     0    81     4     1    44     6     0    33    10     1     7     6     1     1     3    25  2893     1     6    20     2     3    13     1     0     0 |     r = n
    15     0   110     1     0     6    51     0    15     0     0     0     2     1     0     1     4     1   157     3    38     0     1    13     0     0     0 |     s = q
     3     0   276    15     0    49    42     0    23     0     0    11    10     1     3     1    31     5     2   413    56    13     4    42     2     3     0 |     t = p
    45     0   664    26     0    75    78     0    40     0     2    99    22    23     0     1    56    12     5    57  3098    16     2    84     0    11     7 |     u = s
     3     0   170     9     0   103    12     2    42     4     2     3    19     1     0     4    27    10     0    11    39  1597     0    22     0     3     1 |     v = r
     0     0    32     0     0    18    13     1    15     3     1     1    11     1     6     7     8    10     0     4     5     3  1920    16     0     5     0 |     w = u
    21     0   560    17     0    82   107     0    45     1     1    21    28     5     6     1    42    27     9    44   142     6     3   539     1     0     2 |     x = t
     2     0    13     0     0    15     4     0    15     1     0     0    14     0     1     1    10     2     0     0     3     0     2     4   617     0     0 |     y = v
     0     0    18     1     0     4     4     0     2     1     0     3     4     0     0     1     2     0     0     1    46     6     2     0     0   351     0 |     z = y
     0     0    14     0     0     0     1     0     0     0     0     2     0     1     0     0     0     0     0     2    11     1     0     1     0     0     0 |    aa = z

=== Percent Confusion Matrix ===
a	b	c	d	e	f	g	h	i	j	k	l	m	n	o	p	q	r	s	t	u	v	w	x	y	z	aa	
33.33	0.0	17.02	0.23	0.0	2.1	4.2	0.0	1.17	0.0	0.23	1.4	0.47	0.93	0.0	0.0	0.47	0.23	1.4	0.23	29.84	1.4	0.0	4.9	0.23	0.23	0.0	 a = ch
0.0	93.58	1.83	0.0	0.0	0.92	0.0	0.0	3.67	0.0	0.0	0.0	0.0	0.0	0.0	0.0	0.0	0.0	0.0	0.0	0.0	0.0	0.0	0.0	0.0	0.0	0.0	 b = rr
0.08	0.0	94.73	0.21	0.01	0.5	0.51	0.01	0.4	0.04	0.02	0.13	0.23	0.03	0.03	0.08	0.68	0.13	0.1	0.27	1.06	0.15	0.03	0.54	0.01	0.01	0.02	 c = 0
0.31	0.0	22.55	63.57	0.0	1.33	1.12	0.0	0.92	0.0	0.0	0.2	0.82	0.0	0.0	0.1	1.84	0.1	0.0	1.02	3.88	0.51	0.1	1.63	0.0	0.0	0.0	 d = hs
0.0	0.0	0.4	0.0	91.5	3.24	0.0	0.0	2.43	0.0	0.0	0.0	1.21	0.0	0.0	0.0	0.0	0.0	0.0	0.0	0.0	0.0	0.4	0.81	0.0	0.0	0.0	 e = hg
0.05	0.02	2.12	0.05	0.02	94.68	0.36	0.05	0.27	0.11	0.05	0.07	0.13	0.01	0.05	0.17	0.28	0.17	0.03	0.14	0.45	0.24	0.06	0.38	0.03	0.03	0.0	 f = a
1.84	0.0	32.26	0.59	0.0	4.34	31.52	0.0	2.06	0.0	0.0	0.96	0.73	0.66	0.15	0.0	2.06	0.44	2.28	2.13	10.43	0.59	0.51	6.32	0.0	0.07	0.07	 g = c
0.0	0.0	0.5	0.0	0.0	2.5	0.0	93.66	0.67	0.0	0.0	0.17	1.34	0.0	0.17	0.0	0.17	0.17	0.0	0.0	0.0	0.5	0.17	0.0	0.0	0.0	0.0	 h = b
0.04	0.01	3.11	0.1	0.0	0.77	0.48	0.04	91.51	0.19	0.04	0.09	0.38	0.09	0.13	0.17	0.48	0.39	0.07	0.3	0.58	0.39	0.13	0.42	0.09	0.0	0.0	 i = e
0.0	0.0	1.68	0.08	0.0	2.06	0.0	0.0	1.98	90.63	0.0	0.08	0.23	0.0	0.0	0.0	1.9	0.84	0.0	0.0	0.15	0.15	0.08	0.08	0.0	0.08	0.0	 j = d
0.0	0.0	4.23	0.0	0.0	2.21	0.18	0.0	2.21	0.0	86.58	0.0	1.29	0.0	0.0	0.0	0.74	0.0	0.0	0.18	1.29	0.18	0.18	0.55	0.0	0.0	0.18	 k = g
0.69	0.0	13.75	0.69	0.0	1.72	2.58	0.0	1.2	0.0	0.0	43.13	1.55	2.23	0.0	0.0	2.75	0.86	0.52	1.72	22.85	0.52	0.0	2.41	0.0	0.34	0.52	 l = f
0.03	0.0	4.24	0.11	0.0	0.98	0.37	0.14	1.6	0.08	0.03	0.08	89.33	0.03	0.11	0.2	0.34	0.08	0.06	0.25	0.87	0.22	0.06	0.56	0.2	0.03	0.0	 m = i
0.81	0.0	7.13	0.61	0.0	2.44	2.24	0.0	1.83	0.0	0.0	2.24	0.0	67.01	0.0	0.0	1.02	0.2	0.2	0.61	11.81	0.2	0.0	1.22	0.0	0.2	0.2	 n = j
0.15	0.0	1.37	0.08	0.0	0.31	0.15	0.31	0.61	0.0	0.0	0.08	1.37	0.0	93.14	0.08	1.14	0.08	0.0	0.08	0.08	0.08	0.31	0.61	0.0	0.0	0.0	 o = m
0.06	0.0	2.23	0.06	0.0	3.16	0.25	0.0	1.67	0.06	0.0	0.0	0.74	0.0	0.19	89.89	0.74	0.31	0.0	0.0	0.12	0.25	0.25	0.0	0.0	0.0	0.0	 p = l
0.08	0.02	8.83	0.14	0.0	1.16	0.42	0.03	0.53	0.36	0.03	0.27	0.18	0.14	0.15	0.18	85.15	0.35	0.0	0.32	0.83	0.32	0.09	0.39	0.03	0.03	0.0	 q = o
0.06	0.0	2.56	0.13	0.03	1.39	0.19	0.0	1.04	0.32	0.03	0.22	0.19	0.03	0.03	0.09	0.79	91.43	0.03	0.19	0.63	0.06	0.09	0.41	0.03	0.0	0.0	 r = n
3.58	0.0	26.25	0.24	0.0	1.43	12.17	0.0	3.58	0.0	0.0	0.0	0.48	0.24	0.0	0.24	0.95	0.24	37.47	0.72	9.07	0.0	0.24	3.1	0.0	0.0	0.0	 s = q
0.3	0.0	27.46	1.49	0.0	4.88	4.18	0.0	2.29	0.0	0.0	1.09	1.0	0.1	0.3	0.1	3.08	0.5	0.2	41.09	5.57	1.29	0.4	4.18	0.2	0.3	0.0	 t = p
1.02	0.0	15.01	0.59	0.0	1.7	1.76	0.0	0.9	0.0	0.05	2.24	0.5	0.52	0.0	0.02	1.27	0.27	0.11	1.29	70.04	0.36	0.05	1.9	0.0	0.25	0.16	 u = s
0.14	0.0	8.16	0.43	0.0	4.94	0.58	0.1	2.02	0.19	0.1	0.14	0.91	0.05	0.0	0.19	1.3	0.48	0.0	0.53	1.87	76.63	0.0	1.06	0.0	0.14	0.05	 v = r
0.0	0.0	1.54	0.0	0.0	0.87	0.63	0.05	0.72	0.14	0.05	0.05	0.53	0.05	0.29	0.34	0.38	0.48	0.0	0.19	0.24	0.14	92.31	0.77	0.0	0.24	0.0	 w = u
1.23	0.0	32.75	0.99	0.0	4.8	6.26	0.0	2.63	0.06	0.06	1.23	1.64	0.29	0.35	0.06	2.46	1.58	0.53	2.57	8.3	0.35	0.18	31.52	0.06	0.0	0.12	 x = t
0.28	0.0	1.85	0.0	0.0	2.13	0.57	0.0	2.13	0.14	0.0	0.0	1.99	0.0	0.14	0.14	1.42	0.28	0.0	0.0	0.43	0.0	0.28	0.57	87.64	0.0	0.0	 y = v
0.0	0.0	4.04	0.22	0.0	0.9	0.9	0.0	0.45	0.22	0.0	0.67	0.9	0.0	0.0	0.22	0.45	0.0	0.0	0.22	10.31	1.35	0.45	0.0	0.0	78.7	0.0	 z = y
0.0	0.0	42.42	0.0	0.0	0.0	3.03	0.0	0.0	0.0	0.0	6.06	0.0	3.03	0.0	0.0	0.0	0.0	0.0	6.06	33.33	3.03	0.0	3.03	0.0	0.0	0.0	 aa = z
