Timestamp:2013-08-30-03:55:10
Inventario:I0
Intervalo:20ms
Ngramas:2
Clasificador:BayesNet
Relation Name:  I0-20ms-2gramas
Num Instances:  9128
Num Attributes: 21

     Name                      Type  Nom  Int Real     Missing      Unique  Dist
   1 0Int(dB)                   Num   0%  11%  89%     0 /  0%    14 /  0%   764 
   2 0Pitch(Hz)                 Num   0%  49%  51%     0 /  0%  1033 / 11%  2440 
   3 0RawPitch                  Num   0%  52%  48%     0 /  0%  1062 / 12%  2369 
   4 0SmPitch                   Num   0%  50%  50%     0 /  0%  1056 / 12%  2419 
   5 0Melogram(st)              Num   0%  45%  55%     0 /  0%   937 / 10%  2341 
   6 0ZCross                    Num   0% 100%   0%     0 /  0%     7 /  0%    34 
   7 0F1(Hz)                    Num   0%  49%  51%     0 /  0%  2180 / 24%  3398 
   8 0F2(Hz)                    Num   0%  49%  51%     0 /  0%  3463 / 38%  4259 
   9 0F3(Hz)                    Num   0%  49%  51%     0 /  0%  3209 / 35%  4087 
  10 0F4(Hz)                    Num   0%  49%  51%     0 /  0%  3134 / 34%  4027 
  11 1Int(dB)                   Num   0%  11%  89%     0 /  0%    14 /  0%   764 
  12 1Pitch(Hz)                 Num   0%  49%  51%     0 /  0%  1033 / 11%  2440 
  13 1RawPitch                  Num   0%  52%  48%     0 /  0%  1062 / 12%  2369 
  14 1SmPitch                   Num   0%  50%  50%     0 /  0%  1056 / 12%  2419 
  15 1Melogram(st)              Num   0%  45%  55%     0 /  0%   938 / 10%  2342 
  16 1ZCross                    Num   0% 100%   0%     0 /  0%     7 /  0%    34 
  17 1F1(Hz)                    Num   0%  49%  51%     0 /  0%  2180 / 24%  3398 
  18 1F2(Hz)                    Num   0%  49%  51%     0 /  0%  3463 / 38%  4259 
  19 1F3(Hz)                    Num   0%  49%  51%     0 /  0%  3209 / 35%  4087 
  20 1F4(Hz)                    Num   0%  49%  51%     0 /  0%  3134 / 34%  4027 
  21 class                      Nom 100%   0%   0%     0 /  0%     0 /  0%    27 


Options: -D -Q weka.classifiers.bayes.net.search.local.K2 -- -P 1 -S BAYES -E weka.classifiers.bayes.net.estimate.SimpleEstimator -- -A 0.5 

Bayes Network Classifier
not using ADTree
#attributes=21 #classindex=20
Network structure (nodes followed by parents)
0Int(dB)(7): class 
0Pitch(Hz)(4): class 
0RawPitch(4): class 
0SmPitch(4): class 
0Melogram(st)(7): class 
0ZCross(4): class 
0F1(Hz)(8): class 
0F2(Hz)(6): class 
0F3(Hz)(3): class 
0F4(Hz)(3): class 
1Int(dB)(8): class 
1Pitch(Hz)(4): class 
1RawPitch(4): class 
1SmPitch(4): class 
1Melogram(st)(7): class 
1ZCross(6): class 
1F1(Hz)(8): class 
1F2(Hz)(9): class 
1F3(Hz)(3): class 
1F4(Hz)(3): class 
class(27): 
LogScore Bayes: -176055.48248562284
LogScore BDeu: -187466.38806775465
LogScore MDL: -186020.14031518556
LogScore ENTROPY: -175314.31469451525
LogScore AIC: -177662.31469451523




=== Stratified cross-validation ===

Correctly Classified Instances        4825               52.8593 %
Incorrectly Classified Instances      4303               47.1407 %
Kappa statistic                          0.4309
K&B Relative Info Score             377682.0543 %
K&B Information Score                12868.061  bits      1.4097 bits/instance
Class complexity | order 0           31017.8607 bits      3.3981 bits/instance
Class complexity | scheme            59237.3393 bits      6.4896 bits/instance
Complexity improvement     (Sf)     -28219.4786 bits     -3.0915 bits/instance
Mean absolute error                      0.0362
Root mean squared error                  0.1593
Relative absolute error                 58.8989 %
Root relative squared error             90.8187 %
Coverage of cases (0.95 level)          71.0999 %
Mean rel. region size (0.95 level)      10.9374 %
Total Number of Instances             9128     


=== Detailed Accuracy By Class ===

                 TP Rate  FP Rate  Precision  Recall   F-Measure  MCC      ROC Area  PRC Area  Class
                 0,000    0,001    0,000      0,000    0,000      -0,003   0,891     0,033     ch
                 0,000    0,002    0,000      0,000    0,000      -0,001   0,814     0,003     rr
                 0,918    0,082    0,860      0,918    0,888      0,825    0,972     0,963     0
                 0,100    0,023    0,050      0,100    0,067      0,055    0,785     0,045     hs
                 0,444    0,024    0,052      0,444    0,094      0,146    0,935     0,062     hg
                 0,644    0,066    0,632      0,644    0,638      0,574    0,908     0,710     a
                 0,145    0,019    0,106      0,145    0,122      0,108    0,853     0,090     c
                 0,053    0,002    0,130      0,053    0,075      0,079    0,855     0,041     b
                 0,303    0,032    0,460      0,303    0,365      0,329    0,872     0,412     e
                 0,165    0,022    0,098      0,165    0,123      0,111    0,839     0,074     d
                 0,133    0,019    0,045      0,133    0,068      0,067    0,791     0,025     g
                 0,049    0,004    0,086      0,049    0,063      0,060    0,851     0,038     f
                 0,416    0,028    0,392      0,416    0,404      0,377    0,900     0,398     i
                 0,102    0,002    0,263      0,102    0,147      0,161    0,871     0,130     j
                 0,064    0,006    0,148      0,064    0,089      0,088    0,852     0,093     m
                 0,431    0,067    0,103      0,431    0,166      0,183    0,853     0,093     l
                 0,154    0,013    0,509      0,154    0,237      0,250    0,813     0,339     o
                 0,128    0,024    0,169      0,128    0,146      0,119    0,842     0,137     n
                 0,047    0,005    0,047      0,047    0,047      0,042    0,780     0,021     q
                 0,030    0,002    0,130      0,030    0,048      0,057    0,832     0,055     p
                 0,263    0,020    0,412      0,263    0,321      0,302    0,882     0,346     s
                 0,080    0,008    0,200      0,080    0,114      0,113    0,772     0,096     r
                 0,413    0,014    0,427      0,413    0,420      0,406    0,903     0,424     u
                 0,079    0,012    0,113      0,079    0,093      0,080    0,855     0,097     t
                 0,078    0,013    0,048      0,078    0,059      0,051    0,812     0,037     v
                 0,375    0,012    0,144      0,375    0,208      0,226    0,869     0,139     y
                 0,000    0,000    0,000      0,000    0,000      -0,000   0,923     0,004     z
Weighted Avg.    0,529    0,049    0,552      0,529    0,526      0,488    0,903     0,571     


=== Confusion Matrix ===

    a    b    c    d    e    f    g    h    i    j    k    l    m    n    o    p    q    r    s    t    u    v    w    x    y    z   aa   <-- classified as
    0    0   11    1    0    3    3    0    2    0    0    1    0    1    0    2    0    3    1    0    9    1    0    2    0    0    0 |    a = ch
    0    0    0    0    0    3    0    0    2    0    0    0    0    0    0    4    0    0    0    0    0    0    1    0    0    1    0 |    b = rr
    0    0 2970   38   11   20   18    0    7    6    0    8   25    4    1   14    6    8    1    3   40   16    3   16    4   16    1 |    c = 0
    0    1   14   11   12    7    4    1    2    5    0    1    9    0    3   13    2    5    0    0    9    6    1    4    0    0    0 |    d = hs
    0    0    0    0   12    1    0    0    4    1    0    0    6    0    0    1    2    0    0    0    0    0    0    0    0    0    0 |    e = hg
    2    1   33   16    8  881   24    0   60   42   18    3    7    1    2  105   50   15    6    3   13   19    7   15   24   12    1 |    f = a
    1    0   65    8    2    0   20    0    1    1    0    2    4    0    0    1    1    5    3    1   11    1    2    7    1    1    0 |    g = c
    0    0    0    0    5    8    0    3    6    6    3    0    4    0    2   10    3    3    0    0    0    0    2    0    2    0    0 |    h = b
    1    1   21   13   58   87    9    2  226   16   52    2   52    1    1  103    5   33   11    3    8    0   12    8   16    5    0 |    i = e
    0    1    0    3    4   25    0    0    4   22    8    0    3    0    4   26    2    9    0    0    0    0    3    2    7   10    0 |    j = d
    0    0    1    1    4   16    0    0    9    1    8    1    6    0    0    6    0    5    0    0    1    0    1    0    0    0    0 |    k = g
    0    0   10    8    2    6    6    0    2    0    2    3    0    1    0    5    1    3    0    1    9    0    0    0    1    0    1 |    l = f
    2    0   10    7   22    2   12    2   56    1   17    0  160    0    9   27    0   17    7    1    9    0    3   10    4    7    0 |    m = i
    1    0    3    2    3   10    1    0    5    0    2    2    3    5    0    2    0    2    0    0    4    3    0    1    0    0    0 |    n = j
    0    0    2    1    3   10    1    2    8    7    6    0   32    0    9   27    1   15    0    0    0    1   10    1    0    5    0 |    o = m
    0    1    1    2    3   16    1    0    7    3    3    0   20    0    2   69    2   12    0    0    3    2    2    0    6    5    0 |    p = l
    0    0   64   26   29  140   14    3   35   78    9    1    9    0    7   67  110   20    4    5   12    3   46    4   18    8    0 |    q = o
    0    3    2   21   21   46    0    2   17    8   23    0   26    0   12   68    1   43    0    2    2    2   12    7   12    6    0 |    r = n
    1    0   16    1    0    3    3    0    1    0    2    0    6    0    0    1    0    0    2    0    5    0    0    1    0    1    0 |    s = q
    0    0   23   10    6    6    6    0    3    2    0    2    1    4    1    2    1    6    0    3    8    4    1   11    0    1    0 |    t = p
    5    3  121   29    8   25   29    0    3    4    5    3   22    2    0   30    3   18    2    0  122    7    3    7    1   11    0 |    u = s
    0    3   13   11    1   48    6    2   11    9    3    3    7    0    2   38    4   12    0    0    6   18    2    5   19    3    0 |    v = r
    0    2    2    1    3   21    6    5   12    5    6    1    2    0    4   15   20    9    3    0    3    1   90    3    1    3    0 |    w = u
    0    0   62    5    4    2   26    0    0    1    4    2    3    0    2    1    1    7    2    1   18    3    7   14    3    9    0 |    x = t
    0    0    1    2    8    7    0    0    8    6    5    0    1    0    0   20    1    2    0    0    0    3    1    3    6    3    0 |    y = v
    0    0    3    1    0    0    0    1    0    0    0    0    0    0    0   12    0    3    1    0    3    0    2    3    1   18    0 |    z = y
    0    0    4    0    0    0    0    0    0    0    0    0    0    0    0    0    0    0    0    0    1    0    0    0    0    0    0 |   aa = z

=== Percent Confusion Matrix ===
a	b	c	d	e	f	g	h	i	j	k	l	m	n	o	p	q	r	s	t	u	v	w	x	y	z	aa	
0.0	0.0	27.5	2.5	0.0	7.5	7.5	0.0	5.0	0.0	0.0	2.5	0.0	2.5	0.0	5.0	0.0	7.5	2.5	0.0	22.5	2.5	0.0	5.0	0.0	0.0	0.0	 a = ch
0.0	0.0	0.0	0.0	0.0	27.27	0.0	0.0	18.18	0.0	0.0	0.0	0.0	0.0	0.0	36.36	0.0	0.0	0.0	0.0	0.0	0.0	9.09	0.0	0.0	9.09	0.0	 b = rr
0.0	0.0	91.78	1.17	0.34	0.62	0.56	0.0	0.22	0.19	0.0	0.25	0.77	0.12	0.03	0.43	0.19	0.25	0.03	0.09	1.24	0.49	0.09	0.49	0.12	0.49	0.03	 c = 0
0.0	0.91	12.73	10.0	10.91	6.36	3.64	0.91	1.82	4.55	0.0	0.91	8.18	0.0	2.73	11.82	1.82	4.55	0.0	0.0	8.18	5.45	0.91	3.64	0.0	0.0	0.0	 d = hs
0.0	0.0	0.0	0.0	44.44	3.7	0.0	0.0	14.81	3.7	0.0	0.0	22.22	0.0	0.0	3.7	7.41	0.0	0.0	0.0	0.0	0.0	0.0	0.0	0.0	0.0	0.0	 e = hg
0.15	0.07	2.41	1.17	0.58	64.4	1.75	0.0	4.39	3.07	1.32	0.22	0.51	0.07	0.15	7.68	3.65	1.1	0.44	0.22	0.95	1.39	0.51	1.1	1.75	0.88	0.07	 f = a
0.72	0.0	47.1	5.8	1.45	0.0	14.49	0.0	0.72	0.72	0.0	1.45	2.9	0.0	0.0	0.72	0.72	3.62	2.17	0.72	7.97	0.72	1.45	5.07	0.72	0.72	0.0	 g = c
0.0	0.0	0.0	0.0	8.77	14.04	0.0	5.26	10.53	10.53	5.26	0.0	7.02	0.0	3.51	17.54	5.26	5.26	0.0	0.0	0.0	0.0	3.51	0.0	3.51	0.0	0.0	 h = b
0.13	0.13	2.82	1.74	7.77	11.66	1.21	0.27	30.29	2.14	6.97	0.27	6.97	0.13	0.13	13.81	0.67	4.42	1.47	0.4	1.07	0.0	1.61	1.07	2.14	0.67	0.0	 i = e
0.0	0.75	0.0	2.26	3.01	18.8	0.0	0.0	3.01	16.54	6.02	0.0	2.26	0.0	3.01	19.55	1.5	6.77	0.0	0.0	0.0	0.0	2.26	1.5	5.26	7.52	0.0	 j = d
0.0	0.0	1.67	1.67	6.67	26.67	0.0	0.0	15.0	1.67	13.33	1.67	10.0	0.0	0.0	10.0	0.0	8.33	0.0	0.0	1.67	0.0	1.67	0.0	0.0	0.0	0.0	 k = g
0.0	0.0	16.39	13.11	3.28	9.84	9.84	0.0	3.28	0.0	3.28	4.92	0.0	1.64	0.0	8.2	1.64	4.92	0.0	1.64	14.75	0.0	0.0	0.0	1.64	0.0	1.64	 l = f
0.52	0.0	2.6	1.82	5.71	0.52	3.12	0.52	14.55	0.26	4.42	0.0	41.56	0.0	2.34	7.01	0.0	4.42	1.82	0.26	2.34	0.0	0.78	2.6	1.04	1.82	0.0	 m = i
2.04	0.0	6.12	4.08	6.12	20.41	2.04	0.0	10.2	0.0	4.08	4.08	6.12	10.2	0.0	4.08	0.0	4.08	0.0	0.0	8.16	6.12	0.0	2.04	0.0	0.0	0.0	 n = j
0.0	0.0	1.42	0.71	2.13	7.09	0.71	1.42	5.67	4.96	4.26	0.0	22.7	0.0	6.38	19.15	0.71	10.64	0.0	0.0	0.0	0.71	7.09	0.71	0.0	3.55	0.0	 o = m
0.0	0.63	0.63	1.25	1.88	10.0	0.63	0.0	4.38	1.88	1.88	0.0	12.5	0.0	1.25	43.13	1.25	7.5	0.0	0.0	1.88	1.25	1.25	0.0	3.75	3.13	0.0	 p = l
0.0	0.0	8.99	3.65	4.07	19.66	1.97	0.42	4.92	10.96	1.26	0.14	1.26	0.0	0.98	9.41	15.45	2.81	0.56	0.7	1.69	0.42	6.46	0.56	2.53	1.12	0.0	 q = o
0.0	0.89	0.6	6.25	6.25	13.69	0.0	0.6	5.06	2.38	6.85	0.0	7.74	0.0	3.57	20.24	0.3	12.8	0.0	0.6	0.6	0.6	3.57	2.08	3.57	1.79	0.0	 r = n
2.33	0.0	37.21	2.33	0.0	6.98	6.98	0.0	2.33	0.0	4.65	0.0	13.95	0.0	0.0	2.33	0.0	0.0	4.65	0.0	11.63	0.0	0.0	2.33	0.0	2.33	0.0	 s = q
0.0	0.0	22.77	9.9	5.94	5.94	5.94	0.0	2.97	1.98	0.0	1.98	0.99	3.96	0.99	1.98	0.99	5.94	0.0	2.97	7.92	3.96	0.99	10.89	0.0	0.99	0.0	 t = p
1.08	0.65	26.13	6.26	1.73	5.4	6.26	0.0	0.65	0.86	1.08	0.65	4.75	0.43	0.0	6.48	0.65	3.89	0.43	0.0	26.35	1.51	0.65	1.51	0.22	2.38	0.0	 u = s
0.0	1.33	5.75	4.87	0.44	21.24	2.65	0.88	4.87	3.98	1.33	1.33	3.1	0.0	0.88	16.81	1.77	5.31	0.0	0.0	2.65	7.96	0.88	2.21	8.41	1.33	0.0	 v = r
0.0	0.92	0.92	0.46	1.38	9.63	2.75	2.29	5.5	2.29	2.75	0.46	0.92	0.0	1.83	6.88	9.17	4.13	1.38	0.0	1.38	0.46	41.28	1.38	0.46	1.38	0.0	 w = u
0.0	0.0	35.03	2.82	2.26	1.13	14.69	0.0	0.0	0.56	2.26	1.13	1.69	0.0	1.13	0.56	0.56	3.95	1.13	0.56	10.17	1.69	3.95	7.91	1.69	5.08	0.0	 x = t
0.0	0.0	1.3	2.6	10.39	9.09	0.0	0.0	10.39	7.79	6.49	0.0	1.3	0.0	0.0	25.97	1.3	2.6	0.0	0.0	0.0	3.9	1.3	3.9	7.79	3.9	0.0	 y = v
0.0	0.0	6.25	2.08	0.0	0.0	0.0	2.08	0.0	0.0	0.0	0.0	0.0	0.0	0.0	25.0	0.0	6.25	2.08	0.0	6.25	0.0	4.17	6.25	2.08	37.5	0.0	 z = y
0.0	0.0	80.0	0.0	0.0	0.0	0.0	0.0	0.0	0.0	0.0	0.0	0.0	0.0	0.0	0.0	0.0	0.0	0.0	0.0	20.0	0.0	0.0	0.0	0.0	0.0	0.0	 aa = z
