Timestamp:2013-07-22-20:47:24
Inventario:I0
Intervalo:20ms
Ngramas:4
Clasificador:RandomForest
Relation Name:  I0-20ms-4gramas
Num Instances:  9126
Num Attributes: 41

     Name                      Type  Nom  Int Real     Missing      Unique  Dist
   1 0Int(dB)                   Num   0%  11%  89%     0 /  0%    14 /  0%   764 
   2 0Pitch(Hz)                 Num   0%  49%  51%     0 /  0%  1033 / 11%  2440 
   3 0RawPitch                  Num   0%  52%  48%     0 /  0%  1062 / 12%  2369 
   4 0SmPitch                   Num   0%  50%  50%     0 /  0%  1056 / 12%  2419 
   5 0Melogram(st)              Num   0%  45%  55%     0 /  0%   937 / 10%  2341 
   6 0ZCross                    Num   0% 100%   0%     0 /  0%     7 /  0%    34 
   7 0F1(Hz)                    Num   0%  49%  51%     0 /  0%  2180 / 24%  3398 
   8 0F2(Hz)                    Num   0%  49%  51%     0 /  0%  3463 / 38%  4259 
   9 0F3(Hz)                    Num   0%  49%  51%     0 /  0%  3209 / 35%  4087 
  10 0F4(Hz)                    Num   0%  49%  51%     0 /  0%  3134 / 34%  4027 
  11 1Int(dB)                   Num   0%  11%  89%     0 /  0%    14 /  0%   764 
  12 1Pitch(Hz)                 Num   0%  49%  51%     0 /  0%  1033 / 11%  2440 
  13 1RawPitch                  Num   0%  52%  48%     0 /  0%  1062 / 12%  2369 
  14 1SmPitch                   Num   0%  50%  50%     0 /  0%  1056 / 12%  2419 
  15 1Melogram(st)              Num   0%  45%  55%     0 /  0%   937 / 10%  2341 
  16 1ZCross                    Num   0% 100%   0%     0 /  0%     7 /  0%    34 
  17 1F1(Hz)                    Num   0%  49%  51%     0 /  0%  2180 / 24%  3398 
  18 1F2(Hz)                    Num   0%  49%  51%     0 /  0%  3463 / 38%  4259 
  19 1F3(Hz)                    Num   0%  49%  51%     0 /  0%  3209 / 35%  4087 
  20 1F4(Hz)                    Num   0%  49%  51%     0 /  0%  3134 / 34%  4027 
  21 2Int(dB)                   Num   0%  11%  89%     0 /  0%    14 /  0%   764 
  22 2Pitch(Hz)                 Num   0%  49%  51%     0 /  0%  1033 / 11%  2440 
  23 2RawPitch                  Num   0%  52%  48%     0 /  0%  1062 / 12%  2369 
  24 2SmPitch                   Num   0%  50%  50%     0 /  0%  1056 / 12%  2419 
  25 2Melogram(st)              Num   0%  45%  55%     0 /  0%   937 / 10%  2341 
  26 2ZCross                    Num   0% 100%   0%     0 /  0%     7 /  0%    34 
  27 2F1(Hz)                    Num   0%  49%  51%     0 /  0%  2180 / 24%  3398 
  28 2F2(Hz)                    Num   0%  49%  51%     0 /  0%  3463 / 38%  4259 
  29 2F3(Hz)                    Num   0%  49%  51%     0 /  0%  3209 / 35%  4087 
  30 2F4(Hz)                    Num   0%  49%  51%     0 /  0%  3134 / 34%  4027 
  31 3Int(dB)                   Num   0%  11%  89%     0 /  0%    14 /  0%   764 
  32 3Pitch(Hz)                 Num   0%  49%  51%     0 /  0%  1033 / 11%  2440 
  33 3RawPitch                  Num   0%  52%  48%     0 /  0%  1062 / 12%  2369 
  34 3SmPitch                   Num   0%  50%  50%     0 /  0%  1056 / 12%  2419 
  35 3Melogram(st)              Num   0%  45%  55%     0 /  0%   938 / 10%  2342 
  36 3ZCross                    Num   0% 100%   0%     0 /  0%     7 /  0%    34 
  37 3F1(Hz)                    Num   0%  49%  51%     0 /  0%  2180 / 24%  3398 
  38 3F2(Hz)                    Num   0%  49%  51%     0 /  0%  3463 / 38%  4259 
  39 3F3(Hz)                    Num   0%  49%  51%     0 /  0%  3209 / 35%  4087 
  40 3F4(Hz)                    Num   0%  49%  51%     0 /  0%  3134 / 34%  4027 
  41 class                      Nom 100%   0%   0%     0 /  0%     0 /  0%    27 


Options: -I 10 -K 0 -S 1 -num-slots 4 

Random forest of 10 trees, each constructed while considering 6 random features.
Out of bag error: 0.3898





=== Stratified cross-validation ===

Correctly Classified Instances        6106               66.9077 %
Incorrectly Classified Instances      3020               33.0923 %
Kappa statistic                          0.5928
K&B Relative Info Score             513616.1375 %
K&B Information Score                17499.2021 bits      1.9175 bits/instance
Class complexity | order 0           31014.8678 bits      3.3985 bits/instance
Class complexity | scheme          1057680.9984 bits    115.8975 bits/instance
Complexity improvement     (Sf)    -1026666.1306 bits   -112.499  bits/instance
Mean absolute error                      0.0328
Root mean squared error                  0.1288
Relative absolute error                 53.2819 %
Root relative squared error             73.4625 %
Coverage of cases (0.95 level)          89.2943 %
Mean rel. region size (0.95 level)      13.4841 %
Total Number of Instances             9126     


=== Detailed Accuracy By Class ===

                 TP Rate  FP Rate  Precision  Recall   F-Measure  MCC      ROC Area  PRC Area  Class
                 0,075    0,003    0,107      0,075    0,088      0,086    0,799     0,082     ch
                 0,091    0,000    0,333      0,091    0,143      0,174    0,632     0,037     rr
                 0,940    0,081    0,864      0,940    0,901      0,845    0,978     0,957     0
                 0,236    0,006    0,342      0,236    0,280      0,277    0,741     0,143     hs
                 0,185    0,001    0,357      0,185    0,244      0,256    0,804     0,096     hg
                 0,835    0,074    0,667      0,835    0,741      0,696    0,946     0,835     a
                 0,159    0,007    0,247      0,159    0,194      0,189    0,764     0,100     c
                 0,140    0,003    0,250      0,140    0,180      0,184    0,796     0,144     b
                 0,658    0,061    0,490      0,658    0,561      0,523    0,908     0,567     e
                 0,180    0,006    0,293      0,180    0,223      0,221    0,806     0,138     d
                 0,283    0,001    0,586      0,283    0,382      0,405    0,876     0,330     g
                 0,115    0,003    0,200      0,115    0,146      0,147    0,715     0,051     f
                 0,571    0,021    0,549      0,571    0,560      0,540    0,915     0,554     i
                 0,306    0,001    0,750      0,306    0,435      0,478    0,921     0,449     j
                 0,312    0,004    0,564      0,312    0,402      0,413    0,860     0,344     m
                 0,231    0,006    0,398      0,231    0,292      0,294    0,804     0,188     l
                 0,567    0,038    0,556      0,567    0,562      0,524    0,894     0,566     o
                 0,420    0,017    0,488      0,420    0,451      0,433    0,888     0,376     n
                 0,047    0,001    0,200      0,047    0,075      0,094    0,671     0,089     q
                 0,099    0,004    0,238      0,099    0,140      0,148    0,712     0,093     p
                 0,559    0,026    0,536      0,559    0,548      0,523    0,914     0,557     s
                 0,155    0,006    0,398      0,155    0,223      0,237    0,776     0,158     r
                 0,450    0,004    0,710      0,450    0,551      0,557    0,906     0,561     u
                 0,175    0,007    0,320      0,175    0,226      0,226    0,802     0,143     t
                 0,117    0,001    0,529      0,117    0,191      0,246    0,774     0,141     v
                 0,292    0,001    0,700      0,292    0,412      0,450    0,813     0,331     y
                 0,000    0,000    0,000      0,000    0,000      -0,000   0,698     0,033     z
Weighted Avg.    0,669    0,051    0,643      0,669    0,646      0,612    0,915     0,665     


=== Confusion Matrix ===

    a    b    c    d    e    f    g    h    i    j    k    l    m    n    o    p    q    r    s    t    u    v    w    x    y    z   aa   <-- classified as
    3    0    6    0    0    6    5    0    1    0    0    0    2    0    0    0    0    1    0    1   12    0    0    3    0    0    0 |    a = ch
    0    1    2    0    0    3    0    0    3    0    0    0    0    0    0    0    1    0    0    0    0    0    0    0    1    0    0 |    b = rr
    3    0 3041    3    0   31    6    0   14    1    0    3   12    1    0    4   26    6    0    9   49    4    3   17    1    0    0 |    c = 0
    3    0   20   26    0   16    2    0   10    1    0    1    6    0    2    0    4    4    0    0   10    1    1    3    0    0    0 |    d = hs
    0    0    1    1    5    2    0    0    9    0    0    0    1    0    1    1    2    1    0    0    2    0    1    0    0    0    0 |    e = hg
    0    0   43    5    0 1142    2    1   65    4    1    2    8    0    0    4   50   13    0    2    9   10    2    4    1    0    0 |    f = a
    5    0   43    2    0   13   22    0    5    1    0    0    2    1    0    0    7    1    4    1   16    0    1   13    1    0    0 |    g = c
    0    0    1    1    0    7    0    8    9    3    0    0    4    0    3    2   12    4    0    0    0    2    1    0    0    0    0 |    h = b
    0    0   20    6    2   81    3    2  491    7    3    4   36    0    6    7   29   17    1    3   13    7    3    3    1    1    0 |    i = e
    1    0    1    3    0   29    1    1   24   24    1    0    3    0    1    1   26   12    0    1    2    1    0    0    0    1    0 |    j = d
    0    0    2    1    0   15    0    0   13    3   17    0    3    0    0    0    3    1    0    0    1    1    0    0    0    0    0 |    k = g
    2    0   13    2    0    7    0    0    3    0    0    7    0    0    0    0    1    2    0    1   20    0    0    3    0    0    0 |    l = f
    2    0   17    2    1   10    3    2   81    3    3    0  220    1    2    5    5    8    0    1   13    0    1    3    1    1    0 |    m = i
    1    0    2    1    0   10    0    0    9    0    0    2    0   15    0    0    0    0    0    0    8    1    0    0    0    0    0 |    n = j
    0    0    2    1    1    7    0    5   16    2    1    0   21    0   44    3   12   15    0    0    0    3    7    1    0    0    0 |    o = m
    0    0    4    1    0   27    0    1   39    1    0    0   16    0    1   37   12   13    0    1    3    4    0    0    0    0    0 |    p = l
    0    0   68    2    1  105    2    3   52   13    0    0   12    0    6    8  404    9    0    0    9    4   11    1    1    0    1 |    q = o
    0    0   17    4    2   35    2    1   58    9    0    0   11    0    9    7   22  141    0    0    7    3    7    0    1    0    0 |    r = n
    2    0   13    0    0    5    5    0    3    0    0    0    3    0    0    0    2    0    2    0    6    0    0    2    0    0    0 |    s = q
    0    1   28    3    0   11    7    1    6    1    0    6    6    0    1    0    6    1    0   10    7    1    0    4    0    1    0 |    t = p
    5    1   79    6    1   26    7    0   14    1    1    4   12    2    0    5   16    9    1    5  259    3    0    5    0    1    0 |    u = s
    0    0   21    1    0   69    2    4   30    5    2    2   11    0    1    3   23    9    0    1    5   35    0    1    0    0    1 |    v = r
    0    0    4    1    0   20    4    3   19    3    0    0    5    0    0    2   43   11    0    1    4    0   98    0    0    0    0 |    w = u
    1    0   60    2    1   16   14    0    3    0    0    3    2    0    1    1   10    4    2    3   20    3    0   31    0    0    0 |    x = t
    0    0    3    2    0   15    1    0   18    0    0    1    5    0    0    1   10    5    0    1    1    3    0    1    9    1    0 |    y = v
    0    0    4    0    0    5    0    0    8    0    0    0    0    0    0    2    0    2    0    1    7    1    2    2    0   14    0 |    z = y
    0    0    3    0    0    0    1    0    0    0    0    0    0    0    0    0    0    0    0    0    0    1    0    0    0    0    0 |   aa = z

=== Percent Confusion Matrix ===
a	b	c	d	e	f	g	h	i	j	k	l	m	n	o	p	q	r	s	t	u	v	w	x	y	z	aa	
7.5	0.0	15.0	0.0	0.0	15.0	12.5	0.0	2.5	0.0	0.0	0.0	5.0	0.0	0.0	0.0	0.0	2.5	0.0	2.5	30.0	0.0	0.0	7.5	0.0	0.0	0.0	 a = ch
0.0	9.09	18.18	0.0	0.0	27.27	0.0	0.0	27.27	0.0	0.0	0.0	0.0	0.0	0.0	0.0	9.09	0.0	0.0	0.0	0.0	0.0	0.0	0.0	9.09	0.0	0.0	 b = rr
0.09	0.0	94.03	0.09	0.0	0.96	0.19	0.0	0.43	0.03	0.0	0.09	0.37	0.03	0.0	0.12	0.8	0.19	0.0	0.28	1.52	0.12	0.09	0.53	0.03	0.0	0.0	 c = 0
2.73	0.0	18.18	23.64	0.0	14.55	1.82	0.0	9.09	0.91	0.0	0.91	5.45	0.0	1.82	0.0	3.64	3.64	0.0	0.0	9.09	0.91	0.91	2.73	0.0	0.0	0.0	 d = hs
0.0	0.0	3.7	3.7	18.52	7.41	0.0	0.0	33.33	0.0	0.0	0.0	3.7	0.0	3.7	3.7	7.41	3.7	0.0	0.0	7.41	0.0	3.7	0.0	0.0	0.0	0.0	 e = hg
0.0	0.0	3.14	0.37	0.0	83.48	0.15	0.07	4.75	0.29	0.07	0.15	0.58	0.0	0.0	0.29	3.65	0.95	0.0	0.15	0.66	0.73	0.15	0.29	0.07	0.0	0.0	 f = a
3.62	0.0	31.16	1.45	0.0	9.42	15.94	0.0	3.62	0.72	0.0	0.0	1.45	0.72	0.0	0.0	5.07	0.72	2.9	0.72	11.59	0.0	0.72	9.42	0.72	0.0	0.0	 g = c
0.0	0.0	1.75	1.75	0.0	12.28	0.0	14.04	15.79	5.26	0.0	0.0	7.02	0.0	5.26	3.51	21.05	7.02	0.0	0.0	0.0	3.51	1.75	0.0	0.0	0.0	0.0	 h = b
0.0	0.0	2.68	0.8	0.27	10.86	0.4	0.27	65.82	0.94	0.4	0.54	4.83	0.0	0.8	0.94	3.89	2.28	0.13	0.4	1.74	0.94	0.4	0.4	0.13	0.13	0.0	 i = e
0.75	0.0	0.75	2.26	0.0	21.8	0.75	0.75	18.05	18.05	0.75	0.0	2.26	0.0	0.75	0.75	19.55	9.02	0.0	0.75	1.5	0.75	0.0	0.0	0.0	0.75	0.0	 j = d
0.0	0.0	3.33	1.67	0.0	25.0	0.0	0.0	21.67	5.0	28.33	0.0	5.0	0.0	0.0	0.0	5.0	1.67	0.0	0.0	1.67	1.67	0.0	0.0	0.0	0.0	0.0	 k = g
3.28	0.0	21.31	3.28	0.0	11.48	0.0	0.0	4.92	0.0	0.0	11.48	0.0	0.0	0.0	0.0	1.64	3.28	0.0	1.64	32.79	0.0	0.0	4.92	0.0	0.0	0.0	 l = f
0.52	0.0	4.42	0.52	0.26	2.6	0.78	0.52	21.04	0.78	0.78	0.0	57.14	0.26	0.52	1.3	1.3	2.08	0.0	0.26	3.38	0.0	0.26	0.78	0.26	0.26	0.0	 m = i
2.04	0.0	4.08	2.04	0.0	20.41	0.0	0.0	18.37	0.0	0.0	4.08	0.0	30.61	0.0	0.0	0.0	0.0	0.0	0.0	16.33	2.04	0.0	0.0	0.0	0.0	0.0	 n = j
0.0	0.0	1.42	0.71	0.71	4.96	0.0	3.55	11.35	1.42	0.71	0.0	14.89	0.0	31.21	2.13	8.51	10.64	0.0	0.0	0.0	2.13	4.96	0.71	0.0	0.0	0.0	 o = m
0.0	0.0	2.5	0.63	0.0	16.88	0.0	0.63	24.38	0.63	0.0	0.0	10.0	0.0	0.63	23.13	7.5	8.13	0.0	0.63	1.88	2.5	0.0	0.0	0.0	0.0	0.0	 p = l
0.0	0.0	9.55	0.28	0.14	14.75	0.28	0.42	7.3	1.83	0.0	0.0	1.69	0.0	0.84	1.12	56.74	1.26	0.0	0.0	1.26	0.56	1.54	0.14	0.14	0.0	0.14	 q = o
0.0	0.0	5.06	1.19	0.6	10.42	0.6	0.3	17.26	2.68	0.0	0.0	3.27	0.0	2.68	2.08	6.55	41.96	0.0	0.0	2.08	0.89	2.08	0.0	0.3	0.0	0.0	 r = n
4.65	0.0	30.23	0.0	0.0	11.63	11.63	0.0	6.98	0.0	0.0	0.0	6.98	0.0	0.0	0.0	4.65	0.0	4.65	0.0	13.95	0.0	0.0	4.65	0.0	0.0	0.0	 s = q
0.0	0.99	27.72	2.97	0.0	10.89	6.93	0.99	5.94	0.99	0.0	5.94	5.94	0.0	0.99	0.0	5.94	0.99	0.0	9.9	6.93	0.99	0.0	3.96	0.0	0.99	0.0	 t = p
1.08	0.22	17.06	1.3	0.22	5.62	1.51	0.0	3.02	0.22	0.22	0.86	2.59	0.43	0.0	1.08	3.46	1.94	0.22	1.08	55.94	0.65	0.0	1.08	0.0	0.22	0.0	 u = s
0.0	0.0	9.29	0.44	0.0	30.53	0.88	1.77	13.27	2.21	0.88	0.88	4.87	0.0	0.44	1.33	10.18	3.98	0.0	0.44	2.21	15.49	0.0	0.44	0.0	0.0	0.44	 v = r
0.0	0.0	1.83	0.46	0.0	9.17	1.83	1.38	8.72	1.38	0.0	0.0	2.29	0.0	0.0	0.92	19.72	5.05	0.0	0.46	1.83	0.0	44.95	0.0	0.0	0.0	0.0	 w = u
0.56	0.0	33.9	1.13	0.56	9.04	7.91	0.0	1.69	0.0	0.0	1.69	1.13	0.0	0.56	0.56	5.65	2.26	1.13	1.69	11.3	1.69	0.0	17.51	0.0	0.0	0.0	 x = t
0.0	0.0	3.9	2.6	0.0	19.48	1.3	0.0	23.38	0.0	0.0	1.3	6.49	0.0	0.0	1.3	12.99	6.49	0.0	1.3	1.3	3.9	0.0	1.3	11.69	1.3	0.0	 y = v
0.0	0.0	8.33	0.0	0.0	10.42	0.0	0.0	16.67	0.0	0.0	0.0	0.0	0.0	0.0	4.17	0.0	4.17	0.0	2.08	14.58	2.08	4.17	4.17	0.0	29.17	0.0	 z = y
0.0	0.0	60.0	0.0	0.0	0.0	20.0	0.0	0.0	0.0	0.0	0.0	0.0	0.0	0.0	0.0	0.0	0.0	0.0	0.0	0.0	20.0	0.0	0.0	0.0	0.0	0.0	 aa = z
