Timestamp:2013-07-22-20:47:41
Inventario:I0
Intervalo:20ms
Ngramas:5
Clasificador:RandomForest
Relation Name:  I0-20ms-5gramas
Num Instances:  9125
Num Attributes: 51

     Name                      Type  Nom  Int Real     Missing      Unique  Dist
   1 0Int(dB)                   Num   0%  11%  89%     0 /  0%    14 /  0%   764 
   2 0Pitch(Hz)                 Num   0%  49%  51%     0 /  0%  1033 / 11%  2440 
   3 0RawPitch                  Num   0%  52%  48%     0 /  0%  1062 / 12%  2369 
   4 0SmPitch                   Num   0%  50%  50%     0 /  0%  1056 / 12%  2419 
   5 0Melogram(st)              Num   0%  45%  55%     0 /  0%   937 / 10%  2341 
   6 0ZCross                    Num   0% 100%   0%     0 /  0%     7 /  0%    34 
   7 0F1(Hz)                    Num   0%  49%  51%     0 /  0%  2180 / 24%  3398 
   8 0F2(Hz)                    Num   0%  49%  51%     0 /  0%  3463 / 38%  4259 
   9 0F3(Hz)                    Num   0%  49%  51%     0 /  0%  3209 / 35%  4087 
  10 0F4(Hz)                    Num   0%  49%  51%     0 /  0%  3134 / 34%  4027 
  11 1Int(dB)                   Num   0%  11%  89%     0 /  0%    14 /  0%   764 
  12 1Pitch(Hz)                 Num   0%  49%  51%     0 /  0%  1033 / 11%  2440 
  13 1RawPitch                  Num   0%  52%  48%     0 /  0%  1062 / 12%  2369 
  14 1SmPitch                   Num   0%  50%  50%     0 /  0%  1056 / 12%  2419 
  15 1Melogram(st)              Num   0%  45%  55%     0 /  0%   937 / 10%  2341 
  16 1ZCross                    Num   0% 100%   0%     0 /  0%     7 /  0%    34 
  17 1F1(Hz)                    Num   0%  49%  51%     0 /  0%  2180 / 24%  3398 
  18 1F2(Hz)                    Num   0%  49%  51%     0 /  0%  3463 / 38%  4259 
  19 1F3(Hz)                    Num   0%  49%  51%     0 /  0%  3209 / 35%  4087 
  20 1F4(Hz)                    Num   0%  49%  51%     0 /  0%  3134 / 34%  4027 
  21 2Int(dB)                   Num   0%  11%  89%     0 /  0%    14 /  0%   764 
  22 2Pitch(Hz)                 Num   0%  49%  51%     0 /  0%  1033 / 11%  2440 
  23 2RawPitch                  Num   0%  52%  48%     0 /  0%  1062 / 12%  2369 
  24 2SmPitch                   Num   0%  50%  50%     0 /  0%  1056 / 12%  2419 
  25 2Melogram(st)              Num   0%  45%  55%     0 /  0%   937 / 10%  2341 
  26 2ZCross                    Num   0% 100%   0%     0 /  0%     7 /  0%    34 
  27 2F1(Hz)                    Num   0%  49%  51%     0 /  0%  2180 / 24%  3398 
  28 2F2(Hz)                    Num   0%  49%  51%     0 /  0%  3463 / 38%  4259 
  29 2F3(Hz)                    Num   0%  49%  51%     0 /  0%  3209 / 35%  4087 
  30 2F4(Hz)                    Num   0%  49%  51%     0 /  0%  3134 / 34%  4027 
  31 3Int(dB)                   Num   0%  11%  89%     0 /  0%    14 /  0%   764 
  32 3Pitch(Hz)                 Num   0%  49%  51%     0 /  0%  1033 / 11%  2440 
  33 3RawPitch                  Num   0%  52%  48%     0 /  0%  1062 / 12%  2369 
  34 3SmPitch                   Num   0%  50%  50%     0 /  0%  1056 / 12%  2419 
  35 3Melogram(st)              Num   0%  45%  55%     0 /  0%   937 / 10%  2341 
  36 3ZCross                    Num   0% 100%   0%     0 /  0%     7 /  0%    34 
  37 3F1(Hz)                    Num   0%  49%  51%     0 /  0%  2180 / 24%  3398 
  38 3F2(Hz)                    Num   0%  49%  51%     0 /  0%  3463 / 38%  4259 
  39 3F3(Hz)                    Num   0%  49%  51%     0 /  0%  3209 / 35%  4087 
  40 3F4(Hz)                    Num   0%  49%  51%     0 /  0%  3134 / 34%  4027 
  41 4Int(dB)                   Num   0%  11%  89%     0 /  0%    14 /  0%   764 
  42 4Pitch(Hz)                 Num   0%  49%  51%     0 /  0%  1033 / 11%  2440 
  43 4RawPitch                  Num   0%  52%  48%     0 /  0%  1062 / 12%  2369 
  44 4SmPitch                   Num   0%  50%  50%     0 /  0%  1056 / 12%  2419 
  45 4Melogram(st)              Num   0%  45%  55%     0 /  0%   938 / 10%  2342 
  46 4ZCross                    Num   0% 100%   0%     0 /  0%     7 /  0%    34 
  47 4F1(Hz)                    Num   0%  49%  51%     0 /  0%  2180 / 24%  3398 
  48 4F2(Hz)                    Num   0%  49%  51%     0 /  0%  3463 / 38%  4259 
  49 4F3(Hz)                    Num   0%  49%  51%     0 /  0%  3209 / 35%  4087 
  50 4F4(Hz)                    Num   0%  49%  51%     0 /  0%  3134 / 34%  4027 
  51 class                      Nom 100%   0%   0%     0 /  0%     0 /  0%    27 


Options: -I 10 -K 0 -S 1 -num-slots 4 

Random forest of 10 trees, each constructed while considering 6 random features.
Out of bag error: 0.3928





=== Stratified cross-validation ===

Correctly Classified Instances        6106               66.9151 %
Incorrectly Classified Instances      3019               33.0849 %
Kappa statistic                          0.5915
K&B Relative Info Score             514319.4653 %
K&B Information Score                17527.2109 bits      1.9208 bits/instance
Class complexity | order 0           31013.3708 bits      3.3987 bits/instance
Class complexity | scheme          1022421.5045 bits    112.0462 bits/instance
Complexity improvement     (Sf)    -991408.1337 bits   -108.6475 bits/instance
Mean absolute error                      0.0331
Root mean squared error                  0.1289
Relative absolute error                 53.7178 %
Root relative squared error             73.4744 %
Coverage of cases (0.95 level)          89.6548 %
Mean rel. region size (0.95 level)      13.7753 %
Total Number of Instances             9125     


=== Detailed Accuracy By Class ===

                 TP Rate  FP Rate  Precision  Recall   F-Measure  MCC      ROC Area  PRC Area  Class
                 0,150    0,002    0,214      0,150    0,176      0,176    0,737     0,083     ch
                 0,000    0,000    0,000      0,000    0,000      -0,001   0,767     0,032     rr
                 0,946    0,086    0,858      0,946    0,900      0,843    0,978     0,959     0
                 0,182    0,005    0,313      0,182    0,230      0,231    0,807     0,193     hs
                 0,148    0,001    0,364      0,148    0,211      0,231    0,805     0,143     hg
                 0,846    0,083    0,643      0,846    0,731      0,685    0,941     0,828     a
                 0,138    0,008    0,209      0,138    0,166      0,159    0,799     0,104     c
                 0,228    0,002    0,371      0,228    0,283      0,288    0,816     0,155     b
                 0,676    0,058    0,508      0,676    0,580      0,543    0,914     0,572     e
                 0,195    0,007    0,295      0,195    0,235      0,231    0,814     0,150     d
                 0,100    0,001    0,462      0,100    0,164      0,213    0,798     0,190     g
                 0,049    0,002    0,158      0,049    0,075      0,085    0,764     0,069     f
                 0,558    0,021    0,540      0,558    0,549      0,529    0,914     0,513     i
                 0,245    0,000    0,750      0,245    0,369      0,427    0,806     0,309     j
                 0,362    0,004    0,580      0,362    0,445      0,451    0,885     0,377     m
                 0,188    0,005    0,411      0,188    0,258      0,269    0,808     0,187     l
                 0,548    0,039    0,544      0,548    0,546      0,507    0,888     0,549     o
                 0,420    0,014    0,542      0,420    0,473      0,460    0,888     0,424     n
                 0,070    0,001    0,375      0,070    0,118      0,160    0,673     0,049     q
                 0,149    0,004    0,300      0,149    0,199      0,205    0,770     0,129     p
                 0,521    0,024    0,539      0,521    0,530      0,505    0,900     0,523     s
                 0,168    0,005    0,463      0,168    0,247      0,269    0,810     0,232     r
                 0,450    0,005    0,685      0,450    0,543      0,547    0,911     0,548     u
                 0,175    0,007    0,320      0,175    0,226      0,226    0,795     0,155     t
                 0,130    0,001    0,500      0,130    0,206      0,252    0,783     0,185     v
                 0,292    0,000    0,824      0,292    0,431      0,489    0,841     0,328     y
                 0,000    0,000    0,000      0,000    0,000      0,000    0,798     0,060     z
Weighted Avg.    0,669    0,054    0,642      0,669    0,643      0,610    0,917     0,665     


=== Confusion Matrix ===

    a    b    c    d    e    f    g    h    i    j    k    l    m    n    o    p    q    r    s    t    u    v    w    x    y    z   aa   <-- classified as
    6    0    5    0    0    6    3    0    3    0    0    0    0    1    0    0    0    1    0    1    9    0    1    4    0    0    0 |    a = ch
    0    0    0    1    0    2    0    0    1    0    0    0    0    0    1    0    2    2    0    0    0    0    0    1    0    1    0 |    b = rr
    3    0 3059    3    0   21    7    0   19    2    0    5   15    0    1    3   28    3    0    5   40    3    2   14    0    0    0 |    c = 0
    1    0   21   20    0   16    3    1   11    0    0    2    3    0    0    1   11    3    0    0   13    2    0    2    0    0    0 |    d = hs
    0    0    0    1    4    3    0    0    5    0    0    0    3    1    0    0    2    2    0    0    3    0    0    1    2    0    0 |    e = hg
    1    1   42    5    0 1157    3    0   43    3    1    0    8    0    3    4   51    9    0    2   18   10    2    4    1    0    0 |    f = a
    4    0   56    4    0   16   19    0    3    1    0    0    2    0    0    0    4    1    3    2   16    0    1    6    0    0    0 |    g = c
    0    0    1    0    0   12    0   13    8    2    0    0    6    0    2    0    8    1    0    0    1    1    2    0    0    0    0 |    h = b
    0    0   25    3    0   88    2    3  504    5    2    0   36    0    3    5   24   16    0    3    7    5    5    6    3    1    0 |    i = e
    0    0    3    0    0   28    0    1   18   26    1    0    4    0    0    4   29   12    0    0    2    2    2    0    1    0    0 |    j = d
    0    0    2    1    2   17    0    0   15    3    6    0    8    0    2    0    1    1    0    0    1    0    1    0    0    0    0 |    k = g
    0    0   17    2    0    7    3    0    5    0    0    3    1    0    0    0    1    0    0    5   15    0    0    2    0    0    0 |    l = f
    0    0   21    2    1   20    3    4   82    1    0    0  215    1    7    5    4    4    0    0    8    0    0    6    1    0    0 |    m = i
    0    0    7    1    0   11    0    0    9    0    0    1    1   12    0    0    0    0    0    0    6    0    1    0    0    0    0 |    n = j
    0    0    1    0    1   21    2    0   12    3    0    0   16    0   51    1   17    6    0    0    2    5    3    0    0    0    0 |    o = m
    0    0    2    1    1   37    0    0   34    1    0    0   14    0    4   30   14   11    0    0    5    5    0    0    1    0    0 |    p = l
    1    1   76    1    0  120    4    4   40   15    1    1    9    0    4    4  390   10    0    2   10    1   15    3    0    0    0 |    q = o
    0    1   11    3    1   41    2    4   54   15    1    0   13    0    6    2   24  141    0    3    4    2    5    2    1    0    0 |    r = n
    1    0   16    0    0    3    6    0    5    0    0    0    5    0    0    0    0    0    3    0    4    0    0    0    0    0    0 |    s = q
    2    1   31    4    0    7    4    1   11    0    0    1    1    1    1    0    6    3    0   15    6    0    1    5    0    0    0 |    t = p
    3    0   76    6    1   35    5    0   28    2    0    3   16    0    0    2   14   11    2    8  241    2    1    7    0    0    0 |    u = s
    0    0   24    3    0   74    1    1   30    5    1    0    7    0    1    5   19   10    0    0    4   38    1    1    0    1    0 |    v = r
    0    0    5    0    0   20    3    2   22    0    0    0    4    0    2    2   48    5    0    0    4    1   98    2    0    0    0 |    w = u
    5    0   55    1    0   11   20    0    6    2    0    2    5    0    0    0    8    3    0    4   21    3    0   31    0    0    0 |    x = t
    1    0    5    0    0   19    1    0   18    0    0    1    4    0    0    2    9    5    0    0    0    1    1    0   10    0    0 |    y = v
    0    0    1    2    0    6    0    1    7    2    0    0    2    0    0    3    1    0    0    0    7    1    1    0    0   14    0 |    z = y
    0    0    3    0    0    0    0    0    0    0    0    0    0    0    0    0    2    0    0    0    0    0    0    0    0    0    0 |   aa = z

=== Percent Confusion Matrix ===
a	b	c	d	e	f	g	h	i	j	k	l	m	n	o	p	q	r	s	t	u	v	w	x	y	z	aa	
15.0	0.0	12.5	0.0	0.0	15.0	7.5	0.0	7.5	0.0	0.0	0.0	0.0	2.5	0.0	0.0	0.0	2.5	0.0	2.5	22.5	0.0	2.5	10.0	0.0	0.0	0.0	 a = ch
0.0	0.0	0.0	9.09	0.0	18.18	0.0	0.0	9.09	0.0	0.0	0.0	0.0	0.0	9.09	0.0	18.18	18.18	0.0	0.0	0.0	0.0	0.0	9.09	0.0	9.09	0.0	 b = rr
0.09	0.0	94.62	0.09	0.0	0.65	0.22	0.0	0.59	0.06	0.0	0.15	0.46	0.0	0.03	0.09	0.87	0.09	0.0	0.15	1.24	0.09	0.06	0.43	0.0	0.0	0.0	 c = 0
0.91	0.0	19.09	18.18	0.0	14.55	2.73	0.91	10.0	0.0	0.0	1.82	2.73	0.0	0.0	0.91	10.0	2.73	0.0	0.0	11.82	1.82	0.0	1.82	0.0	0.0	0.0	 d = hs
0.0	0.0	0.0	3.7	14.81	11.11	0.0	0.0	18.52	0.0	0.0	0.0	11.11	3.7	0.0	0.0	7.41	7.41	0.0	0.0	11.11	0.0	0.0	3.7	7.41	0.0	0.0	 e = hg
0.07	0.07	3.07	0.37	0.0	84.58	0.22	0.0	3.14	0.22	0.07	0.0	0.58	0.0	0.22	0.29	3.73	0.66	0.0	0.15	1.32	0.73	0.15	0.29	0.07	0.0	0.0	 f = a
2.9	0.0	40.58	2.9	0.0	11.59	13.77	0.0	2.17	0.72	0.0	0.0	1.45	0.0	0.0	0.0	2.9	0.72	2.17	1.45	11.59	0.0	0.72	4.35	0.0	0.0	0.0	 g = c
0.0	0.0	1.75	0.0	0.0	21.05	0.0	22.81	14.04	3.51	0.0	0.0	10.53	0.0	3.51	0.0	14.04	1.75	0.0	0.0	1.75	1.75	3.51	0.0	0.0	0.0	0.0	 h = b
0.0	0.0	3.35	0.4	0.0	11.8	0.27	0.4	67.56	0.67	0.27	0.0	4.83	0.0	0.4	0.67	3.22	2.14	0.0	0.4	0.94	0.67	0.67	0.8	0.4	0.13	0.0	 i = e
0.0	0.0	2.26	0.0	0.0	21.05	0.0	0.75	13.53	19.55	0.75	0.0	3.01	0.0	0.0	3.01	21.8	9.02	0.0	0.0	1.5	1.5	1.5	0.0	0.75	0.0	0.0	 j = d
0.0	0.0	3.33	1.67	3.33	28.33	0.0	0.0	25.0	5.0	10.0	0.0	13.33	0.0	3.33	0.0	1.67	1.67	0.0	0.0	1.67	0.0	1.67	0.0	0.0	0.0	0.0	 k = g
0.0	0.0	27.87	3.28	0.0	11.48	4.92	0.0	8.2	0.0	0.0	4.92	1.64	0.0	0.0	0.0	1.64	0.0	0.0	8.2	24.59	0.0	0.0	3.28	0.0	0.0	0.0	 l = f
0.0	0.0	5.45	0.52	0.26	5.19	0.78	1.04	21.3	0.26	0.0	0.0	55.84	0.26	1.82	1.3	1.04	1.04	0.0	0.0	2.08	0.0	0.0	1.56	0.26	0.0	0.0	 m = i
0.0	0.0	14.29	2.04	0.0	22.45	0.0	0.0	18.37	0.0	0.0	2.04	2.04	24.49	0.0	0.0	0.0	0.0	0.0	0.0	12.24	0.0	2.04	0.0	0.0	0.0	0.0	 n = j
0.0	0.0	0.71	0.0	0.71	14.89	1.42	0.0	8.51	2.13	0.0	0.0	11.35	0.0	36.17	0.71	12.06	4.26	0.0	0.0	1.42	3.55	2.13	0.0	0.0	0.0	0.0	 o = m
0.0	0.0	1.25	0.63	0.63	23.13	0.0	0.0	21.25	0.63	0.0	0.0	8.75	0.0	2.5	18.75	8.75	6.88	0.0	0.0	3.13	3.13	0.0	0.0	0.63	0.0	0.0	 p = l
0.14	0.14	10.67	0.14	0.0	16.85	0.56	0.56	5.62	2.11	0.14	0.14	1.26	0.0	0.56	0.56	54.78	1.4	0.0	0.28	1.4	0.14	2.11	0.42	0.0	0.0	0.0	 q = o
0.0	0.3	3.27	0.89	0.3	12.2	0.6	1.19	16.07	4.46	0.3	0.0	3.87	0.0	1.79	0.6	7.14	41.96	0.0	0.89	1.19	0.6	1.49	0.6	0.3	0.0	0.0	 r = n
2.33	0.0	37.21	0.0	0.0	6.98	13.95	0.0	11.63	0.0	0.0	0.0	11.63	0.0	0.0	0.0	0.0	0.0	6.98	0.0	9.3	0.0	0.0	0.0	0.0	0.0	0.0	 s = q
1.98	0.99	30.69	3.96	0.0	6.93	3.96	0.99	10.89	0.0	0.0	0.99	0.99	0.99	0.99	0.0	5.94	2.97	0.0	14.85	5.94	0.0	0.99	4.95	0.0	0.0	0.0	 t = p
0.65	0.0	16.41	1.3	0.22	7.56	1.08	0.0	6.05	0.43	0.0	0.65	3.46	0.0	0.0	0.43	3.02	2.38	0.43	1.73	52.05	0.43	0.22	1.51	0.0	0.0	0.0	 u = s
0.0	0.0	10.62	1.33	0.0	32.74	0.44	0.44	13.27	2.21	0.44	0.0	3.1	0.0	0.44	2.21	8.41	4.42	0.0	0.0	1.77	16.81	0.44	0.44	0.0	0.44	0.0	 v = r
0.0	0.0	2.29	0.0	0.0	9.17	1.38	0.92	10.09	0.0	0.0	0.0	1.83	0.0	0.92	0.92	22.02	2.29	0.0	0.0	1.83	0.46	44.95	0.92	0.0	0.0	0.0	 w = u
2.82	0.0	31.07	0.56	0.0	6.21	11.3	0.0	3.39	1.13	0.0	1.13	2.82	0.0	0.0	0.0	4.52	1.69	0.0	2.26	11.86	1.69	0.0	17.51	0.0	0.0	0.0	 x = t
1.3	0.0	6.49	0.0	0.0	24.68	1.3	0.0	23.38	0.0	0.0	1.3	5.19	0.0	0.0	2.6	11.69	6.49	0.0	0.0	0.0	1.3	1.3	0.0	12.99	0.0	0.0	 y = v
0.0	0.0	2.08	4.17	0.0	12.5	0.0	2.08	14.58	4.17	0.0	0.0	4.17	0.0	0.0	6.25	2.08	0.0	0.0	0.0	14.58	2.08	2.08	0.0	0.0	29.17	0.0	 z = y
0.0	0.0	60.0	0.0	0.0	0.0	0.0	0.0	0.0	0.0	0.0	0.0	0.0	0.0	0.0	0.0	40.0	0.0	0.0	0.0	0.0	0.0	0.0	0.0	0.0	0.0	0.0	 aa = z
