Timestamp:2013-07-22-20:28:27
Inventario:I0
Intervalo:2ms
Ngramas:2
Clasificador:RandomForest
Relation Name:  I0-2ms-2gramas
Num Instances:  91702
Num Attributes: 21

     Name                      Type  Nom  Int Real     Missing      Unique  Dist
   1 0Int(dB)                   Num   0%   9%  91%     0 /  0%     5 /  0%   780 
   2 0Pitch(Hz)                 Num   0%  52%  48%     0 /  0%   471 /  1%  4016 
   3 0RawPitch                  Num   0%  55%  45%     0 /  0%   550 /  1%  4014 
   4 0SmPitch                   Num   0%  53%  47%     0 /  0%   491 /  1%  3998 
   5 0Melogram(st)              Num   0%  49%  51%     0 /  0%   212 /  0%  3363 
   6 0ZCross                    Num   0% 100%   0%     0 /  0%     6 /  0%    54 
   7 0F1(Hz)                    Num   0%  52%  48%     0 /  0%  1126 /  1%  4776 
   8 0F2(Hz)                    Num   0%  52%  48%     0 /  0%  2304 /  3%  6727 
   9 0F3(Hz)                    Num   0%  52%  48%     0 /  0%  1967 /  2%  6224 
  10 0F4(Hz)                    Num   0%  52%  48%     0 /  0%  1884 /  2%  6074 
  11 1Int(dB)                   Num   0%   9%  91%     0 /  0%     6 /  0%   781 
  12 1Pitch(Hz)                 Num   0%  52%  48%     0 /  0%   471 /  1%  4016 
  13 1RawPitch                  Num   0%  55%  45%     0 /  0%   550 /  1%  4014 
  14 1SmPitch                   Num   0%  53%  47%     0 /  0%   491 /  1%  3998 
  15 1Melogram(st)              Num   0%  49%  51%     0 /  0%   212 /  0%  3363 
  16 1ZCross                    Num   0% 100%   0%     0 /  0%     6 /  0%    54 
  17 1F1(Hz)                    Num   0%  52%  48%     0 /  0%  1126 /  1%  4776 
  18 1F2(Hz)                    Num   0%  52%  48%     0 /  0%  2304 /  3%  6727 
  19 1F3(Hz)                    Num   0%  52%  48%     0 /  0%  1967 /  2%  6224 
  20 1F4(Hz)                    Num   0%  52%  48%     0 /  0%  1884 /  2%  6074 
  21 class                      Nom 100%   0%   0%     0 /  0%     0 /  0%    27 


Options: -I 10 -K 0 -S 1 -num-slots 4 

Random forest of 10 trees, each constructed while considering 5 random features.
Out of bag error: 0.1632





=== Stratified cross-validation ===

Correctly Classified Instances       79385               86.5684 %
Incorrectly Classified Instances     12317               13.4316 %
Kappa statistic                          0.8326
K&B Relative Info Score            7406310.9473 %
K&B Information Score               243813.4468 bits      2.6588 bits/instance
Class complexity | order 0          301796.917  bits      3.2911 bits/instance
Class complexity | scheme          6190102.8225 bits     67.5024 bits/instance
Complexity improvement     (Sf)    -5888305.9055 bits    -64.2113 bits/instance
Mean absolute error                      0.0148
Root mean squared error                  0.0882
Relative absolute error                 24.7112 %
Root relative squared error             50.9533 %
Coverage of cases (0.95 level)          93.4952 %
Mean rel. region size (0.95 level)       7.0578 %
Total Number of Instances            91702     


=== Detailed Accuracy By Class ===

                 TP Rate  FP Rate  Precision  Recall   F-Measure  MCC      ROC Area  PRC Area  Class
                 0,319    0,002    0,395      0,319    0,353      0,352    0,757     0,291     ch
                 0,927    0,000    0,962      0,927    0,944      0,944    1,000     0,974     rr
                 0,935    0,066    0,901      0,935    0,918      0,864    0,975     0,955     0
                 0,615    0,003    0,674      0,615    0,644      0,641    0,842     0,603     hs
                 0,899    0,000    0,965      0,899    0,931      0,931    0,990     0,963     hg
                 0,946    0,012    0,927      0,946    0,936      0,926    0,984     0,965     a
                 0,317    0,008    0,363      0,317    0,338      0,330    0,773     0,232     c
                 0,913    0,000    0,940      0,913    0,926      0,926    0,995     0,961     b
                 0,917    0,009    0,892      0,917    0,904      0,896    0,977     0,937     e
                 0,894    0,001    0,924      0,894    0,909      0,908    0,992     0,948     d
                 0,871    0,001    0,901      0,871    0,886      0,885    0,968     0,905     g
                 0,435    0,003    0,476      0,435    0,454      0,451    0,815     0,390     f
                 0,894    0,004    0,891      0,894    0,892      0,888    0,971     0,920     i
                 0,668    0,001    0,721      0,668    0,693      0,692    0,877     0,654     j
                 0,924    0,001    0,944      0,924    0,934      0,933    0,985     0,952     m
                 0,910    0,001    0,935      0,910    0,922      0,921    0,988     0,947     l
                 0,850    0,009    0,884      0,850    0,867      0,857    0,950     0,888     o
                 0,912    0,003    0,921      0,912    0,917      0,914    0,979     0,940     n
                 0,382    0,001    0,550      0,382    0,451      0,456    0,791     0,383     q
                 0,389    0,005    0,469      0,389    0,425      0,421    0,800     0,359     p
                 0,670    0,018    0,648      0,670    0,659      0,641    0,919     0,666     s
                 0,760    0,004    0,834      0,760    0,795      0,792    0,937     0,807     r
                 0,925    0,001    0,956      0,925    0,941      0,939    0,987     0,961     u
                 0,299    0,009    0,390      0,299    0,339      0,331    0,787     0,270     t
                 0,868    0,000    0,947      0,868    0,906      0,906    0,989     0,940     v
                 0,783    0,001    0,875      0,783    0,826      0,827    0,935     0,822     y
                 0,000    0,000    0,000      0,000    0,000      -0,000   0,560     0,004     z
Weighted Avg.    0,866    0,030    0,860      0,866    0,862      0,837    0,959     0,885     


=== Confusion Matrix ===

     a     b     c     d     e     f     g     h     i     j     k     l     m     n     o     p     q     r     s     t     u     v     w     x     y     z    aa   <-- classified as
   137     0    60     1     0    10    17     0     2     1     0     9     3     1     1     0     8     2     7     4   138     5     1    21     1     0     0 |     a = ch
     0   101     0     0     0     2     0     0     6     0     0     0     0     0     0     0     0     0     0     0     0     0     0     0     0     0     0 |     b = rr
    42     0 33486   122     1   201   216     3   191    18    17    58   112    20    14    19   256    53    32   142   458    86    16   250     6     5     8 |     c = 0
     3     0   205   603     0    19    13     0    15     2     0     4     4     2     0     3    14     4     5     9    43    11     0    19     0     1     1 |     d = hs
     0     0     3     0   222     7     0     0     9     0     0     0     4     0     0     0     0     1     0     0     0     0     1     0     0     0     0 |     e = hg
     8     2   263    14     1 12399    45     8    38    12     8     8    15     5     6    26    32    28     2    22    63    38     7    48     3     5     0 |     f = a
    22     0   359    17     0    58   431     0    34     0     2    26    19    13     3     0    40     9    29    47   147    11     7    84     0     2     1 |     g = c
     0     0     5     0     0    15     0   547     6     0     0     0    10     0     3     1     3     1     0     0     0     3     5     0     0     0     0 |     h = b
     1     1   189    15     1    49    32     4  6335    15     5     4    29     4     5    11    33    25     6    26    41    24     8    43     4     0     0 |     i = e
     0     0    31     1     0    16     0     1    35  1174     0     1     3     0     0     0    32    12     0     0     1     4     1     0     0     1     0 |     j = d
     0     0    16     0     0    12     4     0    12     0   474     1     3     0     0     1     5     1     0     1     6     2     2     2     0     1     1 |     k = g
     8     0    75     5     0     9    23     0     9     0     1   253     5    10     1     0    12     7     0     9   128     7     0    16     0     2     2 |     l = f
     2     0   144     5     2    27    16     6    48     1     2     3  3184     1     4    10     5     7     4     7    37     8     4    24     7     3     0 |     m = i
     3     0    26     2     0    14    10     0    13     0     0    11     0   328     1     0     6     2     3     3    59     2     0     6     0     1     1 |     n = j
     0     0    24     0     0     7     5     2    12     1     0     2    15     0  1211     0    14     1     0     3     4     1     6     3     0     0     0 |     o = m
     2     0    21     3     0    54     4     1    26     3     0     0     5     0     3  1468    11     3     0     1     1     2     2     3     0     0     0 |     p = l
     6     0   534    18     2    82    27     2    37    27     2    17    14     8    14    12  5652    19     5    20    67    29     4    39     6     3     0 |     q = o
     2     0    66     4     1    42     8     0    34     7     2     9    11     3     0     3    32  2887     0     7    23     2     3    16     0     1     1 |     r = n
    14     0    91     4     0     7    43     0    17     0     1     2     4     3     0     0     4     0   160     7    47     2     1    11     0     1     0 |     s = q
     6     0   249    10     0    42    40     0    41     0     3    11    10     6     3     3    31     7     2   391    78    14     2    54     0     0     2 |     t = p
    66     0   581    33     0    68   110     0    46     1     2    89    41    41     3     3    66    29    26    71  2962    38     3   118     3    16     7 |     u = s
     4     0   143    11     0   114    15     3    49     4     2     1    21     2     1     1    37     8     0    12    46  1583     1    22     0     3     1 |     v = r
     0     0    38     1     0    18     7     5    14     1     2     0    13     1     4     5    17     3     0     4     4     4  1925    12     1     1     0 |     w = u
    19     0   510    24     0    91   108     0    46     0     3    18    31     5     5     1    64    22    10    45   161    15    12   512     3     3     2 |     x = t
     1     1    13     0     0    10     4     0    20     3     0     0    14     0     1     1    16     2     0     0     3     1     0     2   611     1     0 |     y = v
     1     0    10     1     0     8     7     0     7     0     0     2     4     0     0     2     2     1     0     1    41     5     2     3     0   349     0 |     z = y
     0     0     8     0     0     0     1     0     0     0     0     3     1     2     0     0     0     0     0     2    12     0     0     4     0     0     0 |    aa = z

=== Percent Confusion Matrix ===
a	b	c	d	e	f	g	h	i	j	k	l	m	n	o	p	q	r	s	t	u	v	w	x	y	z	aa	
31.93	0.0	13.99	0.23	0.0	2.33	3.96	0.0	0.47	0.23	0.0	2.1	0.7	0.23	0.23	0.0	1.86	0.47	1.63	0.93	32.17	1.17	0.23	4.9	0.23	0.0	0.0	 a = ch
0.0	92.66	0.0	0.0	0.0	1.83	0.0	0.0	5.5	0.0	0.0	0.0	0.0	0.0	0.0	0.0	0.0	0.0	0.0	0.0	0.0	0.0	0.0	0.0	0.0	0.0	0.0	 b = rr
0.12	0.0	93.45	0.34	0.0	0.56	0.6	0.01	0.53	0.05	0.05	0.16	0.31	0.06	0.04	0.05	0.71	0.15	0.09	0.4	1.28	0.24	0.04	0.7	0.02	0.01	0.02	 c = 0
0.31	0.0	20.92	61.53	0.0	1.94	1.33	0.0	1.53	0.2	0.0	0.41	0.41	0.2	0.0	0.31	1.43	0.41	0.51	0.92	4.39	1.12	0.0	1.94	0.0	0.1	0.1	 d = hs
0.0	0.0	1.21	0.0	89.88	2.83	0.0	0.0	3.64	0.0	0.0	0.0	1.62	0.0	0.0	0.0	0.0	0.4	0.0	0.0	0.0	0.0	0.4	0.0	0.0	0.0	0.0	 e = hg
0.06	0.02	2.01	0.11	0.01	94.61	0.34	0.06	0.29	0.09	0.06	0.06	0.11	0.04	0.05	0.2	0.24	0.21	0.02	0.17	0.48	0.29	0.05	0.37	0.02	0.04	0.0	 f = a
1.62	0.0	26.38	1.25	0.0	4.26	31.67	0.0	2.5	0.0	0.15	1.91	1.4	0.96	0.22	0.0	2.94	0.66	2.13	3.45	10.8	0.81	0.51	6.17	0.0	0.15	0.07	 g = c
0.0	0.0	0.83	0.0	0.0	2.5	0.0	91.32	1.0	0.0	0.0	0.0	1.67	0.0	0.5	0.17	0.5	0.17	0.0	0.0	0.0	0.5	0.83	0.0	0.0	0.0	0.0	 h = b
0.01	0.01	2.74	0.22	0.01	0.71	0.46	0.06	91.68	0.22	0.07	0.06	0.42	0.06	0.07	0.16	0.48	0.36	0.09	0.38	0.59	0.35	0.12	0.62	0.06	0.0	0.0	 i = e
0.0	0.0	2.36	0.08	0.0	1.22	0.0	0.08	2.67	89.41	0.0	0.08	0.23	0.0	0.0	0.0	2.44	0.91	0.0	0.0	0.08	0.3	0.08	0.0	0.0	0.08	0.0	 j = d
0.0	0.0	2.94	0.0	0.0	2.21	0.74	0.0	2.21	0.0	87.13	0.18	0.55	0.0	0.0	0.18	0.92	0.18	0.0	0.18	1.1	0.37	0.37	0.37	0.0	0.18	0.18	 k = g
1.37	0.0	12.89	0.86	0.0	1.55	3.95	0.0	1.55	0.0	0.17	43.47	0.86	1.72	0.17	0.0	2.06	1.2	0.0	1.55	21.99	1.2	0.0	2.75	0.0	0.34	0.34	 l = f
0.06	0.0	4.04	0.14	0.06	0.76	0.45	0.17	1.35	0.03	0.06	0.08	89.41	0.03	0.11	0.28	0.14	0.2	0.11	0.2	1.04	0.22	0.11	0.67	0.2	0.08	0.0	 m = i
0.61	0.0	5.3	0.41	0.0	2.85	2.04	0.0	2.65	0.0	0.0	2.24	0.0	66.8	0.2	0.0	1.22	0.41	0.61	0.61	12.02	0.41	0.0	1.22	0.0	0.2	0.2	 n = j
0.0	0.0	1.83	0.0	0.0	0.53	0.38	0.15	0.92	0.08	0.0	0.15	1.14	0.0	92.37	0.0	1.07	0.08	0.0	0.23	0.31	0.08	0.46	0.23	0.0	0.0	0.0	 o = m
0.12	0.0	1.3	0.19	0.0	3.35	0.25	0.06	1.61	0.19	0.0	0.0	0.31	0.0	0.19	91.01	0.68	0.19	0.0	0.06	0.06	0.12	0.12	0.19	0.0	0.0	0.0	 p = l
0.09	0.0	8.03	0.27	0.03	1.23	0.41	0.03	0.56	0.41	0.03	0.26	0.21	0.12	0.21	0.18	85.04	0.29	0.08	0.3	1.01	0.44	0.06	0.59	0.09	0.05	0.0	 q = o
0.06	0.0	2.09	0.13	0.03	1.33	0.25	0.0	1.07	0.22	0.06	0.28	0.35	0.09	0.0	0.09	1.01	91.25	0.0	0.22	0.73	0.06	0.09	0.51	0.0	0.03	0.03	 r = n
3.34	0.0	21.72	0.95	0.0	1.67	10.26	0.0	4.06	0.0	0.24	0.48	0.95	0.72	0.0	0.0	0.95	0.0	38.19	1.67	11.22	0.48	0.24	2.63	0.0	0.24	0.0	 s = q
0.6	0.0	24.78	1.0	0.0	4.18	3.98	0.0	4.08	0.0	0.3	1.09	1.0	0.6	0.3	0.3	3.08	0.7	0.2	38.91	7.76	1.39	0.2	5.37	0.0	0.0	0.2	 t = p
1.49	0.0	13.14	0.75	0.0	1.54	2.49	0.0	1.04	0.02	0.05	2.01	0.93	0.93	0.07	0.07	1.49	0.66	0.59	1.61	66.97	0.86	0.07	2.67	0.07	0.36	0.16	 u = s
0.19	0.0	6.86	0.53	0.0	5.47	0.72	0.14	2.35	0.19	0.1	0.05	1.01	0.1	0.05	0.05	1.78	0.38	0.0	0.58	2.21	75.96	0.05	1.06	0.0	0.14	0.05	 v = r
0.0	0.0	1.83	0.05	0.0	0.87	0.34	0.24	0.67	0.05	0.1	0.0	0.63	0.05	0.19	0.24	0.82	0.14	0.0	0.19	0.19	0.19	92.55	0.58	0.05	0.05	0.0	 w = u
1.11	0.0	29.82	1.4	0.0	5.32	6.32	0.0	2.69	0.0	0.18	1.05	1.81	0.29	0.29	0.06	3.74	1.29	0.58	2.63	9.42	0.88	0.7	29.94	0.18	0.18	0.12	 x = t
0.14	0.14	1.85	0.0	0.0	1.42	0.57	0.0	2.84	0.43	0.0	0.0	1.99	0.0	0.14	0.14	2.27	0.28	0.0	0.0	0.43	0.14	0.0	0.28	86.79	0.14	0.0	 y = v
0.22	0.0	2.24	0.22	0.0	1.79	1.57	0.0	1.57	0.0	0.0	0.45	0.9	0.0	0.0	0.45	0.45	0.22	0.0	0.22	9.19	1.12	0.45	0.67	0.0	78.25	0.0	 z = y
0.0	0.0	24.24	0.0	0.0	0.0	3.03	0.0	0.0	0.0	0.0	9.09	3.03	6.06	0.0	0.0	0.0	0.0	0.0	6.06	36.36	0.0	0.0	12.12	0.0	0.0	0.0	 aa = z
