Timestamp:2014-12-07-10:42:49
Inventario:I0
Intervalo:20ms
Ngramas:2
Clasificador:NaiveBayes
Relation Name:  I0-20ms-2gramas
Num Instances:  9128
Num Attributes: 21

     Name                      Type  Nom  Int Real     Missing      Unique  Dist
   1 0Int(dB)                   Num   0%  11%  89%     0 /  0%    14 /  0%   764 
   2 0Pitch(Hz)                 Num   0%  49%  51%     0 /  0%  1033 / 11%  2440 
   3 0RawPitch                  Num   0%  52%  48%     0 /  0%  1062 / 12%  2369 
   4 0SmPitch                   Num   0%  50%  50%     0 /  0%  1056 / 12%  2419 
   5 0Melogram(st)              Num   0%  45%  55%     0 /  0%   937 / 10%  2341 
   6 0ZCross                    Num   0% 100%   0%     0 /  0%     7 /  0%    34 
   7 0F1(Hz)                    Num   0%  49%  51%     0 /  0%  2180 / 24%  3398 
   8 0F2(Hz)                    Num   0%  49%  51%     0 /  0%  3463 / 38%  4259 
   9 0F3(Hz)                    Num   0%  49%  51%     0 /  0%  3209 / 35%  4087 
  10 0F4(Hz)                    Num   0%  49%  51%     0 /  0%  3134 / 34%  4027 
  11 1Int(dB)                   Num   0%  11%  89%     0 /  0%    14 /  0%   764 
  12 1Pitch(Hz)                 Num   0%  49%  51%     0 /  0%  1033 / 11%  2440 
  13 1RawPitch                  Num   0%  52%  48%     0 /  0%  1062 / 12%  2369 
  14 1SmPitch                   Num   0%  50%  50%     0 /  0%  1056 / 12%  2419 
  15 1Melogram(st)              Num   0%  45%  55%     0 /  0%   938 / 10%  2342 
  16 1ZCross                    Num   0% 100%   0%     0 /  0%     7 /  0%    34 
  17 1F1(Hz)                    Num   0%  49%  51%     0 /  0%  2180 / 24%  3398 
  18 1F2(Hz)                    Num   0%  49%  51%     0 /  0%  3463 / 38%  4259 
  19 1F3(Hz)                    Num   0%  49%  51%     0 /  0%  3209 / 35%  4087 
  20 1F4(Hz)                    Num   0%  49%  51%     0 /  0%  3134 / 34%  4027 
  21 class                      Nom 100%   0%   0%     0 /  0%     0 /  0%    27 


Naive Bayes Classifier

                    Class
Attribute              ch        rr         0        hs        hg         a         c         b         e         d         g         f         i         j         m         l         o         n         q         p         s         r         u         t         v         y         z
                      (0)       (0)    (0.35)    (0.01)       (0)    (0.15)    (0.02)    (0.01)    (0.08)    (0.01)    (0.01)    (0.01)    (0.04)    (0.01)    (0.02)    (0.02)    (0.08)    (0.04)       (0)    (0.01)    (0.05)    (0.02)    (0.02)    (0.02)    (0.01)    (0.01)       (0)
==============================================================================================================================================================================================================================================================================================
0Int(dB)
  mean            -20.8729   -8.2736  -50.1358  -15.2206   -9.5299   -4.7939  -28.9965   -5.7201   -7.2226    -7.265   -6.5293  -16.5967  -10.9862  -12.2836   -7.5604   -7.3933   -9.7163   -7.3598   -27.953   -22.645  -18.7082   -9.6394   -8.0296  -26.9925   -8.9765  -15.4308   -25.761
  std. dev.        10.0357    4.4747   14.5007   11.1976    6.0177   10.5291   11.6265    4.3937    9.4909    6.0708    6.9159    8.8351    9.3463    7.5899    7.2916    6.0169   12.1824    6.6545   15.3431   12.0754    9.0128    9.9641    9.9998   10.7521   10.2322    7.2953    2.8196
  weight sum            40        11      3236       110        27      1368       138        57       746       133        60        61       385        49       141       160       712       336        43       101       463       226       218       177        77        48         5
  precision         0.1008    0.1008    0.1008    0.1008    0.1008    0.1008    0.1008    0.1008    0.1008    0.1008    0.1008    0.1008    0.1008    0.1008    0.1008    0.1008    0.1008    0.1008    0.1008    0.1008    0.1008    0.1008    0.1008    0.1008    0.1008    0.1008    0.1008

0Pitch(Hz)
  mean             92.8449  243.0546   12.2267  123.0008  149.0041  219.4697   44.5525  212.1958   183.146  198.6388  221.7155  149.5644  163.4233  195.9289  194.6276  172.6366  177.1418   200.846   95.8261  125.0455   98.7562  165.2568  221.0527    86.314  171.2731  124.0127   33.4327
  std. dev.       113.2761  115.8716   48.3613   88.5822   38.4991  107.9149   80.4882   73.3389   90.4096   83.6049    84.984  129.4861   84.1925  120.6578   85.6384   69.4882  106.6856   82.2128   116.615  126.3472   109.882   86.2498   98.5341  118.2322   84.8919   68.5621   66.8654
  weight sum            40        11      3236       110        27      1368       138        57       746       133        60        61       385        49       141       160       712       336        43       101       463       226       218       177        77        48         5
  precision         0.2034    0.2034    0.2034    0.2034    0.2034    0.2034    0.2034    0.2034    0.2034    0.2034    0.2034    0.2034    0.2034    0.2034    0.2034    0.2034    0.2034    0.2034    0.2034    0.2034    0.2034    0.2034    0.2034    0.2034    0.2034    0.2034    0.2034

0RawPitch
  mean             85.2047  233.5911   10.0496  105.6901  147.3395  209.6472   38.4616  208.7911  176.8718  193.1658  211.8216  104.7821  153.6209  154.8281  185.8146  165.4233  168.1349  190.2747   79.9399  105.9836   80.3335  155.1319  210.2912   64.7183  157.8975  105.8751         0
  std. dev.       113.6293  105.8543   42.5592   90.6276   62.2083  111.5852   80.9393   74.8908   96.4397   90.7206   95.3224  114.9827   86.0466  118.1379   92.9573   72.0706   111.735   93.4903  113.6839  126.6124  106.4821   95.9052  103.8231  106.5642   93.0131   73.7162    0.0348
  weight sum            40        11      3236       110        27      1368       138        57       746       133        60        61       385        49       141       160       712       336        43       101       463       226       218       177        77        48         5
  precision         0.2088    0.2088    0.2088    0.2088    0.2088    0.2088    0.2088    0.2088    0.2088    0.2088    0.2088    0.2088    0.2088    0.2088    0.2088    0.2088    0.2088    0.2088    0.2088    0.2088    0.2088    0.2088    0.2088    0.2088    0.2088    0.2088    0.2088

0SmPitch
  mean              92.759  243.0583   10.6901  117.1301  149.3865  217.8662   41.9175  212.2033  181.1568   198.416  221.7299   127.277  161.2553  164.7221  192.6096  172.6551  174.8902  198.2228    91.201  120.3453   92.7459  160.1144  219.9482   77.7691   169.324  120.6239         0
  std. dev.       113.1421  115.8638   43.8936   87.5951   37.8746  109.1586   79.2956   73.3313   92.1927   84.1478   84.9582  117.7033   84.9278  140.2971   88.4076   69.4549  108.2193    86.021  116.4429  127.8881  109.0119   90.7773    99.473  114.6618   86.5504   70.4802    0.0342
  weight sum            40        11      3236       110        27      1368       138        57       746       133        60        61       385        49       141       160       712       336        43       101       463       226       218       177        77        48         5
  precision         0.2051    0.2051    0.2051    0.2051    0.2051    0.2051    0.2051    0.2051    0.2051    0.2051    0.2051    0.2051    0.2051    0.2051    0.2051    0.2051    0.2051    0.2051    0.2051    0.2051    0.2051    0.2051    0.2051    0.2051    0.2051    0.2051    0.2051

0Melogram(st)
  mean             24.1324   56.7441    3.7033    37.726   49.5674   51.6802    15.911   55.1075   49.1776   52.5572   53.5228   39.5538   45.9084   34.4087   51.7864   51.6807   46.5218   52.2485   23.4229   31.9535   26.9486   45.0699   50.6374   22.1748    49.702   43.9671   20.8602
  std. dev.        28.2013    8.5289   13.7381   22.3369     4.659   17.1033   24.7358    6.2037   17.1261   11.6326    13.838   25.4156   18.9795   27.9846   12.7781    8.4682   20.6378   13.3555   27.9115   28.2583   27.4221   20.1871    19.473   27.7393   13.2756   15.8995   25.5485
  weight sum            40        11      3236       110        27      1368       138        57       746       133        60        61       385        49       141       160       712       336        43       101       463       226       218       177        77        48         5
  precision         0.0353    0.0353    0.0353    0.0353    0.0353    0.0353    0.0353    0.0353    0.0353    0.0353    0.0353    0.0353    0.0353    0.0353    0.0353    0.0353    0.0353    0.0353    0.0353    0.0353    0.0353    0.0353    0.0353    0.0353    0.0353    0.0353    0.0353

0ZCross
  mean              3.8818    3.8182    0.1471    1.8628    3.2997     6.933    0.6364    3.5949    4.6951    3.6746    4.9424    1.4605    3.0678    4.2338    2.8614    3.5875    3.8039    3.2727    1.2431    1.2853    3.4526    3.8182    3.4387    0.4027    3.7025    1.6705         0
  std. dev.         7.0631    2.1708    0.8713    2.0996    2.3304    4.6945    1.6732    1.7212    3.4013     2.155    2.9031    2.1964     3.289     3.694    2.0345    2.0663    3.4966    2.3914    2.6681    2.9673    5.7944     2.876    3.0618    1.0046    2.4372    1.6868    0.2121
  weight sum            40        11      3236       110        27      1368       138        57       746       133        60        61       385        49       141       160       712       336        43       101       463       226       218       177        77        48         5
  precision         1.2727    1.2727    1.2727    1.2727    1.2727    1.2727    1.2727    1.2727    1.2727    1.2727    1.2727    1.2727    1.2727    1.2727    1.2727    1.2727    1.2727    1.2727    1.2727    1.2727    1.2727    1.2727    1.2727    1.2727    1.2727    1.2727    1.2727

0F1(Hz)
  mean            309.2226  561.5472   45.7552  502.2932  453.3418  646.6119  169.9053  470.1795  435.3843  507.6396  535.1981  473.0995  340.7633  559.1218  447.2307  501.3413  450.1528  526.5397  214.3984  362.8402  344.3701  541.3966  462.9492  216.2259  499.4623  368.7188  144.7747
  std. dev.       299.4267  111.5046  157.7973  235.0568   83.9917  300.2969  254.5554  131.5729  182.9634  140.7686  163.2022  292.6262  174.3406  251.1646  180.6226  162.3793  244.2194  147.6227  245.6023  304.3039  306.3413  210.5122  332.7223  250.1525  170.2777  174.0225  289.5494
  weight sum            40        11      3236       110        27      1368       138        57       746       133        60        61       385        49       141       160       712       336        43       101       463       226       218       177        77        48         5
  precision         0.5127    0.5127    0.5127    0.5127    0.5127    0.5127    0.5127    0.5127    0.5127    0.5127    0.5127    0.5127    0.5127    0.5127    0.5127    0.5127    0.5127    0.5127    0.5127    0.5127    0.5127    0.5127    0.5127    0.5127    0.5127    0.5127    0.5127

0F2(Hz)
  mean            972.1855  1725.986  138.7352 1436.0208 1920.1422 1387.7623  520.3549 1630.2796 1633.7862 1494.6889 1790.4456 1265.7452 1740.6907 1730.0201 1631.3867 1637.4908 1123.9385 1668.3766  892.5491 1093.4728 1059.1039 1451.1614  1000.033  768.8281  1532.974 1367.6716  234.4156
  std. dev.       886.6047  141.3137  473.9153  652.2484  390.8971   518.783  794.0011  360.3137  662.2232  292.6037  429.6425  756.8167  805.0767  618.3902  527.7962  420.8231  603.6465  382.1102   993.992  860.3745  903.2606  510.3052   546.594  850.7872  499.5849  586.6274  468.8312
  weight sum            40        11      3236       110        27      1368       138        57       746       133        60        61       385        49       141       160       712       336        43       101       463       226       218       177        77        48         5
  precision         0.6985    0.6985    0.6985    0.6985    0.6985    0.6985    0.6985    0.6985    0.6985    0.6985    0.6985    0.6985    0.6985    0.6985    0.6985    0.6985    0.6985    0.6985    0.6985    0.6985    0.6985    0.6985    0.6985    0.6985    0.6985    0.6985    0.6985

0F3(Hz)
  mean           1576.1935 2851.9447    236.77 2377.1879 2559.8033 2582.0803  905.4576 2773.6655 2466.1143 2867.9147 3071.6857 2143.2836 2427.5868 2482.9806 2750.4797 2731.4096 2381.9061  2868.504 1329.2542 1809.9758 1760.4591 2544.8012  2460.271 1353.9233 2614.2239 2480.1298  754.6445
  std. dev.      1439.0693  363.1554   790.092  957.8836  118.4898  939.5509 1341.7145  454.0696  983.2863  389.3036  635.5128 1267.5719 1119.2236  911.0677   699.581  657.7068 1133.1835  491.9114 1430.9717 1414.8086 1470.2935  889.3045 1089.2339 1460.6297  787.6904 1080.8476  1509.289
  weight sum            40        11      3236       110        27      1368       138        57       746       133        60        61       385        49       141       160       712       336        43       101       463       226       218       177        77        48         5
  precision         1.0065    1.0065    1.0065    1.0065    1.0065    1.0065    1.0065    1.0065    1.0065    1.0065    1.0065    1.0065    1.0065    1.0065    1.0065    1.0065    1.0065    1.0065    1.0065    1.0065    1.0065    1.0065    1.0065    1.0065    1.0065    1.0065    1.0065

0F4(Hz)
  mean           1898.8285 3289.9945  289.9922 2953.0356 3562.4249 2960.7362 1057.8587 3330.0402  2968.206 3355.4843  3056.979  2490.537 2906.6724 3079.3589 3240.6469 3173.1799 2739.0875 3258.1671 1638.1223  2132.978 2024.8249  3004.756  2778.374 1538.7445 3149.4523 2782.5209  598.0497
  std. dev.      1728.0742  453.0635  965.4827  1172.428  107.1827 1070.8135 1568.7923  430.4935 1156.9806   399.068  644.5346 1452.8387 1305.1093 1092.0474  773.6277   715.285 1292.2218  542.1191 1782.9334 1643.5575 1687.5003  974.8982 1167.5154 1666.9883   889.841 1194.8866 1196.0995
  weight sum            40        11      3236       110        27      1368       138        57       746       133        60        61       385        49       141       160       712       336        43       101       463       226       218       177        77        48         5
  precision         1.0301    1.0301    1.0301    1.0301    1.0301    1.0301    1.0301    1.0301    1.0301    1.0301    1.0301    1.0301    1.0301    1.0301    1.0301    1.0301    1.0301    1.0301    1.0301    1.0301    1.0301    1.0301    1.0301    1.0301    1.0301    1.0301    1.0301

1Int(dB)
  mean            -19.3611   -9.9962  -50.8578  -19.9172  -10.3661   -3.4567  -25.3719   -6.0012   -5.6493   -7.9076   -7.0534  -20.5257   -9.5022  -15.1303   -7.5833   -8.1398   -8.6644   -8.9322  -22.8012  -22.8915  -21.1109  -11.9918   -5.9413  -25.9579   -8.7684  -16.2875  -28.5024
  std. dev.         7.7565    3.8366   13.3657   11.6389    5.9192    8.7075    9.2254    4.1873    8.2505    6.2206    7.2104    6.4423    8.6317    6.0216    5.8858    5.6054   12.1183    7.4704   11.6707   10.0883    7.1461    9.9455    8.0011    9.2949    7.1323    5.5001    3.0818
  weight sum            40        11      3236       110        27      1368       138        57       746       133        60        61       385        49       141       160       712       336        43       101       463       226       218       177        77        48         5
  precision         0.1008    0.1008    0.1008    0.1008    0.1008    0.1008    0.1008    0.1008    0.1008    0.1008    0.1008    0.1008    0.1008    0.1008    0.1008    0.1008    0.1008    0.1008    0.1008    0.1008    0.1008    0.1008    0.1008    0.1008    0.1008    0.1008    0.1008

1Pitch(Hz)
  mean             82.8243  242.8882    8.6361   96.3862  148.4618  226.3699   69.4909  210.7009  192.4898  197.3055  218.8243  119.9169  174.3019  178.5519  196.7809  172.5222  180.2959  194.3082  113.0977  120.6581   74.7533  162.5807  232.3523  100.0392  177.8309  126.8979         0
  std. dev.       116.4666  120.5461    41.214   88.4217   37.7381  100.9895   99.1958   71.4876    85.636   85.1182   91.1227  130.3383   75.0715   124.953   85.4633   64.7022  103.4062   85.9498  120.1807   120.908  103.7414   91.3755   82.3117  116.9968   71.4767   67.5526    0.0339
  weight sum            40        11      3236       110        27      1368       138        57       746       133        60        61       385        49       141       160       712       336        43       101       463       226       218       177        77        48         5
  precision         0.2034    0.2034    0.2034    0.2034    0.2034    0.2034    0.2034    0.2034    0.2034    0.2034    0.2034    0.2034    0.2034    0.2034    0.2034    0.2034    0.2034    0.2034    0.2034    0.2034    0.2034    0.2034    0.2034    0.2034    0.2034    0.2034    0.2034

1RawPitch
  mean              67.338  242.2461    6.9049   78.8007  152.1647  216.3311   54.0342  207.9267  188.8553  192.4154   208.067    72.513  166.4766  133.6429  185.9434  160.8196  174.0908   182.853   78.8086    87.559   53.3147   156.453  222.5693    78.728  163.1333   98.3981         0
  std. dev.       106.9584  114.3486   35.4988   86.3558   61.9604  105.7238   94.5182   73.3988   89.4789   92.3885  103.6798  103.4893   78.7839  114.1968   95.2663    71.931  108.0935   97.6616  114.5801  119.4019   92.8695   96.2144   89.8429  106.6509   80.4684   73.1767    0.0348
  weight sum            40        11      3236       110        27      1368       138        57       746       133        60        61       385        49       141       160       712       336        43       101       463       226       218       177        77        48         5
  precision         0.2088    0.2088    0.2088    0.2088    0.2088    0.2088    0.2088    0.2088    0.2088    0.2088    0.2088    0.2088    0.2088    0.2088    0.2088    0.2088    0.2088    0.2088    0.2088    0.2088    0.2088    0.2088    0.2088    0.2088    0.2088    0.2088    0.2088

1SmPitch
  mean             82.2872  242.8904     7.414   89.7865  150.2222  224.6095   56.7209  210.7027  191.6241  196.7627  218.8205   97.3451  171.8543  145.4317    194.06  172.6269   178.962  191.6862   97.6506  112.9058   67.5607  159.1541  232.3227   91.4408  176.6607  123.5214         0
  std. dev.       115.6212  120.5381    36.468   86.0619   35.4094   102.523    95.654   71.4902   86.4181   86.2961   91.1003  112.8316   76.5988  142.8655   89.4179   64.6384  104.3249   89.3478  118.6116  123.4809  100.5461   93.9496   82.2366  115.9938   72.1056   69.6554    0.0342
  weight sum            40        11      3236       110        27      1368       138        57       746       133        60        61       385        49       141       160       712       336        43       101       463       226       218       177        77        48         5
  precision         0.2051    0.2051    0.2051    0.2051    0.2051    0.2051    0.2051    0.2051    0.2051    0.2051    0.2051    0.2051    0.2051    0.2051    0.2051    0.2051    0.2051    0.2051    0.2051    0.2051    0.2051    0.2051    0.2051    0.2051    0.2051    0.2051    0.2051

1Melogram(st)
  mean              20.505   56.4475    2.7463   30.5016   49.5371   53.8682   18.5492   55.0147   51.3162   52.3538   52.6041   31.4703   49.4307   29.1884   51.8448   51.3696   47.7311   50.9131   27.7309   32.0777    20.118   43.7297   54.9086   24.5196   51.6875   44.8978   10.4257
  std. dev.        27.9961    8.9492   12.0032   24.5513    4.5358   13.2991    26.461    6.1073   13.9659   11.7579    15.467    27.717   14.5646   29.0067   12.8223    8.4395   19.2227   15.2335   28.7641   28.2708   26.5829   21.6323   12.8002   28.2592     8.539    14.604   20.8513
  weight sum            40        11      3236       110        27      1368       138        57       746       133        60        61       385        49       141       160       712       336        43       101       463       226       218       177        77        48         5
  precision         0.0352    0.0352    0.0352    0.0352    0.0352    0.0352    0.0352    0.0352    0.0352    0.0352    0.0352    0.0352    0.0352    0.0352    0.0352    0.0352    0.0352    0.0352    0.0352    0.0352    0.0352    0.0352    0.0352    0.0352    0.0352    0.0352    0.0352

1ZCross
  mean              7.9545    3.2397    0.0853    1.0876    2.9697     7.241    1.1344    3.7065    4.8248    3.6172    4.5394    0.6468    3.1868    3.8442    2.5364    3.0545    3.9665    2.4015    3.5518    0.9073    3.5296    2.9847     3.573    0.5249    3.2231    1.3523         0
  std. dev.         11.397    2.3256     0.629    1.6446    2.2449    4.3829    2.3372    1.7564    3.1533    2.1729    2.7234    1.2753    2.9527    3.5859    1.3851    1.7381    3.0096    1.5521    5.1392    2.3375    6.2163    2.4229    2.8222    1.1274    1.8067    1.5459    0.2121
  weight sum            40        11      3236       110        27      1368       138        57       746       133        60        61       385        49       141       160       712       336        43       101       463       226       218       177        77        48         5
  precision         1.2727    1.2727    1.2727    1.2727    1.2727    1.2727    1.2727    1.2727    1.2727    1.2727    1.2727    1.2727    1.2727    1.2727    1.2727    1.2727    1.2727    1.2727    1.2727    1.2727    1.2727    1.2727    1.2727    1.2727    1.2727    1.2727    1.2727

1F1(Hz)
  mean            202.7179   593.565   33.6314  445.2577  447.8544  704.1252  148.5037  470.4404  468.1216  513.8878  515.8111  363.7772  362.9833  523.6228  437.8538  482.6293  487.9887   482.181  207.2093   313.823   249.277  514.8971  498.1345   166.333  487.8509  367.1274         0
  std. dev.       289.5045  129.1149  134.9805  281.0365   81.4069   249.214  247.3273  127.1267  135.4424  150.3522  169.9361  330.5129  139.6622  308.3036  166.2944  142.8992  219.6408  147.9711  248.6353  303.7503   300.204   217.955  299.1257  236.3658   151.229  161.4238    0.0854
  weight sum            40        11      3236       110        27      1368       138        57       746       133        60        61       385        49       141       160       712       336        43       101       463       226       218       177        77        48         5
  precision         0.5127    0.5127    0.5127    0.5127    0.5127    0.5127    0.5127    0.5127    0.5127    0.5127    0.5127    0.5127    0.5127    0.5127    0.5127    0.5127    0.5127    0.5127    0.5127    0.5127    0.5127    0.5127    0.5127    0.5127    0.5127    0.5127    0.5127

1F2(Hz)
  mean            626.4819 1655.9458  104.5868 1265.3653 1914.7095 1470.4908  424.3369 1578.9707 1802.3085 1476.9797 1760.2472  961.4066 1971.4305 1504.2346 1666.2174 1672.8478 1165.7924 1632.3458     841.9  935.3911  786.1817 1429.2731 1080.7158  562.2782 1572.8791 1462.0269         0
  std. dev.       858.5611  133.0622  415.8315  774.7198  365.6044  383.7193  719.5944  348.4014  487.8366  305.2219  487.7326   850.392  644.7659  798.8866  446.5919  334.1607  525.3227  418.0342  976.9045  865.6064  915.0606  547.1746  431.8771   774.626  379.5959  573.9695    0.1164
  weight sum            40        11      3236       110        27      1368       138        57       746       133        60        61       385        49       141       160       712       336        43       101       463       226       218       177        77        48         5
  precision         0.6985    0.6985    0.6985    0.6985    0.6985    0.6985    0.6985    0.6985    0.6985    0.6985    0.6985    0.6985    0.6985    0.6985    0.6985    0.6985    0.6985    0.6985    0.6985    0.6985    0.6985    0.6985    0.6985    0.6985    0.6985    0.6985    0.6985

1F3(Hz)
  mean           1008.0966 2855.0556  178.4164 2081.0687 2538.4067 2743.9462  791.6181 2754.1719 2662.4498 2860.5062 3010.0232 1630.1205 2672.9489 2187.9232 2768.0321 2801.9499 2534.4259 2812.4776 1274.4606 1575.0518 1292.2482 2478.6242 2714.6841 1028.1597  2687.787 2567.0838         0
  std. dev.      1378.2052  399.2622    693.97 1189.0713  114.7769  702.3743 1303.5362  465.0807   729.876  458.2327  754.1328 1434.7311  890.7818 1152.3941  576.4059   552.646  989.9708  589.6756 1439.0959 1448.3433  1480.795  954.3456  768.9985   1399.96  607.8331 1031.0332    0.1677
  weight sum            40        11      3236       110        27      1368       138        57       746       133        60        61       385        49       141       160       712       336        43       101       463       226       218       177        77        48         5
  precision         1.0065    1.0065    1.0065    1.0065    1.0065    1.0065    1.0065    1.0065    1.0065    1.0065    1.0065    1.0065    1.0065    1.0065    1.0065    1.0065    1.0065    1.0065    1.0065    1.0065    1.0065    1.0065    1.0065    1.0065    1.0065    1.0065    1.0065

1F4(Hz)
  mean           1232.6149 3254.3172  219.8428 2592.5352 3583.2931 3147.7453  903.7087 3318.1132 3199.5596 3346.2293 3016.1717 1898.9986 3176.0491 2748.5432 3305.2335 3243.3395 2913.9175 3213.9084 1527.7866 1852.0994 1498.0465 2916.4949  3074.217 1149.4479 3283.3059 2845.9981         0
  std. dev.      1683.3527  421.8444  852.9609 1468.1187   94.5502  796.1279 1489.2819  424.9439  841.1377  488.4351  763.1423 1657.0559 1017.7226 1428.0079  619.2737  561.6121 1121.3472  675.8153  1744.058 1679.9741 1714.3929 1061.2671  772.1011 1569.8968  626.3155 1125.6959    0.1717
  weight sum            40        11      3236       110        27      1368       138        57       746       133        60        61       385        49       141       160       712       336        43       101       463       226       218       177        77        48         5
  precision         1.0301    1.0301    1.0301    1.0301    1.0301    1.0301    1.0301    1.0301    1.0301    1.0301    1.0301    1.0301    1.0301    1.0301    1.0301    1.0301    1.0301    1.0301    1.0301    1.0301    1.0301    1.0301    1.0301    1.0301    1.0301    1.0301    1.0301





=== Stratified cross-validation ===

Correctly Classified Instances        2870               31.4417 %
Incorrectly Classified Instances      6258               68.5583 %
Kappa statistic                          0.2375
K&B Relative Info Score             189420.2702 %
K&B Information Score                 6453.766  bits      0.707  bits/instance
Class complexity | order 0           31017.8607 bits      3.3981 bits/instance
Class complexity | scheme           198992.9789 bits     21.8003 bits/instance
Complexity improvement     (Sf)    -167975.1182 bits    -18.4022 bits/instance
Mean absolute error                      0.0511
Root mean squared error                  0.2058
Relative absolute error                 83.0601 %
Root relative squared error            117.3721 %
Coverage of cases (0.95 level)          43.9527 %
Mean rel. region size (0.95 level)       9.2073 %
Total Number of Instances             9128     


=== Detailed Accuracy By Class ===

                 TP Rate  FP Rate  Precision  Recall   F-Measure  MCC      ROC Area  PRC Area  Class
                 0,125    0,003    0,143      0,125    0,133      0,130    0,763     0,062     ch
                 0,000    0,011    0,000      0,000    0,000      -0,004   0,837     0,005     rr
                 0,593    0,015    0,955      0,593    0,732      0,667    0,958     0,940     0
                 0,145    0,025    0,066      0,145    0,090      0,081    0,695     0,040     hs
                 0,778    0,143    0,016      0,778    0,031      0,098    0,925     0,072     hg
                 0,438    0,049    0,614      0,438    0,511      0,450    0,863     0,579     a
                 0,152    0,015    0,132      0,152    0,141      0,128    0,605     0,058     c
                 0,316    0,089    0,022      0,316    0,041      0,062    0,822     0,024     b
                 0,043    0,004    0,485      0,043    0,079      0,126    0,743     0,222     e
                 0,045    0,028    0,023      0,045    0,031      0,012    0,762     0,030     d
                 0,117    0,013    0,054      0,117    0,074      0,071    0,767     0,024     g
                 0,049    0,004    0,079      0,049    0,061      0,057    0,627     0,022     f
                 0,083    0,006    0,372      0,083    0,136      0,160    0,803     0,198     i
                 0,082    0,001    0,400      0,082    0,136      0,179    0,791     0,157     j
                 0,000    0,002    0,000      0,000    0,000      -0,006   0,783     0,038     m
                 0,219    0,044    0,082      0,219    0,119      0,108    0,817     0,060     l
                 0,013    0,004    0,205      0,013    0,024      0,033    0,712     0,158     o
                 0,024    0,025    0,035      0,024    0,028      -0,001   0,771     0,079     n
                 0,047    0,001    0,167      0,047    0,073      0,086    0,663     0,033     q
                 0,000    0,002    0,000      0,000    0,000      -0,005   0,653     0,028     p
                 0,147    0,005    0,607      0,147    0,237      0,283    0,675     0,278     s
                 0,009    0,003    0,063      0,009    0,016      0,014    0,699     0,051     r
                 0,138    0,006    0,357      0,138    0,199      0,210    0,837     0,193     u
                 0,124    0,017    0,129      0,124    0,126      0,109    0,635     0,070     t
                 0,000    0,001    0,000      0,000    0,000      -0,002   0,729     0,016     v
                 0,125    0,017    0,038      0,125    0,059      0,060    0,852     0,039     y
                 0,800    0,170    0,003      0,800    0,005      0,039    0,825     0,004     z
Weighted Avg.    0,314    0,018    0,556      0,314    0,380      0,354    0,833     0,489     


=== Confusion Matrix ===

    a    b    c    d    e    f    g    h    i    j    k    l    m    n    o    p    q    r    s    t    u    v    w    x    y    z   aa   <-- classified as
    5    1    6    2    0    4    1    3    0    1    0    0    0    0    0    1    0    1    0    0    7    0    0    3    0    0    5 |    a = ch
    0    0    0    0    6    3    0    1    0    0    1    0    0    0    0    0    0    0    0    0    0    0    0    0    0    0    0 |    b = rr
    0    3 1920   53   40    3    3   17    1   17    1    6    4    1    0    7    1   34    1    0    4    5    1   14    0   13 1087 |    c = 0
    0    2    0   16   38    3    0    5    0    2    1    2    0    0    0    7    0    2    0    0    0    2    0    3    0    5   22 |    d = hs
    0    0    0    0   21    0    0    1    0    1    0    0    1    0    0    1    0    2    0    0    0    0    0    0    0    0    0 |    e = hg
    2   14   10   17  208  599   22  129    4  116   23    1    7    1    0   75   19   19    5    7    9    5   19   19    2   10   26 |    f = a
    0    0   16    9    7    0   21    2    0    0    0    2    0    0    0    0    2    7    1    1    4    2    1    9    0    2   52 |    g = c
    0    2    0    0   20    5    0   18    0    1    1    0    0    0    0    6    0    1    0    0    0    0    2    0    0    1    0 |    h = b
    1   15    1   11  270   75   13  115   32   13   40    1   21    1    2   40    6   25    2    4   10    1    7   12    0    8   20 |    i = e
    0    5    1    2   44   12    0   35    0    6    6    0    0    0    0   16    0    1    0    0    0    0    0    1    0    4    0 |    j = d
    0    3    0    1   17    9    0   10    0    1    7    0    0    0    0    7    0    2    0    0    0    1    0    1    0    0    1 |    k = g
    0    2    0    6    8    5    4    5    0    0    0    3    0    0    0    3    0    3    0    0    0    1    0    1    0    2   18 |    l = f
    3    2    2   10   94   14   11   69   14    0   12    0   32    0    7   46    0   10    1    1    1    0    2   16    0   24   14 |    m = i
    0    1    0    7    5    7    1    4    1    0    1    2    1    4    0    1    0    4    0    0    1    3    0    0    0    0    6 |    n = j
    0    0    1    4   53   10    1   34    0    4    3    0    1    0    0   18    0    4    0    0    0    0    2    1    0    4    1 |    o = m
    0    2    0    1   59   11    1   40    0    0    1    0    0    0    0   35    0    2    0    1    0    0    1    3    0    2    1 |    p = l
    2   11    5   23  135   94   17  138    3   58    4    0    5    0    0   59    9   18    0    3    1    1   16   15    2   31   62 |    q = o
    0   20    0   15   97   27    0   84    1    5   12    1    4    0    0   36    0    8    0    0    0    0    0    3    0   18    5 |    r = n
    1    0    5    2    5    3    5    0    1    1    0    1    0    0    0    0    0    5    2    0    2    1    0    1    0    0    8 |    s = q
    0    2    7    5   13    7    6    5    0    2    0    5    1    0    0    0    0    9    0    0    0    1    1   12    0    2   23 |    t = p
   21    5   21   36   35   24   26   10    5    9    7    9    3    3    0    8    0   31    0    3   68    6    0   13    0    7  113 |    u = s
    0    1    0   18   50   27    3   25    1    9    6    1    1    0    0   41    1   12    0    0    0    2    1    4    0    3   20 |    v = r
    0    2    1    1   18   29    2   60    1    8    2    1    3    0    9   13    6    5    0    0    3    1   30   10    0   11    2 |    w = u
    0    4   14    5   16    1   19    1    0    2    1    3    2    0    0    0    0   18    0    2    0    0    1   22    1    1   64 |    x = t
    0    1    0    0   38    4    2   15    2    1    0    0    0    0    2    6    0    0    0    0    0    0    0    2    0    3    1 |    y = v
    0    0    0    0   22    0    1    2    0    0    0    0    0    0    1    3    0    4    0    0    2    0    0    5    0    6    2 |    z = y
    0    0    0    0    0    0    0    0    0    0    0    0    0    0    0    0    0    0    0    0    0    0    0    1    0    0    4 |   aa = z

=== Percent Confusion Matrix ===
a	b	c	d	e	f	g	h	i	j	k	l	m	n	o	p	q	r	s	t	u	v	w	x	y	z	aa	
12.5	2.5	15.0	5.0	0.0	10.0	2.5	7.5	0.0	2.5	0.0	0.0	0.0	0.0	0.0	2.5	0.0	2.5	0.0	0.0	17.5	0.0	0.0	7.5	0.0	0.0	12.5	 a = ch
0.0	0.0	0.0	0.0	54.55	27.27	0.0	9.09	0.0	0.0	9.09	0.0	0.0	0.0	0.0	0.0	0.0	0.0	0.0	0.0	0.0	0.0	0.0	0.0	0.0	0.0	0.0	 b = rr
0.0	0.09	59.33	1.64	1.24	0.09	0.09	0.53	0.03	0.53	0.03	0.19	0.12	0.03	0.0	0.22	0.03	1.05	0.03	0.0	0.12	0.15	0.03	0.43	0.0	0.4	33.59	 c = 0
0.0	1.82	0.0	14.55	34.55	2.73	0.0	4.55	0.0	1.82	0.91	1.82	0.0	0.0	0.0	6.36	0.0	1.82	0.0	0.0	0.0	1.82	0.0	2.73	0.0	4.55	20.0	 d = hs
0.0	0.0	0.0	0.0	77.78	0.0	0.0	3.7	0.0	3.7	0.0	0.0	3.7	0.0	0.0	3.7	0.0	7.41	0.0	0.0	0.0	0.0	0.0	0.0	0.0	0.0	0.0	 e = hg
0.15	1.02	0.73	1.24	15.2	43.79	1.61	9.43	0.29	8.48	1.68	0.07	0.51	0.07	0.0	5.48	1.39	1.39	0.37	0.51	0.66	0.37	1.39	1.39	0.15	0.73	1.9	 f = a
0.0	0.0	11.59	6.52	5.07	0.0	15.22	1.45	0.0	0.0	0.0	1.45	0.0	0.0	0.0	0.0	1.45	5.07	0.72	0.72	2.9	1.45	0.72	6.52	0.0	1.45	37.68	 g = c
0.0	3.51	0.0	0.0	35.09	8.77	0.0	31.58	0.0	1.75	1.75	0.0	0.0	0.0	0.0	10.53	0.0	1.75	0.0	0.0	0.0	0.0	3.51	0.0	0.0	1.75	0.0	 h = b
0.13	2.01	0.13	1.47	36.19	10.05	1.74	15.42	4.29	1.74	5.36	0.13	2.82	0.13	0.27	5.36	0.8	3.35	0.27	0.54	1.34	0.13	0.94	1.61	0.0	1.07	2.68	 i = e
0.0	3.76	0.75	1.5	33.08	9.02	0.0	26.32	0.0	4.51	4.51	0.0	0.0	0.0	0.0	12.03	0.0	0.75	0.0	0.0	0.0	0.0	0.0	0.75	0.0	3.01	0.0	 j = d
0.0	5.0	0.0	1.67	28.33	15.0	0.0	16.67	0.0	1.67	11.67	0.0	0.0	0.0	0.0	11.67	0.0	3.33	0.0	0.0	0.0	1.67	0.0	1.67	0.0	0.0	1.67	 k = g
0.0	3.28	0.0	9.84	13.11	8.2	6.56	8.2	0.0	0.0	0.0	4.92	0.0	0.0	0.0	4.92	0.0	4.92	0.0	0.0	0.0	1.64	0.0	1.64	0.0	3.28	29.51	 l = f
0.78	0.52	0.52	2.6	24.42	3.64	2.86	17.92	3.64	0.0	3.12	0.0	8.31	0.0	1.82	11.95	0.0	2.6	0.26	0.26	0.26	0.0	0.52	4.16	0.0	6.23	3.64	 m = i
0.0	2.04	0.0	14.29	10.2	14.29	2.04	8.16	2.04	0.0	2.04	4.08	2.04	8.16	0.0	2.04	0.0	8.16	0.0	0.0	2.04	6.12	0.0	0.0	0.0	0.0	12.24	 n = j
0.0	0.0	0.71	2.84	37.59	7.09	0.71	24.11	0.0	2.84	2.13	0.0	0.71	0.0	0.0	12.77	0.0	2.84	0.0	0.0	0.0	0.0	1.42	0.71	0.0	2.84	0.71	 o = m
0.0	1.25	0.0	0.63	36.88	6.88	0.63	25.0	0.0	0.0	0.63	0.0	0.0	0.0	0.0	21.88	0.0	1.25	0.0	0.63	0.0	0.0	0.63	1.88	0.0	1.25	0.63	 p = l
0.28	1.54	0.7	3.23	18.96	13.2	2.39	19.38	0.42	8.15	0.56	0.0	0.7	0.0	0.0	8.29	1.26	2.53	0.0	0.42	0.14	0.14	2.25	2.11	0.28	4.35	8.71	 q = o
0.0	5.95	0.0	4.46	28.87	8.04	0.0	25.0	0.3	1.49	3.57	0.3	1.19	0.0	0.0	10.71	0.0	2.38	0.0	0.0	0.0	0.0	0.0	0.89	0.0	5.36	1.49	 r = n
2.33	0.0	11.63	4.65	11.63	6.98	11.63	0.0	2.33	2.33	0.0	2.33	0.0	0.0	0.0	0.0	0.0	11.63	4.65	0.0	4.65	2.33	0.0	2.33	0.0	0.0	18.6	 s = q
0.0	1.98	6.93	4.95	12.87	6.93	5.94	4.95	0.0	1.98	0.0	4.95	0.99	0.0	0.0	0.0	0.0	8.91	0.0	0.0	0.0	0.99	0.99	11.88	0.0	1.98	22.77	 t = p
4.54	1.08	4.54	7.78	7.56	5.18	5.62	2.16	1.08	1.94	1.51	1.94	0.65	0.65	0.0	1.73	0.0	6.7	0.0	0.65	14.69	1.3	0.0	2.81	0.0	1.51	24.41	 u = s
0.0	0.44	0.0	7.96	22.12	11.95	1.33	11.06	0.44	3.98	2.65	0.44	0.44	0.0	0.0	18.14	0.44	5.31	0.0	0.0	0.0	0.88	0.44	1.77	0.0	1.33	8.85	 v = r
0.0	0.92	0.46	0.46	8.26	13.3	0.92	27.52	0.46	3.67	0.92	0.46	1.38	0.0	4.13	5.96	2.75	2.29	0.0	0.0	1.38	0.46	13.76	4.59	0.0	5.05	0.92	 w = u
0.0	2.26	7.91	2.82	9.04	0.56	10.73	0.56	0.0	1.13	0.56	1.69	1.13	0.0	0.0	0.0	0.0	10.17	0.0	1.13	0.0	0.0	0.56	12.43	0.56	0.56	36.16	 x = t
0.0	1.3	0.0	0.0	49.35	5.19	2.6	19.48	2.6	1.3	0.0	0.0	0.0	0.0	2.6	7.79	0.0	0.0	0.0	0.0	0.0	0.0	0.0	2.6	0.0	3.9	1.3	 y = v
0.0	0.0	0.0	0.0	45.83	0.0	2.08	4.17	0.0	0.0	0.0	0.0	0.0	0.0	2.08	6.25	0.0	8.33	0.0	0.0	4.17	0.0	0.0	10.42	0.0	12.5	4.17	 z = y
0.0	0.0	0.0	0.0	0.0	0.0	0.0	0.0	0.0	0.0	0.0	0.0	0.0	0.0	0.0	0.0	0.0	0.0	0.0	0.0	0.0	0.0	0.0	20.0	0.0	0.0	80.0	 aa = z
