Timestamp:2013-07-22-20:34:21
Inventario:I0
Intervalo:2ms
Ngramas:5
Clasificador:RandomForest
Relation Name:  I0-2ms-5gramas
Num Instances:  91699
Num Attributes: 51

     Name                      Type  Nom  Int Real     Missing      Unique  Dist
   1 0Int(dB)                   Num   0%   9%  91%     0 /  0%     4 /  0%   779 
   2 0Pitch(Hz)                 Num   0%  52%  48%     0 /  0%   471 /  1%  4016 
   3 0RawPitch                  Num   0%  55%  45%     0 /  0%   550 /  1%  4014 
   4 0SmPitch                   Num   0%  53%  47%     0 /  0%   491 /  1%  3998 
   5 0Melogram(st)              Num   0%  49%  51%     0 /  0%   212 /  0%  3363 
   6 0ZCross                    Num   0% 100%   0%     0 /  0%     6 /  0%    54 
   7 0F1(Hz)                    Num   0%  52%  48%     0 /  0%  1126 /  1%  4776 
   8 0F2(Hz)                    Num   0%  52%  48%     0 /  0%  2304 /  3%  6727 
   9 0F3(Hz)                    Num   0%  52%  48%     0 /  0%  1967 /  2%  6224 
  10 0F4(Hz)                    Num   0%  52%  48%     0 /  0%  1884 /  2%  6074 
  11 1Int(dB)                   Num   0%   9%  91%     0 /  0%     4 /  0%   779 
  12 1Pitch(Hz)                 Num   0%  52%  48%     0 /  0%   471 /  1%  4016 
  13 1RawPitch                  Num   0%  55%  45%     0 /  0%   550 /  1%  4014 
  14 1SmPitch                   Num   0%  53%  47%     0 /  0%   491 /  1%  3998 
  15 1Melogram(st)              Num   0%  49%  51%     0 /  0%   212 /  0%  3363 
  16 1ZCross                    Num   0% 100%   0%     0 /  0%     6 /  0%    54 
  17 1F1(Hz)                    Num   0%  52%  48%     0 /  0%  1126 /  1%  4776 
  18 1F2(Hz)                    Num   0%  52%  48%     0 /  0%  2304 /  3%  6727 
  19 1F3(Hz)                    Num   0%  52%  48%     0 /  0%  1967 /  2%  6224 
  20 1F4(Hz)                    Num   0%  52%  48%     0 /  0%  1884 /  2%  6074 
  21 2Int(dB)                   Num   0%   9%  91%     0 /  0%     4 /  0%   779 
  22 2Pitch(Hz)                 Num   0%  52%  48%     0 /  0%   471 /  1%  4016 
  23 2RawPitch                  Num   0%  55%  45%     0 /  0%   550 /  1%  4014 
  24 2SmPitch                   Num   0%  53%  47%     0 /  0%   491 /  1%  3998 
  25 2Melogram(st)              Num   0%  49%  51%     0 /  0%   212 /  0%  3363 
  26 2ZCross                    Num   0% 100%   0%     0 /  0%     6 /  0%    54 
  27 2F1(Hz)                    Num   0%  52%  48%     0 /  0%  1126 /  1%  4776 
  28 2F2(Hz)                    Num   0%  52%  48%     0 /  0%  2304 /  3%  6727 
  29 2F3(Hz)                    Num   0%  52%  48%     0 /  0%  1967 /  2%  6224 
  30 2F4(Hz)                    Num   0%  52%  48%     0 /  0%  1884 /  2%  6074 
  31 3Int(dB)                   Num   0%   9%  91%     0 /  0%     5 /  0%   780 
  32 3Pitch(Hz)                 Num   0%  52%  48%     0 /  0%   471 /  1%  4016 
  33 3RawPitch                  Num   0%  55%  45%     0 /  0%   550 /  1%  4014 
  34 3SmPitch                   Num   0%  53%  47%     0 /  0%   491 /  1%  3998 
  35 3Melogram(st)              Num   0%  49%  51%     0 /  0%   212 /  0%  3363 
  36 3ZCross                    Num   0% 100%   0%     0 /  0%     6 /  0%    54 
  37 3F1(Hz)                    Num   0%  52%  48%     0 /  0%  1126 /  1%  4776 
  38 3F2(Hz)                    Num   0%  52%  48%     0 /  0%  2304 /  3%  6727 
  39 3F3(Hz)                    Num   0%  52%  48%     0 /  0%  1967 /  2%  6224 
  40 3F4(Hz)                    Num   0%  52%  48%     0 /  0%  1884 /  2%  6074 
  41 4Int(dB)                   Num   0%   9%  91%     0 /  0%     6 /  0%   781 
  42 4Pitch(Hz)                 Num   0%  52%  48%     0 /  0%   471 /  1%  4016 
  43 4RawPitch                  Num   0%  55%  45%     0 /  0%   550 /  1%  4014 
  44 4SmPitch                   Num   0%  53%  47%     0 /  0%   491 /  1%  3998 
  45 4Melogram(st)              Num   0%  49%  51%     0 /  0%   212 /  0%  3363 
  46 4ZCross                    Num   0% 100%   0%     0 /  0%     6 /  0%    54 
  47 4F1(Hz)                    Num   0%  52%  48%     0 /  0%  1126 /  1%  4776 
  48 4F2(Hz)                    Num   0%  52%  48%     0 /  0%  2304 /  3%  6727 
  49 4F3(Hz)                    Num   0%  52%  48%     0 /  0%  1967 /  2%  6224 
  50 4F4(Hz)                    Num   0%  52%  48%     0 /  0%  1884 /  2%  6074 
  51 class                      Nom 100%   0%   0%     0 /  0%     0 /  0%    27 


Options: -I 10 -K 0 -S 1 -num-slots 4 

Random forest of 10 trees, each constructed while considering 6 random features.
Out of bag error: 0.1538





=== Stratified cross-validation ===

Correctly Classified Instances       81107               88.4492 %
Incorrectly Classified Instances     10592               11.5508 %
Kappa statistic                          0.855 
K&B Relative Info Score            7541303.8253 %
K&B Information Score               248266.3774 bits      2.7074 bits/instance
Class complexity | order 0          301792.8497 bits      3.2911 bits/instance
Class complexity | scheme          4373085.2288 bits     47.6896 bits/instance
Complexity improvement     (Sf)    -4071292.379 bits    -44.3984 bits/instance
Mean absolute error                      0.0148
Root mean squared error                  0.0826
Relative absolute error                 24.7817 %
Root relative squared error             47.7404 %
Coverage of cases (0.95 level)          95.5932 %
Mean rel. region size (0.95 level)       7.9042 %
Total Number of Instances            91699     


=== Detailed Accuracy By Class ===

                 TP Rate  FP Rate  Precision  Recall   F-Measure  MCC      ROC Area  PRC Area  Class
                 0,378    0,001    0,549      0,378    0,448      0,453    0,832     0,406     ch
                 0,954    0,000    0,937      0,954    0,945      0,945    1,000     0,982     rr
                 0,960    0,076    0,890      0,960    0,924      0,874    0,984     0,967     0
                 0,654    0,001    0,836      0,654    0,734      0,737    0,882     0,693     hs
                 0,919    0,000    0,966      0,919    0,942      0,942    1,000     0,979     hg
                 0,949    0,011    0,935      0,949    0,942      0,932    0,986     0,969     a
                 0,334    0,007    0,416      0,334    0,371      0,364    0,827     0,308     c
                 0,927    0,000    0,965      0,927    0,945      0,945    0,998     0,969     b
                 0,918    0,007    0,909      0,918    0,914      0,907    0,980     0,946     e
                 0,914    0,001    0,947      0,914    0,930      0,929    0,995     0,962     d
                 0,877    0,000    0,939      0,877    0,907      0,907    0,975     0,932     g
                 0,490    0,002    0,589      0,490    0,535      0,534    0,885     0,503     f
                 0,901    0,003    0,918      0,901    0,909      0,906    0,975     0,930     i
                 0,678    0,001    0,839      0,678    0,750      0,753    0,905     0,731     j
                 0,938    0,001    0,957      0,938    0,948      0,947    0,991     0,968     m
                 0,912    0,001    0,942      0,912    0,927      0,925    0,993     0,962     l
                 0,858    0,005    0,931      0,858    0,893      0,886    0,959     0,903     o
                 0,922    0,002    0,950      0,922    0,936      0,934    0,986     0,956     n
                 0,377    0,001    0,681      0,377    0,485      0,505    0,824     0,453     q
                 0,426    0,003    0,622      0,426    0,506      0,510    0,839     0,463     p
                 0,737    0,015    0,717      0,737    0,727      0,713    0,949     0,762     s
                 0,778    0,002    0,906      0,778    0,837      0,836    0,951     0,848     r
                 0,926    0,001    0,963      0,926    0,944      0,943    0,989     0,964     u
                 0,327    0,007    0,477      0,327    0,388      0,385    0,840     0,344     t
                 0,908    0,000    0,955      0,908    0,931      0,931    0,989     0,948     v
                 0,818    0,000    0,926      0,818    0,869      0,870    0,953     0,868     y
                 0,000    0,000    0,000      0,000    0,000      -0,000   0,589     0,004     z
Weighted Avg.    0,884    0,034    0,879      0,884    0,880      0,857    0,970     0,906     


=== Confusion Matrix ===

     a     b     c     d     e     f     g     h     i     j     k     l     m     n     o     p     q     r     s     t     u     v     w     x     y     z    aa   <-- classified as
   162     0    64     1     0     8    26     0     6     0     0     3     0     1     0     0     3     1     5     2   126     2     0    18     1     0     0 |     a = ch
     0   104     0     0     0     1     0     0     2     0     0     0     0     0     0     0     2     0     0     0     0     0     0     0     0     0     0 |     b = rr
    11     0 34401    49     1   157   133     4   153    10    10    39    65    12     9    18   138    27    18    55   307    38    12   149     4     7     2 |     c = 0
     7     0   231   641     0     9     7     0     7     0     0     1     3     1     0     1    10     3     0    10    37     3     1     7     0     0     1 |     d = hs
     0     0     4     0   227     6     0     0     6     0     0     0     3     0     0     0     0     0     0     0     0     0     1     0     0     0     0 |     e = hg
     4     1   278     4     3 12441    60     3    36     8     5    10    17     0     6    22    19    21     1    15    55    34     4    53     2     4     0 |     f = a
    28     0   443     4     0    67   455     0    32     0     0    13     9     7     2     1    25     0    29    17   124     6     3    93     1     1     1 |     g = c
     0     0     3     0     0    12     0   555     6     0     0     0    10     0     3     0     2     0     0     0     0     3     5     0     0     0     0 |     h = b
     3     5   239    13     2    52    28     0  6345    13     4     5    16     1    10    12    19    21     3    15    31    21     7    32    11     2     0 |     i = e
     0     0    20     3     0    19     0     0    25  1200     0     0     2     1     0     1    25     9     0     0     1     2     2     1     1     1     0 |     j = d
     0     0    21     0     0    12     1     0    11     0   477     2     2     0     0     0     1     1     0     0     8     1     2     5     0     0     0 |     k = g
     2     0    84     0     0    13    15     0     7     0     1   285     5     4     0     0    10     4     2    11   123     5     0     9     0     0     2 |     l = f
     2     0   147     3     1    31    11     2    42     3     1     1  3207     3     4     7     6     5     1    15    25    10     5    21     7     1     0 |     m = i
     0     0    35     2     0    11    16     0     4     0     0     7     0   333     1     0     0     5     0     1    63     1     1    11     0     0     0 |     n = j
     0     0    23     0     0     7     0     1     9     0     0     0    12     0  1230     0    10     0     0     1     0     0     9     9     0     0     0 |     o = m
     0     0    31     0     0    52     1     0    15     0     0     0    10     0     0  1471    14     5     0     1     4     2     4     3     0     0     0 |     p = l
     6     1   617     9     1    59    25     0    38    18     1     9    19     4    12    10  5700    19     0    13    48     7     4    23     2     1     0 |     q = o
     0     0    80     6     0    39     2     0    35    11     1     2     1     3     1     6    23  2917     0     1    23     4     2     7     0     0     0 |     r = n
    16     0   110     3     0     2    62     0    14     0     0     2     8     0     0     0     1     1   158     0    35     0     1     6     0     0     0 |     s = q
     3     0   283     6     0    38    38     0    33     1     0     6    14     2     3     1    15     1     0   428    62     6     2    61     1     1     0 |     t = p
    34     0   690     9     0    54    74     0    30     0     3    78    15    14     0     2    26     2     8    47  3259     3     2    66     0     4     3 |     u = s
     3     0   160     4     0   105    13     5    51     2     3     9    17     1     0     3    22     5     0     5    29  1621     3    19     0     3     1 |     v = r
     1     0    29     0     0    13    18     5    14     0     2     1    16     4     2     5    12     4     2     1     4     2  1927    14     0     4     0 |     w = u
    12     0   621     9     0    75   105     0    44     1     0     8    30     6     2     0    30    16     5    44   123    15     2   559     0     0     3 |     x = t
     0     0    14     0     0    13     2     0    11     0     0     0    10     0     0     0     7     2     0     1     0     1     0     4   639     0     0 |     y = v
     1     0    10     1     0     9     1     0     2     0     0     2     2     0     0     2     2     0     0     2    42     3     2     0     0   365     0 |     z = y
     0     0    12     0     0     0     1     0     0     0     0     1     0     0     0     0     0     0     0     3    14     0     0     2     0     0     0 |    aa = z

=== Percent Confusion Matrix ===
a	b	c	d	e	f	g	h	i	j	k	l	m	n	o	p	q	r	s	t	u	v	w	x	y	z	aa	
37.76	0.0	14.92	0.23	0.0	1.86	6.06	0.0	1.4	0.0	0.0	0.7	0.0	0.23	0.0	0.0	0.7	0.23	1.17	0.47	29.37	0.47	0.0	4.2	0.23	0.0	0.0	 a = ch
0.0	95.41	0.0	0.0	0.0	0.92	0.0	0.0	1.83	0.0	0.0	0.0	0.0	0.0	0.0	0.0	1.83	0.0	0.0	0.0	0.0	0.0	0.0	0.0	0.0	0.0	0.0	 b = rr
0.03	0.0	96.01	0.14	0.0	0.44	0.37	0.01	0.43	0.03	0.03	0.11	0.18	0.03	0.03	0.05	0.39	0.08	0.05	0.15	0.86	0.11	0.03	0.42	0.01	0.02	0.01	 c = 0
0.71	0.0	23.57	65.41	0.0	0.92	0.71	0.0	0.71	0.0	0.0	0.1	0.31	0.1	0.0	0.1	1.02	0.31	0.0	1.02	3.78	0.31	0.1	0.71	0.0	0.0	0.1	 d = hs
0.0	0.0	1.62	0.0	91.9	2.43	0.0	0.0	2.43	0.0	0.0	0.0	1.21	0.0	0.0	0.0	0.0	0.0	0.0	0.0	0.0	0.0	0.4	0.0	0.0	0.0	0.0	 e = hg
0.03	0.01	2.12	0.03	0.02	94.93	0.46	0.02	0.27	0.06	0.04	0.08	0.13	0.0	0.05	0.17	0.14	0.16	0.01	0.11	0.42	0.26	0.03	0.4	0.02	0.03	0.0	 f = a
2.06	0.0	32.55	0.29	0.0	4.92	33.43	0.0	2.35	0.0	0.0	0.96	0.66	0.51	0.15	0.07	1.84	0.0	2.13	1.25	9.11	0.44	0.22	6.83	0.07	0.07	0.07	 g = c
0.0	0.0	0.5	0.0	0.0	2.0	0.0	92.65	1.0	0.0	0.0	0.0	1.67	0.0	0.5	0.0	0.33	0.0	0.0	0.0	0.0	0.5	0.83	0.0	0.0	0.0	0.0	 h = b
0.04	0.07	3.46	0.19	0.03	0.75	0.41	0.0	91.82	0.19	0.06	0.07	0.23	0.01	0.14	0.17	0.27	0.3	0.04	0.22	0.45	0.3	0.1	0.46	0.16	0.03	0.0	 i = e
0.0	0.0	1.52	0.23	0.0	1.45	0.0	0.0	1.9	91.39	0.0	0.0	0.15	0.08	0.0	0.08	1.9	0.69	0.0	0.0	0.08	0.15	0.15	0.08	0.08	0.08	0.0	 j = d
0.0	0.0	3.86	0.0	0.0	2.21	0.18	0.0	2.02	0.0	87.68	0.37	0.37	0.0	0.0	0.0	0.18	0.18	0.0	0.0	1.47	0.18	0.37	0.92	0.0	0.0	0.0	 k = g
0.34	0.0	14.43	0.0	0.0	2.23	2.58	0.0	1.2	0.0	0.17	48.97	0.86	0.69	0.0	0.0	1.72	0.69	0.34	1.89	21.13	0.86	0.0	1.55	0.0	0.0	0.34	 l = f
0.06	0.0	4.13	0.08	0.03	0.87	0.31	0.06	1.18	0.08	0.03	0.03	90.06	0.08	0.11	0.2	0.17	0.14	0.03	0.42	0.7	0.28	0.14	0.59	0.2	0.03	0.0	 m = i
0.0	0.0	7.13	0.41	0.0	2.24	3.26	0.0	0.81	0.0	0.0	1.43	0.0	67.82	0.2	0.0	0.0	1.02	0.0	0.2	12.83	0.2	0.2	2.24	0.0	0.0	0.0	 n = j
0.0	0.0	1.75	0.0	0.0	0.53	0.0	0.08	0.69	0.0	0.0	0.0	0.92	0.0	93.82	0.0	0.76	0.0	0.0	0.08	0.0	0.0	0.69	0.69	0.0	0.0	0.0	 o = m
0.0	0.0	1.92	0.0	0.0	3.22	0.06	0.0	0.93	0.0	0.0	0.0	0.62	0.0	0.0	91.2	0.87	0.31	0.0	0.06	0.25	0.12	0.25	0.19	0.0	0.0	0.0	 p = l
0.09	0.02	9.28	0.14	0.02	0.89	0.38	0.0	0.57	0.27	0.02	0.14	0.29	0.06	0.18	0.15	85.77	0.29	0.0	0.2	0.72	0.11	0.06	0.35	0.03	0.02	0.0	 q = o
0.0	0.0	2.53	0.19	0.0	1.23	0.06	0.0	1.11	0.35	0.03	0.06	0.03	0.09	0.03	0.19	0.73	92.19	0.0	0.03	0.73	0.13	0.06	0.22	0.0	0.0	0.0	 r = n
3.82	0.0	26.25	0.72	0.0	0.48	14.8	0.0	3.34	0.0	0.0	0.48	1.91	0.0	0.0	0.0	0.24	0.24	37.71	0.0	8.35	0.0	0.24	1.43	0.0	0.0	0.0	 s = q
0.3	0.0	28.16	0.6	0.0	3.78	3.78	0.0	3.28	0.1	0.0	0.6	1.39	0.2	0.3	0.1	1.49	0.1	0.0	42.59	6.17	0.6	0.2	6.07	0.1	0.1	0.0	 t = p
0.77	0.0	15.6	0.2	0.0	1.22	1.67	0.0	0.68	0.0	0.07	1.76	0.34	0.32	0.0	0.05	0.59	0.05	0.18	1.06	73.68	0.07	0.05	1.49	0.0	0.09	0.07	 u = s
0.14	0.0	7.68	0.19	0.0	5.04	0.62	0.24	2.45	0.1	0.14	0.43	0.82	0.05	0.0	0.14	1.06	0.24	0.0	0.24	1.39	77.78	0.14	0.91	0.0	0.14	0.05	 v = r
0.05	0.0	1.39	0.0	0.0	0.63	0.87	0.24	0.67	0.0	0.1	0.05	0.77	0.19	0.1	0.24	0.58	0.19	0.1	0.05	0.19	0.1	92.64	0.67	0.0	0.19	0.0	 w = u
0.7	0.0	36.32	0.53	0.0	4.39	6.14	0.0	2.57	0.06	0.0	0.47	1.75	0.35	0.12	0.0	1.75	0.94	0.29	2.57	7.19	0.88	0.12	32.69	0.0	0.0	0.18	 x = t
0.0	0.0	1.99	0.0	0.0	1.85	0.28	0.0	1.56	0.0	0.0	0.0	1.42	0.0	0.0	0.0	0.99	0.28	0.0	0.14	0.0	0.14	0.0	0.57	90.77	0.0	0.0	 y = v
0.22	0.0	2.24	0.22	0.0	2.02	0.22	0.0	0.45	0.0	0.0	0.45	0.45	0.0	0.0	0.45	0.45	0.0	0.0	0.45	9.42	0.67	0.45	0.0	0.0	81.84	0.0	 z = y
0.0	0.0	36.36	0.0	0.0	0.0	3.03	0.0	0.0	0.0	0.0	3.03	0.0	0.0	0.0	0.0	0.0	0.0	0.0	9.09	42.42	0.0	0.0	6.06	0.0	0.0	0.0	 aa = z
