Timestamp:2013-07-22-20:27:07
Inventario:I0
Intervalo:2ms
Ngramas:1
Clasificador:RandomForest
Relation Name:  I0-2ms-1gramas
Num Instances:  91703
Num Attributes: 11

     Name                      Type  Nom  Int Real     Missing      Unique  Dist
   1 0Int(dB)                   Num   0%   9%  91%     0 /  0%     6 /  0%   781 
   2 0Pitch(Hz)                 Num   0%  52%  48%     0 /  0%   471 /  1%  4016 
   3 0RawPitch                  Num   0%  55%  45%     0 /  0%   550 /  1%  4014 
   4 0SmPitch                   Num   0%  53%  47%     0 /  0%   491 /  1%  3998 
   5 0Melogram(st)              Num   0%  49%  51%     0 /  0%   212 /  0%  3363 
   6 0ZCross                    Num   0% 100%   0%     0 /  0%     6 /  0%    54 
   7 0F1(Hz)                    Num   0%  52%  48%     0 /  0%  1126 /  1%  4776 
   8 0F2(Hz)                    Num   0%  52%  48%     0 /  0%  2304 /  3%  6727 
   9 0F3(Hz)                    Num   0%  52%  48%     0 /  0%  1967 /  2%  6224 
  10 0F4(Hz)                    Num   0%  52%  48%     0 /  0%  1884 /  2%  6074 
  11 class                      Nom 100%   0%   0%     0 /  0%     0 /  0%    27 


Options: -I 10 -K 0 -S 1 -num-slots 4 

Random forest of 10 trees, each constructed while considering 4 random features.
Out of bag error: 0.1476





=== Stratified cross-validation ===

Correctly Classified Instances       80720               88.0233 %
Incorrectly Classified Instances     10983               11.9767 %
Kappa statistic                          0.8485
K&B Relative Info Score            7485686.3749 %
K&B Information Score               246428.4898 bits      2.6872 bits/instance
Class complexity | order 0          301798.2727 bits      3.291  bits/instance
Class complexity | scheme          2480979.0126 bits     27.0545 bits/instance
Complexity improvement     (Sf)    -2179180.74 bits    -23.7635 bits/instance
Mean absolute error                      0.0146
Root mean squared error                  0.0825
Relative absolute error                 24.4236 %
Root relative squared error             47.6727 %
Coverage of cases (0.95 level)          96.6272 %
Mean rel. region size (0.95 level)       9.2785 %
Total Number of Instances            91703     


=== Detailed Accuracy By Class ===

                 TP Rate  FP Rate  Precision  Recall   F-Measure  MCC      ROC Area  PRC Area  Class
                 0,319    0,001    0,548      0,319    0,404      0,416    0,774     0,310     ch
                 0,917    0,000    0,952      0,917    0,935      0,935    0,991     0,951     rr
                 0,971    0,095    0,867      0,971    0,916      0,861    0,987     0,980     0
                 0,608    0,001    0,924      0,608    0,734      0,748    0,930     0,673     hs
                 0,899    0,000    0,969      0,899    0,933      0,933    0,988     0,953     hg
                 0,945    0,009    0,947      0,945    0,946      0,937    0,988     0,971     a
                 0,278    0,003    0,582      0,278    0,377      0,397    0,882     0,331     c
                 0,915    0,000    0,927      0,915    0,921      0,921    0,995     0,954     b
                 0,916    0,006    0,922      0,916    0,919      0,912    0,986     0,949     e
                 0,901    0,001    0,931      0,901    0,916      0,915    0,991     0,946     d
                 0,860    0,000    0,955      0,860    0,905      0,906    0,970     0,908     g
                 0,392    0,001    0,826      0,392    0,531      0,567    0,937     0,493     f
                 0,900    0,003    0,932      0,900    0,916      0,913    0,979     0,934     i
                 0,666    0,001    0,870      0,666    0,754      0,760    0,925     0,699     j
                 0,924    0,001    0,953      0,924    0,938      0,937    0,989     0,956     m
                 0,908    0,001    0,928      0,908    0,918      0,916    0,989     0,951     l
                 0,847    0,004    0,944      0,847    0,893      0,886    0,977     0,914     o
                 0,910    0,002    0,946      0,910    0,927      0,925    0,985     0,942     n
                 0,375    0,001    0,741      0,375    0,498      0,525    0,804     0,414     q
                 0,393    0,001    0,804      0,393    0,528      0,559    0,905     0,496     p
                 0,712    0,024    0,599      0,712    0,650      0,634    0,968     0,728     s
                 0,742    0,002    0,920      0,742    0,822      0,823    0,956     0,829     r
                 0,933    0,001    0,966      0,933    0,949      0,948    0,989     0,964     u
                 0,275    0,003    0,618      0,275    0,381      0,405    0,902     0,369     t
                 0,884    0,000    0,948      0,884    0,915      0,915    0,990     0,937     v
                 0,791    0,000    0,915      0,791    0,849      0,850    0,942     0,827     y
                 0,000    0,000    0,000      0,000    0,000      0,000    0,767     0,010     z
Weighted Avg.    0,880    0,041    0,878      0,880    0,873      0,850    0,977     0,909     


=== Confusion Matrix ===

     a     b     c     d     e     f     g     h     i     j     k     l     m     n     o     p     q     r     s     t     u     v     w     x     y     z    aa   <-- classified as
   137     0    75     0     0     7    11     0     3     0     0     1     1     1     0     0     2     1     8     0   167     0     1    13     0     1     0 |     a = ch
     0   100     0     0     0     1     0     0     5     0     0     0     0     0     0     0     2     1     0     0     0     0     0     0     0     0     0 |     b = rr
     7     0 34794    12     2   119    43     4   104    18     6    12    54     6    13    17    49    28     5    16   441    24    10    41     4     4     0 |     c = 0
     0     0   306   596     0    13     0     0     8     1     0     1     1     0     0     0     3     0     0     1    41     4     2     3     0     0     0 |     d = hs
     0     0     3     0   222     8     0     0     7     0     0     0     2     0     0     0     1     1     0     0     0     2     1     0     0     0     0 |     e = hg
     3     2   338     9     1 12388    19     5    28    12     6     0    18     5     7    29    31    20     1    13   103    27     2    31     6     2     0 |     f = a
    13     0   537     0     0    25   379     0    16     0     0     5     4    11     0     1    25     2     9     8   270     6     6    43     0     1     0 |     g = c
     0     0     6     0     0    18     0   548     5     1     0     0     9     0     2     0     1     2     0     0     0     4     3     0     0     0     0 |     h = b
     1     2   286     7     3    33    14     3  6327    12     3     2    18     2     8     9    20    33     2     7    58    18    10    23     8     1     0 |     i = e
     0     0    19     2     0    25     0     0    21  1183     0     0     4     0     0     0    31    12     0     0     6     7     2     1     0     0     0 |     j = d
     0     0    31     0     0    16     1     0    12     0   468     0     2     0     0     0     1     0     0     0     7     1     2     2     0     1     0 |     k = g
     0     0   120     0     0     2     1     1     6     0     0   228     2     2     0     0     3     3     1     1   197     5     0    10     0     0     0 |     l = f
     0     0   188     2     0    19     3    11    33     2     1     1  3206     0     2    10     6     3     3     9    36     2     4    15     4     1     0 |     m = i
     1     0    44     0     0     9     8     0     5     0     0     1     0   327     1     0     0     0     0     0    87     1     1     4     0     2     0 |     n = j
     0     0    28     0     0     7     0     2    14     0     0     1    15     0  1211     2    14     4     0     0     5     1     4     3     0     0     0 |     o = m
     0     0    31     1     0    52     3     1    23     1     0     0    11     0     3  1464    11     6     0     0     2     1     2     0     0     1     0 |     p = l
     2     0   693     5     1    60    11     4    31    20     0     4     8     0    10    16  5631    20     4     9    83     5     5    15     6     3     0 |     q = o
     1     0   118     1     0    40     0     2    40     7     1     0     5     0     2     7    19  2878     0     1    35     2     0     5     0     0     0 |     r = n
    15     0   121     0     0     7    20     0    11     0     0     1     1     2     0     0     3     0   157     4    71     0     1     5     0     0     0 |     s = q
     0     0   391     0     0    22    15     0    25     0     0     1     9     1     0     3    11     0     2   395   109     7     0    13     0     1     0 |     t = p
    61     0   946     4     0    42    63     0    10     2     1    16    14    13     1     3    10     1    15     8  3148     2     3    49     3     8     0 |     u = s
     0     1   224     2     0    99     5     4    65     6     2     1    15     2     0     6    28     4     0     4    59  1547     1     6     2     1     0 |     v = r
     1     0    37     1     0     5     2     4    15     4     2     0     9     0     7     6    17     6     2     1     8     2  1941     5     0     5     0 |     w = u
     7     0   738     2     0    53    48     0    26     2     0     1    19     2     3     2    33    16     3    12   259     9     4   470     1     0     0 |     x = t
     0     0    14     0     0     9     3     2    20     0     0     0    10     0     1     1    12     1     0     1     3     2     0     2   622     1     0 |     y = v
     1     0    17     1     0     4     2     0     3     0     0     0     2     2     0     2     4     0     0     0    47     3     5     0     0   353     0 |     z = y
     0     0    14     0     0     0     0     0     0     0     0     0     0     0     0     0     0     0     0     1    17     0     0     1     0     0     0 |    aa = z

=== Percent Confusion Matrix ===
a	b	c	d	e	f	g	h	i	j	k	l	m	n	o	p	q	r	s	t	u	v	w	x	y	z	aa	
31.93	0.0	17.48	0.0	0.0	1.63	2.56	0.0	0.7	0.0	0.0	0.23	0.23	0.23	0.0	0.0	0.47	0.23	1.86	0.0	38.93	0.0	0.23	3.03	0.0	0.23	0.0	 a = ch
0.0	91.74	0.0	0.0	0.0	0.92	0.0	0.0	4.59	0.0	0.0	0.0	0.0	0.0	0.0	0.0	1.83	0.92	0.0	0.0	0.0	0.0	0.0	0.0	0.0	0.0	0.0	 b = rr
0.02	0.0	97.1	0.03	0.01	0.33	0.12	0.01	0.29	0.05	0.02	0.03	0.15	0.02	0.04	0.05	0.14	0.08	0.01	0.04	1.23	0.07	0.03	0.11	0.01	0.01	0.0	 c = 0
0.0	0.0	31.22	60.82	0.0	1.33	0.0	0.0	0.82	0.1	0.0	0.1	0.1	0.0	0.0	0.0	0.31	0.0	0.0	0.1	4.18	0.41	0.2	0.31	0.0	0.0	0.0	 d = hs
0.0	0.0	1.21	0.0	89.88	3.24	0.0	0.0	2.83	0.0	0.0	0.0	0.81	0.0	0.0	0.0	0.4	0.4	0.0	0.0	0.0	0.81	0.4	0.0	0.0	0.0	0.0	 e = hg
0.02	0.02	2.58	0.07	0.01	94.52	0.14	0.04	0.21	0.09	0.05	0.0	0.14	0.04	0.05	0.22	0.24	0.15	0.01	0.1	0.79	0.21	0.02	0.24	0.05	0.02	0.0	 f = a
0.96	0.0	39.46	0.0	0.0	1.84	27.85	0.0	1.18	0.0	0.0	0.37	0.29	0.81	0.0	0.07	1.84	0.15	0.66	0.59	19.84	0.44	0.44	3.16	0.0	0.07	0.0	 g = c
0.0	0.0	1.0	0.0	0.0	3.01	0.0	91.49	0.83	0.17	0.0	0.0	1.5	0.0	0.33	0.0	0.17	0.33	0.0	0.0	0.0	0.67	0.5	0.0	0.0	0.0	0.0	 h = b
0.01	0.03	4.14	0.1	0.04	0.48	0.2	0.04	91.56	0.17	0.04	0.03	0.26	0.03	0.12	0.13	0.29	0.48	0.03	0.1	0.84	0.26	0.14	0.33	0.12	0.01	0.0	 i = e
0.0	0.0	1.45	0.15	0.0	1.9	0.0	0.0	1.6	90.1	0.0	0.0	0.3	0.0	0.0	0.0	2.36	0.91	0.0	0.0	0.46	0.53	0.15	0.08	0.0	0.0	0.0	 j = d
0.0	0.0	5.7	0.0	0.0	2.94	0.18	0.0	2.21	0.0	86.03	0.0	0.37	0.0	0.0	0.0	0.18	0.0	0.0	0.0	1.29	0.18	0.37	0.37	0.0	0.18	0.0	 k = g
0.0	0.0	20.62	0.0	0.0	0.34	0.17	0.17	1.03	0.0	0.0	39.18	0.34	0.34	0.0	0.0	0.52	0.52	0.17	0.17	33.85	0.86	0.0	1.72	0.0	0.0	0.0	 l = f
0.0	0.0	5.28	0.06	0.0	0.53	0.08	0.31	0.93	0.06	0.03	0.03	90.03	0.0	0.06	0.28	0.17	0.08	0.08	0.25	1.01	0.06	0.11	0.42	0.11	0.03	0.0	 m = i
0.2	0.0	8.96	0.0	0.0	1.83	1.63	0.0	1.02	0.0	0.0	0.2	0.0	66.6	0.2	0.0	0.0	0.0	0.0	0.0	17.72	0.2	0.2	0.81	0.0	0.41	0.0	 n = j
0.0	0.0	2.14	0.0	0.0	0.53	0.0	0.15	1.07	0.0	0.0	0.08	1.14	0.0	92.37	0.15	1.07	0.31	0.0	0.0	0.38	0.08	0.31	0.23	0.0	0.0	0.0	 o = m
0.0	0.0	1.92	0.06	0.0	3.22	0.19	0.06	1.43	0.06	0.0	0.0	0.68	0.0	0.19	90.76	0.68	0.37	0.0	0.0	0.12	0.06	0.12	0.0	0.0	0.06	0.0	 p = l
0.03	0.0	10.43	0.08	0.02	0.9	0.17	0.06	0.47	0.3	0.0	0.06	0.12	0.0	0.15	0.24	84.73	0.3	0.06	0.14	1.25	0.08	0.08	0.23	0.09	0.05	0.0	 q = o
0.03	0.0	3.73	0.03	0.0	1.26	0.0	0.06	1.26	0.22	0.03	0.0	0.16	0.0	0.06	0.22	0.6	90.96	0.0	0.03	1.11	0.06	0.0	0.16	0.0	0.0	0.0	 r = n
3.58	0.0	28.88	0.0	0.0	1.67	4.77	0.0	2.63	0.0	0.0	0.24	0.24	0.48	0.0	0.0	0.72	0.0	37.47	0.95	16.95	0.0	0.24	1.19	0.0	0.0	0.0	 s = q
0.0	0.0	38.91	0.0	0.0	2.19	1.49	0.0	2.49	0.0	0.0	0.1	0.9	0.1	0.0	0.3	1.09	0.0	0.2	39.3	10.85	0.7	0.0	1.29	0.0	0.1	0.0	 t = p
1.38	0.0	21.39	0.09	0.0	0.95	1.42	0.0	0.23	0.05	0.02	0.36	0.32	0.29	0.02	0.07	0.23	0.02	0.34	0.18	71.17	0.05	0.07	1.11	0.07	0.18	0.0	 u = s
0.0	0.05	10.75	0.1	0.0	4.75	0.24	0.19	3.12	0.29	0.1	0.05	0.72	0.1	0.0	0.29	1.34	0.19	0.0	0.19	2.83	74.23	0.05	0.29	0.1	0.05	0.0	 v = r
0.05	0.0	1.78	0.05	0.0	0.24	0.1	0.19	0.72	0.19	0.1	0.0	0.43	0.0	0.34	0.29	0.82	0.29	0.1	0.05	0.38	0.1	93.32	0.24	0.0	0.24	0.0	 w = u
0.41	0.0	43.16	0.12	0.0	3.1	2.81	0.0	1.52	0.12	0.0	0.06	1.11	0.12	0.18	0.12	1.93	0.94	0.18	0.7	15.15	0.53	0.23	27.49	0.06	0.0	0.0	 x = t
0.0	0.0	1.99	0.0	0.0	1.28	0.43	0.28	2.84	0.0	0.0	0.0	1.42	0.0	0.14	0.14	1.7	0.14	0.0	0.14	0.43	0.28	0.0	0.28	88.35	0.14	0.0	 y = v
0.22	0.0	3.81	0.22	0.0	0.9	0.45	0.0	0.67	0.0	0.0	0.0	0.45	0.45	0.0	0.45	0.9	0.0	0.0	0.0	10.54	0.67	1.12	0.0	0.0	79.15	0.0	 z = y
0.0	0.0	42.42	0.0	0.0	0.0	0.0	0.0	0.0	0.0	0.0	0.0	0.0	0.0	0.0	0.0	0.0	0.0	0.0	3.03	51.52	0.0	0.0	3.03	0.0	0.0	0.0	 aa = z
