Timestamp:2013-08-30-03:43:59
Inventario:I0
Intervalo:2ms
Ngramas:4
Clasificador:BayesNet
Relation Name:  I0-2ms-4gramas
Num Instances:  91700
Num Attributes: 41

     Name                      Type  Nom  Int Real     Missing      Unique  Dist
   1 0Int(dB)                   Num   0%   9%  91%     0 /  0%     4 /  0%   779 
   2 0Pitch(Hz)                 Num   0%  52%  48%     0 /  0%   471 /  1%  4016 
   3 0RawPitch                  Num   0%  55%  45%     0 /  0%   550 /  1%  4014 
   4 0SmPitch                   Num   0%  53%  47%     0 /  0%   491 /  1%  3998 
   5 0Melogram(st)              Num   0%  49%  51%     0 /  0%   212 /  0%  3363 
   6 0ZCross                    Num   0% 100%   0%     0 /  0%     6 /  0%    54 
   7 0F1(Hz)                    Num   0%  52%  48%     0 /  0%  1126 /  1%  4776 
   8 0F2(Hz)                    Num   0%  52%  48%     0 /  0%  2304 /  3%  6727 
   9 0F3(Hz)                    Num   0%  52%  48%     0 /  0%  1967 /  2%  6224 
  10 0F4(Hz)                    Num   0%  52%  48%     0 /  0%  1884 /  2%  6074 
  11 1Int(dB)                   Num   0%   9%  91%     0 /  0%     4 /  0%   779 
  12 1Pitch(Hz)                 Num   0%  52%  48%     0 /  0%   471 /  1%  4016 
  13 1RawPitch                  Num   0%  55%  45%     0 /  0%   550 /  1%  4014 
  14 1SmPitch                   Num   0%  53%  47%     0 /  0%   491 /  1%  3998 
  15 1Melogram(st)              Num   0%  49%  51%     0 /  0%   212 /  0%  3363 
  16 1ZCross                    Num   0% 100%   0%     0 /  0%     6 /  0%    54 
  17 1F1(Hz)                    Num   0%  52%  48%     0 /  0%  1126 /  1%  4776 
  18 1F2(Hz)                    Num   0%  52%  48%     0 /  0%  2304 /  3%  6727 
  19 1F3(Hz)                    Num   0%  52%  48%     0 /  0%  1967 /  2%  6224 
  20 1F4(Hz)                    Num   0%  52%  48%     0 /  0%  1884 /  2%  6074 
  21 2Int(dB)                   Num   0%   9%  91%     0 /  0%     5 /  0%   780 
  22 2Pitch(Hz)                 Num   0%  52%  48%     0 /  0%   471 /  1%  4016 
  23 2RawPitch                  Num   0%  55%  45%     0 /  0%   550 /  1%  4014 
  24 2SmPitch                   Num   0%  53%  47%     0 /  0%   491 /  1%  3998 
  25 2Melogram(st)              Num   0%  49%  51%     0 /  0%   212 /  0%  3363 
  26 2ZCross                    Num   0% 100%   0%     0 /  0%     6 /  0%    54 
  27 2F1(Hz)                    Num   0%  52%  48%     0 /  0%  1126 /  1%  4776 
  28 2F2(Hz)                    Num   0%  52%  48%     0 /  0%  2304 /  3%  6727 
  29 2F3(Hz)                    Num   0%  52%  48%     0 /  0%  1967 /  2%  6224 
  30 2F4(Hz)                    Num   0%  52%  48%     0 /  0%  1884 /  2%  6074 
  31 3Int(dB)                   Num   0%   9%  91%     0 /  0%     6 /  0%   781 
  32 3Pitch(Hz)                 Num   0%  52%  48%     0 /  0%   471 /  1%  4016 
  33 3RawPitch                  Num   0%  55%  45%     0 /  0%   550 /  1%  4014 
  34 3SmPitch                   Num   0%  53%  47%     0 /  0%   491 /  1%  3998 
  35 3Melogram(st)              Num   0%  49%  51%     0 /  0%   212 /  0%  3363 
  36 3ZCross                    Num   0% 100%   0%     0 /  0%     6 /  0%    54 
  37 3F1(Hz)                    Num   0%  52%  48%     0 /  0%  1126 /  1%  4776 
  38 3F2(Hz)                    Num   0%  52%  48%     0 /  0%  2304 /  3%  6727 
  39 3F3(Hz)                    Num   0%  52%  48%     0 /  0%  1967 /  2%  6224 
  40 3F4(Hz)                    Num   0%  52%  48%     0 /  0%  1884 /  2%  6074 
  41 class                      Nom 100%   0%   0%     0 /  0%     0 /  0%    27 


Options: -D -Q weka.classifiers.bayes.net.search.local.K2 -- -P 1 -S BAYES -E weka.classifiers.bayes.net.estimate.SimpleEstimator -- -A 0.5 

Bayes Network Classifier
not using ADTree
#attributes=41 #classindex=40
Network structure (nodes followed by parents)
0Int(dB)(21): class 
0Pitch(Hz)(40): class 
0RawPitch(28): class 
0SmPitch(38): class 
0Melogram(st)(45): class 
0ZCross(16): class 
0F1(Hz)(2066): class 
0F2(Hz)(2632): class 
0F3(Hz)(2851): class 
0F4(Hz)(2736): class 
1Int(dB)(22): class 
1Pitch(Hz)(42): class 
1RawPitch(27): class 
1SmPitch(38): class 
1Melogram(st)(44): class 
1ZCross(15): class 
1F1(Hz)(2041): class 
1F2(Hz)(2689): class 
1F3(Hz)(2884): class 
1F4(Hz)(2888): class 
2Int(dB)(22): class 
2Pitch(Hz)(41): class 
2RawPitch(26): class 
2SmPitch(39): class 
2Melogram(st)(44): class 
2ZCross(15): class 
2F1(Hz)(1963): class 
2F2(Hz)(2684): class 
2F3(Hz)(2854): class 
2F4(Hz)(2912): class 
3Int(dB)(23): class 
3Pitch(Hz)(44): class 
3RawPitch(31): class 
3SmPitch(37): class 
3Melogram(st)(44): class 
3ZCross(15): class 
3F1(Hz)(1919): class 
3F2(Hz)(2688): class 
3F3(Hz)(3038): class 
3F4(Hz)(2726): class 
class(27): 
LogScore Bayes: -1.0030804071778635E7
LogScore BDeu: -2.553348075270775E7
LogScore MDL: -2.0846131626751505E7
LogScore ENTROPY: -1.4322858285382051E7
LogScore AIC: -1.546466028538205E7




=== Stratified cross-validation ===

Correctly Classified Instances       72102               78.6281 %
Incorrectly Classified Instances     19598               21.3719 %
Kappa statistic                          0.7331
K&B Relative Info Score            6657736.9836 %
K&B Information Score               219177.6405 bits      2.3902 bits/instance
Class complexity | order 0          301794.2055 bits      3.2911 bits/instance
Class complexity | scheme           886400.8865 bits      9.6663 bits/instance
Complexity improvement     (Sf)    -584606.681  bits     -6.3752 bits/instance
Mean absolute error                      0.016 
Root mean squared error                  0.1215
Relative absolute error                 26.6491 %
Root relative squared error             70.251  %
Coverage of cases (0.95 level)          80.6728 %
Mean rel. region size (0.95 level)       4.1097 %
Total Number of Instances            91700     


=== Detailed Accuracy By Class ===

                 TP Rate  FP Rate  Precision  Recall   F-Measure  MCC      ROC Area  PRC Area  Class
                 0,224    0,001    0,457      0,224    0,300      0,318    0,953     0,279     ch
                 0,954    0,006    0,163      0,954    0,278      0,393    0,998     0,816     rr
                 0,897    0,122    0,825      0,897    0,860      0,765    0,969     0,960     0
                 0,568    0,006    0,496      0,568    0,530      0,526    0,924     0,560     hs
                 0,976    0,011    0,193      0,976    0,323      0,432    0,998     0,888     hg
                 0,792    0,006    0,953      0,792    0,865      0,850    0,973     0,937     a
                 0,144    0,003    0,432      0,144    0,216      0,243    0,927     0,251     c
                 0,938    0,005    0,545      0,938    0,690      0,713    0,997     0,892     b
                 0,760    0,007    0,896      0,760    0,822      0,812    0,964     0,879     e
                 0,848    0,008    0,617      0,848    0,714      0,719    0,984     0,804     d
                 0,833    0,006    0,445      0,833    0,580      0,606    0,955     0,757     g
                 0,390    0,002    0,597      0,390    0,472      0,480    0,962     0,423     f
                 0,817    0,005    0,864      0,817    0,840      0,834    0,961     0,866     i
                 0,621    0,001    0,693      0,621    0,655      0,654    0,939     0,636     j
                 0,896    0,004    0,755      0,896    0,820      0,820    0,984     0,898     m
                 0,908    0,009    0,653      0,908    0,760      0,765    0,987     0,873     l
                 0,729    0,006    0,902      0,729    0,806      0,798    0,929     0,843     o
                 0,842    0,005    0,868      0,842    0,855      0,850    0,974     0,893     n
                 0,353    0,002    0,517      0,353    0,420      0,425    0,928     0,366     q
                 0,327    0,002    0,633      0,327    0,431      0,451    0,942     0,385     p
                 0,517    0,016    0,627      0,517    0,567      0,550    0,961     0,657     s
                 0,719    0,005    0,764      0,719    0,741      0,735    0,925     0,750     r
                 0,880    0,002    0,896      0,880    0,888      0,885    0,978     0,916     u
                 0,220    0,004    0,522      0,220    0,309      0,331    0,929     0,317     t
                 0,874    0,006    0,541      0,874    0,668      0,685    0,978     0,835     v
                 0,774    0,013    0,226      0,774    0,350      0,414    0,944     0,702     y
                 0,000    0,002    0,000      0,000    0,000      -0,001   0,851     0,001     z
Weighted Avg.    0,786    0,052    0,807      0,786    0,787      0,747    0,963     0,862     


=== Confusion Matrix ===

     a     b     c     d     e     f     g     h     i     j     k     l     m     n     o     p     q     r     s     t     u     v     w     x     y     z    aa   <-- classified as
    96     0   139     0     2     3     2     1     0     0     0     1     0     0     0     1     4     0     0     0   175     0     0     2     3     0     0 |     a = ch
     0   104     0     0     2     1     0     0     2     0     0     0     0     0     0     0     0     0     0     0     0     0     0     0     0     0     0 |     b = rr
    62    72 32130   173   387   182    33    83   234   194   113    82   205   107    80   173   191   130    80    91   149   138    59    62   138   387    95 |     c = 0
     0     3   306   557    16     5     5     3    11     7     0     0     6     0     1    17     7     6     0     0    11     0     3     1    10     5     0 |     d = hs
     0     2     0     0   241     0     0     1     1     0     0     0     0     0     1     0     0     0     0     0     0     0     1     0     0     0     0 |     e = hg
    35   141   386   118   262 10375    43   115    75   149   129    21    35    12    91   241    85    76    31    23   124   112    31    49   132   208     7 |     f = a
     0     1   759     1     2     9   196     1    16     5     0     0    18     0     1     4    24     0     0     3   256    10    19    18    10     8     0 |     g = c
     0     2     0     0     0     8     0   562     6     0     2     0     9     0     4     0     0     2     0     0     0     1     0     0     0     3     0 |     h = b
     3    78   273   114    82    62    21    51  5254    91    99    10    41     3    61   127    45    70    16    30    49    70    19    45    66   121     9 |     i = e
     1    15    11     4    10    19     2     5    20  1114     9     1     1     0     1     8     9    17     3     1     2     4     4     1     1    38    12 |     j = d
     0     3    30     0     7     5     4     0    13     1   453     1     5     0     0     1     1     1     0     2     4     3     2     1     0     4     3 |     k = g
     0     0   278     3     1     9     1     7     5     1     1   227     3     0     1     1     3     0     0     0    27     0     3     8     2     1     0 |     l = f
     1     7   163    14    28     5    35    25    22     8    41    10  2910     3    18    22    16    18     1     6    56    25     1    27    31    47    21 |     m = i
     0     0    95     0     2     0     3     3     9     4     1     0     0   305     7     0     2     0     1     4    49     0     3     1     0     2     0 |     n = j
     0     5    21    24     0     5     3     7     8     0     7     4    13     0  1175     0    10     0     0     0     2     1     6     0     0    15     5 |     o = m
     0     2    10    17     4     7     0    15    18     0    13     0     7     0     3  1465     6     7     0     1    15     5     8     4     0     6     0 |     p = l
     5    90   702    45    64    64    32    65    26   158    83     6    18     0    53    90  4843    34     2     6    29    25    13    37    46    78    32 |     q = o
     2    45   108    14    26    18     9    11    37    17    23     5     7     0     8    19     6  2665     1     5     2     3     8    26     8    65    26 |     r = n
     1     1   148     1     5     1     1     0     6     0     0     0     0     0     0     0     2     1   148     3    94     2     0     1     0     4     0 |     s = q
     0     3   478     0     1     7     6     4    17     5     0     0     0     0     4    12    24     0     0   329    50    16    12    10    14    13     0 |     t = p
     0    25  1604     9    55    31    13    18    26    26     8     1    42     7    18    23    17    10     0     0  2288    17    13     9    56   107     0 |     u = s
     2    10   230    15    19    49    13    39    36    14    19     9    20     0     4    16     9     1     0     5    35  1499     5    11     5    14     5 |     v = r
     1    10    37     5    16     1    10     5     4     6     9     1     3     3    12    18    13     9     3    10    14    10  1830    21     0    29     0 |     w = u
     1     8   949     6     6    12    18     5    13     3     2     0    14     0    10     1    55    23     0     0   163    19     3   376     0    23     0 |     x = t
     0    12    12     2     0     7     2     5     8     2     6     1    11     0     3     1     0     0     0     0     6     1     0     7   615     3     0 |     y = v
     0     0    30     0     9     0     2     0     0     1     0     0     0     0     0     4     0     0     0     1    50     1     0     3     0   345     0 |     z = y
     0     0    33     0     0     0     0     0     0     0     0     0     0     0     0     0     0     0     0     0     0     0     0     0     0     0     0 |    aa = z

=== Percent Confusion Matrix ===
a	b	c	d	e	f	g	h	i	j	k	l	m	n	o	p	q	r	s	t	u	v	w	x	y	z	aa	
22.38	0.0	32.4	0.0	0.47	0.7	0.47	0.23	0.0	0.0	0.0	0.23	0.0	0.0	0.0	0.23	0.93	0.0	0.0	0.0	40.79	0.0	0.0	0.47	0.7	0.0	0.0	 a = ch
0.0	95.41	0.0	0.0	1.83	0.92	0.0	0.0	1.83	0.0	0.0	0.0	0.0	0.0	0.0	0.0	0.0	0.0	0.0	0.0	0.0	0.0	0.0	0.0	0.0	0.0	0.0	 b = rr
0.17	0.2	89.67	0.48	1.08	0.51	0.09	0.23	0.65	0.54	0.32	0.23	0.57	0.3	0.22	0.48	0.53	0.36	0.22	0.25	0.42	0.39	0.16	0.17	0.39	1.08	0.27	 c = 0
0.0	0.31	31.22	56.84	1.63	0.51	0.51	0.31	1.12	0.71	0.0	0.0	0.61	0.0	0.1	1.73	0.71	0.61	0.0	0.0	1.12	0.0	0.31	0.1	1.02	0.51	0.0	 d = hs
0.0	0.81	0.0	0.0	97.57	0.0	0.0	0.4	0.4	0.0	0.0	0.0	0.0	0.0	0.4	0.0	0.0	0.0	0.0	0.0	0.0	0.0	0.4	0.0	0.0	0.0	0.0	 e = hg
0.27	1.08	2.95	0.9	2.0	79.16	0.33	0.88	0.57	1.14	0.98	0.16	0.27	0.09	0.69	1.84	0.65	0.58	0.24	0.18	0.95	0.85	0.24	0.37	1.01	1.59	0.05	 f = a
0.0	0.07	55.77	0.07	0.15	0.66	14.4	0.07	1.18	0.37	0.0	0.0	1.32	0.0	0.07	0.29	1.76	0.0	0.0	0.22	18.81	0.73	1.4	1.32	0.73	0.59	0.0	 g = c
0.0	0.33	0.0	0.0	0.0	1.34	0.0	93.82	1.0	0.0	0.33	0.0	1.5	0.0	0.67	0.0	0.0	0.33	0.0	0.0	0.0	0.17	0.0	0.0	0.0	0.5	0.0	 h = b
0.04	1.13	3.95	1.65	1.19	0.9	0.3	0.74	76.03	1.32	1.43	0.14	0.59	0.04	0.88	1.84	0.65	1.01	0.23	0.43	0.71	1.01	0.27	0.65	0.96	1.75	0.13	 i = e
0.08	1.14	0.84	0.3	0.76	1.45	0.15	0.38	1.52	84.84	0.69	0.08	0.08	0.0	0.08	0.61	0.69	1.29	0.23	0.08	0.15	0.3	0.3	0.08	0.08	2.89	0.91	 j = d
0.0	0.55	5.51	0.0	1.29	0.92	0.74	0.0	2.39	0.18	83.27	0.18	0.92	0.0	0.0	0.18	0.18	0.18	0.0	0.37	0.74	0.55	0.37	0.18	0.0	0.74	0.55	 k = g
0.0	0.0	47.77	0.52	0.17	1.55	0.17	1.2	0.86	0.17	0.17	39.0	0.52	0.0	0.17	0.17	0.52	0.0	0.0	0.0	4.64	0.0	0.52	1.37	0.34	0.17	0.0	 l = f
0.03	0.2	4.58	0.39	0.79	0.14	0.98	0.7	0.62	0.22	1.15	0.28	81.72	0.08	0.51	0.62	0.45	0.51	0.03	0.17	1.57	0.7	0.03	0.76	0.87	1.32	0.59	 m = i
0.0	0.0	19.35	0.0	0.41	0.0	0.61	0.61	1.83	0.81	0.2	0.0	0.0	62.12	1.43	0.0	0.41	0.0	0.2	0.81	9.98	0.0	0.61	0.2	0.0	0.41	0.0	 n = j
0.0	0.38	1.6	1.83	0.0	0.38	0.23	0.53	0.61	0.0	0.53	0.31	0.99	0.0	89.63	0.0	0.76	0.0	0.0	0.0	0.15	0.08	0.46	0.0	0.0	1.14	0.38	 o = m
0.0	0.12	0.62	1.05	0.25	0.43	0.0	0.93	1.12	0.0	0.81	0.0	0.43	0.0	0.19	90.82	0.37	0.43	0.0	0.06	0.93	0.31	0.5	0.25	0.0	0.37	0.0	 p = l
0.08	1.35	10.56	0.68	0.96	0.96	0.48	0.98	0.39	2.38	1.25	0.09	0.27	0.0	0.8	1.35	72.87	0.51	0.03	0.09	0.44	0.38	0.2	0.56	0.69	1.17	0.48	 q = o
0.06	1.42	3.41	0.44	0.82	0.57	0.28	0.35	1.17	0.54	0.73	0.16	0.22	0.0	0.25	0.6	0.19	84.23	0.03	0.16	0.06	0.09	0.25	0.82	0.25	2.05	0.82	 r = n
0.24	0.24	35.32	0.24	1.19	0.24	0.24	0.0	1.43	0.0	0.0	0.0	0.0	0.0	0.0	0.0	0.48	0.24	35.32	0.72	22.43	0.48	0.0	0.24	0.0	0.95	0.0	 s = q
0.0	0.3	47.56	0.0	0.1	0.7	0.6	0.4	1.69	0.5	0.0	0.0	0.0	0.0	0.4	1.19	2.39	0.0	0.0	32.74	4.98	1.59	1.19	1.0	1.39	1.29	0.0	 t = p
0.0	0.57	36.26	0.2	1.24	0.7	0.29	0.41	0.59	0.59	0.18	0.02	0.95	0.16	0.41	0.52	0.38	0.23	0.0	0.0	51.73	0.38	0.29	0.2	1.27	2.42	0.0	 u = s
0.1	0.48	11.04	0.72	0.91	2.35	0.62	1.87	1.73	0.67	0.91	0.43	0.96	0.0	0.19	0.77	0.43	0.05	0.0	0.24	1.68	71.93	0.24	0.53	0.24	0.67	0.24	 v = r
0.05	0.48	1.78	0.24	0.77	0.05	0.48	0.24	0.19	0.29	0.43	0.05	0.14	0.14	0.58	0.87	0.63	0.43	0.14	0.48	0.67	0.48	87.98	1.01	0.0	1.39	0.0	 w = u
0.06	0.47	55.5	0.35	0.35	0.7	1.05	0.29	0.76	0.18	0.12	0.0	0.82	0.0	0.58	0.06	3.22	1.35	0.0	0.0	9.53	1.11	0.18	21.99	0.0	1.35	0.0	 x = t
0.0	1.7	1.7	0.28	0.0	0.99	0.28	0.71	1.14	0.28	0.85	0.14	1.56	0.0	0.43	0.14	0.0	0.0	0.0	0.0	0.85	0.14	0.0	0.99	87.36	0.43	0.0	 y = v
0.0	0.0	6.73	0.0	2.02	0.0	0.45	0.0	0.0	0.22	0.0	0.0	0.0	0.0	0.0	0.9	0.0	0.0	0.0	0.22	11.21	0.22	0.0	0.67	0.0	77.35	0.0	 z = y
0.0	0.0	100.0	0.0	0.0	0.0	0.0	0.0	0.0	0.0	0.0	0.0	0.0	0.0	0.0	0.0	0.0	0.0	0.0	0.0	0.0	0.0	0.0	0.0	0.0	0.0	0.0	 aa = z
