Timestamp:2014-12-07-10:42:58
Inventario:I0
Intervalo:20ms
Ngramas:4
Clasificador:NaiveBayes
Relation Name:  I0-20ms-4gramas
Num Instances:  9126
Num Attributes: 41

     Name                      Type  Nom  Int Real     Missing      Unique  Dist
   1 0Int(dB)                   Num   0%  11%  89%     0 /  0%    14 /  0%   764 
   2 0Pitch(Hz)                 Num   0%  49%  51%     0 /  0%  1033 / 11%  2440 
   3 0RawPitch                  Num   0%  52%  48%     0 /  0%  1062 / 12%  2369 
   4 0SmPitch                   Num   0%  50%  50%     0 /  0%  1056 / 12%  2419 
   5 0Melogram(st)              Num   0%  45%  55%     0 /  0%   937 / 10%  2341 
   6 0ZCross                    Num   0% 100%   0%     0 /  0%     7 /  0%    34 
   7 0F1(Hz)                    Num   0%  49%  51%     0 /  0%  2180 / 24%  3398 
   8 0F2(Hz)                    Num   0%  49%  51%     0 /  0%  3463 / 38%  4259 
   9 0F3(Hz)                    Num   0%  49%  51%     0 /  0%  3209 / 35%  4087 
  10 0F4(Hz)                    Num   0%  49%  51%     0 /  0%  3134 / 34%  4027 
  11 1Int(dB)                   Num   0%  11%  89%     0 /  0%    14 /  0%   764 
  12 1Pitch(Hz)                 Num   0%  49%  51%     0 /  0%  1033 / 11%  2440 
  13 1RawPitch                  Num   0%  52%  48%     0 /  0%  1062 / 12%  2369 
  14 1SmPitch                   Num   0%  50%  50%     0 /  0%  1056 / 12%  2419 
  15 1Melogram(st)              Num   0%  45%  55%     0 /  0%   937 / 10%  2341 
  16 1ZCross                    Num   0% 100%   0%     0 /  0%     7 /  0%    34 
  17 1F1(Hz)                    Num   0%  49%  51%     0 /  0%  2180 / 24%  3398 
  18 1F2(Hz)                    Num   0%  49%  51%     0 /  0%  3463 / 38%  4259 
  19 1F3(Hz)                    Num   0%  49%  51%     0 /  0%  3209 / 35%  4087 
  20 1F4(Hz)                    Num   0%  49%  51%     0 /  0%  3134 / 34%  4027 
  21 2Int(dB)                   Num   0%  11%  89%     0 /  0%    14 /  0%   764 
  22 2Pitch(Hz)                 Num   0%  49%  51%     0 /  0%  1033 / 11%  2440 
  23 2RawPitch                  Num   0%  52%  48%     0 /  0%  1062 / 12%  2369 
  24 2SmPitch                   Num   0%  50%  50%     0 /  0%  1056 / 12%  2419 
  25 2Melogram(st)              Num   0%  45%  55%     0 /  0%   937 / 10%  2341 
  26 2ZCross                    Num   0% 100%   0%     0 /  0%     7 /  0%    34 
  27 2F1(Hz)                    Num   0%  49%  51%     0 /  0%  2180 / 24%  3398 
  28 2F2(Hz)                    Num   0%  49%  51%     0 /  0%  3463 / 38%  4259 
  29 2F3(Hz)                    Num   0%  49%  51%     0 /  0%  3209 / 35%  4087 
  30 2F4(Hz)                    Num   0%  49%  51%     0 /  0%  3134 / 34%  4027 
  31 3Int(dB)                   Num   0%  11%  89%     0 /  0%    14 /  0%   764 
  32 3Pitch(Hz)                 Num   0%  49%  51%     0 /  0%  1033 / 11%  2440 
  33 3RawPitch                  Num   0%  52%  48%     0 /  0%  1062 / 12%  2369 
  34 3SmPitch                   Num   0%  50%  50%     0 /  0%  1056 / 12%  2419 
  35 3Melogram(st)              Num   0%  45%  55%     0 /  0%   938 / 10%  2342 
  36 3ZCross                    Num   0% 100%   0%     0 /  0%     7 /  0%    34 
  37 3F1(Hz)                    Num   0%  49%  51%     0 /  0%  2180 / 24%  3398 
  38 3F2(Hz)                    Num   0%  49%  51%     0 /  0%  3463 / 38%  4259 
  39 3F3(Hz)                    Num   0%  49%  51%     0 /  0%  3209 / 35%  4087 
  40 3F4(Hz)                    Num   0%  49%  51%     0 /  0%  3134 / 34%  4027 
  41 class                      Nom 100%   0%   0%     0 /  0%     0 /  0%    27 


Naive Bayes Classifier

                    Class
Attribute              ch        rr         0        hs        hg         a         c         b         e         d         g         f         i         j         m         l         o         n         q         p         s         r         u         t         v         y         z
                      (0)       (0)    (0.35)    (0.01)       (0)    (0.15)    (0.02)    (0.01)    (0.08)    (0.01)    (0.01)    (0.01)    (0.04)    (0.01)    (0.02)    (0.02)    (0.08)    (0.04)       (0)    (0.01)    (0.05)    (0.02)    (0.02)    (0.02)    (0.01)    (0.01)       (0)
==============================================================================================================================================================================================================================================================================================
0Int(dB)
  mean            -13.8229   -8.2462  -48.3445  -10.0154   -4.3711    -8.574  -23.6132    -5.057  -11.7218   -8.5828   -6.5293   -8.4776  -14.1716   -4.8233    -8.975   -8.0018  -13.1727   -6.3135  -24.7466  -14.7916   -14.431   -8.8505  -12.1512  -18.1956   -9.1218  -12.0545  -22.3746
  std. dev.        11.8982    8.2439   16.8499    9.2667    4.5157   14.2955   16.7159    5.6739   12.7888    7.8675    6.7402     8.801   11.3435    7.9195   11.0171    8.2628   13.9303    7.2178   20.2454   14.4422    12.494     9.732   13.5815   13.1831   14.1735   10.7692    4.8213
  weight sum            40        11      3234       110        27      1368       138        57       746       133        60        61       385        49       141       160       712       336        43       101       463       226       218       177        77        48         5
  precision         0.1008    0.1008    0.1008    0.1008    0.1008    0.1008    0.1008    0.1008    0.1008    0.1008    0.1008    0.1008    0.1008    0.1008    0.1008    0.1008    0.1008    0.1008    0.1008    0.1008    0.1008    0.1008    0.1008    0.1008    0.1008    0.1008    0.1008

0Pitch(Hz)
  mean            174.0118   174.688   19.4311  154.7862  157.8466  198.4708   98.1738  217.2834  160.6546  185.2231  209.2629  198.0179  134.2538  218.3029  178.7437  172.4269  156.7441  202.2635   147.551   159.168  146.3697  170.7719  185.7432  155.6673  169.1391  136.9431  102.2504
  std. dev.        91.2697  120.8836    59.894   87.3533   43.6284  124.8257   94.7578   79.4659  102.2528   85.6403   84.0417  100.5649   96.8851   100.303   94.8993   83.5667  116.9519   83.1941  132.2866  120.1387  106.8448   77.1609  130.6923  122.7549   99.4669    68.967   83.5284
  weight sum            40        11      3234       110        27      1368       138        57       746       133        60        61       385        49       141       160       712       336        43       101       463       226       218       177        77        48         5
  precision         0.2034    0.2034    0.2034    0.2034    0.2034    0.2034    0.2034    0.2034    0.2034    0.2034    0.2034    0.2034    0.2034    0.2034    0.2034    0.2034    0.2034    0.2034    0.2034    0.2034    0.2034    0.2034    0.2034    0.2034    0.2034    0.2034    0.2034

0RawPitch
  mean            158.2946  165.3947   16.1107  149.0071  155.7682  187.7725   91.6213  211.3295  148.5522  175.2889  203.1779  177.6476  121.7318  208.8008  170.5068   167.673  148.9971  192.0904  129.9072  161.3341  136.6167  151.9419  173.5625  137.6841  164.2478    131.86         0
  std. dev.       103.6974  105.4808   54.3875   89.6397   42.7377  127.1471  102.2139   79.2104  106.1316   91.5053   87.4316  104.7423   96.3139  105.3235   96.7001    83.138  120.0464   90.3375  134.2701  124.1214  110.8431   90.4021  129.6098  125.6015  102.2846   69.9912    0.0348
  weight sum            40        11      3234       110        27      1368       138        57       746       133        60        61       385        49       141       160       712       336        43       101       463       226       218       177        77        48         5
  precision         0.2088    0.2088    0.2088    0.2088    0.2088    0.2088    0.2088    0.2088    0.2088    0.2088    0.2088    0.2088    0.2088    0.2088    0.2088    0.2088    0.2088    0.2088    0.2088    0.2088    0.2088    0.2088    0.2088    0.2088    0.2088    0.2088    0.2088

0SmPitch
  mean            174.2513  174.7133   17.6151  152.7124  157.8651   196.411   91.0561  217.1408  155.5873  185.2493  209.3402  187.7663  131.2192  212.3789  177.6294  170.7282  153.6272  199.7503  142.7072  162.2808  144.1187  166.9662  182.8643  149.1016  168.7859  136.9615   69.8256
  std. dev.        91.2698  120.9009   56.4219   88.0417   43.6107  125.6395   95.8764   79.3819  104.7161      85.7   84.0689   99.4202   96.9443   105.551   96.0073   84.4503  117.9631   85.7768  134.0234  118.0893  108.4305   81.1945  131.0566  123.9916  100.5721   68.9589   85.5195
  weight sum            40        11      3234       110        27      1368       138        57       746       133        60        61       385        49       141       160       712       336        43       101       463       226       218       177        77        48         5
  precision         0.2051    0.2051    0.2051    0.2051    0.2051    0.2051    0.2051    0.2051    0.2051    0.2051    0.2051    0.2051    0.2051    0.2051    0.2051    0.2051    0.2051    0.2051    0.2051    0.2051    0.2051    0.2051    0.2051    0.2051    0.2051    0.2051    0.2051

0Melogram(st)
  mean             45.4193   45.0279    5.6263   44.7795   50.5782   46.3921   29.3027   55.0933   43.0353   50.5341   52.3709   50.4424   38.5277   52.5197   47.5312   48.0301     40.72   52.4261   33.7617   42.8819   39.3588   49.0673    41.677   38.4365   47.5222   45.1065   41.9743
  std. dev.        21.5554   22.1871   16.5837   18.3478    4.7673   22.8264    26.143    9.4925   22.8173   14.9915    15.092   16.6068   23.9713   15.0461   19.1887   17.0152   24.6779   13.3718     28.98   23.7653   24.5259   14.6102    26.535   26.7317   17.5189   16.2026   20.9897
  weight sum            40        11      3234       110        27      1368       138        57       746       133        60        61       385        49       141       160       712       336        43       101       463       226       218       177        77        48         5
  precision         0.0353    0.0353    0.0353    0.0353    0.0353    0.0353    0.0353    0.0353    0.0353    0.0353    0.0353    0.0353    0.0353    0.0353    0.0353    0.0353    0.0353    0.0353    0.0353    0.0353    0.0353    0.0353    0.0353    0.0353    0.0353    0.0353    0.0353

0ZCross
  mean              2.1955    4.8595    0.3546    3.1355    4.5724    6.0371    1.4756    3.8628    3.7875    3.5024    5.1758    3.6304    3.3025    5.4286    3.8633    4.0807    3.2283    4.6553    2.3087    2.9235    3.0045    4.0941    3.5496    1.4597    4.9091    2.9697    0.5091
  std. dev.         2.6997    3.0127    1.5379     2.419    2.0275    5.3494    2.3148    2.1715    3.6027    2.4249     2.901    3.4938    4.4292    3.4187    3.2419    2.5178    3.6497    3.2102     3.398    3.5303    3.4054    3.1409    3.8879     1.754    3.4367    2.1318    0.6235
  weight sum            40        11      3234       110        27      1368       138        57       746       133        60        61       385        49       141       160       712       336        43       101       463       226       218       177        77        48         5
  precision         1.2727    1.2727    1.2727    1.2727    1.2727    1.2727    1.2727    1.2727    1.2727    1.2727    1.2727    1.2727    1.2727    1.2727    1.2727    1.2727    1.2727    1.2727    1.2727    1.2727    1.2727    1.2727    1.2727    1.2727    1.2727    1.2727    1.2727

0F1(Hz)
  mean              478.81  384.8665   69.4574  484.0705  485.2785  554.6111  347.2108  432.7735  393.9778  492.0247  521.9459  555.5366  337.2878  540.9277  413.5116  494.8882   387.934  561.8933  308.7514  463.3263  453.5232  536.4129  424.8479  410.6914  485.3742  420.5079  404.4873
  std. dev.       211.6746  188.4039  193.2324  205.0383   84.3609   351.651  260.7709  161.4701  237.3761   180.435  155.7041  167.9352  247.3025   150.474  223.2578  210.7283  267.0661  171.9224  273.9624  246.7965  269.2275  200.3839  365.8257  256.9924  193.1739  188.9196   331.872
  weight sum            40        11      3234       110        27      1368       138        57       746       133        60        61       385        49       141       160       712       336        43       101       463       226       218       177        77        48         5
  precision         0.5127    0.5127    0.5127    0.5127    0.5127    0.5127    0.5127    0.5127    0.5127    0.5127    0.5127    0.5127    0.5127    0.5127    0.5127    0.5127    0.5127    0.5127    0.5127    0.5127    0.5127    0.5127    0.5127    0.5127    0.5127    0.5127    0.5127

0F2(Hz)
  mean           1636.5958 1585.1436  205.6432 1432.9919 1814.1777 1269.3809  1104.025 1619.6551 1373.2113 1399.3205 1694.7864 1642.5327 1314.2846 1932.8123 1470.1775 1466.6864 1075.1192 1623.8744 1115.2072  1420.231 1385.7244  1446.989  955.3932 1379.1092 1508.1728 1289.5418  716.5182
  std. dev.       581.1162  759.4033  567.5507  587.6885  401.4376   674.177  849.4376  531.0035  794.2677  487.2677  439.9913  445.5248  896.4634  325.9194  759.1225  573.5793  722.9702  436.8912   953.113   681.228  754.6788  483.3797  693.4125  778.9308   616.302   529.037  585.2602
  weight sum            40        11      3234       110        27      1368       138        57       746       133        60        61       385        49       141       160       712       336        43       101       463       226       218       177        77        48         5
  precision         0.6985    0.6985    0.6985    0.6985    0.6985    0.6985    0.6985    0.6985    0.6985    0.6985    0.6985    0.6985    0.6985    0.6985    0.6985    0.6985    0.6985    0.6985    0.6985    0.6985    0.6985    0.6985    0.6985    0.6985    0.6985    0.6985    0.6985

0F3(Hz)
  mean           2600.5948  2302.783  351.4258 2429.7709 2591.9355 2320.0995 1856.5998 2646.2334 2174.5401 2644.2835 3026.1936 2705.1364 2014.1352 2725.4761 2457.8708 2514.7877 2131.1022 2833.0771 1790.4006 2357.8394 2324.0165 2610.4617 2126.7769 2300.1559 2566.1359  2534.311 2210.5911
  std. dev.        917.846 1110.5385  944.4587  868.6614  122.2299 1189.6629 1368.5782  744.5943 1212.1208  816.7753  716.3745  705.3825 1344.3758  555.5805 1139.1692  938.0791 1290.7244  607.1483 1463.3255 1121.4644 1221.8588  849.4286 1291.5323 1224.8377  932.6794   1033.62  1805.819
  weight sum            40        11      3234       110        27      1368       138        57       746       133        60        61       385        49       141       160       712       336        43       101       463       226       218       177        77        48         5
  precision         1.0065    1.0065    1.0065    1.0065    1.0065    1.0065    1.0065    1.0065    1.0065    1.0065    1.0065    1.0065    1.0065    1.0065    1.0065    1.0065    1.0065    1.0065    1.0065    1.0065    1.0065    1.0065    1.0065    1.0065    1.0065    1.0065    1.0065

0F4(Hz)
  mean           3055.1678 2812.7983  424.3306 3049.6547 3512.4863  2656.459 2218.6407 3166.2615 2634.0278 3097.9087 2987.2786 3152.6089 2430.7791 3343.5153 2826.4334 2949.4842 2461.9478 3210.4657 2012.1519   2766.89 2665.2987 3066.5866 2454.4832 2586.9328 3033.1497 2863.1227  1790.029
  std. dev.      1055.4022 1373.1784  1137.485 1078.8431  117.9298 1355.0099  1629.751  851.8676 1448.9271  925.0033   726.908  800.1432 1598.0911  579.2901 1289.0691 1077.4136 1484.5906  658.0336  1674.417 1287.6482 1393.2827  919.3971  1445.419 1388.1444 1079.7018 1134.8972 1461.5645
  weight sum            40        11      3234       110        27      1368       138        57       746       133        60        61       385        49       141       160       712       336        43       101       463       226       218       177        77        48         5
  precision         1.0301    1.0301    1.0301    1.0301    1.0301    1.0301    1.0301    1.0301    1.0301    1.0301    1.0301    1.0301    1.0301    1.0301    1.0301    1.0301    1.0301    1.0301    1.0301    1.0301    1.0301    1.0301    1.0301    1.0301    1.0301    1.0301    1.0301

1Int(dB)
  mean            -18.8798   -7.4674  -49.2205  -11.4173   -6.5474   -6.8994  -27.5505   -4.6026   -9.6448    -7.149   -6.1379  -11.8614  -12.8075   -8.4496   -7.9836   -7.0343  -11.6424   -6.3336  -27.1795  -18.7253   -16.303   -8.4255  -10.4698  -23.0704   -8.7004   -13.665  -24.1283
  std. dev.        11.8505    7.5443   15.8188    9.8053    5.5642   12.7251   14.6957    4.2384   11.2836     6.509    6.6753    9.4181   10.4841     8.576    9.1745    6.9236   13.0523    6.4812   18.4778   13.5642   10.9863    9.8366   12.0458    12.871   12.8177    9.2176    4.1431
  weight sum            40        11      3234       110        27      1368       138        57       746       133        60        61       385        49       141       160       712       336        43       101       463       226       218       177        77        48         5
  precision         0.1008    0.1008    0.1008    0.1008    0.1008    0.1008    0.1008    0.1008    0.1008    0.1008    0.1008    0.1008    0.1008    0.1008    0.1008    0.1008    0.1008    0.1008    0.1008    0.1008    0.1008    0.1008    0.1008    0.1008    0.1008    0.1008    0.1008

1Pitch(Hz)
  mean            131.6464   209.241   15.8268  145.1709  153.3877  207.0932   71.3594  216.7625  168.4113  198.0853  221.2274  183.4292  145.3172   207.973  193.0612  174.6168  164.5924  203.9334  118.3094  145.5468  128.6236  170.8475   199.501  126.3234  168.2068  131.9692   67.2315
  std. dev.       110.4932  122.5385   54.5523   85.8281   41.6464  118.5131    92.084   73.8954   97.9387   81.2489   82.4547  116.6295    93.238  109.5253   88.0271   75.1762  113.2428   80.5572  126.3482  126.1767  109.9063   80.4691   120.686  124.5288   94.8693   67.4492   82.3435
  weight sum            40        11      3234       110        27      1368       138        57       746       133        60        61       385        49       141       160       712       336        43       101       463       226       218       177        77        48         5
  precision         0.2034    0.2034    0.2034    0.2034    0.2034    0.2034    0.2034    0.2034    0.2034    0.2034    0.2034    0.2034    0.2034    0.2034    0.2034    0.2034    0.2034    0.2034    0.2034    0.2034    0.2034    0.2034    0.2034    0.2034    0.2034    0.2034    0.2034

1RawPitch
  mean            123.0572   199.901   12.9483  134.1929  147.9736   197.558   61.8242  214.7616  160.8464  190.1691  212.0547  143.1743  134.7046  186.3118  184.0377  170.4485  155.7527  195.6323  112.5782  137.9792  112.1178  152.4399  187.6775  105.8027  156.3519  117.4974         0
  std. dev.       113.1477  110.3094   48.8007   88.8529    48.318  120.8497   93.5326   74.2334  102.2888   89.6323   91.4838  115.3618   92.9403  115.6507    94.084   74.3791  117.0548   89.5579  126.8739   128.386  112.4126   93.4441   120.986  121.7114  101.5864   73.6667    0.0348
  weight sum            40        11      3234       110        27      1368       138        57       746       133        60        61       385        49       141       160       712       336        43       101       463       226       218       177        77        48         5
  precision         0.2088    0.2088    0.2088    0.2088    0.2088    0.2088    0.2088    0.2088    0.2088    0.2088    0.2088    0.2088    0.2088    0.2088    0.2088    0.2088    0.2088    0.2088    0.2088    0.2088    0.2088    0.2088    0.2088    0.2088    0.2088    0.2088    0.2088

1SmPitch
  mean            131.6872  209.2681   14.3604   142.124  153.3827  205.4578   63.8187  216.7485  165.6273  197.5786  221.2718  160.8777  143.4528  191.1879   190.986  174.5897  162.0426  202.2338  113.6696  144.6987  123.8642  164.1389  195.9784  116.6704   166.644  128.5812   34.7897
  std. dev.       110.4759  122.5298   51.0284   86.5214   41.6522   119.331   90.5902   73.8931  100.1622   82.3924   82.4622  110.4741   93.1972   120.166   90.7384    75.181  114.4287   83.1784  127.1285  126.9275  111.1188    85.936  122.4742  124.1898   96.2918   69.7893   69.5795
  weight sum            40        11      3234       110        27      1368       138        57       746       133        60        61       385        49       141       160       712       336        43       101       463       226       218       177        77        48         5
  precision         0.2051    0.2051    0.2051    0.2051    0.2051    0.2051    0.2051    0.2051    0.2051    0.2051    0.2051    0.2051    0.2051    0.2051    0.2051    0.2051    0.2051    0.2051    0.2051    0.2051    0.2051    0.2051    0.2051    0.2051    0.2051    0.2051    0.2051

1Melogram(st)
  mean             34.8975   50.9645    4.6661   42.9171   50.0545   48.5983   22.0229   55.6154   45.4706   52.3324   53.5545   46.8724   41.3427   45.6993   50.7411   50.4757   43.3948   52.8901    27.833   38.3266   34.6217   47.3782   44.4291    31.726   47.9532   44.5122   31.3679
  std. dev.         27.296   17.7647   15.2463   19.4454     4.808   20.7936   26.1791     6.098   20.8835    12.276   13.7587   20.6974   22.4649   22.6614   14.7415   12.3653   23.1016   12.4152   28.7973   26.4772   26.4459   17.5005    24.856   28.2875   16.5256   16.0358   25.6122
  weight sum            40        11      3234       110        27      1368       138        57       746       133        60        61       385        49       141       160       712       336        43       101       463       226       218       177        77        48         5
  precision         0.0353    0.0353    0.0353    0.0353    0.0353    0.0353    0.0353    0.0353    0.0353    0.0353    0.0353    0.0353    0.0353    0.0353    0.0353    0.0353    0.0353    0.0353    0.0353    0.0353    0.0353    0.0353    0.0353    0.0353    0.0353    0.0353    0.0353

1ZCross
  mean              1.6545    4.5124    0.2554     2.719     4.101    6.4278    0.9499    3.7959    4.2003    3.7321    5.2394    2.6915    3.1471    4.9351     3.421     4.025    3.4785     4.178    1.6871    2.0918    3.1117    4.3363    3.4504    0.8125    4.5289    2.3864    0.2545
  std. dev.         2.6575    2.3881    1.3162    2.3871    2.1165    5.1138    2.0156    1.8542    3.4667    2.2138    2.9309    3.2189    4.1866    3.7583    2.8363    2.1947    3.6204    2.9311    3.0654    3.4291    4.4201    3.1456    3.5108    1.4409    3.1074    1.9892    0.5091
  weight sum            40        11      3234       110        27      1368       138        57       746       133        60        61       385        49       141       160       712       336        43       101       463       226       218       177        77        48         5
  precision         1.2727    1.2727    1.2727    1.2727    1.2727    1.2727    1.2727    1.2727    1.2727    1.2727    1.2727    1.2727    1.2727    1.2727    1.2727    1.2727    1.2727    1.2727    1.2727    1.2727    1.2727    1.2727    1.2727    1.2727    1.2727    1.2727    1.2727

1F1(Hz)
  mean            400.0913  476.1197   58.2974  518.4606  468.5886  589.0338  260.5715  465.8264  408.4223  515.0288  542.8367  551.2757  325.1292    559.76  445.3146  508.3936  411.5688  554.4414  251.9536  429.1965  421.8801  552.3393   424.862  316.6809  500.2013  397.6626  280.3215
  std. dev.       262.2018  174.1933  178.1576  198.9857   88.4359   336.164  269.3271  132.1154  216.3841  134.1908  156.1744  214.0687  214.6223  190.0098   199.584  182.3517  260.2244  153.4655  257.3355  279.8134    288.33  198.9378  361.7064  264.7343  188.5533  177.3025  343.6322
  weight sum            40        11      3234       110        27      1368       138        57       746       133        60        61       385        49       141       160       712       336        43       101       463       226       218       177        77        48         5
  precision         0.5127    0.5127    0.5127    0.5127    0.5127    0.5127    0.5127    0.5127    0.5127    0.5127    0.5127    0.5127    0.5127    0.5127    0.5127    0.5127    0.5127    0.5127    0.5127    0.5127    0.5127    0.5127    0.5127    0.5127    0.5127    0.5127    0.5127

1F2(Hz)
  mean           1339.6822 1655.9458  173.7875 1509.0836 1871.6355 1307.9217  828.3921 1691.1469 1477.3725 1505.9489 1756.0795 1533.6359 1473.7397  1879.584 1572.6832 1565.5063 1085.7909 1661.7575  1033.808 1290.3383 1284.5163 1461.6265  924.4511 1106.0837 1518.4689 1348.1428  472.0442
  std. dev.       788.7619  545.8674  526.5016  553.2897  404.1484   621.036  872.5669  375.8333  754.7082  311.6051  411.9647  560.4012  898.7946  429.2193  632.0218   491.477  674.5578  388.1848 1003.3764   777.007  824.1985  474.9184  644.9976  862.8899  578.6423  543.1002  578.1561
  weight sum            40        11      3234       110        27      1368       138        57       746       133        60        61       385        49       141       160       712       336        43       101       463       226       218       177        77        48         5
  precision         0.6985    0.6985    0.6985    0.6985    0.6985    0.6985    0.6985    0.6985    0.6985    0.6985    0.6985    0.6985    0.6985    0.6985    0.6985    0.6985    0.6985    0.6985    0.6985    0.6985    0.6985    0.6985    0.6985    0.6985    0.6985    0.6985    0.6985

1F3(Hz)
  mean            2149.046  2561.718  296.2301 2520.2609 2581.0508 2413.6563 1416.0032  2792.029 2285.1335 2862.2543 3081.6832 2565.5353 2142.5805 2658.5978 2666.2939 2650.2825 2224.7554 2876.0135 1553.9759 2147.9374 2148.3292 2612.9867 2177.1877 1889.2071 2580.5924 2540.0771 1491.5753
  std. dev.      1267.5744  867.2211  875.0734  776.3624  116.2756 1110.6128 1442.1857  440.8886 1133.2536  398.7846  617.6402  917.7184 1286.7452  671.8991  893.3092  777.0453 1238.7361  498.6402 1460.4617 1282.6057 1339.3288   830.158 1282.0773 1415.5527  887.9639 1029.1312 1827.0139
  weight sum            40        11      3234       110        27      1368       138        57       746       133        60        61       385        49       141       160       712       336        43       101       463       226       218       177        77        48         5
  precision         1.0065    1.0065    1.0065    1.0065    1.0065    1.0065    1.0065    1.0065    1.0065    1.0065    1.0065    1.0065    1.0065    1.0065    1.0065    1.0065    1.0065    1.0065    1.0065    1.0065    1.0065    1.0065    1.0065    1.0065    1.0065    1.0065    1.0065

1F4(Hz)
  mean           2564.8618 3056.0785  360.2866 3133.6791 3536.0631 2768.1838 1678.4367 3339.9612 2766.3747 3332.5443 3039.3822  2979.661 2588.6317 3279.6309 3093.7582 3082.7411 2567.4184 3257.8544 1837.1144 2508.0505 2460.8206 3075.1233 2475.9112 2125.6487 3068.8271 2850.8264 1195.4814
  std. dev.      1499.8287 1051.7722 1061.6517  947.1939  116.2042 1267.5453 1707.0438   428.892 1350.6568  408.6818  628.9464 1037.3789 1525.8539  754.2188 1004.4678  871.6944 1421.7151  534.6086 1750.5401 1470.9179 1528.1925  895.4233 1409.4738 1602.3286 1019.9954 1127.5214 1464.1601
  weight sum            40        11      3234       110        27      1368       138        57       746       133        60        61       385        49       141       160       712       336        43       101       463       226       218       177        77        48         5
  precision         1.0301    1.0301    1.0301    1.0301    1.0301    1.0301    1.0301    1.0301    1.0301    1.0301    1.0301    1.0301    1.0301    1.0301    1.0301    1.0301    1.0301    1.0301    1.0301    1.0301    1.0301    1.0301    1.0301    1.0301    1.0301    1.0301    1.0301

2Int(dB)
  mean            -20.8729   -8.2736  -50.1381  -15.2206   -9.5299   -4.7939  -28.9965   -5.7201   -7.2226    -7.265   -6.5293  -16.5967  -10.9862  -12.2836   -7.5604   -7.3933   -9.7163   -7.3598   -27.953   -22.645  -18.7082   -9.6394   -8.0296  -26.9925   -8.9765  -15.4308   -25.761
  std. dev.        10.0357    4.4747   14.5049   11.1976    6.0177   10.5291   11.6265    4.3937    9.4909    6.0708    6.9159    8.8351    9.3463    7.5899    7.2916    6.0169   12.1824    6.6545   15.3431   12.0754    9.0128    9.9641    9.9998   10.7521   10.2322    7.2953    2.8196
  weight sum            40        11      3234       110        27      1368       138        57       746       133        60        61       385        49       141       160       712       336        43       101       463       226       218       177        77        48         5
  precision         0.1008    0.1008    0.1008    0.1008    0.1008    0.1008    0.1008    0.1008    0.1008    0.1008    0.1008    0.1008    0.1008    0.1008    0.1008    0.1008    0.1008    0.1008    0.1008    0.1008    0.1008    0.1008    0.1008    0.1008    0.1008    0.1008    0.1008

2Pitch(Hz)
  mean             92.8449  243.0546   12.2342  123.0008  149.0041  219.4697   44.5525  212.1958   183.146  198.6388  221.7155  149.5644  163.4233  195.9289  194.6276  172.6366  177.1418   200.846   95.8261  125.0455   98.7562  165.2568  221.0527    86.314  171.2731  124.0127   33.4327
  std. dev.       113.2761  115.8716   48.3753   88.5822   38.4991  107.9149   80.4882   73.3389   90.4096   83.6049    84.984  129.4861   84.1925  120.6578   85.6384   69.4882  106.6856   82.2128   116.615  126.3472   109.882   86.2498   98.5341  118.2322   84.8919   68.5621   66.8654
  weight sum            40        11      3234       110        27      1368       138        57       746       133        60        61       385        49       141       160       712       336        43       101       463       226       218       177        77        48         5
  precision         0.2034    0.2034    0.2034    0.2034    0.2034    0.2034    0.2034    0.2034    0.2034    0.2034    0.2034    0.2034    0.2034    0.2034    0.2034    0.2034    0.2034    0.2034    0.2034    0.2034    0.2034    0.2034    0.2034    0.2034    0.2034    0.2034    0.2034

2RawPitch
  mean             85.2047  233.5911   10.0558  105.6901  147.3395  209.6472   38.4616  208.7911  176.8718  193.1658  211.8216  104.7821  153.6209  154.8281  185.8146  165.4233  168.1349  190.2747   79.9399  105.9836   80.3335  155.1319  210.2912   64.7183  157.8975  105.8751         0
  std. dev.       113.6293  105.8543   42.5716   90.6276   62.2083  111.5852   80.9393   74.8908   96.4397   90.7206   95.3224  114.9827   86.0466  118.1379   92.9573   72.0706   111.735   93.4903  113.6839  126.6124  106.4821   95.9052  103.8231  106.5642   93.0131   73.7162    0.0348
  weight sum            40        11      3234       110        27      1368       138        57       746       133        60        61       385        49       141       160       712       336        43       101       463       226       218       177        77        48         5
  precision         0.2088    0.2088    0.2088    0.2088    0.2088    0.2088    0.2088    0.2088    0.2088    0.2088    0.2088    0.2088    0.2088    0.2088    0.2088    0.2088    0.2088    0.2088    0.2088    0.2088    0.2088    0.2088    0.2088    0.2088    0.2088    0.2088    0.2088

2SmPitch
  mean              92.759  243.0583   10.6967  117.1301  149.3865  217.8662   41.9175  212.2033  181.1568   198.416  221.7299   127.277  161.2553  164.7221  192.6096  172.6551  174.8902  198.2228    91.201  120.3453   92.7459  160.1144  219.9482   77.7691   169.324  120.6239         0
  std. dev.       113.1421  115.8638   43.9063   87.5951   37.8746  109.1586   79.2956   73.3313   92.1927   84.1478   84.9582  117.7033   84.9278  140.2971   88.4076   69.4549  108.2193    86.021  116.4429  127.8881  109.0119   90.7773    99.473  114.6618   86.5504   70.4802    0.0342
  weight sum            40        11      3234       110        27      1368       138        57       746       133        60        61       385        49       141       160       712       336        43       101       463       226       218       177        77        48         5
  precision         0.2051    0.2051    0.2051    0.2051    0.2051    0.2051    0.2051    0.2051    0.2051    0.2051    0.2051    0.2051    0.2051    0.2051    0.2051    0.2051    0.2051    0.2051    0.2051    0.2051    0.2051    0.2051    0.2051    0.2051    0.2051    0.2051    0.2051

2Melogram(st)
  mean             24.1324   56.7441    3.7056    37.726   49.5674   51.6802    15.911   55.1075   49.1776   52.5572   53.5228   39.5538   45.9084   34.4087   51.7864   51.6807   46.5218   52.2485   23.4229   31.9535   26.9486   45.0699   50.6374   22.1748    49.702   43.9671   20.8602
  std. dev.        28.2013    8.5289    13.742   22.3369     4.659   17.1033   24.7358    6.2037   17.1261   11.6326    13.838   25.4156   18.9795   27.9846   12.7781    8.4682   20.6378   13.3555   27.9115   28.2583   27.4221   20.1871    19.473   27.7393   13.2756   15.8995   25.5485
  weight sum            40        11      3234       110        27      1368       138        57       746       133        60        61       385        49       141       160       712       336        43       101       463       226       218       177        77        48         5
  precision         0.0353    0.0353    0.0353    0.0353    0.0353    0.0353    0.0353    0.0353    0.0353    0.0353    0.0353    0.0353    0.0353    0.0353    0.0353    0.0353    0.0353    0.0353    0.0353    0.0353    0.0353    0.0353    0.0353    0.0353    0.0353    0.0353    0.0353

2ZCross
  mean              3.8818    3.8182    0.1472    1.8628    3.2997     6.933    0.6364    3.5949    4.6951    3.6746    4.9424    1.4605    3.0678    4.2338    2.8614    3.5875    3.8039    3.2727    1.2431    1.2853    3.4526    3.8182    3.4387    0.4027    3.7025    1.6705         0
  std. dev.         7.0631    2.1708    0.8716    2.0996    2.3304    4.6945    1.6732    1.7212    3.4013     2.155    2.9031    2.1964     3.289     3.694    2.0345    2.0663    3.4966    2.3914    2.6681    2.9673    5.7944     2.876    3.0618    1.0046    2.4372    1.6868    0.2121
  weight sum            40        11      3234       110        27      1368       138        57       746       133        60        61       385        49       141       160       712       336        43       101       463       226       218       177        77        48         5
  precision         1.2727    1.2727    1.2727    1.2727    1.2727    1.2727    1.2727    1.2727    1.2727    1.2727    1.2727    1.2727    1.2727    1.2727    1.2727    1.2727    1.2727    1.2727    1.2727    1.2727    1.2727    1.2727    1.2727    1.2727    1.2727    1.2727    1.2727

2F1(Hz)
  mean            309.2226  561.5472   45.7835  502.2932  453.3418  646.6119  169.9053  470.1795  435.3843  507.6396  535.1981  473.0995  340.7633  559.1218  447.2307  501.3413  450.1528  526.5397  214.3984  362.8402  344.3701  541.3966  462.9492  216.2259  499.4623  368.7188  144.7747
  std. dev.       299.4267  111.5046   157.842  235.0568   83.9917  300.2969  254.5554  131.5729  182.9634  140.7686  163.2022  292.6262  174.3406  251.1646  180.6226  162.3793  244.2194  147.6227  245.6023  304.3039  306.3413  210.5122  332.7223  250.1525  170.2777  174.0225  289.5494
  weight sum            40        11      3234       110        27      1368       138        57       746       133        60        61       385        49       141       160       712       336        43       101       463       226       218       177        77        48         5
  precision         0.5127    0.5127    0.5127    0.5127    0.5127    0.5127    0.5127    0.5127    0.5127    0.5127    0.5127    0.5127    0.5127    0.5127    0.5127    0.5127    0.5127    0.5127    0.5127    0.5127    0.5127    0.5127    0.5127    0.5127    0.5127    0.5127    0.5127

2F2(Hz)
  mean            972.1855  1725.986   138.821 1436.0208 1920.1422 1387.7623  520.3549 1630.2796 1633.7862 1494.6889 1790.4456 1265.7452 1740.6907 1730.0201 1631.3867 1637.4908 1123.9385 1668.3766  892.5491 1093.4728 1059.1039 1451.1614  1000.033  768.8281  1532.974 1367.6716  234.4156
  std. dev.       886.6047  141.3137  474.0493  652.2484  390.8971   518.783  794.0011  360.3137  662.2232  292.6037  429.6425  756.8167  805.0767  618.3902  527.7962  420.8231  603.6465  382.1102   993.992  860.3745  903.2606  510.3052   546.594  850.7872  499.5849  586.6274  468.8312
  weight sum            40        11      3234       110        27      1368       138        57       746       133        60        61       385        49       141       160       712       336        43       101       463       226       218       177        77        48         5
  precision         0.6985    0.6985    0.6985    0.6985    0.6985    0.6985    0.6985    0.6985    0.6985    0.6985    0.6985    0.6985    0.6985    0.6985    0.6985    0.6985    0.6985    0.6985    0.6985    0.6985    0.6985    0.6985    0.6985    0.6985    0.6985    0.6985    0.6985

2F3(Hz)
  mean           1576.1935 2851.9447  236.9164 2377.1879 2559.8033 2582.0803  905.4576 2773.6655 2466.1143 2867.9147 3071.6857 2143.2836 2427.5868 2482.9806 2750.4797 2731.4096 2381.9061  2868.504 1329.2542 1809.9758 1760.4591 2544.8012  2460.271 1353.9233 2614.2239 2480.1298  754.6445
  std. dev.      1439.0693  363.1554  790.3143  957.8836  118.4898  939.5509 1341.7145  454.0696  983.2863  389.3036  635.5128 1267.5719 1119.2236  911.0677   699.581  657.7068 1133.1835  491.9114 1430.9717 1414.8086 1470.2935  889.3045 1089.2339 1460.6297  787.6904 1080.8476  1509.289
  weight sum            40        11      3234       110        27      1368       138        57       746       133        60        61       385        49       141       160       712       336        43       101       463       226       218       177        77        48         5
  precision         1.0065    1.0065    1.0065    1.0065    1.0065    1.0065    1.0065    1.0065    1.0065    1.0065    1.0065    1.0065    1.0065    1.0065    1.0065    1.0065    1.0065    1.0065    1.0065    1.0065    1.0065    1.0065    1.0065    1.0065    1.0065    1.0065    1.0065

2F4(Hz)
  mean           1898.8285 3289.9945  290.1716 2953.0356 3562.4249 2960.7362 1057.8587 3330.0402  2968.206 3355.4843  3056.979  2490.537 2906.6724 3079.3589 3240.6469 3173.1799 2739.0875 3258.1671 1638.1223  2132.978 2024.8249  3004.756  2778.374 1538.7445 3149.4523 2782.5209  598.0497
  std. dev.      1728.0742  453.0635  965.7542  1172.428  107.1827 1070.8135 1568.7923  430.4935 1156.9806   399.068  644.5346 1452.8387 1305.1093 1092.0474  773.6277   715.285 1292.2218  542.1191 1782.9334 1643.5575 1687.5003  974.8982 1167.5154 1666.9883   889.841 1194.8866 1196.0995
  weight sum            40        11      3234       110        27      1368       138        57       746       133        60        61       385        49       141       160       712       336        43       101       463       226       218       177        77        48         5
  precision         1.0301    1.0301    1.0301    1.0301    1.0301    1.0301    1.0301    1.0301    1.0301    1.0301    1.0301    1.0301    1.0301    1.0301    1.0301    1.0301    1.0301    1.0301    1.0301    1.0301    1.0301    1.0301    1.0301    1.0301    1.0301    1.0301    1.0301

3Int(dB)
  mean            -19.3611   -9.9962  -50.8607  -19.9172  -10.3661   -3.4567  -25.3719   -6.0012   -5.6493   -7.9076   -7.0534  -20.5257   -9.5022  -15.1303   -7.5833   -8.1398   -8.6644   -8.9322  -22.8012  -22.8915  -21.1109  -11.9918   -5.9413  -25.9579   -8.7684  -16.2875  -28.5024
  std. dev.         7.7565    3.8366   13.3693   11.6389    5.9192    8.7075    9.2254    4.1873    8.2505    6.2206    7.2104    6.4423    8.6317    6.0216    5.8858    5.6054   12.1183    7.4704   11.6707   10.0883    7.1461    9.9455    8.0011    9.2949    7.1323    5.5001    3.0818
  weight sum            40        11      3234       110        27      1368       138        57       746       133        60        61       385        49       141       160       712       336        43       101       463       226       218       177        77        48         5
  precision         0.1008    0.1008    0.1008    0.1008    0.1008    0.1008    0.1008    0.1008    0.1008    0.1008    0.1008    0.1008    0.1008    0.1008    0.1008    0.1008    0.1008    0.1008    0.1008    0.1008    0.1008    0.1008    0.1008    0.1008    0.1008    0.1008    0.1008

3Pitch(Hz)
  mean             82.8243  242.8882    8.6414   96.3862  148.4618  226.3699   69.4909  210.7009  192.4898  197.3055  218.8243  119.9169  174.3019  178.5519  196.7809  172.5222  180.2959  194.3082  113.0977  120.6581   74.7533  162.5807  232.3523  100.0392  177.8309  126.8979         0
  std. dev.       116.4666  120.5461   41.2262   88.4217   37.7381  100.9895   99.1958   71.4876    85.636   85.1182   91.1227  130.3383   75.0715   124.953   85.4633   64.7022  103.4062   85.9498  120.1807   120.908  103.7414   91.3755   82.3117  116.9968   71.4767   67.5526    0.0339
  weight sum            40        11      3234       110        27      1368       138        57       746       133        60        61       385        49       141       160       712       336        43       101       463       226       218       177        77        48         5
  precision         0.2034    0.2034    0.2034    0.2034    0.2034    0.2034    0.2034    0.2034    0.2034    0.2034    0.2034    0.2034    0.2034    0.2034    0.2034    0.2034    0.2034    0.2034    0.2034    0.2034    0.2034    0.2034    0.2034    0.2034    0.2034    0.2034    0.2034

3RawPitch
  mean              67.338  242.2461    6.9092   78.8007  152.1647  216.3311   54.0342  207.9267  188.8553  192.4154   208.067    72.513  166.4766  133.6429  185.9434  160.8196  174.0908   182.853   78.8086    87.559   53.3147   156.453  222.5693    78.728  163.1333   98.3981         0
  std. dev.       106.9584  114.3486   35.5094   86.3558   61.9604  105.7238   94.5182   73.3988   89.4789   92.3885  103.6798  103.4893   78.7839  114.1968   95.2663    71.931  108.0935   97.6616  114.5801  119.4019   92.8695   96.2144   89.8429  106.6509   80.4684   73.1767    0.0348
  weight sum            40        11      3234       110        27      1368       138        57       746       133        60        61       385        49       141       160       712       336        43       101       463       226       218       177        77        48         5
  precision         0.2088    0.2088    0.2088    0.2088    0.2088    0.2088    0.2088    0.2088    0.2088    0.2088    0.2088    0.2088    0.2088    0.2088    0.2088    0.2088    0.2088    0.2088    0.2088    0.2088    0.2088    0.2088    0.2088    0.2088    0.2088    0.2088    0.2088

3SmPitch
  mean             82.2872  242.8904    7.4185   89.7865  150.2222  224.6095   56.7209  210.7027  191.6241  196.7627  218.8205   97.3451  171.8543  145.4317    194.06  172.6269   178.962  191.6862   97.6506  112.9058   67.5607  159.1541  232.3227   91.4408  176.6607  123.5214         0
  std. dev.       115.6212  120.5381   36.4788   86.0619   35.4094   102.523    95.654   71.4902   86.4181   86.2961   91.1003  112.8316   76.5988  142.8655   89.4179   64.6384  104.3249   89.3478  118.6116  123.4809  100.5461   93.9496   82.2366  115.9938   72.1056   69.6554    0.0342
  weight sum            40        11      3234       110        27      1368       138        57       746       133        60        61       385        49       141       160       712       336        43       101       463       226       218       177        77        48         5
  precision         0.2051    0.2051    0.2051    0.2051    0.2051    0.2051    0.2051    0.2051    0.2051    0.2051    0.2051    0.2051    0.2051    0.2051    0.2051    0.2051    0.2051    0.2051    0.2051    0.2051    0.2051    0.2051    0.2051    0.2051    0.2051    0.2051    0.2051

3Melogram(st)
  mean              20.505   56.4475     2.748   30.5016   49.5371   53.8682   18.5492   55.0147   51.3162   52.3538   52.6041   31.4703   49.4307   29.1884   51.8448   51.3696   47.7311   50.9131   27.7309   32.0777    20.118   43.7297   54.9086   24.5196   51.6875   44.8978   10.4257
  std. dev.        27.9961    8.9492   12.0067   24.5513    4.5358   13.2991    26.461    6.1073   13.9659   11.7579    15.467    27.717   14.5646   29.0067   12.8223    8.4395   19.2227   15.2335   28.7641   28.2708   26.5829   21.6323   12.8002   28.2592     8.539    14.604   20.8513
  weight sum            40        11      3234       110        27      1368       138        57       746       133        60        61       385        49       141       160       712       336        43       101       463       226       218       177        77        48         5
  precision         0.0352    0.0352    0.0352    0.0352    0.0352    0.0352    0.0352    0.0352    0.0352    0.0352    0.0352    0.0352    0.0352    0.0352    0.0352    0.0352    0.0352    0.0352    0.0352    0.0352    0.0352    0.0352    0.0352    0.0352    0.0352    0.0352    0.0352

3ZCross
  mean              7.9545    3.2397    0.0854    1.0876    2.9697     7.241    1.1344    3.7065    4.8248    3.6172    4.5394    0.6468    3.1868    3.8442    2.5364    3.0545    3.9665    2.4015    3.5518    0.9073    3.5296    2.9847     3.573    0.5249    3.2231    1.3523         0
  std. dev.         11.397    2.3256    0.6292    1.6446    2.2449    4.3829    2.3372    1.7564    3.1533    2.1729    2.7234    1.2753    2.9527    3.5859    1.3851    1.7381    3.0096    1.5521    5.1392    2.3375    6.2163    2.4229    2.8222    1.1274    1.8067    1.5459    0.2121
  weight sum            40        11      3234       110        27      1368       138        57       746       133        60        61       385        49       141       160       712       336        43       101       463       226       218       177        77        48         5
  precision         1.2727    1.2727    1.2727    1.2727    1.2727    1.2727    1.2727    1.2727    1.2727    1.2727    1.2727    1.2727    1.2727    1.2727    1.2727    1.2727    1.2727    1.2727    1.2727    1.2727    1.2727    1.2727    1.2727    1.2727    1.2727    1.2727    1.2727

3F1(Hz)
  mean            202.7179   593.565   33.6522  445.2577  447.8544  704.1252  148.5037  470.4404  468.1216  513.8878  515.8111  363.7772  362.9833  523.6228  437.8538  482.6293  487.9887   482.181  207.2093   313.823   249.277  514.8971  498.1345   166.333  487.8509  367.1274         0
  std. dev.       289.5045  129.1149  135.0197  281.0365   81.4069   249.214  247.3273  127.1267  135.4424  150.3522  169.9361  330.5129  139.6622  308.3036  166.2944  142.8992  219.6408  147.9711  248.6353  303.7503   300.204   217.955  299.1257  236.3658   151.229  161.4238    0.0854
  weight sum            40        11      3234       110        27      1368       138        57       746       133        60        61       385        49       141       160       712       336        43       101       463       226       218       177        77        48         5
  precision         0.5127    0.5127    0.5127    0.5127    0.5127    0.5127    0.5127    0.5127    0.5127    0.5127    0.5127    0.5127    0.5127    0.5127    0.5127    0.5127    0.5127    0.5127    0.5127    0.5127    0.5127    0.5127    0.5127    0.5127    0.5127    0.5127    0.5127

3F2(Hz)
  mean            626.4819 1655.9458  104.6514 1265.3653 1914.7095 1470.4908  424.3369 1578.9707 1802.3085 1476.9797 1760.2472  961.4066 1971.4305 1504.2346 1666.2174 1672.8478 1165.7924 1632.3458     841.9  935.3911  786.1817 1429.2731 1080.7158  562.2782 1572.8791 1462.0269         0
  std. dev.       858.5611  133.0622   415.952  774.7198  365.6044  383.7193  719.5944  348.4014  487.8366  305.2219  487.7326   850.392  644.7659  798.8866  446.5919  334.1607  525.3227  418.0342  976.9045  865.6064  915.0606  547.1746  431.8771   774.626  379.5959  573.9695    0.1164
  weight sum            40        11      3234       110        27      1368       138        57       746       133        60        61       385        49       141       160       712       336        43       101       463       226       218       177        77        48         5
  precision         0.6985    0.6985    0.6985    0.6985    0.6985    0.6985    0.6985    0.6985    0.6985    0.6985    0.6985    0.6985    0.6985    0.6985    0.6985    0.6985    0.6985    0.6985    0.6985    0.6985    0.6985    0.6985    0.6985    0.6985    0.6985    0.6985    0.6985

3F3(Hz)
  mean           1008.0966 2855.0556  178.5267 2081.0687 2538.4067 2743.9462  791.6181 2754.1719 2662.4498 2860.5062 3010.0232 1630.1205 2672.9489 2187.9232 2768.0321 2801.9499 2534.4259 2812.4776 1274.4606 1575.0518 1292.2482 2478.6242 2714.6841 1028.1597  2687.787 2567.0838         0
  std. dev.      1378.2052  399.2622  694.1704 1189.0713  114.7769  702.3743 1303.5362  465.0807   729.876  458.2327  754.1328 1434.7311  890.7818 1152.3941  576.4059   552.646  989.9708  589.6756 1439.0959 1448.3433  1480.795  954.3456  768.9985   1399.96  607.8331 1031.0332    0.1677
  weight sum            40        11      3234       110        27      1368       138        57       746       133        60        61       385        49       141       160       712       336        43       101       463       226       218       177        77        48         5
  precision         1.0065    1.0065    1.0065    1.0065    1.0065    1.0065    1.0065    1.0065    1.0065    1.0065    1.0065    1.0065    1.0065    1.0065    1.0065    1.0065    1.0065    1.0065    1.0065    1.0065    1.0065    1.0065    1.0065    1.0065    1.0065    1.0065    1.0065

3F4(Hz)
  mean           1232.6149 3254.3172  219.9788 2592.5352 3583.2931 3147.7453  903.7087 3318.1132 3199.5596 3346.2293 3016.1717 1898.9986 3176.0491 2748.5432 3305.2335 3243.3395 2913.9175 3213.9084 1527.7866 1852.0994 1498.0465 2916.4949  3074.217 1149.4479 3283.3059 2845.9981         0
  std. dev.      1683.3527  421.8444  853.2071 1468.1187   94.5502  796.1279 1489.2819  424.9439  841.1377  488.4351  763.1423 1657.0559 1017.7226 1428.0079  619.2737  561.6121 1121.3472  675.8153  1744.058 1679.9741 1714.3929 1061.2671  772.1011 1569.8968  626.3155 1125.6959    0.1717
  weight sum            40        11      3234       110        27      1368       138        57       746       133        60        61       385        49       141       160       712       336        43       101       463       226       218       177        77        48         5
  precision         1.0301    1.0301    1.0301    1.0301    1.0301    1.0301    1.0301    1.0301    1.0301    1.0301    1.0301    1.0301    1.0301    1.0301    1.0301    1.0301    1.0301    1.0301    1.0301    1.0301    1.0301    1.0301    1.0301    1.0301    1.0301    1.0301    1.0301





=== Stratified cross-validation ===

Correctly Classified Instances        3133               34.3305 %
Incorrectly Classified Instances      5993               65.6695 %
Kappa statistic                          0.2573
K&B Relative Info Score             189040.0165 %
K&B Information Score                 6440.7039 bits      0.7058 bits/instance
Class complexity | order 0           31014.8678 bits      3.3985 bits/instance
Class complexity | scheme           263133.5196 bits     28.8334 bits/instance
Complexity improvement     (Sf)    -232118.6518 bits    -25.4349 bits/instance
Mean absolute error                      0.0486
Root mean squared error                  0.2074
Relative absolute error                 78.973  %
Root relative squared error            118.2721 %
Coverage of cases (0.95 level)          41.3215 %
Mean rel. region size (0.95 level)       6.03   %
Total Number of Instances             9126     


=== Detailed Accuracy By Class ===

                 TP Rate  FP Rate  Precision  Recall   F-Measure  MCC      ROC Area  PRC Area  Class
                 0,175    0,002    0,292      0,175    0,219      0,223    0,816     0,112     ch
                 0,000    0,005    0,000      0,000    0,000      -0,002   0,711     0,002     rr
                 0,746    0,021    0,951      0,746    0,836      0,774    0,959     0,939     0
                 0,136    0,024    0,065      0,136    0,088      0,078    0,767     0,044     hs
                 0,852    0,154    0,016      0,852    0,032      0,104    0,925     0,047     hg
                 0,266    0,026    0,641      0,266    0,376      0,354    0,840     0,521     a
                 0,225    0,036    0,087      0,225    0,125      0,118    0,733     0,065     c
                 0,316    0,094    0,021      0,316    0,039      0,060    0,821     0,023     b
                 0,031    0,008    0,253      0,031    0,055      0,063    0,734     0,171     e
                 0,030    0,020    0,022      0,030    0,026      0,009    0,758     0,030     d
                 0,200    0,049    0,026      0,200    0,046      0,056    0,782     0,023     g
                 0,098    0,015    0,041      0,098    0,058      0,054    0,793     0,034     f
                 0,161    0,023    0,238      0,161    0,192      0,167    0,788     0,180     i
                 0,224    0,004    0,256      0,224    0,239      0,236    0,855     0,117     j
                 0,007    0,003    0,036      0,007    0,012      0,009    0,757     0,033     m
                 0,038    0,014    0,045      0,038    0,041      0,026    0,786     0,043     l
                 0,006    0,004    0,103      0,006    0,011      0,006    0,692     0,146     o
                 0,080    0,031    0,091      0,080    0,085      0,052    0,783     0,090     n
                 0,047    0,009    0,023      0,047    0,031      0,026    0,688     0,023     q
                 0,000    0,000    0,000      0,000    0,000      -0,002   0,732     0,028     p
                 0,099    0,004    0,597      0,099    0,170      0,230    0,735     0,235     s
                 0,022    0,002    0,227      0,022    0,040      0,064    0,745     0,065     r
                 0,087    0,011    0,157      0,087    0,112      0,101    0,825     0,107     u
                 0,147    0,018    0,140      0,147    0,143      0,126    0,774     0,094     t
                 0,000    0,001    0,000      0,000    0,000      -0,002   0,696     0,016     v
                 0,104    0,015    0,036      0,104    0,054      0,053    0,828     0,066     y
                 0,600    0,082    0,004      0,600    0,008      0,044    0,805     0,006     z
Weighted Avg.    0,343    0,018    0,525      0,343    0,392      0,368    0,838     0,471     


=== Confusion Matrix ===

    a    b    c    d    e    f    g    h    i    j    k    l    m    n    o    p    q    r    s    t    u    v    w    x    y    z   aa   <-- classified as
    7    1    5    0    1    1    3    3    0    1    2    3    0    0    0    0    0    4    0    0    5    0    0    3    0    0    1 |    a = ch
    0    0    0    0    6    2    0    1    0    0    1    0    0    0    0    0    0    0    0    0    0    0    1    0    0    0    0 |    b = rr
    0    1 2413   55   55    3   32   18    0   18    9   21    1    3    1    3    0   29    2    0    3    2    1   49    0   11  504 |    c = 0
    0    0    3   15   37    3    4    7    1    2    3    8    2    0    0    5    0    2    0    0    0    2    0    5    0    4    7 |    d = hs
    0    0    0    0   23    0    0    3    0    0    0    0    0    0    0    0    0    1    0    0    0    0    0    0    0    0    0 |    e = hg
    0   10   15   12  249  364   48  164   27   83  136    4   41    3    1   23   23   43   29    2    7    3   43    7    2   11   18 |    f = a
    0    0   23    9    9    1   31    4    0    0    2    9    0    0    0    0    0    4    3    0    1    0    1   16    0    1   24 |    g = c
    0    1    0    0   22    2    0   18    1    0    6    0    1    0    0    4    0    2    0    0    0    0    0    0    0    0    0 |    h = b
    0    4    3   10  243   31   26  115   23   14   91    7   54    1    6   19    7   23   23    0    7    0   12    5    0    8   14 |    i = e
    0    3    0    0   52    6    3   32    3    4   13    0    1    0    1    6    0    3    0    0    0    0    0    1    0    5    0 |    j = d
    0    3    0    1   19    4    0   10    0    2   12    0    1    0    0    1    0    5    0    0    0    0    0    1    0    0    1 |    k = g
    0    0    0    6   12    3    4    5    0    0    2    6    0    1    0    1    0    7    0    0    0    0    0    9    0    0    5 |    l = f
    0    0    4   11   94   11   28   51   13    0   23    4   62    0   10   16    0   14    6    0    4    1    1    9    1   17    5 |    m = i
    0    1    0    6    5    3    2    4    1    1    3    4    0   11    0    0    0    5    0    0    0    1    0    1    0    0    1 |    n = j
    0    0    1    3   53    7    3   30    0    2   10    0   10    0    1    3    0    9    1    0    0    0    3    0    0    4    1 |    o = m
    0    2    0    1   73    4    4   41    2    2    6    2    8    0    1    6    0    6    1    0    0    0    0    0    0    1    0 |    p = l
    0   10   13   18  148   60   36  141   11   27   29    6   39    0    3   12    4   24    9    0    2    0   33    5    0   33   49 |    q = o
    0    4    0   13  106   19    1   84    1    2   35    0    6    1    1    9    0   27    0    0    0    0    2    4    0   16    5 |    r = n
    0    0    8    1    5    1    8    0    1    0    3    1    1    0    0    0    0    5    2    0    0    1    0    4    0    0    2 |    s = q
    0    1    6    7   15    5   21    7    0    2    3   10    2    0    0    0    0    7    1    0    0    0    0    8    0    0    6 |    t = p
   14    1   22   37   48    8   44   19    1    1   24   35    3   21    0    1    2   35    6    0   46    5    2   24    0    5   59 |    u = s
    0    0    1   17   55    5    6   29    3    8   31    2    7    0    0   14    0   18    0    0    0    5    1    6    3    2   13 |    v = r
    1    3    1    1   21   22   15   68    3    5    4    2   17    1    3    7    3    1    3    0    2    1   19    1    0   12    2 |    w = u
    0    1   15    8   17    1   33    4    0    2    3   18    1    1    0    0    0   16    1    0    0    1    1   26    0    0   28 |    x = t
    0    0    2    0   37    2    4   11    0    4    7    0    1    0    0    2    0    4    1    0    0    0    0    0    0    2    0 |    y = v
    2    0    0    0   23    0    2    1    0    0    0    3    3    0    0    1    0    4    0    0    0    0    1    2    0    5    1 |    z = y
    0    0    1    0    0    0    0    0    0    0    0    1    0    0    0    0    0    0    0    0    0    0    0    0    0    0    3 |   aa = z

=== Percent Confusion Matrix ===
a	b	c	d	e	f	g	h	i	j	k	l	m	n	o	p	q	r	s	t	u	v	w	x	y	z	aa	
17.5	2.5	12.5	0.0	2.5	2.5	7.5	7.5	0.0	2.5	5.0	7.5	0.0	0.0	0.0	0.0	0.0	10.0	0.0	0.0	12.5	0.0	0.0	7.5	0.0	0.0	2.5	 a = ch
0.0	0.0	0.0	0.0	54.55	18.18	0.0	9.09	0.0	0.0	9.09	0.0	0.0	0.0	0.0	0.0	0.0	0.0	0.0	0.0	0.0	0.0	9.09	0.0	0.0	0.0	0.0	 b = rr
0.0	0.03	74.61	1.7	1.7	0.09	0.99	0.56	0.0	0.56	0.28	0.65	0.03	0.09	0.03	0.09	0.0	0.9	0.06	0.0	0.09	0.06	0.03	1.52	0.0	0.34	15.58	 c = 0
0.0	0.0	2.73	13.64	33.64	2.73	3.64	6.36	0.91	1.82	2.73	7.27	1.82	0.0	0.0	4.55	0.0	1.82	0.0	0.0	0.0	1.82	0.0	4.55	0.0	3.64	6.36	 d = hs
0.0	0.0	0.0	0.0	85.19	0.0	0.0	11.11	0.0	0.0	0.0	0.0	0.0	0.0	0.0	0.0	0.0	3.7	0.0	0.0	0.0	0.0	0.0	0.0	0.0	0.0	0.0	 e = hg
0.0	0.73	1.1	0.88	18.2	26.61	3.51	11.99	1.97	6.07	9.94	0.29	3.0	0.22	0.07	1.68	1.68	3.14	2.12	0.15	0.51	0.22	3.14	0.51	0.15	0.8	1.32	 f = a
0.0	0.0	16.67	6.52	6.52	0.72	22.46	2.9	0.0	0.0	1.45	6.52	0.0	0.0	0.0	0.0	0.0	2.9	2.17	0.0	0.72	0.0	0.72	11.59	0.0	0.72	17.39	 g = c
0.0	1.75	0.0	0.0	38.6	3.51	0.0	31.58	1.75	0.0	10.53	0.0	1.75	0.0	0.0	7.02	0.0	3.51	0.0	0.0	0.0	0.0	0.0	0.0	0.0	0.0	0.0	 h = b
0.0	0.54	0.4	1.34	32.57	4.16	3.49	15.42	3.08	1.88	12.2	0.94	7.24	0.13	0.8	2.55	0.94	3.08	3.08	0.0	0.94	0.0	1.61	0.67	0.0	1.07	1.88	 i = e
0.0	2.26	0.0	0.0	39.1	4.51	2.26	24.06	2.26	3.01	9.77	0.0	0.75	0.0	0.75	4.51	0.0	2.26	0.0	0.0	0.0	0.0	0.0	0.75	0.0	3.76	0.0	 j = d
0.0	5.0	0.0	1.67	31.67	6.67	0.0	16.67	0.0	3.33	20.0	0.0	1.67	0.0	0.0	1.67	0.0	8.33	0.0	0.0	0.0	0.0	0.0	1.67	0.0	0.0	1.67	 k = g
0.0	0.0	0.0	9.84	19.67	4.92	6.56	8.2	0.0	0.0	3.28	9.84	0.0	1.64	0.0	1.64	0.0	11.48	0.0	0.0	0.0	0.0	0.0	14.75	0.0	0.0	8.2	 l = f
0.0	0.0	1.04	2.86	24.42	2.86	7.27	13.25	3.38	0.0	5.97	1.04	16.1	0.0	2.6	4.16	0.0	3.64	1.56	0.0	1.04	0.26	0.26	2.34	0.26	4.42	1.3	 m = i
0.0	2.04	0.0	12.24	10.2	6.12	4.08	8.16	2.04	2.04	6.12	8.16	0.0	22.45	0.0	0.0	0.0	10.2	0.0	0.0	0.0	2.04	0.0	2.04	0.0	0.0	2.04	 n = j
0.0	0.0	0.71	2.13	37.59	4.96	2.13	21.28	0.0	1.42	7.09	0.0	7.09	0.0	0.71	2.13	0.0	6.38	0.71	0.0	0.0	0.0	2.13	0.0	0.0	2.84	0.71	 o = m
0.0	1.25	0.0	0.63	45.63	2.5	2.5	25.63	1.25	1.25	3.75	1.25	5.0	0.0	0.63	3.75	0.0	3.75	0.63	0.0	0.0	0.0	0.0	0.0	0.0	0.63	0.0	 p = l
0.0	1.4	1.83	2.53	20.79	8.43	5.06	19.8	1.54	3.79	4.07	0.84	5.48	0.0	0.42	1.69	0.56	3.37	1.26	0.0	0.28	0.0	4.63	0.7	0.0	4.63	6.88	 q = o
0.0	1.19	0.0	3.87	31.55	5.65	0.3	25.0	0.3	0.6	10.42	0.0	1.79	0.3	0.3	2.68	0.0	8.04	0.0	0.0	0.0	0.0	0.6	1.19	0.0	4.76	1.49	 r = n
0.0	0.0	18.6	2.33	11.63	2.33	18.6	0.0	2.33	0.0	6.98	2.33	2.33	0.0	0.0	0.0	0.0	11.63	4.65	0.0	0.0	2.33	0.0	9.3	0.0	0.0	4.65	 s = q
0.0	0.99	5.94	6.93	14.85	4.95	20.79	6.93	0.0	1.98	2.97	9.9	1.98	0.0	0.0	0.0	0.0	6.93	0.99	0.0	0.0	0.0	0.0	7.92	0.0	0.0	5.94	 t = p
3.02	0.22	4.75	7.99	10.37	1.73	9.5	4.1	0.22	0.22	5.18	7.56	0.65	4.54	0.0	0.22	0.43	7.56	1.3	0.0	9.94	1.08	0.43	5.18	0.0	1.08	12.74	 u = s
0.0	0.0	0.44	7.52	24.34	2.21	2.65	12.83	1.33	3.54	13.72	0.88	3.1	0.0	0.0	6.19	0.0	7.96	0.0	0.0	0.0	2.21	0.44	2.65	1.33	0.88	5.75	 v = r
0.46	1.38	0.46	0.46	9.63	10.09	6.88	31.19	1.38	2.29	1.83	0.92	7.8	0.46	1.38	3.21	1.38	0.46	1.38	0.0	0.92	0.46	8.72	0.46	0.0	5.5	0.92	 w = u
0.0	0.56	8.47	4.52	9.6	0.56	18.64	2.26	0.0	1.13	1.69	10.17	0.56	0.56	0.0	0.0	0.0	9.04	0.56	0.0	0.0	0.56	0.56	14.69	0.0	0.0	15.82	 x = t
0.0	0.0	2.6	0.0	48.05	2.6	5.19	14.29	0.0	5.19	9.09	0.0	1.3	0.0	0.0	2.6	0.0	5.19	1.3	0.0	0.0	0.0	0.0	0.0	0.0	2.6	0.0	 y = v
4.17	0.0	0.0	0.0	47.92	0.0	4.17	2.08	0.0	0.0	0.0	6.25	6.25	0.0	0.0	2.08	0.0	8.33	0.0	0.0	0.0	0.0	2.08	4.17	0.0	10.42	2.08	 z = y
0.0	0.0	20.0	0.0	0.0	0.0	0.0	0.0	0.0	0.0	0.0	20.0	0.0	0.0	0.0	0.0	0.0	0.0	0.0	0.0	0.0	0.0	0.0	0.0	0.0	0.0	60.0	 aa = z
