Timestamp:2013-08-30-03:45:47
Inventario:I0
Intervalo:2ms
Ngramas:5
Clasificador:BayesNet
Relation Name:  I0-2ms-5gramas
Num Instances:  91699
Num Attributes: 51

     Name                      Type  Nom  Int Real     Missing      Unique  Dist
   1 0Int(dB)                   Num   0%   9%  91%     0 /  0%     4 /  0%   779 
   2 0Pitch(Hz)                 Num   0%  52%  48%     0 /  0%   471 /  1%  4016 
   3 0RawPitch                  Num   0%  55%  45%     0 /  0%   550 /  1%  4014 
   4 0SmPitch                   Num   0%  53%  47%     0 /  0%   491 /  1%  3998 
   5 0Melogram(st)              Num   0%  49%  51%     0 /  0%   212 /  0%  3363 
   6 0ZCross                    Num   0% 100%   0%     0 /  0%     6 /  0%    54 
   7 0F1(Hz)                    Num   0%  52%  48%     0 /  0%  1126 /  1%  4776 
   8 0F2(Hz)                    Num   0%  52%  48%     0 /  0%  2304 /  3%  6727 
   9 0F3(Hz)                    Num   0%  52%  48%     0 /  0%  1967 /  2%  6224 
  10 0F4(Hz)                    Num   0%  52%  48%     0 /  0%  1884 /  2%  6074 
  11 1Int(dB)                   Num   0%   9%  91%     0 /  0%     4 /  0%   779 
  12 1Pitch(Hz)                 Num   0%  52%  48%     0 /  0%   471 /  1%  4016 
  13 1RawPitch                  Num   0%  55%  45%     0 /  0%   550 /  1%  4014 
  14 1SmPitch                   Num   0%  53%  47%     0 /  0%   491 /  1%  3998 
  15 1Melogram(st)              Num   0%  49%  51%     0 /  0%   212 /  0%  3363 
  16 1ZCross                    Num   0% 100%   0%     0 /  0%     6 /  0%    54 
  17 1F1(Hz)                    Num   0%  52%  48%     0 /  0%  1126 /  1%  4776 
  18 1F2(Hz)                    Num   0%  52%  48%     0 /  0%  2304 /  3%  6727 
  19 1F3(Hz)                    Num   0%  52%  48%     0 /  0%  1967 /  2%  6224 
  20 1F4(Hz)                    Num   0%  52%  48%     0 /  0%  1884 /  2%  6074 
  21 2Int(dB)                   Num   0%   9%  91%     0 /  0%     4 /  0%   779 
  22 2Pitch(Hz)                 Num   0%  52%  48%     0 /  0%   471 /  1%  4016 
  23 2RawPitch                  Num   0%  55%  45%     0 /  0%   550 /  1%  4014 
  24 2SmPitch                   Num   0%  53%  47%     0 /  0%   491 /  1%  3998 
  25 2Melogram(st)              Num   0%  49%  51%     0 /  0%   212 /  0%  3363 
  26 2ZCross                    Num   0% 100%   0%     0 /  0%     6 /  0%    54 
  27 2F1(Hz)                    Num   0%  52%  48%     0 /  0%  1126 /  1%  4776 
  28 2F2(Hz)                    Num   0%  52%  48%     0 /  0%  2304 /  3%  6727 
  29 2F3(Hz)                    Num   0%  52%  48%     0 /  0%  1967 /  2%  6224 
  30 2F4(Hz)                    Num   0%  52%  48%     0 /  0%  1884 /  2%  6074 
  31 3Int(dB)                   Num   0%   9%  91%     0 /  0%     5 /  0%   780 
  32 3Pitch(Hz)                 Num   0%  52%  48%     0 /  0%   471 /  1%  4016 
  33 3RawPitch                  Num   0%  55%  45%     0 /  0%   550 /  1%  4014 
  34 3SmPitch                   Num   0%  53%  47%     0 /  0%   491 /  1%  3998 
  35 3Melogram(st)              Num   0%  49%  51%     0 /  0%   212 /  0%  3363 
  36 3ZCross                    Num   0% 100%   0%     0 /  0%     6 /  0%    54 
  37 3F1(Hz)                    Num   0%  52%  48%     0 /  0%  1126 /  1%  4776 
  38 3F2(Hz)                    Num   0%  52%  48%     0 /  0%  2304 /  3%  6727 
  39 3F3(Hz)                    Num   0%  52%  48%     0 /  0%  1967 /  2%  6224 
  40 3F4(Hz)                    Num   0%  52%  48%     0 /  0%  1884 /  2%  6074 
  41 4Int(dB)                   Num   0%   9%  91%     0 /  0%     6 /  0%   781 
  42 4Pitch(Hz)                 Num   0%  52%  48%     0 /  0%   471 /  1%  4016 
  43 4RawPitch                  Num   0%  55%  45%     0 /  0%   550 /  1%  4014 
  44 4SmPitch                   Num   0%  53%  47%     0 /  0%   491 /  1%  3998 
  45 4Melogram(st)              Num   0%  49%  51%     0 /  0%   212 /  0%  3363 
  46 4ZCross                    Num   0% 100%   0%     0 /  0%     6 /  0%    54 
  47 4F1(Hz)                    Num   0%  52%  48%     0 /  0%  1126 /  1%  4776 
  48 4F2(Hz)                    Num   0%  52%  48%     0 /  0%  2304 /  3%  6727 
  49 4F3(Hz)                    Num   0%  52%  48%     0 /  0%  1967 /  2%  6224 
  50 4F4(Hz)                    Num   0%  52%  48%     0 /  0%  1884 /  2%  6074 
  51 class                      Nom 100%   0%   0%     0 /  0%     0 /  0%    27 


Options: -D -Q weka.classifiers.bayes.net.search.local.K2 -- -P 1 -S BAYES -E weka.classifiers.bayes.net.estimate.SimpleEstimator -- -A 0.5 

Bayes Network Classifier
not using ADTree
#attributes=51 #classindex=50
Network structure (nodes followed by parents)
0Int(dB)(22): class 
0Pitch(Hz)(39): class 
0RawPitch(27): class 
0SmPitch(36): class 
0Melogram(st)(46): class 
0ZCross(15): class 
0F1(Hz)(1923): class 
0F2(Hz)(2845): class 
0F3(Hz)(2955): class 
0F4(Hz)(3000): class 
1Int(dB)(21): class 
1Pitch(Hz)(40): class 
1RawPitch(28): class 
1SmPitch(38): class 
1Melogram(st)(45): class 
1ZCross(16): class 
1F1(Hz)(2066): class 
1F2(Hz)(2632): class 
1F3(Hz)(2851): class 
1F4(Hz)(2736): class 
2Int(dB)(22): class 
2Pitch(Hz)(42): class 
2RawPitch(27): class 
2SmPitch(38): class 
2Melogram(st)(44): class 
2ZCross(15): class 
2F1(Hz)(2041): class 
2F2(Hz)(2689): class 
2F3(Hz)(2884): class 
2F4(Hz)(2888): class 
3Int(dB)(22): class 
3Pitch(Hz)(41): class 
3RawPitch(26): class 
3SmPitch(39): class 
3Melogram(st)(44): class 
3ZCross(15): class 
3F1(Hz)(1963): class 
3F2(Hz)(2684): class 
3F3(Hz)(2854): class 
3F4(Hz)(2912): class 
4Int(dB)(23): class 
4Pitch(Hz)(44): class 
4RawPitch(31): class 
4SmPitch(37): class 
4Melogram(st)(44): class 
4ZCross(15): class 
4F1(Hz)(1919): class 
4F2(Hz)(2688): class 
4F3(Hz)(3038): class 
4F4(Hz)(2726): class 
class(27): 
LogScore Bayes: -1.2503606179308636E7
LogScore BDeu: -3.201842182053189E7
LogScore MDL: -2.6112274377245437E7
LogScore ENTROPY: -1.7907940618146542E7
LogScore AIC: -1.934398861814652E7




=== Stratified cross-validation ===

Correctly Classified Instances       72357               78.9071 %
Incorrectly Classified Instances     19342               21.0929 %
Kappa statistic                          0.7368
K&B Relative Info Score            6690282.9345 %
K&B Information Score               220250.0186 bits      2.4019 bits/instance
Class complexity | order 0          301792.8497 bits      3.2911 bits/instance
Class complexity | scheme          1088615.1677 bits     11.8716 bits/instance
Complexity improvement     (Sf)    -786822.318  bits     -8.5805 bits/instance
Mean absolute error                      0.0157
Root mean squared error                  0.1215
Relative absolute error                 26.2454 %
Root relative squared error             70.2214 %
Coverage of cases (0.95 level)          80.5658 %
Mean rel. region size (0.95 level)       4.0266 %
Total Number of Instances            91699     


=== Detailed Accuracy By Class ===

                 TP Rate  FP Rate  Precision  Recall   F-Measure  MCC      ROC Area  PRC Area  Class
                 0,245    0,001    0,461      0,245    0,320      0,334    0,955     0,294     ch
                 0,954    0,006    0,162      0,954    0,277      0,392    0,999     0,752     rr
                 0,896    0,120    0,827      0,896    0,860      0,766    0,969     0,959     0
                 0,593    0,006    0,497      0,593    0,541      0,537    0,926     0,584     hs
                 0,964    0,011    0,194      0,964    0,323      0,430    0,999     0,893     hg
                 0,791    0,006    0,956      0,791    0,866      0,851    0,973     0,938     a
                 0,155    0,003    0,412      0,155    0,225      0,246    0,927     0,257     c
                 0,942    0,005    0,532      0,942    0,680      0,705    0,997     0,897     b
                 0,763    0,007    0,904      0,763    0,827      0,818    0,965     0,882     e
                 0,866    0,007    0,629      0,866    0,729      0,734    0,986     0,831     d
                 0,849    0,006    0,463      0,849    0,600      0,625    0,957     0,773     g
                 0,402    0,002    0,584      0,402    0,476      0,482    0,964     0,438     f
                 0,817    0,005    0,869      0,817    0,842      0,836    0,961     0,869     i
                 0,629    0,002    0,663      0,629    0,646      0,644    0,939     0,640     j
                 0,899    0,004    0,755      0,899    0,821      0,821    0,984     0,898     m
                 0,913    0,008    0,665      0,913    0,769      0,775    0,987     0,883     l
                 0,733    0,006    0,912      0,733    0,813      0,806    0,930     0,849     o
                 0,845    0,004    0,876      0,845    0,860      0,855    0,975     0,902     n
                 0,351    0,001    0,519      0,351    0,419      0,425    0,931     0,367     q
                 0,334    0,002    0,641      0,334    0,440      0,459    0,943     0,398     p
                 0,530    0,015    0,636      0,530    0,578      0,561    0,962     0,666     s
                 0,736    0,005    0,768      0,736    0,751      0,746    0,928     0,765     r
                 0,882    0,002    0,912      0,882    0,896      0,894    0,978     0,919     u
                 0,238    0,004    0,520      0,238    0,327      0,344    0,931     0,334     t
                 0,892    0,005    0,560      0,892    0,688      0,704    0,978     0,857     v
                 0,783    0,013    0,222      0,783    0,346      0,412    0,945     0,711     y
                 0,000    0,002    0,000      0,000    0,000      -0,001   0,854     0,001     z
Weighted Avg.    0,789    0,051    0,811      0,789    0,790      0,751    0,964     0,866     


=== Confusion Matrix ===

     a     b     c     d     e     f     g     h     i     j     k     l     m     n     o     p     q     r     s     t     u     v     w     x     y     z    aa   <-- classified as
   105     0   140     0     2     1     1     0     0     0     0     0     0     0     0     0     4     0     0     0   170     0     0     2     4     0     0 |     a = ch
     0   104     0     0     3     1     0     0     1     0     0     0     0     0     0     0     0     0     0     0     0     0     0     0     0     0     0 |     b = rr
    65    63 32088   180   389   186    40    94   219   198   103    91   212   129    87   178   171   142    71    94   140   141    56    63   138   400    91 |     c = 0
     0     1   292   581    14     6    12     4     7     5     0     0     3     0     1    17     5     4     0     0    10     0     4     4     9     1     0 |     d = hs
     0     1     0     0   238     0     0     3     1     0     0     0     1     0     1     1     0     0     0     0     0     0     1     0     0     0     0 |     e = hg
    36   140   389   121   257 10372    43   120    79   145   124    15    34    12    88   238    84    71    31    23   138   117    23    56   128   213     9 |     f = a
     0     4   767     2     1     8   211     2    15     6     0     1    17     0     1     1    23     0     0     2   251     6    14    13     5    11     0 |     g = c
     0     1     0     0     0     7     0   564     5     0     0     0     7     0     4     0     0     1     0     0     0     2     5     0     0     3     0 |     h = b
     2    79   271   124    83    57    30    61  5270    86   106    14    38     2    58   110    38    51    20    25    45    71    16    53    51   140     9 |     i = e
     0    13     8     5    12    12     3     3    13  1137    10     1     1     0     2     7     6    16     4     1     3     3     2     2     0    37    12 |     j = d
     0     2    29     0     7     4     5     1     6     1   462     1     7     0     0     1     0     1     0     2     4     3     1     1     0     3     3 |     k = g
     0     1   268     2     3     4     3     8     4     2     0   234     3     0     0     1     3     0     0     0    31     0     3     7     1     4     0 |     l = f
     5     5   163     8    19     2    38    33    25     7    47     9  2908     2    19    22    14    14     0     3    61    19     1    34    31    50    22 |     m = i
     0     0    90     0     2     0     2     3     7     4     0     0     2   309     6     2     0     0     0     3    53     0     4     1     0     3     0 |     n = j
     0     5    21    33     0     4     1     4     8     1     8     7    10     0  1178     1     5     0     0     0     5     1     5     0     0    11     3 |     o = m
     0     2     8    17     3     7     2    15    11     0    10     0     6     0     4  1473     5     9     2     0    11     6     8     8     0     6     0 |     p = l
     5    97   689    37    52    61    42    62    35   148    78     7    15     0    56    87  4872    31     3    10    30    20     8    43    49    71    38 |     q = o
     0    51   103    17    32    20    13     6    33    16    16     6     5     0    10    18     6  2673     1     5     0     3     5    24     4    69    28 |     r = n
     2     1   150     1     3     2     1     0     6     0     0     0     2     0     0     0     1     1   147     3    93     1     0     2     0     3     0 |     s = q
     0     4   481     1     3     4     6     2    15     4     1     1     0     0     2    12    17     0     0   336    43    26     7     5    16    19     0 |     t = p
     2    32  1545    11    59    28    11    20    25    27     7     0    40     8    16    15    16     5     1     2  2344    18     9    11    54   116     1 |     u = s
     1     8   225    14    18    50    15    42    27    14    12     9    11     0     1    10     9     1     0     6    34  1533     5    13     2    15     9 |     v = r
     2     9    38     7    16     0    15     6     3     5     5     1     5     3    14    16    12     4     3     7    13    10  1834    25     0    27     0 |     w = u
     3     8   954     5     4     8    15     3    11     1     2     0    13     1    11     2    48    27     0     2   152    15     1   407     1    16     0 |     x = t
     0    10    13     3     0     5     2     5     5     0     6     3     6     0     1     0     1     0     0     0     6     1     0     6   628     3     0 |     y = v
     0     0    29     0     8     0     1     0     0     0     0     1     0     0     0     4     0     0     0     0    51     0     0     3     0   349     0 |     z = y
     0     0    33     0     0     0     0     0     0     0     0     0     0     0     0     0     0     0     0     0     0     0     0     0     0     0     0 |    aa = z

=== Percent Confusion Matrix ===
a	b	c	d	e	f	g	h	i	j	k	l	m	n	o	p	q	r	s	t	u	v	w	x	y	z	aa	
24.48	0.0	32.63	0.0	0.47	0.23	0.23	0.0	0.0	0.0	0.0	0.0	0.0	0.0	0.0	0.0	0.93	0.0	0.0	0.0	39.63	0.0	0.0	0.47	0.93	0.0	0.0	 a = ch
0.0	95.41	0.0	0.0	2.75	0.92	0.0	0.0	0.92	0.0	0.0	0.0	0.0	0.0	0.0	0.0	0.0	0.0	0.0	0.0	0.0	0.0	0.0	0.0	0.0	0.0	0.0	 b = rr
0.18	0.18	89.56	0.5	1.09	0.52	0.11	0.26	0.61	0.55	0.29	0.25	0.59	0.36	0.24	0.5	0.48	0.4	0.2	0.26	0.39	0.39	0.16	0.18	0.39	1.12	0.25	 c = 0
0.0	0.1	29.8	59.29	1.43	0.61	1.22	0.41	0.71	0.51	0.0	0.0	0.31	0.0	0.1	1.73	0.51	0.41	0.0	0.0	1.02	0.0	0.41	0.41	0.92	0.1	0.0	 d = hs
0.0	0.4	0.0	0.0	96.36	0.0	0.0	1.21	0.4	0.0	0.0	0.0	0.4	0.0	0.4	0.4	0.0	0.0	0.0	0.0	0.0	0.0	0.4	0.0	0.0	0.0	0.0	 e = hg
0.27	1.07	2.97	0.92	1.96	79.14	0.33	0.92	0.6	1.11	0.95	0.11	0.26	0.09	0.67	1.82	0.64	0.54	0.24	0.18	1.05	0.89	0.18	0.43	0.98	1.63	0.07	 f = a
0.0	0.29	56.36	0.15	0.07	0.59	15.5	0.15	1.1	0.44	0.0	0.07	1.25	0.0	0.07	0.07	1.69	0.0	0.0	0.15	18.44	0.44	1.03	0.96	0.37	0.81	0.0	 g = c
0.0	0.17	0.0	0.0	0.0	1.17	0.0	94.16	0.83	0.0	0.0	0.0	1.17	0.0	0.67	0.0	0.0	0.17	0.0	0.0	0.0	0.33	0.83	0.0	0.0	0.5	0.0	 h = b
0.03	1.14	3.92	1.79	1.2	0.82	0.43	0.88	76.27	1.24	1.53	0.2	0.55	0.03	0.84	1.59	0.55	0.74	0.29	0.36	0.65	1.03	0.23	0.77	0.74	2.03	0.13	 i = e
0.0	0.99	0.61	0.38	0.91	0.91	0.23	0.23	0.99	86.6	0.76	0.08	0.08	0.0	0.15	0.53	0.46	1.22	0.3	0.08	0.23	0.23	0.15	0.15	0.0	2.82	0.91	 j = d
0.0	0.37	5.33	0.0	1.29	0.74	0.92	0.18	1.1	0.18	84.93	0.18	1.29	0.0	0.0	0.18	0.0	0.18	0.0	0.37	0.74	0.55	0.18	0.18	0.0	0.55	0.55	 k = g
0.0	0.17	46.05	0.34	0.52	0.69	0.52	1.37	0.69	0.34	0.0	40.21	0.52	0.0	0.0	0.17	0.52	0.0	0.0	0.0	5.33	0.0	0.52	1.2	0.17	0.69	0.0	 l = f
0.14	0.14	4.58	0.22	0.53	0.06	1.07	0.93	0.7	0.2	1.32	0.25	81.66	0.06	0.53	0.62	0.39	0.39	0.0	0.08	1.71	0.53	0.03	0.95	0.87	1.4	0.62	 m = i
0.0	0.0	18.33	0.0	0.41	0.0	0.41	0.61	1.43	0.81	0.0	0.0	0.41	62.93	1.22	0.41	0.0	0.0	0.0	0.61	10.79	0.0	0.81	0.2	0.0	0.61	0.0	 n = j
0.0	0.38	1.6	2.52	0.0	0.31	0.08	0.31	0.61	0.08	0.61	0.53	0.76	0.0	89.86	0.08	0.38	0.0	0.0	0.0	0.38	0.08	0.38	0.0	0.0	0.84	0.23	 o = m
0.0	0.12	0.5	1.05	0.19	0.43	0.12	0.93	0.68	0.0	0.62	0.0	0.37	0.0	0.25	91.32	0.31	0.56	0.12	0.0	0.68	0.37	0.5	0.5	0.0	0.37	0.0	 p = l
0.08	1.46	10.37	0.56	0.78	0.92	0.63	0.93	0.53	2.23	1.17	0.11	0.23	0.0	0.84	1.31	73.31	0.47	0.05	0.15	0.45	0.3	0.12	0.65	0.74	1.07	0.57	 q = o
0.0	1.61	3.26	0.54	1.01	0.63	0.41	0.19	1.04	0.51	0.51	0.19	0.16	0.0	0.32	0.57	0.19	84.48	0.03	0.16	0.0	0.09	0.16	0.76	0.13	2.18	0.88	 r = n
0.48	0.24	35.8	0.24	0.72	0.48	0.24	0.0	1.43	0.0	0.0	0.0	0.48	0.0	0.0	0.0	0.24	0.24	35.08	0.72	22.2	0.24	0.0	0.48	0.0	0.72	0.0	 s = q
0.0	0.4	47.86	0.1	0.3	0.4	0.6	0.2	1.49	0.4	0.1	0.1	0.0	0.0	0.2	1.19	1.69	0.0	0.0	33.43	4.28	2.59	0.7	0.5	1.59	1.89	0.0	 t = p
0.05	0.72	34.93	0.25	1.33	0.63	0.25	0.45	0.57	0.61	0.16	0.0	0.9	0.18	0.36	0.34	0.36	0.11	0.02	0.05	53.0	0.41	0.2	0.25	1.22	2.62	0.02	 u = s
0.05	0.38	10.8	0.67	0.86	2.4	0.72	2.02	1.3	0.67	0.58	0.43	0.53	0.0	0.05	0.48	0.43	0.05	0.0	0.29	1.63	73.56	0.24	0.62	0.1	0.72	0.43	 v = r
0.1	0.43	1.83	0.34	0.77	0.0	0.72	0.29	0.14	0.24	0.24	0.05	0.24	0.14	0.67	0.77	0.58	0.19	0.14	0.34	0.63	0.48	88.17	1.2	0.0	1.3	0.0	 w = u
0.18	0.47	55.79	0.29	0.23	0.47	0.88	0.18	0.64	0.06	0.12	0.0	0.76	0.06	0.64	0.12	2.81	1.58	0.0	0.12	8.89	0.88	0.06	23.8	0.06	0.94	0.0	 x = t
0.0	1.42	1.85	0.43	0.0	0.71	0.28	0.71	0.71	0.0	0.85	0.43	0.85	0.0	0.14	0.0	0.14	0.0	0.0	0.0	0.85	0.14	0.0	0.85	89.2	0.43	0.0	 y = v
0.0	0.0	6.5	0.0	1.79	0.0	0.22	0.0	0.0	0.0	0.0	0.22	0.0	0.0	0.0	0.9	0.0	0.0	0.0	0.0	11.43	0.0	0.0	0.67	0.0	78.25	0.0	 z = y
0.0	0.0	100.0	0.0	0.0	0.0	0.0	0.0	0.0	0.0	0.0	0.0	0.0	0.0	0.0	0.0	0.0	0.0	0.0	0.0	0.0	0.0	0.0	0.0	0.0	0.0	0.0	 aa = z
