Timestamp:2014-12-07-10:42:53
Inventario:I0
Intervalo:20ms
Ngramas:3
Clasificador:NaiveBayes
Relation Name:  I0-20ms-3gramas
Num Instances:  9127
Num Attributes: 31

     Name                      Type  Nom  Int Real     Missing      Unique  Dist
   1 0Int(dB)                   Num   0%  11%  89%     0 /  0%    14 /  0%   764 
   2 0Pitch(Hz)                 Num   0%  49%  51%     0 /  0%  1033 / 11%  2440 
   3 0RawPitch                  Num   0%  52%  48%     0 /  0%  1062 / 12%  2369 
   4 0SmPitch                   Num   0%  50%  50%     0 /  0%  1056 / 12%  2419 
   5 0Melogram(st)              Num   0%  45%  55%     0 /  0%   937 / 10%  2341 
   6 0ZCross                    Num   0% 100%   0%     0 /  0%     7 /  0%    34 
   7 0F1(Hz)                    Num   0%  49%  51%     0 /  0%  2180 / 24%  3398 
   8 0F2(Hz)                    Num   0%  49%  51%     0 /  0%  3463 / 38%  4259 
   9 0F3(Hz)                    Num   0%  49%  51%     0 /  0%  3209 / 35%  4087 
  10 0F4(Hz)                    Num   0%  49%  51%     0 /  0%  3134 / 34%  4027 
  11 1Int(dB)                   Num   0%  11%  89%     0 /  0%    14 /  0%   764 
  12 1Pitch(Hz)                 Num   0%  49%  51%     0 /  0%  1033 / 11%  2440 
  13 1RawPitch                  Num   0%  52%  48%     0 /  0%  1062 / 12%  2369 
  14 1SmPitch                   Num   0%  50%  50%     0 /  0%  1056 / 12%  2419 
  15 1Melogram(st)              Num   0%  45%  55%     0 /  0%   937 / 10%  2341 
  16 1ZCross                    Num   0% 100%   0%     0 /  0%     7 /  0%    34 
  17 1F1(Hz)                    Num   0%  49%  51%     0 /  0%  2180 / 24%  3398 
  18 1F2(Hz)                    Num   0%  49%  51%     0 /  0%  3463 / 38%  4259 
  19 1F3(Hz)                    Num   0%  49%  51%     0 /  0%  3209 / 35%  4087 
  20 1F4(Hz)                    Num   0%  49%  51%     0 /  0%  3134 / 34%  4027 
  21 2Int(dB)                   Num   0%  11%  89%     0 /  0%    14 /  0%   764 
  22 2Pitch(Hz)                 Num   0%  49%  51%     0 /  0%  1033 / 11%  2440 
  23 2RawPitch                  Num   0%  52%  48%     0 /  0%  1062 / 12%  2369 
  24 2SmPitch                   Num   0%  50%  50%     0 /  0%  1056 / 12%  2419 
  25 2Melogram(st)              Num   0%  45%  55%     0 /  0%   938 / 10%  2342 
  26 2ZCross                    Num   0% 100%   0%     0 /  0%     7 /  0%    34 
  27 2F1(Hz)                    Num   0%  49%  51%     0 /  0%  2180 / 24%  3398 
  28 2F2(Hz)                    Num   0%  49%  51%     0 /  0%  3463 / 38%  4259 
  29 2F3(Hz)                    Num   0%  49%  51%     0 /  0%  3209 / 35%  4087 
  30 2F4(Hz)                    Num   0%  49%  51%     0 /  0%  3134 / 34%  4027 
  31 class                      Nom 100%   0%   0%     0 /  0%     0 /  0%    27 


Naive Bayes Classifier

                    Class
Attribute              ch        rr         0        hs        hg         a         c         b         e         d         g         f         i         j         m         l         o         n         q         p         s         r         u         t         v         y         z
                      (0)       (0)    (0.35)    (0.01)       (0)    (0.15)    (0.02)    (0.01)    (0.08)    (0.01)    (0.01)    (0.01)    (0.04)    (0.01)    (0.02)    (0.02)    (0.08)    (0.04)       (0)    (0.01)    (0.05)    (0.02)    (0.02)    (0.02)    (0.01)    (0.01)       (0)
==============================================================================================================================================================================================================================================================================================
0Int(dB)
  mean            -18.8798   -7.4674  -49.2195  -11.4173   -6.5474   -6.8994  -27.5505   -4.6026   -9.6448    -7.149   -6.1379  -11.8614  -12.8075   -8.4496   -7.9836   -7.0343  -11.6424   -6.3336  -27.1795  -18.7253   -16.303   -8.4255  -10.4698  -23.0704   -8.7004   -13.665  -24.1283
  std. dev.        11.8505    7.5443   15.8165    9.8053    5.5642   12.7251   14.6957    4.2384   11.2836     6.509    6.6753    9.4181   10.4841     8.576    9.1745    6.9236   13.0523    6.4812   18.4778   13.5642   10.9863    9.8366   12.0458    12.871   12.8177    9.2176    4.1431
  weight sum            40        11      3235       110        27      1368       138        57       746       133        60        61       385        49       141       160       712       336        43       101       463       226       218       177        77        48         5
  precision         0.1008    0.1008    0.1008    0.1008    0.1008    0.1008    0.1008    0.1008    0.1008    0.1008    0.1008    0.1008    0.1008    0.1008    0.1008    0.1008    0.1008    0.1008    0.1008    0.1008    0.1008    0.1008    0.1008    0.1008    0.1008    0.1008    0.1008

0Pitch(Hz)
  mean            131.6464   209.241   15.8219  145.1709  153.3877  207.0932   71.3594  216.7625  168.4113  198.0853  221.2274  183.4292  145.3172   207.973  193.0612  174.6168  164.5924  203.9334  118.3094  145.5468  128.6236  170.8475   199.501  126.3234  168.2068  131.9692   67.2315
  std. dev.       110.4932  122.5385   54.5445   85.8281   41.6464  118.5131    92.084   73.8954   97.9387   81.2489   82.4547  116.6295    93.238  109.5253   88.0271   75.1762  113.2428   80.5572  126.3482  126.1767  109.9063   80.4691   120.686  124.5288   94.8693   67.4492   82.3435
  weight sum            40        11      3235       110        27      1368       138        57       746       133        60        61       385        49       141       160       712       336        43       101       463       226       218       177        77        48         5
  precision         0.2034    0.2034    0.2034    0.2034    0.2034    0.2034    0.2034    0.2034    0.2034    0.2034    0.2034    0.2034    0.2034    0.2034    0.2034    0.2034    0.2034    0.2034    0.2034    0.2034    0.2034    0.2034    0.2034    0.2034    0.2034    0.2034    0.2034

0RawPitch
  mean            123.0572   199.901   12.9443  134.1929  147.9736   197.558   61.8242  214.7616  160.8464  190.1691  212.0547  143.1743  134.7046  186.3118  184.0377  170.4485  155.7527  195.6323  112.5782  137.9792  112.1178  152.4399  187.6775  105.8027  156.3519  117.4974         0
  std. dev.       113.1477  110.3094   48.7937   88.8529    48.318  120.8497   93.5326   74.2334  102.2888   89.6323   91.4838  115.3618   92.9403  115.6507    94.084   74.3791  117.0548   89.5579  126.8739   128.386  112.4126   93.4441   120.986  121.7114  101.5864   73.6667    0.0348
  weight sum            40        11      3235       110        27      1368       138        57       746       133        60        61       385        49       141       160       712       336        43       101       463       226       218       177        77        48         5
  precision         0.2088    0.2088    0.2088    0.2088    0.2088    0.2088    0.2088    0.2088    0.2088    0.2088    0.2088    0.2088    0.2088    0.2088    0.2088    0.2088    0.2088    0.2088    0.2088    0.2088    0.2088    0.2088    0.2088    0.2088    0.2088    0.2088    0.2088

0SmPitch
  mean            131.6872  209.2681   14.3559   142.124  153.3827  205.4578   63.8187  216.7485  165.6273  197.5786  221.2718  160.8777  143.4528  191.1879   190.986  174.5897  162.0426  202.2338  113.6696  144.6987  123.8642  164.1389  195.9784  116.6704   166.644  128.5812   34.7897
  std. dev.       110.4759  122.5298   51.0212   86.5214   41.6522   119.331   90.5902   73.8931  100.1622   82.3924   82.4622  110.4741   93.1972   120.166   90.7384    75.181  114.4287   83.1784  127.1285  126.9275  111.1188    85.936  122.4742  124.1898   96.2918   69.7893   69.5795
  weight sum            40        11      3235       110        27      1368       138        57       746       133        60        61       385        49       141       160       712       336        43       101       463       226       218       177        77        48         5
  precision         0.2051    0.2051    0.2051    0.2051    0.2051    0.2051    0.2051    0.2051    0.2051    0.2051    0.2051    0.2051    0.2051    0.2051    0.2051    0.2051    0.2051    0.2051    0.2051    0.2051    0.2051    0.2051    0.2051    0.2051    0.2051    0.2051    0.2051

0Melogram(st)
  mean             34.8975   50.9645    4.6646   42.9171   50.0545   48.5983   22.0229   55.6154   45.4706   52.3324   53.5545   46.8724   41.3427   45.6993   50.7411   50.4757   43.3948   52.8901    27.833   38.3266   34.6217   47.3782   44.4291    31.726   47.9532   44.5122   31.3679
  std. dev.         27.296   17.7647   15.2441   19.4454     4.808   20.7936   26.1791     6.098   20.8835    12.276   13.7587   20.6974   22.4649   22.6614   14.7415   12.3653   23.1016   12.4152   28.7973   26.4772   26.4459   17.5005    24.856   28.2875   16.5256   16.0358   25.6122
  weight sum            40        11      3235       110        27      1368       138        57       746       133        60        61       385        49       141       160       712       336        43       101       463       226       218       177        77        48         5
  precision         0.0353    0.0353    0.0353    0.0353    0.0353    0.0353    0.0353    0.0353    0.0353    0.0353    0.0353    0.0353    0.0353    0.0353    0.0353    0.0353    0.0353    0.0353    0.0353    0.0353    0.0353    0.0353    0.0353    0.0353    0.0353    0.0353    0.0353

0ZCross
  mean              1.6545    4.5124    0.2553     2.719     4.101    6.4278    0.9499    3.7959    4.2003    3.7321    5.2394    2.6915    3.1471    4.9351     3.421     4.025    3.4785     4.178    1.6871    2.0918    3.1117    4.3363    3.4504    0.8125    4.5289    2.3864    0.2545
  std. dev.         2.6575    2.3881     1.316    2.3871    2.1165    5.1138    2.0156    1.8542    3.4667    2.2138    2.9309    3.2189    4.1866    3.7583    2.8363    2.1947    3.6204    2.9311    3.0654    3.4291    4.4201    3.1456    3.5108    1.4409    3.1074    1.9892    0.5091
  weight sum            40        11      3235       110        27      1368       138        57       746       133        60        61       385        49       141       160       712       336        43       101       463       226       218       177        77        48         5
  precision         1.2727    1.2727    1.2727    1.2727    1.2727    1.2727    1.2727    1.2727    1.2727    1.2727    1.2727    1.2727    1.2727    1.2727    1.2727    1.2727    1.2727    1.2727    1.2727    1.2727    1.2727    1.2727    1.2727    1.2727    1.2727    1.2727    1.2727

0F1(Hz)
  mean            400.0913  476.1197   58.2793  518.4606  468.5886  589.0338  260.5715  465.8264  408.4223  515.0288  542.8367  551.2757  325.1292    559.76  445.3146  508.3936  411.5688  554.4414  251.9536  429.1965  421.8801  552.3393   424.862  316.6809  500.2013  397.6626  280.3215
  std. dev.       262.2018  174.1933   178.133  198.9857   88.4359   336.164  269.3271  132.1154  216.3841  134.1908  156.1744  214.0687  214.6223  190.0098   199.584  182.3517  260.2244  153.4655  257.3355  279.8134    288.33  198.9378  361.7064  264.7343  188.5533  177.3025  343.6322
  weight sum            40        11      3235       110        27      1368       138        57       746       133        60        61       385        49       141       160       712       336        43       101       463       226       218       177        77        48         5
  precision         0.5127    0.5127    0.5127    0.5127    0.5127    0.5127    0.5127    0.5127    0.5127    0.5127    0.5127    0.5127    0.5127    0.5127    0.5127    0.5127    0.5127    0.5127    0.5127    0.5127    0.5127    0.5127    0.5127    0.5127    0.5127    0.5127    0.5127

0F2(Hz)
  mean           1339.6822 1655.9458  173.7338 1509.0836 1871.6355 1307.9217  828.3921 1691.1469 1477.3725 1505.9489 1756.0795 1533.6359 1473.7397  1879.584 1572.6832 1565.5063 1085.7909 1661.7575  1033.808 1290.3383 1284.5163 1461.6265  924.4511 1106.0837 1518.4689 1348.1428  472.0442
  std. dev.       788.7619  545.8674  526.4291  553.2897  404.1484   621.036  872.5669  375.8333  754.7082  311.6051  411.9647  560.4012  898.7946  429.2193  632.0218   491.477  674.5578  388.1848 1003.3764   777.007  824.1985  474.9184  644.9976  862.8899  578.6423  543.1002  578.1561
  weight sum            40        11      3235       110        27      1368       138        57       746       133        60        61       385        49       141       160       712       336        43       101       463       226       218       177        77        48         5
  precision         0.6985    0.6985    0.6985    0.6985    0.6985    0.6985    0.6985    0.6985    0.6985    0.6985    0.6985    0.6985    0.6985    0.6985    0.6985    0.6985    0.6985    0.6985    0.6985    0.6985    0.6985    0.6985    0.6985    0.6985    0.6985    0.6985    0.6985

0F3(Hz)
  mean            2149.046  2561.718  296.1385 2520.2609 2581.0508 2413.6563 1416.0032  2792.029 2285.1335 2862.2543 3081.6832 2565.5353 2142.5805 2658.5978 2666.2939 2650.2825 2224.7554 2876.0135 1553.9759 2147.9374 2148.3292 2612.9867 2177.1877 1889.2071 2580.5924 2540.0771 1491.5753
  std. dev.      1267.5744  867.2211  874.9536  776.3624  116.2756 1110.6128 1442.1857  440.8886 1133.2536  398.7846  617.6402  917.7184 1286.7452  671.8991  893.3092  777.0453 1238.7361  498.6402 1460.4617 1282.6057 1339.3288   830.158 1282.0773 1415.5527  887.9639 1029.1312 1827.0139
  weight sum            40        11      3235       110        27      1368       138        57       746       133        60        61       385        49       141       160       712       336        43       101       463       226       218       177        77        48         5
  precision         1.0065    1.0065    1.0065    1.0065    1.0065    1.0065    1.0065    1.0065    1.0065    1.0065    1.0065    1.0065    1.0065    1.0065    1.0065    1.0065    1.0065    1.0065    1.0065    1.0065    1.0065    1.0065    1.0065    1.0065    1.0065    1.0065    1.0065

0F4(Hz)
  mean           2564.8618 3056.0785  360.1752 3133.6791 3536.0631 2768.1838 1678.4367 3339.9612 2766.3747 3332.5443 3039.3822  2979.661 2588.6317 3279.6309 3093.7582 3082.7411 2567.4184 3257.8544 1837.1144 2508.0505 2460.8206 3075.1233 2475.9112 2125.6487 3068.8271 2850.8264 1195.4814
  std. dev.      1499.8287 1051.7722 1061.5064  947.1939  116.2042 1267.5453 1707.0438   428.892 1350.6568  408.6818  628.9464 1037.3789 1525.8539  754.2188 1004.4678  871.6944 1421.7151  534.6086 1750.5401 1470.9179 1528.1925  895.4233 1409.4738 1602.3286 1019.9954 1127.5214 1464.1601
  weight sum            40        11      3235       110        27      1368       138        57       746       133        60        61       385        49       141       160       712       336        43       101       463       226       218       177        77        48         5
  precision         1.0301    1.0301    1.0301    1.0301    1.0301    1.0301    1.0301    1.0301    1.0301    1.0301    1.0301    1.0301    1.0301    1.0301    1.0301    1.0301    1.0301    1.0301    1.0301    1.0301    1.0301    1.0301    1.0301    1.0301    1.0301    1.0301    1.0301

1Int(dB)
  mean            -20.8729   -8.2736   -50.137  -15.2206   -9.5299   -4.7939  -28.9965   -5.7201   -7.2226    -7.265   -6.5293  -16.5967  -10.9862  -12.2836   -7.5604   -7.3933   -9.7163   -7.3598   -27.953   -22.645  -18.7082   -9.6394   -8.0296  -26.9925   -8.9765  -15.4308   -25.761
  std. dev.        10.0357    4.4747   14.5028   11.1976    6.0177   10.5291   11.6265    4.3937    9.4909    6.0708    6.9159    8.8351    9.3463    7.5899    7.2916    6.0169   12.1824    6.6545   15.3431   12.0754    9.0128    9.9641    9.9998   10.7521   10.2322    7.2953    2.8196
  weight sum            40        11      3235       110        27      1368       138        57       746       133        60        61       385        49       141       160       712       336        43       101       463       226       218       177        77        48         5
  precision         0.1008    0.1008    0.1008    0.1008    0.1008    0.1008    0.1008    0.1008    0.1008    0.1008    0.1008    0.1008    0.1008    0.1008    0.1008    0.1008    0.1008    0.1008    0.1008    0.1008    0.1008    0.1008    0.1008    0.1008    0.1008    0.1008    0.1008

1Pitch(Hz)
  mean             92.8449  243.0546   12.2305  123.0008  149.0041  219.4697   44.5525  212.1958   183.146  198.6388  221.7155  149.5644  163.4233  195.9289  194.6276  172.6366  177.1418   200.846   95.8261  125.0455   98.7562  165.2568  221.0527    86.314  171.2731  124.0127   33.4327
  std. dev.       113.2761  115.8716   48.3683   88.5822   38.4991  107.9149   80.4882   73.3389   90.4096   83.6049    84.984  129.4861   84.1925  120.6578   85.6384   69.4882  106.6856   82.2128   116.615  126.3472   109.882   86.2498   98.5341  118.2322   84.8919   68.5621   66.8654
  weight sum            40        11      3235       110        27      1368       138        57       746       133        60        61       385        49       141       160       712       336        43       101       463       226       218       177        77        48         5
  precision         0.2034    0.2034    0.2034    0.2034    0.2034    0.2034    0.2034    0.2034    0.2034    0.2034    0.2034    0.2034    0.2034    0.2034    0.2034    0.2034    0.2034    0.2034    0.2034    0.2034    0.2034    0.2034    0.2034    0.2034    0.2034    0.2034    0.2034

1RawPitch
  mean             85.2047  233.5911   10.0527  105.6901  147.3395  209.6472   38.4616  208.7911  176.8718  193.1658  211.8216  104.7821  153.6209  154.8281  185.8146  165.4233  168.1349  190.2747   79.9399  105.9836   80.3335  155.1319  210.2912   64.7183  157.8975  105.8751         0
  std. dev.       113.6293  105.8543   42.5654   90.6276   62.2083  111.5852   80.9393   74.8908   96.4397   90.7206   95.3224  114.9827   86.0466  118.1379   92.9573   72.0706   111.735   93.4903  113.6839  126.6124  106.4821   95.9052  103.8231  106.5642   93.0131   73.7162    0.0348
  weight sum            40        11      3235       110        27      1368       138        57       746       133        60        61       385        49       141       160       712       336        43       101       463       226       218       177        77        48         5
  precision         0.2088    0.2088    0.2088    0.2088    0.2088    0.2088    0.2088    0.2088    0.2088    0.2088    0.2088    0.2088    0.2088    0.2088    0.2088    0.2088    0.2088    0.2088    0.2088    0.2088    0.2088    0.2088    0.2088    0.2088    0.2088    0.2088    0.2088

1SmPitch
  mean              92.759  243.0583   10.6934  117.1301  149.3865  217.8662   41.9175  212.2033  181.1568   198.416  221.7299   127.277  161.2553  164.7221  192.6096  172.6551  174.8902  198.2228    91.201  120.3453   92.7459  160.1144  219.9482   77.7691   169.324  120.6239         0
  std. dev.       113.1421  115.8638   43.8999   87.5951   37.8746  109.1586   79.2956   73.3313   92.1927   84.1478   84.9582  117.7033   84.9278  140.2971   88.4076   69.4549  108.2193    86.021  116.4429  127.8881  109.0119   90.7773    99.473  114.6618   86.5504   70.4802    0.0342
  weight sum            40        11      3235       110        27      1368       138        57       746       133        60        61       385        49       141       160       712       336        43       101       463       226       218       177        77        48         5
  precision         0.2051    0.2051    0.2051    0.2051    0.2051    0.2051    0.2051    0.2051    0.2051    0.2051    0.2051    0.2051    0.2051    0.2051    0.2051    0.2051    0.2051    0.2051    0.2051    0.2051    0.2051    0.2051    0.2051    0.2051    0.2051    0.2051    0.2051

1Melogram(st)
  mean             24.1324   56.7441    3.7045    37.726   49.5674   51.6802    15.911   55.1075   49.1776   52.5572   53.5228   39.5538   45.9084   34.4087   51.7864   51.6807   46.5218   52.2485   23.4229   31.9535   26.9486   45.0699   50.6374   22.1748    49.702   43.9671   20.8602
  std. dev.        28.2013    8.5289   13.7401   22.3369     4.659   17.1033   24.7358    6.2037   17.1261   11.6326    13.838   25.4156   18.9795   27.9846   12.7781    8.4682   20.6378   13.3555   27.9115   28.2583   27.4221   20.1871    19.473   27.7393   13.2756   15.8995   25.5485
  weight sum            40        11      3235       110        27      1368       138        57       746       133        60        61       385        49       141       160       712       336        43       101       463       226       218       177        77        48         5
  precision         0.0353    0.0353    0.0353    0.0353    0.0353    0.0353    0.0353    0.0353    0.0353    0.0353    0.0353    0.0353    0.0353    0.0353    0.0353    0.0353    0.0353    0.0353    0.0353    0.0353    0.0353    0.0353    0.0353    0.0353    0.0353    0.0353    0.0353

1ZCross
  mean              3.8818    3.8182    0.1471    1.8628    3.2997     6.933    0.6364    3.5949    4.6951    3.6746    4.9424    1.4605    3.0678    4.2338    2.8614    3.5875    3.8039    3.2727    1.2431    1.2853    3.4526    3.8182    3.4387    0.4027    3.7025    1.6705         0
  std. dev.         7.0631    2.1708    0.8715    2.0996    2.3304    4.6945    1.6732    1.7212    3.4013     2.155    2.9031    2.1964     3.289     3.694    2.0345    2.0663    3.4966    2.3914    2.6681    2.9673    5.7944     2.876    3.0618    1.0046    2.4372    1.6868    0.2121
  weight sum            40        11      3235       110        27      1368       138        57       746       133        60        61       385        49       141       160       712       336        43       101       463       226       218       177        77        48         5
  precision         1.2727    1.2727    1.2727    1.2727    1.2727    1.2727    1.2727    1.2727    1.2727    1.2727    1.2727    1.2727    1.2727    1.2727    1.2727    1.2727    1.2727    1.2727    1.2727    1.2727    1.2727    1.2727    1.2727    1.2727    1.2727    1.2727    1.2727

1F1(Hz)
  mean            309.2226  561.5472   45.7694  502.2932  453.3418  646.6119  169.9053  470.1795  435.3843  507.6396  535.1981  473.0995  340.7633  559.1218  447.2307  501.3413  450.1528  526.5397  214.3984  362.8402  344.3701  541.3966  462.9492  216.2259  499.4623  368.7188  144.7747
  std. dev.       299.4267  111.5046  157.8196  235.0568   83.9917  300.2969  254.5554  131.5729  182.9634  140.7686  163.2022  292.6262  174.3406  251.1646  180.6226  162.3793  244.2194  147.6227  245.6023  304.3039  306.3413  210.5122  332.7223  250.1525  170.2777  174.0225  289.5494
  weight sum            40        11      3235       110        27      1368       138        57       746       133        60        61       385        49       141       160       712       336        43       101       463       226       218       177        77        48         5
  precision         0.5127    0.5127    0.5127    0.5127    0.5127    0.5127    0.5127    0.5127    0.5127    0.5127    0.5127    0.5127    0.5127    0.5127    0.5127    0.5127    0.5127    0.5127    0.5127    0.5127    0.5127    0.5127    0.5127    0.5127    0.5127    0.5127    0.5127

1F2(Hz)
  mean            972.1855  1725.986  138.7781 1436.0208 1920.1422 1387.7623  520.3549 1630.2796 1633.7862 1494.6889 1790.4456 1265.7452 1740.6907 1730.0201 1631.3867 1637.4908 1123.9385 1668.3766  892.5491 1093.4728 1059.1039 1451.1614  1000.033  768.8281  1532.974 1367.6716  234.4156
  std. dev.       886.6047  141.3137  473.9823  652.2484  390.8971   518.783  794.0011  360.3137  662.2232  292.6037  429.6425  756.8167  805.0767  618.3902  527.7962  420.8231  603.6465  382.1102   993.992  860.3745  903.2606  510.3052   546.594  850.7872  499.5849  586.6274  468.8312
  weight sum            40        11      3235       110        27      1368       138        57       746       133        60        61       385        49       141       160       712       336        43       101       463       226       218       177        77        48         5
  precision         0.6985    0.6985    0.6985    0.6985    0.6985    0.6985    0.6985    0.6985    0.6985    0.6985    0.6985    0.6985    0.6985    0.6985    0.6985    0.6985    0.6985    0.6985    0.6985    0.6985    0.6985    0.6985    0.6985    0.6985    0.6985    0.6985    0.6985

1F3(Hz)
  mean           1576.1935 2851.9447  236.8432 2377.1879 2559.8033 2582.0803  905.4576 2773.6655 2466.1143 2867.9147 3071.6857 2143.2836 2427.5868 2482.9806 2750.4797 2731.4096 2381.9061  2868.504 1329.2542 1809.9758 1760.4591 2544.8012  2460.271 1353.9233 2614.2239 2480.1298  754.6445
  std. dev.      1439.0693  363.1554  790.2031  957.8836  118.4898  939.5509 1341.7145  454.0696  983.2863  389.3036  635.5128 1267.5719 1119.2236  911.0677   699.581  657.7068 1133.1835  491.9114 1430.9717 1414.8086 1470.2935  889.3045 1089.2339 1460.6297  787.6904 1080.8476  1509.289
  weight sum            40        11      3235       110        27      1368       138        57       746       133        60        61       385        49       141       160       712       336        43       101       463       226       218       177        77        48         5
  precision         1.0065    1.0065    1.0065    1.0065    1.0065    1.0065    1.0065    1.0065    1.0065    1.0065    1.0065    1.0065    1.0065    1.0065    1.0065    1.0065    1.0065    1.0065    1.0065    1.0065    1.0065    1.0065    1.0065    1.0065    1.0065    1.0065    1.0065

1F4(Hz)
  mean           1898.8285 3289.9945  290.0819 2953.0356 3562.4249 2960.7362 1057.8587 3330.0402  2968.206 3355.4843  3056.979  2490.537 2906.6724 3079.3589 3240.6469 3173.1799 2739.0875 3258.1671 1638.1223  2132.978 2024.8249  3004.756  2778.374 1538.7445 3149.4523 2782.5209  598.0497
  std. dev.      1728.0742  453.0635  965.6184  1172.428  107.1827 1070.8135 1568.7923  430.4935 1156.9806   399.068  644.5346 1452.8387 1305.1093 1092.0474  773.6277   715.285 1292.2218  542.1191 1782.9334 1643.5575 1687.5003  974.8982 1167.5154 1666.9883   889.841 1194.8866 1196.0995
  weight sum            40        11      3235       110        27      1368       138        57       746       133        60        61       385        49       141       160       712       336        43       101       463       226       218       177        77        48         5
  precision         1.0301    1.0301    1.0301    1.0301    1.0301    1.0301    1.0301    1.0301    1.0301    1.0301    1.0301    1.0301    1.0301    1.0301    1.0301    1.0301    1.0301    1.0301    1.0301    1.0301    1.0301    1.0301    1.0301    1.0301    1.0301    1.0301    1.0301

2Int(dB)
  mean            -19.3611   -9.9962  -50.8591  -19.9172  -10.3661   -3.4567  -25.3719   -6.0012   -5.6493   -7.9076   -7.0534  -20.5257   -9.5022  -15.1303   -7.5833   -8.1398   -8.6644   -8.9322  -22.8012  -22.8915  -21.1109  -11.9918   -5.9413  -25.9579   -8.7684  -16.2875  -28.5024
  std. dev.         7.7565    3.8366   13.3675   11.6389    5.9192    8.7075    9.2254    4.1873    8.2505    6.2206    7.2104    6.4423    8.6317    6.0216    5.8858    5.6054   12.1183    7.4704   11.6707   10.0883    7.1461    9.9455    8.0011    9.2949    7.1323    5.5001    3.0818
  weight sum            40        11      3235       110        27      1368       138        57       746       133        60        61       385        49       141       160       712       336        43       101       463       226       218       177        77        48         5
  precision         0.1008    0.1008    0.1008    0.1008    0.1008    0.1008    0.1008    0.1008    0.1008    0.1008    0.1008    0.1008    0.1008    0.1008    0.1008    0.1008    0.1008    0.1008    0.1008    0.1008    0.1008    0.1008    0.1008    0.1008    0.1008    0.1008    0.1008

2Pitch(Hz)
  mean             82.8243  242.8882    8.6388   96.3862  148.4618  226.3699   69.4909  210.7009  192.4898  197.3055  218.8243  119.9169  174.3019  178.5519  196.7809  172.5222  180.2959  194.3082  113.0977  120.6581   74.7533  162.5807  232.3523  100.0392  177.8309  126.8979         0
  std. dev.       116.4666  120.5461   41.2201   88.4217   37.7381  100.9895   99.1958   71.4876    85.636   85.1182   91.1227  130.3383   75.0715   124.953   85.4633   64.7022  103.4062   85.9498  120.1807   120.908  103.7414   91.3755   82.3117  116.9968   71.4767   67.5526    0.0339
  weight sum            40        11      3235       110        27      1368       138        57       746       133        60        61       385        49       141       160       712       336        43       101       463       226       218       177        77        48         5
  precision         0.2034    0.2034    0.2034    0.2034    0.2034    0.2034    0.2034    0.2034    0.2034    0.2034    0.2034    0.2034    0.2034    0.2034    0.2034    0.2034    0.2034    0.2034    0.2034    0.2034    0.2034    0.2034    0.2034    0.2034    0.2034    0.2034    0.2034

2RawPitch
  mean              67.338  242.2461     6.907   78.8007  152.1647  216.3311   54.0342  207.9267  188.8553  192.4154   208.067    72.513  166.4766  133.6429  185.9434  160.8196  174.0908   182.853   78.8086    87.559   53.3147   156.453  222.5693    78.728  163.1333   98.3981         0
  std. dev.       106.9584  114.3486   35.5041   86.3558   61.9604  105.7238   94.5182   73.3988   89.4789   92.3885  103.6798  103.4893   78.7839  114.1968   95.2663    71.931  108.0935   97.6616  114.5801  119.4019   92.8695   96.2144   89.8429  106.6509   80.4684   73.1767    0.0348
  weight sum            40        11      3235       110        27      1368       138        57       746       133        60        61       385        49       141       160       712       336        43       101       463       226       218       177        77        48         5
  precision         0.2088    0.2088    0.2088    0.2088    0.2088    0.2088    0.2088    0.2088    0.2088    0.2088    0.2088    0.2088    0.2088    0.2088    0.2088    0.2088    0.2088    0.2088    0.2088    0.2088    0.2088    0.2088    0.2088    0.2088    0.2088    0.2088    0.2088

2SmPitch
  mean             82.2872  242.8904    7.4163   89.7865  150.2222  224.6095   56.7209  210.7027  191.6241  196.7627  218.8205   97.3451  171.8543  145.4317    194.06  172.6269   178.962  191.6862   97.6506  112.9058   67.5607  159.1541  232.3227   91.4408  176.6607  123.5214         0
  std. dev.       115.6212  120.5381   36.4734   86.0619   35.4094   102.523    95.654   71.4902   86.4181   86.2961   91.1003  112.8316   76.5988  142.8655   89.4179   64.6384  104.3249   89.3478  118.6116  123.4809  100.5461   93.9496   82.2366  115.9938   72.1056   69.6554    0.0342
  weight sum            40        11      3235       110        27      1368       138        57       746       133        60        61       385        49       141       160       712       336        43       101       463       226       218       177        77        48         5
  precision         0.2051    0.2051    0.2051    0.2051    0.2051    0.2051    0.2051    0.2051    0.2051    0.2051    0.2051    0.2051    0.2051    0.2051    0.2051    0.2051    0.2051    0.2051    0.2051    0.2051    0.2051    0.2051    0.2051    0.2051    0.2051    0.2051    0.2051

2Melogram(st)
  mean              20.505   56.4475    2.7472   30.5016   49.5371   53.8682   18.5492   55.0147   51.3162   52.3538   52.6041   31.4703   49.4307   29.1884   51.8448   51.3696   47.7311   50.9131   27.7309   32.0777    20.118   43.7297   54.9086   24.5196   51.6875   44.8978   10.4257
  std. dev.        27.9961    8.9492   12.0049   24.5513    4.5358   13.2991    26.461    6.1073   13.9659   11.7579    15.467    27.717   14.5646   29.0067   12.8223    8.4395   19.2227   15.2335   28.7641   28.2708   26.5829   21.6323   12.8002   28.2592     8.539    14.604   20.8513
  weight sum            40        11      3235       110        27      1368       138        57       746       133        60        61       385        49       141       160       712       336        43       101       463       226       218       177        77        48         5
  precision         0.0352    0.0352    0.0352    0.0352    0.0352    0.0352    0.0352    0.0352    0.0352    0.0352    0.0352    0.0352    0.0352    0.0352    0.0352    0.0352    0.0352    0.0352    0.0352    0.0352    0.0352    0.0352    0.0352    0.0352    0.0352    0.0352    0.0352

2ZCross
  mean              7.9545    3.2397    0.0854    1.0876    2.9697     7.241    1.1344    3.7065    4.8248    3.6172    4.5394    0.6468    3.1868    3.8442    2.5364    3.0545    3.9665    2.4015    3.5518    0.9073    3.5296    2.9847     3.573    0.5249    3.2231    1.3523         0
  std. dev.         11.397    2.3256    0.6291    1.6446    2.2449    4.3829    2.3372    1.7564    3.1533    2.1729    2.7234    1.2753    2.9527    3.5859    1.3851    1.7381    3.0096    1.5521    5.1392    2.3375    6.2163    2.4229    2.8222    1.1274    1.8067    1.5459    0.2121
  weight sum            40        11      3235       110        27      1368       138        57       746       133        60        61       385        49       141       160       712       336        43       101       463       226       218       177        77        48         5
  precision         1.2727    1.2727    1.2727    1.2727    1.2727    1.2727    1.2727    1.2727    1.2727    1.2727    1.2727    1.2727    1.2727    1.2727    1.2727    1.2727    1.2727    1.2727    1.2727    1.2727    1.2727    1.2727    1.2727    1.2727    1.2727    1.2727    1.2727

2F1(Hz)
  mean            202.7179   593.565   33.6418  445.2577  447.8544  704.1252  148.5037  470.4404  468.1216  513.8878  515.8111  363.7772  362.9833  523.6228  437.8538  482.6293  487.9887   482.181  207.2093   313.823   249.277  514.8971  498.1345   166.333  487.8509  367.1274         0
  std. dev.       289.5045  129.1149  135.0001  281.0365   81.4069   249.214  247.3273  127.1267  135.4424  150.3522  169.9361  330.5129  139.6622  308.3036  166.2944  142.8992  219.6408  147.9711  248.6353  303.7503   300.204   217.955  299.1257  236.3658   151.229  161.4238    0.0854
  weight sum            40        11      3235       110        27      1368       138        57       746       133        60        61       385        49       141       160       712       336        43       101       463       226       218       177        77        48         5
  precision         0.5127    0.5127    0.5127    0.5127    0.5127    0.5127    0.5127    0.5127    0.5127    0.5127    0.5127    0.5127    0.5127    0.5127    0.5127    0.5127    0.5127    0.5127    0.5127    0.5127    0.5127    0.5127    0.5127    0.5127    0.5127    0.5127    0.5127

2F2(Hz)
  mean            626.4819 1655.9458  104.6191 1265.3653 1914.7095 1470.4908  424.3369 1578.9707 1802.3085 1476.9797 1760.2472  961.4066 1971.4305 1504.2346 1666.2174 1672.8478 1165.7924 1632.3458     841.9  935.3911  786.1817 1429.2731 1080.7158  562.2782 1572.8791 1462.0269         0
  std. dev.       858.5611  133.0622  415.8917  774.7198  365.6044  383.7193  719.5944  348.4014  487.8366  305.2219  487.7326   850.392  644.7659  798.8866  446.5919  334.1607  525.3227  418.0342  976.9045  865.6064  915.0606  547.1746  431.8771   774.626  379.5959  573.9695    0.1164
  weight sum            40        11      3235       110        27      1368       138        57       746       133        60        61       385        49       141       160       712       336        43       101       463       226       218       177        77        48         5
  precision         0.6985    0.6985    0.6985    0.6985    0.6985    0.6985    0.6985    0.6985    0.6985    0.6985    0.6985    0.6985    0.6985    0.6985    0.6985    0.6985    0.6985    0.6985    0.6985    0.6985    0.6985    0.6985    0.6985    0.6985    0.6985    0.6985    0.6985

2F3(Hz)
  mean           1008.0966 2855.0556  178.4715 2081.0687 2538.4067 2743.9462  791.6181 2754.1719 2662.4498 2860.5062 3010.0232 1630.1205 2672.9489 2187.9232 2768.0321 2801.9499 2534.4259 2812.4776 1274.4606 1575.0518 1292.2482 2478.6242 2714.6841 1028.1597  2687.787 2567.0838         0
  std. dev.      1378.2052  399.2622  694.0702 1189.0713  114.7769  702.3743 1303.5362  465.0807   729.876  458.2327  754.1328 1434.7311  890.7818 1152.3941  576.4059   552.646  989.9708  589.6756 1439.0959 1448.3433  1480.795  954.3456  768.9985   1399.96  607.8331 1031.0332    0.1677
  weight sum            40        11      3235       110        27      1368       138        57       746       133        60        61       385        49       141       160       712       336        43       101       463       226       218       177        77        48         5
  precision         1.0065    1.0065    1.0065    1.0065    1.0065    1.0065    1.0065    1.0065    1.0065    1.0065    1.0065    1.0065    1.0065    1.0065    1.0065    1.0065    1.0065    1.0065    1.0065    1.0065    1.0065    1.0065    1.0065    1.0065    1.0065    1.0065    1.0065

2F4(Hz)
  mean           1232.6149 3254.3172  219.9108 2592.5352 3583.2931 3147.7453  903.7087 3318.1132 3199.5596 3346.2293 3016.1717 1898.9986 3176.0491 2748.5432 3305.2335 3243.3395 2913.9175 3213.9084 1527.7866 1852.0994 1498.0465 2916.4949  3074.217 1149.4479 3283.3059 2845.9981         0
  std. dev.      1683.3527  421.8444   853.084 1468.1187   94.5502  796.1279 1489.2819  424.9439  841.1377  488.4351  763.1423 1657.0559 1017.7226 1428.0079  619.2737  561.6121 1121.3472  675.8153  1744.058 1679.9741 1714.3929 1061.2671  772.1011 1569.8968  626.3155 1125.6959    0.1717
  weight sum            40        11      3235       110        27      1368       138        57       746       133        60        61       385        49       141       160       712       336        43       101       463       226       218       177        77        48         5
  precision         1.0301    1.0301    1.0301    1.0301    1.0301    1.0301    1.0301    1.0301    1.0301    1.0301    1.0301    1.0301    1.0301    1.0301    1.0301    1.0301    1.0301    1.0301    1.0301    1.0301    1.0301    1.0301    1.0301    1.0301    1.0301    1.0301    1.0301





=== Stratified cross-validation ===

Correctly Classified Instances        2840               31.1165 %
Incorrectly Classified Instances      6287               68.8835 %
Kappa statistic                          0.2338
K&B Relative Info Score             175556.2075 %
K&B Information Score                 5982.9185 bits      0.6555 bits/instance
Class complexity | order 0           31016.3645 bits      3.3983 bits/instance
Class complexity | scheme           235816.2471 bits     25.8372 bits/instance
Complexity improvement     (Sf)    -204799.8826 bits    -22.4389 bits/instance
Mean absolute error                      0.0511
Root mean squared error                  0.2111
Relative absolute error                 83.0997 %
Root relative squared error            120.4035 %
Coverage of cases (0.95 level)          39.0271 %
Mean rel. region size (0.95 level)       6.6705 %
Total Number of Instances             9127     


=== Detailed Accuracy By Class ===

                 TP Rate  FP Rate  Precision  Recall   F-Measure  MCC      ROC Area  PRC Area  Class
                 0,100    0,001    0,235      0,100    0,140      0,151    0,775     0,080     ch
                 0,000    0,006    0,000      0,000    0,000      -0,003   0,764     0,004     rr
                 0,629    0,014    0,960      0,629    0,760      0,696    0,960     0,944     0
                 0,136    0,026    0,059      0,136    0,083      0,073    0,737     0,040     hs
                 0,815    0,151    0,016      0,815    0,031      0,100    0,925     0,036     hg
                 0,330    0,031    0,650      0,330    0,438      0,403    0,848     0,540     a
                 0,196    0,026    0,103      0,196    0,135      0,124    0,682     0,061     c
                 0,368    0,095    0,024      0,368    0,045      0,073    0,829     0,023     b
                 0,025    0,006    0,264      0,025    0,046      0,059    0,729     0,178     e
                 0,060    0,039    0,022      0,060    0,033      0,013    0,767     0,030     d
                 0,200    0,033    0,039      0,200    0,065      0,075    0,780     0,022     g
                 0,066    0,010    0,044      0,066    0,053      0,046    0,703     0,024     f
                 0,119    0,016    0,250      0,119    0,162      0,148    0,790     0,183     i
                 0,122    0,002    0,250      0,122    0,164      0,172    0,830     0,119     j
                 0,000    0,002    0,000      0,000    0,000      -0,006   0,766     0,036     m
                 0,094    0,022    0,071      0,094    0,081      0,063    0,801     0,051     l
                 0,006    0,002    0,160      0,006    0,011      0,016    0,697     0,147     o
                 0,042    0,023    0,065      0,042    0,051      0,023    0,776     0,082     n
                 0,070    0,007    0,045      0,070    0,055      0,050    0,674     0,040     q
                 0,000    0,000    0,000      0,000    0,000      -0,002   0,697     0,027     p
                 0,134    0,004    0,633      0,134    0,221      0,276    0,695     0,247     s
                 0,009    0,002    0,095      0,009    0,016      0,022    0,727     0,059     r
                 0,133    0,010    0,240      0,133    0,171      0,164    0,833     0,143     u
                 0,175    0,015    0,185      0,175    0,180      0,164    0,705     0,091     t
                 0,000    0,001    0,000      0,000    0,000      -0,002   0,706     0,016     v
                 0,104    0,015    0,036      0,104    0,053      0,053    0,845     0,050     y
                 0,800    0,144    0,003      0,800    0,006      0,044    0,837     0,007     z
Weighted Avg.    0,311    0,016    0,536      0,311    0,376      0,350    0,834     0,477     


=== Confusion Matrix ===

    a    b    c    d    e    f    g    h    i    j    k    l    m    n    o    p    q    r    s    t    u    v    w    x    y    z   aa   <-- classified as
    4    1    4    1    1    2    3    3    0    1    1    1    0    0    0    0    0    3    2    0    6    1    0    2    0    0    4 |    a = ch
    0    0    0    0    6    1    0    1    0    0    2    0    0    0    0    0    0    0    0    0    0    0    1    0    0    0    0 |    b = rr
    0    1 2035   58   45    4   10   20    1   27    6   16    3    1    0    4    0   22    1    0    0    1    0   32    0   14  934 |    c = 0
    0    1    2   15   42    3    0    5    2    2    2    5    0    0    0    0    0    5    0    0    0    2    0    6    0    4   14 |    d = hs
    0    0    0    0   22    0    0    3    0    0    0    0    0    0    0    0    0    2    0    0    0    0    0    0    0    0    0 |    e = hg
    0   11   10   15  233  452   40  161   23  149   58    2   28    1    0   27   15   27   27    0    8    2   35    7    2   10   25 |    f = a
    0    0   17   11    7    0   27    3    0    0    0    5    0    0    0    0    1    7    3    0    2    1    1   12    0    1   40 |    g = c
    0    1    0    0   23    2    0   21    0    0    5    0    0    0    0    3    0    1    0    0    0    0    0    0    0    1    0 |    h = b
    1    6    2   13  257   43   22  124   19   20   79    3   44    1    5   16    2   20   13    1    8    0   17    8    0    5   17 |    i = e
    0    2    0    1   48    5    1   35    1    8   12    0    0    0    0   11    0    2    0    0    0    0    0    2    0    5    0 |    j = d
    0    3    0    1   19    5    0   10    0    0   12    0    1    0    0    4    0    2    0    0    0    1    0    1    0    0    1 |    k = g
    0    0    0    7   12    2    3    5    0    0    4    4    0    0    0    0    0    5    0    0    0    0    0    5    0    1   13 |    l = f
    0    0    3    9  100   15   21   60   10    1   26    1   46    1    5   25    0    6    4    1    5    1    2    8    0   23   12 |    m = i
    0    1    0    8    5    5    1    5    1    1    1    2    1    6    0    0    0    5    0    0    0    2    0    3    0    0    2 |    n = j
    0    0    1    3   55    6    3   33    0    8    6    0    5    0    0    9    0    5    1    0    0    0    1    0    0    4    1 |    o = m
    0    2    0    2   64    4    3   42    1   10    5    1    4    0    0   15    1    3    0    0    0    0    0    0    0    2    1 |    p = l
    1    3    6   20  145   61   31  134   10   78   14    3   25    0    0   30    4   14    5    0    2    0   30    7    1   29   59 |    q = o
    0   12    0   15  100   18    1   91    1    7   26    1    4    0    1   22    0   14    0    0    0    0    0    3    0   15    5 |    r = n
    0    0    5    1    5    3    6    0    1    0    0    1    0    0    0    0    0    7    3    0    1    1    0    3    0    0    6 |    s = q
    0    0    5    6   14    5   14    6    0    3    2    9    1    1    0    0    0    8    1    0    0    0    1   10    0    1   14 |    t = p
   11    1   15   39   45   17   33   14    1   12   16   22    1   13    0    6    0   29    4    0   62    5    0   18    0    5   94 |    u = s
    0    2    0   20   51   15    4   29    1   17   15    1    4    0    1   24    0   11    0    0    0    2    2    4    2    2   19 |    v = r
    0    3    1    2   17   25   12   62    0    7    5    2   12    0    8    7    2    1    3    0    3    2   29    3    0   10    2 |    w = u
    0    2   13    6   17    0   21    4    0    4    3    8    2    0    0    0    0   13    0    1    0    0    1   31    1    1   49 |    x = t
    0    0    1    0   39    2    3   11    0    1    8    0    2    0    1    4    0    2    0    0    0    0    0    1    0    2    0 |    y = v
    0    0    0    0   23    0    3    2    0    0    0    3    1    0    0    3    0    3    0    0    1    0    1    2    0    5    1 |    z = y
    0    0    0    0    0    0    0    0    0    0    0    1    0    0    0    0    0    0    0    0    0    0    0    0    0    0    4 |   aa = z

=== Percent Confusion Matrix ===
a	b	c	d	e	f	g	h	i	j	k	l	m	n	o	p	q	r	s	t	u	v	w	x	y	z	aa	
10.0	2.5	10.0	2.5	2.5	5.0	7.5	7.5	0.0	2.5	2.5	2.5	0.0	0.0	0.0	0.0	0.0	7.5	5.0	0.0	15.0	2.5	0.0	5.0	0.0	0.0	10.0	 a = ch
0.0	0.0	0.0	0.0	54.55	9.09	0.0	9.09	0.0	0.0	18.18	0.0	0.0	0.0	0.0	0.0	0.0	0.0	0.0	0.0	0.0	0.0	9.09	0.0	0.0	0.0	0.0	 b = rr
0.0	0.03	62.91	1.79	1.39	0.12	0.31	0.62	0.03	0.83	0.19	0.49	0.09	0.03	0.0	0.12	0.0	0.68	0.03	0.0	0.0	0.03	0.0	0.99	0.0	0.43	28.87	 c = 0
0.0	0.91	1.82	13.64	38.18	2.73	0.0	4.55	1.82	1.82	1.82	4.55	0.0	0.0	0.0	0.0	0.0	4.55	0.0	0.0	0.0	1.82	0.0	5.45	0.0	3.64	12.73	 d = hs
0.0	0.0	0.0	0.0	81.48	0.0	0.0	11.11	0.0	0.0	0.0	0.0	0.0	0.0	0.0	0.0	0.0	7.41	0.0	0.0	0.0	0.0	0.0	0.0	0.0	0.0	0.0	 e = hg
0.0	0.8	0.73	1.1	17.03	33.04	2.92	11.77	1.68	10.89	4.24	0.15	2.05	0.07	0.0	1.97	1.1	1.97	1.97	0.0	0.58	0.15	2.56	0.51	0.15	0.73	1.83	 f = a
0.0	0.0	12.32	7.97	5.07	0.0	19.57	2.17	0.0	0.0	0.0	3.62	0.0	0.0	0.0	0.0	0.72	5.07	2.17	0.0	1.45	0.72	0.72	8.7	0.0	0.72	28.99	 g = c
0.0	1.75	0.0	0.0	40.35	3.51	0.0	36.84	0.0	0.0	8.77	0.0	0.0	0.0	0.0	5.26	0.0	1.75	0.0	0.0	0.0	0.0	0.0	0.0	0.0	1.75	0.0	 h = b
0.13	0.8	0.27	1.74	34.45	5.76	2.95	16.62	2.55	2.68	10.59	0.4	5.9	0.13	0.67	2.14	0.27	2.68	1.74	0.13	1.07	0.0	2.28	1.07	0.0	0.67	2.28	 i = e
0.0	1.5	0.0	0.75	36.09	3.76	0.75	26.32	0.75	6.02	9.02	0.0	0.0	0.0	0.0	8.27	0.0	1.5	0.0	0.0	0.0	0.0	0.0	1.5	0.0	3.76	0.0	 j = d
0.0	5.0	0.0	1.67	31.67	8.33	0.0	16.67	0.0	0.0	20.0	0.0	1.67	0.0	0.0	6.67	0.0	3.33	0.0	0.0	0.0	1.67	0.0	1.67	0.0	0.0	1.67	 k = g
0.0	0.0	0.0	11.48	19.67	3.28	4.92	8.2	0.0	0.0	6.56	6.56	0.0	0.0	0.0	0.0	0.0	8.2	0.0	0.0	0.0	0.0	0.0	8.2	0.0	1.64	21.31	 l = f
0.0	0.0	0.78	2.34	25.97	3.9	5.45	15.58	2.6	0.26	6.75	0.26	11.95	0.26	1.3	6.49	0.0	1.56	1.04	0.26	1.3	0.26	0.52	2.08	0.0	5.97	3.12	 m = i
0.0	2.04	0.0	16.33	10.2	10.2	2.04	10.2	2.04	2.04	2.04	4.08	2.04	12.24	0.0	0.0	0.0	10.2	0.0	0.0	0.0	4.08	0.0	6.12	0.0	0.0	4.08	 n = j
0.0	0.0	0.71	2.13	39.01	4.26	2.13	23.4	0.0	5.67	4.26	0.0	3.55	0.0	0.0	6.38	0.0	3.55	0.71	0.0	0.0	0.0	0.71	0.0	0.0	2.84	0.71	 o = m
0.0	1.25	0.0	1.25	40.0	2.5	1.88	26.25	0.63	6.25	3.13	0.63	2.5	0.0	0.0	9.38	0.63	1.88	0.0	0.0	0.0	0.0	0.0	0.0	0.0	1.25	0.63	 p = l
0.14	0.42	0.84	2.81	20.37	8.57	4.35	18.82	1.4	10.96	1.97	0.42	3.51	0.0	0.0	4.21	0.56	1.97	0.7	0.0	0.28	0.0	4.21	0.98	0.14	4.07	8.29	 q = o
0.0	3.57	0.0	4.46	29.76	5.36	0.3	27.08	0.3	2.08	7.74	0.3	1.19	0.0	0.3	6.55	0.0	4.17	0.0	0.0	0.0	0.0	0.0	0.89	0.0	4.46	1.49	 r = n
0.0	0.0	11.63	2.33	11.63	6.98	13.95	0.0	2.33	0.0	0.0	2.33	0.0	0.0	0.0	0.0	0.0	16.28	6.98	0.0	2.33	2.33	0.0	6.98	0.0	0.0	13.95	 s = q
0.0	0.0	4.95	5.94	13.86	4.95	13.86	5.94	0.0	2.97	1.98	8.91	0.99	0.99	0.0	0.0	0.0	7.92	0.99	0.0	0.0	0.0	0.99	9.9	0.0	0.99	13.86	 t = p
2.38	0.22	3.24	8.42	9.72	3.67	7.13	3.02	0.22	2.59	3.46	4.75	0.22	2.81	0.0	1.3	0.0	6.26	0.86	0.0	13.39	1.08	0.0	3.89	0.0	1.08	20.3	 u = s
0.0	0.88	0.0	8.85	22.57	6.64	1.77	12.83	0.44	7.52	6.64	0.44	1.77	0.0	0.44	10.62	0.0	4.87	0.0	0.0	0.0	0.88	0.88	1.77	0.88	0.88	8.41	 v = r
0.0	1.38	0.46	0.92	7.8	11.47	5.5	28.44	0.0	3.21	2.29	0.92	5.5	0.0	3.67	3.21	0.92	0.46	1.38	0.0	1.38	0.92	13.3	1.38	0.0	4.59	0.92	 w = u
0.0	1.13	7.34	3.39	9.6	0.0	11.86	2.26	0.0	2.26	1.69	4.52	1.13	0.0	0.0	0.0	0.0	7.34	0.0	0.56	0.0	0.0	0.56	17.51	0.56	0.56	27.68	 x = t
0.0	0.0	1.3	0.0	50.65	2.6	3.9	14.29	0.0	1.3	10.39	0.0	2.6	0.0	1.3	5.19	0.0	2.6	0.0	0.0	0.0	0.0	0.0	1.3	0.0	2.6	0.0	 y = v
0.0	0.0	0.0	0.0	47.92	0.0	6.25	4.17	0.0	0.0	0.0	6.25	2.08	0.0	0.0	6.25	0.0	6.25	0.0	0.0	2.08	0.0	2.08	4.17	0.0	10.42	2.08	 z = y
0.0	0.0	0.0	0.0	0.0	0.0	0.0	0.0	0.0	0.0	0.0	20.0	0.0	0.0	0.0	0.0	0.0	0.0	0.0	0.0	0.0	0.0	0.0	0.0	0.0	0.0	80.0	 aa = z
