Timestamp:2013-08-30-03:55:30
Inventario:I0
Intervalo:20ms
Ngramas:5
Clasificador:BayesNet
Relation Name:  I0-20ms-5gramas
Num Instances:  9125
Num Attributes: 51

     Name                      Type  Nom  Int Real     Missing      Unique  Dist
   1 0Int(dB)                   Num   0%  11%  89%     0 /  0%    14 /  0%   764 
   2 0Pitch(Hz)                 Num   0%  49%  51%     0 /  0%  1033 / 11%  2440 
   3 0RawPitch                  Num   0%  52%  48%     0 /  0%  1062 / 12%  2369 
   4 0SmPitch                   Num   0%  50%  50%     0 /  0%  1056 / 12%  2419 
   5 0Melogram(st)              Num   0%  45%  55%     0 /  0%   937 / 10%  2341 
   6 0ZCross                    Num   0% 100%   0%     0 /  0%     7 /  0%    34 
   7 0F1(Hz)                    Num   0%  49%  51%     0 /  0%  2180 / 24%  3398 
   8 0F2(Hz)                    Num   0%  49%  51%     0 /  0%  3463 / 38%  4259 
   9 0F3(Hz)                    Num   0%  49%  51%     0 /  0%  3209 / 35%  4087 
  10 0F4(Hz)                    Num   0%  49%  51%     0 /  0%  3134 / 34%  4027 
  11 1Int(dB)                   Num   0%  11%  89%     0 /  0%    14 /  0%   764 
  12 1Pitch(Hz)                 Num   0%  49%  51%     0 /  0%  1033 / 11%  2440 
  13 1RawPitch                  Num   0%  52%  48%     0 /  0%  1062 / 12%  2369 
  14 1SmPitch                   Num   0%  50%  50%     0 /  0%  1056 / 12%  2419 
  15 1Melogram(st)              Num   0%  45%  55%     0 /  0%   937 / 10%  2341 
  16 1ZCross                    Num   0% 100%   0%     0 /  0%     7 /  0%    34 
  17 1F1(Hz)                    Num   0%  49%  51%     0 /  0%  2180 / 24%  3398 
  18 1F2(Hz)                    Num   0%  49%  51%     0 /  0%  3463 / 38%  4259 
  19 1F3(Hz)                    Num   0%  49%  51%     0 /  0%  3209 / 35%  4087 
  20 1F4(Hz)                    Num   0%  49%  51%     0 /  0%  3134 / 34%  4027 
  21 2Int(dB)                   Num   0%  11%  89%     0 /  0%    14 /  0%   764 
  22 2Pitch(Hz)                 Num   0%  49%  51%     0 /  0%  1033 / 11%  2440 
  23 2RawPitch                  Num   0%  52%  48%     0 /  0%  1062 / 12%  2369 
  24 2SmPitch                   Num   0%  50%  50%     0 /  0%  1056 / 12%  2419 
  25 2Melogram(st)              Num   0%  45%  55%     0 /  0%   937 / 10%  2341 
  26 2ZCross                    Num   0% 100%   0%     0 /  0%     7 /  0%    34 
  27 2F1(Hz)                    Num   0%  49%  51%     0 /  0%  2180 / 24%  3398 
  28 2F2(Hz)                    Num   0%  49%  51%     0 /  0%  3463 / 38%  4259 
  29 2F3(Hz)                    Num   0%  49%  51%     0 /  0%  3209 / 35%  4087 
  30 2F4(Hz)                    Num   0%  49%  51%     0 /  0%  3134 / 34%  4027 
  31 3Int(dB)                   Num   0%  11%  89%     0 /  0%    14 /  0%   764 
  32 3Pitch(Hz)                 Num   0%  49%  51%     0 /  0%  1033 / 11%  2440 
  33 3RawPitch                  Num   0%  52%  48%     0 /  0%  1062 / 12%  2369 
  34 3SmPitch                   Num   0%  50%  50%     0 /  0%  1056 / 12%  2419 
  35 3Melogram(st)              Num   0%  45%  55%     0 /  0%   937 / 10%  2341 
  36 3ZCross                    Num   0% 100%   0%     0 /  0%     7 /  0%    34 
  37 3F1(Hz)                    Num   0%  49%  51%     0 /  0%  2180 / 24%  3398 
  38 3F2(Hz)                    Num   0%  49%  51%     0 /  0%  3463 / 38%  4259 
  39 3F3(Hz)                    Num   0%  49%  51%     0 /  0%  3209 / 35%  4087 
  40 3F4(Hz)                    Num   0%  49%  51%     0 /  0%  3134 / 34%  4027 
  41 4Int(dB)                   Num   0%  11%  89%     0 /  0%    14 /  0%   764 
  42 4Pitch(Hz)                 Num   0%  49%  51%     0 /  0%  1033 / 11%  2440 
  43 4RawPitch                  Num   0%  52%  48%     0 /  0%  1062 / 12%  2369 
  44 4SmPitch                   Num   0%  50%  50%     0 /  0%  1056 / 12%  2419 
  45 4Melogram(st)              Num   0%  45%  55%     0 /  0%   938 / 10%  2342 
  46 4ZCross                    Num   0% 100%   0%     0 /  0%     7 /  0%    34 
  47 4F1(Hz)                    Num   0%  49%  51%     0 /  0%  2180 / 24%  3398 
  48 4F2(Hz)                    Num   0%  49%  51%     0 /  0%  3463 / 38%  4259 
  49 4F3(Hz)                    Num   0%  49%  51%     0 /  0%  3209 / 35%  4087 
  50 4F4(Hz)                    Num   0%  49%  51%     0 /  0%  3134 / 34%  4027 
  51 class                      Nom 100%   0%   0%     0 /  0%     0 /  0%    27 


Options: -D -Q weka.classifiers.bayes.net.search.local.K2 -- -P 1 -S BAYES -E weka.classifiers.bayes.net.estimate.SimpleEstimator -- -A 0.5 

Bayes Network Classifier
not using ADTree
#attributes=51 #classindex=50
Network structure (nodes followed by parents)
0Int(dB)(7): class 
0Pitch(Hz)(4): class 
0RawPitch(4): class 
0SmPitch(4): class 
0Melogram(st)(5): class 
0ZCross(4): class 
0F1(Hz)(7): class 
0F2(Hz)(5): class 
0F3(Hz)(2): class 
0F4(Hz)(2): class 
1Int(dB)(8): class 
1Pitch(Hz)(4): class 
1RawPitch(4): class 
1SmPitch(4): class 
1Melogram(st)(5): class 
1ZCross(4): class 
1F1(Hz)(6): class 
1F2(Hz)(5): class 
1F3(Hz)(3): class 
1F4(Hz)(2): class 
2Int(dB)(7): class 
2Pitch(Hz)(4): class 
2RawPitch(4): class 
2SmPitch(4): class 
2Melogram(st)(5): class 
2ZCross(3): class 
2F1(Hz)(7): class 
2F2(Hz)(6): class 
2F3(Hz)(3): class 
2F4(Hz)(3): class 
3Int(dB)(7): class 
3Pitch(Hz)(4): class 
3RawPitch(4): class 
3SmPitch(4): class 
3Melogram(st)(7): class 
3ZCross(4): class 
3F1(Hz)(8): class 
3F2(Hz)(6): class 
3F3(Hz)(3): class 
3F4(Hz)(3): class 
4Int(dB)(8): class 
4Pitch(Hz)(4): class 
4RawPitch(4): class 
4SmPitch(4): class 
4Melogram(st)(7): class 
4ZCross(6): class 
4F1(Hz)(8): class 
4F2(Hz)(9): class 
4F3(Hz)(3): class 
4F4(Hz)(3): class 
class(27): 
LogScore Bayes: -406610.0736307094
LogScore BDeu: -431220.965775686
LogScore MDL: -428168.1466649113
LogScore ENTROPY: -404536.8459729566
LogScore AIC: -409719.8459729566




=== Stratified cross-validation ===

Correctly Classified Instances        4155               45.5342 %
Incorrectly Classified Instances      4970               54.4658 %
Kappa statistic                          0.3584
K&B Relative Info Score             299475.7837 %
K&B Information Score                10205.671  bits      1.1184 bits/instance
Class complexity | order 0           31013.3708 bits      3.3987 bits/instance
Class complexity | scheme           132478.4088 bits     14.5182 bits/instance
Complexity improvement     (Sf)    -101465.0379 bits    -11.1195 bits/instance
Mean absolute error                      0.0405
Root mean squared error                  0.1828
Relative absolute error                 65.7781 %
Root relative squared error            104.2161 %
Coverage of cases (0.95 level)          54.126  %
Mean rel. region size (0.95 level)       6.9808 %
Total Number of Instances             9125     


=== Detailed Accuracy By Class ===

                 TP Rate  FP Rate  Precision  Recall   F-Measure  MCC      ROC Area  PRC Area  Class
                 0,175    0,010    0,073      0,175    0,103      0,107    0,901     0,080     ch
                 0,000    0,001    0,000      0,000    0,000      -0,001   0,806     0,003     rr
                 0,877    0,063    0,883      0,877    0,880      0,815    0,959     0,947     0
                 0,136    0,022    0,070      0,136    0,093      0,083    0,791     0,048     hs
                 0,704    0,088    0,023      0,704    0,045      0,117    0,936     0,101     hg
                 0,433    0,040    0,658      0,433    0,522      0,471    0,882     0,631     a
                 0,297    0,042    0,098      0,297    0,147      0,149    0,834     0,084     c
                 0,053    0,010    0,032      0,053    0,040      0,034    0,871     0,037     b
                 0,102    0,009    0,497      0,102    0,169      0,198    0,834     0,316     e
                 0,165    0,033    0,070      0,165    0,098      0,087    0,841     0,057     d
                 0,133    0,036    0,024      0,133    0,041      0,042    0,793     0,019     g
                 0,098    0,012    0,051      0,098    0,067      0,062    0,861     0,044     f
                 0,278    0,024    0,338      0,278    0,305      0,279    0,875     0,321     i
                 0,286    0,003    0,318      0,286    0,301      0,298    0,914     0,176     j
                 0,035    0,001    0,294      0,035    0,063      0,098    0,824     0,088     m
                 0,338    0,048    0,111      0,338    0,167      0,169    0,840     0,091     l
                 0,124    0,015    0,404      0,124    0,189      0,190    0,782     0,270     o
                 0,185    0,034    0,171      0,185    0,177      0,145    0,826     0,128     n
                 0,000    0,013    0,000      0,000    0,000      -0,008   0,695     0,009     q
                 0,000    0,001    0,000      0,000    0,000      -0,003   0,796     0,040     p
                 0,130    0,011    0,397      0,130    0,195      0,205    0,815     0,261     s
                 0,164    0,020    0,170      0,164    0,167      0,146    0,794     0,120     r
                 0,289    0,013    0,354      0,289    0,318      0,305    0,884     0,341     u
                 0,136    0,011    0,198      0,136    0,161      0,150    0,857     0,133     t
                 0,039    0,004    0,086      0,039    0,054      0,052    0,777     0,031     v
                 0,292    0,016    0,087      0,292    0,134      0,151    0,870     0,145     y
                 0,000    0,002    0,000      0,000    0,000      -0,001   0,927     0,010     z
Weighted Avg.    0,455    0,037    0,555      0,455    0,476      0,445    0,882     0,532     


=== Confusion Matrix ===

    a    b    c    d    e    f    g    h    i    j    k    l    m    n    o    p    q    r    s    t    u    v    w    x    y    z   aa   <-- classified as
    7    0    2    1    0    2   10    1    0    0    2    4    0    1    0    1    0    4    0    0    4    1    0    0    0    0    0 |    a = ch
    0    0    0    0    4    3    0    0    0    0    0    0    0    0    0    2    0    1    1    0    0    0    0    0    0    0    0 |    b = rr
   20    0 2835   47   31    4  108    0    1    7    5   21   13    2    1   14    6   19    0    0   26   21    4   20    5   17    6 |    c = 0
    3    0    4   15   25    3    9    2    1    4    2    5    7    0    0   10    3    5    0    0    5    2    1    2    0    2    0 |    d = hs
    0    0    0    0   19    0    0    1    1    0    0    0    0    0    0    2    0    1    0    0    0    2    0    0    1    0    0 |    e = hg
    2    0   56   12   81  592   34    6   34   91   60    6   23    2    0   92   71   25   36    0    7   91   18    9   12    6    2 |    f = a
    5    0   41   14    4    0   41    0    1    2    0    5    0    0    0    2    0    8    2    0    5    1    0    5    0    1    1 |    g = c
    0    0    0    0   14    8    0    3    1    7    6    0    3    0    1    9    0    3    0    0    0    0    2    0    0    0    0 |    h = b
    1    1   30   10  162   50   15   14   76   34   80    5   69    1    1   68   12   37   30    0    2    6   18   13    0   11    0 |    i = e
    0    0    0    0   21   15    0    0    3   22   10    0    3    0    1   19    3   13    0    0    0    5    2    4    1   11    0 |    j = d
    1    0    0    1   16    8    1    3    2    4    8    1    2    0    0    3    0    5    0    0    0    3    1    0    1    0    0 |    k = g
    2    0    2    7    4    1    6    2    0    2    2    6    0    3    1    3    0    8    0    2    5    0    0    4    0    1    0 |    l = f
    5    0   11    8  106    2   16    8    7    7   28    1  107    0    1   19    1   19   19    0    5    2    2    4    0    6    1 |    m = i
    2    0    0    4    9    2    3    1    1    0    4    2    1   14    0    0    0    3    0    0    1    2    0    0    0    0    0 |    n = j
    0    0    5    0   38    8    0    4    0    5    9    0   18    0    5   12    3   19    0    0    0    2    8    0    0    5    0 |    o = m
    0    0    0    0   20    5    4    5    2    5    8    1   10    0    1   54    6   18    1    0    1    2    3    0    3   11    0 |    p = l
    4    2   69   23   83   92   26   14   10   77   25    1   13    0    3   59   88   21   12    1    5    7   40    6    3   27    1 |    q = o
    1    2    1   12   79   34    3    5    6   20   32    1   14    0    0   36    2   62    0    0    4    8    5    3    0    6    0 |    r = n
    1    0   16    2    4    3    3    0    0    0    1    1    2    2    0    1    0    2    0    0    1    0    0    3    0    1    0 |    s = q
    3    1   12    8    5    2   17    0    0    2    2   12    3    6    0    2    0   12    1    0    4    3    0    4    0    2    0 |    t = p
   27    0   78   27   38   15   54    0    1    6   12   27    4   12    0   20    2   32    3    1   60   11    4   13    2   11    3 |    u = s
    1    1    4    9   15   27   12    6    1   12   18    2   11    0    0   27    4   16    0    2    9   37    2    4    3    3    0 |    v = r
    1    0    4    2   11   19   11   15    2    4    9    1    9    0    2    9   16   10   10    0    1    5   63    2    1   11    0 |    w = u
    8    0   30    9    9    1   42    0    0    1    4   13    2    0    0    2    0   13    0    0    5    0    2   24    0   12    0 |    x = t
    0    0    5    0   20    4    0    2    3    3    5    0    1    1    0   12    1    6    1    0    0    6    1    0    3    3    0 |    y = v
    2    0    2    2    6    0    1    1    0    1    0    2    2    0    0    9    0    1    1    0    0    1    2    1    0   14    0 |    z = y
    0    0    2    0    0    0    2    0    0    0    0    0    0    0    0    0    0    0    0    0    1    0    0    0    0    0    0 |   aa = z

=== Percent Confusion Matrix ===
a	b	c	d	e	f	g	h	i	j	k	l	m	n	o	p	q	r	s	t	u	v	w	x	y	z	aa	
17.5	0.0	5.0	2.5	0.0	5.0	25.0	2.5	0.0	0.0	5.0	10.0	0.0	2.5	0.0	2.5	0.0	10.0	0.0	0.0	10.0	2.5	0.0	0.0	0.0	0.0	0.0	 a = ch
0.0	0.0	0.0	0.0	36.36	27.27	0.0	0.0	0.0	0.0	0.0	0.0	0.0	0.0	0.0	18.18	0.0	9.09	9.09	0.0	0.0	0.0	0.0	0.0	0.0	0.0	0.0	 b = rr
0.62	0.0	87.69	1.45	0.96	0.12	3.34	0.0	0.03	0.22	0.15	0.65	0.4	0.06	0.03	0.43	0.19	0.59	0.0	0.0	0.8	0.65	0.12	0.62	0.15	0.53	0.19	 c = 0
2.73	0.0	3.64	13.64	22.73	2.73	8.18	1.82	0.91	3.64	1.82	4.55	6.36	0.0	0.0	9.09	2.73	4.55	0.0	0.0	4.55	1.82	0.91	1.82	0.0	1.82	0.0	 d = hs
0.0	0.0	0.0	0.0	70.37	0.0	0.0	3.7	3.7	0.0	0.0	0.0	0.0	0.0	0.0	7.41	0.0	3.7	0.0	0.0	0.0	7.41	0.0	0.0	3.7	0.0	0.0	 e = hg
0.15	0.0	4.09	0.88	5.92	43.27	2.49	0.44	2.49	6.65	4.39	0.44	1.68	0.15	0.0	6.73	5.19	1.83	2.63	0.0	0.51	6.65	1.32	0.66	0.88	0.44	0.15	 f = a
3.62	0.0	29.71	10.14	2.9	0.0	29.71	0.0	0.72	1.45	0.0	3.62	0.0	0.0	0.0	1.45	0.0	5.8	1.45	0.0	3.62	0.72	0.0	3.62	0.0	0.72	0.72	 g = c
0.0	0.0	0.0	0.0	24.56	14.04	0.0	5.26	1.75	12.28	10.53	0.0	5.26	0.0	1.75	15.79	0.0	5.26	0.0	0.0	0.0	0.0	3.51	0.0	0.0	0.0	0.0	 h = b
0.13	0.13	4.02	1.34	21.72	6.7	2.01	1.88	10.19	4.56	10.72	0.67	9.25	0.13	0.13	9.12	1.61	4.96	4.02	0.0	0.27	0.8	2.41	1.74	0.0	1.47	0.0	 i = e
0.0	0.0	0.0	0.0	15.79	11.28	0.0	0.0	2.26	16.54	7.52	0.0	2.26	0.0	0.75	14.29	2.26	9.77	0.0	0.0	0.0	3.76	1.5	3.01	0.75	8.27	0.0	 j = d
1.67	0.0	0.0	1.67	26.67	13.33	1.67	5.0	3.33	6.67	13.33	1.67	3.33	0.0	0.0	5.0	0.0	8.33	0.0	0.0	0.0	5.0	1.67	0.0	1.67	0.0	0.0	 k = g
3.28	0.0	3.28	11.48	6.56	1.64	9.84	3.28	0.0	3.28	3.28	9.84	0.0	4.92	1.64	4.92	0.0	13.11	0.0	3.28	8.2	0.0	0.0	6.56	0.0	1.64	0.0	 l = f
1.3	0.0	2.86	2.08	27.53	0.52	4.16	2.08	1.82	1.82	7.27	0.26	27.79	0.0	0.26	4.94	0.26	4.94	4.94	0.0	1.3	0.52	0.52	1.04	0.0	1.56	0.26	 m = i
4.08	0.0	0.0	8.16	18.37	4.08	6.12	2.04	2.04	0.0	8.16	4.08	2.04	28.57	0.0	0.0	0.0	6.12	0.0	0.0	2.04	4.08	0.0	0.0	0.0	0.0	0.0	 n = j
0.0	0.0	3.55	0.0	26.95	5.67	0.0	2.84	0.0	3.55	6.38	0.0	12.77	0.0	3.55	8.51	2.13	13.48	0.0	0.0	0.0	1.42	5.67	0.0	0.0	3.55	0.0	 o = m
0.0	0.0	0.0	0.0	12.5	3.13	2.5	3.13	1.25	3.13	5.0	0.63	6.25	0.0	0.63	33.75	3.75	11.25	0.63	0.0	0.63	1.25	1.88	0.0	1.88	6.88	0.0	 p = l
0.56	0.28	9.69	3.23	11.66	12.92	3.65	1.97	1.4	10.81	3.51	0.14	1.83	0.0	0.42	8.29	12.36	2.95	1.69	0.14	0.7	0.98	5.62	0.84	0.42	3.79	0.14	 q = o
0.3	0.6	0.3	3.57	23.51	10.12	0.89	1.49	1.79	5.95	9.52	0.3	4.17	0.0	0.0	10.71	0.6	18.45	0.0	0.0	1.19	2.38	1.49	0.89	0.0	1.79	0.0	 r = n
2.33	0.0	37.21	4.65	9.3	6.98	6.98	0.0	0.0	0.0	2.33	2.33	4.65	4.65	0.0	2.33	0.0	4.65	0.0	0.0	2.33	0.0	0.0	6.98	0.0	2.33	0.0	 s = q
2.97	0.99	11.88	7.92	4.95	1.98	16.83	0.0	0.0	1.98	1.98	11.88	2.97	5.94	0.0	1.98	0.0	11.88	0.99	0.0	3.96	2.97	0.0	3.96	0.0	1.98	0.0	 t = p
5.83	0.0	16.85	5.83	8.21	3.24	11.66	0.0	0.22	1.3	2.59	5.83	0.86	2.59	0.0	4.32	0.43	6.91	0.65	0.22	12.96	2.38	0.86	2.81	0.43	2.38	0.65	 u = s
0.44	0.44	1.77	3.98	6.64	11.95	5.31	2.65	0.44	5.31	7.96	0.88	4.87	0.0	0.0	11.95	1.77	7.08	0.0	0.88	3.98	16.37	0.88	1.77	1.33	1.33	0.0	 v = r
0.46	0.0	1.83	0.92	5.05	8.72	5.05	6.88	0.92	1.83	4.13	0.46	4.13	0.0	0.92	4.13	7.34	4.59	4.59	0.0	0.46	2.29	28.9	0.92	0.46	5.05	0.0	 w = u
4.52	0.0	16.95	5.08	5.08	0.56	23.73	0.0	0.0	0.56	2.26	7.34	1.13	0.0	0.0	1.13	0.0	7.34	0.0	0.0	2.82	0.0	1.13	13.56	0.0	6.78	0.0	 x = t
0.0	0.0	6.49	0.0	25.97	5.19	0.0	2.6	3.9	3.9	6.49	0.0	1.3	1.3	0.0	15.58	1.3	7.79	1.3	0.0	0.0	7.79	1.3	0.0	3.9	3.9	0.0	 y = v
4.17	0.0	4.17	4.17	12.5	0.0	2.08	2.08	0.0	2.08	0.0	4.17	4.17	0.0	0.0	18.75	0.0	2.08	2.08	0.0	0.0	2.08	4.17	2.08	0.0	29.17	0.0	 z = y
0.0	0.0	40.0	0.0	0.0	0.0	40.0	0.0	0.0	0.0	0.0	0.0	0.0	0.0	0.0	0.0	0.0	0.0	0.0	0.0	20.0	0.0	0.0	0.0	0.0	0.0	0.0	 aa = z
