Timestamp:2014-12-07-10:34:16
Inventario:I0
Intervalo:2ms
Ngramas:1
Clasificador:NaiveBayes
Relation Name:  I0-2ms-1gramas
Num Instances:  91703
Num Attributes: 11

     Name                      Type  Nom  Int Real     Missing      Unique  Dist
   1 0Int(dB)                   Num   0%   9%  91%     0 /  0%     6 /  0%   781 
   2 0Pitch(Hz)                 Num   0%  52%  48%     0 /  0%   471 /  1%  4016 
   3 0RawPitch                  Num   0%  55%  45%     0 /  0%   550 /  1%  4014 
   4 0SmPitch                   Num   0%  53%  47%     0 /  0%   491 /  1%  3998 
   5 0Melogram(st)              Num   0%  49%  51%     0 /  0%   212 /  0%  3363 
   6 0ZCross                    Num   0% 100%   0%     0 /  0%     6 /  0%    54 
   7 0F1(Hz)                    Num   0%  52%  48%     0 /  0%  1126 /  1%  4776 
   8 0F2(Hz)                    Num   0%  52%  48%     0 /  0%  2304 /  3%  6727 
   9 0F3(Hz)                    Num   0%  52%  48%     0 /  0%  1967 /  2%  6224 
  10 0F4(Hz)                    Num   0%  52%  48%     0 /  0%  1884 /  2%  6074 
  11 class                      Nom 100%   0%   0%     0 /  0%     0 /  0%    27 


Naive Bayes Classifier

                    Class
Attribute              ch        rr         0        hs        hg         a         c         b         e         d         g         f         i         j         m         l         o         n         q         p         s         r         u         t         v         y         z
                      (0)       (0)    (0.39)    (0.01)       (0)    (0.14)    (0.01)    (0.01)    (0.08)    (0.01)    (0.01)    (0.01)    (0.04)    (0.01)    (0.01)    (0.02)    (0.07)    (0.03)       (0)    (0.01)    (0.05)    (0.02)    (0.02)    (0.02)    (0.01)       (0)       (0)
==============================================================================================================================================================================================================================================================================================
0Int(dB)
  mean             -19.167  -11.1625  -48.3069  -21.3733  -10.7149   -2.8733  -23.7499   -5.8567    -5.199   -7.7016    -7.722  -22.1621    -8.676  -15.7996   -7.5498   -8.2338   -8.1936   -9.4747  -21.6533  -22.2328  -21.7905  -11.9633   -5.0927   -24.646   -9.0796  -16.2809  -26.9132
  std. dev.         8.1498    4.3485   16.1112   11.2969    6.3965     8.153    10.064    4.2899    8.0531     6.187    8.0048     5.303    8.3577    6.1062    5.9847    5.7838   12.2208    7.8239   11.1291    10.732    6.5355    9.4776    7.5769   10.6113    6.5355    4.7292    1.9983
  weight sum           429       109     35833       980       247     13106      1361       599      6910      1313       544       582      3561       491      1311      1613      6646      3164       419      1005      4423      2084      2080      1710       704       446        33
  precision         0.1037    0.1037    0.1037    0.1037    0.1037    0.1037    0.1037    0.1037    0.1037    0.1037    0.1037    0.1037    0.1037    0.1037    0.1037    0.1037    0.1037    0.1037    0.1037    0.1037    0.1037    0.1037    0.1037    0.1037    0.1037    0.1037    0.1037

0Pitch(Hz)
  mean             56.1744  245.4989   16.3378   78.7475  147.7994  226.6129   58.8225  216.1719  190.3791  202.2426  211.6788   72.9488  173.4856   151.728  194.2012  174.5722  178.0537  188.9788   86.5762   82.9837   43.4105  161.9067  229.8416   76.3545   178.673  113.0563         0
  std. dev.       103.5574  122.1103    55.727   86.2324   39.2295  103.4134  100.8457   72.2007   87.7367   84.5819  101.7909  114.3539   76.0683  131.4173    87.328   64.1927  105.2226   90.9256  117.3245  113.9286   87.1375   95.8943   83.5753  112.1165   71.4053   69.2765    0.0207
  weight sum           429       109     35833       980       247     13106      1361       599      6910      1313       544       582      3561       491      1311      1613      6646      3164       419      1005      4423      2084      2080      1710       704       446        33
  precision         0.1242    0.1242    0.1242    0.1242    0.1242    0.1242    0.1242    0.1242    0.1242    0.1242    0.1242    0.1242    0.1242    0.1242    0.1242    0.1242    0.1242    0.1242    0.1242    0.1242    0.1242    0.1242    0.1242    0.1242    0.1242    0.1242    0.1242

0RawPitch
  mean             36.8283  237.1082   13.3724   61.0304  126.6695   217.004   41.3269   214.048   185.837  195.8324  201.3727     35.58  166.2787   93.7222  183.0521  158.1521  172.2852  175.0833   46.7847   64.3873   22.8249  155.0697  220.9278   51.7319  164.1733   78.1119         0
  std. dev.        86.8567  131.2913   50.3479   83.1284   81.3085  109.5778   87.5523   75.3247   95.0002    94.326  112.4119   76.9137   83.0617  112.7751   98.5689   79.0227  112.5036  104.3204   94.8817  108.0557   65.5791  103.4592   92.1417   97.0795   83.6029   77.8304    0.0207
  weight sum           429       109     35833       980       247     13106      1361       599      6910      1313       544       582      3561       491      1311      1613      6646      3164       419      1005      4423      2084      2080      1710       704       446        33
  precision         0.1243    0.1243    0.1243    0.1243    0.1243    0.1243    0.1243    0.1243    0.1243    0.1243    0.1243    0.1243    0.1243    0.1243    0.1243    0.1243    0.1243    0.1243    0.1243    0.1243    0.1243    0.1243    0.1243    0.1243    0.1243    0.1243    0.1243

0SmPitch
  mean             51.4241   245.493   14.7403   72.3683   149.744  224.9527   50.8196  216.1717  188.9642  201.7614  210.3094   55.3229  171.0525  109.2932  191.0026  172.7326  175.9682  185.8484   68.5748   73.3523   35.9417  158.7909  229.2536   65.8623  174.6514  108.4533         0
  std. dev.        99.8801  122.1055   51.9288   83.0011   37.1513  104.9064     96.64   72.2005   88.9263   85.5097  103.3642   95.8289   78.7886  136.8568   91.9871   66.4974  107.3853     93.87  109.6847  111.7359   80.8162   97.5388   84.0032   107.596   76.2155     71.34    0.0208
  weight sum           429       109     35833       980       247     13106      1361       599      6910      1313       544       582      3561       491      1311      1613      6646      3164       419      1005      4423      2084      2080      1710       704       446        33
  precision         0.1248    0.1248    0.1248    0.1248    0.1248    0.1248    0.1248    0.1248    0.1248    0.1248    0.1248    0.1248    0.1248    0.1248    0.1248    0.1248    0.1248    0.1248    0.1248    0.1248    0.1248    0.1248    0.1248    0.1248    0.1248    0.1248    0.1248

0Melogram(st)
  mean             15.0364   56.5644    4.8253   24.5896   49.4453   53.3304   15.5492   55.2167   50.4842   53.0765   51.0353   20.2223   48.6341   15.3027    50.967   51.0478   46.4749   49.5504   19.1315   21.5242   11.7665   42.8546   54.3072   18.3824   50.8827   40.1928         0
  std. dev.        25.5007    9.0321   15.4829   25.0323    4.6454   14.5188   25.3908    7.3415   15.3213   11.1742    17.943   26.8757   15.9951   25.9932   14.5387    9.8934   20.5262   17.1147   26.9971   27.5209   22.7033   22.5632   13.7628   26.8468   11.0179   18.4023    0.0041
  weight sum           429       109     35833       980       247     13106      1361       599      6910      1313       544       582      3561       491      1311      1613      6646      3164       419      1005      4423      2084      2080      1710       704       446        33
  precision         0.0246    0.0246    0.0246    0.0246    0.0246    0.0246    0.0246    0.0246    0.0246    0.0246    0.0246    0.0246    0.0246    0.0246    0.0246    0.0246    0.0246    0.0246    0.0246    0.0246    0.0246    0.0246    0.0246    0.0246    0.0246    0.0246    0.0246

0ZCross
  mean              8.6965    3.5125    0.2484    0.9526    3.4311    7.6409    1.7471    4.2516    5.2438    4.1913    4.6044    0.6024    3.7483      3.82    2.9073    3.3424    4.4237    2.4864    4.2993    1.0937    3.6553    3.2352    4.1111    0.9711    3.2829     1.524         0
  std. dev.        12.8365    2.6848    1.1311    1.7085    2.5088    4.4087    3.6599    1.8832    3.2168    2.3027    2.7858    1.5323    3.2275    3.8153     1.545    2.0294    3.0692    1.6824    7.1565    2.3383    7.0516    2.5918    2.9164    1.8529    2.0133    1.7378    0.1792
  weight sum           429       109     35833       980       247     13106      1361       599      6910      1313       544       582      3561       491      1311      1613      6646      3164       419      1005      4423      2084      2080      1710       704       446        33
  precision         1.0755    1.0755    1.0755    1.0755    1.0755    1.0755    1.0755    1.0755    1.0755    1.0755    1.0755    1.0755    1.0755    1.0755    1.0755    1.0755    1.0755    1.0755    1.0755    1.0755    1.0755    1.0755    1.0755    1.0755    1.0755    1.0755    1.0755

0F1(Hz)
  mean            123.1942  610.3237   52.7313  368.3069  446.2683  711.4514  103.9964  479.6898  466.4894  518.4309  493.4169  253.9126    363.75  441.3575  431.6196  469.7752  486.2046  460.1312  179.5033  230.2918  164.4121  481.1626  500.6341  121.5571  481.6653  338.4737         0
  std. dev.       248.6749   136.924  165.0978  303.3364   86.2804  251.2217  215.8387  132.7071  142.2388  153.3851  193.2624   328.652  140.8431  349.6798  162.0165  137.8408  225.0865  156.9404  245.2362  291.8796  273.8217  235.4575  305.2064  216.3685  167.2786   184.244    0.0608
  weight sum           429       109     35833       980       247     13106      1361       599      6910      1313       544       582      3561       491      1311      1613      6646      3164       419      1005      4423      2084      2080      1710       704       446        33
  precision         0.3648    0.3648    0.3648    0.3648    0.3648    0.3648    0.3648    0.3648    0.3648    0.3648    0.3648    0.3648    0.3648    0.3648    0.3648    0.3648    0.3648    0.3648    0.3648    0.3648    0.3648    0.3648    0.3648    0.3648    0.3648    0.3648    0.3648

0F2(Hz)
  mean            376.7654 1635.2349  165.1112  1060.434 1928.7405 1464.3906    301.66 1572.2172 1798.4442 1484.1075 1683.3446  663.3563  1993.047 1228.3789 1668.4402 1670.8104 1140.7371 1591.1826  718.1291  683.5759  514.6794 1366.8989 1061.2779  404.8713 1576.6312 1342.8267         0
  std. dev.       728.5768  126.5237  511.8582  852.8257  349.1637  386.4941  641.4848  344.4831  511.8666  323.4684  595.5085  836.3005  650.7685   916.305  429.7958  333.6483  531.1147  461.0869  954.1605  837.7058  831.9432  622.7216  416.4942  702.9583  402.2539  670.1431    0.0738
  weight sum           429       109     35833       980       247     13106      1361       599      6910      1313       544       582      3561       491      1311      1613      6646      3164       419      1005      4423      2084      2080      1710       704       446        33
  precision         0.4429    0.4429    0.4429    0.4429    0.4429    0.4429    0.4429    0.4429    0.4429    0.4429    0.4429    0.4429    0.4429    0.4429    0.4429    0.4429    0.4429    0.4429    0.4429    0.4429    0.4429    0.4429    0.4429    0.4429    0.4429    0.4429    0.4429

0F3(Hz)
  mean            616.4638 2865.6822  281.5167 1732.2063 2524.3394 2731.7626  554.9263 2754.3524 2634.9785 2868.2959 2891.9207 1126.9161 2677.3565 1815.2793 2749.5582 2817.0102 2506.4348 2749.7681 1073.0478 1166.3549  854.4172 2375.0752 2694.0925  725.1378 2682.0069 2305.2749         0
  std. dev.      1191.5389  419.1793  858.0435 1335.6596  113.0258  712.9707 1138.7381  469.7834  764.1593  510.0445  938.3439 1415.7652  898.3116 1341.4367  555.7281  574.4479 1018.6433   687.776 1391.3525 1416.0614 1366.2348 1089.0427  755.1652  1247.971  652.7644 1165.0756    0.1103
  weight sum           429       109     35833       980       247     13106      1361       599      6910      1313       544       582      3561       491      1311      1613      6646      3164       419      1005      4423      2084      2080      1710       704       446        33
  precision          0.662     0.662     0.662     0.662     0.662     0.662     0.662     0.662     0.662     0.662     0.662     0.662     0.662     0.662     0.662     0.662     0.662     0.662     0.662     0.662     0.662     0.662     0.662     0.662     0.662     0.662     0.662

0F4(Hz)
  mean              737.11  3236.831  338.5076 2157.8741 3590.7467  3144.537  651.7847 3297.5319   3174.33 3319.7801 2931.5846 1301.8229 3182.3609 2273.9788 3317.6185 3241.5892 2882.7851 3156.8141 1294.2891 1394.6656  966.9549  2746.307 3086.3027  837.3184 3253.5009 2674.3681         0
  std. dev.      1424.4748  401.7635 1029.3862 1650.7102   89.0647  807.8569 1338.2161  439.7233  885.5429  557.8761  953.5669 1625.1562 1024.5862 1668.8588  598.0784  577.5834 1153.5603  794.8923 1689.1398 1671.0354 1544.0952 1207.1513   763.546  1446.252  671.0726 1341.4249    0.1138
  weight sum           429       109     35833       980       247     13106      1361       599      6910      1313       544       582      3561       491      1311      1613      6646      3164       419      1005      4423      2084      2080      1710       704       446        33
  precision         0.6829    0.6829    0.6829    0.6829    0.6829    0.6829    0.6829    0.6829    0.6829    0.6829    0.6829    0.6829    0.6829    0.6829    0.6829    0.6829    0.6829    0.6829    0.6829    0.6829    0.6829    0.6829    0.6829    0.6829    0.6829    0.6829    0.6829





=== Stratified cross-validation ===

Correctly Classified Instances       32288               35.2093 %
Incorrectly Classified Instances     59415               64.7907 %
Kappa statistic                          0.2677
K&B Relative Info Score            2317464.2467 %
K&B Information Score                76290.8284 bits      0.8319 bits/instance
Class complexity | order 0          301798.2727 bits      3.291  bits/instance
Class complexity | scheme          1619134.7167 bits     17.6563 bits/instance
Complexity improvement     (Sf)    -1317336.444 bits    -14.3652 bits/instance
Mean absolute error                      0.05  
Root mean squared error                  0.1923
Relative absolute error                 83.5033 %
Root relative squared error            111.1333 %
Coverage of cases (0.95 level)          59.6382 %
Mean rel. region size (0.95 level)      15.7424 %
Total Number of Instances            91703     


=== Detailed Accuracy By Class ===

                 TP Rate  FP Rate  Precision  Recall   F-Measure  MCC      ROC Area  PRC Area  Class
                 0,147    0,002    0,274      0,147    0,191      0,198    0,598     0,103     ch
                 0,009    0,001    0,019      0,009    0,012      0,012    0,914     0,044     rr
                 0,521    0,015    0,957      0,521    0,674      0,603    0,895     0,879     0
                 0,141    0,025    0,058      0,141    0,082      0,075    0,611     0,041     hs
                 0,842    0,100    0,022      0,842    0,043      0,127    0,950     0,090     hg
                 0,671    0,082    0,576      0,671    0,620      0,553    0,891     0,624     a
                 0,012    0,003    0,051      0,012    0,020      0,018    0,444     0,041     c
                 0,212    0,054    0,025      0,212    0,045      0,056    0,832     0,024     b
                 0,189    0,028    0,355      0,189    0,246      0,216    0,793     0,273     e
                 0,021    0,004    0,074      0,021    0,032      0,032    0,800     0,046     d
                 0,000    0,000    0,000      0,000    0,000      0,000    0,760     0,025     g
                 0,000    0,000    0,000      0,000    0,000      -0,001   0,464     0,017     f
                 0,130    0,004    0,563      0,130    0,211      0,258    0,858     0,336     i
                 0,053    0,001    0,252      0,053    0,088      0,114    0,707     0,090     j
                 0,000    0,001    0,000      0,000    0,000      -0,003   0,824     0,046     m
                 0,405    0,074    0,089      0,405    0,147      0,161    0,856     0,089     l
                 0,014    0,006    0,147      0,014    0,026      0,024    0,758     0,184     o
                 0,056    0,023    0,082      0,056    0,067      0,040    0,789     0,082     n
                 0,014    0,000    0,214      0,014    0,027      0,054    0,598     0,024     q
                 0,004    0,000    0,160      0,004    0,008      0,024    0,486     0,022     p
                 0,178    0,004    0,694      0,178    0,284      0,338    0,533     0,256     s
                 0,006    0,002    0,053      0,006    0,010      0,010    0,692     0,043     r
                 0,230    0,003    0,639      0,230    0,338      0,375    0,871     0,366     u
                 0,090    0,010    0,152      0,090    0,113      0,104    0,464     0,058     t
                 0,000    0,000    0,000      0,000    0,000      0,000    0,796     0,020     v
                 0,130    0,007    0,086      0,130    0,103      0,100    0,843     0,034     y
                 1,000    0,224    0,002      1,000    0,003      0,035    0,948     0,003     z
Weighted Avg.    0,352    0,024    0,580      0,352    0,413      0,379    0,815     0,511     


=== Confusion Matrix ===

     a     b     c     d     e     f     g     h     i     j     k     l     m     n     o     p     q     r     s     t     u     v     w     x     y     z    aa   <-- classified as
    63     3    25     6     6    20     2     6     1     0     0     0     0     1     1    16     0    18     0     0    91     0     0    15     0     0   155 |     a = ch
     0     1     0     0    29    40     0     5     0     3     0     0     0     0     0    22     0     5     0     0     0     0     0     0     0     4     0 |     b = rr
     0     5 18660   520   779   423    25   279   113    47     0     0   124     5     8   594    90   398     0     2     8    34    17   145     0   107 13450 |     c = 0
     0     0    27   138   209    63     0    32     9     5     0     1     5     0     0    93     9    31     0     0     5     4     0     0     0    24   325 |     d = hs
     0     0     0     0   208     5     0     5     2     5     0     0     0     0     0    10     0     7     0     0     0     0     0     0     0     5     0 |     e = hg
     2     1    85   157  1079  8798    59   739   192    84     0     0    13    15     0  1130   131   123     8     3    10    46     0    73     0    24   334 |     f = a
    20     0    98    61    53    21    17    24    13     4     0     0     4     6     0    22    21    37     3     0   109     4     1   120     0     3   720 |     g = c
     0     0     0     0   111   114     0   127    56     1     0     0     0     0     0   165     3     2     0     0     0     0    20     0     0     0     0 |     h = b
     0     5    19   150  2209  1323    42   545  1303     7     0     0    22    10     7   751    48   108     0     7     0     7     0    66     0    29   252 |     i = e
     0     0     8    11   332   296     0   294    68    27     0     0     0     0     0   226     0    16     0     0     6     3     0     0     0    16    10 |     j = d
     0     0     1    15   116   165     0    55    60     0     0     0    24     0     0    55     0    15     0     0     0     1     0     4     0     0    33 |     k = g
     0     0     9    65    40    35     0    22     2     7     0     0     0     0     0     7    12    32     0     0     5     3     0    34     0     5   304 |     l = f
     0     0    22    94   647   231    23   197   936     0     0     0   462     1    31   550    17    41     0     0     1     2     0    78     0    61   167 |     m = i
     0     0    25    46    20    72     5    18    15     0     0     0     0    26     0     5    55    37     3     0     3    31     0    15     0     1   114 |     n = j
     0     1     0    60   436   164     0   184    51     0     0     0    16     0     0   295     0    26     0     0     0     0    40     5     0    13    20 |     o = m
     0     0     1    22   426   165     3   166    64     3     0     0     1     0     0   653     1    60     0     0     0     1     0    19     0    18    10 |     p = l
     0     1    27   215   758  1732    24   991   401    84     0     0     0     2     2   864    94   399     8     7     2     9   185    39     0    99   703 |     q = o
     0    16     4   154   796   447     0   627    67    12     0     0    59     0     2   582     4   178     0     0     0     8     0     0     0    81   127 |     r = n
    19     0    22    22    24    22     3     6     9     7     0     0    13     5     0     3     3    31     6     0    61     1     0    14     0     1   147 |     s = q
     0     0    47    85    55    51    27    18     3     3     0     0     0     1     0    78    29    81     0     4     1    10     0    37     0     7   468 |     t = p
   126     8   270   301    97   163     9     4    72    21     0     0    51    23     1   135    51   182     0     0   788    32     0    75     0    36  1978 |     u = s
     0     0    29   121   350   318     9   182   107    27     0     0    14     0     0   471    16   128     0     0     0    12     7    39     0    17   237 |     v = r
     0     3     6    19   112   515    12   338    80     8     0     0     6     0     0   310    31    34     0     0     2     2   478    46     0    53    25 |     w = u
     0    10   105   100    53    30    72    45     4     8     0     3     7     8     0    29    25   111     0     1    28    11     0   154     0    12   894 |     x = t
     0     0     3     6   314    54     0    90    40     3     0     0     0     0     4   123     0    39     0     0     0     5     0    12     0     4     7 |     y = v
     0     0    10    16   127     0     0    13     0     0     0     0     0     0     3   108     0    35     0     1    15     0     0    23     0    58    37 |     z = y
     0     0     0     0     0     0     0     0     0     0     0     0     0     0     0     0     0     0     0     0     0     0     0     0     0     0    33 |    aa = z

=== Percent Confusion Matrix ===
a	b	c	d	e	f	g	h	i	j	k	l	m	n	o	p	q	r	s	t	u	v	w	x	y	z	aa	
14.69	0.7	5.83	1.4	1.4	4.66	0.47	1.4	0.23	0.0	0.0	0.0	0.0	0.23	0.23	3.73	0.0	4.2	0.0	0.0	21.21	0.0	0.0	3.5	0.0	0.0	36.13	 a = ch
0.0	0.92	0.0	0.0	26.61	36.7	0.0	4.59	0.0	2.75	0.0	0.0	0.0	0.0	0.0	20.18	0.0	4.59	0.0	0.0	0.0	0.0	0.0	0.0	0.0	3.67	0.0	 b = rr
0.0	0.01	52.07	1.45	2.17	1.18	0.07	0.78	0.32	0.13	0.0	0.0	0.35	0.01	0.02	1.66	0.25	1.11	0.0	0.01	0.02	0.09	0.05	0.4	0.0	0.3	37.54	 c = 0
0.0	0.0	2.76	14.08	21.33	6.43	0.0	3.27	0.92	0.51	0.0	0.1	0.51	0.0	0.0	9.49	0.92	3.16	0.0	0.0	0.51	0.41	0.0	0.0	0.0	2.45	33.16	 d = hs
0.0	0.0	0.0	0.0	84.21	2.02	0.0	2.02	0.81	2.02	0.0	0.0	0.0	0.0	0.0	4.05	0.0	2.83	0.0	0.0	0.0	0.0	0.0	0.0	0.0	2.02	0.0	 e = hg
0.02	0.01	0.65	1.2	8.23	67.13	0.45	5.64	1.46	0.64	0.0	0.0	0.1	0.11	0.0	8.62	1.0	0.94	0.06	0.02	0.08	0.35	0.0	0.56	0.0	0.18	2.55	 f = a
1.47	0.0	7.2	4.48	3.89	1.54	1.25	1.76	0.96	0.29	0.0	0.0	0.29	0.44	0.0	1.62	1.54	2.72	0.22	0.0	8.01	0.29	0.07	8.82	0.0	0.22	52.9	 g = c
0.0	0.0	0.0	0.0	18.53	19.03	0.0	21.2	9.35	0.17	0.0	0.0	0.0	0.0	0.0	27.55	0.5	0.33	0.0	0.0	0.0	0.0	3.34	0.0	0.0	0.0	0.0	 h = b
0.0	0.07	0.27	2.17	31.97	19.15	0.61	7.89	18.86	0.1	0.0	0.0	0.32	0.14	0.1	10.87	0.69	1.56	0.0	0.1	0.0	0.1	0.0	0.96	0.0	0.42	3.65	 i = e
0.0	0.0	0.61	0.84	25.29	22.54	0.0	22.39	5.18	2.06	0.0	0.0	0.0	0.0	0.0	17.21	0.0	1.22	0.0	0.0	0.46	0.23	0.0	0.0	0.0	1.22	0.76	 j = d
0.0	0.0	0.18	2.76	21.32	30.33	0.0	10.11	11.03	0.0	0.0	0.0	4.41	0.0	0.0	10.11	0.0	2.76	0.0	0.0	0.0	0.18	0.0	0.74	0.0	0.0	6.07	 k = g
0.0	0.0	1.55	11.17	6.87	6.01	0.0	3.78	0.34	1.2	0.0	0.0	0.0	0.0	0.0	1.2	2.06	5.5	0.0	0.0	0.86	0.52	0.0	5.84	0.0	0.86	52.23	 l = f
0.0	0.0	0.62	2.64	18.17	6.49	0.65	5.53	26.28	0.0	0.0	0.0	12.97	0.03	0.87	15.45	0.48	1.15	0.0	0.0	0.03	0.06	0.0	2.19	0.0	1.71	4.69	 m = i
0.0	0.0	5.09	9.37	4.07	14.66	1.02	3.67	3.05	0.0	0.0	0.0	0.0	5.3	0.0	1.02	11.2	7.54	0.61	0.0	0.61	6.31	0.0	3.05	0.0	0.2	23.22	 n = j
0.0	0.08	0.0	4.58	33.26	12.51	0.0	14.04	3.89	0.0	0.0	0.0	1.22	0.0	0.0	22.5	0.0	1.98	0.0	0.0	0.0	0.0	3.05	0.38	0.0	0.99	1.53	 o = m
0.0	0.0	0.06	1.36	26.41	10.23	0.19	10.29	3.97	0.19	0.0	0.0	0.06	0.0	0.0	40.48	0.06	3.72	0.0	0.0	0.0	0.06	0.0	1.18	0.0	1.12	0.62	 p = l
0.0	0.02	0.41	3.24	11.41	26.06	0.36	14.91	6.03	1.26	0.0	0.0	0.0	0.03	0.03	13.0	1.41	6.0	0.12	0.11	0.03	0.14	2.78	0.59	0.0	1.49	10.58	 q = o
0.0	0.51	0.13	4.87	25.16	14.13	0.0	19.82	2.12	0.38	0.0	0.0	1.86	0.0	0.06	18.39	0.13	5.63	0.0	0.0	0.0	0.25	0.0	0.0	0.0	2.56	4.01	 r = n
4.53	0.0	5.25	5.25	5.73	5.25	0.72	1.43	2.15	1.67	0.0	0.0	3.1	1.19	0.0	0.72	0.72	7.4	1.43	0.0	14.56	0.24	0.0	3.34	0.0	0.24	35.08	 s = q
0.0	0.0	4.68	8.46	5.47	5.07	2.69	1.79	0.3	0.3	0.0	0.0	0.0	0.1	0.0	7.76	2.89	8.06	0.0	0.4	0.1	1.0	0.0	3.68	0.0	0.7	46.57	 t = p
2.85	0.18	6.1	6.81	2.19	3.69	0.2	0.09	1.63	0.47	0.0	0.0	1.15	0.52	0.02	3.05	1.15	4.11	0.0	0.0	17.82	0.72	0.0	1.7	0.0	0.81	44.72	 u = s
0.0	0.0	1.39	5.81	16.79	15.26	0.43	8.73	5.13	1.3	0.0	0.0	0.67	0.0	0.0	22.6	0.77	6.14	0.0	0.0	0.0	0.58	0.34	1.87	0.0	0.82	11.37	 v = r
0.0	0.14	0.29	0.91	5.38	24.76	0.58	16.25	3.85	0.38	0.0	0.0	0.29	0.0	0.0	14.9	1.49	1.63	0.0	0.0	0.1	0.1	22.98	2.21	0.0	2.55	1.2	 w = u
0.0	0.58	6.14	5.85	3.1	1.75	4.21	2.63	0.23	0.47	0.0	0.18	0.41	0.47	0.0	1.7	1.46	6.49	0.0	0.06	1.64	0.64	0.0	9.01	0.0	0.7	52.28	 x = t
0.0	0.0	0.43	0.85	44.6	7.67	0.0	12.78	5.68	0.43	0.0	0.0	0.0	0.0	0.57	17.47	0.0	5.54	0.0	0.0	0.0	0.71	0.0	1.7	0.0	0.57	0.99	 y = v
0.0	0.0	2.24	3.59	28.48	0.0	0.0	2.91	0.0	0.0	0.0	0.0	0.0	0.0	0.67	24.22	0.0	7.85	0.0	0.22	3.36	0.0	0.0	5.16	0.0	13.0	8.3	 z = y
0.0	0.0	0.0	0.0	0.0	0.0	0.0	0.0	0.0	0.0	0.0	0.0	0.0	0.0	0.0	0.0	0.0	0.0	0.0	0.0	0.0	0.0	0.0	0.0	0.0	0.0	100.0	 aa = z
