Timestamp:2013-08-30-03:55:06
Inventario:I0
Intervalo:20ms
Ngramas:1
Clasificador:BayesNet
Relation Name:  I0-20ms-1gramas
Num Instances:  9129
Num Attributes: 11

     Name                      Type  Nom  Int Real     Missing      Unique  Dist
   1 0Int(dB)                   Num   0%  11%  89%     0 /  0%    14 /  0%   764 
   2 0Pitch(Hz)                 Num   0%  49%  51%     0 /  0%  1033 / 11%  2440 
   3 0RawPitch                  Num   0%  52%  48%     0 /  0%  1062 / 12%  2369 
   4 0SmPitch                   Num   0%  50%  50%     0 /  0%  1056 / 12%  2419 
   5 0Melogram(st)              Num   0%  45%  55%     0 /  0%   938 / 10%  2342 
   6 0ZCross                    Num   0% 100%   0%     0 /  0%     7 /  0%    34 
   7 0F1(Hz)                    Num   0%  49%  51%     0 /  0%  2180 / 24%  3398 
   8 0F2(Hz)                    Num   0%  49%  51%     0 /  0%  3463 / 38%  4259 
   9 0F3(Hz)                    Num   0%  49%  51%     0 /  0%  3209 / 35%  4087 
  10 0F4(Hz)                    Num   0%  49%  51%     0 /  0%  3134 / 34%  4027 
  11 class                      Nom 100%   0%   0%     0 /  0%     0 /  0%    27 


Options: -D -Q weka.classifiers.bayes.net.search.local.K2 -- -P 1 -S BAYES -E weka.classifiers.bayes.net.estimate.SimpleEstimator -- -A 0.5 

Bayes Network Classifier
not using ADTree
#attributes=11 #classindex=10
Network structure (nodes followed by parents)
0Int(dB)(8): class 
0Pitch(Hz)(4): class 
0RawPitch(4): class 
0SmPitch(4): class 
0Melogram(st)(7): class 
0ZCross(6): class 
0F1(Hz)(8): class 
0F2(Hz)(9): class 
0F3(Hz)(3): class 
0F4(Hz)(3): class 
class(27): 
LogScore Bayes: -98476.90698983781
LogScore BDeu: -104723.9770192031
LogScore MDL: -103928.60423903176
LogScore ENTROPY: -98147.02418698149
LogScore AIC: -99415.02418698146




=== Stratified cross-validation ===

Correctly Classified Instances        5218               57.1585 %
Incorrectly Classified Instances      3911               42.8415 %
Kappa statistic                          0.4726
K&B Relative Info Score             405896.204  %
K&B Information Score                13828.0084 bits      1.5147 bits/instance
Class complexity | order 0           31019.3567 bits      3.3979 bits/instance
Class complexity | scheme            35349.9898 bits      3.8723 bits/instance
Complexity improvement     (Sf)      -4330.6332 bits     -0.4744 bits/instance
Mean absolute error                      0.0353
Root mean squared error                  0.1483
Relative absolute error                 57.4497 %
Root relative squared error             84.5904 %
Coverage of cases (0.95 level)          80.7756 %
Mean rel. region size (0.95 level)      16.0449 %
Total Number of Instances             9129     


=== Detailed Accuracy By Class ===

                 TP Rate  FP Rate  Precision  Recall   F-Measure  MCC      ROC Area  PRC Area  Class
                 0,000    0,001    0,000      0,000    0,000      -0,002   0,887     0,047     ch
                 0,000    0,000    0,000      0,000    0,000      0,000    0,790     0,003     rr
                 0,935    0,106    0,829      0,935    0,879      0,810    0,976     0,965     0
                 0,045    0,016    0,034      0,045    0,039      0,025    0,761     0,041     hs
                 0,074    0,006    0,034      0,074    0,047      0,046    0,923     0,043     hg
                 0,722    0,086    0,598      0,722    0,654      0,590    0,921     0,738     a
                 0,007    0,001    0,143      0,007    0,014      0,029    0,854     0,103     c
                 0,018    0,001    0,167      0,018    0,032      0,052    0,866     0,034     b
                 0,527    0,058    0,445      0,527    0,483      0,434    0,890     0,471     e
                 0,075    0,006    0,167      0,075    0,104      0,103    0,839     0,075     d
                 0,000    0,002    0,000      0,000    0,000      -0,004   0,768     0,022     g
                 0,016    0,002    0,048      0,016    0,024      0,024    0,869     0,051     f
                 0,509    0,032    0,415      0,509    0,457      0,433    0,914     0,414     i
                 0,082    0,001    0,444      0,082    0,138      0,189    0,827     0,118     j
                 0,050    0,006    0,117      0,050    0,070      0,067    0,858     0,075     m
                 0,369    0,053    0,110      0,369    0,169      0,176    0,861     0,090     l
                 0,272    0,023    0,504      0,272    0,354      0,333    0,823     0,362     o
                 0,107    0,021    0,165      0,107    0,130      0,107    0,844     0,130     n
                 0,023    0,000    0,200      0,023    0,042      0,067    0,806     0,043     q
                 0,010    0,001    0,083      0,010    0,018      0,025    0,815     0,048     p
                 0,313    0,022    0,430      0,313    0,363      0,339    0,894     0,367     s
                 0,066    0,008    0,169      0,066    0,095      0,092    0,776     0,082     r
                 0,440    0,015    0,421      0,440    0,430      0,416    0,913     0,434     u
                 0,073    0,006    0,194      0,073    0,107      0,109    0,865     0,106     t
                 0,091    0,010    0,072      0,091    0,080      0,072    0,826     0,043     v
                 0,333    0,008    0,178      0,333    0,232      0,238    0,866     0,144     y
                 0,000    0,000    0,000      0,000    0,000      0,000    0,930     0,005     z
Weighted Avg.    0,572    0,062    0,539      0,572    0,544      0,501    0,909     0,584     


=== Confusion Matrix ===

    a    b    c    d    e    f    g    h    i    j    k    l    m    n    o    p    q    r    s    t    u    v    w    x    y    z   aa   <-- classified as
    0    0   14    1    0    6    0    0    0    0    0    0    1    0    0    0    0    3    1    0   14    0    0    0    0    0    0 |    a = ch
    0    0    0    0    0    4    0    0    1    0    0    0    0    0    0    5    1    0    0    0    0    0    0    0    0    0    0 |    b = rr
    1    0 3027   21    3   33    3    0   12    3    1    4   25    2    1   11   12    7    0    1   35   15    2    5    2   11    0 |    c = 0
    0    0   26    5    6   10    0    0    6    1    0    1    8    0    2   10    8    3    0    3   11    6    1    0    1    2    0 |    d = hs
    0    0    0    1    2    3    0    0    5    2    0    0   12    0    0    1    1    0    0    0    0    0    0    0    0    0    0 |    e = hg
    3    0   37    9    0  988    0    0   83    7    0    2    8    0    1   89   43   14    1    3   18   24    6    7   20    5    0 |    f = a
    1    0   68    8    0    4    1    0    2    0    0    1    5    0    0    1    6    3    1    0   25    1    4    6    1    0    0 |    g = c
    0    0    0    0    1    9    0    1   11    3    0    0    3    0    3   11    3    3    0    0    0    0    5    0    4    0    0 |    h = b
    0    0   25   11   10  103    0    0  393    5    5    0   54    0    1   66   15   17    0    0   11    1   13    3    9    4    0 |    i = e
    0    0    1    3    1   33    0    0   14   10    1    0    4    0    2   19   19   13    0    0    0    2    3    1    3    4    0 |    j = d
    0    0    2    0    0   17    0    0   22    0    0    1    9    0    0    4    1    1    0    0    1    0    0    0    1    1    0 |    k = g
    0    0   20    7    2    9    0    0    2    0    2    1    1    0    0    3    1    2    0    2    6    1    0    2    0    0    0 |    l = f
    1    0   17    5    3    3    0    1   88    2    5    0  196    0    6   18    2   11    1    0   10    0    3    7    0    6    0 |    m = i
    0    0    6    3    2   13    0    0    6    0    0    1    3    4    0    1    0    0    0    0    5    4    0    1    0    0    0 |    n = j
    0    0    2    1    2   15    0    0   23    2    2    0   33    0    7   18    3   13    0    0    0    1   11    1    2    5    0 |    o = m
    0    0    2    2    2   23    0    0   28    1    0    0   17    0    1   59    7    7    0    0    0    1    3    1    2    4    0 |    p = l
    2    0   71   19   11  179    1    0   54   17    0    0    2    0    5   56  194   27    0    2    7    1   44    3   14    3    0 |    q = o
    0    0    8   13    3   63    0    3   50    2    2    0   35    0   14   58   10   36    0    0    4    3   17    1    7    7    0 |    r = n
    3    0   12    1    0    3    0    0    0    0    0    0    7    0    0    1    1    2    1    0   10    0    1    0    0    1    0 |    s = q
    0    0   36    6    2   11    1    0    6    0    0    2    2    1    0    4    4    5    0    1    5    5    0    7    2    1    0 |    t = p
    1    0  159   15    2   30    0    0   22    1    0    2   26    2    0   21    5    9    0    0  145    5    3    6    2    7    0 |    u = s
    0    0   23   12    0   53    0    1   21    2    2    1   12    0    1   40    6   13    0    0    5   15    3    0   13    3    0 |    v = r
    0    0    3    0    3   25    0    0   16    1    0    1    1    0   11   11   26   11    0    0    5    1   96    2    2    3    0 |    w = u
    0    0   82    4    0    6    1    0    2    0    0    3    4    0    1    3    7   10    0    0   19    2   10   13    4    6    0 |    x = t
    0    0    1    2    4    9    0    0   14    1    1    0    3    0    4   14    8    6    0    0    0    1    0    1    7    1    0 |    y = v
    0    0    5    0    0    1    0    0    2    0    0    1    1    0    0   13    2    2    0    0    1    0    3    0    1   16    0 |    z = y
    0    0    5    0    0    0    0    0    0    0    0    0    0    0    0    0    0    0    0    0    0    0    0    0    0    0    0 |   aa = z

=== Percent Confusion Matrix ===
a	b	c	d	e	f	g	h	i	j	k	l	m	n	o	p	q	r	s	t	u	v	w	x	y	z	aa	
0.0	0.0	35.0	2.5	0.0	15.0	0.0	0.0	0.0	0.0	0.0	0.0	2.5	0.0	0.0	0.0	0.0	7.5	2.5	0.0	35.0	0.0	0.0	0.0	0.0	0.0	0.0	 a = ch
0.0	0.0	0.0	0.0	0.0	36.36	0.0	0.0	9.09	0.0	0.0	0.0	0.0	0.0	0.0	45.45	9.09	0.0	0.0	0.0	0.0	0.0	0.0	0.0	0.0	0.0	0.0	 b = rr
0.03	0.0	93.51	0.65	0.09	1.02	0.09	0.0	0.37	0.09	0.03	0.12	0.77	0.06	0.03	0.34	0.37	0.22	0.0	0.03	1.08	0.46	0.06	0.15	0.06	0.34	0.0	 c = 0
0.0	0.0	23.64	4.55	5.45	9.09	0.0	0.0	5.45	0.91	0.0	0.91	7.27	0.0	1.82	9.09	7.27	2.73	0.0	2.73	10.0	5.45	0.91	0.0	0.91	1.82	0.0	 d = hs
0.0	0.0	0.0	3.7	7.41	11.11	0.0	0.0	18.52	7.41	0.0	0.0	44.44	0.0	0.0	3.7	3.7	0.0	0.0	0.0	0.0	0.0	0.0	0.0	0.0	0.0	0.0	 e = hg
0.22	0.0	2.7	0.66	0.0	72.22	0.0	0.0	6.07	0.51	0.0	0.15	0.58	0.0	0.07	6.51	3.14	1.02	0.07	0.22	1.32	1.75	0.44	0.51	1.46	0.37	0.0	 f = a
0.72	0.0	49.28	5.8	0.0	2.9	0.72	0.0	1.45	0.0	0.0	0.72	3.62	0.0	0.0	0.72	4.35	2.17	0.72	0.0	18.12	0.72	2.9	4.35	0.72	0.0	0.0	 g = c
0.0	0.0	0.0	0.0	1.75	15.79	0.0	1.75	19.3	5.26	0.0	0.0	5.26	0.0	5.26	19.3	5.26	5.26	0.0	0.0	0.0	0.0	8.77	0.0	7.02	0.0	0.0	 h = b
0.0	0.0	3.35	1.47	1.34	13.81	0.0	0.0	52.68	0.67	0.67	0.0	7.24	0.0	0.13	8.85	2.01	2.28	0.0	0.0	1.47	0.13	1.74	0.4	1.21	0.54	0.0	 i = e
0.0	0.0	0.75	2.26	0.75	24.81	0.0	0.0	10.53	7.52	0.75	0.0	3.01	0.0	1.5	14.29	14.29	9.77	0.0	0.0	0.0	1.5	2.26	0.75	2.26	3.01	0.0	 j = d
0.0	0.0	3.33	0.0	0.0	28.33	0.0	0.0	36.67	0.0	0.0	1.67	15.0	0.0	0.0	6.67	1.67	1.67	0.0	0.0	1.67	0.0	0.0	0.0	1.67	1.67	0.0	 k = g
0.0	0.0	32.79	11.48	3.28	14.75	0.0	0.0	3.28	0.0	3.28	1.64	1.64	0.0	0.0	4.92	1.64	3.28	0.0	3.28	9.84	1.64	0.0	3.28	0.0	0.0	0.0	 l = f
0.26	0.0	4.42	1.3	0.78	0.78	0.0	0.26	22.86	0.52	1.3	0.0	50.91	0.0	1.56	4.68	0.52	2.86	0.26	0.0	2.6	0.0	0.78	1.82	0.0	1.56	0.0	 m = i
0.0	0.0	12.24	6.12	4.08	26.53	0.0	0.0	12.24	0.0	0.0	2.04	6.12	8.16	0.0	2.04	0.0	0.0	0.0	0.0	10.2	8.16	0.0	2.04	0.0	0.0	0.0	 n = j
0.0	0.0	1.42	0.71	1.42	10.64	0.0	0.0	16.31	1.42	1.42	0.0	23.4	0.0	4.96	12.77	2.13	9.22	0.0	0.0	0.0	0.71	7.8	0.71	1.42	3.55	0.0	 o = m
0.0	0.0	1.25	1.25	1.25	14.38	0.0	0.0	17.5	0.63	0.0	0.0	10.63	0.0	0.63	36.88	4.38	4.38	0.0	0.0	0.0	0.63	1.88	0.63	1.25	2.5	0.0	 p = l
0.28	0.0	9.97	2.67	1.54	25.14	0.14	0.0	7.58	2.39	0.0	0.0	0.28	0.0	0.7	7.87	27.25	3.79	0.0	0.28	0.98	0.14	6.18	0.42	1.97	0.42	0.0	 q = o
0.0	0.0	2.38	3.87	0.89	18.75	0.0	0.89	14.88	0.6	0.6	0.0	10.42	0.0	4.17	17.26	2.98	10.71	0.0	0.0	1.19	0.89	5.06	0.3	2.08	2.08	0.0	 r = n
6.98	0.0	27.91	2.33	0.0	6.98	0.0	0.0	0.0	0.0	0.0	0.0	16.28	0.0	0.0	2.33	2.33	4.65	2.33	0.0	23.26	0.0	2.33	0.0	0.0	2.33	0.0	 s = q
0.0	0.0	35.64	5.94	1.98	10.89	0.99	0.0	5.94	0.0	0.0	1.98	1.98	0.99	0.0	3.96	3.96	4.95	0.0	0.99	4.95	4.95	0.0	6.93	1.98	0.99	0.0	 t = p
0.22	0.0	34.34	3.24	0.43	6.48	0.0	0.0	4.75	0.22	0.0	0.43	5.62	0.43	0.0	4.54	1.08	1.94	0.0	0.0	31.32	1.08	0.65	1.3	0.43	1.51	0.0	 u = s
0.0	0.0	10.18	5.31	0.0	23.45	0.0	0.44	9.29	0.88	0.88	0.44	5.31	0.0	0.44	17.7	2.65	5.75	0.0	0.0	2.21	6.64	1.33	0.0	5.75	1.33	0.0	 v = r
0.0	0.0	1.38	0.0	1.38	11.47	0.0	0.0	7.34	0.46	0.0	0.46	0.46	0.0	5.05	5.05	11.93	5.05	0.0	0.0	2.29	0.46	44.04	0.92	0.92	1.38	0.0	 w = u
0.0	0.0	46.33	2.26	0.0	3.39	0.56	0.0	1.13	0.0	0.0	1.69	2.26	0.0	0.56	1.69	3.95	5.65	0.0	0.0	10.73	1.13	5.65	7.34	2.26	3.39	0.0	 x = t
0.0	0.0	1.3	2.6	5.19	11.69	0.0	0.0	18.18	1.3	1.3	0.0	3.9	0.0	5.19	18.18	10.39	7.79	0.0	0.0	0.0	1.3	0.0	1.3	9.09	1.3	0.0	 y = v
0.0	0.0	10.42	0.0	0.0	2.08	0.0	0.0	4.17	0.0	0.0	2.08	2.08	0.0	0.0	27.08	4.17	4.17	0.0	0.0	2.08	0.0	6.25	0.0	2.08	33.33	0.0	 z = y
0.0	0.0	100.0	0.0	0.0	0.0	0.0	0.0	0.0	0.0	0.0	0.0	0.0	0.0	0.0	0.0	0.0	0.0	0.0	0.0	0.0	0.0	0.0	0.0	0.0	0.0	0.0	 aa = z
