Timestamp:2014-12-07-10:42:46
Inventario:I0
Intervalo:20ms
Ngramas:1
Clasificador:NaiveBayes
Relation Name:  I0-20ms-1gramas
Num Instances:  9129
Num Attributes: 11

     Name                      Type  Nom  Int Real     Missing      Unique  Dist
   1 0Int(dB)                   Num   0%  11%  89%     0 /  0%    14 /  0%   764 
   2 0Pitch(Hz)                 Num   0%  49%  51%     0 /  0%  1033 / 11%  2440 
   3 0RawPitch                  Num   0%  52%  48%     0 /  0%  1062 / 12%  2369 
   4 0SmPitch                   Num   0%  50%  50%     0 /  0%  1056 / 12%  2419 
   5 0Melogram(st)              Num   0%  45%  55%     0 /  0%   938 / 10%  2342 
   6 0ZCross                    Num   0% 100%   0%     0 /  0%     7 /  0%    34 
   7 0F1(Hz)                    Num   0%  49%  51%     0 /  0%  2180 / 24%  3398 
   8 0F2(Hz)                    Num   0%  49%  51%     0 /  0%  3463 / 38%  4259 
   9 0F3(Hz)                    Num   0%  49%  51%     0 /  0%  3209 / 35%  4087 
  10 0F4(Hz)                    Num   0%  49%  51%     0 /  0%  3134 / 34%  4027 
  11 class                      Nom 100%   0%   0%     0 /  0%     0 /  0%    27 


Naive Bayes Classifier

                    Class
Attribute              ch        rr         0        hs        hg         a         c         b         e         d         g         f         i         j         m         l         o         n         q         p         s         r         u         t         v         y         z
                      (0)       (0)    (0.35)    (0.01)       (0)    (0.15)    (0.02)    (0.01)    (0.08)    (0.01)    (0.01)    (0.01)    (0.04)    (0.01)    (0.02)    (0.02)    (0.08)    (0.04)       (0)    (0.01)    (0.05)    (0.02)    (0.02)    (0.02)    (0.01)    (0.01)       (0)
==============================================================================================================================================================================================================================================================================================
0Int(dB)
  mean            -19.3611   -9.9962  -50.8564  -19.9172  -10.3661   -3.4567  -25.3719   -6.0012   -5.6493   -7.9076   -7.0534  -20.5257   -9.5022  -15.1303   -7.5833   -8.1398   -8.6644   -8.9322  -22.8012  -22.8915  -21.1109  -11.9918   -5.9413  -25.9579   -8.7684  -16.2875  -28.5024
  std. dev.         7.7565    3.8366   13.3638   11.6389    5.9192    8.7075    9.2254    4.1873    8.2505    6.2206    7.2104    6.4423    8.6317    6.0216    5.8858    5.6054   12.1183    7.4704   11.6707   10.0883    7.1461    9.9455    8.0011    9.2949    7.1323    5.5001    3.0818
  weight sum            40        11      3237       110        27      1368       138        57       746       133        60        61       385        49       141       160       712       336        43       101       463       226       218       177        77        48         5
  precision         0.1008    0.1008    0.1008    0.1008    0.1008    0.1008    0.1008    0.1008    0.1008    0.1008    0.1008    0.1008    0.1008    0.1008    0.1008    0.1008    0.1008    0.1008    0.1008    0.1008    0.1008    0.1008    0.1008    0.1008    0.1008    0.1008    0.1008

0Pitch(Hz)
  mean             82.8243  242.8882    8.6334   96.3862  148.4618  226.3699   69.4909  210.7009  192.4898  197.3055  218.8243  119.9169  174.3019  178.5519  196.7809  172.5222  180.2959  194.3082  113.0977  120.6581   74.7533  162.5807  232.3523  100.0392  177.8309  126.8979         0
  std. dev.       116.4666  120.5461    41.208   88.4217   37.7381  100.9895   99.1958   71.4876    85.636   85.1182   91.1227  130.3383   75.0715   124.953   85.4633   64.7022  103.4062   85.9498  120.1807   120.908  103.7414   91.3755   82.3117  116.9968   71.4767   67.5526    0.0339
  weight sum            40        11      3237       110        27      1368       138        57       746       133        60        61       385        49       141       160       712       336        43       101       463       226       218       177        77        48         5
  precision         0.2034    0.2034    0.2034    0.2034    0.2034    0.2034    0.2034    0.2034    0.2034    0.2034    0.2034    0.2034    0.2034    0.2034    0.2034    0.2034    0.2034    0.2034    0.2034    0.2034    0.2034    0.2034    0.2034    0.2034    0.2034    0.2034    0.2034

0RawPitch
  mean              67.338  242.2461    6.9028   78.8007  152.1647  216.3311   54.0342  207.9267  188.8553  192.4154   208.067    72.513  166.4766  133.6429  185.9434  160.8196  174.0908   182.853   78.8086    87.559   53.3147   156.453  222.5693    78.728  163.1333   98.3981         0
  std. dev.       106.9584  114.3486   35.4936   86.3558   61.9604  105.7238   94.5182   73.3988   89.4789   92.3885  103.6798  103.4893   78.7839  114.1968   95.2663    71.931  108.0935   97.6616  114.5801  119.4019   92.8695   96.2144   89.8429  106.6509   80.4684   73.1767    0.0348
  weight sum            40        11      3237       110        27      1368       138        57       746       133        60        61       385        49       141       160       712       336        43       101       463       226       218       177        77        48         5
  precision         0.2088    0.2088    0.2088    0.2088    0.2088    0.2088    0.2088    0.2088    0.2088    0.2088    0.2088    0.2088    0.2088    0.2088    0.2088    0.2088    0.2088    0.2088    0.2088    0.2088    0.2088    0.2088    0.2088    0.2088    0.2088    0.2088    0.2088

0SmPitch
  mean             82.2872  242.8904    7.4117   89.7865  150.2222  224.6095   56.7209  210.7027  191.6241  196.7627  218.8205   97.3451  171.8543  145.4317    194.06  172.6269   178.962  191.6862   97.6506  112.9058   67.5607  159.1541  232.3227   91.4408  176.6607  123.5214         0
  std. dev.       115.6212  120.5381   36.4626   86.0619   35.4094   102.523    95.654   71.4902   86.4181   86.2961   91.1003  112.8316   76.5988  142.8655   89.4179   64.6384  104.3249   89.3478  118.6116  123.4809  100.5461   93.9496   82.2366  115.9938   72.1056   69.6554    0.0342
  weight sum            40        11      3237       110        27      1368       138        57       746       133        60        61       385        49       141       160       712       336        43       101       463       226       218       177        77        48         5
  precision         0.2051    0.2051    0.2051    0.2051    0.2051    0.2051    0.2051    0.2051    0.2051    0.2051    0.2051    0.2051    0.2051    0.2051    0.2051    0.2051    0.2051    0.2051    0.2051    0.2051    0.2051    0.2051    0.2051    0.2051    0.2051    0.2051    0.2051

0Melogram(st)
  mean              20.505   56.4475    2.7455   30.5016   49.5371   53.8682   18.5492   55.0147   51.3162   52.3538   52.6041   31.4703   49.4307   29.1884   51.8448   51.3696   47.7311   50.9131   27.7309   32.0777    20.118   43.7297   54.9086   24.5196   51.6875   44.8978   10.4257
  std. dev.        27.9961    8.9492   12.0014   24.5513    4.5358   13.2991    26.461    6.1073   13.9659   11.7579    15.467    27.717   14.5646   29.0067   12.8223    8.4395   19.2227   15.2335   28.7641   28.2708   26.5829   21.6323   12.8002   28.2592     8.539    14.604   20.8513
  weight sum            40        11      3237       110        27      1368       138        57       746       133        60        61       385        49       141       160       712       336        43       101       463       226       218       177        77        48         5
  precision         0.0352    0.0352    0.0352    0.0352    0.0352    0.0352    0.0352    0.0352    0.0352    0.0352    0.0352    0.0352    0.0352    0.0352    0.0352    0.0352    0.0352    0.0352    0.0352    0.0352    0.0352    0.0352    0.0352    0.0352    0.0352    0.0352    0.0352

0ZCross
  mean              7.9545    3.2397    0.0853    1.0876    2.9697     7.241    1.1344    3.7065    4.8248    3.6172    4.5394    0.6468    3.1868    3.8442    2.5364    3.0545    3.9665    2.4015    3.5518    0.9073    3.5296    2.9847     3.573    0.5249    3.2231    1.3523         0
  std. dev.         11.397    2.3256    0.6289    1.6446    2.2449    4.3829    2.3372    1.7564    3.1533    2.1729    2.7234    1.2753    2.9527    3.5859    1.3851    1.7381    3.0096    1.5521    5.1392    2.3375    6.2163    2.4229    2.8222    1.1274    1.8067    1.5459    0.2121
  weight sum            40        11      3237       110        27      1368       138        57       746       133        60        61       385        49       141       160       712       336        43       101       463       226       218       177        77        48         5
  precision         1.2727    1.2727    1.2727    1.2727    1.2727    1.2727    1.2727    1.2727    1.2727    1.2727    1.2727    1.2727    1.2727    1.2727    1.2727    1.2727    1.2727    1.2727    1.2727    1.2727    1.2727    1.2727    1.2727    1.2727    1.2727    1.2727    1.2727

0F1(Hz)
  mean            202.7179   593.565    33.621  445.2577  447.8544  704.1252  148.5037  470.4404  468.1216  513.8878  515.8111  363.7772  362.9833  523.6228  437.8538  482.6293  487.9887   482.181  207.2093   313.823   249.277  514.8971  498.1345   166.333  487.8509  367.1274         0
  std. dev.       289.5045  129.1149   134.961  281.0365   81.4069   249.214  247.3273  127.1267  135.4424  150.3522  169.9361  330.5129  139.6622  308.3036  166.2944  142.8992  219.6408  147.9711  248.6353  303.7503   300.204   217.955  299.1257  236.3658   151.229  161.4238    0.0854
  weight sum            40        11      3237       110        27      1368       138        57       746       133        60        61       385        49       141       160       712       336        43       101       463       226       218       177        77        48         5
  precision         0.5127    0.5127    0.5127    0.5127    0.5127    0.5127    0.5127    0.5127    0.5127    0.5127    0.5127    0.5127    0.5127    0.5127    0.5127    0.5127    0.5127    0.5127    0.5127    0.5127    0.5127    0.5127    0.5127    0.5127    0.5127    0.5127    0.5127

0F2(Hz)
  mean            626.4819 1655.9458  104.5544 1265.3653 1914.7095 1470.4908  424.3369 1578.9707 1802.3085 1476.9797 1760.2472  961.4066 1971.4305 1504.2346 1666.2174 1672.8478 1165.7924 1632.3458     841.9  935.3911  786.1817 1429.2731 1080.7158  562.2782 1572.8791 1462.0269         0
  std. dev.       858.5611  133.0622  415.7714  774.7198  365.6044  383.7193  719.5944  348.4014  487.8366  305.2219  487.7326   850.392  644.7659  798.8866  446.5919  334.1607  525.3227  418.0342  976.9045  865.6064  915.0606  547.1746  431.8771   774.626  379.5959  573.9695    0.1164
  weight sum            40        11      3237       110        27      1368       138        57       746       133        60        61       385        49       141       160       712       336        43       101       463       226       218       177        77        48         5
  precision         0.6985    0.6985    0.6985    0.6985    0.6985    0.6985    0.6985    0.6985    0.6985    0.6985    0.6985    0.6985    0.6985    0.6985    0.6985    0.6985    0.6985    0.6985    0.6985    0.6985    0.6985    0.6985    0.6985    0.6985    0.6985    0.6985    0.6985

0F3(Hz)
  mean           1008.0966 2855.0556  178.3613 2081.0687 2538.4067 2743.9462  791.6181 2754.1719 2662.4498 2860.5062 3010.0232 1630.1205 2672.9489 2187.9232 2768.0321 2801.9499 2534.4259 2812.4776 1274.4606 1575.0518 1292.2482 2478.6242 2714.6841 1028.1597  2687.787 2567.0838         0
  std. dev.      1378.2052  399.2622  693.8699 1189.0713  114.7769  702.3743 1303.5362  465.0807   729.876  458.2327  754.1328 1434.7311  890.7818 1152.3941  576.4059   552.646  989.9708  589.6756 1439.0959 1448.3433  1480.795  954.3456  768.9985   1399.96  607.8331 1031.0332    0.1677
  weight sum            40        11      3237       110        27      1368       138        57       746       133        60        61       385        49       141       160       712       336        43       101       463       226       218       177        77        48         5
  precision         1.0065    1.0065    1.0065    1.0065    1.0065    1.0065    1.0065    1.0065    1.0065    1.0065    1.0065    1.0065    1.0065    1.0065    1.0065    1.0065    1.0065    1.0065    1.0065    1.0065    1.0065    1.0065    1.0065    1.0065    1.0065    1.0065    1.0065

0F4(Hz)
  mean           1232.6149 3254.3172  219.7749 2592.5352 3583.2931 3147.7453  903.7087 3318.1132 3199.5596 3346.2293 3016.1717 1898.9986 3176.0491 2748.5432 3305.2335 3243.3395 2913.9175 3213.9084 1527.7866 1852.0994 1498.0465 2916.4949  3074.217 1149.4479 3283.3059 2845.9981         0
  std. dev.      1683.3527  421.8444  852.8379 1468.1187   94.5502  796.1279 1489.2819  424.9439  841.1377  488.4351  763.1423 1657.0559 1017.7226 1428.0079  619.2737  561.6121 1121.3472  675.8153  1744.058 1679.9741 1714.3929 1061.2671  772.1011 1569.8968  626.3155 1125.6959    0.1717
  weight sum            40        11      3237       110        27      1368       138        57       746       133        60        61       385        49       141       160       712       336        43       101       463       226       218       177        77        48         5
  precision         1.0301    1.0301    1.0301    1.0301    1.0301    1.0301    1.0301    1.0301    1.0301    1.0301    1.0301    1.0301    1.0301    1.0301    1.0301    1.0301    1.0301    1.0301    1.0301    1.0301    1.0301    1.0301    1.0301    1.0301    1.0301    1.0301    1.0301





=== Stratified cross-validation ===

Correctly Classified Instances        2805               30.7263 %
Incorrectly Classified Instances      6324               69.2737 %
Kappa statistic                          0.2367
K&B Relative Info Score             213622.6661 %
K&B Information Score                 7277.6636 bits      0.7972 bits/instance
Class complexity | order 0           31019.3567 bits      3.3979 bits/instance
Class complexity | scheme           164908.0642 bits     18.0642 bits/instance
Complexity improvement     (Sf)    -133888.7075 bits    -14.6663 bits/instance
Mean absolute error                      0.0534
Root mean squared error                  0.199 
Relative absolute error                 86.7258 %
Root relative squared error            113.4795 %
Coverage of cases (0.95 level)          56.7203 %
Mean rel. region size (0.95 level)      16.7788 %
Total Number of Instances             9129     


=== Detailed Accuracy By Class ===

                 TP Rate  FP Rate  Precision  Recall   F-Measure  MCC      ROC Area  PRC Area  Class
                 0,100    0,002    0,190      0,100    0,131      0,135    0,657     0,094     ch
                 0,000    0,001    0,000      0,000    0,000      -0,001   0,847     0,011     rr
                 0,432    0,009    0,964      0,432    0,597      0,554    0,946     0,909     0
                 0,164    0,029    0,064      0,164    0,092      0,085    0,683     0,051     hs
                 0,741    0,115    0,019      0,741    0,036      0,106    0,924     0,047     hg
                 0,664    0,090    0,565      0,664    0,611      0,538    0,880     0,615     a
                 0,051    0,004    0,171      0,051    0,078      0,086    0,520     0,056     c
                 0,193    0,038    0,031      0,193    0,053      0,063    0,819     0,019     b
                 0,201    0,034    0,342      0,201    0,253      0,213    0,787     0,290     e
                 0,015    0,003    0,067      0,015    0,025      0,025    0,780     0,035     d
                 0,000    0,000    0,000      0,000    0,000      -0,001   0,771     0,024     g
                 0,000    0,000    0,000      0,000    0,000      -0,001   0,608     0,022     f
                 0,117    0,007    0,441      0,117    0,185      0,211    0,838     0,280     i
                 0,041    0,000    0,500      0,041    0,075      0,142    0,735     0,151     j
                 0,007    0,002    0,059      0,007    0,013      0,015    0,817     0,046     m
                 0,338    0,064    0,086      0,338    0,137      0,142    0,849     0,077     l
                 0,007    0,003    0,167      0,007    0,013      0,019    0,741     0,183     o
                 0,086    0,038    0,080      0,086    0,083      0,046    0,783     0,082     n
                 0,000    0,001    0,000      0,000    0,000      -0,002   0,680     0,023     q
                 0,000    0,001    0,000      0,000    0,000      -0,004   0,584     0,023     p
                 0,145    0,004    0,644      0,145    0,236      0,290    0,628     0,264     s
                 0,018    0,003    0,148      0,018    0,032      0,043    0,689     0,048     r
                 0,206    0,003    0,643      0,206    0,313      0,356    0,852     0,323     u
                 0,124    0,009    0,214      0,124    0,157      0,150    0,554     0,074     t
                 0,000    0,000    0,000      0,000    0,000      -0,001   0,781     0,019     v
                 0,188    0,013    0,072      0,188    0,104      0,109    0,846     0,043     y
                 0,800    0,244    0,002      0,800    0,004      0,030    0,862     0,003     z
Weighted Avg.    0,307    0,024    0,556      0,307    0,366      0,342    0,835     0,498     


=== Confusion Matrix ===

    a    b    c    d    e    f    g    h    i    j    k    l    m    n    o    p    q    r    s    t    u    v    w    x    y    z   aa   <-- classified as
    4    0    2    3    0    5    3    1    1    0    0    0    0    0    0    1    0    2    0    0    7    0    0    0    0    0   11 |    a = ch
    0    0    0    0    4    4    0    1    0    0    0    0    0    0    0    2    0    0    0    0    0    0    0    0    0    0    0 |    b = rr
    0    0 1398   59   32   18    2    4    3    5    0    0   13    0    1   11    4   39    0    0    1    3    1    5    0    9 1629 |    c = 0
    0    0    0   18   32    8    0    1    1    2    0    0    1    0    0    9    0    3    0    0    0    3    1    0    0    5   26 |    d = hs
    0    0    0    0   20    0    0    1    2    0    0    0    1    0    0    1    0    2    0    0    0    0    0    0    0    0    0 |    e = hg
    0    0    1   21  131  908    4   31   42    8    0    1    2    2    1  119    0   27    4    2    4    5    0   11    0    7   37 |    f = a
    1    0    9   12    7    2    7    2    1    1    0    0    1    0    0    2    1    7    0    2    8    0    0   10    0    2   63 |    g = c
    0    0    0    0   14    9    0   11    7    0    0    0    0    0    0   13    0    0    0    0    0    0    2    0    0    1    0 |    h = b
    0    2    0   15  245  135    3   37  150    1    2    1    5    0    1   65    0   40    3    1    2    0    0    6    0    7   25 |    i = e
    0    0    1    3   39   32    0   21   10    2    0    0    0    0    0   16    0    4    0    0    1    0    0    0    0    4    0 |    j = d
    0    0    0    2   13   21    0    2   10    0    0    0    2    0    0    2    0    6    0    0    0    0    0    0    0    0    2 |    k = g
    0    0    0    8    8    8    0    3    0    1    0    0    0    0    0    3    0    3    0    0    0    0    0    5    0    1   21 |    l = f
    0    0    0   10   78   21    3   22   85    0    0    1   45    0    8   50    0   19    1    1    2    0    0    9    0   13   17 |    m = i
    0    0    1    7    6    9    0    3    2    0    0    0    0    2    0    1    2    3    0    0    0    4    0    2    0    0    7 |    n = j
    0    0    1    4   47   17    0   16    6    0    0    0    1    0    1   27    0    9    0    0    0    0    6    1    0    4    1 |    o = m
    0    0    0    1   44   15    0   12   10    0    0    0    0    0    1   54    0   16    0    0    0    0    0    1    0    4    2 |    p = l
    1    3    1   25   99  182    1   90   49    5    0    0    0    0    1   81    5   50    2    1    1    1   14    6    1   23   70 |    q = o
    0    4    0   18   88   56    0   47   13    2    1    0    7    0    0   49    1   29    0    0    0    0    0    0    0   13    8 |    r = n
    2    0    4    2    4    4    0    0    1    0    0    0    1    0    0    0    0    5    0    0    8    0    0    0    0    1   11 |    s = q
    0    0    5    6   11    9    2    3    0    1    0    0    0    0    0    5    5   13    0    0    0    1    0    6    0    2   32 |    t = p
   13    1   22   38   26   36    8    1   12    1    0    0   14    0    0   19    4   26    0    1   67    4    0   13    0    5  152 |    u = s
    0    0    1   18   41   37    0   11   18    1    0    0    0    0    0   51    0   17    0    0    0    4    1    1    0    3   22 |    v = r
    0    0    0    2   13   56    3   27   11    0    0    0    3    0    2   26    2   14    0    0    0    1   45    4    0    6    3 |    w = u
    0    0    3    7   16    7    5    0    0    0    0    0    3    0    0    1    6   19    2    2    1    1    0   22    0    3   79 |    x = t
    0    0    0    0   36    7    0    8    5    0    0    0    0    0    1   11    0    4    0    0    0    0    0    1    0    3    1 |    y = v
    0    0    0    1   15    0    0    0    0    0    0    0    3    0    0    7    0    7    0    0    2    0    0    0    0    9    4 |    z = y
    0    0    1    0    0    0    0    0    0    0    0    0    0    0    0    0    0    0    0    0    0    0    0    0    0    0    4 |   aa = z

=== Percent Confusion Matrix ===
a	b	c	d	e	f	g	h	i	j	k	l	m	n	o	p	q	r	s	t	u	v	w	x	y	z	aa	
10.0	0.0	5.0	7.5	0.0	12.5	7.5	2.5	2.5	0.0	0.0	0.0	0.0	0.0	0.0	2.5	0.0	5.0	0.0	0.0	17.5	0.0	0.0	0.0	0.0	0.0	27.5	 a = ch
0.0	0.0	0.0	0.0	36.36	36.36	0.0	9.09	0.0	0.0	0.0	0.0	0.0	0.0	0.0	18.18	0.0	0.0	0.0	0.0	0.0	0.0	0.0	0.0	0.0	0.0	0.0	 b = rr
0.0	0.0	43.19	1.82	0.99	0.56	0.06	0.12	0.09	0.15	0.0	0.0	0.4	0.0	0.03	0.34	0.12	1.2	0.0	0.0	0.03	0.09	0.03	0.15	0.0	0.28	50.32	 c = 0
0.0	0.0	0.0	16.36	29.09	7.27	0.0	0.91	0.91	1.82	0.0	0.0	0.91	0.0	0.0	8.18	0.0	2.73	0.0	0.0	0.0	2.73	0.91	0.0	0.0	4.55	23.64	 d = hs
0.0	0.0	0.0	0.0	74.07	0.0	0.0	3.7	7.41	0.0	0.0	0.0	3.7	0.0	0.0	3.7	0.0	7.41	0.0	0.0	0.0	0.0	0.0	0.0	0.0	0.0	0.0	 e = hg
0.0	0.0	0.07	1.54	9.58	66.37	0.29	2.27	3.07	0.58	0.0	0.07	0.15	0.15	0.07	8.7	0.0	1.97	0.29	0.15	0.29	0.37	0.0	0.8	0.0	0.51	2.7	 f = a
0.72	0.0	6.52	8.7	5.07	1.45	5.07	1.45	0.72	0.72	0.0	0.0	0.72	0.0	0.0	1.45	0.72	5.07	0.0	1.45	5.8	0.0	0.0	7.25	0.0	1.45	45.65	 g = c
0.0	0.0	0.0	0.0	24.56	15.79	0.0	19.3	12.28	0.0	0.0	0.0	0.0	0.0	0.0	22.81	0.0	0.0	0.0	0.0	0.0	0.0	3.51	0.0	0.0	1.75	0.0	 h = b
0.0	0.27	0.0	2.01	32.84	18.1	0.4	4.96	20.11	0.13	0.27	0.13	0.67	0.0	0.13	8.71	0.0	5.36	0.4	0.13	0.27	0.0	0.0	0.8	0.0	0.94	3.35	 i = e
0.0	0.0	0.75	2.26	29.32	24.06	0.0	15.79	7.52	1.5	0.0	0.0	0.0	0.0	0.0	12.03	0.0	3.01	0.0	0.0	0.75	0.0	0.0	0.0	0.0	3.01	0.0	 j = d
0.0	0.0	0.0	3.33	21.67	35.0	0.0	3.33	16.67	0.0	0.0	0.0	3.33	0.0	0.0	3.33	0.0	10.0	0.0	0.0	0.0	0.0	0.0	0.0	0.0	0.0	3.33	 k = g
0.0	0.0	0.0	13.11	13.11	13.11	0.0	4.92	0.0	1.64	0.0	0.0	0.0	0.0	0.0	4.92	0.0	4.92	0.0	0.0	0.0	0.0	0.0	8.2	0.0	1.64	34.43	 l = f
0.0	0.0	0.0	2.6	20.26	5.45	0.78	5.71	22.08	0.0	0.0	0.26	11.69	0.0	2.08	12.99	0.0	4.94	0.26	0.26	0.52	0.0	0.0	2.34	0.0	3.38	4.42	 m = i
0.0	0.0	2.04	14.29	12.24	18.37	0.0	6.12	4.08	0.0	0.0	0.0	0.0	4.08	0.0	2.04	4.08	6.12	0.0	0.0	0.0	8.16	0.0	4.08	0.0	0.0	14.29	 n = j
0.0	0.0	0.71	2.84	33.33	12.06	0.0	11.35	4.26	0.0	0.0	0.0	0.71	0.0	0.71	19.15	0.0	6.38	0.0	0.0	0.0	0.0	4.26	0.71	0.0	2.84	0.71	 o = m
0.0	0.0	0.0	0.63	27.5	9.38	0.0	7.5	6.25	0.0	0.0	0.0	0.0	0.0	0.63	33.75	0.0	10.0	0.0	0.0	0.0	0.0	0.0	0.63	0.0	2.5	1.25	 p = l
0.14	0.42	0.14	3.51	13.9	25.56	0.14	12.64	6.88	0.7	0.0	0.0	0.0	0.0	0.14	11.38	0.7	7.02	0.28	0.14	0.14	0.14	1.97	0.84	0.14	3.23	9.83	 q = o
0.0	1.19	0.0	5.36	26.19	16.67	0.0	13.99	3.87	0.6	0.3	0.0	2.08	0.0	0.0	14.58	0.3	8.63	0.0	0.0	0.0	0.0	0.0	0.0	0.0	3.87	2.38	 r = n
4.65	0.0	9.3	4.65	9.3	9.3	0.0	0.0	2.33	0.0	0.0	0.0	2.33	0.0	0.0	0.0	0.0	11.63	0.0	0.0	18.6	0.0	0.0	0.0	0.0	2.33	25.58	 s = q
0.0	0.0	4.95	5.94	10.89	8.91	1.98	2.97	0.0	0.99	0.0	0.0	0.0	0.0	0.0	4.95	4.95	12.87	0.0	0.0	0.0	0.99	0.0	5.94	0.0	1.98	31.68	 t = p
2.81	0.22	4.75	8.21	5.62	7.78	1.73	0.22	2.59	0.22	0.0	0.0	3.02	0.0	0.0	4.1	0.86	5.62	0.0	0.22	14.47	0.86	0.0	2.81	0.0	1.08	32.83	 u = s
0.0	0.0	0.44	7.96	18.14	16.37	0.0	4.87	7.96	0.44	0.0	0.0	0.0	0.0	0.0	22.57	0.0	7.52	0.0	0.0	0.0	1.77	0.44	0.44	0.0	1.33	9.73	 v = r
0.0	0.0	0.0	0.92	5.96	25.69	1.38	12.39	5.05	0.0	0.0	0.0	1.38	0.0	0.92	11.93	0.92	6.42	0.0	0.0	0.0	0.46	20.64	1.83	0.0	2.75	1.38	 w = u
0.0	0.0	1.69	3.95	9.04	3.95	2.82	0.0	0.0	0.0	0.0	0.0	1.69	0.0	0.0	0.56	3.39	10.73	1.13	1.13	0.56	0.56	0.0	12.43	0.0	1.69	44.63	 x = t
0.0	0.0	0.0	0.0	46.75	9.09	0.0	10.39	6.49	0.0	0.0	0.0	0.0	0.0	1.3	14.29	0.0	5.19	0.0	0.0	0.0	0.0	0.0	1.3	0.0	3.9	1.3	 y = v
0.0	0.0	0.0	2.08	31.25	0.0	0.0	0.0	0.0	0.0	0.0	0.0	6.25	0.0	0.0	14.58	0.0	14.58	0.0	0.0	4.17	0.0	0.0	0.0	0.0	18.75	8.33	 z = y
0.0	0.0	20.0	0.0	0.0	0.0	0.0	0.0	0.0	0.0	0.0	0.0	0.0	0.0	0.0	0.0	0.0	0.0	0.0	0.0	0.0	0.0	0.0	0.0	0.0	0.0	80.0	 aa = z
