Timestamp:2013-08-30-03:41:30
Inventario:I0
Intervalo:2ms
Ngramas:1
Clasificador:BayesNet
Relation Name:  I0-2ms-1gramas
Num Instances:  91703
Num Attributes: 11

     Name                      Type  Nom  Int Real     Missing      Unique  Dist
   1 0Int(dB)                   Num   0%   9%  91%     0 /  0%     6 /  0%   781 
   2 0Pitch(Hz)                 Num   0%  52%  48%     0 /  0%   471 /  1%  4016 
   3 0RawPitch                  Num   0%  55%  45%     0 /  0%   550 /  1%  4014 
   4 0SmPitch                   Num   0%  53%  47%     0 /  0%   491 /  1%  3998 
   5 0Melogram(st)              Num   0%  49%  51%     0 /  0%   212 /  0%  3363 
   6 0ZCross                    Num   0% 100%   0%     0 /  0%     6 /  0%    54 
   7 0F1(Hz)                    Num   0%  52%  48%     0 /  0%  1126 /  1%  4776 
   8 0F2(Hz)                    Num   0%  52%  48%     0 /  0%  2304 /  3%  6727 
   9 0F3(Hz)                    Num   0%  52%  48%     0 /  0%  1967 /  2%  6224 
  10 0F4(Hz)                    Num   0%  52%  48%     0 /  0%  1884 /  2%  6074 
  11 class                      Nom 100%   0%   0%     0 /  0%     0 /  0%    27 


Options: -D -Q weka.classifiers.bayes.net.search.local.K2 -- -P 1 -S BAYES -E weka.classifiers.bayes.net.estimate.SimpleEstimator -- -A 0.5 

Bayes Network Classifier
not using ADTree
#attributes=11 #classindex=10
Network structure (nodes followed by parents)
0Int(dB)(23): class 
0Pitch(Hz)(44): class 
0RawPitch(31): class 
0SmPitch(37): class 
0Melogram(st)(44): class 
0ZCross(15): class 
0F1(Hz)(1919): class 
0F2(Hz)(2688): class 
0F3(Hz)(3038): class 
0F4(Hz)(2726): class 
class(27): 
LogScore Bayes: -2663706.943625807
LogScore BDeu: -6532896.078854225
LogScore MDL: -5363043.665872556
LogScore ENTROPY: -3734731.5930008003
LogScore AIC: -4019742.5930008003




=== Stratified cross-validation ===

Correctly Classified Instances       70953               77.3726 %
Incorrectly Classified Instances     20750               22.6274 %
Kappa statistic                          0.7142
K&B Relative Info Score            6514554.6823 %
K&B Information Score               214458.8742 bits      2.3386 bits/instance
Class complexity | order 0          301798.2727 bits      3.291  bits/instance
Class complexity | scheme           263387.2622 bits      2.8722 bits/instance
Complexity improvement     (Sf)      38411.0105 bits      0.4189 bits/instance
Mean absolute error                      0.0178
Root mean squared error                  0.1168
Relative absolute error                 29.7234 %
Root relative squared error             67.5308 %
Coverage of cases (0.95 level)          84.7748 %
Mean rel. region size (0.95 level)       6.0047 %
Total Number of Instances            91703     


=== Detailed Accuracy By Class ===

                 TP Rate  FP Rate  Precision  Recall   F-Measure  MCC      ROC Area  PRC Area  Class
                 0,170    0,001    0,613      0,170    0,266      0,322    0,942     0,235     ch
                 0,881    0,003    0,280      0,881    0,425      0,496    0,996     0,785     rr
                 0,907    0,144    0,801      0,907    0,851      0,749    0,969     0,960     0
                 0,494    0,005    0,521      0,494    0,507      0,502    0,905     0,506     hs
                 0,879    0,005    0,306      0,879    0,454      0,517    0,995     0,802     hg
                 0,826    0,015    0,902      0,826    0,862      0,842    0,971     0,925     a
                 0,126    0,002    0,539      0,126    0,205      0,256    0,920     0,237     c
                 0,850    0,004    0,612      0,850    0,711      0,719    0,994     0,809     b
                 0,771    0,015    0,803      0,771    0,787      0,770    0,961     0,846     e
                 0,754    0,007    0,607      0,754    0,673      0,671    0,977     0,738     d
                 0,752    0,004    0,503      0,752    0,603      0,612    0,947     0,719     g
                 0,311    0,002    0,501      0,311    0,384      0,392    0,947     0,350     f
                 0,792    0,007    0,815      0,792    0,804      0,796    0,959     0,841     i
                 0,548    0,001    0,731      0,548    0,626      0,631    0,923     0,592     j
                 0,821    0,005    0,721      0,821    0,767      0,766    0,981     0,842     m
                 0,825    0,009    0,631      0,825    0,715      0,716    0,982     0,805     l
                 0,723    0,013    0,814      0,723    0,766      0,750    0,921     0,809     o
                 0,791    0,007    0,809      0,791    0,800      0,793    0,967     0,838     n
                 0,291    0,001    0,589      0,291    0,390      0,412    0,913     0,323     q
                 0,271    0,002    0,618      0,271    0,376      0,405    0,924     0,343     p
                 0,383    0,011    0,636      0,383    0,478      0,474    0,959     0,617     s
                 0,640    0,006    0,712      0,640    0,674      0,668    0,913     0,684     r
                 0,847    0,004    0,823      0,847    0,835      0,831    0,977     0,888     u
                 0,174    0,003    0,523      0,174    0,261      0,295    0,916     0,283     t
                 0,780    0,005    0,559      0,780    0,651      0,657    0,974     0,761     v
                 0,717    0,008    0,295      0,717    0,418      0,456    0,936     0,659     y
                 0,000    0,000    0,000      0,000    0,000      -0,000   0,787     0,001     z
Weighted Avg.    0,774    0,063    0,773      0,774    0,763      0,720    0,960     0,841     


=== Confusion Matrix ===

     a     b     c     d     e     f     g     h     i     j     k     l     m     n     o     p     q     r     s     t     u     v     w     x     y     z    aa   <-- classified as
    73     0   193     0     0     4     1     0     1     0     1     0     2     0     1     0     7     0     0     0   134     2     0     2     8     0     0 |     a = ch
     0    96     0     0     0     2     0     0     5     1     0     0     0     0     0     0     0     2     0     0     0     1     0     0     2     0     0 |     b = rr
    22    39 32513   145   176   285    31    40   380   163    83    42   214    83    76   142   306   162    42    70    98   141    79    53   117   313    18 |     c = 0
     0     3   348   484     3    10     0     0    36    10     0     2     5     0     4    16    19     1     0     0     9     4     6     0     9    11     0 |     d = hs
     0     0     0     0   217     4     0     0     5     0     1     0     8     0     3     1     4     1     0     0     0     0     2     0     1     0     0 |     e = hg
    10    53   442   100   111 10826    22    55   177   121    74    31    47     5    65   207   181    93    17    18    76   104    48    38    84    98     3 |     f = a
     0     1   843     1     3    11   172     0    30     0     2     0     9     0     6     1    44     0     0     2   176     7    28    19     2     4     0 |     g = c
     0     0     0     0     4    16     0   509     8     2     3     0    15     0     7    12     3     2     0     0     0     4     9     0     1     4     0 |     h = b
     4    39   286    62    30   151    11    54  5327    77    61    21    72     2    48   107    83   110     7    27    49    84    44    29    59    66     0 |     i = e
     0    16    17     4    11    41     0     5    36   990    12     6    10     0    12    20    47    31     0     2     2     9     6     0     5    28     3 |     j = d
     0     2    38     0     5    24     0     4    20     2   409     2    11     0     1     3     4     6     2     2     0     4     2     1     1     1     0 |     k = g
     0     2   312     1     1    11     0     0    22     1     0   181     5     0     0     0     5     1     1     0    19     3     2    10     3     2     0 |     l = f
     0     4   187    15    17    21    15    33    70    15    29    23  2822     1    19    34    52    28     2     5    38    30    11    21    30    34     5 |     m = i
     0     0   126     1     0    14     2     2    19     2     0     1     2   269     4     3     4     1     0     2    33     0     2     2     1     1     0 |     n = j
     0     4    20    17     4    15     0    16    22     6     3     5    30     0  1076    10    25    13     2     1     1     5    16     1     8     9     2 |     o = m
     1     0    14    18    12    35     3    14    51     6    11     0    16     0    14  1330    21    24     1     0    11     9     7     1     2    12     0 |     p = l
     2    36   747    28    34   195    13    29    87   144    64    13    22     0    58    86  4808    60     4    11    16    36    51    30    33    33     6 |     q = o
     4    20   134    16    17    59     4    13    87    28    16    24    44     1    30    33    18  2504     3     9     1     9    27    18     9    34     2 |     r = n
     0     2   171     0     0     5     2     0    12     0     0     1     6     0     0     1     3     4   122     2    73     6     0     2     0     7     0 |     s = q
     0     0   525     1     2    22     9     3    34     1     2     0     0     0     4    13    38     1     1   272    30    11     9     4    12    11     0 |     t = p
     0    14  2262    11    21    57    11     5    38    16     7     2    65     5    17    23    40     7     1     2  1692    25    13    14    26    49     0 |     u = s
     0     1   264    11    15   117     1    27    84    24    12     7    30     0     3    26    44    13     0     7    28  1333     7     3    13    14     0 |     v = r
     2     2    36     7     7    24     7    15    25    16    12     0     9     1    20    18    41    10     0     7     8    11  1761    18     6    17     0 |     w = u
     1     5  1001     3     4    42    13     3    21     1     4     0     7     1    10     4   100    18     1     0   138    22     3   298     0    10     0 |     x = t
     0     3    13     3     3    12     1     5    32     5     6     0    11     0    12     9     9     2     0     1     5     8     5     3   549     7     0 |     y = v
     0     1    59     1    11     0     1     0     1     0     1     0     1     0     3    10     1     1     1     0    23     5     2     3     1   320     0 |     z = y
     0     0    33     0     0     0     0     0     0     0     0     0     0     0     0     0     0     0     0     0     0     0     0     0     0     0     0 |    aa = z

=== Percent Confusion Matrix ===
a	b	c	d	e	f	g	h	i	j	k	l	m	n	o	p	q	r	s	t	u	v	w	x	y	z	aa	
17.02	0.0	44.99	0.0	0.0	0.93	0.23	0.0	0.23	0.0	0.23	0.0	0.47	0.0	0.23	0.0	1.63	0.0	0.0	0.0	31.24	0.47	0.0	0.47	1.86	0.0	0.0	 a = ch
0.0	88.07	0.0	0.0	0.0	1.83	0.0	0.0	4.59	0.92	0.0	0.0	0.0	0.0	0.0	0.0	0.0	1.83	0.0	0.0	0.0	0.92	0.0	0.0	1.83	0.0	0.0	 b = rr
0.06	0.11	90.73	0.4	0.49	0.8	0.09	0.11	1.06	0.45	0.23	0.12	0.6	0.23	0.21	0.4	0.85	0.45	0.12	0.2	0.27	0.39	0.22	0.15	0.33	0.87	0.05	 c = 0
0.0	0.31	35.51	49.39	0.31	1.02	0.0	0.0	3.67	1.02	0.0	0.2	0.51	0.0	0.41	1.63	1.94	0.1	0.0	0.0	0.92	0.41	0.61	0.0	0.92	1.12	0.0	 d = hs
0.0	0.0	0.0	0.0	87.85	1.62	0.0	0.0	2.02	0.0	0.4	0.0	3.24	0.0	1.21	0.4	1.62	0.4	0.0	0.0	0.0	0.0	0.81	0.0	0.4	0.0	0.0	 e = hg
0.08	0.4	3.37	0.76	0.85	82.6	0.17	0.42	1.35	0.92	0.56	0.24	0.36	0.04	0.5	1.58	1.38	0.71	0.13	0.14	0.58	0.79	0.37	0.29	0.64	0.75	0.02	 f = a
0.0	0.07	61.94	0.07	0.22	0.81	12.64	0.0	2.2	0.0	0.15	0.0	0.66	0.0	0.44	0.07	3.23	0.0	0.0	0.15	12.93	0.51	2.06	1.4	0.15	0.29	0.0	 g = c
0.0	0.0	0.0	0.0	0.67	2.67	0.0	84.97	1.34	0.33	0.5	0.0	2.5	0.0	1.17	2.0	0.5	0.33	0.0	0.0	0.0	0.67	1.5	0.0	0.17	0.67	0.0	 h = b
0.06	0.56	4.14	0.9	0.43	2.19	0.16	0.78	77.09	1.11	0.88	0.3	1.04	0.03	0.69	1.55	1.2	1.59	0.1	0.39	0.71	1.22	0.64	0.42	0.85	0.96	0.0	 i = e
0.0	1.22	1.29	0.3	0.84	3.12	0.0	0.38	2.74	75.4	0.91	0.46	0.76	0.0	0.91	1.52	3.58	2.36	0.0	0.15	0.15	0.69	0.46	0.0	0.38	2.13	0.23	 j = d
0.0	0.37	6.99	0.0	0.92	4.41	0.0	0.74	3.68	0.37	75.18	0.37	2.02	0.0	0.18	0.55	0.74	1.1	0.37	0.37	0.0	0.74	0.37	0.18	0.18	0.18	0.0	 k = g
0.0	0.34	53.61	0.17	0.17	1.89	0.0	0.0	3.78	0.17	0.0	31.1	0.86	0.0	0.0	0.0	0.86	0.17	0.17	0.0	3.26	0.52	0.34	1.72	0.52	0.34	0.0	 l = f
0.0	0.11	5.25	0.42	0.48	0.59	0.42	0.93	1.97	0.42	0.81	0.65	79.25	0.03	0.53	0.95	1.46	0.79	0.06	0.14	1.07	0.84	0.31	0.59	0.84	0.95	0.14	 m = i
0.0	0.0	25.66	0.2	0.0	2.85	0.41	0.41	3.87	0.41	0.0	0.2	0.41	54.79	0.81	0.61	0.81	0.2	0.0	0.41	6.72	0.0	0.41	0.41	0.2	0.2	0.0	 n = j
0.0	0.31	1.53	1.3	0.31	1.14	0.0	1.22	1.68	0.46	0.23	0.38	2.29	0.0	82.07	0.76	1.91	0.99	0.15	0.08	0.08	0.38	1.22	0.08	0.61	0.69	0.15	 o = m
0.06	0.0	0.87	1.12	0.74	2.17	0.19	0.87	3.16	0.37	0.68	0.0	0.99	0.0	0.87	82.46	1.3	1.49	0.06	0.0	0.68	0.56	0.43	0.06	0.12	0.74	0.0	 p = l
0.03	0.54	11.24	0.42	0.51	2.93	0.2	0.44	1.31	2.17	0.96	0.2	0.33	0.0	0.87	1.29	72.34	0.9	0.06	0.17	0.24	0.54	0.77	0.45	0.5	0.5	0.09	 q = o
0.13	0.63	4.24	0.51	0.54	1.86	0.13	0.41	2.75	0.88	0.51	0.76	1.39	0.03	0.95	1.04	0.57	79.14	0.09	0.28	0.03	0.28	0.85	0.57	0.28	1.07	0.06	 r = n
0.0	0.48	40.81	0.0	0.0	1.19	0.48	0.0	2.86	0.0	0.0	0.24	1.43	0.0	0.0	0.24	0.72	0.95	29.12	0.48	17.42	1.43	0.0	0.48	0.0	1.67	0.0	 s = q
0.0	0.0	52.24	0.1	0.2	2.19	0.9	0.3	3.38	0.1	0.2	0.0	0.0	0.0	0.4	1.29	3.78	0.1	0.1	27.06	2.99	1.09	0.9	0.4	1.19	1.09	0.0	 t = p
0.0	0.32	51.14	0.25	0.47	1.29	0.25	0.11	0.86	0.36	0.16	0.05	1.47	0.11	0.38	0.52	0.9	0.16	0.02	0.05	38.25	0.57	0.29	0.32	0.59	1.11	0.0	 u = s
0.0	0.05	12.67	0.53	0.72	5.61	0.05	1.3	4.03	1.15	0.58	0.34	1.44	0.0	0.14	1.25	2.11	0.62	0.0	0.34	1.34	63.96	0.34	0.14	0.62	0.67	0.0	 v = r
0.1	0.1	1.73	0.34	0.34	1.15	0.34	0.72	1.2	0.77	0.58	0.0	0.43	0.05	0.96	0.87	1.97	0.48	0.0	0.34	0.38	0.53	84.66	0.87	0.29	0.82	0.0	 w = u
0.06	0.29	58.54	0.18	0.23	2.46	0.76	0.18	1.23	0.06	0.23	0.0	0.41	0.06	0.58	0.23	5.85	1.05	0.06	0.0	8.07	1.29	0.18	17.43	0.0	0.58	0.0	 x = t
0.0	0.43	1.85	0.43	0.43	1.7	0.14	0.71	4.55	0.71	0.85	0.0	1.56	0.0	1.7	1.28	1.28	0.28	0.0	0.14	0.71	1.14	0.71	0.43	77.98	0.99	0.0	 y = v
0.0	0.22	13.23	0.22	2.47	0.0	0.22	0.0	0.22	0.0	0.22	0.0	0.22	0.0	0.67	2.24	0.22	0.22	0.22	0.0	5.16	1.12	0.45	0.67	0.22	71.75	0.0	 z = y
0.0	0.0	100.0	0.0	0.0	0.0	0.0	0.0	0.0	0.0	0.0	0.0	0.0	0.0	0.0	0.0	0.0	0.0	0.0	0.0	0.0	0.0	0.0	0.0	0.0	0.0	0.0	 aa = z
