Timestamp:2013-08-30-03:42:49
Inventario:I0
Intervalo:2ms
Ngramas:3
Clasificador:BayesNet
Relation Name:  I0-2ms-3gramas
Num Instances:  91701
Num Attributes: 31

     Name                      Type  Nom  Int Real     Missing      Unique  Dist
   1 0Int(dB)                   Num   0%   9%  91%     0 /  0%     4 /  0%   779 
   2 0Pitch(Hz)                 Num   0%  52%  48%     0 /  0%   471 /  1%  4016 
   3 0RawPitch                  Num   0%  55%  45%     0 /  0%   550 /  1%  4014 
   4 0SmPitch                   Num   0%  53%  47%     0 /  0%   491 /  1%  3998 
   5 0Melogram(st)              Num   0%  49%  51%     0 /  0%   212 /  0%  3363 
   6 0ZCross                    Num   0% 100%   0%     0 /  0%     6 /  0%    54 
   7 0F1(Hz)                    Num   0%  52%  48%     0 /  0%  1126 /  1%  4776 
   8 0F2(Hz)                    Num   0%  52%  48%     0 /  0%  2304 /  3%  6727 
   9 0F3(Hz)                    Num   0%  52%  48%     0 /  0%  1967 /  2%  6224 
  10 0F4(Hz)                    Num   0%  52%  48%     0 /  0%  1884 /  2%  6074 
  11 1Int(dB)                   Num   0%   9%  91%     0 /  0%     5 /  0%   780 
  12 1Pitch(Hz)                 Num   0%  52%  48%     0 /  0%   471 /  1%  4016 
  13 1RawPitch                  Num   0%  55%  45%     0 /  0%   550 /  1%  4014 
  14 1SmPitch                   Num   0%  53%  47%     0 /  0%   491 /  1%  3998 
  15 1Melogram(st)              Num   0%  49%  51%     0 /  0%   212 /  0%  3363 
  16 1ZCross                    Num   0% 100%   0%     0 /  0%     6 /  0%    54 
  17 1F1(Hz)                    Num   0%  52%  48%     0 /  0%  1126 /  1%  4776 
  18 1F2(Hz)                    Num   0%  52%  48%     0 /  0%  2304 /  3%  6727 
  19 1F3(Hz)                    Num   0%  52%  48%     0 /  0%  1967 /  2%  6224 
  20 1F4(Hz)                    Num   0%  52%  48%     0 /  0%  1884 /  2%  6074 
  21 2Int(dB)                   Num   0%   9%  91%     0 /  0%     6 /  0%   781 
  22 2Pitch(Hz)                 Num   0%  52%  48%     0 /  0%   471 /  1%  4016 
  23 2RawPitch                  Num   0%  55%  45%     0 /  0%   550 /  1%  4014 
  24 2SmPitch                   Num   0%  53%  47%     0 /  0%   491 /  1%  3998 
  25 2Melogram(st)              Num   0%  49%  51%     0 /  0%   212 /  0%  3363 
  26 2ZCross                    Num   0% 100%   0%     0 /  0%     6 /  0%    54 
  27 2F1(Hz)                    Num   0%  52%  48%     0 /  0%  1126 /  1%  4776 
  28 2F2(Hz)                    Num   0%  52%  48%     0 /  0%  2304 /  3%  6727 
  29 2F3(Hz)                    Num   0%  52%  48%     0 /  0%  1967 /  2%  6224 
  30 2F4(Hz)                    Num   0%  52%  48%     0 /  0%  1884 /  2%  6074 
  31 class                      Nom 100%   0%   0%     0 /  0%     0 /  0%    27 


Options: -D -Q weka.classifiers.bayes.net.search.local.K2 -- -P 1 -S BAYES -E weka.classifiers.bayes.net.estimate.SimpleEstimator -- -A 0.5 

Bayes Network Classifier
not using ADTree
#attributes=31 #classindex=30
Network structure (nodes followed by parents)
0Int(dB)(22): class 
0Pitch(Hz)(42): class 
0RawPitch(27): class 
0SmPitch(38): class 
0Melogram(st)(44): class 
0ZCross(15): class 
0F1(Hz)(2041): class 
0F2(Hz)(2689): class 
0F3(Hz)(2884): class 
0F4(Hz)(2888): class 
1Int(dB)(22): class 
1Pitch(Hz)(41): class 
1RawPitch(26): class 
1SmPitch(39): class 
1Melogram(st)(44): class 
1ZCross(15): class 
1F1(Hz)(1963): class 
1F2(Hz)(2684): class 
1F3(Hz)(2854): class 
1F4(Hz)(2912): class 
2Int(dB)(23): class 
2Pitch(Hz)(44): class 
2RawPitch(31): class 
2SmPitch(37): class 
2Melogram(st)(44): class 
2ZCross(15): class 
2F1(Hz)(1919): class 
2F2(Hz)(2688): class 
2F3(Hz)(3038): class 
2F4(Hz)(2726): class 
class(27): 
LogScore Bayes: -7580090.692516838
LogScore BDeu: -1.9252860005215485E7
LogScore MDL: -1.5721553748699574E7
LogScore ENTROPY: -1.0812243154328916E7
LogScore AIC: -1.1671544154328922E7




=== Stratified cross-validation ===

Correctly Classified Instances       71723               78.214  %
Incorrectly Classified Instances     19978               21.786  %
Kappa statistic                          0.7275
K&B Relative Info Score            6618416.4542 %
K&B Information Score               217878.9912 bits      2.376  bits/instance
Class complexity | order 0          301795.5612 bits      3.2911 bits/instance
Class complexity | scheme           680037.2791 bits      7.4158 bits/instance
Complexity improvement     (Sf)    -378241.7178 bits     -4.1247 bits/instance
Mean absolute error                      0.0163
Root mean squared error                  0.1213
Relative absolute error                 27.1963 %
Root relative squared error             70.126  %
Coverage of cases (0.95 level)          81.0166 %
Mean rel. region size (0.95 level)       4.2701 %
Total Number of Instances            91701     


=== Detailed Accuracy By Class ===

                 TP Rate  FP Rate  Precision  Recall   F-Measure  MCC      ROC Area  PRC Area  Class
                 0,210    0,001    0,441      0,210    0,284      0,302    0,950     0,265     ch
                 0,945    0,006    0,166      0,945    0,283      0,395    0,998     0,830     rr
                 0,899    0,125    0,822      0,899    0,859      0,763    0,969     0,960     0
                 0,545    0,006    0,491      0,545    0,516      0,512    0,921     0,547     hs
                 0,955    0,011    0,194      0,955    0,323      0,428    0,998     0,864     hg
                 0,793    0,007    0,948      0,793    0,864      0,848    0,973     0,934     a
                 0,140    0,003    0,449      0,140    0,214      0,245    0,923     0,247     c
                 0,932    0,005    0,532      0,932    0,677      0,702    0,997     0,869     b
                 0,761    0,009    0,877      0,761    0,815      0,803    0,964     0,874     e
                 0,825    0,008    0,607      0,825    0,699      0,703    0,983     0,778     d
                 0,825    0,006    0,450      0,825    0,583      0,607    0,955     0,759     g
                 0,375    0,002    0,586      0,375    0,457      0,466    0,959     0,408     f
                 0,806    0,005    0,863      0,806    0,834      0,828    0,961     0,863     i
                 0,607    0,001    0,711      0,607    0,655      0,655    0,938     0,636     j
                 0,873    0,004    0,751      0,873    0,807      0,807    0,984     0,889     m
                 0,895    0,009    0,644      0,895    0,749      0,754    0,986     0,859     l
                 0,719    0,007    0,888      0,719    0,795      0,786    0,928     0,835     o
                 0,824    0,005    0,861      0,824    0,842      0,837    0,973     0,880     n
                 0,329    0,002    0,491      0,329    0,394      0,400    0,928     0,351     q
                 0,312    0,002    0,604      0,312    0,412      0,430    0,938     0,369     p
                 0,501    0,015    0,622      0,501    0,555      0,538    0,961     0,649     s
                 0,705    0,006    0,746      0,705    0,725      0,719    0,923     0,735     r
                 0,878    0,002    0,896      0,878    0,887      0,884    0,979     0,914     u
                 0,209    0,003    0,537      0,209    0,301      0,328    0,926     0,308     t
                 0,875    0,006    0,526      0,875    0,657      0,676    0,978     0,824     v
                 0,749    0,013    0,226      0,749    0,347      0,407    0,942     0,684     y
                 0,000    0,002    0,000      0,000    0,000      -0,001   0,842     0,001     z
Weighted Avg.    0,782    0,053    0,801      0,782    0,782      0,742    0,963     0,858     


=== Confusion Matrix ===

     a     b     c     d     e     f     g     h     i     j     k     l     m     n     o     p     q     r     s     t     u     v     w     x     y     z    aa   <-- classified as
    90     0   145     0     1     1     1     2     0     0     1     0     0     0     0     0     5     0     0     0   175     1     0     2     5     0     0 |     a = ch
     0   103     0     0     3     1     0     0     2     0     0     0     0     0     0     0     0     0     0     0     0     0     0     0     0     0     0 |     b = rr
    69    72 32199   175   346   183    32    80   259   197   106    67   200    94    72   143   227   131    77    95   136   136    59    57   150   383    86 |     c = 0
     0     2   317   534    19     7     7     3    14     7     0     0     4     0     0    15     9     2     0     0    14     0     5     2    12     7     0 |     d = hs
     0     3     0     0   236     0     0     3     0     0     0     0     0     0     2     0     0     0     0     0     0     0     1     0     2     0     0 |     e = hg
    28   129   393   114   251 10395    43   118   109   136   123    21    30    13    87   246    95    81    30    18   111   118    27    45   133   198    14 |     f = a
     1     3   755     0     4    10   191     2    13     5     0     0    16     0     4     2    26     0     0     4   256    14    20    17     9     9     0 |     g = c
     0     4     0     0     1     7     0   558     3     0     3     0     9     0     3     4     0     0     0     0     0     0     1     0     1     5     0 |     h = b
     3    78   270   110    77    75    19    52  5256    95    94    15    43     3    52   134    41    68    14    35    51    74    23    40    62   115    11 |     i = e
     1    18    11     3    13    21     1     4    26  1083    14     2     3     0     5    14    13    19     2     2     4     3     1     0     4    35    11 |     j = d
     0     2    31     0     8     4     3     1    14     2   449     3     4     0     0     2     2     0     0     1     5     4     3     1     0     4     1 |     k = g
     0     0   287     3     1     6     0     6    11     1     2   218     3     0     0     1     3     0     0     0    25     1     2     7     2     3     0 |     l = f
     3     9   165    15    26     7    22    32    20    12    38     9  2870     1    24    25    20    24     3     8    60    37     2    21    34    51    23 |     m = i
     0     0   103     0     2     0     3     3     9     3     0     0     0   298     5     2     2     1     0     5    47     0     3     1     1     3     0 |     n = j
     0     7    21    23     6     7     1    13    10     3     4     6    16     0  1144     2    13     2     1     1     3     1     4     0     0    18     5 |     o = m
     0     2    11    19     4     9     3    16    25     0    13     0    10     0     9  1443     5     7     3     0    13     5     5     2     0     9     0 |     p = l
     5    81   715    40    73    78    29    66    44   167    80     9    20     0    55    90  4779    44     7     7    26    28    15    33    51    73    31 |     q = o
     2    45   114    14    27    22     5    12    51    18    21    10    11     0    16    28     5  2608     1     7     2     6    13    26    10    61    29 |     r = n
     0     2   150     0     7     5     3     0     6     0     0     0     0     0     0     0     1     1   138     4    94     3     0     2     0     3     0 |     s = q
     2     2   491     1     4    10     5     4    21     3     1     0     0     0     0    15    24     0     0   314    46    11    11     7    18    15     0 |     t = p
     0    25  1699     9    58    37    16    14    21    23     7     1    41     5    11    20    16    11     2     1  2214    17    15    12    55    93     0 |     u = s
     0     9   237    12    17    59    11    41    48    18    21     9    20     0     3    21    17     1     0     7    37  1469     0     7     4    13     3 |     v = r
     0     9    33     4    13     0    11     7     6     8     9     1     3     4    15    24    15     8     3     9    16    10  1826    19     0    27     0 |     w = u
     0     8   950     9     6    15    15     4    14     4     5     0    10     1    11     4    61    20     0     1   168    25     2   358     1    18     0 |     x = t
     0     7    11     3     2     8     1     8     8     0     6     1    12     0     4     0     1     0     0     0     7     1     0     5   616     3     0 |     y = v
     0     0    32     0    11     0     3     0     1     0     0     0     0     0     1     7     0     0     0     1    48     4     1     3     0   334     0 |     z = y
     0     0    33     0     0     0     0     0     0     0     0     0     0     0     0     0     0     0     0     0     0     0     0     0     0     0     0 |    aa = z

=== Percent Confusion Matrix ===
a	b	c	d	e	f	g	h	i	j	k	l	m	n	o	p	q	r	s	t	u	v	w	x	y	z	aa	
20.98	0.0	33.8	0.0	0.23	0.23	0.23	0.47	0.0	0.0	0.23	0.0	0.0	0.0	0.0	0.0	1.17	0.0	0.0	0.0	40.79	0.23	0.0	0.47	1.17	0.0	0.0	 a = ch
0.0	94.5	0.0	0.0	2.75	0.92	0.0	0.0	1.83	0.0	0.0	0.0	0.0	0.0	0.0	0.0	0.0	0.0	0.0	0.0	0.0	0.0	0.0	0.0	0.0	0.0	0.0	 b = rr
0.19	0.2	89.86	0.49	0.97	0.51	0.09	0.22	0.72	0.55	0.3	0.19	0.56	0.26	0.2	0.4	0.63	0.37	0.21	0.27	0.38	0.38	0.16	0.16	0.42	1.07	0.24	 c = 0
0.0	0.2	32.35	54.49	1.94	0.71	0.71	0.31	1.43	0.71	0.0	0.0	0.41	0.0	0.0	1.53	0.92	0.2	0.0	0.0	1.43	0.0	0.51	0.2	1.22	0.71	0.0	 d = hs
0.0	1.21	0.0	0.0	95.55	0.0	0.0	1.21	0.0	0.0	0.0	0.0	0.0	0.0	0.81	0.0	0.0	0.0	0.0	0.0	0.0	0.0	0.4	0.0	0.81	0.0	0.0	 e = hg
0.21	0.98	3.0	0.87	1.92	79.31	0.33	0.9	0.83	1.04	0.94	0.16	0.23	0.1	0.66	1.88	0.72	0.62	0.23	0.14	0.85	0.9	0.21	0.34	1.01	1.51	0.11	 f = a
0.07	0.22	55.47	0.0	0.29	0.73	14.03	0.15	0.96	0.37	0.0	0.0	1.18	0.0	0.29	0.15	1.91	0.0	0.0	0.29	18.81	1.03	1.47	1.25	0.66	0.66	0.0	 g = c
0.0	0.67	0.0	0.0	0.17	1.17	0.0	93.16	0.5	0.0	0.5	0.0	1.5	0.0	0.5	0.67	0.0	0.0	0.0	0.0	0.0	0.0	0.17	0.0	0.17	0.83	0.0	 h = b
0.04	1.13	3.91	1.59	1.11	1.09	0.27	0.75	76.06	1.37	1.36	0.22	0.62	0.04	0.75	1.94	0.59	0.98	0.2	0.51	0.74	1.07	0.33	0.58	0.9	1.66	0.16	 i = e
0.08	1.37	0.84	0.23	0.99	1.6	0.08	0.3	1.98	82.48	1.07	0.15	0.23	0.0	0.38	1.07	0.99	1.45	0.15	0.15	0.3	0.23	0.08	0.0	0.3	2.67	0.84	 j = d
0.0	0.37	5.7	0.0	1.47	0.74	0.55	0.18	2.57	0.37	82.54	0.55	0.74	0.0	0.0	0.37	0.37	0.0	0.0	0.18	0.92	0.74	0.55	0.18	0.0	0.74	0.18	 k = g
0.0	0.0	49.31	0.52	0.17	1.03	0.0	1.03	1.89	0.17	0.34	37.46	0.52	0.0	0.0	0.17	0.52	0.0	0.0	0.0	4.3	0.17	0.34	1.2	0.34	0.52	0.0	 l = f
0.08	0.25	4.63	0.42	0.73	0.2	0.62	0.9	0.56	0.34	1.07	0.25	80.6	0.03	0.67	0.7	0.56	0.67	0.08	0.22	1.68	1.04	0.06	0.59	0.95	1.43	0.65	 m = i
0.0	0.0	20.98	0.0	0.41	0.0	0.61	0.61	1.83	0.61	0.0	0.0	0.0	60.69	1.02	0.41	0.41	0.2	0.0	1.02	9.57	0.0	0.61	0.2	0.2	0.61	0.0	 n = j
0.0	0.53	1.6	1.75	0.46	0.53	0.08	0.99	0.76	0.23	0.31	0.46	1.22	0.0	87.26	0.15	0.99	0.15	0.08	0.08	0.23	0.08	0.31	0.0	0.0	1.37	0.38	 o = m
0.0	0.12	0.68	1.18	0.25	0.56	0.19	0.99	1.55	0.0	0.81	0.0	0.62	0.0	0.56	89.46	0.31	0.43	0.19	0.0	0.81	0.31	0.31	0.12	0.0	0.56	0.0	 p = l
0.08	1.22	10.76	0.6	1.1	1.17	0.44	0.99	0.66	2.51	1.2	0.14	0.3	0.0	0.83	1.35	71.91	0.66	0.11	0.11	0.39	0.42	0.23	0.5	0.77	1.1	0.47	 q = o
0.06	1.42	3.6	0.44	0.85	0.7	0.16	0.38	1.61	0.57	0.66	0.32	0.35	0.0	0.51	0.88	0.16	82.43	0.03	0.22	0.06	0.19	0.41	0.82	0.32	1.93	0.92	 r = n
0.0	0.48	35.8	0.0	1.67	1.19	0.72	0.0	1.43	0.0	0.0	0.0	0.0	0.0	0.0	0.0	0.24	0.24	32.94	0.95	22.43	0.72	0.0	0.48	0.0	0.72	0.0	 s = q
0.2	0.2	48.86	0.1	0.4	1.0	0.5	0.4	2.09	0.3	0.1	0.0	0.0	0.0	0.0	1.49	2.39	0.0	0.0	31.24	4.58	1.09	1.09	0.7	1.79	1.49	0.0	 t = p
0.0	0.57	38.41	0.2	1.31	0.84	0.36	0.32	0.47	0.52	0.16	0.02	0.93	0.11	0.25	0.45	0.36	0.25	0.05	0.02	50.06	0.38	0.34	0.27	1.24	2.1	0.0	 u = s
0.0	0.43	11.37	0.58	0.82	2.83	0.53	1.97	2.3	0.86	1.01	0.43	0.96	0.0	0.14	1.01	0.82	0.05	0.0	0.34	1.78	70.49	0.0	0.34	0.19	0.62	0.14	 v = r
0.0	0.43	1.59	0.19	0.63	0.0	0.53	0.34	0.29	0.38	0.43	0.05	0.14	0.19	0.72	1.15	0.72	0.38	0.14	0.43	0.77	0.48	87.79	0.91	0.0	1.3	0.0	 w = u
0.0	0.47	55.56	0.53	0.35	0.88	0.88	0.23	0.82	0.23	0.29	0.0	0.58	0.06	0.64	0.23	3.57	1.17	0.0	0.06	9.82	1.46	0.12	20.94	0.06	1.05	0.0	 x = t
0.0	0.99	1.56	0.43	0.28	1.14	0.14	1.14	1.14	0.0	0.85	0.14	1.7	0.0	0.57	0.0	0.14	0.0	0.0	0.0	0.99	0.14	0.0	0.71	87.5	0.43	0.0	 y = v
0.0	0.0	7.17	0.0	2.47	0.0	0.67	0.0	0.22	0.0	0.0	0.0	0.0	0.0	0.22	1.57	0.0	0.0	0.0	0.22	10.76	0.9	0.22	0.67	0.0	74.89	0.0	 z = y
0.0	0.0	100.0	0.0	0.0	0.0	0.0	0.0	0.0	0.0	0.0	0.0	0.0	0.0	0.0	0.0	0.0	0.0	0.0	0.0	0.0	0.0	0.0	0.0	0.0	0.0	0.0	 aa = z
