Timestamp:2013-08-30-03:55:15
Inventario:I0
Intervalo:20ms
Ngramas:3
Clasificador:BayesNet
Relation Name:  I0-20ms-3gramas
Num Instances:  9127
Num Attributes: 31

     Name                      Type  Nom  Int Real     Missing      Unique  Dist
   1 0Int(dB)                   Num   0%  11%  89%     0 /  0%    14 /  0%   764 
   2 0Pitch(Hz)                 Num   0%  49%  51%     0 /  0%  1033 / 11%  2440 
   3 0RawPitch                  Num   0%  52%  48%     0 /  0%  1062 / 12%  2369 
   4 0SmPitch                   Num   0%  50%  50%     0 /  0%  1056 / 12%  2419 
   5 0Melogram(st)              Num   0%  45%  55%     0 /  0%   937 / 10%  2341 
   6 0ZCross                    Num   0% 100%   0%     0 /  0%     7 /  0%    34 
   7 0F1(Hz)                    Num   0%  49%  51%     0 /  0%  2180 / 24%  3398 
   8 0F2(Hz)                    Num   0%  49%  51%     0 /  0%  3463 / 38%  4259 
   9 0F3(Hz)                    Num   0%  49%  51%     0 /  0%  3209 / 35%  4087 
  10 0F4(Hz)                    Num   0%  49%  51%     0 /  0%  3134 / 34%  4027 
  11 1Int(dB)                   Num   0%  11%  89%     0 /  0%    14 /  0%   764 
  12 1Pitch(Hz)                 Num   0%  49%  51%     0 /  0%  1033 / 11%  2440 
  13 1RawPitch                  Num   0%  52%  48%     0 /  0%  1062 / 12%  2369 
  14 1SmPitch                   Num   0%  50%  50%     0 /  0%  1056 / 12%  2419 
  15 1Melogram(st)              Num   0%  45%  55%     0 /  0%   937 / 10%  2341 
  16 1ZCross                    Num   0% 100%   0%     0 /  0%     7 /  0%    34 
  17 1F1(Hz)                    Num   0%  49%  51%     0 /  0%  2180 / 24%  3398 
  18 1F2(Hz)                    Num   0%  49%  51%     0 /  0%  3463 / 38%  4259 
  19 1F3(Hz)                    Num   0%  49%  51%     0 /  0%  3209 / 35%  4087 
  20 1F4(Hz)                    Num   0%  49%  51%     0 /  0%  3134 / 34%  4027 
  21 2Int(dB)                   Num   0%  11%  89%     0 /  0%    14 /  0%   764 
  22 2Pitch(Hz)                 Num   0%  49%  51%     0 /  0%  1033 / 11%  2440 
  23 2RawPitch                  Num   0%  52%  48%     0 /  0%  1062 / 12%  2369 
  24 2SmPitch                   Num   0%  50%  50%     0 /  0%  1056 / 12%  2419 
  25 2Melogram(st)              Num   0%  45%  55%     0 /  0%   938 / 10%  2342 
  26 2ZCross                    Num   0% 100%   0%     0 /  0%     7 /  0%    34 
  27 2F1(Hz)                    Num   0%  49%  51%     0 /  0%  2180 / 24%  3398 
  28 2F2(Hz)                    Num   0%  49%  51%     0 /  0%  3463 / 38%  4259 
  29 2F3(Hz)                    Num   0%  49%  51%     0 /  0%  3209 / 35%  4087 
  30 2F4(Hz)                    Num   0%  49%  51%     0 /  0%  3134 / 34%  4027 
  31 class                      Nom 100%   0%   0%     0 /  0%     0 /  0%    27 


Options: -D -Q weka.classifiers.bayes.net.search.local.K2 -- -P 1 -S BAYES -E weka.classifiers.bayes.net.estimate.SimpleEstimator -- -A 0.5 

Bayes Network Classifier
not using ADTree
#attributes=31 #classindex=30
Network structure (nodes followed by parents)
0Int(dB)(7): class 
0Pitch(Hz)(4): class 
0RawPitch(4): class 
0SmPitch(4): class 
0Melogram(st)(5): class 
0ZCross(3): class 
0F1(Hz)(7): class 
0F2(Hz)(6): class 
0F3(Hz)(3): class 
0F4(Hz)(3): class 
1Int(dB)(7): class 
1Pitch(Hz)(4): class 
1RawPitch(4): class 
1SmPitch(4): class 
1Melogram(st)(7): class 
1ZCross(4): class 
1F1(Hz)(8): class 
1F2(Hz)(6): class 
1F3(Hz)(3): class 
1F4(Hz)(3): class 
2Int(dB)(8): class 
2Pitch(Hz)(4): class 
2RawPitch(4): class 
2SmPitch(4): class 
2Melogram(st)(7): class 
2ZCross(6): class 
2F1(Hz)(8): class 
2F2(Hz)(9): class 
2F3(Hz)(3): class 
2F4(Hz)(3): class 
class(27): 
LogScore Bayes: -254641.656503071
LogScore BDeu: -270585.69781461783
LogScore MDL: -268541.3509311294
LogScore ENTROPY: -253403.82365915144
LogScore AIC: -256723.82365915144




=== Stratified cross-validation ===

Correctly Classified Instances        4540               49.7425 %
Incorrectly Classified Instances      4587               50.2575 %
Kappa statistic                          0.401 
K&B Relative Info Score             343476.0532 %
K&B Information Score                11705.5913 bits      1.2825 bits/instance
Class complexity | order 0           31016.3645 bits      3.3983 bits/instance
Class complexity | scheme            84632.9914 bits      9.2728 bits/instance
Complexity improvement     (Sf)     -53616.627  bits     -5.8745 bits/instance
Mean absolute error                      0.038 
Root mean squared error                  0.1695
Relative absolute error                 61.6785 %
Root relative squared error             96.6476 %
Coverage of cases (0.95 level)          63.3615 %
Mean rel. region size (0.95 level)       8.7441 %
Total Number of Instances             9127     


=== Detailed Accuracy By Class ===

                 TP Rate  FP Rate  Precision  Recall   F-Measure  MCC      ROC Area  PRC Area  Class
                 0,025    0,002    0,056      0,025    0,034      0,034    0,877     0,048     ch
                 0,000    0,002    0,000      0,000    0,000      -0,002   0,775     0,003     rr
                 0,902    0,069    0,878      0,902    0,890      0,829    0,968     0,958     0
                 0,118    0,022    0,061      0,118    0,080      0,069    0,799     0,053     hs
                 0,519    0,049    0,030      0,519    0,057      0,116    0,936     0,072     hg
                 0,553    0,054    0,643      0,553    0,595      0,532    0,897     0,676     a
                 0,261    0,033    0,107      0,261    0,152      0,147    0,837     0,081     c
                 0,053    0,008    0,038      0,053    0,044      0,038    0,889     0,035     b
                 0,164    0,016    0,484      0,164    0,244      0,248    0,857     0,368     e
                 0,271    0,037    0,098      0,271    0,144      0,143    0,841     0,068     d
                 0,167    0,032    0,034      0,167    0,056      0,061    0,808     0,023     g
                 0,016    0,007    0,015      0,016    0,016      0,009    0,840     0,036     f
                 0,382    0,021    0,443      0,382    0,410      0,387    0,891     0,385     i
                 0,143    0,001    0,368      0,143    0,206      0,227    0,879     0,148     j
                 0,057    0,003    0,216      0,057    0,090      0,104    0,838     0,095     m
                 0,419    0,069    0,097      0,419    0,158      0,174    0,846     0,090     l
                 0,135    0,012    0,492      0,135    0,212      0,228    0,800     0,302     o
                 0,137    0,026    0,165      0,137    0,150      0,121    0,839     0,135     n
                 0,047    0,007    0,029      0,047    0,036      0,031    0,761     0,015     q
                 0,030    0,001    0,300      0,030    0,054      0,091    0,804     0,062     p
                 0,216    0,017    0,398      0,216    0,280      0,266    0,857     0,308     s
                 0,111    0,010    0,217      0,111    0,147      0,140    0,781     0,102     r
                 0,376    0,013    0,414      0,376    0,394      0,381    0,899     0,407     u
                 0,147    0,011    0,210      0,147    0,173      0,162    0,858     0,113     t
                 0,026    0,006    0,034      0,026    0,029      0,022    0,792     0,030     v
                 0,354    0,013    0,125      0,354    0,185      0,204    0,871     0,150     y
                 0,000    0,000    0,000      0,000    0,000      -0,000   0,908     0,004     z
Weighted Avg.    0,497    0,041    0,566      0,497    0,508      0,476    0,895     0,555     


=== Confusion Matrix ===

    a    b    c    d    e    f    g    h    i    j    k    l    m    n    o    p    q    r    s    t    u    v    w    x    y    z   aa   <-- classified as
    1    0   10    0    0    2    4    0    1    0    1    3    0    1    0    3    0    3    1    0    7    1    0    2    0    0    0 |    a = ch
    0    0    0    0    0    2    0    0    0    0    1    0    0    0    0    5    0    1    0    0    0    1    1    0    0    0    0 |    b = rr
    5    0 2919   43   23   18   43    2    4   10    2   20   16    0    2   19    2    9    2    2   35   14    3   23    1   17    1 |    c = 0
    0    1    8   13   17    5    5    3    1    9    1    1    2    0    0   13    2    6    0    1   11    7    0    4    0    0    0 |    d = hs
    0    0    0    1   14    1    0    1    2    1    0    0    3    0    1    1    0    1    0    0    0    0    0    0    1    0    0 |    e = hg
    0    2   36   13   39  757   45    4   45   85   37    4    7    2    1  114   54   17   13    1   12   34   19    4   12   11    0 |    f = a
    0    0   52    9    2    0   36    0    1    1    0    4    3    0    1    2    1    7    3    0   10    0    0    5    1    0    0 |    g = c
    0    0    0    0    7    8    0    3    3   10    4    0    2    0    2   10    2    4    0    0    0    0    2    0    0    0    0 |    h = b
    0    1   23   10  112   66   21   11  122   37   86    2   57    1    2  102    8   24   15    1    6    2   18    7    5    6    1 |    i = e
    0    1    0    2   12   18    0    1    1   36   11    0    0    0    0   21    1   11    0    0    0    1    2    2    3   10    0 |    j = d
    0    1    0    2    8   13    1    0    3    5   10    1    6    0    0    8    0    1    0    0    1    0    0    0    0    0    0 |    k = g
    0    0    4    9    3    4    9    0    1    1    3    1    0    1    0    5    0    6    0    1    9    1    0    2    0    0    1 |    l = f
    2    1   12    6   47    2   11    6   18    4   32    1  147    0    8   30    0   19   13    0    5    0    2   11    1    7    0 |    m = i
    1    0    2    5    4    9    0    0    3    0    2    0    2    7    0    3    0    3    0    0    4    2    0    1    1    0    0 |    n = j
    0    0    3    1   14   10    0    5    1    6   11    0   23    0    8   26    1   17    0    0    0    2    7    1    0    5    0 |    o = m
    0    1    1    0   11   14    3    6    2    4    2    0   10    0    3   67    4   17    0    0    3    1    2    0    3    6    0 |    p = l
    0    2   59   21   60  116   32   10   19   89   18    2    7    0    2   66   96   19    6    1    8    2   46    6   11   14    0 |    q = o
    0    0    0   18   42   39    3    7    8   21   37    1   12    0    3   73    1   46    0    0    1    4    3    7    3    7    0 |    r = n
    0    0   16    2    0    3    4    0    0    0    2    1    6    0    0    2    0    2    2    0    1    0    0    2    0    0    0 |    s = q
    1    0   14    8    5    6   16    1    0    5    0    3    1    4    0    2    0    9    1    3    8    3    0    8    0    3    0 |    t = p
    5    4   98   32   19   18   50    0    0   10   13   14   15    3    1   31    0   19    4    0  100   11    2    6    0    7    1 |    u = s
    0    0    8    9    5   41   12    6    5   12   10    2    7    0    2   40    4   12    0    0    9   25    1    3   11    2    0 |    v = r
    0    2    4    1    4   18   12    9    8    6    7    1    3    0    0   15   16   11    4    0    2    1   82    2    2    8    0 |    w = u
    3    2   47    6    4    1   27    1    0    5    2    7    2    0    0    2    1    8    1    0   13    0    5   26    2   12    0 |    x = t
    0    0    2    2   11    6    1    1    4    6    5    0    0    0    0   19    2    5    2    0    0    3    1    1    2    4    0 |    y = v
    0    0    2    1    0    0    0    2    0    3    0    0    1    0    1   10    0    1    2    0    5    0    2    1    0   17    0 |    z = y
    0    0    3    0    0    0    1    0    0    0    0    0    0    0    0    0    0    0    0    0    1    0    0    0    0    0    0 |   aa = z

=== Percent Confusion Matrix ===
a	b	c	d	e	f	g	h	i	j	k	l	m	n	o	p	q	r	s	t	u	v	w	x	y	z	aa	
2.5	0.0	25.0	0.0	0.0	5.0	10.0	0.0	2.5	0.0	2.5	7.5	0.0	2.5	0.0	7.5	0.0	7.5	2.5	0.0	17.5	2.5	0.0	5.0	0.0	0.0	0.0	 a = ch
0.0	0.0	0.0	0.0	0.0	18.18	0.0	0.0	0.0	0.0	9.09	0.0	0.0	0.0	0.0	45.45	0.0	9.09	0.0	0.0	0.0	9.09	9.09	0.0	0.0	0.0	0.0	 b = rr
0.15	0.0	90.23	1.33	0.71	0.56	1.33	0.06	0.12	0.31	0.06	0.62	0.49	0.0	0.06	0.59	0.06	0.28	0.06	0.06	1.08	0.43	0.09	0.71	0.03	0.53	0.03	 c = 0
0.0	0.91	7.27	11.82	15.45	4.55	4.55	2.73	0.91	8.18	0.91	0.91	1.82	0.0	0.0	11.82	1.82	5.45	0.0	0.91	10.0	6.36	0.0	3.64	0.0	0.0	0.0	 d = hs
0.0	0.0	0.0	3.7	51.85	3.7	0.0	3.7	7.41	3.7	0.0	0.0	11.11	0.0	3.7	3.7	0.0	3.7	0.0	0.0	0.0	0.0	0.0	0.0	3.7	0.0	0.0	 e = hg
0.0	0.15	2.63	0.95	2.85	55.34	3.29	0.29	3.29	6.21	2.7	0.29	0.51	0.15	0.07	8.33	3.95	1.24	0.95	0.07	0.88	2.49	1.39	0.29	0.88	0.8	0.0	 f = a
0.0	0.0	37.68	6.52	1.45	0.0	26.09	0.0	0.72	0.72	0.0	2.9	2.17	0.0	0.72	1.45	0.72	5.07	2.17	0.0	7.25	0.0	0.0	3.62	0.72	0.0	0.0	 g = c
0.0	0.0	0.0	0.0	12.28	14.04	0.0	5.26	5.26	17.54	7.02	0.0	3.51	0.0	3.51	17.54	3.51	7.02	0.0	0.0	0.0	0.0	3.51	0.0	0.0	0.0	0.0	 h = b
0.0	0.13	3.08	1.34	15.01	8.85	2.82	1.47	16.35	4.96	11.53	0.27	7.64	0.13	0.27	13.67	1.07	3.22	2.01	0.13	0.8	0.27	2.41	0.94	0.67	0.8	0.13	 i = e
0.0	0.75	0.0	1.5	9.02	13.53	0.0	0.75	0.75	27.07	8.27	0.0	0.0	0.0	0.0	15.79	0.75	8.27	0.0	0.0	0.0	0.75	1.5	1.5	2.26	7.52	0.0	 j = d
0.0	1.67	0.0	3.33	13.33	21.67	1.67	0.0	5.0	8.33	16.67	1.67	10.0	0.0	0.0	13.33	0.0	1.67	0.0	0.0	1.67	0.0	0.0	0.0	0.0	0.0	0.0	 k = g
0.0	0.0	6.56	14.75	4.92	6.56	14.75	0.0	1.64	1.64	4.92	1.64	0.0	1.64	0.0	8.2	0.0	9.84	0.0	1.64	14.75	1.64	0.0	3.28	0.0	0.0	1.64	 l = f
0.52	0.26	3.12	1.56	12.21	0.52	2.86	1.56	4.68	1.04	8.31	0.26	38.18	0.0	2.08	7.79	0.0	4.94	3.38	0.0	1.3	0.0	0.52	2.86	0.26	1.82	0.0	 m = i
2.04	0.0	4.08	10.2	8.16	18.37	0.0	0.0	6.12	0.0	4.08	0.0	4.08	14.29	0.0	6.12	0.0	6.12	0.0	0.0	8.16	4.08	0.0	2.04	2.04	0.0	0.0	 n = j
0.0	0.0	2.13	0.71	9.93	7.09	0.0	3.55	0.71	4.26	7.8	0.0	16.31	0.0	5.67	18.44	0.71	12.06	0.0	0.0	0.0	1.42	4.96	0.71	0.0	3.55	0.0	 o = m
0.0	0.63	0.63	0.0	6.88	8.75	1.88	3.75	1.25	2.5	1.25	0.0	6.25	0.0	1.88	41.88	2.5	10.63	0.0	0.0	1.88	0.63	1.25	0.0	1.88	3.75	0.0	 p = l
0.0	0.28	8.29	2.95	8.43	16.29	4.49	1.4	2.67	12.5	2.53	0.28	0.98	0.0	0.28	9.27	13.48	2.67	0.84	0.14	1.12	0.28	6.46	0.84	1.54	1.97	0.0	 q = o
0.0	0.0	0.0	5.36	12.5	11.61	0.89	2.08	2.38	6.25	11.01	0.3	3.57	0.0	0.89	21.73	0.3	13.69	0.0	0.0	0.3	1.19	0.89	2.08	0.89	2.08	0.0	 r = n
0.0	0.0	37.21	4.65	0.0	6.98	9.3	0.0	0.0	0.0	4.65	2.33	13.95	0.0	0.0	4.65	0.0	4.65	4.65	0.0	2.33	0.0	0.0	4.65	0.0	0.0	0.0	 s = q
0.99	0.0	13.86	7.92	4.95	5.94	15.84	0.99	0.0	4.95	0.0	2.97	0.99	3.96	0.0	1.98	0.0	8.91	0.99	2.97	7.92	2.97	0.0	7.92	0.0	2.97	0.0	 t = p
1.08	0.86	21.17	6.91	4.1	3.89	10.8	0.0	0.0	2.16	2.81	3.02	3.24	0.65	0.22	6.7	0.0	4.1	0.86	0.0	21.6	2.38	0.43	1.3	0.0	1.51	0.22	 u = s
0.0	0.0	3.54	3.98	2.21	18.14	5.31	2.65	2.21	5.31	4.42	0.88	3.1	0.0	0.88	17.7	1.77	5.31	0.0	0.0	3.98	11.06	0.44	1.33	4.87	0.88	0.0	 v = r
0.0	0.92	1.83	0.46	1.83	8.26	5.5	4.13	3.67	2.75	3.21	0.46	1.38	0.0	0.0	6.88	7.34	5.05	1.83	0.0	0.92	0.46	37.61	0.92	0.92	3.67	0.0	 w = u
1.69	1.13	26.55	3.39	2.26	0.56	15.25	0.56	0.0	2.82	1.13	3.95	1.13	0.0	0.0	1.13	0.56	4.52	0.56	0.0	7.34	0.0	2.82	14.69	1.13	6.78	0.0	 x = t
0.0	0.0	2.6	2.6	14.29	7.79	1.3	1.3	5.19	7.79	6.49	0.0	0.0	0.0	0.0	24.68	2.6	6.49	2.6	0.0	0.0	3.9	1.3	1.3	2.6	5.19	0.0	 y = v
0.0	0.0	4.17	2.08	0.0	0.0	0.0	4.17	0.0	6.25	0.0	0.0	2.08	0.0	2.08	20.83	0.0	2.08	4.17	0.0	10.42	0.0	4.17	2.08	0.0	35.42	0.0	 z = y
0.0	0.0	60.0	0.0	0.0	0.0	20.0	0.0	0.0	0.0	0.0	0.0	0.0	0.0	0.0	0.0	0.0	0.0	0.0	0.0	20.0	0.0	0.0	0.0	0.0	0.0	0.0	 aa = z
