Timestamp:2014-12-07-10:35:04
Inventario:I0
Intervalo:2ms
Ngramas:3
Clasificador:NaiveBayes
Relation Name:  I0-2ms-3gramas
Num Instances:  91701
Num Attributes: 31

     Name                      Type  Nom  Int Real     Missing      Unique  Dist
   1 0Int(dB)                   Num   0%   9%  91%     0 /  0%     4 /  0%   779 
   2 0Pitch(Hz)                 Num   0%  52%  48%     0 /  0%   471 /  1%  4016 
   3 0RawPitch                  Num   0%  55%  45%     0 /  0%   550 /  1%  4014 
   4 0SmPitch                   Num   0%  53%  47%     0 /  0%   491 /  1%  3998 
   5 0Melogram(st)              Num   0%  49%  51%     0 /  0%   212 /  0%  3363 
   6 0ZCross                    Num   0% 100%   0%     0 /  0%     6 /  0%    54 
   7 0F1(Hz)                    Num   0%  52%  48%     0 /  0%  1126 /  1%  4776 
   8 0F2(Hz)                    Num   0%  52%  48%     0 /  0%  2304 /  3%  6727 
   9 0F3(Hz)                    Num   0%  52%  48%     0 /  0%  1967 /  2%  6224 
  10 0F4(Hz)                    Num   0%  52%  48%     0 /  0%  1884 /  2%  6074 
  11 1Int(dB)                   Num   0%   9%  91%     0 /  0%     5 /  0%   780 
  12 1Pitch(Hz)                 Num   0%  52%  48%     0 /  0%   471 /  1%  4016 
  13 1RawPitch                  Num   0%  55%  45%     0 /  0%   550 /  1%  4014 
  14 1SmPitch                   Num   0%  53%  47%     0 /  0%   491 /  1%  3998 
  15 1Melogram(st)              Num   0%  49%  51%     0 /  0%   212 /  0%  3363 
  16 1ZCross                    Num   0% 100%   0%     0 /  0%     6 /  0%    54 
  17 1F1(Hz)                    Num   0%  52%  48%     0 /  0%  1126 /  1%  4776 
  18 1F2(Hz)                    Num   0%  52%  48%     0 /  0%  2304 /  3%  6727 
  19 1F3(Hz)                    Num   0%  52%  48%     0 /  0%  1967 /  2%  6224 
  20 1F4(Hz)                    Num   0%  52%  48%     0 /  0%  1884 /  2%  6074 
  21 2Int(dB)                   Num   0%   9%  91%     0 /  0%     6 /  0%   781 
  22 2Pitch(Hz)                 Num   0%  52%  48%     0 /  0%   471 /  1%  4016 
  23 2RawPitch                  Num   0%  55%  45%     0 /  0%   550 /  1%  4014 
  24 2SmPitch                   Num   0%  53%  47%     0 /  0%   491 /  1%  3998 
  25 2Melogram(st)              Num   0%  49%  51%     0 /  0%   212 /  0%  3363 
  26 2ZCross                    Num   0% 100%   0%     0 /  0%     6 /  0%    54 
  27 2F1(Hz)                    Num   0%  52%  48%     0 /  0%  1126 /  1%  4776 
  28 2F2(Hz)                    Num   0%  52%  48%     0 /  0%  2304 /  3%  6727 
  29 2F3(Hz)                    Num   0%  52%  48%     0 /  0%  1967 /  2%  6224 
  30 2F4(Hz)                    Num   0%  52%  48%     0 /  0%  1884 /  2%  6074 
  31 class                      Nom 100%   0%   0%     0 /  0%     0 /  0%    27 


Naive Bayes Classifier

                    Class
Attribute              ch        rr         0        hs        hg         a         c         b         e         d         g         f         i         j         m         l         o         n         q         p         s         r         u         t         v         y         z
                      (0)       (0)    (0.39)    (0.01)       (0)    (0.14)    (0.01)    (0.01)    (0.08)    (0.01)    (0.01)    (0.01)    (0.04)    (0.01)    (0.01)    (0.02)    (0.07)    (0.03)       (0)    (0.01)    (0.05)    (0.02)    (0.02)    (0.02)    (0.01)       (0)       (0)
==============================================================================================================================================================================================================================================================================================
0Int(dB)
  mean            -19.8143  -10.7848  -48.1799   -20.458  -11.0746   -2.8822  -25.2342   -5.9863    -5.205   -7.8714   -7.6694  -21.8784   -8.7895  -15.6892   -7.6106   -8.2488   -8.1324   -9.1439  -23.0885  -23.2254  -21.5156  -11.8393   -5.3672  -26.3478   -9.3539  -16.4023   -26.973
  std. dev.         8.4748    4.4935   16.3014   11.2278    6.1681    8.2937    9.9399    4.2622    8.1176    6.1238    8.0179    5.5298    8.3703    6.1431    6.0661    5.6219   12.1307    7.5607   11.6307   10.4886    6.6321    9.2424     8.007     9.808    7.0185    4.8998    2.1072
  weight sum           429       109     35831       980       247     13106      1361       599      6910      1313       544       582      3561       491      1311      1613      6646      3164       419      1005      4423      2084      2080      1710       704       446        33
  precision          0.104     0.104     0.104     0.104     0.104     0.104     0.104     0.104     0.104     0.104     0.104     0.104     0.104     0.104     0.104     0.104     0.104     0.104     0.104     0.104     0.104     0.104     0.104     0.104     0.104     0.104     0.104

0Pitch(Hz)
  mean             51.0957  245.3554   17.0609   84.1511  146.7389  226.4412   46.0223  216.0859  189.4672  202.3729   211.995   77.0855  172.4288  153.1457  193.7686   174.623  178.9677  190.7047   78.4433   79.6069   47.2217  161.6026  228.8154   65.0356   176.872  112.8563         0
  std. dev.         99.958   121.194    56.853   87.1585   38.0498  103.6761   91.0161   72.5636   88.3909   84.3095   100.683  116.0635   77.1572  131.8494   87.2218   64.4062  105.4237    89.656  112.8788  115.1786   89.7787   95.3425   85.6072  107.1135   73.7813   69.2593    0.0207
  weight sum           429       109     35831       980       247     13106      1361       599      6910      1313       544       582      3561       491      1311      1613      6646      3164       419      1005      4423      2084      2080      1710       704       446        33
  precision         0.1242    0.1242    0.1242    0.1242    0.1242    0.1242    0.1242    0.1242    0.1242    0.1242    0.1242    0.1242    0.1242    0.1242    0.1242    0.1242    0.1242    0.1242    0.1242    0.1242    0.1242    0.1242    0.1242    0.1242    0.1242    0.1242    0.1242

0RawPitch
  mean             33.9784  236.6909   13.9619   66.1469  123.5023  216.7286   30.9191   213.376  185.2835  196.0699  201.0682   39.4896  164.8572   95.6852  182.7137  158.5474  173.0225  177.4833   40.3066   59.7026     26.86  155.4929  219.9054   39.8978  162.3452   76.4805         0
  std. dev.        84.7743  130.4265   51.2541    85.152   79.5414  109.7993   76.4945   76.2646   95.4466   94.5325  112.0453   81.2737   83.8605  114.2828   98.3056   78.3444  112.8916  103.0478   88.5284  107.4738    70.828  102.7886   93.8544   88.0488   85.8739    77.765    0.0207
  weight sum           429       109     35831       980       247     13106      1361       599      6910      1313       544       582      3561       491      1311      1613      6646      3164       419      1005      4423      2084      2080      1710       704       446        33
  precision         0.1243    0.1243    0.1243    0.1243    0.1243    0.1243    0.1243    0.1243    0.1243    0.1243    0.1243    0.1243    0.1243    0.1243    0.1243    0.1243    0.1243    0.1243    0.1243    0.1243    0.1243    0.1243    0.1243    0.1243    0.1243    0.1243    0.1243

0SmPitch
  mean             47.6945  245.3477   15.4228   77.7657  148.6812  224.6461   38.7196  216.0865  187.8876  201.7462  210.2676   59.4771  170.0743  110.7061  191.0786  173.2044  176.8295  188.0416   61.7616   70.3075     39.92  158.4702  228.2489   53.9529  172.5994  108.2745         0
  std. dev.        96.6081  121.1911    53.067   84.3704   35.9602  105.3468    85.669   72.5638   89.6855   85.5321  102.6729   98.6395   79.5741  137.7176   91.1571   66.1453  107.6308   92.3591  104.4924  112.8983   84.3422   97.0297   85.8949  100.7942   78.4767    71.307    0.0208
  weight sum           429       109     35831       980       247     13106      1361       599      6910      1313       544       582      3561       491      1311      1613      6646      3164       419      1005      4423      2084      2080      1710       704       446        33
  precision         0.1248    0.1248    0.1248    0.1248    0.1248    0.1248    0.1248    0.1248    0.1248    0.1248    0.1248    0.1248    0.1248    0.1248    0.1248    0.1248    0.1248    0.1248    0.1248    0.1248    0.1248    0.1248    0.1248    0.1248    0.1248    0.1248    0.1248

0Melogram(st)
  mean             13.8084   56.6073    5.0216   26.0632   49.1238   53.1995   13.0393   55.1998    50.296   53.0238   51.2077   21.2107   48.3177    15.552    50.918   51.1593   46.5862   50.0162   17.3333   20.4189   12.8322   42.8258   53.7993   15.6252    50.382   40.1606         0
  std. dev.        24.7679    8.9613   15.7545   25.0848    5.5283   14.8034   23.8361    7.3575   15.6299   11.3416   17.6638   27.1061   16.4721   26.0328   14.5278    9.6498   20.4797   16.5039    26.256    27.415    23.356    22.547     14.79   25.6559   11.9774    18.392    0.0041
  weight sum           429       109     35831       980       247     13106      1361       599      6910      1313       544       582      3561       491      1311      1613      6646      3164       419      1005      4423      2084      2080      1710       704       446        33
  precision         0.0246    0.0246    0.0246    0.0246    0.0246    0.0246    0.0246    0.0246    0.0246    0.0246    0.0246    0.0246    0.0246    0.0246    0.0246    0.0246    0.0246    0.0246    0.0246    0.0246    0.0246    0.0246    0.0246    0.0246    0.0246    0.0246    0.0246

0ZCross
  mean              8.5361    3.5323    0.2613    1.0447    3.2917    7.6575    1.5591    4.1457    5.2767    4.0832    4.6123    0.6615    3.7235    3.8638    2.8958    3.3338    4.4336    2.5531    4.1607    0.9599    3.6726      3.26    4.0842    0.6899    3.2325    1.4926         0
  std. dev.        12.8415    2.6428    1.1465    1.7582    2.4426    4.3984    3.6274      1.85     3.209    2.3026    2.8138    1.5911    3.2289    3.8157    1.5608    2.0682    3.0623    1.6919    7.2383    2.3283    7.0371     2.605    2.9396     1.578    2.0169    1.7374    0.1792
  weight sum           429       109     35831       980       247     13106      1361       599      6910      1313       544       582      3561       491      1311      1613      6646      3164       419      1005      4423      2084      2080      1710       704       446        33
  precision         1.0755    1.0755    1.0755    1.0755    1.0755    1.0755    1.0755    1.0755    1.0755    1.0755    1.0755    1.0755    1.0755    1.0755    1.0755    1.0755    1.0755    1.0755    1.0755    1.0755    1.0755    1.0755    1.0755    1.0755    1.0755    1.0755    1.0755

0F1(Hz)
  mean            133.3877  603.0018    54.983  386.9224  446.3362  703.1148   91.2217  478.1559  461.0472  516.9777  494.7364   275.299  359.1654  447.3978  432.4282  471.8215  481.7752  468.8564  177.5281   230.559  183.5633  484.6064  494.6223   111.558  481.2011  340.5894         0
  std. dev.       258.4276  134.6059  168.4324  298.8434   84.1197  259.6485   205.413   133.248  149.9473  153.3857  193.2131  333.8421  147.6819  343.8324  163.8473  141.8944  227.7162  156.2529  244.6379  295.3702  283.5146  237.2579   311.451  208.6912  173.2575  184.7458    0.0608
  weight sum           429       109     35831       980       247     13106      1361       599      6910      1313       544       582      3561       491      1311      1613      6646      3164       419      1005      4423      2084      2080      1710       704       446        33
  precision         0.3648    0.3648    0.3648    0.3648    0.3648    0.3648    0.3648    0.3648    0.3648    0.3648    0.3648    0.3648    0.3648    0.3648    0.3648    0.3648    0.3648    0.3648    0.3648    0.3648    0.3648    0.3648    0.3648    0.3648    0.3648    0.3648    0.3648

0F2(Hz)
  mean            399.6301 1649.5731  171.9857 1114.0629 1936.5346 1452.9007  267.1199 1578.8816 1772.0574 1484.0198  1690.892  712.8855 1952.7441 1267.4745 1664.6932 1667.9758 1139.4043 1601.2188  715.5469  684.4114  571.9519 1365.1115 1043.9884  372.4335  1555.058 1341.6034         0
  std. dev.       741.8388  129.9137  521.2356  840.5424  348.5484  408.4804  616.3071  346.1089  544.5249  319.4464  591.0274  844.4121  688.7429  910.6307   443.251  347.5339  541.1664  451.1073  956.8357  846.4718  857.1484  620.9288  438.5623   677.747  432.4859  665.0111    0.0738
  weight sum           429       109     35831       980       247     13106      1361       599      6910      1313       544       582      3561       491      1311      1613      6646      3164       419      1005      4423      2084      2080      1710       704       446        33
  precision         0.4429    0.4429    0.4429    0.4429    0.4429    0.4429    0.4429    0.4429    0.4429    0.4429    0.4429    0.4429    0.4429    0.4429    0.4429    0.4429    0.4429    0.4429    0.4429    0.4429    0.4429    0.4429    0.4429    0.4429    0.4429    0.4429    0.4429

0F3(Hz)
  mean            663.8042 2863.8236  293.4267 1821.4233 2527.7809 2709.1782  486.9028 2757.8449 2603.6899 2869.5564 2898.5203 1218.6763 2631.3817 1864.3773 2748.6699 2805.2632 2490.7242 2765.1826 1068.0091 1160.7623  951.3372 2375.1702 2648.1475  676.6971 2651.4351 2313.3484         0
  std. dev.      1232.3098  410.0913  874.0473  1309.707  114.3528  751.1237 1085.3162  468.5344  809.0505  497.3337  930.4514  1437.573  948.5385 1330.5212  575.8762  588.2323 1033.2776   663.504 1391.6822 1423.2568 1409.1088 1087.0005  826.0863 1219.1928   706.522 1162.1591    0.1103
  weight sum           429       109     35831       980       247     13106      1361       599      6910      1313       544       582      3561       491      1311      1613      6646      3164       419      1005      4423      2084      2080      1710       704       446        33
  precision          0.662     0.662     0.662     0.662     0.662     0.662     0.662     0.662     0.662     0.662     0.662     0.662     0.662     0.662     0.662     0.662     0.662     0.662     0.662     0.662     0.662     0.662     0.662     0.662     0.662     0.662     0.662

0F4(Hz)
  mean            781.1138 3243.6283  352.5404 2266.9155 3589.2732 3119.9026   564.712 3299.3776 3139.0513 3323.5678 2933.6281 1400.8092 3132.5813 2326.3656 3310.1128 3231.6038 2866.8671 3172.4359 1292.9951 1377.0587 1073.9571  2748.427 3035.0863  777.4436 3215.0116  2679.984         0
  std. dev.      1450.2466  410.1502 1047.8436 1616.3082   90.7041  852.7347 1261.0993  442.1307  942.3082  543.3417  943.1766 1641.5102 1087.3648 1647.6679  623.6724  599.3615 1172.3377  763.8481 1696.4011 1667.2311 1588.4951 1203.6062  857.2082 1405.4346  752.7086 1334.4391    0.1138
  weight sum           429       109     35831       980       247     13106      1361       599      6910      1313       544       582      3561       491      1311      1613      6646      3164       419      1005      4423      2084      2080      1710       704       446        33
  precision         0.6829    0.6829    0.6829    0.6829    0.6829    0.6829    0.6829    0.6829    0.6829    0.6829    0.6829    0.6829    0.6829    0.6829    0.6829    0.6829    0.6829    0.6829    0.6829    0.6829    0.6829    0.6829    0.6829    0.6829    0.6829    0.6829    0.6829

1Int(dB)
  mean            -19.5109  -11.0073  -48.2527  -20.9187  -10.9119   -2.8635  -24.5216   -5.9294   -5.1801   -7.7997    -7.701  -22.0464   -8.7172  -15.7648   -7.5829   -8.2546    -8.146   -9.3069  -22.3902  -22.7543  -21.6704  -11.9208   -5.2139  -25.5417   -9.2274  -16.3545  -26.9195
  std. dev.         8.2851    4.3947   16.2023   11.2611    6.2832     8.205    9.9872    4.2721     8.069    6.1523    8.0193    5.4006    8.3524       6.1    6.0121    5.6912   12.1698    7.6889   11.3302   10.5956    6.5601    9.3387    7.7793   10.1924    6.7468    4.7964    2.0302
  weight sum           429       109     35831       980       247     13106      1361       599      6910      1313       544       582      3561       491      1311      1613      6646      3164       419      1005      4423      2084      2080      1710       704       446        33
  precision         0.1039    0.1039    0.1039    0.1039    0.1039    0.1039    0.1039    0.1039    0.1039    0.1039    0.1039    0.1039    0.1039    0.1039    0.1039    0.1039    0.1039    0.1039    0.1039    0.1039    0.1039    0.1039    0.1039    0.1039    0.1039    0.1039    0.1039

1Pitch(Hz)
  mean              53.055  245.4112   16.6926   81.4297  147.2402  226.5987   52.1217  216.1255  190.0868  202.2726  211.8361   74.5716  173.0539  152.4343  193.9847   174.651  178.5997  189.8479   82.7165   80.8753   45.0192  161.8022  229.3808   70.4675  177.7413  112.9413         0
  std. dev.       101.6332  121.6508   56.2804   86.7208   38.6144  103.4873   96.0705   72.3848   87.9634   84.5208  101.2436  114.9864   76.5412  131.6271   87.2817   64.2206   105.265   90.2682  115.2103  114.4697   88.2177   95.5801    84.526  109.6127   72.5746   69.2632    0.0207
  weight sum           429       109     35831       980       247     13106      1361       599      6910      1313       544       582      3561       491      1311      1613      6646      3164       419      1005      4423      2084      2080      1710       704       446        33
  precision         0.1242    0.1242    0.1242    0.1242    0.1242    0.1242    0.1242    0.1242    0.1242    0.1242    0.1242    0.1242    0.1242    0.1242    0.1242    0.1242    0.1242    0.1242    0.1242    0.1242    0.1242    0.1242    0.1242    0.1242    0.1242    0.1242    0.1242

1RawPitch
  mean             35.0966  237.4787   13.6787   63.5842  125.6235  216.9833   35.7069  213.7345  185.5725  195.9629  201.2902   37.3932  165.7052    94.585  182.9788  158.1608  172.7286  176.3158   42.8127    61.901   24.5966  155.4059  220.4839   45.1998  163.2642   76.9389         0
  std. dev.        85.5772  130.3747   50.8131   84.1847   81.4257  109.5973    82.006   75.7161   95.2181    94.473  112.1972   78.9964   83.3185  113.5516   98.3378   78.6389  112.6688   103.679    90.899  107.8677   67.9056  103.0698   93.0053   92.3545   84.7866   77.6904    0.0207
  weight sum           429       109     35831       980       247     13106      1361       599      6910      1313       544       582      3561       491      1311      1613      6646      3164       419      1005      4423      2084      2080      1710       704       446        33
  precision         0.1243    0.1243    0.1243    0.1243    0.1243    0.1243    0.1243    0.1243    0.1243    0.1243    0.1243    0.1243    0.1243    0.1243    0.1243    0.1243    0.1243    0.1243    0.1243    0.1243    0.1243    0.1243    0.1243    0.1243    0.1243    0.1243    0.1243

1SmPitch
  mean             49.2589  245.4038   15.0751   75.0475  149.1843  224.8531   44.3406  216.1252  188.5362  201.7143  210.1091   56.9592  170.6841  109.9994  191.0396  173.0212  176.5062   187.086   65.3564    71.317   37.6125  158.7242  228.8712   59.7232  173.5937  108.3503         0
  std. dev.        98.2717  121.6464   52.4896   83.7122   36.5302  105.0838   91.2308   72.3842   89.2414   85.5991  103.2196   96.9061   79.0929   137.282   91.5792   66.2464  107.4391   92.9814  107.1905  112.1782   82.2768   97.2184   84.8121  104.3006   77.3273   71.3178    0.0208
  weight sum           429       109     35831       980       247     13106      1361       599      6910      1313       544       582      3561       491      1311      1613      6646      3164       419      1005      4423      2084      2080      1710       704       446        33
  precision         0.1248    0.1248    0.1248    0.1248    0.1248    0.1248    0.1248    0.1248    0.1248    0.1248    0.1248    0.1248    0.1248    0.1248    0.1248    0.1248    0.1248    0.1248    0.1248    0.1248    0.1248    0.1248    0.1248    0.1248    0.1248    0.1248    0.1248

1Melogram(st)
  mean             14.3645   56.5827    4.9295   25.3245   49.3918   53.2812    14.256   55.2076   50.4037   53.0165   51.1216   20.5647   48.4912   15.2451   50.9419    51.089   46.5516   49.7864   18.1628   20.9437    12.231   42.8431   54.0704   16.9436   50.6286    40.174         0
  std. dev.        25.1228    8.9962   15.6282   25.0675    4.6052    14.633   24.6395    7.3502   15.4597   11.3502   17.8042   26.9454   16.2162   25.9051   14.5333     9.813    20.484   16.8012   26.6158   27.4663   22.9916   22.5552   14.2652    26.274   11.5084   18.3961    0.0041
  weight sum           429       109     35831       980       247     13106      1361       599      6910      1313       544       582      3561       491      1311      1613      6646      3164       419      1005      4423      2084      2080      1710       704       446        33
  precision         0.0246    0.0246    0.0246    0.0246    0.0246    0.0246    0.0246    0.0246    0.0246    0.0246    0.0246    0.0246    0.0246    0.0246    0.0246    0.0246    0.0246    0.0246    0.0246    0.0246    0.0246    0.0246    0.0246    0.0246    0.0246    0.0246    0.0246

1ZCross
  mean              8.6263    3.4928    0.2535    0.9954     3.344    7.6556    1.6523    4.1942    5.2659    4.1291    4.6044    0.6301    3.7314    3.8397    2.8999    3.3331    4.4315    2.5136    4.2429    1.0209    3.6677    3.2398    4.0992     0.817     3.257    1.5047         0
  std. dev.        12.8551     2.655    1.1335    1.7306    2.4749    4.3982    3.6493    1.8633    3.2124    2.2988    2.8002     1.563    3.2172    3.8168    1.5523    2.0447    3.0586    1.6801    7.2062    2.3298    7.0481    2.5951    2.9273    1.7098    2.0151    1.7367    0.1792
  weight sum           429       109     35831       980       247     13106      1361       599      6910      1313       544       582      3561       491      1311      1613      6646      3164       419      1005      4423      2084      2080      1710       704       446        33
  precision         1.0755    1.0755    1.0755    1.0755    1.0755    1.0755    1.0755    1.0755    1.0755    1.0755    1.0755    1.0755    1.0755    1.0755    1.0755    1.0755    1.0755    1.0755    1.0755    1.0755    1.0755    1.0755    1.0755    1.0755    1.0755    1.0755    1.0755

1F1(Hz)
  mean            128.2914  606.6561   53.8376   377.559  445.9981  707.5898   96.5191  478.7776   463.877  517.6211  493.6582  264.6058  361.6146  444.4025  431.9925  470.7042  484.2054  464.4221  178.9209  229.5986  173.7896  482.9867  498.0573  114.8691  481.3778  339.0682         0
  std. dev.       253.6563  135.8221  166.7243  301.1992   84.9548  255.0771  210.0173  132.9683   146.053  153.3903  193.7355  331.4298  144.1442  346.8653  162.9402  139.8782  226.2125  156.5183  244.9245   293.483  278.8392   236.414   307.944  211.3763  170.3673  184.8167    0.0608
  weight sum           429       109     35831       980       247     13106      1361       599      6910      1313       544       582      3561       491      1311      1613      6646      3164       419      1005      4423      2084      2080      1710       704       446        33
  precision         0.3648    0.3648    0.3648    0.3648    0.3648    0.3648    0.3648    0.3648    0.3648    0.3648    0.3648    0.3648    0.3648    0.3648    0.3648    0.3648    0.3648    0.3648    0.3648    0.3648    0.3648    0.3648    0.3648    0.3648    0.3648    0.3648    0.3648

1F2(Hz)
  mean             388.191 1642.3654   168.567 1087.3619 1933.3843 1459.3145   281.343 1574.8537  1785.616 1484.0387  1685.462  688.1209 1974.0792 1247.7422 1666.6278 1669.5867 1140.4987 1596.3773  719.3351  681.5872  542.5552 1365.7541  1053.554  382.8591 1565.3074 1340.2619         0
  std. dev.       735.3138  128.3605   516.644  847.2366  347.9232  396.5725  626.9333  345.2052  528.1297  321.3149  595.4503  840.7309  669.1502  913.5333  436.4381  340.5242  535.6978  455.6778  956.3571  841.6713  844.8303  621.6712  426.6176  686.2131  417.5257  668.9618    0.0738
  weight sum           429       109     35831       980       247     13106      1361       599      6910      1313       544       582      3561       491      1311      1613      6646      3164       419      1005      4423      2084      2080      1710       704       446        33
  precision         0.4429    0.4429    0.4429    0.4429    0.4429    0.4429    0.4429    0.4429    0.4429    0.4429    0.4429    0.4429    0.4429    0.4429    0.4429    0.4429    0.4429    0.4429    0.4429    0.4429    0.4429    0.4429    0.4429    0.4429    0.4429    0.4429    0.4429

1F3(Hz)
  mean            640.1455 2864.7468  287.4269  1776.831 2525.9047 2721.5862  515.2883 2756.1064 2619.8245 2868.9125 2892.2992 1172.7962 2655.6632  1839.866 2749.0804 2811.0606  2499.568 2757.8361 1074.4145 1159.6036  901.6451 2375.2496  2673.852  691.9532 2666.5649 2305.4337         0
  std. dev.      1212.3465  414.6611  866.0225 1323.5103  113.6465   730.267  1108.999  469.1644  786.5019  503.7764  938.5627 1427.4483  922.4738 1336.2367  565.8469   581.352 1024.8703  674.8642 1393.0709  1419.103 1388.2759  1088.151  787.5699 1228.7246  680.3656 1165.4962    0.1103
  weight sum           429       109     35831       980       247     13106      1361       599      6910      1313       544       582      3561       491      1311      1613      6646      3164       419      1005      4423      2084      2080      1710       704       446        33
  precision          0.662     0.662     0.662     0.662     0.662     0.662     0.662     0.662     0.662     0.662     0.662     0.662     0.662     0.662     0.662     0.662     0.662     0.662     0.662     0.662     0.662     0.662     0.662     0.662     0.662     0.662     0.662

1F4(Hz)
  mean            759.1191 3240.2202  345.4959  2212.445 3589.7874 3133.6693  600.4093 3298.5511 3157.1809  3321.865  2929.841 1351.3161 3159.0187 2300.3113 3313.8615 3236.6187 2876.1426 3165.1653 1296.8087 1381.1823 1018.8495 2747.0761  3063.919  796.0222 3234.2907 2673.9087         0
  std. dev.      1437.6027  405.9827 1038.6519 1634.5471   90.0103  828.2659 1293.8916  440.6092  913.7543  550.7347  952.5181 1634.1033 1054.7924 1658.6161  611.0322  588.5113 1161.7476   778.559 1692.8335 1668.5326 1566.5853 1205.2967  806.6532 1418.5861  713.2798 1340.9217    0.1138
  weight sum           429       109     35831       980       247     13106      1361       599      6910      1313       544       582      3561       491      1311      1613      6646      3164       419      1005      4423      2084      2080      1710       704       446        33
  precision         0.6829    0.6829    0.6829    0.6829    0.6829    0.6829    0.6829    0.6829    0.6829    0.6829    0.6829    0.6829    0.6829    0.6829    0.6829    0.6829    0.6829    0.6829    0.6829    0.6829    0.6829    0.6829    0.6829    0.6829    0.6829    0.6829    0.6829

2Int(dB)
  mean             -19.167  -11.1625   -48.307  -21.3733  -10.7149   -2.8733  -23.7499   -5.8567    -5.199   -7.7016    -7.722  -22.1621    -8.676  -15.7996   -7.5498   -8.2338   -8.1936   -9.4747  -21.6533  -22.2328  -21.7905  -11.9633   -5.0927   -24.646   -9.0796  -16.2809  -26.9132
  std. dev.         8.1498    4.3485   16.1116   11.2969    6.3965     8.153    10.064    4.2899    8.0531     6.187    8.0048     5.303    8.3577    6.1062    5.9847    5.7838   12.2208    7.8239   11.1291    10.732    6.5355    9.4776    7.5769   10.6113    6.5355    4.7292    1.9983
  weight sum           429       109     35831       980       247     13106      1361       599      6910      1313       544       582      3561       491      1311      1613      6646      3164       419      1005      4423      2084      2080      1710       704       446        33
  precision         0.1037    0.1037    0.1037    0.1037    0.1037    0.1037    0.1037    0.1037    0.1037    0.1037    0.1037    0.1037    0.1037    0.1037    0.1037    0.1037    0.1037    0.1037    0.1037    0.1037    0.1037    0.1037    0.1037    0.1037    0.1037    0.1037    0.1037

2Pitch(Hz)
  mean             56.1744  245.4989   16.3387   78.7475  147.7994  226.6129   58.8225  216.1719  190.3791  202.2426  211.6788   72.9488  173.4856   151.728  194.2012  174.5722  178.0537  188.9788   86.5762   82.9837   43.4105  161.9067  229.8416   76.3545   178.673  113.0563         0
  std. dev.       103.5574  122.1103   55.7285   86.2324   39.2295  103.4134  100.8457   72.2007   87.7367   84.5819  101.7909  114.3539   76.0683  131.4173    87.328   64.1927  105.2226   90.9256  117.3245  113.9286   87.1375   95.8943   83.5753  112.1165   71.4053   69.2765    0.0207
  weight sum           429       109     35831       980       247     13106      1361       599      6910      1313       544       582      3561       491      1311      1613      6646      3164       419      1005      4423      2084      2080      1710       704       446        33
  precision         0.1242    0.1242    0.1242    0.1242    0.1242    0.1242    0.1242    0.1242    0.1242    0.1242    0.1242    0.1242    0.1242    0.1242    0.1242    0.1242    0.1242    0.1242    0.1242    0.1242    0.1242    0.1242    0.1242    0.1242    0.1242    0.1242    0.1242

2RawPitch
  mean             36.8283  237.1082   13.3731   61.0304  126.6695   217.004   41.3269   214.048   185.837  195.8324  201.3727     35.58  166.2787   93.7222  183.0521  158.1521  172.2852  175.0833   46.7847   64.3873   22.8249  155.0697  220.9278   51.7319  164.1733   78.1119         0
  std. dev.        86.8567  131.2913   50.3492   83.1284   81.3085  109.5778   87.5523   75.3247   95.0002    94.326  112.4119   76.9137   83.0617  112.7751   98.5689   79.0227  112.5036  104.3204   94.8817  108.0557   65.5791  103.4592   92.1417   97.0795   83.6029   77.8304    0.0207
  weight sum           429       109     35831       980       247     13106      1361       599      6910      1313       544       582      3561       491      1311      1613      6646      3164       419      1005      4423      2084      2080      1710       704       446        33
  precision         0.1243    0.1243    0.1243    0.1243    0.1243    0.1243    0.1243    0.1243    0.1243    0.1243    0.1243    0.1243    0.1243    0.1243    0.1243    0.1243    0.1243    0.1243    0.1243    0.1243    0.1243    0.1243    0.1243    0.1243    0.1243    0.1243    0.1243

2SmPitch
  mean             51.4241   245.493   14.7411   72.3683   149.744  224.9527   50.8196  216.1717  188.9642  201.7614  210.3094   55.3229  171.0525  109.2932  191.0026  172.7326  175.9682  185.8484   68.5748   73.3523   35.9417  158.7909  229.2536   65.8623  174.6514  108.4533         0
  std. dev.        99.8801  122.1055   51.9302   83.0011   37.1513  104.9064     96.64   72.2005   88.9263   85.5097  103.3642   95.8289   78.7886  136.8568   91.9871   66.4974  107.3853     93.87  109.6847  111.7359   80.8162   97.5388   84.0032   107.596   76.2155     71.34    0.0208
  weight sum           429       109     35831       980       247     13106      1361       599      6910      1313       544       582      3561       491      1311      1613      6646      3164       419      1005      4423      2084      2080      1710       704       446        33
  precision         0.1248    0.1248    0.1248    0.1248    0.1248    0.1248    0.1248    0.1248    0.1248    0.1248    0.1248    0.1248    0.1248    0.1248    0.1248    0.1248    0.1248    0.1248    0.1248    0.1248    0.1248    0.1248    0.1248    0.1248    0.1248    0.1248    0.1248

2Melogram(st)
  mean             15.0364   56.5644    4.8255   24.5896   49.4453   53.3304   15.5492   55.2167   50.4842   53.0765   51.0353   20.2223   48.6341   15.3027    50.967   51.0478   46.4749   49.5504   19.1315   21.5242   11.7665   42.8546   54.3072   18.3824   50.8827   40.1928         0
  std. dev.        25.5007    9.0321   15.4833   25.0323    4.6454   14.5188   25.3908    7.3415   15.3213   11.1742    17.943   26.8757   15.9951   25.9932   14.5387    9.8934   20.5262   17.1147   26.9971   27.5209   22.7033   22.5632   13.7628   26.8468   11.0179   18.4023    0.0041
  weight sum           429       109     35831       980       247     13106      1361       599      6910      1313       544       582      3561       491      1311      1613      6646      3164       419      1005      4423      2084      2080      1710       704       446        33
  precision         0.0246    0.0246    0.0246    0.0246    0.0246    0.0246    0.0246    0.0246    0.0246    0.0246    0.0246    0.0246    0.0246    0.0246    0.0246    0.0246    0.0246    0.0246    0.0246    0.0246    0.0246    0.0246    0.0246    0.0246    0.0246    0.0246    0.0246

2ZCross
  mean              8.6965    3.5125    0.2484    0.9526    3.4311    7.6409    1.7471    4.2516    5.2438    4.1913    4.6044    0.6024    3.7483      3.82    2.9073    3.3424    4.4237    2.4864    4.2993    1.0937    3.6553    3.2352    4.1111    0.9711    3.2829     1.524         0
  std. dev.        12.8365    2.6848    1.1311    1.7085    2.5088    4.4087    3.6599    1.8832    3.2168    2.3027    2.7858    1.5323    3.2275    3.8153     1.545    2.0294    3.0692    1.6824    7.1565    2.3383    7.0516    2.5918    2.9164    1.8529    2.0133    1.7378    0.1792
  weight sum           429       109     35831       980       247     13106      1361       599      6910      1313       544       582      3561       491      1311      1613      6646      3164       419      1005      4423      2084      2080      1710       704       446        33
  precision         1.0755    1.0755    1.0755    1.0755    1.0755    1.0755    1.0755    1.0755    1.0755    1.0755    1.0755    1.0755    1.0755    1.0755    1.0755    1.0755    1.0755    1.0755    1.0755    1.0755    1.0755    1.0755    1.0755    1.0755    1.0755    1.0755    1.0755

2F1(Hz)
  mean            123.1942  610.3237   52.7343  368.3069  446.2683  711.4514  103.9964  479.6898  466.4894  518.4309  493.4169  253.9126    363.75  441.3575  431.6196  469.7752  486.2046  460.1312  179.5033  230.2918  164.4121  481.1626  500.6341  121.5571  481.6653  338.4737         0
  std. dev.       248.6749   136.924   165.102  303.3364   86.2804  251.2217  215.8387  132.7071  142.2388  153.3851  193.2624   328.652  140.8431  349.6798  162.0165  137.8408  225.0865  156.9404  245.2362  291.8796  273.8217  235.4575  305.2064  216.3685  167.2786   184.244    0.0608
  weight sum           429       109     35831       980       247     13106      1361       599      6910      1313       544       582      3561       491      1311      1613      6646      3164       419      1005      4423      2084      2080      1710       704       446        33
  precision         0.3648    0.3648    0.3648    0.3648    0.3648    0.3648    0.3648    0.3648    0.3648    0.3648    0.3648    0.3648    0.3648    0.3648    0.3648    0.3648    0.3648    0.3648    0.3648    0.3648    0.3648    0.3648    0.3648    0.3648    0.3648    0.3648    0.3648

2F2(Hz)
  mean            376.7654 1635.2349  165.1204  1060.434 1928.7405 1464.3906    301.66 1572.2172 1798.4442 1484.1075 1683.3446  663.3563  1993.047 1228.3789 1668.4402 1670.8104 1140.7371 1591.1826  718.1291  683.5759  514.6794 1366.8989 1061.2779  404.8713 1576.6312 1342.8267         0
  std. dev.       728.5768  126.5237   511.871  852.8257  349.1637  386.4941  641.4848  344.4831  511.8666  323.4684  595.5085  836.3005  650.7685   916.305  429.7958  333.6483  531.1147  461.0869  954.1605  837.7058  831.9432  622.7216  416.4942  702.9583  402.2539  670.1431    0.0738
  weight sum           429       109     35831       980       247     13106      1361       599      6910      1313       544       582      3561       491      1311      1613      6646      3164       419      1005      4423      2084      2080      1710       704       446        33
  precision         0.4429    0.4429    0.4429    0.4429    0.4429    0.4429    0.4429    0.4429    0.4429    0.4429    0.4429    0.4429    0.4429    0.4429    0.4429    0.4429    0.4429    0.4429    0.4429    0.4429    0.4429    0.4429    0.4429    0.4429    0.4429    0.4429    0.4429

2F3(Hz)
  mean            616.4638 2865.6822  281.5324 1732.2063 2524.3394 2731.7626  554.9263 2754.3524 2634.9785 2868.2959 2891.9207 1126.9161 2677.3565 1815.2793 2749.5582 2817.0102 2506.4348 2749.7681 1073.0478 1166.3549  854.4172 2375.0752 2694.0925  725.1378 2682.0069 2305.2749         0
  std. dev.      1191.5389  419.1793  858.0649 1335.6596  113.0258  712.9707 1138.7381  469.7834  764.1593  510.0445  938.3439 1415.7652  898.3116 1341.4367  555.7281  574.4479 1018.6433   687.776 1391.3525 1416.0614 1366.2348 1089.0427  755.1652  1247.971  652.7644 1165.0756    0.1103
  weight sum           429       109     35831       980       247     13106      1361       599      6910      1313       544       582      3561       491      1311      1613      6646      3164       419      1005      4423      2084      2080      1710       704       446        33
  precision          0.662     0.662     0.662     0.662     0.662     0.662     0.662     0.662     0.662     0.662     0.662     0.662     0.662     0.662     0.662     0.662     0.662     0.662     0.662     0.662     0.662     0.662     0.662     0.662     0.662     0.662     0.662

2F4(Hz)
  mean              737.11  3236.831  338.5265 2157.8741 3590.7467  3144.537  651.7847 3297.5319   3174.33 3319.7801 2931.5846 1301.8229 3182.3609 2273.9788 3317.6185 3241.5892 2882.7851 3156.8141 1294.2891 1394.6656  966.9549  2746.307 3086.3027  837.3184 3253.5009 2674.3681         0
  std. dev.      1424.4748  401.7635 1029.4118 1650.7102   89.0647  807.8569 1338.2161  439.7233  885.5429  557.8761  953.5669 1625.1562 1024.5862 1668.8588  598.0784  577.5834 1153.5603  794.8923 1689.1398 1671.0354 1544.0952 1207.1513   763.546  1446.252  671.0726 1341.4249    0.1138
  weight sum           429       109     35831       980       247     13106      1361       599      6910      1313       544       582      3561       491      1311      1613      6646      3164       419      1005      4423      2084      2080      1710       704       446        33
  precision         0.6829    0.6829    0.6829    0.6829    0.6829    0.6829    0.6829    0.6829    0.6829    0.6829    0.6829    0.6829    0.6829    0.6829    0.6829    0.6829    0.6829    0.6829    0.6829    0.6829    0.6829    0.6829    0.6829    0.6829    0.6829    0.6829    0.6829





=== Stratified cross-validation ===

Correctly Classified Instances       27675               30.1796 %
Incorrectly Classified Instances     64026               69.8204 %
Kappa statistic                          0.2246
K&B Relative Info Score            1624095.3263 %
K&B Information Score                53465.3952 bits      0.583  bits/instance
Class complexity | order 0          301795.5612 bits      3.2911 bits/instance
Class complexity | scheme          5086192.3918 bits     55.465  bits/instance
Complexity improvement     (Sf)    -4784396.8305 bits    -52.1739 bits/instance
Mean absolute error                      0.052 
Root mean squared error                  0.216 
Relative absolute error                 86.7942 %
Root relative squared error            124.8323 %
Coverage of cases (0.95 level)          36.3268 %
Mean rel. region size (0.95 level)       6.2491 %
Total Number of Instances            91701     


=== Detailed Accuracy By Class ===

                 TP Rate  FP Rate  Precision  Recall   F-Measure  MCC      ROC Area  PRC Area  Class
                 0,203    0,003    0,217      0,203    0,210      0,206    0,643     0,107     ch
                 0,303    0,015    0,024      0,303    0,044      0,081    0,890     0,047     rr
                 0,496    0,015    0,954      0,496    0,653      0,583    0,877     0,856     0
                 0,109    0,021    0,052      0,109    0,071      0,061    0,626     0,034     hs
                 0,939    0,131    0,019      0,939    0,037      0,123    0,954     0,118     hg
                 0,481    0,041    0,664      0,481    0,558      0,506    0,886     0,622     a
                 0,063    0,007    0,120      0,063    0,083      0,077    0,471     0,049     c
                 0,379    0,117    0,021      0,379    0,039      0,065    0,825     0,024     b
                 0,074    0,006    0,517      0,074    0,129      0,174    0,757     0,225     e
                 0,024    0,011    0,032      0,024    0,028      0,016    0,772     0,032     d
                 0,037    0,002    0,094      0,037    0,053      0,055    0,745     0,022     g
                 0,033    0,004    0,050      0,033    0,039      0,035    0,501     0,018     f
                 0,067    0,002    0,579      0,067    0,120      0,188    0,834     0,280     i
                 0,214    0,003    0,271      0,214    0,239      0,237    0,733     0,122     j
                 0,002    0,002    0,010      0,002    0,003      -0,001   0,790     0,037     m
                 0,293    0,050    0,095      0,293    0,143      0,141    0,829     0,069     l
                 0,006    0,003    0,141      0,006    0,011      0,014    0,745     0,169     o
                 0,018    0,010    0,060      0,018    0,028      0,014    0,773     0,077     n
                 0,019    0,001    0,093      0,019    0,032      0,040    0,642     0,025     q
                 0,013    0,002    0,057      0,013    0,021      0,022    0,510     0,028     p
                 0,121    0,002    0,741      0,121    0,209      0,289    0,580     0,274     s
                 0,018    0,005    0,085      0,018    0,030      0,029    0,690     0,043     r
                 0,237    0,004    0,585      0,237    0,337      0,364    0,858     0,323     u
                 0,081    0,008    0,157      0,081    0,107      0,101    0,494     0,061     t
                 0,000    0,002    0,000      0,000    0,000      -0,004   0,750     0,015     v
                 0,150    0,019    0,037      0,150    0,059      0,065    0,843     0,028     y
                 1,000    0,227    0,002      1,000    0,003      0,035    0,897     0,002     z
Weighted Avg.    0,302    0,016    0,605      0,302    0,380      0,356    0,805     0,495     


=== Confusion Matrix ===

     a     b     c     d     e     f     g     h     i     j     k     l     m     n     o     p     q     r     s     t     u     v     w     x     y     z    aa   <-- classified as
    87    14    24     5    13    11    34     6     1     3     0     5     1     3     0     9     1     9     3     3    48     1     0     7     0     0   141 |     a = ch
     0    33     0     0    50    10     0     6     0     2     0     0     0     0     0     3     0     0     0     0     0     0     0     0     0     5     0 |     b = rr
     1   135 17779   475   910   112    39   585    24   116     0    84    50    18    30   461    17   244     0    30    14    48    23   128    21   303 14184 |     c = 0
     0    14    31   107   274    21     2    49     2     5     0    15     2     5     0    45     0     7     0     0     7    18     2     0     4    71   299 |     d = hs
     0     1     0     0   232     0     0    10     0     2     0     0     0     0     0     1     0     1     0     0     0     0     0     0     0     0     0 |     e = hg
     3   261    91   118  1903  6302    58  2160    95   488     0    22     6    63     0   709    83    38    18    24     4   102    29    63    21   130   315 |     f = a
    38     1    84    54    41     1    86    35     3     4     0    18     4    18     0    19    14    25     8    18    43    12    10   104     0    15   706 |     g = c
     0    29     0     0   180    49     0   227     0     1    11     0     0     0     0    75     0     2     0     0     0     2    20     0     0     3     0 |     h = b
     0    94    17   132  2614   770    43  1596   510    10    63     9    17    25    10   428    47    62     7    25     0    20    17    57     0    92   245 |     i = e
     0    64     9    16   372   141     0   485     5    32     6     5     0     0     0   136     0     3     0     0     0     6     0     0     0    26     7 |     j = d
     0    17     1    12   141    91     0   148     0     2    20     4    18     0     2    47     0     3     0     0     2     1     0     4     0     1    30 |     k = g
     0    29    14    54    37     6     8    22     4     0     3    19     0     2     0    11     1    18     0     0     6    11     0    27     7    23   280 |     l = f
     0     4    23    68   895   166    33   744   208     0    42     5   238     8    93   520    13    12     2    25     1    14     1    60     0   232   154 |     m = i
     1    10    25    34    23    49     4    26     5     0     0     9     1   105     5     1     6    26     6     1     4    29     0     9     0    10   102 |     n = j
     0    17     1    46   516    81     0   353     0    23     0     1     1     0     2   182     0     1     0     1     0     0    37     5     0    24    20 |     o = m
     0    74     1    18   553    56     1   329    11     2     0     3     0     0     3   473     3    12     1     7     0     3     1    13     0    41     8 |     p = l
     2   126    25   186  1146   915    14  1866    49   195     0    18     3    23     6   635    38    44    12    29     1    23   182    38    88   298   684 |     q = o
     0   163     9   138   930   152     0   948    15    11    24     8    23     0     2   400     1    57     0     0     0     6    22     3     0   141   111 |     r = n
    36     0    22    17    31    12    26    11     5     7     0     5     2    11     1     7     0    27     8     0    35     2     0    10     0    10   134 |     s = q
     0    18    45    75    65    31    31    26     0     8     5    23     1     2     0    58     3    37     4    13     1    35     1    39     0    36   448 |     t = p
   233   115   314   263   131    83   218    25    21    26     3    65    28    76    13   124     9   149     6     3   537    39     2    68     1   112  1759 |     u = s
     0   116    23   109   416   136     9   403    18    23    36    17     9     3     2   320     4    66     1     6     2    38     2    38    11    52   224 |     v = r
     0    16     5    18   155   246    10   664     2    25     0     3     1     3     9   213    14     7     0    15     0    11   493    39    10    95    26 |     w = u
     0    35    81    89    54     5    97    36     1     8     0    38     6    21     1    12    14    94    10    26     7    24     1   139     0    22   889 |     x = t
     0     0     2     5   363    50     0   141     8     0     0     2     0     0    13    65     0     6     0     0     0     3     0    14     0    24     8 |     y = v
     0     0     9    12   193     0     5    30     0     1     0     5     0     2     0    46     1     7     0     3    13     1     0    19     0    67    32 |     z = y
     0     0     0     0     0     0     0     0     0     0     0     0     0     0     0     0     0     0     0     0     0     0     0     0     0     0    33 |    aa = z

=== Percent Confusion Matrix ===
a	b	c	d	e	f	g	h	i	j	k	l	m	n	o	p	q	r	s	t	u	v	w	x	y	z	aa	
20.28	3.26	5.59	1.17	3.03	2.56	7.93	1.4	0.23	0.7	0.0	1.17	0.23	0.7	0.0	2.1	0.23	2.1	0.7	0.7	11.19	0.23	0.0	1.63	0.0	0.0	32.87	 a = ch
0.0	30.28	0.0	0.0	45.87	9.17	0.0	5.5	0.0	1.83	0.0	0.0	0.0	0.0	0.0	2.75	0.0	0.0	0.0	0.0	0.0	0.0	0.0	0.0	0.0	4.59	0.0	 b = rr
0.0	0.38	49.62	1.33	2.54	0.31	0.11	1.63	0.07	0.32	0.0	0.23	0.14	0.05	0.08	1.29	0.05	0.68	0.0	0.08	0.04	0.13	0.06	0.36	0.06	0.85	39.59	 c = 0
0.0	1.43	3.16	10.92	27.96	2.14	0.2	5.0	0.2	0.51	0.0	1.53	0.2	0.51	0.0	4.59	0.0	0.71	0.0	0.0	0.71	1.84	0.2	0.0	0.41	7.24	30.51	 d = hs
0.0	0.4	0.0	0.0	93.93	0.0	0.0	4.05	0.0	0.81	0.0	0.0	0.0	0.0	0.0	0.4	0.0	0.4	0.0	0.0	0.0	0.0	0.0	0.0	0.0	0.0	0.0	 e = hg
0.02	1.99	0.69	0.9	14.52	48.08	0.44	16.48	0.72	3.72	0.0	0.17	0.05	0.48	0.0	5.41	0.63	0.29	0.14	0.18	0.03	0.78	0.22	0.48	0.16	0.99	2.4	 f = a
2.79	0.07	6.17	3.97	3.01	0.07	6.32	2.57	0.22	0.29	0.0	1.32	0.29	1.32	0.0	1.4	1.03	1.84	0.59	1.32	3.16	0.88	0.73	7.64	0.0	1.1	51.87	 g = c
0.0	4.84	0.0	0.0	30.05	8.18	0.0	37.9	0.0	0.17	1.84	0.0	0.0	0.0	0.0	12.52	0.0	0.33	0.0	0.0	0.0	0.33	3.34	0.0	0.0	0.5	0.0	 h = b
0.0	1.36	0.25	1.91	37.83	11.14	0.62	23.1	7.38	0.14	0.91	0.13	0.25	0.36	0.14	6.19	0.68	0.9	0.1	0.36	0.0	0.29	0.25	0.82	0.0	1.33	3.55	 i = e
0.0	4.87	0.69	1.22	28.33	10.74	0.0	36.94	0.38	2.44	0.46	0.38	0.0	0.0	0.0	10.36	0.0	0.23	0.0	0.0	0.0	0.46	0.0	0.0	0.0	1.98	0.53	 j = d
0.0	3.13	0.18	2.21	25.92	16.73	0.0	27.21	0.0	0.37	3.68	0.74	3.31	0.0	0.37	8.64	0.0	0.55	0.0	0.0	0.37	0.18	0.0	0.74	0.0	0.18	5.51	 k = g
0.0	4.98	2.41	9.28	6.36	1.03	1.37	3.78	0.69	0.0	0.52	3.26	0.0	0.34	0.0	1.89	0.17	3.09	0.0	0.0	1.03	1.89	0.0	4.64	1.2	3.95	48.11	 l = f
0.0	0.11	0.65	1.91	25.13	4.66	0.93	20.89	5.84	0.0	1.18	0.14	6.68	0.22	2.61	14.6	0.37	0.34	0.06	0.7	0.03	0.39	0.03	1.68	0.0	6.52	4.32	 m = i
0.2	2.04	5.09	6.92	4.68	9.98	0.81	5.3	1.02	0.0	0.0	1.83	0.2	21.38	1.02	0.2	1.22	5.3	1.22	0.2	0.81	5.91	0.0	1.83	0.0	2.04	20.77	 n = j
0.0	1.3	0.08	3.51	39.36	6.18	0.0	26.93	0.0	1.75	0.0	0.08	0.08	0.0	0.15	13.88	0.0	0.08	0.0	0.08	0.0	0.0	2.82	0.38	0.0	1.83	1.53	 o = m
0.0	4.59	0.06	1.12	34.28	3.47	0.06	20.4	0.68	0.12	0.0	0.19	0.0	0.0	0.19	29.32	0.19	0.74	0.06	0.43	0.0	0.19	0.06	0.81	0.0	2.54	0.5	 p = l
0.03	1.9	0.38	2.8	17.24	13.77	0.21	28.08	0.74	2.93	0.0	0.27	0.05	0.35	0.09	9.55	0.57	0.66	0.18	0.44	0.02	0.35	2.74	0.57	1.32	4.48	10.29	 q = o
0.0	5.15	0.28	4.36	29.39	4.8	0.0	29.96	0.47	0.35	0.76	0.25	0.73	0.0	0.06	12.64	0.03	1.8	0.0	0.0	0.0	0.19	0.7	0.09	0.0	4.46	3.51	 r = n
8.59	0.0	5.25	4.06	7.4	2.86	6.21	2.63	1.19	1.67	0.0	1.19	0.48	2.63	0.24	1.67	0.0	6.44	1.91	0.0	8.35	0.48	0.0	2.39	0.0	2.39	31.98	 s = q
0.0	1.79	4.48	7.46	6.47	3.08	3.08	2.59	0.0	0.8	0.5	2.29	0.1	0.2	0.0	5.77	0.3	3.68	0.4	1.29	0.1	3.48	0.1	3.88	0.0	3.58	44.58	 t = p
5.27	2.6	7.1	5.95	2.96	1.88	4.93	0.57	0.47	0.59	0.07	1.47	0.63	1.72	0.29	2.8	0.2	3.37	0.14	0.07	12.14	0.88	0.05	1.54	0.02	2.53	39.77	 u = s
0.0	5.57	1.1	5.23	19.96	6.53	0.43	19.34	0.86	1.1	1.73	0.82	0.43	0.14	0.1	15.36	0.19	3.17	0.05	0.29	0.1	1.82	0.1	1.82	0.53	2.5	10.75	 v = r
0.0	0.77	0.24	0.87	7.45	11.83	0.48	31.92	0.1	1.2	0.0	0.14	0.05	0.14	0.43	10.24	0.67	0.34	0.0	0.72	0.0	0.53	23.7	1.88	0.48	4.57	1.25	 w = u
0.0	2.05	4.74	5.2	3.16	0.29	5.67	2.11	0.06	0.47	0.0	2.22	0.35	1.23	0.06	0.7	0.82	5.5	0.58	1.52	0.41	1.4	0.06	8.13	0.0	1.29	51.99	 x = t
0.0	0.0	0.28	0.71	51.56	7.1	0.0	20.03	1.14	0.0	0.0	0.28	0.0	0.0	1.85	9.23	0.0	0.85	0.0	0.0	0.0	0.43	0.0	1.99	0.0	3.41	1.14	 y = v
0.0	0.0	2.02	2.69	43.27	0.0	1.12	6.73	0.0	0.22	0.0	1.12	0.0	0.45	0.0	10.31	0.22	1.57	0.0	0.67	2.91	0.22	0.0	4.26	0.0	15.02	7.17	 z = y
0.0	0.0	0.0	0.0	0.0	0.0	0.0	0.0	0.0	0.0	0.0	0.0	0.0	0.0	0.0	0.0	0.0	0.0	0.0	0.0	0.0	0.0	0.0	0.0	0.0	0.0	100.0	 aa = z
