Timestamp:2013-07-22-20:32:11
Inventario:I0
Intervalo:2ms
Ngramas:4
Clasificador:RandomForest
Relation Name:  I0-2ms-4gramas
Num Instances:  91700
Num Attributes: 41

     Name                      Type  Nom  Int Real     Missing      Unique  Dist
   1 0Int(dB)                   Num   0%   9%  91%     0 /  0%     4 /  0%   779 
   2 0Pitch(Hz)                 Num   0%  52%  48%     0 /  0%   471 /  1%  4016 
   3 0RawPitch                  Num   0%  55%  45%     0 /  0%   550 /  1%  4014 
   4 0SmPitch                   Num   0%  53%  47%     0 /  0%   491 /  1%  3998 
   5 0Melogram(st)              Num   0%  49%  51%     0 /  0%   212 /  0%  3363 
   6 0ZCross                    Num   0% 100%   0%     0 /  0%     6 /  0%    54 
   7 0F1(Hz)                    Num   0%  52%  48%     0 /  0%  1126 /  1%  4776 
   8 0F2(Hz)                    Num   0%  52%  48%     0 /  0%  2304 /  3%  6727 
   9 0F3(Hz)                    Num   0%  52%  48%     0 /  0%  1967 /  2%  6224 
  10 0F4(Hz)                    Num   0%  52%  48%     0 /  0%  1884 /  2%  6074 
  11 1Int(dB)                   Num   0%   9%  91%     0 /  0%     4 /  0%   779 
  12 1Pitch(Hz)                 Num   0%  52%  48%     0 /  0%   471 /  1%  4016 
  13 1RawPitch                  Num   0%  55%  45%     0 /  0%   550 /  1%  4014 
  14 1SmPitch                   Num   0%  53%  47%     0 /  0%   491 /  1%  3998 
  15 1Melogram(st)              Num   0%  49%  51%     0 /  0%   212 /  0%  3363 
  16 1ZCross                    Num   0% 100%   0%     0 /  0%     6 /  0%    54 
  17 1F1(Hz)                    Num   0%  52%  48%     0 /  0%  1126 /  1%  4776 
  18 1F2(Hz)                    Num   0%  52%  48%     0 /  0%  2304 /  3%  6727 
  19 1F3(Hz)                    Num   0%  52%  48%     0 /  0%  1967 /  2%  6224 
  20 1F4(Hz)                    Num   0%  52%  48%     0 /  0%  1884 /  2%  6074 
  21 2Int(dB)                   Num   0%   9%  91%     0 /  0%     5 /  0%   780 
  22 2Pitch(Hz)                 Num   0%  52%  48%     0 /  0%   471 /  1%  4016 
  23 2RawPitch                  Num   0%  55%  45%     0 /  0%   550 /  1%  4014 
  24 2SmPitch                   Num   0%  53%  47%     0 /  0%   491 /  1%  3998 
  25 2Melogram(st)              Num   0%  49%  51%     0 /  0%   212 /  0%  3363 
  26 2ZCross                    Num   0% 100%   0%     0 /  0%     6 /  0%    54 
  27 2F1(Hz)                    Num   0%  52%  48%     0 /  0%  1126 /  1%  4776 
  28 2F2(Hz)                    Num   0%  52%  48%     0 /  0%  2304 /  3%  6727 
  29 2F3(Hz)                    Num   0%  52%  48%     0 /  0%  1967 /  2%  6224 
  30 2F4(Hz)                    Num   0%  52%  48%     0 /  0%  1884 /  2%  6074 
  31 3Int(dB)                   Num   0%   9%  91%     0 /  0%     6 /  0%   781 
  32 3Pitch(Hz)                 Num   0%  52%  48%     0 /  0%   471 /  1%  4016 
  33 3RawPitch                  Num   0%  55%  45%     0 /  0%   550 /  1%  4014 
  34 3SmPitch                   Num   0%  53%  47%     0 /  0%   491 /  1%  3998 
  35 3Melogram(st)              Num   0%  49%  51%     0 /  0%   212 /  0%  3363 
  36 3ZCross                    Num   0% 100%   0%     0 /  0%     6 /  0%    54 
  37 3F1(Hz)                    Num   0%  52%  48%     0 /  0%  1126 /  1%  4776 
  38 3F2(Hz)                    Num   0%  52%  48%     0 /  0%  2304 /  3%  6727 
  39 3F3(Hz)                    Num   0%  52%  48%     0 /  0%  1967 /  2%  6224 
  40 3F4(Hz)                    Num   0%  52%  48%     0 /  0%  1884 /  2%  6074 
  41 class                      Nom 100%   0%   0%     0 /  0%     0 /  0%    27 


Options: -I 10 -K 0 -S 1 -num-slots 4 

Random forest of 10 trees, each constructed while considering 6 random features.
Out of bag error: 0.1564





=== Stratified cross-validation ===

Correctly Classified Instances       80673               87.9749 %
Incorrectly Classified Instances     11027               12.0251 %
Kappa statistic                          0.8492
K&B Relative Info Score            7510082.2491 %
K&B Information Score               247237.479  bits      2.6962 bits/instance
Class complexity | order 0          301794.2055 bits      3.2911 bits/instance
Class complexity | scheme          4796318.1877 bits     52.3045 bits/instance
Complexity improvement     (Sf)    -4494523.9822 bits    -49.0133 bits/instance
Mean absolute error                      0.0148
Root mean squared error                  0.0836
Relative absolute error                 24.6847 %
Root relative squared error             48.3021 %
Coverage of cases (0.95 level)          95.1592 %
Mean rel. region size (0.95 level)       7.7253 %
Total Number of Instances            91700     


=== Detailed Accuracy By Class ===

                 TP Rate  FP Rate  Precision  Recall   F-Measure  MCC      ROC Area  PRC Area  Class
                 0,361    0,002    0,468      0,361    0,408      0,409    0,809     0,375     ch
                 0,945    0,000    0,945      0,945    0,945      0,945    1,000     0,965     rr
                 0,957    0,075    0,891      0,957    0,923      0,872    0,983     0,966     0
                 0,637    0,002    0,783      0,637    0,702      0,703    0,864     0,662     hs
                 0,899    0,000    0,957      0,899    0,927      0,927    0,996     0,965     hg
                 0,948    0,012    0,931      0,948    0,939      0,929    0,986     0,969     a
                 0,345    0,007    0,436      0,345    0,385      0,380    0,818     0,301     c
                 0,938    0,000    0,972      0,938    0,955      0,955    0,997     0,981     b
                 0,919    0,008    0,907      0,919    0,913      0,906    0,979     0,945     e
                 0,906    0,001    0,933      0,906    0,919      0,918    0,994     0,959     d
                 0,873    0,000    0,954      0,873    0,912      0,912    0,971     0,921     g
                 0,452    0,003    0,530      0,452    0,488      0,487    0,854     0,460     f
                 0,898    0,003    0,917      0,898    0,907      0,903    0,973     0,929     i
                 0,658    0,001    0,792      0,658    0,719      0,720    0,906     0,707     j
                 0,928    0,001    0,960      0,928    0,943      0,943    0,989     0,962     m
                 0,912    0,001    0,941      0,912    0,926      0,925    0,993     0,955     l
                 0,851    0,006    0,912      0,851    0,881      0,872    0,955     0,895     o
                 0,919    0,002    0,945      0,919    0,932      0,930    0,983     0,949     n
                 0,403    0,001    0,650      0,403    0,498      0,510    0,822     0,446     q
                 0,407    0,003    0,585      0,407    0,480      0,483    0,830     0,431     p
                 0,717    0,016    0,695      0,717    0,706      0,691    0,946     0,742     s
                 0,771    0,002    0,903      0,771    0,832      0,831    0,949     0,844     r
                 0,928    0,001    0,964      0,928    0,945      0,944    0,986     0,960     u
                 0,313    0,007    0,460      0,313    0,373      0,370    0,832     0,331     t
                 0,874    0,000    0,955      0,874    0,912      0,913    0,987     0,936     v
                 0,805    0,000    0,930      0,805    0,863      0,865    0,946     0,855     y
                 0,000    0,000    0,000      0,000    0,000      -0,000   0,514     0,000     z
Weighted Avg.    0,880    0,033    0,874      0,880    0,875      0,852    0,967     0,902     


=== Confusion Matrix ===

     a     b     c     d     e     f     g     h     i     j     k     l     m     n     o     p     q     r     s     t     u     v     w     x     y     z    aa   <-- classified as
   155     0    61     1     0     5    22     0     5     0     0     3     1     2     0     0     4     2     5     5   133     2     0    21     1     0     1 |     a = ch
     0   103     0     0     0     1     0     0     4     0     0     0     0     0     0     0     0     1     0     0     0     0     0     0     0     0     0 |     b = rr
    26     0 34274    59     4   163   152     3   132     9     5    45    66     7     7    17   174    32    20    74   363    37    10   140     6     2     3 |     c = 0
     2     0   230   624     0    12     6     0    11     2     0     2     2     2     0     0    13     0     1    10    44     5     1    11     0     0     2 |     d = hs
     0     0     5     0   222     7     0     0     8     0     0     0     4     0     0     0     0     0     0     0     0     0     1     0     0     0     0 |     e = hg
     8     2   289    12     1 12422    52     2    40     9     2    11    19     4     5    25    25    19     3    13    46    33     4    50     3     7     0 |     f = a
    25     0   433     5     0    50   469     0    32     0     0    11    11     9     0     1    27     3    35    14   124     8     3    97     0     2     2 |     g = c
     0     0     3     0     0    10     0   562     6     0     0     0     8     0     1     0     2     0     0     0     0     2     5     0     0     0     0 |     h = b
     1     1   224     7     2    66    33     1  6349    13     3     7    13     2     5     9    34    25     7    15    32    12    10    32     7     0     0 |     i = e
     0     0    24     1     0    24     0     1    26  1189     0     1     4     0     0     0    25    10     0     1     0     3     3     0     0     1     0 |     j = d
     0     0    21     0     0    15     0     0    11     1   475     1     4     0     0     0     0     0     0     0     8     1     3     4     0     0     0 |     k = g
     5     0    94     3     0    11    12     0     7     0     0   263     3     6     0     0    14     4     0     7   136     7     0     8     0     2     0 |     l = f
     2     0   156     5     1    18    11     3    56     1     1     2  3196     1     3     7    10     4     3     9    30     9     3    24     5     1     0 |     m = i
     2     0    31     5     0    16     7     0     6     0     0    11     2   323     0     0     5     4     0     1    63     2     1    10     0     2     0 |     n = j
     0     0    23     0     0     7     2     0    12     1     0     0    16     0  1216     1    15     0     0     5     0     0     6     7     0     0     0 |     o = m
     1     0    26     0     0    52     1     0    19     0     1     0    12     0     2  1471    14     4     0     0     1     3     3     2     1     0     0 |     p = l
     6     1   601    11     1    87    21     2    44    25     1    10     7     5    16    14  5657    17     2    14    62     5     7    25     4     1     0 |     q = o
     0     2    78     2     1    44     2     0    32    10     0     6     2     3     0     3    25  2909     1     6    22     2     1    13     0     0     0 |     r = n
    17     0   107     0     0     4    42     0    15     0     0     1     9     3     0     0     2     2   169     0    31     0     1    16     0     0     0 |     s = q
     4     0   294    11     0    42    34     0    32     0     0    12    11     2     3     1    22     3     1   409    66     6     2    49     1     0     0 |     t = p
    56     0   649    25     0    64    69     1    28     3     5    83    29    21     1     2    46    15     6    50  3170    11     1    75     1     6     6 |     u = s
     1     0   167     8     0   107    13     2    47     5     0     5    16     2     0     6    26     3     0    11    32  1606     0    25     0     2     0 |     v = r
     0     0    35     2     0    14     7     1    18     2     2     1    13     4     4     6    11     2     1     3     2     4  1930    17     0     1     0 |     w = u
    20     0   585    14     0    71   114     0    45     2     2    17    26    11     4     0    37    16     6    47   137    11     7   536     0     0     2 |     x = t
     0     0    16     1     0    16     3     0    16     2     1     1    11     0     0     0    10     4     0     2     3     3     0     0   615     0     0 |     y = v
     0     0    11     1     0    10     2     0     2     1     0     1     2     0     0     1     3     0     0     0    45     5     1     2     0   359     0 |     z = y
     0     0    11     0     0     0     1     0     0     0     0     2     0     1     0     0     0     0     0     3    12     1     0     2     0     0     0 |    aa = z

=== Percent Confusion Matrix ===
a	b	c	d	e	f	g	h	i	j	k	l	m	n	o	p	q	r	s	t	u	v	w	x	y	z	aa	
36.13	0.0	14.22	0.23	0.0	1.17	5.13	0.0	1.17	0.0	0.0	0.7	0.23	0.47	0.0	0.0	0.93	0.47	1.17	1.17	31.0	0.47	0.0	4.9	0.23	0.0	0.23	 a = ch
0.0	94.5	0.0	0.0	0.0	0.92	0.0	0.0	3.67	0.0	0.0	0.0	0.0	0.0	0.0	0.0	0.0	0.92	0.0	0.0	0.0	0.0	0.0	0.0	0.0	0.0	0.0	 b = rr
0.07	0.0	95.66	0.16	0.01	0.45	0.42	0.01	0.37	0.03	0.01	0.13	0.18	0.02	0.02	0.05	0.49	0.09	0.06	0.21	1.01	0.1	0.03	0.39	0.02	0.01	0.01	 c = 0
0.2	0.0	23.47	63.67	0.0	1.22	0.61	0.0	1.12	0.2	0.0	0.2	0.2	0.2	0.0	0.0	1.33	0.0	0.1	1.02	4.49	0.51	0.1	1.12	0.0	0.0	0.2	 d = hs
0.0	0.0	2.02	0.0	89.88	2.83	0.0	0.0	3.24	0.0	0.0	0.0	1.62	0.0	0.0	0.0	0.0	0.0	0.0	0.0	0.0	0.0	0.4	0.0	0.0	0.0	0.0	 e = hg
0.06	0.02	2.21	0.09	0.01	94.78	0.4	0.02	0.31	0.07	0.02	0.08	0.14	0.03	0.04	0.19	0.19	0.14	0.02	0.1	0.35	0.25	0.03	0.38	0.02	0.05	0.0	 f = a
1.84	0.0	31.81	0.37	0.0	3.67	34.46	0.0	2.35	0.0	0.0	0.81	0.81	0.66	0.0	0.07	1.98	0.22	2.57	1.03	9.11	0.59	0.22	7.13	0.0	0.15	0.15	 g = c
0.0	0.0	0.5	0.0	0.0	1.67	0.0	93.82	1.0	0.0	0.0	0.0	1.34	0.0	0.17	0.0	0.33	0.0	0.0	0.0	0.0	0.33	0.83	0.0	0.0	0.0	0.0	 h = b
0.01	0.01	3.24	0.1	0.03	0.96	0.48	0.01	91.88	0.19	0.04	0.1	0.19	0.03	0.07	0.13	0.49	0.36	0.1	0.22	0.46	0.17	0.14	0.46	0.1	0.0	0.0	 i = e
0.0	0.0	1.83	0.08	0.0	1.83	0.0	0.08	1.98	90.56	0.0	0.08	0.3	0.0	0.0	0.0	1.9	0.76	0.0	0.08	0.0	0.23	0.23	0.0	0.0	0.08	0.0	 j = d
0.0	0.0	3.86	0.0	0.0	2.76	0.0	0.0	2.02	0.18	87.32	0.18	0.74	0.0	0.0	0.0	0.0	0.0	0.0	0.0	1.47	0.18	0.55	0.74	0.0	0.0	0.0	 k = g
0.86	0.0	16.15	0.52	0.0	1.89	2.06	0.0	1.2	0.0	0.0	45.19	0.52	1.03	0.0	0.0	2.41	0.69	0.0	1.2	23.37	1.2	0.0	1.37	0.0	0.34	0.0	 l = f
0.06	0.0	4.38	0.14	0.03	0.51	0.31	0.08	1.57	0.03	0.03	0.06	89.75	0.03	0.08	0.2	0.28	0.11	0.08	0.25	0.84	0.25	0.08	0.67	0.14	0.03	0.0	 m = i
0.41	0.0	6.31	1.02	0.0	3.26	1.43	0.0	1.22	0.0	0.0	2.24	0.41	65.78	0.0	0.0	1.02	0.81	0.0	0.2	12.83	0.41	0.2	2.04	0.0	0.41	0.0	 n = j
0.0	0.0	1.75	0.0	0.0	0.53	0.15	0.0	0.92	0.08	0.0	0.0	1.22	0.0	92.75	0.08	1.14	0.0	0.0	0.38	0.0	0.0	0.46	0.53	0.0	0.0	0.0	 o = m
0.06	0.0	1.61	0.0	0.0	3.22	0.06	0.0	1.18	0.0	0.06	0.0	0.74	0.0	0.12	91.2	0.87	0.25	0.0	0.0	0.06	0.19	0.19	0.12	0.06	0.0	0.0	 p = l
0.09	0.02	9.04	0.17	0.02	1.31	0.32	0.03	0.66	0.38	0.02	0.15	0.11	0.08	0.24	0.21	85.12	0.26	0.03	0.21	0.93	0.08	0.11	0.38	0.06	0.02	0.0	 q = o
0.0	0.06	2.47	0.06	0.03	1.39	0.06	0.0	1.01	0.32	0.0	0.19	0.06	0.09	0.0	0.09	0.79	91.94	0.03	0.19	0.7	0.06	0.03	0.41	0.0	0.0	0.0	 r = n
4.06	0.0	25.54	0.0	0.0	0.95	10.02	0.0	3.58	0.0	0.0	0.24	2.15	0.72	0.0	0.0	0.48	0.48	40.33	0.0	7.4	0.0	0.24	3.82	0.0	0.0	0.0	 s = q
0.4	0.0	29.25	1.09	0.0	4.18	3.38	0.0	3.18	0.0	0.0	1.19	1.09	0.2	0.3	0.1	2.19	0.3	0.1	40.7	6.57	0.6	0.2	4.88	0.1	0.0	0.0	 t = p
1.27	0.0	14.67	0.57	0.0	1.45	1.56	0.02	0.63	0.07	0.11	1.88	0.66	0.47	0.02	0.05	1.04	0.34	0.14	1.13	71.67	0.25	0.02	1.7	0.02	0.14	0.14	 u = s
0.05	0.0	8.01	0.38	0.0	5.13	0.62	0.1	2.26	0.24	0.0	0.24	0.77	0.1	0.0	0.29	1.25	0.14	0.0	0.53	1.54	77.06	0.0	1.2	0.0	0.1	0.0	 v = r
0.0	0.0	1.68	0.1	0.0	0.67	0.34	0.05	0.87	0.1	0.1	0.05	0.63	0.19	0.19	0.29	0.53	0.1	0.05	0.14	0.1	0.19	92.79	0.82	0.0	0.05	0.0	 w = u
1.17	0.0	34.21	0.82	0.0	4.15	6.67	0.0	2.63	0.12	0.12	0.99	1.52	0.64	0.23	0.0	2.16	0.94	0.35	2.75	8.01	0.64	0.41	31.35	0.0	0.0	0.12	 x = t
0.0	0.0	2.27	0.14	0.0	2.27	0.43	0.0	2.27	0.28	0.14	0.14	1.56	0.0	0.0	0.0	1.42	0.57	0.0	0.28	0.43	0.43	0.0	0.0	87.36	0.0	0.0	 y = v
0.0	0.0	2.47	0.22	0.0	2.24	0.45	0.0	0.45	0.22	0.0	0.22	0.45	0.0	0.0	0.22	0.67	0.0	0.0	0.0	10.09	1.12	0.22	0.45	0.0	80.49	0.0	 z = y
0.0	0.0	33.33	0.0	0.0	0.0	3.03	0.0	0.0	0.0	0.0	6.06	0.0	3.03	0.0	0.0	0.0	0.0	0.0	9.09	36.36	3.03	0.0	6.06	0.0	0.0	0.0	 aa = z
