Timestamp:2014-12-07-10:35:45
Inventario:I0
Intervalo:2ms
Ngramas:4
Clasificador:NaiveBayes
Relation Name:  I0-2ms-4gramas
Num Instances:  91700
Num Attributes: 41

     Name                      Type  Nom  Int Real     Missing      Unique  Dist
   1 0Int(dB)                   Num   0%   9%  91%     0 /  0%     4 /  0%   779 
   2 0Pitch(Hz)                 Num   0%  52%  48%     0 /  0%   471 /  1%  4016 
   3 0RawPitch                  Num   0%  55%  45%     0 /  0%   550 /  1%  4014 
   4 0SmPitch                   Num   0%  53%  47%     0 /  0%   491 /  1%  3998 
   5 0Melogram(st)              Num   0%  49%  51%     0 /  0%   212 /  0%  3363 
   6 0ZCross                    Num   0% 100%   0%     0 /  0%     6 /  0%    54 
   7 0F1(Hz)                    Num   0%  52%  48%     0 /  0%  1126 /  1%  4776 
   8 0F2(Hz)                    Num   0%  52%  48%     0 /  0%  2304 /  3%  6727 
   9 0F3(Hz)                    Num   0%  52%  48%     0 /  0%  1967 /  2%  6224 
  10 0F4(Hz)                    Num   0%  52%  48%     0 /  0%  1884 /  2%  6074 
  11 1Int(dB)                   Num   0%   9%  91%     0 /  0%     4 /  0%   779 
  12 1Pitch(Hz)                 Num   0%  52%  48%     0 /  0%   471 /  1%  4016 
  13 1RawPitch                  Num   0%  55%  45%     0 /  0%   550 /  1%  4014 
  14 1SmPitch                   Num   0%  53%  47%     0 /  0%   491 /  1%  3998 
  15 1Melogram(st)              Num   0%  49%  51%     0 /  0%   212 /  0%  3363 
  16 1ZCross                    Num   0% 100%   0%     0 /  0%     6 /  0%    54 
  17 1F1(Hz)                    Num   0%  52%  48%     0 /  0%  1126 /  1%  4776 
  18 1F2(Hz)                    Num   0%  52%  48%     0 /  0%  2304 /  3%  6727 
  19 1F3(Hz)                    Num   0%  52%  48%     0 /  0%  1967 /  2%  6224 
  20 1F4(Hz)                    Num   0%  52%  48%     0 /  0%  1884 /  2%  6074 
  21 2Int(dB)                   Num   0%   9%  91%     0 /  0%     5 /  0%   780 
  22 2Pitch(Hz)                 Num   0%  52%  48%     0 /  0%   471 /  1%  4016 
  23 2RawPitch                  Num   0%  55%  45%     0 /  0%   550 /  1%  4014 
  24 2SmPitch                   Num   0%  53%  47%     0 /  0%   491 /  1%  3998 
  25 2Melogram(st)              Num   0%  49%  51%     0 /  0%   212 /  0%  3363 
  26 2ZCross                    Num   0% 100%   0%     0 /  0%     6 /  0%    54 
  27 2F1(Hz)                    Num   0%  52%  48%     0 /  0%  1126 /  1%  4776 
  28 2F2(Hz)                    Num   0%  52%  48%     0 /  0%  2304 /  3%  6727 
  29 2F3(Hz)                    Num   0%  52%  48%     0 /  0%  1967 /  2%  6224 
  30 2F4(Hz)                    Num   0%  52%  48%     0 /  0%  1884 /  2%  6074 
  31 3Int(dB)                   Num   0%   9%  91%     0 /  0%     6 /  0%   781 
  32 3Pitch(Hz)                 Num   0%  52%  48%     0 /  0%   471 /  1%  4016 
  33 3RawPitch                  Num   0%  55%  45%     0 /  0%   550 /  1%  4014 
  34 3SmPitch                   Num   0%  53%  47%     0 /  0%   491 /  1%  3998 
  35 3Melogram(st)              Num   0%  49%  51%     0 /  0%   212 /  0%  3363 
  36 3ZCross                    Num   0% 100%   0%     0 /  0%     6 /  0%    54 
  37 3F1(Hz)                    Num   0%  52%  48%     0 /  0%  1126 /  1%  4776 
  38 3F2(Hz)                    Num   0%  52%  48%     0 /  0%  2304 /  3%  6727 
  39 3F3(Hz)                    Num   0%  52%  48%     0 /  0%  1967 /  2%  6224 
  40 3F4(Hz)                    Num   0%  52%  48%     0 /  0%  1884 /  2%  6074 
  41 class                      Nom 100%   0%   0%     0 /  0%     0 /  0%    27 


Naive Bayes Classifier

                    Class
Attribute              ch        rr         0        hs        hg         a         c         b         e         d         g         f         i         j         m         l         o         n         q         p         s         r         u         t         v         y         z
                      (0)       (0)    (0.39)    (0.01)       (0)    (0.14)    (0.01)    (0.01)    (0.08)    (0.01)    (0.01)    (0.01)    (0.04)    (0.01)    (0.01)    (0.02)    (0.07)    (0.03)       (0)    (0.01)    (0.05)    (0.02)    (0.02)    (0.02)    (0.01)       (0)       (0)
==============================================================================================================================================================================================================================================================================================
0Int(dB)
  mean            -20.0814  -10.5044  -48.1014  -19.9915  -11.2017   -2.9292  -25.8903   -6.0247   -5.2725   -7.9123   -7.6259  -21.6781   -8.8919  -15.5674   -7.6335   -8.2187    -8.154   -8.9868  -23.7422  -23.6387   -21.336  -11.7183    -5.542  -27.0518   -9.4568  -16.4251  -27.0297
  std. dev.         8.6975    4.5839   16.4153   11.1942    6.0745    8.4179    9.9319     4.265    8.2012    6.0943    7.9979    5.6905    8.4155     6.235    6.1533    5.5898   12.1079    7.4422   11.9929     10.41    6.7455    9.1852    8.2546    9.4789    7.3215    5.0374    2.1797
  weight sum           429       109     35830       980       247     13106      1361       599      6910      1313       544       582      3561       491      1311      1613      6646      3164       419      1005      4423      2084      2080      1710       704       446        33
  precision          0.104     0.104     0.104     0.104     0.104     0.104     0.104     0.104     0.104     0.104     0.104     0.104     0.104     0.104     0.104     0.104     0.104     0.104     0.104     0.104     0.104     0.104     0.104     0.104     0.104     0.104     0.104

0Pitch(Hz)
  mean             50.2234  245.3246   17.4128   86.9157  146.2993  226.1482   41.0401  216.0575  188.7056  202.4816  212.1539   79.9769  171.6528  153.8765  193.4764  174.6203   179.115  191.5554   75.5296   78.7792   49.7038  161.4856   227.888   60.4374  176.0636  112.7992         0
  std. dev.        99.0944   120.737    57.392   87.5514   37.5467   104.004   86.2555    72.736   88.8894   84.0743  100.1128   117.196    77.843  132.0873   87.2746   64.6094  105.6864   89.0808   111.158   115.913   91.4869   95.0578   87.0635   104.772   75.0159   69.2638    0.0207
  weight sum           429       109     35830       980       247     13106      1361       599      6910      1313       544       582      3561       491      1311      1613      6646      3164       419      1005      4423      2084      2080      1710       704       446        33
  precision         0.1242    0.1242    0.1242    0.1242    0.1242    0.1242    0.1242    0.1242    0.1242    0.1242    0.1242    0.1242    0.1242    0.1242    0.1242    0.1242    0.1242    0.1242    0.1242    0.1242    0.1242    0.1242    0.1242    0.1242    0.1242    0.1242    0.1242

0RawPitch
  mean             33.2687  235.2829   14.2988   69.0321  122.9771  216.3361   26.5395  213.5245  184.6007  196.0974  200.8431   41.6776   163.826   97.5394  182.3833  159.0177  173.0518   178.586   39.1908    58.382   29.3958   155.116  218.9774    35.728  161.5013   76.5304         0
  std. dev.        83.8837  130.2895   51.8247   86.3021   79.0478  110.1985   70.7448   76.3561   95.7338   94.5196  111.8798   83.6836   84.4289  115.3631   98.3207   78.1938  113.1417  102.4499    88.767  107.6168   73.8522  102.3135   95.0579   84.7256   86.9899   77.8232    0.0207
  weight sum           429       109     35830       980       247     13106      1361       599      6910      1313       544       582      3561       491      1311      1613      6646      3164       419      1005      4423      2084      2080      1710       704       446        33
  precision         0.1243    0.1243    0.1243    0.1243    0.1243    0.1243    0.1243    0.1243    0.1243    0.1243    0.1243    0.1243    0.1243    0.1243    0.1243    0.1243    0.1243    0.1243    0.1243    0.1243    0.1243    0.1243    0.1243    0.1243    0.1243    0.1243    0.1243

0SmPitch
  mean             47.5083  245.3168   15.7543   80.5288  148.2397  224.2665   33.9394  216.0588  187.0281  201.7878  210.4263   62.3691   169.294  112.0013  191.0426  173.4126  176.9741  188.9618   59.9428   69.8858   42.4662  158.3001  227.3868   49.2524  171.6697  108.2233         0
  std. dev.        96.4015  120.7357   53.6098   84.9843   35.4547  105.7755   80.3139   72.7365   90.2619   85.4406   102.116  100.4787   80.1089  138.2917    90.839   66.0612  107.8927   91.8092  102.8604  113.6751   86.4826   96.7983   87.2185   97.5935   79.6555   71.3067    0.0208
  weight sum           429       109     35830       980       247     13106      1361       599      6910      1313       544       582      3561       491      1311      1613      6646      3164       419      1005      4423      2084      2080      1710       704       446        33
  precision         0.1248    0.1248    0.1248    0.1248    0.1248    0.1248    0.1248    0.1248    0.1248    0.1248    0.1248    0.1248    0.1248    0.1248    0.1248    0.1248    0.1248    0.1248    0.1248    0.1248    0.1248    0.1248    0.1248    0.1248    0.1248    0.1248    0.1248

0Melogram(st)
  mean             13.3729    56.638     5.111   26.8065   48.8622   53.0908   11.9097   55.1933   50.1378   53.0329   51.2937   21.8558   48.1087   15.8609   50.8951   51.1622   46.5873   50.2471   16.6513   20.2346   13.5267   42.8016   53.4674   14.5358   50.1413   40.1525         0
  std. dev.        24.4565    8.9267   15.8762   25.0844    6.3119   15.0134   23.0085    7.3641    15.863   11.3319   17.5216   27.2496   16.7578   26.1595   14.5221    9.6509   20.5055    16.198   25.9463   27.4594   23.7634    22.537   15.3794   25.0798    12.426     18.39    0.0041
  weight sum           429       109     35830       980       247     13106      1361       599      6910      1313       544       582      3561       491      1311      1613      6646      3164       419      1005      4423      2084      2080      1710       704       446        33
  precision         0.0246    0.0246    0.0246    0.0246    0.0246    0.0246    0.0246    0.0246    0.0246    0.0246    0.0246    0.0246    0.0246    0.0246    0.0246    0.0246    0.0246    0.0246    0.0246    0.0246    0.0246    0.0246    0.0246    0.0246    0.0246    0.0246    0.0246

0ZCross
  mean              8.4007    3.6112    0.2716    1.0974    3.2438     7.649     1.465    4.0936    5.2821    4.0422    4.6301    0.7004    3.7217    3.8879    2.9057    3.3418    4.4284    2.6003    4.0452    0.9107    3.6697    3.2976    4.0615    0.5906    3.2249    1.4975         0
  std. dev.        12.7759    2.6445    1.1738     1.785    2.4038    4.4061    3.5901    1.8391    3.2153    2.3029    2.8257    1.6357    3.2672    3.8076    1.5786    2.0864    3.0869    1.7188    7.2346    2.3259      7.01     2.629    2.9528    1.4637     2.023    1.7496    0.1792
  weight sum           429       109     35830       980       247     13106      1361       599      6910      1313       544       582      3561       491      1311      1613      6646      3164       419      1005      4423      2084      2080      1710       704       446        33
  precision         1.0755    1.0755    1.0755    1.0755    1.0755    1.0755    1.0755    1.0755    1.0755    1.0755    1.0755    1.0755    1.0755    1.0755    1.0755    1.0755    1.0755    1.0755    1.0755    1.0755    1.0755    1.0755    1.0755    1.0755    1.0755    1.0755    1.0755

0F1(Hz)
  mean            139.3938  599.5484   56.1152  396.3509  446.6966  698.1813   87.3804  477.4739  458.0799  516.4293  496.0244   286.696  356.2436  450.3233  433.0158  473.3047  478.8171  473.5739  177.8615  232.1592  193.7042  486.5569  491.0591  110.8796  480.9576  342.2848         0
  std. dev.       263.1216  133.2238    170.12  296.2238   83.2259  264.6522  201.8375  133.4657   153.926  153.3271  192.8271  335.6989  151.5566  340.7035   164.744  144.0338  229.7252  156.0531   244.348  297.4114  287.7848  237.5487  315.0618  207.7433  176.0877  184.7472    0.0608
  weight sum           429       109     35830       980       247     13106      1361       599      6910      1313       544       582      3561       491      1311      1613      6646      3164       419      1005      4423      2084      2080      1710       704       446        33
  precision         0.3648    0.3648    0.3648    0.3648    0.3648    0.3648    0.3648    0.3648    0.3648    0.3648    0.3648    0.3648    0.3648    0.3648    0.3648    0.3648    0.3648    0.3648    0.3648    0.3648    0.3648    0.3648    0.3648    0.3648    0.3648    0.3648    0.3648

0F2(Hz)
  mean            415.1138 1657.5122  175.3222  1140.595 1938.5552 1445.5065   257.741  1583.175 1757.7095 1484.2771 1696.1477  740.7273 1928.7407 1287.2103 1662.6235 1666.6072 1136.7974 1606.1341  720.6943  688.7215   602.889 1366.2084 1034.0495  370.9606 1545.0307 1342.9121         0
  std. dev.        750.593  132.8942  525.6561  832.7628  351.0059  421.4524  610.0717  347.2082  560.9633  317.9388  586.4555  847.9213  710.0757  907.2907   450.193  354.6206  547.7396  446.5217  959.5712   851.354  868.7595  619.0355  450.6215  675.5264  446.9761  661.0009    0.0738
  weight sum           429       109     35830       980       247     13106      1361       599      6910      1313       544       582      3561       491      1311      1613      6646      3164       419      1005      4423      2084      2080      1710       704       446        33
  precision         0.4429    0.4429    0.4429    0.4429    0.4429    0.4429    0.4429    0.4429    0.4429    0.4429    0.4429    0.4429    0.4429    0.4429    0.4429    0.4429    0.4429    0.4429    0.4429    0.4429    0.4429    0.4429    0.4429    0.4429    0.4429    0.4429    0.4429

0F3(Hz)
  mean            693.1016 2863.0523  299.2665 1865.9724 2529.8688 2695.0591  467.5858 2759.7978 2586.6864 2869.9416 2904.8205 1268.9381 2604.0226 1888.8521 2748.6558 2799.3682 2478.8191 2772.6545 1075.5189 1165.1811 1003.3428 2377.3357 2621.0935  677.0177 2636.4126  2321.119         0
  std. dev.      1253.8141  405.4758  881.7239 1294.2128   115.268  774.0597 1070.1079   467.798  831.7891  490.8925  922.2259 1446.1988  977.1249 1324.3057  585.7127  594.9981 1044.4223  651.9338 1394.3168 1428.5118 1428.3456 1083.1653  864.0366 1220.1397  731.3779 1158.6797    0.1103
  weight sum           429       109     35830       980       247     13106      1361       599      6910      1313       544       582      3561       491      1311      1613      6646      3164       419      1005      4423      2084      2080      1710       704       446        33
  precision          0.662     0.662     0.662     0.662     0.662     0.662     0.662     0.662     0.662     0.662     0.662     0.662     0.662     0.662     0.662     0.662     0.662     0.662     0.662     0.662     0.662     0.662     0.662     0.662     0.662     0.662     0.662

0F4(Hz)
  mean            810.6773 3247.2305  359.4005  2321.255 3589.0769 3104.1871  538.4086 3300.2736 3119.9567 3324.9964 2937.2998 1456.4364 3102.2711 2352.5284 3306.1053 3226.5791 2854.0576 3179.7397 1303.3765  1375.534 1132.2096  2753.868 3004.6925  776.3099 3195.6733 2685.8925         0
  std. dev.      1466.6397  414.4551 1056.6559 1595.9185   91.2311  879.6068  1234.864  443.7001  971.1133  535.6773  933.7861 1648.6351 1123.1453 1636.3165  635.8911  609.8466 1186.1932  748.7879 1701.6572 1665.7521  1609.425 1199.4411  906.3874 1403.3422  789.8578 1327.9192    0.1138
  weight sum           429       109     35830       980       247     13106      1361       599      6910      1313       544       582      3561       491      1311      1613      6646      3164       419      1005      4423      2084      2080      1710       704       446        33
  precision         0.6829    0.6829    0.6829    0.6829    0.6829    0.6829    0.6829    0.6829    0.6829    0.6829    0.6829    0.6829    0.6829    0.6829    0.6829    0.6829    0.6829    0.6829    0.6829    0.6829    0.6829    0.6829    0.6829    0.6829    0.6829    0.6829    0.6829

1Int(dB)
  mean            -19.8143  -10.7848    -48.18   -20.458  -11.0746   -2.8822  -25.2342   -5.9863    -5.205   -7.8714   -7.6694  -21.8784   -8.7895  -15.6892   -7.6106   -8.2488   -8.1324   -9.1439  -23.0885  -23.2254  -21.5156  -11.8393   -5.3672  -26.3478   -9.3539  -16.4023   -26.973
  std. dev.         8.4748    4.4935   16.3016   11.2278    6.1681    8.2937    9.9399    4.2622    8.1176    6.1238    8.0179    5.5298    8.3703    6.1431    6.0661    5.6219   12.1307    7.5607   11.6307   10.4886    6.6321    9.2424     8.007     9.808    7.0185    4.8998    2.1072
  weight sum           429       109     35830       980       247     13106      1361       599      6910      1313       544       582      3561       491      1311      1613      6646      3164       419      1005      4423      2084      2080      1710       704       446        33
  precision          0.104     0.104     0.104     0.104     0.104     0.104     0.104     0.104     0.104     0.104     0.104     0.104     0.104     0.104     0.104     0.104     0.104     0.104     0.104     0.104     0.104     0.104     0.104     0.104     0.104     0.104     0.104

1Pitch(Hz)
  mean             51.0957  245.3554   17.0614   84.1511  146.7389  226.4412   46.0223  216.0859  189.4672  202.3729   211.995   77.0855  172.4288  153.1457  193.7686   174.623  178.9677  190.7047   78.4433   79.6069   47.2217  161.6026  228.8154   65.0356   176.872  112.8563         0
  std. dev.         99.958   121.194   56.8538   87.1585   38.0498  103.6761   91.0161   72.5636   88.3909   84.3095   100.683  116.0635   77.1572  131.8494   87.2218   64.4062  105.4237    89.656  112.8788  115.1786   89.7787   95.3425   85.6072  107.1135   73.7813   69.2593    0.0207
  weight sum           429       109     35830       980       247     13106      1361       599      6910      1313       544       582      3561       491      1311      1613      6646      3164       419      1005      4423      2084      2080      1710       704       446        33
  precision         0.1242    0.1242    0.1242    0.1242    0.1242    0.1242    0.1242    0.1242    0.1242    0.1242    0.1242    0.1242    0.1242    0.1242    0.1242    0.1242    0.1242    0.1242    0.1242    0.1242    0.1242    0.1242    0.1242    0.1242    0.1242    0.1242    0.1242

1RawPitch
  mean             33.9784  236.6909   13.9623   66.1469  123.5023  216.7286   30.9191   213.376  185.2835  196.0699  201.0682   39.4896  164.8572   95.6852  182.7137  158.5474  173.0225  177.4833   40.3066   59.7026     26.86  155.4929  219.9054   39.8978  162.3452   76.4805         0
  std. dev.        84.7743  130.4265   51.2547    85.152   79.5414  109.7993   76.4945   76.2646   95.4466   94.5325  112.0453   81.2737   83.8605  114.2828   98.3056   78.3444  112.8916  103.0478   88.5284  107.4738    70.828  102.7886   93.8544   88.0488   85.8739    77.765    0.0207
  weight sum           429       109     35830       980       247     13106      1361       599      6910      1313       544       582      3561       491      1311      1613      6646      3164       419      1005      4423      2084      2080      1710       704       446        33
  precision         0.1243    0.1243    0.1243    0.1243    0.1243    0.1243    0.1243    0.1243    0.1243    0.1243    0.1243    0.1243    0.1243    0.1243    0.1243    0.1243    0.1243    0.1243    0.1243    0.1243    0.1243    0.1243    0.1243    0.1243    0.1243    0.1243    0.1243

1SmPitch
  mean             47.6945  245.3477   15.4232   77.7657  148.6812  224.6461   38.7196  216.0865  187.8876  201.7462  210.2676   59.4771  170.0743  110.7061  191.0786  173.2044  176.8295  188.0416   61.7616   70.3075     39.92  158.4702  228.2489   53.9529  172.5994  108.2745         0
  std. dev.        96.6081  121.1911   53.0677   84.3704   35.9602  105.3468    85.669   72.5638   89.6855   85.5321  102.6729   98.6395   79.5741  137.7176   91.1571   66.1453  107.6308   92.3591  104.4924  112.8983   84.3422   97.0297   85.8949  100.7942   78.4767    71.307    0.0208
  weight sum           429       109     35830       980       247     13106      1361       599      6910      1313       544       582      3561       491      1311      1613      6646      3164       419      1005      4423      2084      2080      1710       704       446        33
  precision         0.1248    0.1248    0.1248    0.1248    0.1248    0.1248    0.1248    0.1248    0.1248    0.1248    0.1248    0.1248    0.1248    0.1248    0.1248    0.1248    0.1248    0.1248    0.1248    0.1248    0.1248    0.1248    0.1248    0.1248    0.1248    0.1248    0.1248

1Melogram(st)
  mean             13.8084   56.6073    5.0217   26.0632   49.1238   53.1995   13.0393   55.1998    50.296   53.0238   51.2077   21.2107   48.3177    15.552    50.918   51.1593   46.5862   50.0162   17.3333   20.4189   12.8322   42.8258   53.7993   15.6252    50.382   40.1606         0
  std. dev.        24.7679    8.9613   15.7547   25.0848    5.5283   14.8034   23.8361    7.3575   15.6299   11.3416   17.6638   27.1061   16.4721   26.0328   14.5278    9.6498   20.4797   16.5039    26.256    27.415    23.356    22.547     14.79   25.6559   11.9774    18.392    0.0041
  weight sum           429       109     35830       980       247     13106      1361       599      6910      1313       544       582      3561       491      1311      1613      6646      3164       419      1005      4423      2084      2080      1710       704       446        33
  precision         0.0246    0.0246    0.0246    0.0246    0.0246    0.0246    0.0246    0.0246    0.0246    0.0246    0.0246    0.0246    0.0246    0.0246    0.0246    0.0246    0.0246    0.0246    0.0246    0.0246    0.0246    0.0246    0.0246    0.0246    0.0246    0.0246    0.0246

1ZCross
  mean              8.5361    3.5323    0.2613    1.0447    3.2917    7.6575    1.5591    4.1457    5.2767    4.0832    4.6123    0.6615    3.7235    3.8638    2.8958    3.3338    4.4336    2.5531    4.1607    0.9599    3.6726      3.26    4.0842    0.6899    3.2325    1.4926         0
  std. dev.        12.8415    2.6428    1.1465    1.7582    2.4426    4.3984    3.6274      1.85     3.209    2.3026    2.8138    1.5911    3.2289    3.8157    1.5608    2.0682    3.0623    1.6919    7.2383    2.3283    7.0371     2.605    2.9396     1.578    2.0169    1.7374    0.1792
  weight sum           429       109     35830       980       247     13106      1361       599      6910      1313       544       582      3561       491      1311      1613      6646      3164       419      1005      4423      2084      2080      1710       704       446        33
  precision         1.0755    1.0755    1.0755    1.0755    1.0755    1.0755    1.0755    1.0755    1.0755    1.0755    1.0755    1.0755    1.0755    1.0755    1.0755    1.0755    1.0755    1.0755    1.0755    1.0755    1.0755    1.0755    1.0755    1.0755    1.0755    1.0755    1.0755

1F1(Hz)
  mean            133.3877  603.0018   54.9845  386.9224  446.3362  703.1148   91.2217  478.1559  461.0472  516.9777  494.7364   275.299  359.1654  447.3978  432.4282  471.8215  481.7752  468.8564  177.5281   230.559  183.5633  484.6064  494.6223   111.558  481.2011  340.5894         0
  std. dev.       258.4276  134.6059  168.4345  298.8434   84.1197  259.6485   205.413   133.248  149.9473  153.3857  193.2131  333.8421  147.6819  343.8324  163.8473  141.8944  227.7162  156.2529  244.6379  295.3702  283.5146  237.2579   311.451  208.6912  173.2575  184.7458    0.0608
  weight sum           429       109     35830       980       247     13106      1361       599      6910      1313       544       582      3561       491      1311      1613      6646      3164       419      1005      4423      2084      2080      1710       704       446        33
  precision         0.3648    0.3648    0.3648    0.3648    0.3648    0.3648    0.3648    0.3648    0.3648    0.3648    0.3648    0.3648    0.3648    0.3648    0.3648    0.3648    0.3648    0.3648    0.3648    0.3648    0.3648    0.3648    0.3648    0.3648    0.3648    0.3648    0.3648

1F2(Hz)
  mean            399.6301 1649.5731  171.9905 1114.0629 1936.5346 1452.9007  267.1199 1578.8816 1772.0574 1484.0198  1690.892  712.8855 1952.7441 1267.4745 1664.6932 1667.9758 1139.4043 1601.2188  715.5469  684.4114  571.9519 1365.1115 1043.9884  372.4335  1555.058 1341.6034         0
  std. dev.       741.8388  129.9137  521.2421  840.5424  348.5484  408.4804  616.3071  346.1089  544.5249  319.4464  591.0274  844.4121  688.7429  910.6307   443.251  347.5339  541.1664  451.1073  956.8357  846.4718  857.1484  620.9288  438.5623   677.747  432.4859  665.0111    0.0738
  weight sum           429       109     35830       980       247     13106      1361       599      6910      1313       544       582      3561       491      1311      1613      6646      3164       419      1005      4423      2084      2080      1710       704       446        33
  precision         0.4429    0.4429    0.4429    0.4429    0.4429    0.4429    0.4429    0.4429    0.4429    0.4429    0.4429    0.4429    0.4429    0.4429    0.4429    0.4429    0.4429    0.4429    0.4429    0.4429    0.4429    0.4429    0.4429    0.4429    0.4429    0.4429    0.4429

1F3(Hz)
  mean            663.8042 2863.8236  293.4349 1821.4233 2527.7809 2709.1782  486.9028 2757.8449 2603.6899 2869.5564 2898.5203 1218.6763 2631.3817 1864.3773 2748.6699 2805.2632 2490.7242 2765.1826 1068.0091 1160.7623  951.3372 2375.1702 2648.1475  676.6971 2651.4351 2313.3484         0
  std. dev.      1232.3098  410.0913  874.0581  1309.707  114.3528  751.1237 1085.3162  468.5344  809.0505  497.3337  930.4514  1437.573  948.5385 1330.5212  575.8762  588.2323 1033.2776   663.504 1391.6822 1423.2568 1409.1088 1087.0005  826.0863 1219.1928   706.522 1162.1591    0.1103
  weight sum           429       109     35830       980       247     13106      1361       599      6910      1313       544       582      3561       491      1311      1613      6646      3164       419      1005      4423      2084      2080      1710       704       446        33
  precision          0.662     0.662     0.662     0.662     0.662     0.662     0.662     0.662     0.662     0.662     0.662     0.662     0.662     0.662     0.662     0.662     0.662     0.662     0.662     0.662     0.662     0.662     0.662     0.662     0.662     0.662     0.662

1F4(Hz)
  mean            781.1138 3243.6283  352.5503 2266.9155 3589.2732 3119.9026   564.712 3299.3776 3139.0513 3323.5678 2933.6281 1400.8092 3132.5813 2326.3656 3310.1128 3231.6038 2866.8671 3172.4359 1292.9951 1377.0587 1073.9571  2748.427 3035.0863  777.4436 3215.0116  2679.984         0
  std. dev.      1450.2466  410.1502 1047.8566 1616.3082   90.7041  852.7347 1261.0993  442.1307  942.3082  543.3417  943.1766 1641.5102 1087.3648 1647.6679  623.6724  599.3615 1172.3377  763.8481 1696.4011 1667.2311 1588.4951 1203.6062  857.2082 1405.4346  752.7086 1334.4391    0.1138
  weight sum           429       109     35830       980       247     13106      1361       599      6910      1313       544       582      3561       491      1311      1613      6646      3164       419      1005      4423      2084      2080      1710       704       446        33
  precision         0.6829    0.6829    0.6829    0.6829    0.6829    0.6829    0.6829    0.6829    0.6829    0.6829    0.6829    0.6829    0.6829    0.6829    0.6829    0.6829    0.6829    0.6829    0.6829    0.6829    0.6829    0.6829    0.6829    0.6829    0.6829    0.6829    0.6829

2Int(dB)
  mean            -19.5109  -11.0073  -48.2528  -20.9187  -10.9119   -2.8635  -24.5216   -5.9294   -5.1801   -7.7997    -7.701  -22.0464   -8.7172  -15.7648   -7.5829   -8.2546    -8.146   -9.3069  -22.3902  -22.7543  -21.6704  -11.9208   -5.2139  -25.5417   -9.2274  -16.3545  -26.9195
  std. dev.         8.2851    4.3947   16.2026   11.2611    6.2832     8.205    9.9872    4.2721     8.069    6.1523    8.0193    5.4006    8.3524       6.1    6.0121    5.6912   12.1698    7.6889   11.3302   10.5956    6.5601    9.3387    7.7793   10.1924    6.7468    4.7964    2.0302
  weight sum           429       109     35830       980       247     13106      1361       599      6910      1313       544       582      3561       491      1311      1613      6646      3164       419      1005      4423      2084      2080      1710       704       446        33
  precision         0.1039    0.1039    0.1039    0.1039    0.1039    0.1039    0.1039    0.1039    0.1039    0.1039    0.1039    0.1039    0.1039    0.1039    0.1039    0.1039    0.1039    0.1039    0.1039    0.1039    0.1039    0.1039    0.1039    0.1039    0.1039    0.1039    0.1039

2Pitch(Hz)
  mean              53.055  245.4112   16.6931   81.4297  147.2402  226.5987   52.1217  216.1255  190.0868  202.2726  211.8361   74.5716  173.0539  152.4343  193.9847   174.651  178.5997  189.8479   82.7165   80.8753   45.0192  161.8022  229.3808   70.4675  177.7413  112.9413         0
  std. dev.       101.6332  121.6508   56.2811   86.7208   38.6144  103.4873   96.0705   72.3848   87.9634   84.5208  101.2436  114.9864   76.5412  131.6271   87.2817   64.2206   105.265   90.2682  115.2103  114.4697   88.2177   95.5801    84.526  109.6127   72.5746   69.2632    0.0207
  weight sum           429       109     35830       980       247     13106      1361       599      6910      1313       544       582      3561       491      1311      1613      6646      3164       419      1005      4423      2084      2080      1710       704       446        33
  precision         0.1242    0.1242    0.1242    0.1242    0.1242    0.1242    0.1242    0.1242    0.1242    0.1242    0.1242    0.1242    0.1242    0.1242    0.1242    0.1242    0.1242    0.1242    0.1242    0.1242    0.1242    0.1242    0.1242    0.1242    0.1242    0.1242    0.1242

2RawPitch
  mean             35.0966  237.4787   13.6791   63.5842  125.6235  216.9833   35.7069  213.7345  185.5725  195.9629  201.2902   37.3932  165.7052    94.585  182.9788  158.1608  172.7286  176.3158   42.8127    61.901   24.5966  155.4059  220.4839   45.1998  163.2642   76.9389         0
  std. dev.        85.5772  130.3747   50.8138   84.1847   81.4257  109.5973    82.006   75.7161   95.2181    94.473  112.1972   78.9964   83.3185  113.5516   98.3378   78.6389  112.6688   103.679    90.899  107.8677   67.9056  103.0698   93.0053   92.3545   84.7866   77.6904    0.0207
  weight sum           429       109     35830       980       247     13106      1361       599      6910      1313       544       582      3561       491      1311      1613      6646      3164       419      1005      4423      2084      2080      1710       704       446        33
  precision         0.1243    0.1243    0.1243    0.1243    0.1243    0.1243    0.1243    0.1243    0.1243    0.1243    0.1243    0.1243    0.1243    0.1243    0.1243    0.1243    0.1243    0.1243    0.1243    0.1243    0.1243    0.1243    0.1243    0.1243    0.1243    0.1243    0.1243

2SmPitch
  mean             49.2589  245.4038   15.0755   75.0475  149.1843  224.8531   44.3406  216.1252  188.5362  201.7143  210.1091   56.9592  170.6841  109.9994  191.0396  173.0212  176.5062   187.086   65.3564    71.317   37.6125  158.7242  228.8712   59.7232  173.5937  108.3503         0
  std. dev.        98.2717  121.6464   52.4903   83.7122   36.5302  105.0838   91.2308   72.3842   89.2414   85.5991  103.2196   96.9061   79.0929   137.282   91.5792   66.2464  107.4391   92.9814  107.1905  112.1782   82.2768   97.2184   84.8121  104.3006   77.3273   71.3178    0.0208
  weight sum           429       109     35830       980       247     13106      1361       599      6910      1313       544       582      3561       491      1311      1613      6646      3164       419      1005      4423      2084      2080      1710       704       446        33
  precision         0.1248    0.1248    0.1248    0.1248    0.1248    0.1248    0.1248    0.1248    0.1248    0.1248    0.1248    0.1248    0.1248    0.1248    0.1248    0.1248    0.1248    0.1248    0.1248    0.1248    0.1248    0.1248    0.1248    0.1248    0.1248    0.1248    0.1248

2Melogram(st)
  mean             14.3645   56.5827    4.9296   25.3245   49.3918   53.2812    14.256   55.2076   50.4037   53.0165   51.1216   20.5647   48.4912   15.2451   50.9419    51.089   46.5516   49.7864   18.1628   20.9437    12.231   42.8431   54.0704   16.9436   50.6286    40.174         0
  std. dev.        25.1228    8.9962   15.6284   25.0675    4.6052    14.633   24.6395    7.3502   15.4597   11.3502   17.8042   26.9454   16.2162   25.9051   14.5333     9.813    20.484   16.8012   26.6158   27.4663   22.9916   22.5552   14.2652    26.274   11.5084   18.3961    0.0041
  weight sum           429       109     35830       980       247     13106      1361       599      6910      1313       544       582      3561       491      1311      1613      6646      3164       419      1005      4423      2084      2080      1710       704       446        33
  precision         0.0246    0.0246    0.0246    0.0246    0.0246    0.0246    0.0246    0.0246    0.0246    0.0246    0.0246    0.0246    0.0246    0.0246    0.0246    0.0246    0.0246    0.0246    0.0246    0.0246    0.0246    0.0246    0.0246    0.0246    0.0246    0.0246    0.0246

2ZCross
  mean              8.6263    3.4928    0.2535    0.9954     3.344    7.6556    1.6523    4.1942    5.2659    4.1291    4.6044    0.6301    3.7314    3.8397    2.8999    3.3331    4.4315    2.5136    4.2429    1.0209    3.6677    3.2398    4.0992     0.817     3.257    1.5047         0
  std. dev.        12.8551     2.655    1.1335    1.7306    2.4749    4.3982    3.6493    1.8633    3.2124    2.2988    2.8002     1.563    3.2172    3.8168    1.5523    2.0447    3.0586    1.6801    7.2062    2.3298    7.0481    2.5951    2.9273    1.7098    2.0151    1.7367    0.1792
  weight sum           429       109     35830       980       247     13106      1361       599      6910      1313       544       582      3561       491      1311      1613      6646      3164       419      1005      4423      2084      2080      1710       704       446        33
  precision         1.0755    1.0755    1.0755    1.0755    1.0755    1.0755    1.0755    1.0755    1.0755    1.0755    1.0755    1.0755    1.0755    1.0755    1.0755    1.0755    1.0755    1.0755    1.0755    1.0755    1.0755    1.0755    1.0755    1.0755    1.0755    1.0755    1.0755

2F1(Hz)
  mean            128.2914  606.6561   53.8391   377.559  445.9981  707.5898   96.5191  478.7776   463.877  517.6211  493.6582  264.6058  361.6146  444.4025  431.9925  470.7042  484.2054  464.4221  178.9209  229.5986  173.7896  482.9867  498.0573  114.8691  481.3778  339.0682         0
  std. dev.       253.6563  135.8221  166.7264  301.1992   84.9548  255.0771  210.0173  132.9683   146.053  153.3903  193.7355  331.4298  144.1442  346.8653  162.9402  139.8782  226.2125  156.5183  244.9245   293.483  278.8392   236.414   307.944  211.3763  170.3673  184.8167    0.0608
  weight sum           429       109     35830       980       247     13106      1361       599      6910      1313       544       582      3561       491      1311      1613      6646      3164       419      1005      4423      2084      2080      1710       704       446        33
  precision         0.3648    0.3648    0.3648    0.3648    0.3648    0.3648    0.3648    0.3648    0.3648    0.3648    0.3648    0.3648    0.3648    0.3648    0.3648    0.3648    0.3648    0.3648    0.3648    0.3648    0.3648    0.3648    0.3648    0.3648    0.3648    0.3648    0.3648

2F2(Hz)
  mean             388.191 1642.3654  168.5717 1087.3619 1933.3843 1459.3145   281.343 1574.8537  1785.616 1484.0387  1685.462  688.1209 1974.0792 1247.7422 1666.6278 1669.5867 1140.4987 1596.3773  719.3351  681.5872  542.5552 1365.7541  1053.554  382.8591 1565.3074 1340.2619         0
  std. dev.       735.3138  128.3605  516.6505  847.2366  347.9232  396.5725  626.9333  345.2052  528.1297  321.3149  595.4503  840.7309  669.1502  913.5333  436.4381  340.5242  535.6978  455.6778  956.3571  841.6713  844.8303  621.6712  426.6176  686.2131  417.5257  668.9618    0.0738
  weight sum           429       109     35830       980       247     13106      1361       599      6910      1313       544       582      3561       491      1311      1613      6646      3164       419      1005      4423      2084      2080      1710       704       446        33
  precision         0.4429    0.4429    0.4429    0.4429    0.4429    0.4429    0.4429    0.4429    0.4429    0.4429    0.4429    0.4429    0.4429    0.4429    0.4429    0.4429    0.4429    0.4429    0.4429    0.4429    0.4429    0.4429    0.4429    0.4429    0.4429    0.4429    0.4429

2F3(Hz)
  mean            640.1455 2864.7468  287.4349  1776.831 2525.9047 2721.5862  515.2883 2756.1064 2619.8245 2868.9125 2892.2992 1172.7962 2655.6632  1839.866 2749.0804 2811.0606  2499.568 2757.8361 1074.4145 1159.6036  901.6451 2375.2496  2673.852  691.9532 2666.5649 2305.4337         0
  std. dev.      1212.3465  414.6611  866.0332 1323.5103  113.6465   730.267  1108.999  469.1644  786.5019  503.7764  938.5627 1427.4483  922.4738 1336.2367  565.8469   581.352 1024.8703  674.8642 1393.0709  1419.103 1388.2759  1088.151  787.5699 1228.7246  680.3656 1165.4962    0.1103
  weight sum           429       109     35830       980       247     13106      1361       599      6910      1313       544       582      3561       491      1311      1613      6646      3164       419      1005      4423      2084      2080      1710       704       446        33
  precision          0.662     0.662     0.662     0.662     0.662     0.662     0.662     0.662     0.662     0.662     0.662     0.662     0.662     0.662     0.662     0.662     0.662     0.662     0.662     0.662     0.662     0.662     0.662     0.662     0.662     0.662     0.662

2F4(Hz)
  mean            759.1191 3240.2202  345.5055  2212.445 3589.7874 3133.6693  600.4093 3298.5511 3157.1809  3321.865  2929.841 1351.3161 3159.0187 2300.3113 3313.8615 3236.6187 2876.1426 3165.1653 1296.8087 1381.1823 1018.8495 2747.0761  3063.919  796.0222 3234.2907 2673.9087         0
  std. dev.      1437.6027  405.9827 1038.6648 1634.5471   90.0103  828.2659 1293.8916  440.6092  913.7543  550.7347  952.5181 1634.1033 1054.7924 1658.6161  611.0322  588.5113 1161.7476   778.559 1692.8335 1668.5326 1566.5853 1205.2967  806.6532 1418.5861  713.2798 1340.9217    0.1138
  weight sum           429       109     35830       980       247     13106      1361       599      6910      1313       544       582      3561       491      1311      1613      6646      3164       419      1005      4423      2084      2080      1710       704       446        33
  precision         0.6829    0.6829    0.6829    0.6829    0.6829    0.6829    0.6829    0.6829    0.6829    0.6829    0.6829    0.6829    0.6829    0.6829    0.6829    0.6829    0.6829    0.6829    0.6829    0.6829    0.6829    0.6829    0.6829    0.6829    0.6829    0.6829    0.6829

3Int(dB)
  mean             -19.167  -11.1625  -48.3071  -21.3733  -10.7149   -2.8733  -23.7499   -5.8567    -5.199   -7.7016    -7.722  -22.1621    -8.676  -15.7996   -7.5498   -8.2338   -8.1936   -9.4747  -21.6533  -22.2328  -21.7905  -11.9633   -5.0927   -24.646   -9.0796  -16.2809  -26.9132
  std. dev.         8.1498    4.3485   16.1119   11.2969    6.3965     8.153    10.064    4.2899    8.0531     6.187    8.0048     5.303    8.3577    6.1062    5.9847    5.7838   12.2208    7.8239   11.1291    10.732    6.5355    9.4776    7.5769   10.6113    6.5355    4.7292    1.9983
  weight sum           429       109     35830       980       247     13106      1361       599      6910      1313       544       582      3561       491      1311      1613      6646      3164       419      1005      4423      2084      2080      1710       704       446        33
  precision         0.1037    0.1037    0.1037    0.1037    0.1037    0.1037    0.1037    0.1037    0.1037    0.1037    0.1037    0.1037    0.1037    0.1037    0.1037    0.1037    0.1037    0.1037    0.1037    0.1037    0.1037    0.1037    0.1037    0.1037    0.1037    0.1037    0.1037

3Pitch(Hz)
  mean             56.1744  245.4989   16.3392   78.7475  147.7994  226.6129   58.8225  216.1719  190.3791  202.2426  211.6788   72.9488  173.4856   151.728  194.2012  174.5722  178.0537  188.9788   86.5762   82.9837   43.4105  161.9067  229.8416   76.3545   178.673  113.0563         0
  std. dev.       103.5574  122.1103   55.7292   86.2324   39.2295  103.4134  100.8457   72.2007   87.7367   84.5819  101.7909  114.3539   76.0683  131.4173    87.328   64.1927  105.2226   90.9256  117.3245  113.9286   87.1375   95.8943   83.5753  112.1165   71.4053   69.2765    0.0207
  weight sum           429       109     35830       980       247     13106      1361       599      6910      1313       544       582      3561       491      1311      1613      6646      3164       419      1005      4423      2084      2080      1710       704       446        33
  precision         0.1242    0.1242    0.1242    0.1242    0.1242    0.1242    0.1242    0.1242    0.1242    0.1242    0.1242    0.1242    0.1242    0.1242    0.1242    0.1242    0.1242    0.1242    0.1242    0.1242    0.1242    0.1242    0.1242    0.1242    0.1242    0.1242    0.1242

3RawPitch
  mean             36.8283  237.1082   13.3735   61.0304  126.6695   217.004   41.3269   214.048   185.837  195.8324  201.3727     35.58  166.2787   93.7222  183.0521  158.1521  172.2852  175.0833   46.7847   64.3873   22.8249  155.0697  220.9278   51.7319  164.1733   78.1119         0
  std. dev.        86.8567  131.2913   50.3498   83.1284   81.3085  109.5778   87.5523   75.3247   95.0002    94.326  112.4119   76.9137   83.0617  112.7751   98.5689   79.0227  112.5036  104.3204   94.8817  108.0557   65.5791  103.4592   92.1417   97.0795   83.6029   77.8304    0.0207
  weight sum           429       109     35830       980       247     13106      1361       599      6910      1313       544       582      3561       491      1311      1613      6646      3164       419      1005      4423      2084      2080      1710       704       446        33
  precision         0.1243    0.1243    0.1243    0.1243    0.1243    0.1243    0.1243    0.1243    0.1243    0.1243    0.1243    0.1243    0.1243    0.1243    0.1243    0.1243    0.1243    0.1243    0.1243    0.1243    0.1243    0.1243    0.1243    0.1243    0.1243    0.1243    0.1243

3SmPitch
  mean             51.4241   245.493   14.7415   72.3683   149.744  224.9527   50.8196  216.1717  188.9642  201.7614  210.3094   55.3229  171.0525  109.2932  191.0026  172.7326  175.9682  185.8484   68.5748   73.3523   35.9417  158.7909  229.2536   65.8623  174.6514  108.4533         0
  std. dev.        99.8801  122.1055   51.9308   83.0011   37.1513  104.9064     96.64   72.2005   88.9263   85.5097  103.3642   95.8289   78.7886  136.8568   91.9871   66.4974  107.3853     93.87  109.6847  111.7359   80.8162   97.5388   84.0032   107.596   76.2155     71.34    0.0208
  weight sum           429       109     35830       980       247     13106      1361       599      6910      1313       544       582      3561       491      1311      1613      6646      3164       419      1005      4423      2084      2080      1710       704       446        33
  precision         0.1248    0.1248    0.1248    0.1248    0.1248    0.1248    0.1248    0.1248    0.1248    0.1248    0.1248    0.1248    0.1248    0.1248    0.1248    0.1248    0.1248    0.1248    0.1248    0.1248    0.1248    0.1248    0.1248    0.1248    0.1248    0.1248    0.1248

3Melogram(st)
  mean             15.0364   56.5644    4.8257   24.5896   49.4453   53.3304   15.5492   55.2167   50.4842   53.0765   51.0353   20.2223   48.6341   15.3027    50.967   51.0478   46.4749   49.5504   19.1315   21.5242   11.7665   42.8546   54.3072   18.3824   50.8827   40.1928         0
  std. dev.        25.5007    9.0321   15.4835   25.0323    4.6454   14.5188   25.3908    7.3415   15.3213   11.1742    17.943   26.8757   15.9951   25.9932   14.5387    9.8934   20.5262   17.1147   26.9971   27.5209   22.7033   22.5632   13.7628   26.8468   11.0179   18.4023    0.0041
  weight sum           429       109     35830       980       247     13106      1361       599      6910      1313       544       582      3561       491      1311      1613      6646      3164       419      1005      4423      2084      2080      1710       704       446        33
  precision         0.0246    0.0246    0.0246    0.0246    0.0246    0.0246    0.0246    0.0246    0.0246    0.0246    0.0246    0.0246    0.0246    0.0246    0.0246    0.0246    0.0246    0.0246    0.0246    0.0246    0.0246    0.0246    0.0246    0.0246    0.0246    0.0246    0.0246

3ZCross
  mean              8.6965    3.5125    0.2484    0.9526    3.4311    7.6409    1.7471    4.2516    5.2438    4.1913    4.6044    0.6024    3.7483      3.82    2.9073    3.3424    4.4237    2.4864    4.2993    1.0937    3.6553    3.2352    4.1111    0.9711    3.2829     1.524         0
  std. dev.        12.8365    2.6848    1.1311    1.7085    2.5088    4.4087    3.6599    1.8832    3.2168    2.3027    2.7858    1.5323    3.2275    3.8153     1.545    2.0294    3.0692    1.6824    7.1565    2.3383    7.0516    2.5918    2.9164    1.8529    2.0133    1.7378    0.1792
  weight sum           429       109     35830       980       247     13106      1361       599      6910      1313       544       582      3561       491      1311      1613      6646      3164       419      1005      4423      2084      2080      1710       704       446        33
  precision         1.0755    1.0755    1.0755    1.0755    1.0755    1.0755    1.0755    1.0755    1.0755    1.0755    1.0755    1.0755    1.0755    1.0755    1.0755    1.0755    1.0755    1.0755    1.0755    1.0755    1.0755    1.0755    1.0755    1.0755    1.0755    1.0755    1.0755

3F1(Hz)
  mean            123.1942  610.3237   52.7357  368.3069  446.2683  711.4514  103.9964  479.6898  466.4894  518.4309  493.4169  253.9126    363.75  441.3575  431.6196  469.7752  486.2046  460.1312  179.5033  230.2918  164.4121  481.1626  500.6341  121.5571  481.6653  338.4737         0
  std. dev.       248.6749   136.924  165.1041  303.3364   86.2804  251.2217  215.8387  132.7071  142.2388  153.3851  193.2624   328.652  140.8431  349.6798  162.0165  137.8408  225.0865  156.9404  245.2362  291.8796  273.8217  235.4575  305.2064  216.3685  167.2786   184.244    0.0608
  weight sum           429       109     35830       980       247     13106      1361       599      6910      1313       544       582      3561       491      1311      1613      6646      3164       419      1005      4423      2084      2080      1710       704       446        33
  precision         0.3648    0.3648    0.3648    0.3648    0.3648    0.3648    0.3648    0.3648    0.3648    0.3648    0.3648    0.3648    0.3648    0.3648    0.3648    0.3648    0.3648    0.3648    0.3648    0.3648    0.3648    0.3648    0.3648    0.3648    0.3648    0.3648    0.3648

3F2(Hz)
  mean            376.7654 1635.2349   165.125  1060.434 1928.7405 1464.3906    301.66 1572.2172 1798.4442 1484.1075 1683.3446  663.3563  1993.047 1228.3789 1668.4402 1670.8104 1140.7371 1591.1826  718.1291  683.5759  514.6794 1366.8989 1061.2779  404.8713 1576.6312 1342.8267         0
  std. dev.       728.5768  126.5237  511.8774  852.8257  349.1637  386.4941  641.4848  344.4831  511.8666  323.4684  595.5085  836.3005  650.7685   916.305  429.7958  333.6483  531.1147  461.0869  954.1605  837.7058  831.9432  622.7216  416.4942  702.9583  402.2539  670.1431    0.0738
  weight sum           429       109     35830       980       247     13106      1361       599      6910      1313       544       582      3561       491      1311      1613      6646      3164       419      1005      4423      2084      2080      1710       704       446        33
  precision         0.4429    0.4429    0.4429    0.4429    0.4429    0.4429    0.4429    0.4429    0.4429    0.4429    0.4429    0.4429    0.4429    0.4429    0.4429    0.4429    0.4429    0.4429    0.4429    0.4429    0.4429    0.4429    0.4429    0.4429    0.4429    0.4429    0.4429

3F3(Hz)
  mean            616.4638 2865.6822  281.5403 1732.2063 2524.3394 2731.7626  554.9263 2754.3524 2634.9785 2868.2959 2891.9207 1126.9161 2677.3565 1815.2793 2749.5582 2817.0102 2506.4348 2749.7681 1073.0478 1166.3549  854.4172 2375.0752 2694.0925  725.1378 2682.0069 2305.2749         0
  std. dev.      1191.5389  419.1793  858.0755 1335.6596  113.0258  712.9707 1138.7381  469.7834  764.1593  510.0445  938.3439 1415.7652  898.3116 1341.4367  555.7281  574.4479 1018.6433   687.776 1391.3525 1416.0614 1366.2348 1089.0427  755.1652  1247.971  652.7644 1165.0756    0.1103
  weight sum           429       109     35830       980       247     13106      1361       599      6910      1313       544       582      3561       491      1311      1613      6646      3164       419      1005      4423      2084      2080      1710       704       446        33
  precision          0.662     0.662     0.662     0.662     0.662     0.662     0.662     0.662     0.662     0.662     0.662     0.662     0.662     0.662     0.662     0.662     0.662     0.662     0.662     0.662     0.662     0.662     0.662     0.662     0.662     0.662     0.662

3F4(Hz)
  mean              737.11  3236.831   338.536 2157.8741 3590.7467  3144.537  651.7847 3297.5319   3174.33 3319.7801 2931.5846 1301.8229 3182.3609 2273.9788 3317.6185 3241.5892 2882.7851 3156.8141 1294.2891 1394.6656  966.9549  2746.307 3086.3027  837.3184 3253.5009 2674.3681         0
  std. dev.      1424.4748  401.7635 1029.4246 1650.7102   89.0647  807.8569 1338.2161  439.7233  885.5429  557.8761  953.5669 1625.1562 1024.5862 1668.8588  598.0784  577.5834 1153.5603  794.8923 1689.1398 1671.0354 1544.0952 1207.1513   763.546  1446.252  671.0726 1341.4249    0.1138
  weight sum           429       109     35830       980       247     13106      1361       599      6910      1313       544       582      3561       491      1311      1613      6646      3164       419      1005      4423      2084      2080      1710       704       446        33
  precision         0.6829    0.6829    0.6829    0.6829    0.6829    0.6829    0.6829    0.6829    0.6829    0.6829    0.6829    0.6829    0.6829    0.6829    0.6829    0.6829    0.6829    0.6829    0.6829    0.6829    0.6829    0.6829    0.6829    0.6829    0.6829    0.6829    0.6829





=== Stratified cross-validation ===

Correctly Classified Instances       26761               29.1832 %
Incorrectly Classified Instances     64939               70.8168 %
Kappa statistic                          0.2162
K&B Relative Info Score            1482772.6004 %
K&B Information Score                48813.974  bits      0.5323 bits/instance
Class complexity | order 0          301794.2055 bits      3.2911 bits/instance
Class complexity | scheme          6842998.1161 bits     74.6238 bits/instance
Complexity improvement     (Sf)    -6541203.9106 bits    -71.3326 bits/instance
Mean absolute error                      0.0526
Root mean squared error                  0.2205
Relative absolute error                 87.8237 %
Root relative squared error            127.4653 %
Coverage of cases (0.95 level)          33.5333 %
Mean rel. region size (0.95 level)       5.3418 %
Total Number of Instances            91700     


=== Detailed Accuracy By Class ===

                 TP Rate  FP Rate  Precision  Recall   F-Measure  MCC      ROC Area  PRC Area  Class
                 0,224    0,004    0,210      0,224    0,217      0,213    0,650     0,111     ch
                 0,367    0,018    0,024      0,367    0,044      0,089    0,885     0,046     rr
                 0,486    0,014    0,957      0,486    0,645      0,577    0,871     0,848     0
                 0,103    0,020    0,052      0,103    0,069      0,059    0,637     0,034     hs
                 0,935    0,133    0,019      0,935    0,037      0,122    0,956     0,131     hg
                 0,455    0,036    0,676      0,455    0,544      0,497    0,885     0,619     a
                 0,083    0,009    0,127      0,083    0,100      0,092    0,471     0,053     c
                 0,399    0,123    0,021      0,399    0,040      0,067    0,825     0,024     b
                 0,068    0,005    0,544      0,068    0,121      0,173    0,753     0,218     e
                 0,018    0,013    0,020      0,018    0,019      0,006    0,769     0,031     d
                 0,039    0,003    0,083      0,039    0,053      0,053    0,743     0,022     g
                 0,052    0,006    0,055      0,052    0,053      0,048    0,516     0,019     f
                 0,056    0,002    0,554      0,056    0,102      0,168    0,830     0,257     i
                 0,228    0,003    0,265      0,228    0,245      0,242    0,738     0,133     j
                 0,001    0,002    0,005      0,001    0,001      -0,004   0,787     0,036     m
                 0,275    0,046    0,096      0,275    0,143      0,138    0,825     0,066     l
                 0,006    0,003    0,159      0,006    0,012      0,018    0,741     0,164     o
                 0,015    0,009    0,055      0,015    0,023      0,011    0,772     0,076     n
                 0,029    0,001    0,111      0,029    0,046      0,054    0,634     0,028     q
                 0,014    0,003    0,047      0,014    0,021      0,020    0,514     0,028     p
                 0,093    0,002    0,753      0,093    0,165      0,254    0,593     0,269     s
                 0,022    0,005    0,096      0,022    0,036      0,036    0,691     0,044     r
                 0,214    0,004    0,549      0,214    0,308      0,334    0,855     0,303     u
                 0,082    0,008    0,163      0,082    0,109      0,104    0,497     0,061     t
                 0,000    0,002    0,000      0,000    0,000      -0,004   0,744     0,014     v
                 0,148    0,020    0,034      0,148    0,056      0,062    0,845     0,027     y
                 1,000    0,229    0,002      1,000    0,003      0,035    0,891     0,002     z
Weighted Avg.    0,292    0,015    0,609      0,292    0,371      0,349    0,802     0,489     


=== Confusion Matrix ===

     a     b     c     d     e     f     g     h     i     j     k     l     m     n     o     p     q     r     s     t     u     v     w     x     y     z    aa   <-- classified as
    96    20    15     6    12    11    45     5     1     2     0     7     0     3     0     8     0     5     3     1    33     5     1     6     0     1   143 |     a = ch
     0    40     0     0    52     5     0     6     0     0     0     0     0     0     0     2     0     0     0     0     0     0     0     0     0     4     0 |     b = rr
     1   163 17415   454   927    92    43   595    28   140     2   125    45    25    29   423    16   227     2    38    16    50    27   125    17   320 14485 |     c = 0
     0    16    38   101   275    12     4    51     4     4     0    25     1     6     0    45     0     9     0     0     6    21     5     0     2    76   279 |     d = hs
     0     1     0     0   231     0     0    10     0     1     0     0     0     0     0     2     0     1     0     0     0     0     0     0     0     1     0 |     e = hg
     2   331    84   116  1932  5966    70  2293    83   605     0    30     6    65     1   647    87    41    18    28     0   109    52    68    24   136   312 |     f = a
    45     3    67    53    37     0   113    27     6     3     0    22     3    19     0    20     8    22     9    24    26    11    11    91     0    19   722 |     g = c
     0    32     0     0   182    44     0   239     0     3     9     0     0     0     0    67     0     1     0     0     0     3    14     0     1     4     0 |     h = b
     0   105    18   124  2631   702    33  1659   471    26    84    15    18    31    10   373    53    59    15    37     1    26    26    59     0    94   240 |     i = e
     0    77     9    17   372   124     0   508     0    24     5     4     0     0     1   130     0     3     0     0     0     5     0     1     0    27     6 |     j = d
     0    27     4    11   143    79     0   152     0     1    21     7    10     0     6    47     0     1     0     0     0     0     1     3     0     3    28 |     k = g
     0    32    21    49    37     3     9    21     3     5     4    30     0     2     0     9     0    13     0     0     0    16     0    24     8    27   269 |     l = f
     1     6    22    65   917   153    29   789   166     0    49     6   200    11   115   497    15     6     7    36     5    17     2    55     0   239   153 |     m = i
     0     9    19    31    22    47     5    25     6     1     0    12     0   112     7     0     3    24     6     1     5    30     0     7     1    13   105 |     n = j
     0    19     1    37   516    78     0   375     0    30     0     1     1     0     1   177     0     0     0     1     0     1    16     6     0    31    20 |     o = m
     0    81     2    16   557    49     0   356     9     2     0     2     1     0     2   444     2    12     0     8     0     3     2    14     0    44     7 |     p = l
     2   143    23   175  1166   854    10  1932    38   211     0    31     7    31     3   582    43    37    15    31     0    26   178    38   100   295   675 |     q = o
     0   227    10   132   938    98     0   994     9    14    25    11    23     1     2   357     1    47     0     0     2     4    19     3     0   144   103 |     r = n
    38     0    12    16    30    13    39    11     4     6     0     8     0     9     2     5     1    26    12     2    26     2     0     7     0    11   139 |     s = q
     0    16    45    74    61    23    34    26     0    11    12    32     3     5     0    53     2    35     3    14     1    34     1    39     1    41   439 |     t = p
   272   137   274   251   137    73   315    34    19    27     6    95    28    80     9   121     9   136     7     5   411    37     1    64     1   129  1745 |     u = s
     0   156    25   108   412   119    11   414    11    26    36    24     8     2     4   299     3    46     1     8     1    46     5    42    13    50   214 |     v = r
     0    17     7    18   158   231     9   732     0    22     1     6     1     5     4   193    13     7     0    18     0    13   445    38    20    96    26 |     w = u
     0    36    85    90    50     3   109    29     1     9     0    41     6    16     2    11    14    90    10    39     4    20     3   140     0    25   877 |     x = t
     0     2     3     5   368    48     1   145     7     3     0     2     0     0    10    55     1     6     0     1     0     1     0    13     0    25     8 |     y = v
     0     2     7     9   202     0    11    30     0     0     0     7     0     0     0    42     0     4     0     6     9     1     1    18     0    66    31 |     z = y
     0     0     0     0     0     0     0     0     0     0     0     0     0     0     0     0     0     0     0     0     0     0     0     0     0     0    33 |    aa = z

=== Percent Confusion Matrix ===
a	b	c	d	e	f	g	h	i	j	k	l	m	n	o	p	q	r	s	t	u	v	w	x	y	z	aa	
22.38	4.66	3.5	1.4	2.8	2.56	10.49	1.17	0.23	0.47	0.0	1.63	0.0	0.7	0.0	1.86	0.0	1.17	0.7	0.23	7.69	1.17	0.23	1.4	0.0	0.23	33.33	 a = ch
0.0	36.7	0.0	0.0	47.71	4.59	0.0	5.5	0.0	0.0	0.0	0.0	0.0	0.0	0.0	1.83	0.0	0.0	0.0	0.0	0.0	0.0	0.0	0.0	0.0	3.67	0.0	 b = rr
0.0	0.45	48.6	1.27	2.59	0.26	0.12	1.66	0.08	0.39	0.01	0.35	0.13	0.07	0.08	1.18	0.04	0.63	0.01	0.11	0.04	0.14	0.08	0.35	0.05	0.89	40.43	 c = 0
0.0	1.63	3.88	10.31	28.06	1.22	0.41	5.2	0.41	0.41	0.0	2.55	0.1	0.61	0.0	4.59	0.0	0.92	0.0	0.0	0.61	2.14	0.51	0.0	0.2	7.76	28.47	 d = hs
0.0	0.4	0.0	0.0	93.52	0.0	0.0	4.05	0.0	0.4	0.0	0.0	0.0	0.0	0.0	0.81	0.0	0.4	0.0	0.0	0.0	0.0	0.0	0.0	0.0	0.4	0.0	 e = hg
0.02	2.53	0.64	0.89	14.74	45.52	0.53	17.5	0.63	4.62	0.0	0.23	0.05	0.5	0.01	4.94	0.66	0.31	0.14	0.21	0.0	0.83	0.4	0.52	0.18	1.04	2.38	 f = a
3.31	0.22	4.92	3.89	2.72	0.0	8.3	1.98	0.44	0.22	0.0	1.62	0.22	1.4	0.0	1.47	0.59	1.62	0.66	1.76	1.91	0.81	0.81	6.69	0.0	1.4	53.05	 g = c
0.0	5.34	0.0	0.0	30.38	7.35	0.0	39.9	0.0	0.5	1.5	0.0	0.0	0.0	0.0	11.19	0.0	0.17	0.0	0.0	0.0	0.5	2.34	0.0	0.17	0.67	0.0	 h = b
0.0	1.52	0.26	1.79	38.08	10.16	0.48	24.01	6.82	0.38	1.22	0.22	0.26	0.45	0.14	5.4	0.77	0.85	0.22	0.54	0.01	0.38	0.38	0.85	0.0	1.36	3.47	 i = e
0.0	5.86	0.69	1.29	28.33	9.44	0.0	38.69	0.0	1.83	0.38	0.3	0.0	0.0	0.08	9.9	0.0	0.23	0.0	0.0	0.0	0.38	0.0	0.08	0.0	2.06	0.46	 j = d
0.0	4.96	0.74	2.02	26.29	14.52	0.0	27.94	0.0	0.18	3.86	1.29	1.84	0.0	1.1	8.64	0.0	0.18	0.0	0.0	0.0	0.0	0.18	0.55	0.0	0.55	5.15	 k = g
0.0	5.5	3.61	8.42	6.36	0.52	1.55	3.61	0.52	0.86	0.69	5.15	0.0	0.34	0.0	1.55	0.0	2.23	0.0	0.0	0.0	2.75	0.0	4.12	1.37	4.64	46.22	 l = f
0.03	0.17	0.62	1.83	25.75	4.3	0.81	22.16	4.66	0.0	1.38	0.17	5.62	0.31	3.23	13.96	0.42	0.17	0.2	1.01	0.14	0.48	0.06	1.54	0.0	6.71	4.3	 m = i
0.0	1.83	3.87	6.31	4.48	9.57	1.02	5.09	1.22	0.2	0.0	2.44	0.0	22.81	1.43	0.0	0.61	4.89	1.22	0.2	1.02	6.11	0.0	1.43	0.2	2.65	21.38	 n = j
0.0	1.45	0.08	2.82	39.36	5.95	0.0	28.6	0.0	2.29	0.0	0.08	0.08	0.0	0.08	13.5	0.0	0.0	0.0	0.08	0.0	0.08	1.22	0.46	0.0	2.36	1.53	 o = m
0.0	5.02	0.12	0.99	34.53	3.04	0.0	22.07	0.56	0.12	0.0	0.12	0.06	0.0	0.12	27.53	0.12	0.74	0.0	0.5	0.0	0.19	0.12	0.87	0.0	2.73	0.43	 p = l
0.03	2.15	0.35	2.63	17.54	12.85	0.15	29.07	0.57	3.17	0.0	0.47	0.11	0.47	0.05	8.76	0.65	0.56	0.23	0.47	0.0	0.39	2.68	0.57	1.5	4.44	10.16	 q = o
0.0	7.17	0.32	4.17	29.65	3.1	0.0	31.42	0.28	0.44	0.79	0.35	0.73	0.03	0.06	11.28	0.03	1.49	0.0	0.0	0.06	0.13	0.6	0.09	0.0	4.55	3.26	 r = n
9.07	0.0	2.86	3.82	7.16	3.1	9.31	2.63	0.95	1.43	0.0	1.91	0.0	2.15	0.48	1.19	0.24	6.21	2.86	0.48	6.21	0.48	0.0	1.67	0.0	2.63	33.17	 s = q
0.0	1.59	4.48	7.36	6.07	2.29	3.38	2.59	0.0	1.09	1.19	3.18	0.3	0.5	0.0	5.27	0.2	3.48	0.3	1.39	0.1	3.38	0.1	3.88	0.1	4.08	43.68	 t = p
6.15	3.1	6.19	5.67	3.1	1.65	7.12	0.77	0.43	0.61	0.14	2.15	0.63	1.81	0.2	2.74	0.2	3.07	0.16	0.11	9.29	0.84	0.02	1.45	0.02	2.92	39.45	 u = s
0.0	7.49	1.2	5.18	19.77	5.71	0.53	19.87	0.53	1.25	1.73	1.15	0.38	0.1	0.19	14.35	0.14	2.21	0.05	0.38	0.05	2.21	0.24	2.02	0.62	2.4	10.27	 v = r
0.0	0.82	0.34	0.87	7.6	11.11	0.43	35.19	0.0	1.06	0.05	0.29	0.05	0.24	0.19	9.28	0.63	0.34	0.0	0.87	0.0	0.63	21.39	1.83	0.96	4.62	1.25	 w = u
0.0	2.11	4.97	5.26	2.92	0.18	6.37	1.7	0.06	0.53	0.0	2.4	0.35	0.94	0.12	0.64	0.82	5.26	0.58	2.28	0.23	1.17	0.18	8.19	0.0	1.46	51.29	 x = t
0.0	0.28	0.43	0.71	52.27	6.82	0.14	20.6	0.99	0.43	0.0	0.28	0.0	0.0	1.42	7.81	0.14	0.85	0.0	0.14	0.0	0.14	0.0	1.85	0.0	3.55	1.14	 y = v
0.0	0.45	1.57	2.02	45.29	0.0	2.47	6.73	0.0	0.0	0.0	1.57	0.0	0.0	0.0	9.42	0.0	0.9	0.0	1.35	2.02	0.22	0.22	4.04	0.0	14.8	6.95	 z = y
0.0	0.0	0.0	0.0	0.0	0.0	0.0	0.0	0.0	0.0	0.0	0.0	0.0	0.0	0.0	0.0	0.0	0.0	0.0	0.0	0.0	0.0	0.0	0.0	0.0	0.0	100.0	 aa = z
