Timestamp:2013-07-22-20:46:56
Inventario:I0
Intervalo:20ms
Ngramas:2
Clasificador:RandomForest
Relation Name:  I0-20ms-2gramas
Num Instances:  9128
Num Attributes: 21

     Name                      Type  Nom  Int Real     Missing      Unique  Dist
   1 0Int(dB)                   Num   0%  11%  89%     0 /  0%    14 /  0%   764 
   2 0Pitch(Hz)                 Num   0%  49%  51%     0 /  0%  1033 / 11%  2440 
   3 0RawPitch                  Num   0%  52%  48%     0 /  0%  1062 / 12%  2369 
   4 0SmPitch                   Num   0%  50%  50%     0 /  0%  1056 / 12%  2419 
   5 0Melogram(st)              Num   0%  45%  55%     0 /  0%   937 / 10%  2341 
   6 0ZCross                    Num   0% 100%   0%     0 /  0%     7 /  0%    34 
   7 0F1(Hz)                    Num   0%  49%  51%     0 /  0%  2180 / 24%  3398 
   8 0F2(Hz)                    Num   0%  49%  51%     0 /  0%  3463 / 38%  4259 
   9 0F3(Hz)                    Num   0%  49%  51%     0 /  0%  3209 / 35%  4087 
  10 0F4(Hz)                    Num   0%  49%  51%     0 /  0%  3134 / 34%  4027 
  11 1Int(dB)                   Num   0%  11%  89%     0 /  0%    14 /  0%   764 
  12 1Pitch(Hz)                 Num   0%  49%  51%     0 /  0%  1033 / 11%  2440 
  13 1RawPitch                  Num   0%  52%  48%     0 /  0%  1062 / 12%  2369 
  14 1SmPitch                   Num   0%  50%  50%     0 /  0%  1056 / 12%  2419 
  15 1Melogram(st)              Num   0%  45%  55%     0 /  0%   938 / 10%  2342 
  16 1ZCross                    Num   0% 100%   0%     0 /  0%     7 /  0%    34 
  17 1F1(Hz)                    Num   0%  49%  51%     0 /  0%  2180 / 24%  3398 
  18 1F2(Hz)                    Num   0%  49%  51%     0 /  0%  3463 / 38%  4259 
  19 1F3(Hz)                    Num   0%  49%  51%     0 /  0%  3209 / 35%  4087 
  20 1F4(Hz)                    Num   0%  49%  51%     0 /  0%  3134 / 34%  4027 
  21 class                      Nom 100%   0%   0%     0 /  0%     0 /  0%    27 


Options: -I 10 -K 0 -S 1 -num-slots 4 

Random forest of 10 trees, each constructed while considering 5 random features.
Out of bag error: 0.3915





=== Stratified cross-validation ===

Correctly Classified Instances        5969               65.3922 %
Incorrectly Classified Instances      3159               34.6078 %
Kappa statistic                          0.5757
K&B Relative Info Score             499013.3316 %
K&B Information Score                17001.9569 bits      1.8626 bits/instance
Class complexity | order 0           31017.8607 bits      3.3981 bits/instance
Class complexity | scheme          1316829.4794 bits    144.2627 bits/instance
Complexity improvement     (Sf)    -1285811.6187 bits   -140.8646 bits/instance
Mean absolute error                      0.0325
Root mean squared error                  0.1315
Relative absolute error                 52.8519 %
Root relative squared error             74.9897 %
Coverage of cases (0.95 level)          86.6236 %
Mean rel. region size (0.95 level)      12.612  %
Total Number of Instances             9128     


=== Detailed Accuracy By Class ===

                 TP Rate  FP Rate  Precision  Recall   F-Measure  MCC      ROC Area  PRC Area  Class
                 0,150    0,003    0,194      0,150    0,169      0,167    0,638     0,086     ch
                 0,000    0,000    0,000      0,000    0,000      -0,001   0,676     0,015     rr
                 0,927    0,078    0,867      0,927    0,896      0,837    0,973     0,948     0
                 0,191    0,006    0,273      0,191    0,225      0,220    0,750     0,101     hs
                 0,037    0,001    0,167      0,037    0,061      0,077    0,769     0,078     hg
                 0,822    0,071    0,671      0,822    0,739      0,692    0,939     0,826     a
                 0,174    0,010    0,205      0,174    0,188      0,177    0,725     0,098     c
                 0,053    0,002    0,120      0,053    0,073      0,076    0,679     0,046     b
                 0,661    0,054    0,521      0,661    0,583      0,545    0,909     0,563     e
                 0,120    0,009    0,167      0,120    0,140      0,131    0,763     0,090     d
                 0,100    0,001    0,316      0,100    0,152      0,175    0,817     0,159     g
                 0,082    0,004    0,111      0,082    0,094      0,090    0,707     0,051     f
                 0,608    0,023    0,543      0,608    0,574      0,555    0,903     0,555     i
                 0,184    0,001    0,529      0,184    0,273      0,310    0,805     0,210     j
                 0,326    0,007    0,422      0,326    0,368      0,362    0,874     0,340     m
                 0,175    0,005    0,368      0,175    0,237      0,245    0,801     0,191     l
                 0,541    0,041    0,529      0,541    0,535      0,495    0,873     0,521     o
                 0,414    0,021    0,426      0,414    0,420      0,398    0,889     0,372     n
                 0,093    0,002    0,222      0,093    0,131      0,141    0,684     0,053     q
                 0,079    0,004    0,186      0,079    0,111      0,115    0,651     0,045     p
                 0,510    0,025    0,519      0,510    0,514      0,488    0,868     0,483     s
                 0,168    0,006    0,400      0,168    0,237      0,248    0,759     0,170     r
                 0,436    0,007    0,609      0,436    0,508      0,505    0,899     0,547     u
                 0,147    0,011    0,211      0,147    0,173      0,163    0,741     0,086     t
                 0,104    0,001    0,400      0,104    0,165      0,201    0,727     0,112     v
                 0,271    0,002    0,481      0,271    0,347      0,359    0,791     0,236     y
                 0,000    0,000    0,000      0,000    0,000      -0,000   0,499     0,001     z
Weighted Avg.    0,654    0,050    0,624      0,654    0,632      0,595    0,902     0,646     


=== Confusion Matrix ===

    a    b    c    d    e    f    g    h    i    j    k    l    m    n    o    p    q    r    s    t    u    v    w    x    y    z   aa   <-- classified as
    6    0    8    1    0    5    1    0    1    0    0    0    1    1    1    0    0    1    0    0   12    0    0    2    0    0    0 |    a = ch
    0    0    2    1    0    3    0    0    4    0    0    0    0    0    0    0    0    1    0    0    0    0    0    0    0    0    0 |    b = rr
    3    0 3001   11    0   27   14    0   17    2    0    8   13    1    0    0   45    8    1   11   41    0    1   30    0    2    0 |    c = 0
    0    0   23   21    1   15    1    0    8    1    2    2    3    2    3    2    7    3    0    1    9    3    0    2    1    0    0 |    d = hs
    0    0    1    1    1    4    0    0    9    0    1    0    2    1    1    0    3    2    0    1    0    0    0    0    0    0    0 |    e = hg
    2    0   35    7    0 1124    7    0   54    6    1    2   10    0    2    5   52   18    1    1   17   14    4    6    0    0    0 |    f = a
    3    0   36    1    0   13   24    0    4    1    0    2    1    1    1    0   14    3    7    1   20    1    0    5    0    0    0 |    g = c
    0    0    0    0    0    9    0    3    7    1    0    0    6    0    9    2   12    4    0    0    0    0    4    0    0    0    0 |    h = b
    0    0   16    1    2   72    6    5  493   14    2    1   35    0    8    7   26   20    0    5   15    6    7    3    0    2    0 |    i = e
    0    0    2    0    0   22    1    1   21   16    0    0    6    0    3    2   36   16    0    0    1    1    4    1    0    0    0 |    j = d
    0    0    3    1    0   13    1    0   15    1    6    0    6    0    0    0    3    5    0    0    1    3    2    0    0    0    0 |    k = g
    0    0   18    0    0    6    4    0    4    0    0    5    0    0    0    1    0    1    0    1   18    2    0    1    0    0    0 |    l = f
    0    0   18    4    1   12    1    3   69    0    0    2  234    0    6    4    3    4    1    2    8    1    4    6    1    1    0 |    m = i
    0    0    4    2    1   12    1    0    6    0    0    2    1    9    0    0    1    0    0    0    8    1    0    1    0    0    0 |    n = j
    0    0    4    1    0   10    1    2   20    4    0    0   20    0   46    2    6   16    0    0    4    0    4    0    1    0    0 |    o = m
    0    0    6    2    0   28    0    0   22    6    0    0   18    0    4   28   13   24    0    0    1    1    3    2    2    0    0 |    p = l
    3    1   62    2    0  105    8    2   45   17    4    2    4    0    7    6  385   18    0    4    7    4   13    9    1    1    2 |    q = o
    1    0   13    5    0   36    1    3   48   12    0    1   21    0    8    4   23  139    1    0    3    5    6    4    1    1    0 |    r = n
    1    0    9    0    0    4    6    0    2    0    0    0    2    0    0    1    5    2    4    0    7    0    0    0    0    0    0 |    s = q
    2    0   36    4    0   15    4    0    6    0    0    2    4    2    0    0    4    2    0    8    4    0    0    8    0    0    0 |    t = p
    7    0   74    8    0   34   10    0   16    0    0   13   16    0    2    0    8   11    2    2  236    5    2   12    0    5    0 |    u = s
    1    1   23    4    0   72    4    1   23    5    0    1   10    0    0    3   14    5    0    2   12   38    1    1    3    2    0 |    v = r
    0    0    2    0    0    9    3    4   18    6    2    0    6    0    6    4   41   14    0    1    3    1   95    2    1    0    0 |    w = u
    2    0   59    0    0   12   18    0   11    2    0    1    4    0    1    0    6    4    1    2   23    3    1   26    1    0    0 |    x = t
    0    0    3    0    0    9    0    1   14    1    1    1    6    0    1    5   18    1    0    1    0    4    2    1    8    0    0 |    y = v
    0    0    4    0    0    4    0    0    9    1    0    0    2    0    0    0    2    4    0    0    4    2    3    0    0   13    0 |    z = y
    0    0    1    0    0    0    1    0    0    0    0    0    0    0    0    0    1    0    0    0    1    0    0    1    0    0    0 |   aa = z

=== Percent Confusion Matrix ===
a	b	c	d	e	f	g	h	i	j	k	l	m	n	o	p	q	r	s	t	u	v	w	x	y	z	aa	
15.0	0.0	20.0	2.5	0.0	12.5	2.5	0.0	2.5	0.0	0.0	0.0	2.5	2.5	2.5	0.0	0.0	2.5	0.0	0.0	30.0	0.0	0.0	5.0	0.0	0.0	0.0	 a = ch
0.0	0.0	18.18	9.09	0.0	27.27	0.0	0.0	36.36	0.0	0.0	0.0	0.0	0.0	0.0	0.0	0.0	9.09	0.0	0.0	0.0	0.0	0.0	0.0	0.0	0.0	0.0	 b = rr
0.09	0.0	92.74	0.34	0.0	0.83	0.43	0.0	0.53	0.06	0.0	0.25	0.4	0.03	0.0	0.0	1.39	0.25	0.03	0.34	1.27	0.0	0.03	0.93	0.0	0.06	0.0	 c = 0
0.0	0.0	20.91	19.09	0.91	13.64	0.91	0.0	7.27	0.91	1.82	1.82	2.73	1.82	2.73	1.82	6.36	2.73	0.0	0.91	8.18	2.73	0.0	1.82	0.91	0.0	0.0	 d = hs
0.0	0.0	3.7	3.7	3.7	14.81	0.0	0.0	33.33	0.0	3.7	0.0	7.41	3.7	3.7	0.0	11.11	7.41	0.0	3.7	0.0	0.0	0.0	0.0	0.0	0.0	0.0	 e = hg
0.15	0.0	2.56	0.51	0.0	82.16	0.51	0.0	3.95	0.44	0.07	0.15	0.73	0.0	0.15	0.37	3.8	1.32	0.07	0.07	1.24	1.02	0.29	0.44	0.0	0.0	0.0	 f = a
2.17	0.0	26.09	0.72	0.0	9.42	17.39	0.0	2.9	0.72	0.0	1.45	0.72	0.72	0.72	0.0	10.14	2.17	5.07	0.72	14.49	0.72	0.0	3.62	0.0	0.0	0.0	 g = c
0.0	0.0	0.0	0.0	0.0	15.79	0.0	5.26	12.28	1.75	0.0	0.0	10.53	0.0	15.79	3.51	21.05	7.02	0.0	0.0	0.0	0.0	7.02	0.0	0.0	0.0	0.0	 h = b
0.0	0.0	2.14	0.13	0.27	9.65	0.8	0.67	66.09	1.88	0.27	0.13	4.69	0.0	1.07	0.94	3.49	2.68	0.0	0.67	2.01	0.8	0.94	0.4	0.0	0.27	0.0	 i = e
0.0	0.0	1.5	0.0	0.0	16.54	0.75	0.75	15.79	12.03	0.0	0.0	4.51	0.0	2.26	1.5	27.07	12.03	0.0	0.0	0.75	0.75	3.01	0.75	0.0	0.0	0.0	 j = d
0.0	0.0	5.0	1.67	0.0	21.67	1.67	0.0	25.0	1.67	10.0	0.0	10.0	0.0	0.0	0.0	5.0	8.33	0.0	0.0	1.67	5.0	3.33	0.0	0.0	0.0	0.0	 k = g
0.0	0.0	29.51	0.0	0.0	9.84	6.56	0.0	6.56	0.0	0.0	8.2	0.0	0.0	0.0	1.64	0.0	1.64	0.0	1.64	29.51	3.28	0.0	1.64	0.0	0.0	0.0	 l = f
0.0	0.0	4.68	1.04	0.26	3.12	0.26	0.78	17.92	0.0	0.0	0.52	60.78	0.0	1.56	1.04	0.78	1.04	0.26	0.52	2.08	0.26	1.04	1.56	0.26	0.26	0.0	 m = i
0.0	0.0	8.16	4.08	2.04	24.49	2.04	0.0	12.24	0.0	0.0	4.08	2.04	18.37	0.0	0.0	2.04	0.0	0.0	0.0	16.33	2.04	0.0	2.04	0.0	0.0	0.0	 n = j
0.0	0.0	2.84	0.71	0.0	7.09	0.71	1.42	14.18	2.84	0.0	0.0	14.18	0.0	32.62	1.42	4.26	11.35	0.0	0.0	2.84	0.0	2.84	0.0	0.71	0.0	0.0	 o = m
0.0	0.0	3.75	1.25	0.0	17.5	0.0	0.0	13.75	3.75	0.0	0.0	11.25	0.0	2.5	17.5	8.13	15.0	0.0	0.0	0.63	0.63	1.88	1.25	1.25	0.0	0.0	 p = l
0.42	0.14	8.71	0.28	0.0	14.75	1.12	0.28	6.32	2.39	0.56	0.28	0.56	0.0	0.98	0.84	54.07	2.53	0.0	0.56	0.98	0.56	1.83	1.26	0.14	0.14	0.28	 q = o
0.3	0.0	3.87	1.49	0.0	10.71	0.3	0.89	14.29	3.57	0.0	0.3	6.25	0.0	2.38	1.19	6.85	41.37	0.3	0.0	0.89	1.49	1.79	1.19	0.3	0.3	0.0	 r = n
2.33	0.0	20.93	0.0	0.0	9.3	13.95	0.0	4.65	0.0	0.0	0.0	4.65	0.0	0.0	2.33	11.63	4.65	9.3	0.0	16.28	0.0	0.0	0.0	0.0	0.0	0.0	 s = q
1.98	0.0	35.64	3.96	0.0	14.85	3.96	0.0	5.94	0.0	0.0	1.98	3.96	1.98	0.0	0.0	3.96	1.98	0.0	7.92	3.96	0.0	0.0	7.92	0.0	0.0	0.0	 t = p
1.51	0.0	15.98	1.73	0.0	7.34	2.16	0.0	3.46	0.0	0.0	2.81	3.46	0.0	0.43	0.0	1.73	2.38	0.43	0.43	50.97	1.08	0.43	2.59	0.0	1.08	0.0	 u = s
0.44	0.44	10.18	1.77	0.0	31.86	1.77	0.44	10.18	2.21	0.0	0.44	4.42	0.0	0.0	1.33	6.19	2.21	0.0	0.88	5.31	16.81	0.44	0.44	1.33	0.88	0.0	 v = r
0.0	0.0	0.92	0.0	0.0	4.13	1.38	1.83	8.26	2.75	0.92	0.0	2.75	0.0	2.75	1.83	18.81	6.42	0.0	0.46	1.38	0.46	43.58	0.92	0.46	0.0	0.0	 w = u
1.13	0.0	33.33	0.0	0.0	6.78	10.17	0.0	6.21	1.13	0.0	0.56	2.26	0.0	0.56	0.0	3.39	2.26	0.56	1.13	12.99	1.69	0.56	14.69	0.56	0.0	0.0	 x = t
0.0	0.0	3.9	0.0	0.0	11.69	0.0	1.3	18.18	1.3	1.3	1.3	7.79	0.0	1.3	6.49	23.38	1.3	0.0	1.3	0.0	5.19	2.6	1.3	10.39	0.0	0.0	 y = v
0.0	0.0	8.33	0.0	0.0	8.33	0.0	0.0	18.75	2.08	0.0	0.0	4.17	0.0	0.0	0.0	4.17	8.33	0.0	0.0	8.33	4.17	6.25	0.0	0.0	27.08	0.0	 z = y
0.0	0.0	20.0	0.0	0.0	0.0	20.0	0.0	0.0	0.0	0.0	0.0	0.0	0.0	0.0	0.0	20.0	0.0	0.0	0.0	20.0	0.0	0.0	20.0	0.0	0.0	0.0	 aa = z
