Timestamp:2013-07-22-20:39:58
Inventario:I0
Intervalo:3ms
Ngramas:4
Clasificador:RandomForest
Relation Name:  I0-3ms-4gramas
Num Instances:  61132
Num Attributes: 41

     Name                      Type  Nom  Int Real     Missing      Unique  Dist
   1 0Int(dB)                   Num   0%  10%  90%     0 /  0%     2 /  0%   776 
   2 0Pitch(Hz)                 Num   0%  52%  48%     0 /  0%   559 /  1%  3828 
   3 0RawPitch                  Num   0%  55%  45%     0 /  0%   613 /  1%  3808 
   4 0SmPitch                   Num   0%  53%  47%     0 /  0%   575 /  1%  3802 
   5 0Melogram(st)              Num   0%  49%  51%     0 /  0%   269 /  0%  3285 
   6 0ZCross                    Num   0% 100%   0%     0 /  0%     3 /  0%    50 
   7 0F1(Hz)                    Num   0%  52%  48%     0 /  0%  1075 /  2%  4783 
   8 0F2(Hz)                    Num   0%  52%  48%     0 /  0%  2270 /  4%  6724 
   9 0F3(Hz)                    Num   0%  52%  48%     0 /  0%  1945 /  3%  6241 
  10 0F4(Hz)                    Num   0%  52%  48%     0 /  0%  1922 /  3%  6122 
  11 1Int(dB)                   Num   0%  10%  90%     0 /  0%     2 /  0%   776 
  12 1Pitch(Hz)                 Num   0%  52%  48%     0 /  0%   559 /  1%  3828 
  13 1RawPitch                  Num   0%  55%  45%     0 /  0%   613 /  1%  3808 
  14 1SmPitch                   Num   0%  53%  47%     0 /  0%   575 /  1%  3802 
  15 1Melogram(st)              Num   0%  49%  51%     0 /  0%   269 /  0%  3285 
  16 1ZCross                    Num   0% 100%   0%     0 /  0%     3 /  0%    50 
  17 1F1(Hz)                    Num   0%  52%  48%     0 /  0%  1075 /  2%  4783 
  18 1F2(Hz)                    Num   0%  52%  48%     0 /  0%  2270 /  4%  6724 
  19 1F3(Hz)                    Num   0%  52%  48%     0 /  0%  1945 /  3%  6241 
  20 1F4(Hz)                    Num   0%  52%  48%     0 /  0%  1922 /  3%  6122 
  21 2Int(dB)                   Num   0%  10%  90%     0 /  0%     2 /  0%   776 
  22 2Pitch(Hz)                 Num   0%  52%  48%     0 /  0%   559 /  1%  3828 
  23 2RawPitch                  Num   0%  55%  45%     0 /  0%   613 /  1%  3808 
  24 2SmPitch                   Num   0%  53%  47%     0 /  0%   575 /  1%  3802 
  25 2Melogram(st)              Num   0%  49%  51%     0 /  0%   269 /  0%  3285 
  26 2ZCross                    Num   0% 100%   0%     0 /  0%     3 /  0%    50 
  27 2F1(Hz)                    Num   0%  52%  48%     0 /  0%  1075 /  2%  4783 
  28 2F2(Hz)                    Num   0%  52%  48%     0 /  0%  2270 /  4%  6724 
  29 2F3(Hz)                    Num   0%  52%  48%     0 /  0%  1945 /  3%  6241 
  30 2F4(Hz)                    Num   0%  52%  48%     0 /  0%  1922 /  3%  6122 
  31 3Int(dB)                   Num   0%  10%  90%     0 /  0%     3 /  0%   777 
  32 3Pitch(Hz)                 Num   0%  52%  48%     0 /  0%   559 /  1%  3828 
  33 3RawPitch                  Num   0%  55%  45%     0 /  0%   613 /  1%  3808 
  34 3SmPitch                   Num   0%  53%  47%     0 /  0%   575 /  1%  3802 
  35 3Melogram(st)              Num   0%  49%  51%     0 /  0%   269 /  0%  3285 
  36 3ZCross                    Num   0% 100%   0%     0 /  0%     3 /  0%    50 
  37 3F1(Hz)                    Num   0%  52%  48%     0 /  0%  1075 /  2%  4783 
  38 3F2(Hz)                    Num   0%  52%  48%     0 /  0%  2270 /  4%  6724 
  39 3F3(Hz)                    Num   0%  52%  48%     0 /  0%  1945 /  3%  6241 
  40 3F4(Hz)                    Num   0%  52%  48%     0 /  0%  1922 /  3%  6122 
  41 class                      Nom 100%   0%   0%     0 /  0%     0 /  0%    27 


Options: -I 10 -K 0 -S 1 -num-slots 4 

Random forest of 10 trees, each constructed while considering 6 random features.
Out of bag error: 0.1839





=== Stratified cross-validation ===

Correctly Classified Instances       52715               86.2314 %
Incorrectly Classified Instances      8417               13.7686 %
Kappa statistic                          0.8273
K&B Relative Info Score            4834060.5876 %
K&B Information Score               159580.2386 bits      2.6104 bits/instance
Class complexity | order 0          201725.7961 bits      3.2998 bits/instance
Class complexity | scheme          3207358.508  bits     52.4661 bits/instance
Complexity improvement     (Sf)    -3005632.7119 bits    -49.1663 bits/instance
Mean absolute error                      0.0177
Root mean squared error                  0.0902
Relative absolute error                 29.5218 %
Root relative squared error             52.0569 %
Coverage of cases (0.95 level)          95.1564 %
Mean rel. region size (0.95 level)       8.7791 %
Total Number of Instances            61132     


=== Detailed Accuracy By Class ===

                 TP Rate  FP Rate  Precision  Recall   F-Measure  MCC      ROC Area  PRC Area  Class
                 0,374    0,002    0,514      0,374    0,433      0,436    0,825     0,383     ch
                 0,875    0,000    0,875      0,875    0,875      0,875    1,000     0,917     rr
                 0,953    0,082    0,881      0,953    0,915      0,860    0,981     0,963     0
                 0,631    0,002    0,818      0,631    0,713      0,716    0,886     0,665     hs
                 0,837    0,000    0,939      0,837    0,885      0,887    0,991     0,933     hg
                 0,936    0,016    0,905      0,936    0,920      0,907    0,982     0,958     a
                 0,312    0,008    0,382      0,312    0,344      0,336    0,821     0,258     c
                 0,877    0,000    0,928      0,877    0,902      0,902    0,995     0,943     b
                 0,901    0,012    0,862      0,901    0,881      0,871    0,977     0,925     e
                 0,833    0,001    0,908      0,833    0,869      0,868    0,990     0,918     d
                 0,843    0,000    0,922      0,843    0,881      0,881    0,976     0,896     g
                 0,464    0,002    0,547      0,464    0,502      0,501    0,872     0,432     f
                 0,862    0,005    0,885      0,862    0,873      0,869    0,971     0,907     i
                 0,597    0,001    0,845      0,597    0,700      0,709    0,900     0,660     j
                 0,913    0,001    0,915      0,913    0,914      0,912    0,987     0,946     m
                 0,861    0,002    0,905      0,861    0,883      0,881    0,987     0,913     l
                 0,828    0,008    0,891      0,828    0,859      0,849    0,953     0,878     o
                 0,893    0,003    0,927      0,893    0,910      0,907    0,983     0,939     n
                 0,330    0,001    0,626      0,330    0,432      0,453    0,813     0,376     q
                 0,360    0,003    0,562      0,360    0,439      0,445    0,818     0,366     p
                 0,717    0,015    0,702      0,717    0,710      0,695    0,947     0,736     s
                 0,685    0,002    0,878      0,685    0,770      0,771    0,943     0,779     r
                 0,905    0,001    0,953      0,905    0,928      0,927    0,985     0,952     u
                 0,287    0,007    0,445      0,287    0,349      0,348    0,815     0,278     t
                 0,787    0,000    0,933      0,787    0,854      0,856    0,983     0,893     v
                 0,732    0,000    0,901      0,732    0,807      0,811    0,950     0,825     y
                 0,000    0,000    0,000      0,000    0,000      -0,000   0,520     0,001     z
Weighted Avg.    0,862    0,037    0,855      0,862    0,857      0,831    0,965     0,887     


=== Confusion Matrix ===

     a     b     c     d     e     f     g     h     i     j     k     l     m     n     o     p     q     r     s     t     u     v     w     x     y     z    aa   <-- classified as
   108     0    46     3     0     4    14     0     4     0     0     0     0     0     0     0     4     0     5     1    89     1     0     9     0     1     0 |     a = ch
     0    63     1     0     0     3     0     0     4     0     0     0     0     0     0     0     1     0     0     0     0     0     0     0     0     0     0 |     b = rr
    12     0 22606    18     1   135   105     1   121     7     6    31    63     7    10    23   121    31     7    46   233    23    12    94     5     4     1 |     c = 0
     0     0   164   414     0    12     4     0     7     2     0     4     2     0     0     0     9     0     1     4    25     2     3     3     0     0     0 |     d = hs
     0     0     2     0   139     8     0     0    11     0     0     0     5     0     0     0     0     1     0     0     0     0     0     0     0     0     0 |     e = hg
     6     4   223     9     1  8200    31     5    40    15     4     7    16     3     8    16    36    20     5    17    36    18     2    36     2     3     0 |     f = a
    12     0   315     4     0    37   285     0    16     0     0     5    15     4     0     0    18     1    22    18    91     2     4    64     0     0     0 |     g = c
     0     0     6     0     0    16     0   350     7     1     0     0    11     0     2     0     1     0     0     0     0     3     1     0     1     0     0 |     h = b
     3     3   161     6     0    55    22     1  4162    14     7     3    26     1    12     9    24    16     4     8    21    20     5    25     8     4     1 |     i = e
     0     0    21     0     0    27     2     1    39   734     0     0     2     0     1     2    32    14     0     0     1     1     2     0     1     1     0 |     j = d
     0     0    15     0     2    12     2     0    15     0   306     1     3     0     0     0     0     0     0     1     2     2     0     2     0     0     0 |     k = g
     2     0    55     1     0     8     8     0     7     0     0   181     4     2     0     0    12     0     1     6    92     4     0     6     0     1     0 |     l = f
     1     0   118     3     4    29    13     8    67     1     3     3  2054     1     5     8     5     5     3     4    18     1     1    18     7     2     0 |     m = i
     3     0    30     2     0    17     6     0     8     0     0     6     1   197     0     0     3     2     0     0    50     1     2     2     0     0     0 |     n = j
     0     0    19     0     0     8     1     2    13     0     0     0     9     0   803     3     8     2     0     3     2     1     2     3     1     0     0 |     o = m
     0     0    18     1     0    57     1     0    29     1     0     0     8     0     4   928    18     3     0     0     1     3     3     2     1     0     0 |     p = l
     6     0   419     9     0    82    25     0    58    18     1    11    11     1    18    10  3697    18     1    11    31    13     8    14     0     1     0 |     q = o
     0     1    71     1     0    43     3     0    38     7     0     3     5     1     1     2    21  1896     0     3    13     2     2    11     0     0     0 |     r = n
     8     0    86     0     0     6    43     0    11     0     0     1     0     1     0     0     0     0    92     1    22     0     0     8     0     0     0 |     s = q
     3     0   205    10     0    42    25     0    27     0     0     8     9     0     2     2    13     4     1   241    31    12     2    32     0     0     0 |     t = p
    34     0   477    11     0    46    48     0    20     1     1    51    16    10     1     3    27     5     3    27  2125     4     0    49     0     3     3 |     u = s
     2     1   130     2     0   120     8     7    46     5     0     4    13     0     1     6    41     7     0     9    24   961     4    11     0     0     0 |     v = r
     0     0    26     0     1    14    10     2    11     0     3     0    12     1     5     5    16     7     1     2     0     1  1254    13     0     2     0 |     w = u
     9     0   421     9     0    55    82     0    40     1     1     8    26     3     1     4    26    10     1    25    77    13     2   328     1     0     0 |     x = t
     0     0    14     2     0    15     4     0    25     1     0     0     9     1     4     2    10     2     0     0     0     2     3     5   373     2     0 |     y = v
     1     0    14     0     0     8     4     0     5     0     0     2     1     0     0     2     4     0     0     0    31     3     4     1     0   218     0 |     z = y
     0     0     5     1     0     0     0     0     0     0     0     2     0     0     0     0     0     1     0     2    10     1     0     1     0     0     0 |    aa = z

=== Percent Confusion Matrix ===
a	b	c	d	e	f	g	h	i	j	k	l	m	n	o	p	q	r	s	t	u	v	w	x	y	z	aa	
37.37	0.0	15.92	1.04	0.0	1.38	4.84	0.0	1.38	0.0	0.0	0.0	0.0	0.0	0.0	0.0	1.38	0.0	1.73	0.35	30.8	0.35	0.0	3.11	0.0	0.35	0.0	 a = ch
0.0	87.5	1.39	0.0	0.0	4.17	0.0	0.0	5.56	0.0	0.0	0.0	0.0	0.0	0.0	0.0	1.39	0.0	0.0	0.0	0.0	0.0	0.0	0.0	0.0	0.0	0.0	 b = rr
0.05	0.0	95.29	0.08	0.0	0.57	0.44	0.0	0.51	0.03	0.03	0.13	0.27	0.03	0.04	0.1	0.51	0.13	0.03	0.19	0.98	0.1	0.05	0.4	0.02	0.02	0.0	 c = 0
0.0	0.0	25.0	63.11	0.0	1.83	0.61	0.0	1.07	0.3	0.0	0.61	0.3	0.0	0.0	0.0	1.37	0.0	0.15	0.61	3.81	0.3	0.46	0.46	0.0	0.0	0.0	 d = hs
0.0	0.0	1.2	0.0	83.73	4.82	0.0	0.0	6.63	0.0	0.0	0.0	3.01	0.0	0.0	0.0	0.0	0.6	0.0	0.0	0.0	0.0	0.0	0.0	0.0	0.0	0.0	 e = hg
0.07	0.05	2.54	0.1	0.01	93.58	0.35	0.06	0.46	0.17	0.05	0.08	0.18	0.03	0.09	0.18	0.41	0.23	0.06	0.19	0.41	0.21	0.02	0.41	0.02	0.03	0.0	 f = a
1.31	0.0	34.5	0.44	0.0	4.05	31.22	0.0	1.75	0.0	0.0	0.55	1.64	0.44	0.0	0.0	1.97	0.11	2.41	1.97	9.97	0.22	0.44	7.01	0.0	0.0	0.0	 g = c
0.0	0.0	1.5	0.0	0.0	4.01	0.0	87.72	1.75	0.25	0.0	0.0	2.76	0.0	0.5	0.0	0.25	0.0	0.0	0.0	0.0	0.75	0.25	0.0	0.25	0.0	0.0	 h = b
0.06	0.06	3.48	0.13	0.0	1.19	0.48	0.02	90.07	0.3	0.15	0.06	0.56	0.02	0.26	0.19	0.52	0.35	0.09	0.17	0.45	0.43	0.11	0.54	0.17	0.09	0.02	 i = e
0.0	0.0	2.38	0.0	0.0	3.06	0.23	0.11	4.43	83.31	0.0	0.0	0.23	0.0	0.11	0.23	3.63	1.59	0.0	0.0	0.11	0.11	0.23	0.0	0.11	0.11	0.0	 j = d
0.0	0.0	4.13	0.0	0.55	3.31	0.55	0.0	4.13	0.0	84.3	0.28	0.83	0.0	0.0	0.0	0.0	0.0	0.0	0.28	0.55	0.55	0.0	0.55	0.0	0.0	0.0	 k = g
0.51	0.0	14.1	0.26	0.0	2.05	2.05	0.0	1.79	0.0	0.0	46.41	1.03	0.51	0.0	0.0	3.08	0.0	0.26	1.54	23.59	1.03	0.0	1.54	0.0	0.26	0.0	 l = f
0.04	0.0	4.95	0.13	0.17	1.22	0.55	0.34	2.81	0.04	0.13	0.13	86.23	0.04	0.21	0.34	0.21	0.21	0.13	0.17	0.76	0.04	0.04	0.76	0.29	0.08	0.0	 m = i
0.91	0.0	9.09	0.61	0.0	5.15	1.82	0.0	2.42	0.0	0.0	1.82	0.3	59.7	0.0	0.0	0.91	0.61	0.0	0.0	15.15	0.3	0.61	0.61	0.0	0.0	0.0	 n = j
0.0	0.0	2.16	0.0	0.0	0.91	0.11	0.23	1.48	0.0	0.0	0.0	1.02	0.0	91.25	0.34	0.91	0.23	0.0	0.34	0.23	0.11	0.23	0.34	0.11	0.0	0.0	 o = m
0.0	0.0	1.67	0.09	0.0	5.29	0.09	0.0	2.69	0.09	0.0	0.0	0.74	0.0	0.37	86.09	1.67	0.28	0.0	0.0	0.09	0.28	0.28	0.19	0.09	0.0	0.0	 p = l
0.13	0.0	9.39	0.2	0.0	1.84	0.56	0.0	1.3	0.4	0.02	0.25	0.25	0.02	0.4	0.22	82.84	0.4	0.02	0.25	0.69	0.29	0.18	0.31	0.0	0.02	0.0	 q = o
0.0	0.05	3.34	0.05	0.0	2.02	0.14	0.0	1.79	0.33	0.0	0.14	0.24	0.05	0.05	0.09	0.99	89.27	0.0	0.14	0.61	0.09	0.09	0.52	0.0	0.0	0.0	 r = n
2.87	0.0	30.82	0.0	0.0	2.15	15.41	0.0	3.94	0.0	0.0	0.36	0.0	0.36	0.0	0.0	0.0	0.0	32.97	0.36	7.89	0.0	0.0	2.87	0.0	0.0	0.0	 s = q
0.45	0.0	30.64	1.49	0.0	6.28	3.74	0.0	4.04	0.0	0.0	1.2	1.35	0.0	0.3	0.3	1.94	0.6	0.15	36.02	4.63	1.79	0.3	4.78	0.0	0.0	0.0	 t = p
1.15	0.0	16.09	0.37	0.0	1.55	1.62	0.0	0.67	0.03	0.03	1.72	0.54	0.34	0.03	0.1	0.91	0.17	0.1	0.91	71.67	0.13	0.0	1.65	0.0	0.1	0.1	 u = s
0.14	0.07	9.27	0.14	0.0	8.56	0.57	0.5	3.28	0.36	0.0	0.29	0.93	0.0	0.07	0.43	2.92	0.5	0.0	0.64	1.71	68.54	0.29	0.78	0.0	0.0	0.0	 v = r
0.0	0.0	1.88	0.0	0.07	1.01	0.72	0.14	0.79	0.0	0.22	0.0	0.87	0.07	0.36	0.36	1.15	0.51	0.07	0.14	0.0	0.07	90.48	0.94	0.0	0.14	0.0	 w = u
0.79	0.0	36.83	0.79	0.0	4.81	7.17	0.0	3.5	0.09	0.09	0.7	2.27	0.26	0.09	0.35	2.27	0.87	0.09	2.19	6.74	1.14	0.17	28.7	0.09	0.0	0.0	 x = t
0.0	0.0	2.95	0.42	0.0	3.16	0.84	0.0	5.27	0.21	0.0	0.0	1.9	0.21	0.84	0.42	2.11	0.42	0.0	0.0	0.0	0.42	0.63	1.05	78.69	0.42	0.0	 y = v
0.34	0.0	4.7	0.0	0.0	2.68	1.34	0.0	1.68	0.0	0.0	0.67	0.34	0.0	0.0	0.67	1.34	0.0	0.0	0.0	10.4	1.01	1.34	0.34	0.0	73.15	0.0	 z = y
0.0	0.0	21.74	4.35	0.0	0.0	0.0	0.0	0.0	0.0	0.0	8.7	0.0	0.0	0.0	0.0	0.0	4.35	0.0	8.7	43.48	4.35	0.0	4.35	0.0	0.0	0.0	 aa = z
