Timestamp:2014-12-07-10:37:58
Inventario:I0
Intervalo:3ms
Ngramas:2
Clasificador:NaiveBayes
Relation Name:  I0-3ms-2gramas
Num Instances:  61134
Num Attributes: 21

     Name                      Type  Nom  Int Real     Missing      Unique  Dist
   1 0Int(dB)                   Num   0%  10%  90%     0 /  0%     2 /  0%   776 
   2 0Pitch(Hz)                 Num   0%  52%  48%     0 /  0%   559 /  1%  3828 
   3 0RawPitch                  Num   0%  55%  45%     0 /  0%   613 /  1%  3808 
   4 0SmPitch                   Num   0%  53%  47%     0 /  0%   575 /  1%  3802 
   5 0Melogram(st)              Num   0%  49%  51%     0 /  0%   269 /  0%  3285 
   6 0ZCross                    Num   0% 100%   0%     0 /  0%     3 /  0%    50 
   7 0F1(Hz)                    Num   0%  52%  48%     0 /  0%  1075 /  2%  4783 
   8 0F2(Hz)                    Num   0%  52%  48%     0 /  0%  2270 /  4%  6724 
   9 0F3(Hz)                    Num   0%  52%  48%     0 /  0%  1945 /  3%  6241 
  10 0F4(Hz)                    Num   0%  52%  48%     0 /  0%  1922 /  3%  6122 
  11 1Int(dB)                   Num   0%  10%  90%     0 /  0%     3 /  0%   777 
  12 1Pitch(Hz)                 Num   0%  52%  48%     0 /  0%   559 /  1%  3828 
  13 1RawPitch                  Num   0%  55%  45%     0 /  0%   613 /  1%  3808 
  14 1SmPitch                   Num   0%  53%  47%     0 /  0%   575 /  1%  3802 
  15 1Melogram(st)              Num   0%  49%  51%     0 /  0%   269 /  0%  3285 
  16 1ZCross                    Num   0% 100%   0%     0 /  0%     3 /  0%    50 
  17 1F1(Hz)                    Num   0%  52%  48%     0 /  0%  1075 /  2%  4783 
  18 1F2(Hz)                    Num   0%  52%  48%     0 /  0%  2270 /  4%  6724 
  19 1F3(Hz)                    Num   0%  52%  48%     0 /  0%  1945 /  3%  6241 
  20 1F4(Hz)                    Num   0%  52%  48%     0 /  0%  1922 /  3%  6122 
  21 class                      Nom 100%   0%   0%     0 /  0%     0 /  0%    27 


Naive Bayes Classifier

                    Class
Attribute              ch        rr         0        hs        hg         a         c         b         e         d         g         f         i         j         m         l         o         n         q         p         s         r         u         t         v         y         z
                      (0)       (0)    (0.39)    (0.01)       (0)    (0.14)    (0.01)    (0.01)    (0.08)    (0.01)    (0.01)    (0.01)    (0.04)    (0.01)    (0.01)    (0.02)    (0.07)    (0.03)       (0)    (0.01)    (0.05)    (0.02)    (0.02)    (0.02)    (0.01)       (0)       (0)
==============================================================================================================================================================================================================================================================================================
0Int(dB)
  mean            -19.6045  -10.7359  -48.4233  -20.6613  -10.9468   -2.9038  -24.9992    -5.983   -5.2147   -7.8485   -7.6838  -21.9074    -8.825  -15.7349   -7.6295   -8.2406   -8.1561   -9.2153   -22.777  -23.0692  -21.5782  -11.8322   -5.2953  -26.0649   -9.2887  -16.3972  -27.1089
  std. dev.         8.4766    4.4858   16.0579    11.264    6.2491    8.2769    9.9604    4.3042    8.1108    6.1433    8.0063    5.4948    8.4293    6.1333    6.0498    5.6463   12.1343    7.6319   11.5769   10.5151    6.6353    9.3217    7.8625    9.9422    6.8079    4.8213    2.1562
  weight sum           289        72     23725       656       166      8763       913       399      4621       881       363       390      2382       330       880      1078      4463      2124       279       669      2965      1402      1386      1143       474       298        23
  precision         0.1044    0.1044    0.1044    0.1044    0.1044    0.1044    0.1044    0.1044    0.1044    0.1044    0.1044    0.1044    0.1044    0.1044    0.1044    0.1044    0.1044    0.1044    0.1044    0.1044    0.1044    0.1044    0.1044    0.1044    0.1044    0.1044    0.1044

0Pitch(Hz)
  mean             53.0447  243.6109   16.2537   84.0265  146.7969  226.5604   50.8978  215.2668  190.0809  202.0027  212.1825   79.0516  173.0172   155.177  193.8298  174.5421    179.07  190.4227   84.2846   81.8269   47.6853  161.5632   229.415   70.0517   177.836  113.8375         0
  std. dev.       100.7407  121.1132   55.6472   87.1965   37.9983   103.385   95.1804   72.3685   87.8538   84.4676  100.3526  116.8139   76.7882   130.778   86.7404   64.1915  105.2101   89.8055  115.9655  115.3898   90.0179   95.0481   85.2349  109.9001   73.0885   69.2084    0.0217
  weight sum           289        72     23725       656       166      8763       913       399      4621       881       363       390      2382       330       880      1078      4463      2124       279       669      2965      1402      1386      1143       474       298        23
  precision         0.1303    0.1303    0.1303    0.1303    0.1303    0.1303    0.1303    0.1303    0.1303    0.1303    0.1303    0.1303    0.1303    0.1303    0.1303    0.1303    0.1303    0.1303    0.1303    0.1303    0.1303    0.1303    0.1303    0.1303    0.1303    0.1303    0.1303

0RawPitch
  mean             37.5218  233.0192   13.3293   66.0701  126.8755  217.0892   35.1933  212.6875  185.5537   195.986  201.2961   40.9502  165.5748   95.7641   182.691  158.2832  172.9408  177.3346   43.8765   61.7046   26.5841  155.6187  220.5485   44.3574  163.4913   78.4487         0
  std. dev.        87.6032  131.1754   50.0209   84.4174   74.1476   108.988   81.2248   75.4521   94.6689   94.0584   111.593   82.2165   83.1744  110.7962   97.6648   77.6752  112.1655  102.7294   92.4393  108.2125   70.1815  101.2738   93.0837    91.741     84.69   77.4231    0.0218
  weight sum           289        72     23725       656       166      8763       913       399      4621       881       363       390      2382       330       880      1078      4463      2124       279       669      2965      1402      1386      1143       474       298        23
  precision          0.131     0.131     0.131     0.131     0.131     0.131     0.131     0.131     0.131     0.131     0.131     0.131     0.131     0.131     0.131     0.131     0.131     0.131     0.131     0.131     0.131     0.131     0.131     0.131     0.131     0.131     0.131

0SmPitch
  mean             50.0403  243.6154   14.6597   77.2882  148.7384   224.793   42.8652  215.2622  188.4788  201.3343    210.63    61.329  170.4827  111.1232   190.939  172.9414   176.912  187.9132   66.3564   72.6147   40.2184  158.6783  229.0404    59.126  174.2215  108.6012         0
  std. dev.        97.9176   121.119   51.7894   84.1076   35.9087  105.0105    89.863   72.3668   89.1689   85.7678  102.1531  100.0281   79.2893  137.2341    90.948   66.1933  107.4207   92.3102  107.5613  113.3626   84.5527   96.5949   85.2781   104.139   77.2865   71.3254    0.0219
  weight sum           289        72     23725       656       166      8763       913       399      4621       881       363       390      2382       330       880      1078      4463      2124       279       669      2965      1402      1386      1143       474       298        23
  precision         0.1312    0.1312    0.1312    0.1312    0.1312    0.1312    0.1312    0.1312    0.1312    0.1312    0.1312    0.1312    0.1312    0.1312    0.1312    0.1312    0.1312    0.1312    0.1312    0.1312    0.1312    0.1312    0.1312    0.1312    0.1312    0.1312    0.1312

0Melogram(st)
  mean             15.2704   56.4746    4.8136   25.7986   49.3549   53.3068   14.0041    55.143   50.4808   52.9769   51.1937   21.2057    48.407   16.3654   50.8971   51.2035    46.671   49.9698   18.4246   20.9157   12.9456   43.0986   54.1306   16.5965   50.6047    40.204         0
  std. dev.        25.6147    8.9359   15.4722   25.1082    4.5649   14.5692   24.4479    7.3503   15.3557    11.374   17.6599   27.0683   16.3656   26.3777   14.5478    9.4371   20.3864   16.5749   26.7557   27.5522   23.4215   22.3166   14.2012    26.151   11.5705   18.3904    0.0042
  weight sum           289        72     23725       656       166      8763       913       399      4621       881       363       390      2382       330       880      1078      4463      2124       279       669      2965      1402      1386      1143       474       298        23
  precision         0.0252    0.0252    0.0252    0.0252    0.0252    0.0252    0.0252    0.0252    0.0252    0.0252    0.0252    0.0252    0.0252    0.0252    0.0252    0.0252    0.0252    0.0252    0.0252    0.0252    0.0252    0.0252    0.0252    0.0252    0.0252    0.0252    0.0252

0ZCross
  mean               8.489    3.3444    0.2298    0.9966    3.1604    7.5394    1.5493     3.863    4.9388    3.7314    4.3679    0.6234    3.5777    3.7436    2.8249    3.1812    4.0484    2.4421    4.2111    0.8868    3.6106    3.0525    3.8272    0.6961    3.0137    1.4912         0
  std. dev.         12.787    2.6007    1.0464    1.7046    2.3504    4.4124    3.5218    1.7383    3.1975     2.116    2.7571    1.5029    3.1538     3.781     1.406    1.9093    2.8985    1.5266    7.2153    2.1292     6.988    2.4195    2.8121    1.5181    1.7401    1.7078    0.1939
  weight sum           289        72     23725       656       166      8763       913       399      4621       881       363       390      2382       330       880      1078      4463      2124       279       669      2965      1402      1386      1143       474       298        23
  precision         1.1633    1.1633    1.1633    1.1633    1.1633    1.1633    1.1633    1.1633    1.1633    1.1633    1.1633    1.1633    1.1633    1.1633    1.1633    1.1633    1.1633    1.1633    1.1633    1.1633    1.1633    1.1633    1.1633    1.1633    1.1633    1.1633    1.1633

0F1(Hz)
  mean             141.645  603.0674   52.7198   384.784  446.2178  705.0561   94.4766  477.4468  462.8688  516.4354  493.7188  273.3116  360.2165  452.4804  431.7605  471.9862   483.672  467.0929  180.2536   231.865  183.6771  485.2774  496.5514  117.3276  482.8358  341.5369         0
  std. dev.       262.3972  135.0893  165.2455  299.6463   83.6969  257.0474  207.9472  132.8331  146.9719  152.9405  193.5409  333.7331    146.32   344.254  163.6131  140.0641  226.1449  156.0634  246.5083  294.8658  283.7015  236.1252  309.2602  213.2675  168.5953  183.8953    0.0607
  weight sum           289        72     23725       656       166      8763       913       399      4621       881       363       390      2382       330       880      1078      4463      2124       279       669      2965      1402      1386      1143       474       298        23
  precision         0.3642    0.3642    0.3642    0.3642    0.3642    0.3642    0.3642    0.3642    0.3642    0.3642    0.3642    0.3642    0.3642    0.3642    0.3642    0.3642    0.3642    0.3642    0.3642    0.3642    0.3642    0.3642    0.3642    0.3642    0.3642    0.3642    0.3642

0F2(Hz)
  mean            427.8683 1649.5966  165.0381 1110.6043 1931.8747 1456.7095  277.1651 1576.1073 1781.0424 1482.7607 1690.1635  711.0984 1961.8033 1273.6584 1666.1853 1669.0553 1142.8991 1599.9194  720.0537  688.7812  572.1167  1367.669 1050.0402  389.7194 1567.0717 1347.5288         0
  std. dev.       759.4217  128.5092  511.9376  844.4516  350.6376  402.3282  624.4934   345.027  532.5896  319.5763  594.0469  846.9056  680.1225  905.9766  443.7597  340.1256  536.7971   453.953  955.2282  845.5644  857.3759  617.6943  432.2873  688.3695  413.6827  662.3656    0.0738
  weight sum           289        72     23725       656       166      8763       913       399      4621       881       363       390      2382       330       880      1078      4463      2124       279       669      2965      1402      1386      1143       474       298        23
  precision         0.4431    0.4431    0.4431    0.4431    0.4431    0.4431    0.4431    0.4431    0.4431    0.4431    0.4431    0.4431    0.4431    0.4431    0.4431    0.4431    0.4431    0.4431    0.4431    0.4431    0.4431    0.4431    0.4431    0.4431    0.4431    0.4431    0.4431

0F3(Hz)
  mean             707.708 2858.6523  281.5612 1813.3756 2527.8161 2716.3116  508.5051 2752.2917 2615.4812 2867.2974 2894.0835 1211.3864 2642.4014  1874.533 2751.1286 2809.4292 2498.5172 2762.5242 1079.1805 1166.7586  951.3499  2376.762 2665.1247  706.0305 2671.7957 2324.6345         0
  std. dev.      1256.6343  410.6124  858.2468 1314.7793  113.9825  739.9882 1106.6488  466.8815  792.6591  499.4354   933.351 1437.6125   937.499 1323.7223  581.4549  577.7166 1024.1918   668.733 1394.1902 1419.9233 1409.3318  1080.231  803.6971  1235.641  674.1267 1158.5468      0.11
  weight sum           289        72     23725       656       166      8763       913       399      4621       881       363       390      2382       330       880      1078      4463      2124       279       669      2965      1402      1386      1143       474       298        23
  precision         0.6602    0.6602    0.6602    0.6602    0.6602    0.6602    0.6602    0.6602    0.6602    0.6602    0.6602    0.6602    0.6602    0.6602    0.6602    0.6602    0.6602    0.6602    0.6602    0.6602    0.6602    0.6602    0.6602    0.6602    0.6602    0.6602    0.6602

0F4(Hz)
  mean            837.3664 3248.0373  338.5649 2253.0612 3589.5532 3127.8318  586.5008 3300.9049 3152.5297  3324.975 2934.4812 1389.8901 3143.1187 2343.9636 3303.8875 3235.5627 2876.7808 3168.6566 1307.4461 1391.0821 1073.8381   2756.89 3052.6473  813.3891 3237.2541 2686.1611         0
  std. dev.      1486.5336  408.9504 1029.6698 1619.9647   90.9769  839.5435 1278.7059  442.7817  921.2174  545.8289  948.5863 1639.0113 1073.3319  1642.708  630.9786  585.4975 1161.8705  770.9632 1700.6345 1671.3759 1588.4958 1198.7223  827.1813 1428.2552  705.6697  1327.065    0.1129
  weight sum           289        72     23725       656       166      8763       913       399      4621       881       363       390      2382       330       880      1078      4463      2124       279       669      2965      1402      1386      1143       474       298        23
  precision         0.6775    0.6775    0.6775    0.6775    0.6775    0.6775    0.6775    0.6775    0.6775    0.6775    0.6775    0.6775    0.6775    0.6775    0.6775    0.6775    0.6775    0.6775    0.6775    0.6775    0.6775    0.6775    0.6775    0.6775    0.6775    0.6775    0.6775

1Int(dB)
  mean            -19.1309  -11.0566  -48.5185  -21.3443  -10.6689   -2.9029  -23.8998   -5.8815   -5.2154   -7.7207   -7.7144  -22.1122    -8.745  -15.7949   -7.5852   -8.2304    -8.205   -9.4674  -21.7073   -22.303  -21.7774  -11.9296   -5.0964  -24.7837   -9.0867  -16.2984   -27.151
  std. dev.         8.2302     4.341   15.9242   11.3134    6.4127    8.1774    10.048     4.314     8.061    6.1865    7.9877    5.3257    8.4284     6.103    5.9771     5.768   12.2015    7.8333   11.1802   10.6956    6.5743    9.4955    7.5403   10.5316    6.4709    4.7071    2.2431
  weight sum           289        72     23725       656       166      8763       913       399      4621       881       363       390      2382       330       880      1078      4463      2124       279       669      2965      1402      1386      1143       474       298        23
  precision         0.1043    0.1043    0.1043    0.1043    0.1043    0.1043    0.1043    0.1043    0.1043    0.1043    0.1043    0.1043    0.1043    0.1043    0.1043    0.1043    0.1043    0.1043    0.1043    0.1043    0.1043    0.1043    0.1043    0.1043    0.1043    0.1043    0.1043

1Pitch(Hz)
  mean             57.2926  243.6833   15.7163   79.9944  147.5913   226.621   60.4216  215.3119  190.6854  201.8505  211.9581   76.6061  173.6379  154.1093    194.15  174.4069  178.3171  189.1463   90.0832   85.0097   45.1599  161.7188   230.256   78.6084  178.8974  113.9875         0
  std. dev.       103.6809  121.7943   54.8001   86.5333   38.8775  103.2128  101.9126   72.0861   87.4198   84.7618   101.191  115.9204   76.0641  130.4811   86.8219    64.136  105.1185   90.7082  118.9842  114.5412    88.338   95.5111   83.5916  113.5628   71.7887   69.2177    0.0217
  weight sum           289        72     23725       656       166      8763       913       399      4621       881       363       390      2382       330       880      1078      4463      2124       279       669      2965      1402      1386      1143       474       298        23
  precision         0.1303    0.1303    0.1303    0.1303    0.1303    0.1303    0.1303    0.1303    0.1303    0.1303    0.1303    0.1303    0.1303    0.1303    0.1303    0.1303    0.1303    0.1303    0.1303    0.1303    0.1303    0.1303    0.1303    0.1303    0.1303    0.1303    0.1303

1RawPitch
  mean             39.8485  234.3892   12.8466   62.1704   129.542  217.1337    43.308  212.7712  186.0468  195.7565  201.5263   38.1953  166.4491     94.58  183.0776  157.9907  172.3446  175.4321   49.6468   64.9618   23.9913  155.5984   221.377   53.7764  164.8761   79.1943         0
  std. dev.        89.0351  131.0658   49.2575   82.8608   75.8327   108.934   89.2099   75.1283   94.2836    93.879  111.8555   79.1883   82.7406  109.6497   97.7579   78.0879   111.886  103.7454   97.7558  108.2823   66.8443  101.9004   91.8259   98.3045   82.9596   77.1668    0.0218
  weight sum           289        72     23725       656       166      8763       913       399      4621       881       363       390      2382       330       880      1078      4463      2124       279       669      2965      1402      1386      1143       474       298        23
  precision          0.131     0.131     0.131     0.131     0.131     0.131     0.131     0.131     0.131     0.131     0.131     0.131     0.131     0.131     0.131     0.131     0.131     0.131     0.131     0.131     0.131     0.131     0.131     0.131     0.131     0.131     0.131

1SmPitch
  mean             52.8659  243.6883   14.1431   73.2597  149.5327  224.9684   51.9976  215.3073  189.2421  201.2862  210.4051   58.8759  171.0176  110.0585  190.8812   172.492  176.2127  186.0892   71.1737   75.7198   37.5887  158.9145   229.966   68.0467   175.782  108.7328         0
  std. dev.       100.3428  121.7968   50.9143   83.0946    36.794  104.7042   97.4937   72.0825   88.6477   85.8449  102.9728   98.5289   78.8205  136.6015   91.5707   66.5539  107.2818    93.569  111.1712  112.6926   82.2568   96.9797   83.6261  108.9491   75.5882   71.3475    0.0219
  weight sum           289        72     23725       656       166      8763       913       399      4621       881       363       390      2382       330       880      1078      4463      2124       279       669      2965      1402      1386      1143       474       298        23
  precision         0.1312    0.1312    0.1312    0.1312    0.1312    0.1312    0.1312    0.1312    0.1312    0.1312    0.1312    0.1312    0.1312    0.1312    0.1312    0.1312    0.1312    0.1312    0.1312    0.1312    0.1312    0.1312    0.1312    0.1312    0.1312    0.1312    0.1312

1Melogram(st)
  mean             16.2714   56.4407     4.671   24.6982   49.4313   53.3894   15.8736   55.1544   50.6147   52.9664   51.0657    20.695   48.6212   16.3146   50.9332   51.1007   46.5702   49.6579     19.67   21.7002   12.2041   43.0879   54.4863    18.711   50.8737   40.2278         0
  std. dev.         26.128    8.9923   15.2683   25.0657    4.6213   14.3758   25.5384    7.3375   15.1287   11.3858   17.8701   26.9749   16.0378   26.4707   14.5558    9.6857    20.439    16.981   27.2243    27.606   22.9897   22.3579   13.4335   27.0038   11.0856    18.398    0.0042
  weight sum           289        72     23725       656       166      8763       913       399      4621       881       363       390      2382       330       880      1078      4463      2124       279       669      2965      1402      1386      1143       474       298        23
  precision         0.0252    0.0252    0.0252    0.0252    0.0252    0.0252    0.0252    0.0252    0.0252    0.0252    0.0252    0.0252    0.0252    0.0252    0.0252    0.0252    0.0252    0.0252    0.0252    0.0252    0.0252    0.0252    0.0252    0.0252    0.0252    0.0252    0.0252

1ZCross
  mean              8.5896    3.2959    0.2221    0.9327    3.2585    7.5244    1.6729    3.9359    4.9156    3.8027    4.3582    0.5846    3.5967    3.7119    2.8341    3.1823    4.0424    2.3944     4.307     0.979    3.5996    3.0351    3.8515    0.8946    3.0554    1.5146         0
  std. dev.        12.7749    2.6156    1.0405    1.6812    2.4065    4.4211    3.5391    1.7782    3.2034    2.1182    2.7159    1.4661    3.1513    3.7813    1.3988     1.884    2.9091    1.5238    7.1567    2.1273    6.9991    2.4104    2.7932       1.7     1.742    1.7005    0.1939
  weight sum           289        72     23725       656       166      8763       913       399      4621       881       363       390      2382       330       880      1078      4463      2124       279       669      2965      1402      1386      1143       474       298        23
  precision         1.1633    1.1633    1.1633    1.1633    1.1633    1.1633    1.1633    1.1633    1.1633    1.1633    1.1633    1.1633    1.1633    1.1633    1.1633    1.1633    1.1633    1.1633    1.1633    1.1633    1.1633    1.1633    1.1633    1.1633    1.1633    1.1633    1.1633

1F1(Hz)
  mean            134.0304  608.6065   50.9727  370.8809  446.6215  711.1854  103.4879  478.6471  466.9426  517.5707  493.2121  257.3532  363.5983  447.9045  431.1649  470.5344  486.8876   460.667  182.3828   232.006  169.5554  483.1726  501.4313  124.9647  483.3099  340.6239         0
  std. dev.       255.4969  136.8825  162.6135  302.9978   85.8468  250.8735   215.266  132.4441  141.0764   152.918  192.4513  329.9021  141.2908  348.6185  162.2572  137.0126  224.2029  156.4058    246.94  292.2556  276.6965  234.5445  304.2361  218.7114  163.8664  183.0212    0.0607
  weight sum           289        72     23725       656       166      8763       913       399      4621       881       363       390      2382       330       880      1078      4463      2124       279       669      2965      1402      1386      1143       474       298        23
  precision         0.3642    0.3642    0.3642    0.3642    0.3642    0.3642    0.3642    0.3642    0.3642    0.3642    0.3642    0.3642    0.3642    0.3642    0.3642    0.3642    0.3642    0.3642    0.3642    0.3642    0.3642    0.3642    0.3642    0.3642    0.3642    0.3642    0.3642

1F2(Hz)
  mean            410.8756 1638.7108  159.6945 1070.4154 1925.4529 1464.9921  302.3623 1571.3768 1800.7234 1482.7798 1687.2659  674.1402 1991.3969 1244.3036 1668.8094  1670.994 1143.6165 1592.8805  725.7135  689.6151  529.8886 1370.3938 1063.4653  415.3561  1582.791 1351.3498         0
  std. dev.       750.4936  126.0433  504.4835  853.6499  351.1186  386.1433  643.6399   343.705  507.5736    322.46  594.1662  841.0747  651.9928  910.3629  433.9806  329.5639  529.3781   460.739  954.4333  839.5096  839.1176  618.0853  414.3404  708.2955  389.8601  664.0945    0.0738
  weight sum           289        72     23725       656       166      8763       913       399      4621       881       363       390      2382       330       880      1078      4463      2124       279       669      2965      1402      1386      1143       474       298        23
  precision         0.4431    0.4431    0.4431    0.4431    0.4431    0.4431    0.4431    0.4431    0.4431    0.4431    0.4431    0.4431    0.4431    0.4431    0.4431    0.4431    0.4431    0.4431    0.4431    0.4431    0.4431    0.4431    0.4431    0.4431    0.4431    0.4431    0.4431

1F3(Hz)
  mean            672.5356 2860.0461  272.2945  1746.696 2525.2826 2732.7922  556.6205 2749.6624  2638.722 2866.4836 2893.5233 1142.9212 2676.1136 1837.9646 2751.9434 2818.3643 2509.8227 2751.6432 1088.8543 1172.1015  879.9332 2378.9471  2701.015  743.7442 2694.3199 2324.5104         0
  std. dev.       1228.457   417.525  845.4957 1334.2803  112.9788    712.03 1144.0071  467.7999  758.2975  508.9155  933.1946 1421.5854  900.3451 1332.3169  566.7825   567.257 1013.4676  685.4656 1396.2439  1413.788 1378.3878 1080.1857  745.1651 1257.3577  632.0142 1157.9491      0.11
  weight sum           289        72     23725       656       166      8763       913       399      4621       881       363       390      2382       330       880      1078      4463      2124       279       669      2965      1402      1386      1143       474       298        23
  precision         0.6602    0.6602    0.6602    0.6602    0.6602    0.6602    0.6602    0.6602    0.6602    0.6602    0.6602    0.6602    0.6602    0.6602    0.6602    0.6602    0.6602    0.6602    0.6602    0.6602    0.6602    0.6602    0.6602    0.6602    0.6602    0.6602    0.6602

1F4(Hz)
  mean            804.6681 3242.8713  327.6245 2171.6193 3590.4838 3145.5664  647.7106 3299.4904  3179.034 3322.1873 2936.8721   1316.03 3179.5458 2305.1837 3309.3984  3243.195  2888.156 3157.8057 1313.0507 1407.7959  995.2684 2757.3675 3093.8479  860.4427  3265.765 2686.8886         0
  std. dev.      1469.2433  402.6487 1014.9155 1645.6702   89.5848  806.5713 1332.4515   440.844  877.8457  556.6252  950.2793 1626.8785  1026.953  1659.267  612.3136  568.8859 1148.0627  792.5274 1695.0534 1675.5478 1556.8632 1199.2031  750.1771 1459.7094  640.7738 1327.8399    0.1129
  weight sum           289        72     23725       656       166      8763       913       399      4621       881       363       390      2382       330       880      1078      4463      2124       279       669      2965      1402      1386      1143       474       298        23
  precision         0.6775    0.6775    0.6775    0.6775    0.6775    0.6775    0.6775    0.6775    0.6775    0.6775    0.6775    0.6775    0.6775    0.6775    0.6775    0.6775    0.6775    0.6775    0.6775    0.6775    0.6775    0.6775    0.6775    0.6775    0.6775    0.6775    0.6775





=== Stratified cross-validation ===

Correctly Classified Instances       18744               30.6605 %
Incorrectly Classified Instances     42390               69.3395 %
Kappa statistic                          0.2303
K&B Relative Info Score            1203916.2138 %
K&B Information Score                39743.5396 bits      0.6501 bits/instance
Class complexity | order 0          201728.5273 bits      3.2998 bits/instance
Class complexity | scheme          2356401.5576 bits     38.5449 bits/instance
Complexity improvement     (Sf)    -2154673.0303 bits    -35.2451 bits/instance
Mean absolute error                      0.0519
Root mean squared error                  0.2099
Relative absolute error                 86.4831 %
Root relative squared error            121.21   %
Coverage of cases (0.95 level)          41.8114 %
Mean rel. region size (0.95 level)       8.5286 %
Total Number of Instances            61134     


=== Detailed Accuracy By Class ===

                 TP Rate  FP Rate  Precision  Recall   F-Measure  MCC      ROC Area  PRC Area  Class
                 0,183    0,003    0,248      0,183    0,211      0,210    0,650     0,106     ch
                 0,250    0,010    0,029      0,250    0,052      0,082    0,889     0,034     rr
                 0,478    0,016    0,949      0,478    0,636      0,567    0,873     0,847     0
                 0,122    0,022    0,056      0,122    0,077      0,068    0,624     0,038     hs
                 0,910    0,127    0,019      0,910    0,038      0,122    0,951     0,087     hg
                 0,542    0,050    0,646      0,542    0,589      0,530    0,888     0,634     a
                 0,054    0,005    0,140      0,054    0,078      0,078    0,466     0,049     c
                 0,313    0,099    0,020      0,313    0,038      0,057    0,829     0,025     b
                 0,100    0,009    0,480      0,100    0,165      0,193    0,763     0,235     e
                 0,019    0,008    0,035      0,019    0,025      0,016    0,782     0,036     d
                 0,008    0,001    0,052      0,008    0,014      0,018    0,753     0,022     g
                 0,018    0,002    0,049      0,018    0,026      0,026    0,495     0,018     f
                 0,071    0,002    0,548      0,071    0,126      0,188    0,838     0,292     i
                 0,164    0,002    0,277      0,164    0,206      0,210    0,727     0,130     j
                 0,001    0,003    0,006      0,001    0,002      -0,004   0,796     0,038     m
                 0,338    0,060    0,092      0,338    0,145      0,149    0,837     0,073     l
                 0,007    0,004    0,124      0,007    0,013      0,012    0,748     0,174     o
                 0,024    0,013    0,062      0,024    0,034      0,017    0,779     0,078     n
                 0,018    0,001    0,102      0,018    0,030      0,041    0,618     0,024     q
                 0,009    0,002    0,057      0,009    0,016      0,018    0,509     0,026     p
                 0,155    0,005    0,620      0,155    0,249      0,295    0,573     0,270     s
                 0,014    0,004    0,068      0,014    0,023      0,020    0,691     0,043     r
                 0,268    0,004    0,624      0,268    0,375      0,401    0,862     0,340     u
                 0,087    0,009    0,162      0,087    0,114      0,107    0,489     0,061     t
                 0,000    0,001    0,000      0,000    0,000      -0,003   0,769     0,017     v
                 0,144    0,017    0,041      0,144    0,064      0,068    0,844     0,030     y
                 1,000    0,234    0,002      1,000    0,003      0,035    0,898     0,002     z
Weighted Avg.    0,307    0,018    0,588      0,307    0,382      0,354    0,804     0,493     


=== Confusion Matrix ===

     a     b     c     d     e     f     g     h     i     j     k     l     m     n     o     p     q     r     s     t     u     v     w     x     y     z    aa   <-- classified as
    53     8    25     4     8     8    11     7     1     1     0     1     0     1     0     9     0     7     1     1    47     2     0     5     0     1    88 |     a = ch
     0    18     0     0    34     9     0     4     0     2     0     0     0     0     0     1     0     0     0     0     0     0     0     0     0     4     0 |     b = rr
     0    59 11332   309   558    96    27   319    30    71     0    28    36     7    14   340    28   182     0    13    53    31    16    85     2   169  9920 |     c = 0
     0     7    14    80   180    20     0    33     2     4     0     6     3     3     0    37     0     3     0     0    14    12     0     0     2    34   202 |     d = hs
     0     0     0     0   151     1     0     7     0     1     0     0     0     0     0     2     0     3     0     0     0     0     0     0     0     1     0 |     e = hg
     1    93    60    86  1161  4748    36  1119    61   184     0    10     6    31     0   626    74    32    13    13     7    54     0    45    12    80   211 |     f = a
    21     0    63    39    29     3    49    22     3     2     0     7     2     7     0    13    10    23     5    12    43     7     5    73     0     9   466 |     g = c
     0    17     0     0   114    42     0   125    10     0     1     0     0     0     0    72     0     2     0     0     0     1    14     0     0     1     0 |     h = b
     0    51    10    93  1721   618    29   829   462     5    19     5    10    16    27   359    40    48     2     9     4    15     2    43     0    45   159 |     i = e
     0    33     6    13   243   113     0   287    10    17     0     1     0     0     7   120     0     2     0     0     1     4     0     0     0    19     5 |     j = d
     0    10     1     8    91    64     0    81     6     2     3     1    15     0    15    35     0     5     0     0     3     1     0     3     0     0    19 |     k = g
     0    13     9    35    28    15     3    14     1     1     0     7     0     3     0     7     1    12     0     0     6     5     0    22     5    15   188 |     l = f
     0     3    12    47   563   123    24   389   231     0    12     1   170     5    76   391    11     8     1    13     7    14     0    41     0   135   105 |     m = i
     0     5    16    25    17    39     2    17     3     0     0     4     0    54     4     1    10    23     4     0     4    21     0     8     0     4    69 |     n = j
     0     7     1    36   335    58     0   229     0     9     0     1     0     0     1   137     0     5     0     0     0     1    34     4     0     9    13 |     o = m
     0    27     1    13   350    66     1   187     6     2     0     1     0     0     3   364     2    12     0     4     0     1     0     9     0    24     5 |     p = l
     0    61    15   132   756   752     9  1097    61    98     0     8     0     8     4   490    31    78     9     9     6    13   130    28    32   175   461 |     q = o
     0    78     2    95   609   131     0   598    18    11     9     1    29     0     3   299     1    50     0     0     7     4    17     2     0    84    76 |     r = n
    20     1    11    12    21     9     7     7     2     5     0     1     4     7     1     1     1    20     5     1    36     0     0     6     0     6    95 |     s = q
     0    11    28    50    42    23    18    15     1     5     0    12     0     2     0    46     5    31     2     6     9    22     0    26     0    19   296 |     t = p
   118    52   238   193    86    71    61    13    22    21     0    19    24    33     5    97     9   115     2     1   461    33     0    49     0    60  1182 |     u = s
     0    41    15    77   281   124     9   237    18    20    14     6     9     1     6   249     4    52     1     3     8    19     6    21     5    27   149 |     v = r
     0    10     4    13   103   181     4   379     2    12     0     3     0     2     2   161    12    10     0     5     1     5   372    27     1    60    17 |     w = u
     1    20    66    59    39     5    57    29     0     8     0    16     2    15     1    12    11    66     4    13    17    14     0   100     0    13   575 |     x = t
     0     0     2     4   240    34     0    87    13     1     0     1     0     0     7    51     0     5     0     0     0     2     0     8     0    15     4 |     y = v
     0     0     7     9   121     0     3    18     0     1     0     2     0     0     0    38     1     9     0     2    10     0     0    13     0    43    21 |     z = y
     0     0     0     0     0     0     0     0     0     0     0     0     0     0     0     0     0     0     0     0     0     0     0     0     0     0    23 |    aa = z

=== Percent Confusion Matrix ===
a	b	c	d	e	f	g	h	i	j	k	l	m	n	o	p	q	r	s	t	u	v	w	x	y	z	aa	
18.34	2.77	8.65	1.38	2.77	2.77	3.81	2.42	0.35	0.35	0.0	0.35	0.0	0.35	0.0	3.11	0.0	2.42	0.35	0.35	16.26	0.69	0.0	1.73	0.0	0.35	30.45	 a = ch
0.0	25.0	0.0	0.0	47.22	12.5	0.0	5.56	0.0	2.78	0.0	0.0	0.0	0.0	0.0	1.39	0.0	0.0	0.0	0.0	0.0	0.0	0.0	0.0	0.0	5.56	0.0	 b = rr
0.0	0.25	47.76	1.3	2.35	0.4	0.11	1.34	0.13	0.3	0.0	0.12	0.15	0.03	0.06	1.43	0.12	0.77	0.0	0.05	0.22	0.13	0.07	0.36	0.01	0.71	41.81	 c = 0
0.0	1.07	2.13	12.2	27.44	3.05	0.0	5.03	0.3	0.61	0.0	0.91	0.46	0.46	0.0	5.64	0.0	0.46	0.0	0.0	2.13	1.83	0.0	0.0	0.3	5.18	30.79	 d = hs
0.0	0.0	0.0	0.0	90.96	0.6	0.0	4.22	0.0	0.6	0.0	0.0	0.0	0.0	0.0	1.2	0.0	1.81	0.0	0.0	0.0	0.0	0.0	0.0	0.0	0.6	0.0	 e = hg
0.01	1.06	0.68	0.98	13.25	54.18	0.41	12.77	0.7	2.1	0.0	0.11	0.07	0.35	0.0	7.14	0.84	0.37	0.15	0.15	0.08	0.62	0.0	0.51	0.14	0.91	2.41	 f = a
2.3	0.0	6.9	4.27	3.18	0.33	5.37	2.41	0.33	0.22	0.0	0.77	0.22	0.77	0.0	1.42	1.1	2.52	0.55	1.31	4.71	0.77	0.55	8.0	0.0	0.99	51.04	 g = c
0.0	4.26	0.0	0.0	28.57	10.53	0.0	31.33	2.51	0.0	0.25	0.0	0.0	0.0	0.0	18.05	0.0	0.5	0.0	0.0	0.0	0.25	3.51	0.0	0.0	0.25	0.0	 h = b
0.0	1.1	0.22	2.01	37.24	13.37	0.63	17.94	10.0	0.11	0.41	0.11	0.22	0.35	0.58	7.77	0.87	1.04	0.04	0.19	0.09	0.32	0.04	0.93	0.0	0.97	3.44	 i = e
0.0	3.75	0.68	1.48	27.58	12.83	0.0	32.58	1.14	1.93	0.0	0.11	0.0	0.0	0.79	13.62	0.0	0.23	0.0	0.0	0.11	0.45	0.0	0.0	0.0	2.16	0.57	 j = d
0.0	2.75	0.28	2.2	25.07	17.63	0.0	22.31	1.65	0.55	0.83	0.28	4.13	0.0	4.13	9.64	0.0	1.38	0.0	0.0	0.83	0.28	0.0	0.83	0.0	0.0	5.23	 k = g
0.0	3.33	2.31	8.97	7.18	3.85	0.77	3.59	0.26	0.26	0.0	1.79	0.0	0.77	0.0	1.79	0.26	3.08	0.0	0.0	1.54	1.28	0.0	5.64	1.28	3.85	48.21	 l = f
0.0	0.13	0.5	1.97	23.64	5.16	1.01	16.33	9.7	0.0	0.5	0.04	7.14	0.21	3.19	16.41	0.46	0.34	0.04	0.55	0.29	0.59	0.0	1.72	0.0	5.67	4.41	 m = i
0.0	1.52	4.85	7.58	5.15	11.82	0.61	5.15	0.91	0.0	0.0	1.21	0.0	16.36	1.21	0.3	3.03	6.97	1.21	0.0	1.21	6.36	0.0	2.42	0.0	1.21	20.91	 n = j
0.0	0.8	0.11	4.09	38.07	6.59	0.0	26.02	0.0	1.02	0.0	0.11	0.0	0.0	0.11	15.57	0.0	0.57	0.0	0.0	0.0	0.11	3.86	0.45	0.0	1.02	1.48	 o = m
0.0	2.5	0.09	1.21	32.47	6.12	0.09	17.35	0.56	0.19	0.0	0.09	0.0	0.0	0.28	33.77	0.19	1.11	0.0	0.37	0.0	0.09	0.0	0.83	0.0	2.23	0.46	 p = l
0.0	1.37	0.34	2.96	16.94	16.85	0.2	24.58	1.37	2.2	0.0	0.18	0.0	0.18	0.09	10.98	0.69	1.75	0.2	0.2	0.13	0.29	2.91	0.63	0.72	3.92	10.33	 q = o
0.0	3.67	0.09	4.47	28.67	6.17	0.0	28.15	0.85	0.52	0.42	0.05	1.37	0.0	0.14	14.08	0.05	2.35	0.0	0.0	0.33	0.19	0.8	0.09	0.0	3.95	3.58	 r = n
7.17	0.36	3.94	4.3	7.53	3.23	2.51	2.51	0.72	1.79	0.0	0.36	1.43	2.51	0.36	0.36	0.36	7.17	1.79	0.36	12.9	0.0	0.0	2.15	0.0	2.15	34.05	 s = q
0.0	1.64	4.19	7.47	6.28	3.44	2.69	2.24	0.15	0.75	0.0	1.79	0.0	0.3	0.0	6.88	0.75	4.63	0.3	0.9	1.35	3.29	0.0	3.89	0.0	2.84	44.25	 t = p
3.98	1.75	8.03	6.51	2.9	2.39	2.06	0.44	0.74	0.71	0.0	0.64	0.81	1.11	0.17	3.27	0.3	3.88	0.07	0.03	15.55	1.11	0.0	1.65	0.0	2.02	39.87	 u = s
0.0	2.92	1.07	5.49	20.04	8.84	0.64	16.9	1.28	1.43	1.0	0.43	0.64	0.07	0.43	17.76	0.29	3.71	0.07	0.21	0.57	1.36	0.43	1.5	0.36	1.93	10.63	 v = r
0.0	0.72	0.29	0.94	7.43	13.06	0.29	27.34	0.14	0.87	0.0	0.22	0.0	0.14	0.14	11.62	0.87	0.72	0.0	0.36	0.07	0.36	26.84	1.95	0.07	4.33	1.23	 w = u
0.09	1.75	5.77	5.16	3.41	0.44	4.99	2.54	0.0	0.7	0.0	1.4	0.17	1.31	0.09	1.05	0.96	5.77	0.35	1.14	1.49	1.22	0.0	8.75	0.0	1.14	50.31	 x = t
0.0	0.0	0.42	0.84	50.63	7.17	0.0	18.35	2.74	0.21	0.0	0.21	0.0	0.0	1.48	10.76	0.0	1.05	0.0	0.0	0.0	0.42	0.0	1.69	0.0	3.16	0.84	 y = v
0.0	0.0	2.35	3.02	40.6	0.0	1.01	6.04	0.0	0.34	0.0	0.67	0.0	0.0	0.0	12.75	0.34	3.02	0.0	0.67	3.36	0.0	0.0	4.36	0.0	14.43	7.05	 z = y
0.0	0.0	0.0	0.0	0.0	0.0	0.0	0.0	0.0	0.0	0.0	0.0	0.0	0.0	0.0	0.0	0.0	0.0	0.0	0.0	0.0	0.0	0.0	0.0	0.0	0.0	100.0	 aa = z
