Timestamp:2014-12-07-10:37:46
Inventario:I0
Intervalo:3ms
Ngramas:1
Clasificador:NaiveBayes
Relation Name:  I0-3ms-1gramas
Num Instances:  61135
Num Attributes: 11

     Name                      Type  Nom  Int Real     Missing      Unique  Dist
   1 0Int(dB)                   Num   0%  10%  90%     0 /  0%     3 /  0%   777 
   2 0Pitch(Hz)                 Num   0%  52%  48%     0 /  0%   559 /  1%  3828 
   3 0RawPitch                  Num   0%  55%  45%     0 /  0%   613 /  1%  3808 
   4 0SmPitch                   Num   0%  53%  47%     0 /  0%   575 /  1%  3802 
   5 0Melogram(st)              Num   0%  49%  51%     0 /  0%   269 /  0%  3285 
   6 0ZCross                    Num   0% 100%   0%     0 /  0%     3 /  0%    50 
   7 0F1(Hz)                    Num   0%  52%  48%     0 /  0%  1075 /  2%  4783 
   8 0F2(Hz)                    Num   0%  52%  48%     0 /  0%  2270 /  4%  6724 
   9 0F3(Hz)                    Num   0%  52%  48%     0 /  0%  1945 /  3%  6241 
  10 0F4(Hz)                    Num   0%  52%  48%     0 /  0%  1922 /  3%  6122 
  11 class                      Nom 100%   0%   0%     0 /  0%     0 /  0%    27 


Naive Bayes Classifier

                    Class
Attribute              ch        rr         0        hs        hg         a         c         b         e         d         g         f         i         j         m         l         o         n         q         p         s         r         u         t         v         y         z
                      (0)       (0)    (0.39)    (0.01)       (0)    (0.14)    (0.01)    (0.01)    (0.08)    (0.01)    (0.01)    (0.01)    (0.04)    (0.01)    (0.01)    (0.02)    (0.07)    (0.03)       (0)    (0.01)    (0.05)    (0.02)    (0.02)    (0.02)    (0.01)       (0)       (0)
==============================================================================================================================================================================================================================================================================================
0Int(dB)
  mean            -19.1309  -11.0566  -48.5184  -21.3443  -10.6689   -2.9029  -23.8998   -5.8815   -5.2154   -7.7207   -7.7144  -22.1122    -8.745  -15.7949   -7.5852   -8.2304    -8.205   -9.4674  -21.7073   -22.303  -21.7774  -11.9296   -5.0964  -24.7837   -9.0867  -16.2984   -27.151
  std. dev.         8.2302     4.341   15.9239   11.3134    6.4127    8.1774    10.048     4.314     8.061    6.1865    7.9877    5.3257    8.4284     6.103    5.9771     5.768   12.2015    7.8333   11.1802   10.6956    6.5743    9.4955    7.5403   10.5316    6.4709    4.7071    2.2431
  weight sum           289        72     23726       656       166      8763       913       399      4621       881       363       390      2382       330       880      1078      4463      2124       279       669      2965      1402      1386      1143       474       298        23
  precision         0.1043    0.1043    0.1043    0.1043    0.1043    0.1043    0.1043    0.1043    0.1043    0.1043    0.1043    0.1043    0.1043    0.1043    0.1043    0.1043    0.1043    0.1043    0.1043    0.1043    0.1043    0.1043    0.1043    0.1043    0.1043    0.1043    0.1043

0Pitch(Hz)
  mean             57.2926  243.6833   15.7156   79.9944  147.5913   226.621   60.4216  215.3119  190.6854  201.8505  211.9581   76.6061  173.6379  154.1093    194.15  174.4069  178.3171  189.1463   90.0832   85.0097   45.1599  161.7188   230.256   78.6084  178.8974  113.9875         0
  std. dev.       103.6809  121.7943    54.799   86.5333   38.8775  103.2128  101.9126   72.0861   87.4198   84.7618   101.191  115.9204   76.0641  130.4811   86.8219    64.136  105.1185   90.7082  118.9842  114.5412    88.338   95.5111   83.5916  113.5628   71.7887   69.2177    0.0217
  weight sum           289        72     23726       656       166      8763       913       399      4621       881       363       390      2382       330       880      1078      4463      2124       279       669      2965      1402      1386      1143       474       298        23
  precision         0.1303    0.1303    0.1303    0.1303    0.1303    0.1303    0.1303    0.1303    0.1303    0.1303    0.1303    0.1303    0.1303    0.1303    0.1303    0.1303    0.1303    0.1303    0.1303    0.1303    0.1303    0.1303    0.1303    0.1303    0.1303    0.1303    0.1303

0RawPitch
  mean             39.8485  234.3892    12.846   62.1704   129.542  217.1337    43.308  212.7712  186.0468  195.7565  201.5263   38.1953  166.4491     94.58  183.0776  157.9907  172.3446  175.4321   49.6468   64.9618   23.9913  155.5984   221.377   53.7764  164.8761   79.1943         0
  std. dev.        89.0351  131.0658   49.2565   82.8608   75.8327   108.934   89.2099   75.1283   94.2836    93.879  111.8555   79.1883   82.7406  109.6497   97.7579   78.0879   111.886  103.7454   97.7558  108.2823   66.8443  101.9004   91.8259   98.3045   82.9596   77.1668    0.0218
  weight sum           289        72     23726       656       166      8763       913       399      4621       881       363       390      2382       330       880      1078      4463      2124       279       669      2965      1402      1386      1143       474       298        23
  precision          0.131     0.131     0.131     0.131     0.131     0.131     0.131     0.131     0.131     0.131     0.131     0.131     0.131     0.131     0.131     0.131     0.131     0.131     0.131     0.131     0.131     0.131     0.131     0.131     0.131     0.131     0.131

0SmPitch
  mean             52.8659  243.6883   14.1425   73.2597  149.5327  224.9684   51.9976  215.3073  189.2421  201.2862  210.4051   58.8759  171.0176  110.0585  190.8812   172.492  176.2127  186.0892   71.1737   75.7198   37.5887  158.9145   229.966   68.0467   175.782  108.7328         0
  std. dev.       100.3428  121.7968   50.9133   83.0946    36.794  104.7042   97.4937   72.0825   88.6477   85.8449  102.9728   98.5289   78.8205  136.6015   91.5707   66.5539  107.2818    93.569  111.1712  112.6926   82.2568   96.9797   83.6261  108.9491   75.5882   71.3475    0.0219
  weight sum           289        72     23726       656       166      8763       913       399      4621       881       363       390      2382       330       880      1078      4463      2124       279       669      2965      1402      1386      1143       474       298        23
  precision         0.1312    0.1312    0.1312    0.1312    0.1312    0.1312    0.1312    0.1312    0.1312    0.1312    0.1312    0.1312    0.1312    0.1312    0.1312    0.1312    0.1312    0.1312    0.1312    0.1312    0.1312    0.1312    0.1312    0.1312    0.1312    0.1312    0.1312

0Melogram(st)
  mean             16.2714   56.4407    4.6708   24.6982   49.4313   53.3894   15.8736   55.1544   50.6147   52.9664   51.0657    20.695   48.6212   16.3146   50.9332   51.1007   46.5702   49.6579     19.67   21.7002   12.2041   43.0879   54.4863    18.711   50.8737   40.2278         0
  std. dev.         26.128    8.9923    15.268   25.0657    4.6213   14.3758   25.5384    7.3375   15.1287   11.3858   17.8701   26.9749   16.0378   26.4707   14.5558    9.6857    20.439    16.981   27.2243    27.606   22.9897   22.3579   13.4335   27.0038   11.0856    18.398    0.0042
  weight sum           289        72     23726       656       166      8763       913       399      4621       881       363       390      2382       330       880      1078      4463      2124       279       669      2965      1402      1386      1143       474       298        23
  precision         0.0252    0.0252    0.0252    0.0252    0.0252    0.0252    0.0252    0.0252    0.0252    0.0252    0.0252    0.0252    0.0252    0.0252    0.0252    0.0252    0.0252    0.0252    0.0252    0.0252    0.0252    0.0252    0.0252    0.0252    0.0252    0.0252    0.0252

0ZCross
  mean              8.5896    3.2959    0.2221    0.9327    3.2585    7.5244    1.6729    3.9359    4.9156    3.8027    4.3582    0.5846    3.5967    3.7119    2.8341    3.1823    4.0424    2.3944     4.307     0.979    3.5996    3.0351    3.8515    0.8946    3.0554    1.5146         0
  std. dev.        12.7749    2.6156    1.0404    1.6812    2.4065    4.4211    3.5391    1.7782    3.2034    2.1182    2.7159    1.4661    3.1513    3.7813    1.3988     1.884    2.9091    1.5238    7.1567    2.1273    6.9991    2.4104    2.7932       1.7     1.742    1.7005    0.1939
  weight sum           289        72     23726       656       166      8763       913       399      4621       881       363       390      2382       330       880      1078      4463      2124       279       669      2965      1402      1386      1143       474       298        23
  precision         1.1633    1.1633    1.1633    1.1633    1.1633    1.1633    1.1633    1.1633    1.1633    1.1633    1.1633    1.1633    1.1633    1.1633    1.1633    1.1633    1.1633    1.1633    1.1633    1.1633    1.1633    1.1633    1.1633    1.1633    1.1633    1.1633    1.1633

0F1(Hz)
  mean            134.0304  608.6065   50.9705  370.8809  446.6215  711.1854  103.4879  478.6471  466.9426  517.5707  493.2121  257.3532  363.5983  447.9045  431.1649  470.5344  486.8876   460.667  182.3828   232.006  169.5554  483.1726  501.4313  124.9647  483.3099  340.6239         0
  std. dev.       255.4969  136.8825  162.6104  302.9978   85.8468  250.8735   215.266  132.4441  141.0764   152.918  192.4513  329.9021  141.2908  348.6185  162.2572  137.0126  224.2029  156.4058    246.94  292.2556  276.6965  234.5445  304.2361  218.7114  163.8664  183.0212    0.0607
  weight sum           289        72     23726       656       166      8763       913       399      4621       881       363       390      2382       330       880      1078      4463      2124       279       669      2965      1402      1386      1143       474       298        23
  precision         0.3642    0.3642    0.3642    0.3642    0.3642    0.3642    0.3642    0.3642    0.3642    0.3642    0.3642    0.3642    0.3642    0.3642    0.3642    0.3642    0.3642    0.3642    0.3642    0.3642    0.3642    0.3642    0.3642    0.3642    0.3642    0.3642    0.3642

0F2(Hz)
  mean            410.8756 1638.7108  159.6878 1070.4154 1925.4529 1464.9921  302.3623 1571.3768 1800.7234 1482.7798 1687.2659  674.1402 1991.3969 1244.3036 1668.8094  1670.994 1143.6165 1592.8805  725.7135  689.6151  529.8886 1370.3938 1063.4653  415.3561  1582.791 1351.3498         0
  std. dev.       750.4936  126.0433  504.4739  853.6499  351.1186  386.1433  643.6399   343.705  507.5736    322.46  594.1662  841.0747  651.9928  910.3629  433.9806  329.5639  529.3781   460.739  954.4333  839.5096  839.1176  618.0853  414.3404  708.2955  389.8601  664.0945    0.0738
  weight sum           289        72     23726       656       166      8763       913       399      4621       881       363       390      2382       330       880      1078      4463      2124       279       669      2965      1402      1386      1143       474       298        23
  precision         0.4431    0.4431    0.4431    0.4431    0.4431    0.4431    0.4431    0.4431    0.4431    0.4431    0.4431    0.4431    0.4431    0.4431    0.4431    0.4431    0.4431    0.4431    0.4431    0.4431    0.4431    0.4431    0.4431    0.4431    0.4431    0.4431    0.4431

0F3(Hz)
  mean            672.5356 2860.0461   272.283  1746.696 2525.2826 2732.7922  556.6205 2749.6624  2638.722 2866.4836 2893.5233 1142.9212 2676.1136 1837.9646 2751.9434 2818.3643 2509.8227 2751.6432 1088.8543 1172.1015  879.9332 2378.9471  2701.015  743.7442 2694.3199 2324.5104         0
  std. dev.       1228.457   417.525  845.4798 1334.2803  112.9788    712.03 1144.0071  467.7999  758.2975  508.9155  933.1946 1421.5854  900.3451 1332.3169  566.7825   567.257 1013.4676  685.4656 1396.2439  1413.788 1378.3878 1080.1857  745.1651 1257.3577  632.0142 1157.9491      0.11
  weight sum           289        72     23726       656       166      8763       913       399      4621       881       363       390      2382       330       880      1078      4463      2124       279       669      2965      1402      1386      1143       474       298        23
  precision         0.6602    0.6602    0.6602    0.6602    0.6602    0.6602    0.6602    0.6602    0.6602    0.6602    0.6602    0.6602    0.6602    0.6602    0.6602    0.6602    0.6602    0.6602    0.6602    0.6602    0.6602    0.6602    0.6602    0.6602    0.6602    0.6602    0.6602

0F4(Hz)
  mean            804.6681 3242.8713  327.6107 2171.6193 3590.4838 3145.5664  647.7106 3299.4904  3179.034 3322.1873 2936.8721   1316.03 3179.5458 2305.1837 3309.3984  3243.195  2888.156 3157.8057 1313.0507 1407.7959  995.2684 2757.3675 3093.8479  860.4427  3265.765 2686.8886         0
  std. dev.      1469.2433  402.6487 1014.8963 1645.6702   89.5848  806.5713 1332.4515   440.844  877.8457  556.6252  950.2793 1626.8785  1026.953  1659.267  612.3136  568.8859 1148.0627  792.5274 1695.0534 1675.5478 1556.8632 1199.2031  750.1771 1459.7094  640.7738 1327.8399    0.1129
  weight sum           289        72     23726       656       166      8763       913       399      4621       881       363       390      2382       330       880      1078      4463      2124       279       669      2965      1402      1386      1143       474       298        23
  precision         0.6775    0.6775    0.6775    0.6775    0.6775    0.6775    0.6775    0.6775    0.6775    0.6775    0.6775    0.6775    0.6775    0.6775    0.6775    0.6775    0.6775    0.6775    0.6775    0.6775    0.6775    0.6775    0.6775    0.6775    0.6775    0.6775    0.6775





=== Stratified cross-validation ===

Correctly Classified Instances       20393               33.3573 %
Incorrectly Classified Instances     40742               66.6427 %
Kappa statistic                          0.2533
K&B Relative Info Score            1481953.9843 %
K&B Information Score                48920.8684 bits      0.8002 bits/instance
Class complexity | order 0          201729.8929 bits      3.2997 bits/instance
Class complexity | scheme          1179757.7369 bits     19.2976 bits/instance
Complexity improvement     (Sf)    -978027.8441 bits    -15.9978 bits/instance
Mean absolute error                      0.0512
Root mean squared error                  0.1958
Relative absolute error                 85.4213 %
Root relative squared error            113.0785 %
Coverage of cases (0.95 level)          57.3501 %
Mean rel. region size (0.95 level)      15.5892 %
Total Number of Instances            61135     


=== Detailed Accuracy By Class ===

                 TP Rate  FP Rate  Precision  Recall   F-Measure  MCC      ROC Area  PRC Area  Class
                 0,145    0,002    0,275      0,145    0,190      0,197    0,613     0,101     ch
                 0,000    0,001    0,000      0,000    0,000      -0,001   0,906     0,040     rr
                 0,477    0,016    0,951      0,477    0,635      0,567    0,882     0,855     0
                 0,143    0,024    0,060      0,143    0,085      0,078    0,609     0,041     hs
                 0,819    0,102    0,021      0,819    0,042      0,123    0,947     0,074     hg
                 0,675    0,081    0,584      0,675    0,626      0,560    0,891     0,635     a
                 0,020    0,004    0,078      0,020    0,031      0,032    0,443     0,043     c
                 0,203    0,051    0,025      0,203    0,045      0,055    0,831     0,024     b
                 0,186    0,027    0,357      0,186    0,245      0,216    0,791     0,271     e
                 0,023    0,004    0,084      0,023    0,036      0,037    0,800     0,044     d
                 0,000    0,000    0,000      0,000    0,000      0,000    0,763     0,024     g
                 0,000    0,000    0,000      0,000    0,000      -0,001   0,468     0,016     f
                 0,122    0,004    0,554      0,122    0,200      0,248    0,856     0,329     i
                 0,058    0,001    0,302      0,058    0,097      0,130    0,715     0,103     j
                 0,000    0,001    0,000      0,000    0,000      -0,003   0,820     0,044     m
                 0,409    0,078    0,086      0,409    0,142      0,157    0,856     0,088     l
                 0,014    0,006    0,146      0,014    0,025      0,023    0,757     0,184     o
                 0,050    0,021    0,078      0,050    0,061      0,036    0,788     0,082     n
                 0,011    0,000    0,120      0,011    0,020      0,035    0,589     0,025     q
                 0,004    0,000    0,158      0,004    0,009      0,025    0,490     0,024     p
                 0,160    0,004    0,689      0,160    0,260      0,319    0,540     0,256     s
                 0,004    0,003    0,037      0,004    0,008      0,005    0,692     0,043     r
                 0,253    0,003    0,632      0,253    0,362      0,392    0,872     0,366     u
                 0,094    0,010    0,155      0,094    0,117      0,107    0,465     0,058     t
                 0,000    0,000    0,000      0,000    0,000      -0,000   0,801     0,020     v
                 0,111    0,007    0,067      0,111    0,084      0,081    0,843     0,034     y
                 1,000    0,241    0,002      1,000    0,003      0,034    0,943     0,003     z
Weighted Avg.    0,334    0,024    0,576      0,334    0,396      0,364    0,810     0,502     


=== Confusion Matrix ===

     a     b     c     d     e     f     g     h     i     j     k     l     m     n     o     p     q     r     s     t     u     v     w     x     y     z    aa   <-- classified as
    42     2    18     5     2    16     1     5     0     0     0     0     0     0     0    13     0    15     0     0    60     0     0    10     0     0   100 |     a = ch
     0     0     0     0    21    26     0     4     0     1     0     0     0     0     0    13     0     5     0     0     0     0     0     0     0     2     0 |     b = rr
     0     2 11311   334   500   248    20   178    75    41     0     0    81     2     6   371    62   250     0     0     4    18    14    94     0    82 10033 |     c = 0
     0     0    11    94   146    40     0    24     7     1     0     0     5     0     0    61     4    14     0     0     3     6     0     0     0    18   222 |     d = hs
     0     0     0     0   136     4     0     4     1     1     0     0     0     0     0    10     0     4     0     0     0     0     0     0     0     6     0 |     e = hg
     0     1    60    96   731  5911    36   415   135    55     0     0     7    11     0   799    89    71     6     3     6    34     1    52     0    22   222 |     f = a
    11     0    67    40    34    13    18    16     9     2     0     0     4     5     0    15    15    22     2     2    68     2     3    79     0     2   484 |     g = c
     0     0     0     0    74    71     0    81    38     1     0     0     0     0     0   117     1     1     0     0     0     1    14     0     0     0     0 |     h = b
     0     6    10    99  1477   876    29   363   860     6     0     0    17     6     1   527    31    67     1     3     0     6     0    48     0    23   165 |     i = e
     0     0     6     8   223   188     0   187    41    20     0     0     0     0     0   173     0     7     0     0     5     2     0     0     0    15     6 |     j = d
     0     0     1     9    78   113     0    24    43     0     0     0    17     0     0    42     1    10     0     0     0     1     0     3     0     0    21 |     k = g
     0     2     7    39    29    29     0    13     1     3     0     0     0     0     0     7     7    20     0     0     2     1     0    23     0     5   202 |     l = f
     0     0    11    63   430   155    24   130   613     0     0     0   291     1    18   404     8    26     0     0     1     1     0    50     0    43   113 |     m = i
     0     0    16    28    14    52     3    11     8     0     0     0     0    19     1     5    33    25     3     0     1    23     0    12     0     2    74 |     n = j
     0     1     1    40   293   102     0   122    40     2     0     0     7     0     0   199     0    18     0     0     0     0    31     4     0     7    13 |     o = m
     0     0     1    15   288   109     2   104    48     1     0     0     0     0     0   441     0    35     0     0     0     2     0    12     0    14     6 |     p = l
     0     1    11   144   532  1137    13   646   233    49     0     0     0     0     1   651    61   260     7     5     0    11   129    29     0    66   477 |     q = o
     0    10     3   107   536   297     0   419    46     7     0     0    40     0     1   396     4   107     0     0     1     5     6     0     0    55    84 |     r = n
    14     0     9    12    16    15     3     4     4     4     0     0     7     5     0     3     1    25     3     0    38     1     0     8     0     2   105 |     s = q
     0     0    29    54    38    34    18    12     3     2     0     0     0     0     0    51    19    55     1     3     0     7     0    27     0     6   310 |     t = p
    86     5   228   207    67   115     6     5    48    15     0     0    37    10     0   100    36   113     1     0   475    24     0    52     0    31  1304 |     u = s
     0     0    18    83   236   208     7   116    73    10     0     0     8     0     0   349    10    79     0     0     0     6     6    25     1     9   158 |     v = r
     0     3     3    11    83   311     4   219    51     9     0     0     0     0     0   208    21    20     0     1     3     0   351    34     0    37    17 |     w = u
     0     7    68    66    41    22    46    30     3     6     0     3     4     4     1    21    15    73     1     2    13     7     0   107     0     7   596 |     x = t
     0     0     2     3   215    36     0    60    26     0     0     0     0     0     3    89     0    22     0     0     0     5     0     7     0     2     4 |     y = v
     0     0     8    11    90     0     0    11     0     1     0     0     0     0     1    71     0    24     0     0     9     0     0    15     0    33    24 |     z = y
     0     0     0     0     0     0     0     0     0     0     0     0     0     0     0     0     0     0     0     0     0     0     0     0     0     0    23 |    aa = z

=== Percent Confusion Matrix ===
a	b	c	d	e	f	g	h	i	j	k	l	m	n	o	p	q	r	s	t	u	v	w	x	y	z	aa	
14.53	0.69	6.23	1.73	0.69	5.54	0.35	1.73	0.0	0.0	0.0	0.0	0.0	0.0	0.0	4.5	0.0	5.19	0.0	0.0	20.76	0.0	0.0	3.46	0.0	0.0	34.6	 a = ch
0.0	0.0	0.0	0.0	29.17	36.11	0.0	5.56	0.0	1.39	0.0	0.0	0.0	0.0	0.0	18.06	0.0	6.94	0.0	0.0	0.0	0.0	0.0	0.0	0.0	2.78	0.0	 b = rr
0.0	0.01	47.67	1.41	2.11	1.05	0.08	0.75	0.32	0.17	0.0	0.0	0.34	0.01	0.03	1.56	0.26	1.05	0.0	0.0	0.02	0.08	0.06	0.4	0.0	0.35	42.29	 c = 0
0.0	0.0	1.68	14.33	22.26	6.1	0.0	3.66	1.07	0.15	0.0	0.0	0.76	0.0	0.0	9.3	0.61	2.13	0.0	0.0	0.46	0.91	0.0	0.0	0.0	2.74	33.84	 d = hs
0.0	0.0	0.0	0.0	81.93	2.41	0.0	2.41	0.6	0.6	0.0	0.0	0.0	0.0	0.0	6.02	0.0	2.41	0.0	0.0	0.0	0.0	0.0	0.0	0.0	3.61	0.0	 e = hg
0.0	0.01	0.68	1.1	8.34	67.45	0.41	4.74	1.54	0.63	0.0	0.0	0.08	0.13	0.0	9.12	1.02	0.81	0.07	0.03	0.07	0.39	0.01	0.59	0.0	0.25	2.53	 f = a
1.2	0.0	7.34	4.38	3.72	1.42	1.97	1.75	0.99	0.22	0.0	0.0	0.44	0.55	0.0	1.64	1.64	2.41	0.22	0.22	7.45	0.22	0.33	8.65	0.0	0.22	53.01	 g = c
0.0	0.0	0.0	0.0	18.55	17.79	0.0	20.3	9.52	0.25	0.0	0.0	0.0	0.0	0.0	29.32	0.25	0.25	0.0	0.0	0.0	0.25	3.51	0.0	0.0	0.0	0.0	 h = b
0.0	0.13	0.22	2.14	31.96	18.96	0.63	7.86	18.61	0.13	0.0	0.0	0.37	0.13	0.02	11.4	0.67	1.45	0.02	0.06	0.0	0.13	0.0	1.04	0.0	0.5	3.57	 i = e
0.0	0.0	0.68	0.91	25.31	21.34	0.0	21.23	4.65	2.27	0.0	0.0	0.0	0.0	0.0	19.64	0.0	0.79	0.0	0.0	0.57	0.23	0.0	0.0	0.0	1.7	0.68	 j = d
0.0	0.0	0.28	2.48	21.49	31.13	0.0	6.61	11.85	0.0	0.0	0.0	4.68	0.0	0.0	11.57	0.28	2.75	0.0	0.0	0.0	0.28	0.0	0.83	0.0	0.0	5.79	 k = g
0.0	0.51	1.79	10.0	7.44	7.44	0.0	3.33	0.26	0.77	0.0	0.0	0.0	0.0	0.0	1.79	1.79	5.13	0.0	0.0	0.51	0.26	0.0	5.9	0.0	1.28	51.79	 l = f
0.0	0.0	0.46	2.64	18.05	6.51	1.01	5.46	25.73	0.0	0.0	0.0	12.22	0.04	0.76	16.96	0.34	1.09	0.0	0.0	0.04	0.04	0.0	2.1	0.0	1.81	4.74	 m = i
0.0	0.0	4.85	8.48	4.24	15.76	0.91	3.33	2.42	0.0	0.0	0.0	0.0	5.76	0.3	1.52	10.0	7.58	0.91	0.0	0.3	6.97	0.0	3.64	0.0	0.61	22.42	 n = j
0.0	0.11	0.11	4.55	33.3	11.59	0.0	13.86	4.55	0.23	0.0	0.0	0.8	0.0	0.0	22.61	0.0	2.05	0.0	0.0	0.0	0.0	3.52	0.45	0.0	0.8	1.48	 o = m
0.0	0.0	0.09	1.39	26.72	10.11	0.19	9.65	4.45	0.09	0.0	0.0	0.0	0.0	0.0	40.91	0.0	3.25	0.0	0.0	0.0	0.19	0.0	1.11	0.0	1.3	0.56	 p = l
0.0	0.02	0.25	3.23	11.92	25.48	0.29	14.47	5.22	1.1	0.0	0.0	0.0	0.0	0.02	14.59	1.37	5.83	0.16	0.11	0.0	0.25	2.89	0.65	0.0	1.48	10.69	 q = o
0.0	0.47	0.14	5.04	25.24	13.98	0.0	19.73	2.17	0.33	0.0	0.0	1.88	0.0	0.05	18.64	0.19	5.04	0.0	0.0	0.05	0.24	0.28	0.0	0.0	2.59	3.95	 r = n
5.02	0.0	3.23	4.3	5.73	5.38	1.08	1.43	1.43	1.43	0.0	0.0	2.51	1.79	0.0	1.08	0.36	8.96	1.08	0.0	13.62	0.36	0.0	2.87	0.0	0.72	37.63	 s = q
0.0	0.0	4.33	8.07	5.68	5.08	2.69	1.79	0.45	0.3	0.0	0.0	0.0	0.0	0.0	7.62	2.84	8.22	0.15	0.45	0.0	1.05	0.0	4.04	0.0	0.9	46.34	 t = p
2.9	0.17	7.69	6.98	2.26	3.88	0.2	0.17	1.62	0.51	0.0	0.0	1.25	0.34	0.0	3.37	1.21	3.81	0.03	0.0	16.02	0.81	0.0	1.75	0.0	1.05	43.98	 u = s
0.0	0.0	1.28	5.92	16.83	14.84	0.5	8.27	5.21	0.71	0.0	0.0	0.57	0.0	0.0	24.89	0.71	5.63	0.0	0.0	0.0	0.43	0.43	1.78	0.07	0.64	11.27	 v = r
0.0	0.22	0.22	0.79	5.99	22.44	0.29	15.8	3.68	0.65	0.0	0.0	0.0	0.0	0.0	15.01	1.52	1.44	0.0	0.07	0.22	0.0	25.32	2.45	0.0	2.67	1.23	 w = u
0.0	0.61	5.95	5.77	3.59	1.92	4.02	2.62	0.26	0.52	0.0	0.26	0.35	0.35	0.09	1.84	1.31	6.39	0.09	0.17	1.14	0.61	0.0	9.36	0.0	0.61	52.14	 x = t
0.0	0.0	0.42	0.63	45.36	7.59	0.0	12.66	5.49	0.0	0.0	0.0	0.0	0.0	0.63	18.78	0.0	4.64	0.0	0.0	0.0	1.05	0.0	1.48	0.0	0.42	0.84	 y = v
0.0	0.0	2.68	3.69	30.2	0.0	0.0	3.69	0.0	0.34	0.0	0.0	0.0	0.0	0.34	23.83	0.0	8.05	0.0	0.0	3.02	0.0	0.0	5.03	0.0	11.07	8.05	 z = y
0.0	0.0	0.0	0.0	0.0	0.0	0.0	0.0	0.0	0.0	0.0	0.0	0.0	0.0	0.0	0.0	0.0	0.0	0.0	0.0	0.0	0.0	0.0	0.0	0.0	0.0	100.0	 aa = z
