Timestamp:2013-08-30-03:48:35
Inventario:I0
Intervalo:3ms
Ngramas:3
Clasificador:BayesNet
Relation Name:  I0-3ms-3gramas
Num Instances:  61133
Num Attributes: 31

     Name                      Type  Nom  Int Real     Missing      Unique  Dist
   1 0Int(dB)                   Num   0%  10%  90%     0 /  0%     2 /  0%   776 
   2 0Pitch(Hz)                 Num   0%  52%  48%     0 /  0%   559 /  1%  3828 
   3 0RawPitch                  Num   0%  55%  45%     0 /  0%   613 /  1%  3808 
   4 0SmPitch                   Num   0%  53%  47%     0 /  0%   575 /  1%  3802 
   5 0Melogram(st)              Num   0%  49%  51%     0 /  0%   269 /  0%  3285 
   6 0ZCross                    Num   0% 100%   0%     0 /  0%     3 /  0%    50 
   7 0F1(Hz)                    Num   0%  52%  48%     0 /  0%  1075 /  2%  4783 
   8 0F2(Hz)                    Num   0%  52%  48%     0 /  0%  2270 /  4%  6724 
   9 0F3(Hz)                    Num   0%  52%  48%     0 /  0%  1945 /  3%  6241 
  10 0F4(Hz)                    Num   0%  52%  48%     0 /  0%  1922 /  3%  6122 
  11 1Int(dB)                   Num   0%  10%  90%     0 /  0%     2 /  0%   776 
  12 1Pitch(Hz)                 Num   0%  52%  48%     0 /  0%   559 /  1%  3828 
  13 1RawPitch                  Num   0%  55%  45%     0 /  0%   613 /  1%  3808 
  14 1SmPitch                   Num   0%  53%  47%     0 /  0%   575 /  1%  3802 
  15 1Melogram(st)              Num   0%  49%  51%     0 /  0%   269 /  0%  3285 
  16 1ZCross                    Num   0% 100%   0%     0 /  0%     3 /  0%    50 
  17 1F1(Hz)                    Num   0%  52%  48%     0 /  0%  1075 /  2%  4783 
  18 1F2(Hz)                    Num   0%  52%  48%     0 /  0%  2270 /  4%  6724 
  19 1F3(Hz)                    Num   0%  52%  48%     0 /  0%  1945 /  3%  6241 
  20 1F4(Hz)                    Num   0%  52%  48%     0 /  0%  1922 /  3%  6122 
  21 2Int(dB)                   Num   0%  10%  90%     0 /  0%     3 /  0%   777 
  22 2Pitch(Hz)                 Num   0%  52%  48%     0 /  0%   559 /  1%  3828 
  23 2RawPitch                  Num   0%  55%  45%     0 /  0%   613 /  1%  3808 
  24 2SmPitch                   Num   0%  53%  47%     0 /  0%   575 /  1%  3802 
  25 2Melogram(st)              Num   0%  49%  51%     0 /  0%   269 /  0%  3285 
  26 2ZCross                    Num   0% 100%   0%     0 /  0%     3 /  0%    50 
  27 2F1(Hz)                    Num   0%  52%  48%     0 /  0%  1075 /  2%  4783 
  28 2F2(Hz)                    Num   0%  52%  48%     0 /  0%  2270 /  4%  6724 
  29 2F3(Hz)                    Num   0%  52%  48%     0 /  0%  1945 /  3%  6241 
  30 2F4(Hz)                    Num   0%  52%  48%     0 /  0%  1922 /  3%  6122 
  31 class                      Nom 100%   0%   0%     0 /  0%     0 /  0%    27 


Options: -D -Q weka.classifiers.bayes.net.search.local.K2 -- -P 1 -S BAYES -E weka.classifiers.bayes.net.estimate.SimpleEstimator -- -A 0.5 

Bayes Network Classifier
not using ADTree
#attributes=31 #classindex=30
Network structure (nodes followed by parents)
0Int(dB)(21): class 
0Pitch(Hz)(27): class 
0RawPitch(16): class 
0SmPitch(24): class 
0Melogram(st)(33): class 
0ZCross(13): class 
0F1(Hz)(501): class 
0F2(Hz)(490): class 
0F3(Hz)(654): class 
0F4(Hz)(498): class 
1Int(dB)(21): class 
1Pitch(Hz)(26): class 
1RawPitch(17): class 
1SmPitch(24): class 
1Melogram(st)(36): class 
1ZCross(13): class 
1F1(Hz)(500): class 
1F2(Hz)(489): class 
1F3(Hz)(708): class 
1F4(Hz)(459): class 
2Int(dB)(19): class 
2Pitch(Hz)(31): class 
2RawPitch(19): class 
2SmPitch(25): class 
2Melogram(st)(30): class 
2ZCross(12): class 
2F1(Hz)(421): class 
2F2(Hz)(353): class 
2F3(Hz)(557): class 
2F4(Hz)(520): class 
class(27): 
LogScore Bayes: -3800981.144510061
LogScore BDeu: -5740012.6788495155
LogScore MDL: -5263376.296946082
LogScore ENTROPY: -4292140.11945597
LogScore AIC: -4468395.119455968




=== Stratified cross-validation ===

Correctly Classified Instances       39323               64.3237 %
Incorrectly Classified Instances     21810               35.6763 %
Kappa statistic                          0.5569
K&B Relative Info Score            3313827.3471 %
K&B Information Score               109398.5055 bits      1.7895 bits/instance
Class complexity | order 0          201727.1617 bits      3.2998 bits/instance
Class complexity | scheme           567110.4652 bits      9.2767 bits/instance
Complexity improvement     (Sf)    -365383.3035 bits     -5.9769 bits/instance
Mean absolute error                      0.0269
Root mean squared error                  0.1513
Relative absolute error                 44.8209 %
Root relative squared error             87.3547 %
Coverage of cases (0.95 level)          71.4835 %
Mean rel. region size (0.95 level)       5.3265 %
Total Number of Instances            61133     


=== Detailed Accuracy By Class ===

                 TP Rate  FP Rate  Precision  Recall   F-Measure  MCC      ROC Area  PRC Area  Class
                 0,170    0,001    0,355      0,170    0,230      0,243    0,944     0,216     ch
                 0,625    0,005    0,122      0,625    0,204      0,274    0,994     0,361     rr
                 0,894    0,114    0,832      0,894    0,862      0,771    0,960     0,953     0
                 0,322    0,016    0,175      0,322    0,227      0,226    0,883     0,168     hs
                 0,699    0,009    0,170      0,699    0,274      0,342    0,979     0,524     hg
                 0,678    0,030    0,791      0,678    0,730      0,692    0,944     0,818     a
                 0,102    0,005    0,220      0,102    0,139      0,141    0,899     0,161     c
                 0,514    0,010    0,245      0,514    0,331      0,349    0,972     0,304     b
                 0,554    0,034    0,571      0,554    0,563      0,527    0,907     0,578     e
                 0,418    0,018    0,255      0,418    0,317      0,314    0,922     0,324     d
                 0,444    0,008    0,248      0,444    0,318      0,326    0,931     0,315     g
                 0,203    0,002    0,364      0,203    0,260      0,268    0,934     0,229     f
                 0,593    0,012    0,662      0,593    0,625      0,612    0,939     0,637     i
                 0,439    0,002    0,612      0,439    0,511      0,516    0,948     0,477     j
                 0,530    0,011    0,412      0,530    0,464      0,459    0,947     0,485     m
                 0,594    0,035    0,233      0,594    0,335      0,355    0,935     0,304     l
                 0,359    0,012    0,695      0,359    0,473      0,473    0,875     0,539     o
                 0,428    0,015    0,515      0,428    0,467      0,452    0,926     0,447     n
                 0,186    0,002    0,359      0,186    0,245      0,256    0,924     0,229     q
                 0,136    0,003    0,340      0,136    0,194      0,210    0,895     0,171     p
                 0,431    0,015    0,590      0,431    0,498      0,483    0,923     0,529     s
                 0,263    0,011    0,357      0,263    0,303      0,293    0,863     0,277     r
                 0,582    0,007    0,652      0,582    0,615      0,607    0,949     0,671     u
                 0,123    0,006    0,299      0,123    0,175      0,183    0,891     0,181     t
                 0,437    0,013    0,207      0,437    0,281      0,293    0,933     0,256     v
                 0,584    0,014    0,167      0,584    0,260      0,307    0,938     0,377     y
                 0,000    0,000    0,000      0,000    0,000      -0,000   0,953     0,004     z
Weighted Avg.    0,643    0,056    0,669      0,643    0,644      0,600    0,935     0,700     


=== Confusion Matrix ===

     a     b     c     d     e     f     g     h     i     j     k     l     m     n     o     p     q     r     s     t     u     v     w     x     y     z    aa   <-- classified as
    49     0    83     1     1    10     5     0     4     1     0     1     8     2     2     6     1     7     0     0    97     5     0     4     1     1     0 |     a = ch
     0    45     0     0     0     0     0     0    13     0     0     0     1     0     4     2     0     0     0     0     0     2     0     0     3     2     0 |     b = rr
    10     9 21202   218    80   161    43    49   248   116    27    46   186    39    46   179   166   139    41    57   178   117    33    58    66   187    23 |     c = 0
     0     0   196   211    18    18    10     4    41     7     0     0     4     2    12    26    12     3     0     2    18     5    14     1    26    26     0 |     d = hs
     0     0     0     0   116     8     0     3    16     4     0     0     2     0     1     8     1     4     0     0     0     0     0     0     3     0     0 |     e = hg
    11   105   236    95    58  5940    51    88   417   274    65    19    31    11    44   386   209   137    11     8    60   182    39    35   144   107     0 |     f = a
     8     0   484    26     3     3    93     2    16     5     0     6    15     1     9     2     9    12     6     3   147    11    15    27     7     3     0 |     g = c
     0     0     0     0    20    24     0   205    23    10     5     0     6     0    20    36    10     6     0     0     0     3    14     0     7    10     0 |     h = b
     4    46   164   106    78   274    34    76  2562   108   109     5   116     0    90   329    57   104    11    23    17    60    38    34   119    57     0 |     i = e
     0    17     5    26    11    74     0    19    56   368    12     0    21     0    26    71    18    52     2     2     1     1    16     2    55    26     0 |     j = d
     0     5    18     0     1    30     0     2    44     3   161     0    45     3     4    17     3     6     0     0    11     4     0     0     0     6     0 |     k = g
     0     0   177    10     8    14     3     1    18     3     0    79     0     5     1     4     0     3     0     0    21     6     2    10     5    20     0 |     l = f
     8     0   103    34    44    13    29    62   203    18    31     2  1412     1    85   107     6    38     8     9    30    14     8    27    21    65     4 |     m = i
     0     0    56     4     9    17     1     1    26     4     0     2     5   145     4     1     2     2     0     3    36     2     0     2     0     8     0 |     n = j
     1     0    14    30    11    27     2    34    47     9    20     1    31     0   466    71     4    39     0     2     0    11    16     1    26    17     0 |     o = m
     0     0     4    43    14    58     1    26    62    20     8     0    35     0    33   640    11    37     1     1     9     9    10     4    21    31     0 |     p = l
     5    63   455   151    82   463    36   114   237   303    86     8    24     1    64   269  1601    87     1    16    11    47   136    38   126    39     0 |     q = o
     0    46    71    89    51    95     0    44   136    46    47     9    42     2    99   211     4   909     2     6    12    28    51    16    36    69     3 |     r = n
     6     0    92     1     0    12     1     0     7     1     0     1    14     0     0     2     0     4    52     3    67     2     0     2     0    12     0 |     s = q
     2     0   302    25     9    16    19     1    25    15     0     4     1     4     8    21    13    14     1    91    22    21     6    19    10    20     0 |     t = p
    19     4   997    42    14    53    20     7    49    21    17    10    85    12    10    50    27    35     3     8  1279    64    10    15    23    91     0 |     u = s
     2     0   143    57    21   140    13    40   132    50    46    14    32     2    34   132    25    26     2    11    22   369    17     9    50    13     0 |     v = r
     2     9    19     8    11    47    10    44    57    17     8     3     4     0    39    84    82    33     1     8     2     9   806    19    30    34     0 |     w = u
    11     5   599    24    15     4    50     1     8     5     2     6     7     7     5     4    28    58     1    14    88    34     5   141     5    16     0 |     x = t
     0    15     6     6     6     7     1    13    39    32     6     1     6     0    19    51    16     6     0     0     2    23     0     6   207     6     0 |     y = v
     0     0    19     0     1     0     1     2     1     2     0     0     0     0     5    34     0     5     2     1    38     5     0     1     7   174     0 |     z = y
     0     0    23     0     0     0     0     0     0     0     0     0     0     0     0     0     0     0     0     0     0     0     0     0     0     0     0 |    aa = z

=== Percent Confusion Matrix ===
a	b	c	d	e	f	g	h	i	j	k	l	m	n	o	p	q	r	s	t	u	v	w	x	y	z	aa	
16.96	0.0	28.72	0.35	0.35	3.46	1.73	0.0	1.38	0.35	0.0	0.35	2.77	0.69	0.69	2.08	0.35	2.42	0.0	0.0	33.56	1.73	0.0	1.38	0.35	0.35	0.0	 a = ch
0.0	62.5	0.0	0.0	0.0	0.0	0.0	0.0	18.06	0.0	0.0	0.0	1.39	0.0	5.56	2.78	0.0	0.0	0.0	0.0	0.0	2.78	0.0	0.0	4.17	2.78	0.0	 b = rr
0.04	0.04	89.37	0.92	0.34	0.68	0.18	0.21	1.05	0.49	0.11	0.19	0.78	0.16	0.19	0.75	0.7	0.59	0.17	0.24	0.75	0.49	0.14	0.24	0.28	0.79	0.1	 c = 0
0.0	0.0	29.88	32.16	2.74	2.74	1.52	0.61	6.25	1.07	0.0	0.0	0.61	0.3	1.83	3.96	1.83	0.46	0.0	0.3	2.74	0.76	2.13	0.15	3.96	3.96	0.0	 d = hs
0.0	0.0	0.0	0.0	69.88	4.82	0.0	1.81	9.64	2.41	0.0	0.0	1.2	0.0	0.6	4.82	0.6	2.41	0.0	0.0	0.0	0.0	0.0	0.0	1.81	0.0	0.0	 e = hg
0.13	1.2	2.69	1.08	0.66	67.79	0.58	1.0	4.76	3.13	0.74	0.22	0.35	0.13	0.5	4.4	2.39	1.56	0.13	0.09	0.68	2.08	0.45	0.4	1.64	1.22	0.0	 f = a
0.88	0.0	53.01	2.85	0.33	0.33	10.19	0.22	1.75	0.55	0.0	0.66	1.64	0.11	0.99	0.22	0.99	1.31	0.66	0.33	16.1	1.2	1.64	2.96	0.77	0.33	0.0	 g = c
0.0	0.0	0.0	0.0	5.01	6.02	0.0	51.38	5.76	2.51	1.25	0.0	1.5	0.0	5.01	9.02	2.51	1.5	0.0	0.0	0.0	0.75	3.51	0.0	1.75	2.51	0.0	 h = b
0.09	1.0	3.55	2.29	1.69	5.93	0.74	1.64	55.44	2.34	2.36	0.11	2.51	0.0	1.95	7.12	1.23	2.25	0.24	0.5	0.37	1.3	0.82	0.74	2.58	1.23	0.0	 i = e
0.0	1.93	0.57	2.95	1.25	8.4	0.0	2.16	6.36	41.77	1.36	0.0	2.38	0.0	2.95	8.06	2.04	5.9	0.23	0.23	0.11	0.11	1.82	0.23	6.24	2.95	0.0	 j = d
0.0	1.38	4.96	0.0	0.28	8.26	0.0	0.55	12.12	0.83	44.35	0.0	12.4	0.83	1.1	4.68	0.83	1.65	0.0	0.0	3.03	1.1	0.0	0.0	0.0	1.65	0.0	 k = g
0.0	0.0	45.38	2.56	2.05	3.59	0.77	0.26	4.62	0.77	0.0	20.26	0.0	1.28	0.26	1.03	0.0	0.77	0.0	0.0	5.38	1.54	0.51	2.56	1.28	5.13	0.0	 l = f
0.34	0.0	4.32	1.43	1.85	0.55	1.22	2.6	8.52	0.76	1.3	0.08	59.28	0.04	3.57	4.49	0.25	1.6	0.34	0.38	1.26	0.59	0.34	1.13	0.88	2.73	0.17	 m = i
0.0	0.0	16.97	1.21	2.73	5.15	0.3	0.3	7.88	1.21	0.0	0.61	1.52	43.94	1.21	0.3	0.61	0.61	0.0	0.91	10.91	0.61	0.0	0.61	0.0	2.42	0.0	 n = j
0.11	0.0	1.59	3.41	1.25	3.07	0.23	3.86	5.34	1.02	2.27	0.11	3.52	0.0	52.95	8.07	0.45	4.43	0.0	0.23	0.0	1.25	1.82	0.11	2.95	1.93	0.0	 o = m
0.0	0.0	0.37	3.99	1.3	5.38	0.09	2.41	5.75	1.86	0.74	0.0	3.25	0.0	3.06	59.37	1.02	3.43	0.09	0.09	0.83	0.83	0.93	0.37	1.95	2.88	0.0	 p = l
0.11	1.41	10.19	3.38	1.84	10.37	0.81	2.55	5.31	6.79	1.93	0.18	0.54	0.02	1.43	6.03	35.87	1.95	0.02	0.36	0.25	1.05	3.05	0.85	2.82	0.87	0.0	 q = o
0.0	2.17	3.34	4.19	2.4	4.47	0.0	2.07	6.4	2.17	2.21	0.42	1.98	0.09	4.66	9.93	0.19	42.8	0.09	0.28	0.56	1.32	2.4	0.75	1.69	3.25	0.14	 r = n
2.15	0.0	32.97	0.36	0.0	4.3	0.36	0.0	2.51	0.36	0.0	0.36	5.02	0.0	0.0	0.72	0.0	1.43	18.64	1.08	24.01	0.72	0.0	0.72	0.0	4.3	0.0	 s = q
0.3	0.0	45.14	3.74	1.35	2.39	2.84	0.15	3.74	2.24	0.0	0.6	0.15	0.6	1.2	3.14	1.94	2.09	0.15	13.6	3.29	3.14	0.9	2.84	1.49	2.99	0.0	 t = p
0.64	0.13	33.63	1.42	0.47	1.79	0.67	0.24	1.65	0.71	0.57	0.34	2.87	0.4	0.34	1.69	0.91	1.18	0.1	0.27	43.14	2.16	0.34	0.51	0.78	3.07	0.0	 u = s
0.14	0.0	10.2	4.07	1.5	9.99	0.93	2.85	9.42	3.57	3.28	1.0	2.28	0.14	2.43	9.42	1.78	1.85	0.14	0.78	1.57	26.32	1.21	0.64	3.57	0.93	0.0	 v = r
0.14	0.65	1.37	0.58	0.79	3.39	0.72	3.17	4.11	1.23	0.58	0.22	0.29	0.0	2.81	6.06	5.92	2.38	0.07	0.58	0.14	0.65	58.15	1.37	2.16	2.45	0.0	 w = u
0.96	0.44	52.41	2.1	1.31	0.35	4.37	0.09	0.7	0.44	0.17	0.52	0.61	0.61	0.44	0.35	2.45	5.07	0.09	1.22	7.7	2.97	0.44	12.34	0.44	1.4	0.0	 x = t
0.0	3.16	1.27	1.27	1.27	1.48	0.21	2.74	8.23	6.75	1.27	0.21	1.27	0.0	4.01	10.76	3.38	1.27	0.0	0.0	0.42	4.85	0.0	1.27	43.67	1.27	0.0	 y = v
0.0	0.0	6.38	0.0	0.34	0.0	0.34	0.67	0.34	0.67	0.0	0.0	0.0	0.0	1.68	11.41	0.0	1.68	0.67	0.34	12.75	1.68	0.0	0.34	2.35	58.39	0.0	 z = y
0.0	0.0	100.0	0.0	0.0	0.0	0.0	0.0	0.0	0.0	0.0	0.0	0.0	0.0	0.0	0.0	0.0	0.0	0.0	0.0	0.0	0.0	0.0	0.0	0.0	0.0	0.0	 aa = z
