Timestamp:2013-08-30-03:47:49
Inventario:I0
Intervalo:3ms
Ngramas:1
Clasificador:BayesNet
Relation Name:  I0-3ms-1gramas
Num Instances:  61135
Num Attributes: 11

     Name                      Type  Nom  Int Real     Missing      Unique  Dist
   1 0Int(dB)                   Num   0%  10%  90%     0 /  0%     3 /  0%   777 
   2 0Pitch(Hz)                 Num   0%  52%  48%     0 /  0%   559 /  1%  3828 
   3 0RawPitch                  Num   0%  55%  45%     0 /  0%   613 /  1%  3808 
   4 0SmPitch                   Num   0%  53%  47%     0 /  0%   575 /  1%  3802 
   5 0Melogram(st)              Num   0%  49%  51%     0 /  0%   269 /  0%  3285 
   6 0ZCross                    Num   0% 100%   0%     0 /  0%     3 /  0%    50 
   7 0F1(Hz)                    Num   0%  52%  48%     0 /  0%  1075 /  2%  4783 
   8 0F2(Hz)                    Num   0%  52%  48%     0 /  0%  2270 /  4%  6724 
   9 0F3(Hz)                    Num   0%  52%  48%     0 /  0%  1945 /  3%  6241 
  10 0F4(Hz)                    Num   0%  52%  48%     0 /  0%  1922 /  3%  6122 
  11 class                      Nom 100%   0%   0%     0 /  0%     0 /  0%    27 


Options: -D -Q weka.classifiers.bayes.net.search.local.K2 -- -P 1 -S BAYES -E weka.classifiers.bayes.net.estimate.SimpleEstimator -- -A 0.5 

Bayes Network Classifier
not using ADTree
#attributes=11 #classindex=10
Network structure (nodes followed by parents)
0Int(dB)(19): class 
0Pitch(Hz)(31): class 
0RawPitch(19): class 
0SmPitch(25): class 
0Melogram(st)(30): class 
0ZCross(12): class 
0F1(Hz)(421): class 
0F2(Hz)(353): class 
0F3(Hz)(557): class 
0F4(Hz)(520): class 
class(27): 
LogScore Bayes: -1341056.9401681963
LogScore BDeu: -1919393.6491583867
LogScore MDL: -1780203.7665381357
LogScore ENTROPY: -1485919.7914427635
LogScore AIC: -1539324.7914427638




=== Stratified cross-validation ===

Correctly Classified Instances       39357               64.3772 %
Incorrectly Classified Instances     21778               35.6228 %
Kappa statistic                          0.5525
K&B Relative Info Score            3344065.2093 %
K&B Information Score               110391.1294 bits      1.8057 bits/instance
Class complexity | order 0          201729.8929 bits      3.2997 bits/instance
Class complexity | scheme           221328.6774 bits      3.6203 bits/instance
Complexity improvement     (Sf)     -19598.7846 bits     -0.3206 bits/instance
Mean absolute error                      0.0291
Root mean squared error                  0.1398
Relative absolute error                 48.5095 %
Root relative squared error             80.7479 %
Coverage of cases (0.95 level)          81.747  %
Mean rel. region size (0.95 level)      10      %
Total Number of Instances            61135     


=== Detailed Accuracy By Class ===

                 TP Rate  FP Rate  Precision  Recall   F-Measure  MCC      ROC Area  PRC Area  Class
                 0,100    0,001    0,319      0,100    0,153      0,177    0,930     0,162     ch
                 0,361    0,003    0,114      0,361    0,173      0,201    0,990     0,298     rr
                 0,901    0,128    0,816      0,901    0,857      0,761    0,960     0,954     0
                 0,276    0,014    0,181      0,276    0,219      0,213    0,866     0,148     hs
                 0,494    0,002    0,357      0,494    0,414      0,418    0,971     0,422     hg
                 0,733    0,044    0,736      0,733    0,735      0,690    0,944     0,812     a
                 0,069    0,003    0,273      0,069    0,110      0,131    0,888     0,152     c
                 0,308    0,005    0,278      0,308    0,293      0,288    0,958     0,244     b
                 0,600    0,050    0,495      0,600    0,542      0,504    0,909     0,576     e
                 0,305    0,011    0,281      0,305    0,293      0,282    0,910     0,278     d
                 0,325    0,006    0,256      0,325    0,286      0,284    0,920     0,291     g
                 0,156    0,001    0,430      0,156    0,229      0,256    0,917     0,198     f
                 0,594    0,015    0,614      0,594    0,604      0,588    0,940     0,627     i
                 0,309    0,001    0,646      0,309    0,418      0,445    0,941     0,402     j
                 0,386    0,009    0,393      0,386    0,389      0,381    0,942     0,414     m
                 0,467    0,030    0,219      0,467    0,298      0,302    0,927     0,252     l
                 0,421    0,020    0,619      0,421    0,501      0,480    0,871     0,531     o
                 0,391    0,020    0,416      0,391    0,403      0,382    0,920     0,405     n
                 0,143    0,001    0,412      0,143    0,213      0,241    0,912     0,187     q
                 0,096    0,002    0,337      0,096    0,149      0,175    0,889     0,137     p
                 0,389    0,015    0,577      0,389    0,464      0,452    0,926     0,503     s
                 0,228    0,010    0,354      0,228    0,277      0,271    0,856     0,266     r
                 0,545    0,007    0,652      0,545    0,594      0,588    0,952     0,650     u
                 0,091    0,004    0,318      0,091    0,141      0,162    0,876     0,147     t
                 0,361    0,009    0,235      0,361    0,284      0,284    0,930     0,211     v
                 0,507    0,010    0,198      0,507    0,285      0,312    0,932     0,314     y
                 0,000    0,000    0,000      0,000    0,000      -0,000   0,941     0,003     z
Weighted Avg.    0,644    0,065    0,640      0,644    0,633      0,584    0,934     0,688     


=== Confusion Matrix ===

     a     b     c     d     e     f     g     h     i     j     k     l     m     n     o     p     q     r     s     t     u     v     w     x     y     z    aa   <-- classified as
    29     0   100     1     0    13     2     1    10     0     0     0    12     0     1     5     0     4     0     1   101     5     0     3     0     1     0 |     a = ch
     0    26     0     0     0     1     0     0    29     0     0     0     0     0     0     2     0     3     0     0     0     7     0     0     0     4     0 |     b = rr
     9     2 21379   175    24   230    20    18   344    80    24    16   183    25    37   163   240   174    32    38   151   114    25    36    35   143     9 |     c = 0
     0     0   230   181     7    24     0     3    48     8     0     0    16     1    14    17    24     9     0     0     9     9     6     0    24    26     0 |     d = hs
     0     0     0     0    82    12     0     1    29     2     0     0    14     0     1     5     5     9     0     0     0     1     0     0     5     0     0 |     e = hg
     9    54   272    80    16  6427    30    31   471   119    41    12    41     7    34   310   249   138     7     7    49   140    28    21   103    67     0 |     f = a
     4     1   509    15     3     5    63     3    31     3     1     1    10     0     7     5    24     7     4     4   152    16    13    28     3     1     0 |     g = c
     0     0     0     0     4    37     0   123    54    10     4     0    12     0    18    39    29    30     0     0     0     0    23     0     9     7     0 |     h = b
     4    38   175    98    13   366    18    41  2771    78    75     2   157     1    69   260    82   122     3    13    28    38    26    23    73    47     0 |     i = e
     0    14     6    17     7   106     3    11   116   269    10     0    27     0    27    58    41    72     1     2     1     8     8     5    49    23     0 |     j = d
     0     2    22     0     0    49     1     1    54     4   118     0    50     1     0    18     9    14     0     0     6     2     5     4     0     3     0 |     k = g
     1     1   204    12     2    20     0     0    20     1     1    61     0     3     0     1     2     4     0     2    16    10     2     6     4    17     0 |     l = f
     7     0   119    29    13    20    11    32   317    10    18     7  1415     1    61    79    12    78     4    10    33    16    14    21    19    36     0 |     m = i
     0     0    70     8     1    43     3     0    36     2     1     0     2   102     1     2     4     5     0     4    30     8     1     0     1     6     0 |     n = j
     0     0    14    30     3    49     0    20   103     4    23     0    68     0   340    93    18    58     0     0     1     6    27     1    15     7     0 |     o = m
     0     0     6    37     2    81     3    16   142    20     6     1    48     0    25   503    32    69     0     2     8    15    12     0    22    28     0 |     p = l
     3    40   494    94    18   657    10    54   295   179    50     4    18     1    51   204  1880    84     0     7    14    36   119    27    90    34     0 |     q = o
     0    28    88    72     6   169     2    28   257    38    39     9    69     0    85   187    30   830     3     8    11    26    57     7    23    51     1 |     r = n
     6     0   102     0     0    12     1     0    16     2     0     0    16     1     1     3     4     6    40     2    61     3     0     1     0     2     0 |     s = q
     3     0   333    23     3    21    10     0    39    18     0     4     1     5     5    18    38    15     0    64    23    12     6     6     7    15     0 |     t = p
     4     3  1202    39     2    65    14     3    73    20    10     7    81     6     8    32    47    55     2     8  1153    50    13     9    12    47     0 |     u = s
     3     2   167    49     6   211     6    25   169    37    27    15    38     1    17   113    57    49     0     8    13   319    11     5    39    15     0 |     v = r
     1     7    21     9     4    64     6    20    87    21     8     1     2     0    28    90   145    56     0     3     3     6   756    15    16    17     0 |     w = u
     8     3   615    26    11    24    24     4    17     6     1     1    11     3     7    12    44    75     0     7   104    24     1   104     4     7     0 |     x = t
     0     8     6     3     1    26     0     5    61    26     4     0    13     0    21    50    22    14     0     0     2    23     5     5   171     8     0 |     y = v
     0     0    27     0     2     0     4     2     8     0     0     1     2     0     8    31     0    17     1     0    31     6     2     0     5   151     0 |     z = y
     0     0    23     0     0     0     0     0     0     0     0     0     0     0     0     0     0     0     0     0     0     0     0     0     0     0     0 |    aa = z

=== Percent Confusion Matrix ===
a	b	c	d	e	f	g	h	i	j	k	l	m	n	o	p	q	r	s	t	u	v	w	x	y	z	aa	
10.03	0.0	34.6	0.35	0.0	4.5	0.69	0.35	3.46	0.0	0.0	0.0	4.15	0.0	0.35	1.73	0.0	1.38	0.0	0.35	34.95	1.73	0.0	1.04	0.0	0.35	0.0	 a = ch
0.0	36.11	0.0	0.0	0.0	1.39	0.0	0.0	40.28	0.0	0.0	0.0	0.0	0.0	0.0	2.78	0.0	4.17	0.0	0.0	0.0	9.72	0.0	0.0	0.0	5.56	0.0	 b = rr
0.04	0.01	90.11	0.74	0.1	0.97	0.08	0.08	1.45	0.34	0.1	0.07	0.77	0.11	0.16	0.69	1.01	0.73	0.13	0.16	0.64	0.48	0.11	0.15	0.15	0.6	0.04	 c = 0
0.0	0.0	35.06	27.59	1.07	3.66	0.0	0.46	7.32	1.22	0.0	0.0	2.44	0.15	2.13	2.59	3.66	1.37	0.0	0.0	1.37	1.37	0.91	0.0	3.66	3.96	0.0	 d = hs
0.0	0.0	0.0	0.0	49.4	7.23	0.0	0.6	17.47	1.2	0.0	0.0	8.43	0.0	0.6	3.01	3.01	5.42	0.0	0.0	0.0	0.6	0.0	0.0	3.01	0.0	0.0	 e = hg
0.1	0.62	3.1	0.91	0.18	73.34	0.34	0.35	5.37	1.36	0.47	0.14	0.47	0.08	0.39	3.54	2.84	1.57	0.08	0.08	0.56	1.6	0.32	0.24	1.18	0.76	0.0	 f = a
0.44	0.11	55.75	1.64	0.33	0.55	6.9	0.33	3.4	0.33	0.11	0.11	1.1	0.0	0.77	0.55	2.63	0.77	0.44	0.44	16.65	1.75	1.42	3.07	0.33	0.11	0.0	 g = c
0.0	0.0	0.0	0.0	1.0	9.27	0.0	30.83	13.53	2.51	1.0	0.0	3.01	0.0	4.51	9.77	7.27	7.52	0.0	0.0	0.0	0.0	5.76	0.0	2.26	1.75	0.0	 h = b
0.09	0.82	3.79	2.12	0.28	7.92	0.39	0.89	59.97	1.69	1.62	0.04	3.4	0.02	1.49	5.63	1.77	2.64	0.06	0.28	0.61	0.82	0.56	0.5	1.58	1.02	0.0	 i = e
0.0	1.59	0.68	1.93	0.79	12.03	0.34	1.25	13.17	30.53	1.14	0.0	3.06	0.0	3.06	6.58	4.65	8.17	0.11	0.23	0.11	0.91	0.91	0.57	5.56	2.61	0.0	 j = d
0.0	0.55	6.06	0.0	0.0	13.5	0.28	0.28	14.88	1.1	32.51	0.0	13.77	0.28	0.0	4.96	2.48	3.86	0.0	0.0	1.65	0.55	1.38	1.1	0.0	0.83	0.0	 k = g
0.26	0.26	52.31	3.08	0.51	5.13	0.0	0.0	5.13	0.26	0.26	15.64	0.0	0.77	0.0	0.26	0.51	1.03	0.0	0.51	4.1	2.56	0.51	1.54	1.03	4.36	0.0	 l = f
0.29	0.0	5.0	1.22	0.55	0.84	0.46	1.34	13.31	0.42	0.76	0.29	59.4	0.04	2.56	3.32	0.5	3.27	0.17	0.42	1.39	0.67	0.59	0.88	0.8	1.51	0.0	 m = i
0.0	0.0	21.21	2.42	0.3	13.03	0.91	0.0	10.91	0.61	0.3	0.0	0.61	30.91	0.3	0.61	1.21	1.52	0.0	1.21	9.09	2.42	0.3	0.0	0.3	1.82	0.0	 n = j
0.0	0.0	1.59	3.41	0.34	5.57	0.0	2.27	11.7	0.45	2.61	0.0	7.73	0.0	38.64	10.57	2.05	6.59	0.0	0.0	0.11	0.68	3.07	0.11	1.7	0.8	0.0	 o = m
0.0	0.0	0.56	3.43	0.19	7.51	0.28	1.48	13.17	1.86	0.56	0.09	4.45	0.0	2.32	46.66	2.97	6.4	0.0	0.19	0.74	1.39	1.11	0.0	2.04	2.6	0.0	 p = l
0.07	0.9	11.07	2.11	0.4	14.72	0.22	1.21	6.61	4.01	1.12	0.09	0.4	0.02	1.14	4.57	42.12	1.88	0.0	0.16	0.31	0.81	2.67	0.6	2.02	0.76	0.0	 q = o
0.0	1.32	4.14	3.39	0.28	7.96	0.09	1.32	12.1	1.79	1.84	0.42	3.25	0.0	4.0	8.8	1.41	39.08	0.14	0.38	0.52	1.22	2.68	0.33	1.08	2.4	0.05	 r = n
2.15	0.0	36.56	0.0	0.0	4.3	0.36	0.0	5.73	0.72	0.0	0.0	5.73	0.36	0.36	1.08	1.43	2.15	14.34	0.72	21.86	1.08	0.0	0.36	0.0	0.72	0.0	 s = q
0.45	0.0	49.78	3.44	0.45	3.14	1.49	0.0	5.83	2.69	0.0	0.6	0.15	0.75	0.75	2.69	5.68	2.24	0.0	9.57	3.44	1.79	0.9	0.9	1.05	2.24	0.0	 t = p
0.13	0.1	40.54	1.32	0.07	2.19	0.47	0.1	2.46	0.67	0.34	0.24	2.73	0.2	0.27	1.08	1.59	1.85	0.07	0.27	38.89	1.69	0.44	0.3	0.4	1.59	0.0	 u = s
0.21	0.14	11.91	3.5	0.43	15.05	0.43	1.78	12.05	2.64	1.93	1.07	2.71	0.07	1.21	8.06	4.07	3.5	0.0	0.57	0.93	22.75	0.78	0.36	2.78	1.07	0.0	 v = r
0.07	0.51	1.52	0.65	0.29	4.62	0.43	1.44	6.28	1.52	0.58	0.07	0.14	0.0	2.02	6.49	10.46	4.04	0.0	0.22	0.22	0.43	54.55	1.08	1.15	1.23	0.0	 w = u
0.7	0.26	53.81	2.27	0.96	2.1	2.1	0.35	1.49	0.52	0.09	0.09	0.96	0.26	0.61	1.05	3.85	6.56	0.0	0.61	9.1	2.1	0.09	9.1	0.35	0.61	0.0	 x = t
0.0	1.69	1.27	0.63	0.21	5.49	0.0	1.05	12.87	5.49	0.84	0.0	2.74	0.0	4.43	10.55	4.64	2.95	0.0	0.0	0.42	4.85	1.05	1.05	36.08	1.69	0.0	 y = v
0.0	0.0	9.06	0.0	0.67	0.0	1.34	0.67	2.68	0.0	0.0	0.34	0.67	0.0	2.68	10.4	0.0	5.7	0.34	0.0	10.4	2.01	0.67	0.0	1.68	50.67	0.0	 z = y
0.0	0.0	100.0	0.0	0.0	0.0	0.0	0.0	0.0	0.0	0.0	0.0	0.0	0.0	0.0	0.0	0.0	0.0	0.0	0.0	0.0	0.0	0.0	0.0	0.0	0.0	0.0	 aa = z
