Timestamp:2013-07-22-20:36:32
Inventario:I0
Intervalo:3ms
Ngramas:1
Clasificador:RandomForest
Relation Name:  I0-3ms-1gramas
Num Instances:  61135
Num Attributes: 11

     Name                      Type  Nom  Int Real     Missing      Unique  Dist
   1 0Int(dB)                   Num   0%  10%  90%     0 /  0%     3 /  0%   777 
   2 0Pitch(Hz)                 Num   0%  52%  48%     0 /  0%   559 /  1%  3828 
   3 0RawPitch                  Num   0%  55%  45%     0 /  0%   613 /  1%  3808 
   4 0SmPitch                   Num   0%  53%  47%     0 /  0%   575 /  1%  3802 
   5 0Melogram(st)              Num   0%  49%  51%     0 /  0%   269 /  0%  3285 
   6 0ZCross                    Num   0% 100%   0%     0 /  0%     3 /  0%    50 
   7 0F1(Hz)                    Num   0%  52%  48%     0 /  0%  1075 /  2%  4783 
   8 0F2(Hz)                    Num   0%  52%  48%     0 /  0%  2270 /  4%  6724 
   9 0F3(Hz)                    Num   0%  52%  48%     0 /  0%  1945 /  3%  6241 
  10 0F4(Hz)                    Num   0%  52%  48%     0 /  0%  1922 /  3%  6122 
  11 class                      Nom 100%   0%   0%     0 /  0%     0 /  0%    27 


Options: -I 10 -K 0 -S 1 -num-slots 4 

Random forest of 10 trees, each constructed while considering 4 random features.
Out of bag error: 0.1776





=== Stratified cross-validation ===

Correctly Classified Instances       52374               85.6694 %
Incorrectly Classified Instances      8761               14.3306 %
Kappa statistic                          0.8193
K&B Relative Info Score            4802854.6815 %
K&B Information Score               158547.3128 bits      2.5934 bits/instance
Class complexity | order 0          201729.8929 bits      3.2997 bits/instance
Class complexity | scheme          2489563.5554 bits     40.7224 bits/instance
Complexity improvement     (Sf)    -2287833.6625 bits    -37.4226 bits/instance
Mean absolute error                      0.0173
Root mean squared error                  0.09  
Relative absolute error                 28.884  %
Root relative squared error             51.9912 %
Coverage of cases (0.95 level)          95.5394 %
Mean rel. region size (0.95 level)       9.6932 %
Total Number of Instances            61135     


=== Detailed Accuracy By Class ===

                 TP Rate  FP Rate  Precision  Recall   F-Measure  MCC      ROC Area  PRC Area  Class
                 0,294    0,001    0,494      0,294    0,369      0,379    0,786     0,285     ch
                 0,889    0,000    0,889      0,889    0,889      0,889    0,979     0,895     rr
                 0,961    0,097    0,863      0,961    0,909      0,849    0,983     0,974     0
                 0,581    0,001    0,878      0,581    0,699      0,712    0,902     0,640     hs
                 0,837    0,000    0,914      0,837    0,874      0,875    0,982     0,899     hg
                 0,929    0,014    0,915      0,929    0,922      0,909    0,983     0,958     a
                 0,238    0,004    0,464      0,238    0,314      0,325    0,852     0,265     c
                 0,885    0,001    0,917      0,885    0,901      0,900    0,989     0,923     b
                 0,887    0,011    0,873      0,887    0,880      0,870    0,978     0,919     e
                 0,834    0,002    0,879      0,834    0,856      0,854    0,986     0,887     d
                 0,824    0,000    0,929      0,824    0,873      0,874    0,963     0,876     g
                 0,369    0,001    0,643      0,369    0,469      0,485    0,913     0,462     f
                 0,867    0,004    0,891      0,867    0,879      0,874    0,971     0,902     i
                 0,609    0,001    0,852      0,609    0,710      0,719    0,887     0,656     j
                 0,891    0,001    0,918      0,891    0,904      0,903    0,987     0,936     m
                 0,858    0,002    0,895      0,858    0,876      0,874    0,982     0,899     l
                 0,822    0,007    0,907      0,822    0,862      0,853    0,965     0,889     o
                 0,880    0,003    0,910      0,880    0,895      0,891    0,978     0,914     n
                 0,341    0,001    0,629      0,341    0,442      0,461    0,760     0,334     q
                 0,356    0,001    0,783      0,356    0,489      0,525    0,873     0,424     p
                 0,681    0,025    0,585      0,681    0,629      0,611    0,959     0,699     s
                 0,673    0,002    0,877      0,673    0,761      0,764    0,941     0,762     r
                 0,900    0,001    0,938      0,900    0,919      0,917    0,984     0,947     u
                 0,235    0,004    0,504      0,235    0,321      0,336    0,867     0,309     t
                 0,795    0,001    0,915      0,795    0,851      0,852    0,980     0,877     v
                 0,772    0,001    0,858      0,772    0,813      0,813    0,926     0,794     y
                 0,000    0,000    0,000      0,000    0,000      0,000    0,537     0,001     z
Weighted Avg.    0,857    0,043    0,850      0,857    0,848      0,822    0,969     0,888     


=== Confusion Matrix ===

     a     b     c     d     e     f     g     h     i     j     k     l     m     n     o     p     q     r     s     t     u     v     w     x     y     z    aa   <-- classified as
    85     0    56     0     0     5     8     0     4     0     0     0     1     1     0     0     1     1     3     0   119     1     0     2     0     2     0 |     a = ch
     0    64     0     0     0     2     0     0     5     0     0     0     0     0     0     0     0     0     0     0     0     1     0     0     0     0     0 |     b = rr
     6     1 22790    14     2   117    30     4   112    18     6    14    57     5    12    17    73    30     2    12   314    18    14    50     6     2     0 |     c = 0
     0     0   198   381     0    13     1     0    10     1     0     2     1     0     1     1    11     1     0     0    33     0     1     1     0     0     0 |     d = hs
     0     0     4     0   139     5     0     0     9     0     0     0     6     0     0     0     0     1     0     0     1     0     1     0     0     0     0 |     e = hg
     3     2   250     6     3  8137    16     3    35    11     5     5    16     1     6    27    42    32     3    13    69    40     6    26     2     4     0 |     f = a
    13     0   359     0     0    25   217     0    20     0     0     4     7     3     1     1    18     1    16     8   170     6     9    34     0     1     0 |     g = c
     0     0     2     0     0    15     0   353     7     1     0     0     9     1     1     0     3     1     0     0     0     2     4     0     0     0     0 |     h = b
     2     2   203    13     3    49    18     2  4099    16     5     5    23     2    14     9    20    26     4     6    37    18     8    22    11     4     0 |     i = e
     0     0    24     1     0    29     1     1    29   735     0     0     4     0     0     0    30    14     0     0     2     6     1     1     2     1     0 |     j = d
     0     0    22     0     0    16     0     0    13     0   299     0     3     0     0     0     3     2     0     0     4     0     1     0     0     0     0 |     k = g
     0     0    76     2     0     6     4     0     3     0     1   144     4     0     0     0     5     1     1     2   132     1     0     8     0     0     0 |     l = f
     0     0   140     3     1    25     9     1    50     1     1     2  2065     1     5     9    10     4     2     4    24     4     5     9     6     1     0 |     m = i
     3     0    21     2     0    10     5     1     6     0     0     4     2   201     0     0     1     1     1     0    54     1     4    12     0     1     0 |     n = j
     0     0    22     0     0     7     1     2    15     0     0     0    21     0   784     1    11     2     0     0     5     1     5     2     1     0     0 |     o = m
     0     0    22     0     0    49     3     2    21     4     0     0    15     0     2   925    16     5     0     0     1     5     3     3     0     2     0 |     p = l
     2     2   466     3     2    78    11     2    38    22     0     7    10     0    16    20  3668    25     2     0    53     9     7    14     5     1     0 |     q = o
     2     0    94     0     1    46     0     0    47     9     0     1     7     0     1     3    10  1869     0     0    23     2     2     7     0     0     0 |     r = n
     5     0    81     0     0     6    18     0    11     0     0     2     1     2     0     0     2     0    95     3    48     0     1     4     0     0     0 |     s = q
     0     0   250     3     0    21    12     0    14     1     0     4     4     1     2     3     9     1     2   238    88     5     0    11     0     0     0 |     t = p
    47     0   636     1     0    41    57     0    18     0     1    21    14    10     0     2    17     3    17     4  2019     2     2    39     2    12     0 |     u = s
     1     0   147     1     0   111     3     4    68     7     2     3    14     0     2     6    24     6     0     4    43   943     2     9     0     2     0 |     v = r
     1     0    28     1     1     9     4     8    18     2     2     0     7     1     5     5    22     6     0     0     5     2  1248     6     0     5     0 |     w = u
     2     0   486     2     0    51    46     0    21     2     0     5    14     7     2     1    27    17     3    10   171     4     3   269     0     0     0 |     x = t
     0     1    15     1     0    13     1     2    20     4     0     0    11     0     0     1    16     5     0     0     1     3     1     2   377     0     0 |     y = v
     0     0    15     0     0     5     3     0     1     2     0     0     1     0     0     2     4     0     0     0    30     1     3     1     0   230     0 |     z = y
     0     0    13     0     0     0     0     0     0     0     0     1     0     0     0     0     1     0     0     0     6     0     0     2     0     0     0 |    aa = z

=== Percent Confusion Matrix ===
a	b	c	d	e	f	g	h	i	j	k	l	m	n	o	p	q	r	s	t	u	v	w	x	y	z	aa	
29.41	0.0	19.38	0.0	0.0	1.73	2.77	0.0	1.38	0.0	0.0	0.0	0.35	0.35	0.0	0.0	0.35	0.35	1.04	0.0	41.18	0.35	0.0	0.69	0.0	0.69	0.0	 a = ch
0.0	88.89	0.0	0.0	0.0	2.78	0.0	0.0	6.94	0.0	0.0	0.0	0.0	0.0	0.0	0.0	0.0	0.0	0.0	0.0	0.0	1.39	0.0	0.0	0.0	0.0	0.0	 b = rr
0.03	0.0	96.05	0.06	0.01	0.49	0.13	0.02	0.47	0.08	0.03	0.06	0.24	0.02	0.05	0.07	0.31	0.13	0.01	0.05	1.32	0.08	0.06	0.21	0.03	0.01	0.0	 c = 0
0.0	0.0	30.18	58.08	0.0	1.98	0.15	0.0	1.52	0.15	0.0	0.3	0.15	0.0	0.15	0.15	1.68	0.15	0.0	0.0	5.03	0.0	0.15	0.15	0.0	0.0	0.0	 d = hs
0.0	0.0	2.41	0.0	83.73	3.01	0.0	0.0	5.42	0.0	0.0	0.0	3.61	0.0	0.0	0.0	0.0	0.6	0.0	0.0	0.6	0.0	0.6	0.0	0.0	0.0	0.0	 e = hg
0.03	0.02	2.85	0.07	0.03	92.86	0.18	0.03	0.4	0.13	0.06	0.06	0.18	0.01	0.07	0.31	0.48	0.37	0.03	0.15	0.79	0.46	0.07	0.3	0.02	0.05	0.0	 f = a
1.42	0.0	39.32	0.0	0.0	2.74	23.77	0.0	2.19	0.0	0.0	0.44	0.77	0.33	0.11	0.11	1.97	0.11	1.75	0.88	18.62	0.66	0.99	3.72	0.0	0.11	0.0	 g = c
0.0	0.0	0.5	0.0	0.0	3.76	0.0	88.47	1.75	0.25	0.0	0.0	2.26	0.25	0.25	0.0	0.75	0.25	0.0	0.0	0.0	0.5	1.0	0.0	0.0	0.0	0.0	 h = b
0.04	0.04	4.39	0.28	0.06	1.06	0.39	0.04	88.7	0.35	0.11	0.11	0.5	0.04	0.3	0.19	0.43	0.56	0.09	0.13	0.8	0.39	0.17	0.48	0.24	0.09	0.0	 i = e
0.0	0.0	2.72	0.11	0.0	3.29	0.11	0.11	3.29	83.43	0.0	0.0	0.45	0.0	0.0	0.0	3.41	1.59	0.0	0.0	0.23	0.68	0.11	0.11	0.23	0.11	0.0	 j = d
0.0	0.0	6.06	0.0	0.0	4.41	0.0	0.0	3.58	0.0	82.37	0.0	0.83	0.0	0.0	0.0	0.83	0.55	0.0	0.0	1.1	0.0	0.28	0.0	0.0	0.0	0.0	 k = g
0.0	0.0	19.49	0.51	0.0	1.54	1.03	0.0	0.77	0.0	0.26	36.92	1.03	0.0	0.0	0.0	1.28	0.26	0.26	0.51	33.85	0.26	0.0	2.05	0.0	0.0	0.0	 l = f
0.0	0.0	5.88	0.13	0.04	1.05	0.38	0.04	2.1	0.04	0.04	0.08	86.69	0.04	0.21	0.38	0.42	0.17	0.08	0.17	1.01	0.17	0.21	0.38	0.25	0.04	0.0	 m = i
0.91	0.0	6.36	0.61	0.0	3.03	1.52	0.3	1.82	0.0	0.0	1.21	0.61	60.91	0.0	0.0	0.3	0.3	0.3	0.0	16.36	0.3	1.21	3.64	0.0	0.3	0.0	 n = j
0.0	0.0	2.5	0.0	0.0	0.8	0.11	0.23	1.7	0.0	0.0	0.0	2.39	0.0	89.09	0.11	1.25	0.23	0.0	0.0	0.57	0.11	0.57	0.23	0.11	0.0	0.0	 o = m
0.0	0.0	2.04	0.0	0.0	4.55	0.28	0.19	1.95	0.37	0.0	0.0	1.39	0.0	0.19	85.81	1.48	0.46	0.0	0.0	0.09	0.46	0.28	0.28	0.0	0.19	0.0	 p = l
0.04	0.04	10.44	0.07	0.04	1.75	0.25	0.04	0.85	0.49	0.0	0.16	0.22	0.0	0.36	0.45	82.19	0.56	0.04	0.0	1.19	0.2	0.16	0.31	0.11	0.02	0.0	 q = o
0.09	0.0	4.43	0.0	0.05	2.17	0.0	0.0	2.21	0.42	0.0	0.05	0.33	0.0	0.05	0.14	0.47	87.99	0.0	0.0	1.08	0.09	0.09	0.33	0.0	0.0	0.0	 r = n
1.79	0.0	29.03	0.0	0.0	2.15	6.45	0.0	3.94	0.0	0.0	0.72	0.36	0.72	0.0	0.0	0.72	0.0	34.05	1.08	17.2	0.0	0.36	1.43	0.0	0.0	0.0	 s = q
0.0	0.0	37.37	0.45	0.0	3.14	1.79	0.0	2.09	0.15	0.0	0.6	0.6	0.15	0.3	0.45	1.35	0.15	0.3	35.58	13.15	0.75	0.0	1.64	0.0	0.0	0.0	 t = p
1.59	0.0	21.45	0.03	0.0	1.38	1.92	0.0	0.61	0.0	0.03	0.71	0.47	0.34	0.0	0.07	0.57	0.1	0.57	0.13	68.09	0.07	0.07	1.32	0.07	0.4	0.0	 u = s
0.07	0.0	10.49	0.07	0.0	7.92	0.21	0.29	4.85	0.5	0.14	0.21	1.0	0.0	0.14	0.43	1.71	0.43	0.0	0.29	3.07	67.26	0.14	0.64	0.0	0.14	0.0	 v = r
0.07	0.0	2.02	0.07	0.07	0.65	0.29	0.58	1.3	0.14	0.14	0.0	0.51	0.07	0.36	0.36	1.59	0.43	0.0	0.0	0.36	0.14	90.04	0.43	0.0	0.36	0.0	 w = u
0.17	0.0	42.52	0.17	0.0	4.46	4.02	0.0	1.84	0.17	0.0	0.44	1.22	0.61	0.17	0.09	2.36	1.49	0.26	0.87	14.96	0.35	0.26	23.53	0.0	0.0	0.0	 x = t
0.0	0.21	3.16	0.21	0.0	2.74	0.21	0.42	4.22	0.84	0.0	0.0	2.32	0.0	0.0	0.21	3.38	1.05	0.0	0.0	0.21	0.63	0.21	0.42	79.54	0.0	0.0	 y = v
0.0	0.0	5.03	0.0	0.0	1.68	1.01	0.0	0.34	0.67	0.0	0.0	0.34	0.0	0.0	0.67	1.34	0.0	0.0	0.0	10.07	0.34	1.01	0.34	0.0	77.18	0.0	 z = y
0.0	0.0	56.52	0.0	0.0	0.0	0.0	0.0	0.0	0.0	0.0	4.35	0.0	0.0	0.0	0.0	4.35	0.0	0.0	0.0	26.09	0.0	0.0	8.7	0.0	0.0	0.0	 aa = z
