Timestamp:2013-08-30-03:49:20
Inventario:I0
Intervalo:3ms
Ngramas:4
Clasificador:BayesNet
Relation Name:  I0-3ms-4gramas
Num Instances:  61132
Num Attributes: 41

     Name                      Type  Nom  Int Real     Missing      Unique  Dist
   1 0Int(dB)                   Num   0%  10%  90%     0 /  0%     2 /  0%   776 
   2 0Pitch(Hz)                 Num   0%  52%  48%     0 /  0%   559 /  1%  3828 
   3 0RawPitch                  Num   0%  55%  45%     0 /  0%   613 /  1%  3808 
   4 0SmPitch                   Num   0%  53%  47%     0 /  0%   575 /  1%  3802 
   5 0Melogram(st)              Num   0%  49%  51%     0 /  0%   269 /  0%  3285 
   6 0ZCross                    Num   0% 100%   0%     0 /  0%     3 /  0%    50 
   7 0F1(Hz)                    Num   0%  52%  48%     0 /  0%  1075 /  2%  4783 
   8 0F2(Hz)                    Num   0%  52%  48%     0 /  0%  2270 /  4%  6724 
   9 0F3(Hz)                    Num   0%  52%  48%     0 /  0%  1945 /  3%  6241 
  10 0F4(Hz)                    Num   0%  52%  48%     0 /  0%  1922 /  3%  6122 
  11 1Int(dB)                   Num   0%  10%  90%     0 /  0%     2 /  0%   776 
  12 1Pitch(Hz)                 Num   0%  52%  48%     0 /  0%   559 /  1%  3828 
  13 1RawPitch                  Num   0%  55%  45%     0 /  0%   613 /  1%  3808 
  14 1SmPitch                   Num   0%  53%  47%     0 /  0%   575 /  1%  3802 
  15 1Melogram(st)              Num   0%  49%  51%     0 /  0%   269 /  0%  3285 
  16 1ZCross                    Num   0% 100%   0%     0 /  0%     3 /  0%    50 
  17 1F1(Hz)                    Num   0%  52%  48%     0 /  0%  1075 /  2%  4783 
  18 1F2(Hz)                    Num   0%  52%  48%     0 /  0%  2270 /  4%  6724 
  19 1F3(Hz)                    Num   0%  52%  48%     0 /  0%  1945 /  3%  6241 
  20 1F4(Hz)                    Num   0%  52%  48%     0 /  0%  1922 /  3%  6122 
  21 2Int(dB)                   Num   0%  10%  90%     0 /  0%     2 /  0%   776 
  22 2Pitch(Hz)                 Num   0%  52%  48%     0 /  0%   559 /  1%  3828 
  23 2RawPitch                  Num   0%  55%  45%     0 /  0%   613 /  1%  3808 
  24 2SmPitch                   Num   0%  53%  47%     0 /  0%   575 /  1%  3802 
  25 2Melogram(st)              Num   0%  49%  51%     0 /  0%   269 /  0%  3285 
  26 2ZCross                    Num   0% 100%   0%     0 /  0%     3 /  0%    50 
  27 2F1(Hz)                    Num   0%  52%  48%     0 /  0%  1075 /  2%  4783 
  28 2F2(Hz)                    Num   0%  52%  48%     0 /  0%  2270 /  4%  6724 
  29 2F3(Hz)                    Num   0%  52%  48%     0 /  0%  1945 /  3%  6241 
  30 2F4(Hz)                    Num   0%  52%  48%     0 /  0%  1922 /  3%  6122 
  31 3Int(dB)                   Num   0%  10%  90%     0 /  0%     3 /  0%   777 
  32 3Pitch(Hz)                 Num   0%  52%  48%     0 /  0%   559 /  1%  3828 
  33 3RawPitch                  Num   0%  55%  45%     0 /  0%   613 /  1%  3808 
  34 3SmPitch                   Num   0%  53%  47%     0 /  0%   575 /  1%  3802 
  35 3Melogram(st)              Num   0%  49%  51%     0 /  0%   269 /  0%  3285 
  36 3ZCross                    Num   0% 100%   0%     0 /  0%     3 /  0%    50 
  37 3F1(Hz)                    Num   0%  52%  48%     0 /  0%  1075 /  2%  4783 
  38 3F2(Hz)                    Num   0%  52%  48%     0 /  0%  2270 /  4%  6724 
  39 3F3(Hz)                    Num   0%  52%  48%     0 /  0%  1945 /  3%  6241 
  40 3F4(Hz)                    Num   0%  52%  48%     0 /  0%  1922 /  3%  6122 
  41 class                      Nom 100%   0%   0%     0 /  0%     0 /  0%    27 


Options: -D -Q weka.classifiers.bayes.net.search.local.K2 -- -P 1 -S BAYES -E weka.classifiers.bayes.net.estimate.SimpleEstimator -- -A 0.5 

Bayes Network Classifier
not using ADTree
#attributes=41 #classindex=40
Network structure (nodes followed by parents)
0Int(dB)(19): class 
0Pitch(Hz)(26): class 
0RawPitch(17): class 
0SmPitch(25): class 
0Melogram(st)(33): class 
0ZCross(13): class 
0F1(Hz)(455): class 
0F2(Hz)(539): class 
0F3(Hz)(678): class 
0F4(Hz)(476): class 
1Int(dB)(21): class 
1Pitch(Hz)(27): class 
1RawPitch(16): class 
1SmPitch(24): class 
1Melogram(st)(33): class 
1ZCross(13): class 
1F1(Hz)(501): class 
1F2(Hz)(490): class 
1F3(Hz)(654): class 
1F4(Hz)(498): class 
2Int(dB)(21): class 
2Pitch(Hz)(26): class 
2RawPitch(17): class 
2SmPitch(24): class 
2Melogram(st)(36): class 
2ZCross(13): class 
2F1(Hz)(500): class 
2F2(Hz)(489): class 
2F3(Hz)(708): class 
2F4(Hz)(459): class 
3Int(dB)(19): class 
3Pitch(Hz)(31): class 
3RawPitch(19): class 
3SmPitch(25): class 
3Melogram(st)(30): class 
3ZCross(12): class 
3F1(Hz)(421): class 
3F2(Hz)(353): class 
3F3(Hz)(557): class 
3F4(Hz)(520): class 
class(27): 
LogScore Bayes: -5019566.009706314
LogScore BDeu: -7637936.077322235
LogScore MDL: -6993136.252272132
LogScore ENTROPY: -5684020.603472339
LogScore AIC: -5921592.603472336




=== Stratified cross-validation ===

Correctly Classified Instances       39301               64.2888 %
Incorrectly Classified Instances     21831               35.7112 %
Kappa statistic                          0.5577
K&B Relative Info Score            3301452.6066 %
K&B Information Score               108986.3449 bits      1.7828 bits/instance
Class complexity | order 0          201725.7961 bits      3.2998 bits/instance
Class complexity | scheme           745425.9533 bits     12.1937 bits/instance
Complexity improvement     (Sf)    -543700.1572 bits     -8.8939 bits/instance
Mean absolute error                      0.0267
Root mean squared error                  0.1535
Relative absolute error                 44.5715 %
Root relative squared error             88.6084 %
Coverage of cases (0.95 level)          69.6984 %
Mean rel. region size (0.95 level)       4.8906 %
Total Number of Instances            61132     


=== Detailed Accuracy By Class ===

                 TP Rate  FP Rate  Precision  Recall   F-Measure  MCC      ROC Area  PRC Area  Class
                 0,180    0,002    0,351      0,180    0,238      0,249    0,950     0,226     ch
                 0,611    0,006    0,111      0,611    0,188      0,259    0,994     0,329     rr
                 0,891    0,109    0,838      0,891    0,864      0,774    0,959     0,953     0
                 0,316    0,017    0,168      0,316    0,219      0,219    0,885     0,168     hs
                 0,741    0,010    0,170      0,741    0,276      0,351    0,982     0,582     hg
                 0,666    0,028    0,801      0,666    0,727      0,690    0,942     0,815     a
                 0,141    0,008    0,214      0,141    0,170      0,164    0,899     0,166     c
                 0,559    0,010    0,260      0,559    0,355      0,376    0,974     0,317     b
                 0,542    0,032    0,579      0,542    0,560      0,526    0,906     0,575     e
                 0,444    0,019    0,259      0,444    0,327      0,327    0,925     0,333     d
                 0,457    0,008    0,249      0,457    0,322      0,332    0,933     0,324     g
                 0,210    0,002    0,364      0,210    0,267      0,273    0,938     0,249     f
                 0,590    0,012    0,675      0,590    0,629      0,617    0,939     0,642     i
                 0,482    0,002    0,619      0,482    0,542      0,544    0,949     0,512     j
                 0,573    0,010    0,446      0,573    0,501      0,497    0,949     0,519     m
                 0,600    0,038    0,222      0,600    0,324      0,347    0,935     0,313     l
                 0,352    0,012    0,701      0,352    0,468      0,471    0,876     0,545     o
                 0,419    0,014    0,517      0,419    0,463      0,449    0,926     0,459     n
                 0,208    0,002    0,384      0,208    0,270      0,280    0,927     0,223     q
                 0,157    0,003    0,350      0,157    0,217      0,229    0,894     0,183     p
                 0,440    0,014    0,610      0,440    0,512      0,498    0,921     0,535     s
                 0,273    0,012    0,358      0,273    0,310      0,299    0,866     0,283     r
                 0,595    0,007    0,660      0,595    0,625      0,618    0,948     0,676     u
                 0,141    0,006    0,297      0,141    0,191      0,194    0,896     0,181     t
                 0,460    0,013    0,214      0,460    0,292      0,306    0,933     0,290     v
                 0,611    0,015    0,167      0,611    0,262      0,313    0,940     0,408     y
                 0,000    0,001    0,000      0,000    0,000      -0,000   0,957     0,004     z
Weighted Avg.    0,643    0,054    0,676      0,643    0,647      0,604    0,935     0,703     


=== Confusion Matrix ===

     a     b     c     d     e     f     g     h     i     j     k     l     m     n     o     p     q     r     s     t     u     v     w     x     y     z    aa   <-- classified as
    52     0    78     2     2    11     7     0     3     0     0     1     9     0     1     6     2     7     0     1    98     4     0     5     0     0     0 |     a = ch
     0    44     0     0     1     0     0     0    11     0     0     0     1     0     0     3     0     0     0     0     0     2     0     0     6     4     0 |     b = rr
    12    14 21128   214    84   151    63    44   240   113    24    48   177    43    54   221   164   125    45    64   178   126    31    68    62   207    23 |     c = 0
     0     0   184   207    25    18    15     3    44    12     0     1     3     2    14    27     6     7     0     5    16     4    12     2    23    26     0 |     d = hs
     0     0     0     0   123     7     0     2    13     3     0     0     4     0     1     8     0     2     0     0     0     0     0     0     3     0     0 |     e = hg
    14   109   225   101    60  5838    67    90   386   311    71    19    39    11    41   420   214   122    12     9    57   209    44    43   147   103     1 |     f = a
     5     0   476    28     3     3   129     0    19     3     0     3    15     3     1     2    10    12     1     6   131    10    13    28     7     5     0 |     g = c
     0     0     0     0    17    19     0   223    26     8     7     0     7     0    16    34     5     3     0     0     0     4     9     0     8    13     0 |     h = b
     4    45   156   106    96   263    44    71  2506   103   131     6   110     3    85   359    63   112     9    25    21    55    38    34   113    63     0 |     i = e
     0    17     3    26     9    61     0    17    46   391    13     0    15     0    31    72    21    54     3     2     0     2    16     3    50    29     0 |     j = d
     0     4    18     0     7    26     1     6    42     4   166     0    37     3     8    16     4     0     1     1     7     3     1     2     0     6     0 |     k = g
     0     0   166     8     6    15     7     2    15     4     0    82     0     3     1     2     1     4     0     0    25     7     3    11     5    23     0 |     l = f
     8     0   100    34    47    14    35    63   190    12    37     2  1405     1    78   120     5    37     5     9    29    12     3    36    27    70     3 |     m = i
     0     0    49     7     8     9     2     0    22     4     1     1     5   159     4     1     3     0     0     2    42     2     0     1     1     7     0 |     n = j
     1     0    14    29    11    27     2    35    42    14    11     0    27     0   504    64     3    29     0     3     0    13    13     2    18    18     0 |     o = m
     0     0     3    43    12    57     3    21    48    27    12     0    32     0    23   647    11    52     0     2     9    11     7     4    26    28     0 |     p = l
     5    76   448   170    78   455    42   109   228   301    78     7    24     1    62   286  1569    89     4    15    14    47   137    33   133    51     1 |     q = o
     1    49    63    91    56    70     2    53   143    53    42     7    40     2    95   231     7   891     0     7    11    22    58    17    38    69     6 |     r = n
     4     0    92     1     0    12    11     0     6     0     0     1    13     0     0     2     0     7    58     2    57     0     0     1     0    12     0 |     s = q
     1     0   288    23     8    14    26     0    21    15     0    12     2     3     5    22    10    13     1   105    14    18     5    27    14    22     0 |     t = p
    32     7   930    54    11    43    27     8    51    27    19    11    75    15    13    60    21    35     6     7  1306    53    15    19    25    95     0 |     u = s
     2     1   137    50    15   122    18    45   131    59    45    15    26     2    27   153    16    23     1    15    15   383    16    17    53    15     0 |     v = r
     1    11    20    10    11    45    15    47    52    15     4     2     3     0    35    91    62    35     0     7     1    14   824    22    29    30     0 |     w = u
     6     3   583    21    17     3    81     2     5     6     2     6    10     6     6     1    27    54     2    13    68    41     3   161     6    10     0 |     x = t
     0    16     6     7    13     6     3    13    40    25     5     1     4     0    21    37    14     5     0     0     2    26     1     6   218     5     0 |     y = v
     0     0    17     0     5     0     2     3     0     0     0     0     0     0     4    29     0     4     3     0    40     3     0     0     6   182     0 |     z = y
     0     0    23     0     0     0     0     0     0     0     0     0     0     0     0     0     0     0     0     0     0     0     0     0     0     0     0 |    aa = z

=== Percent Confusion Matrix ===
a	b	c	d	e	f	g	h	i	j	k	l	m	n	o	p	q	r	s	t	u	v	w	x	y	z	aa	
17.99	0.0	26.99	0.69	0.69	3.81	2.42	0.0	1.04	0.0	0.0	0.35	3.11	0.0	0.35	2.08	0.69	2.42	0.0	0.35	33.91	1.38	0.0	1.73	0.0	0.0	0.0	 a = ch
0.0	61.11	0.0	0.0	1.39	0.0	0.0	0.0	15.28	0.0	0.0	0.0	1.39	0.0	0.0	4.17	0.0	0.0	0.0	0.0	0.0	2.78	0.0	0.0	8.33	5.56	0.0	 b = rr
0.05	0.06	89.06	0.9	0.35	0.64	0.27	0.19	1.01	0.48	0.1	0.2	0.75	0.18	0.23	0.93	0.69	0.53	0.19	0.27	0.75	0.53	0.13	0.29	0.26	0.87	0.1	 c = 0
0.0	0.0	28.05	31.55	3.81	2.74	2.29	0.46	6.71	1.83	0.0	0.15	0.46	0.3	2.13	4.12	0.91	1.07	0.0	0.76	2.44	0.61	1.83	0.3	3.51	3.96	0.0	 d = hs
0.0	0.0	0.0	0.0	74.1	4.22	0.0	1.2	7.83	1.81	0.0	0.0	2.41	0.0	0.6	4.82	0.0	1.2	0.0	0.0	0.0	0.0	0.0	0.0	1.81	0.0	0.0	 e = hg
0.16	1.24	2.57	1.15	0.68	66.62	0.76	1.03	4.4	3.55	0.81	0.22	0.45	0.13	0.47	4.79	2.44	1.39	0.14	0.1	0.65	2.39	0.5	0.49	1.68	1.18	0.01	 f = a
0.55	0.0	52.14	3.07	0.33	0.33	14.13	0.0	2.08	0.33	0.0	0.33	1.64	0.33	0.11	0.22	1.1	1.31	0.11	0.66	14.35	1.1	1.42	3.07	0.77	0.55	0.0	 g = c
0.0	0.0	0.0	0.0	4.26	4.76	0.0	55.89	6.52	2.01	1.75	0.0	1.75	0.0	4.01	8.52	1.25	0.75	0.0	0.0	0.0	1.0	2.26	0.0	2.01	3.26	0.0	 h = b
0.09	0.97	3.38	2.29	2.08	5.69	0.95	1.54	54.23	2.23	2.83	0.13	2.38	0.06	1.84	7.77	1.36	2.42	0.19	0.54	0.45	1.19	0.82	0.74	2.45	1.36	0.0	 i = e
0.0	1.93	0.34	2.95	1.02	6.92	0.0	1.93	5.22	44.38	1.48	0.0	1.7	0.0	3.52	8.17	2.38	6.13	0.34	0.23	0.0	0.23	1.82	0.34	5.68	3.29	0.0	 j = d
0.0	1.1	4.96	0.0	1.93	7.16	0.28	1.65	11.57	1.1	45.73	0.0	10.19	0.83	2.2	4.41	1.1	0.0	0.28	0.28	1.93	0.83	0.28	0.55	0.0	1.65	0.0	 k = g
0.0	0.0	42.56	2.05	1.54	3.85	1.79	0.51	3.85	1.03	0.0	21.03	0.0	0.77	0.26	0.51	0.26	1.03	0.0	0.0	6.41	1.79	0.77	2.82	1.28	5.9	0.0	 l = f
0.34	0.0	4.2	1.43	1.97	0.59	1.47	2.64	7.98	0.5	1.55	0.08	58.98	0.04	3.27	5.04	0.21	1.55	0.21	0.38	1.22	0.5	0.13	1.51	1.13	2.94	0.13	 m = i
0.0	0.0	14.85	2.12	2.42	2.73	0.61	0.0	6.67	1.21	0.3	0.3	1.52	48.18	1.21	0.3	0.91	0.0	0.0	0.61	12.73	0.61	0.0	0.3	0.3	2.12	0.0	 n = j
0.11	0.0	1.59	3.3	1.25	3.07	0.23	3.98	4.77	1.59	1.25	0.0	3.07	0.0	57.27	7.27	0.34	3.3	0.0	0.34	0.0	1.48	1.48	0.23	2.05	2.05	0.0	 o = m
0.0	0.0	0.28	3.99	1.11	5.29	0.28	1.95	4.45	2.5	1.11	0.0	2.97	0.0	2.13	60.02	1.02	4.82	0.0	0.19	0.83	1.02	0.65	0.37	2.41	2.6	0.0	 p = l
0.11	1.7	10.04	3.81	1.75	10.19	0.94	2.44	5.11	6.74	1.75	0.16	0.54	0.02	1.39	6.41	35.16	1.99	0.09	0.34	0.31	1.05	3.07	0.74	2.98	1.14	0.02	 q = o
0.05	2.31	2.97	4.28	2.64	3.3	0.09	2.5	6.73	2.5	1.98	0.33	1.88	0.09	4.47	10.88	0.33	41.95	0.0	0.33	0.52	1.04	2.73	0.8	1.79	3.25	0.28	 r = n
1.43	0.0	32.97	0.36	0.0	4.3	3.94	0.0	2.15	0.0	0.0	0.36	4.66	0.0	0.0	0.72	0.0	2.51	20.79	0.72	20.43	0.0	0.0	0.36	0.0	4.3	0.0	 s = q
0.15	0.0	43.05	3.44	1.2	2.09	3.89	0.0	3.14	2.24	0.0	1.79	0.3	0.45	0.75	3.29	1.49	1.94	0.15	15.7	2.09	2.69	0.75	4.04	2.09	3.29	0.0	 t = p
1.08	0.24	31.37	1.82	0.37	1.45	0.91	0.27	1.72	0.91	0.64	0.37	2.53	0.51	0.44	2.02	0.71	1.18	0.2	0.24	44.05	1.79	0.51	0.64	0.84	3.2	0.0	 u = s
0.14	0.07	9.77	3.57	1.07	8.7	1.28	3.21	9.34	4.21	3.21	1.07	1.85	0.14	1.93	10.91	1.14	1.64	0.07	1.07	1.07	27.32	1.14	1.21	3.78	1.07	0.0	 v = r
0.07	0.79	1.44	0.72	0.79	3.25	1.08	3.39	3.75	1.08	0.29	0.14	0.22	0.0	2.53	6.57	4.47	2.53	0.0	0.51	0.07	1.01	59.45	1.59	2.09	2.16	0.0	 w = u
0.52	0.26	51.01	1.84	1.49	0.26	7.09	0.17	0.44	0.52	0.17	0.52	0.87	0.52	0.52	0.09	2.36	4.72	0.17	1.14	5.95	3.59	0.26	14.09	0.52	0.87	0.0	 x = t
0.0	3.38	1.27	1.48	2.74	1.27	0.63	2.74	8.44	5.27	1.05	0.21	0.84	0.0	4.43	7.81	2.95	1.05	0.0	0.0	0.42	5.49	0.21	1.27	45.99	1.05	0.0	 y = v
0.0	0.0	5.7	0.0	1.68	0.0	0.67	1.01	0.0	0.0	0.0	0.0	0.0	0.0	1.34	9.73	0.0	1.34	1.01	0.0	13.42	1.01	0.0	0.0	2.01	61.07	0.0	 z = y
0.0	0.0	100.0	0.0	0.0	0.0	0.0	0.0	0.0	0.0	0.0	0.0	0.0	0.0	0.0	0.0	0.0	0.0	0.0	0.0	0.0	0.0	0.0	0.0	0.0	0.0	0.0	 aa = z
