Timestamp:2013-07-22-20:37:24
Inventario:I0
Intervalo:3ms
Ngramas:2
Clasificador:RandomForest
Relation Name:  I0-3ms-2gramas
Num Instances:  61134
Num Attributes: 21

     Name                      Type  Nom  Int Real     Missing      Unique  Dist
   1 0Int(dB)                   Num   0%  10%  90%     0 /  0%     2 /  0%   776 
   2 0Pitch(Hz)                 Num   0%  52%  48%     0 /  0%   559 /  1%  3828 
   3 0RawPitch                  Num   0%  55%  45%     0 /  0%   613 /  1%  3808 
   4 0SmPitch                   Num   0%  53%  47%     0 /  0%   575 /  1%  3802 
   5 0Melogram(st)              Num   0%  49%  51%     0 /  0%   269 /  0%  3285 
   6 0ZCross                    Num   0% 100%   0%     0 /  0%     3 /  0%    50 
   7 0F1(Hz)                    Num   0%  52%  48%     0 /  0%  1075 /  2%  4783 
   8 0F2(Hz)                    Num   0%  52%  48%     0 /  0%  2270 /  4%  6724 
   9 0F3(Hz)                    Num   0%  52%  48%     0 /  0%  1945 /  3%  6241 
  10 0F4(Hz)                    Num   0%  52%  48%     0 /  0%  1922 /  3%  6122 
  11 1Int(dB)                   Num   0%  10%  90%     0 /  0%     3 /  0%   777 
  12 1Pitch(Hz)                 Num   0%  52%  48%     0 /  0%   559 /  1%  3828 
  13 1RawPitch                  Num   0%  55%  45%     0 /  0%   613 /  1%  3808 
  14 1SmPitch                   Num   0%  53%  47%     0 /  0%   575 /  1%  3802 
  15 1Melogram(st)              Num   0%  49%  51%     0 /  0%   269 /  0%  3285 
  16 1ZCross                    Num   0% 100%   0%     0 /  0%     3 /  0%    50 
  17 1F1(Hz)                    Num   0%  52%  48%     0 /  0%  1075 /  2%  4783 
  18 1F2(Hz)                    Num   0%  52%  48%     0 /  0%  2270 /  4%  6724 
  19 1F3(Hz)                    Num   0%  52%  48%     0 /  0%  1945 /  3%  6241 
  20 1F4(Hz)                    Num   0%  52%  48%     0 /  0%  1922 /  3%  6122 
  21 class                      Nom 100%   0%   0%     0 /  0%     0 /  0%    27 


Options: -I 10 -K 0 -S 1 -num-slots 4 

Random forest of 10 trees, each constructed while considering 5 random features.
Out of bag error: 0.1922





=== Stratified cross-validation ===

Correctly Classified Instances       51705               84.5765 %
Incorrectly Classified Instances      9429               15.4235 %
Kappa statistic                          0.808 
K&B Relative Info Score            4763370.0768 %
K&B Information Score               157247.8094 bits      2.5722 bits/instance
Class complexity | order 0          201728.5273 bits      3.2998 bits/instance
Class complexity | scheme          4337798.5353 bits     70.9556 bits/instance
Complexity improvement     (Sf)    -4136070.0079 bits    -67.6558 bits/instance
Mean absolute error                      0.0175
Root mean squared error                  0.0945
Relative absolute error                 29.2004 %
Root relative squared error             54.5378 %
Coverage of cases (0.95 level)          93.2852 %
Mean rel. region size (0.95 level)       7.9571 %
Total Number of Instances            61134     


=== Detailed Accuracy By Class ===

                 TP Rate  FP Rate  Precision  Recall   F-Measure  MCC      ROC Area  PRC Area  Class
                 0,336    0,002    0,416      0,336    0,372      0,371    0,770     0,277     ch
                 0,806    0,000    0,879      0,806    0,841      0,841    0,986     0,890     rr
                 0,928    0,071    0,892      0,928    0,910      0,851    0,974     0,951     0
                 0,591    0,003    0,648      0,591    0,618      0,615    0,850     0,567     hs
                 0,849    0,000    0,934      0,849    0,890      0,890    0,988     0,922     hg
                 0,932    0,018    0,897      0,932    0,914      0,900    0,980     0,954     a
                 0,280    0,009    0,314      0,280    0,296      0,287    0,771     0,189     c
                 0,887    0,000    0,922      0,887    0,904      0,904    0,992     0,929     b
                 0,889    0,013    0,852      0,889    0,870      0,859    0,972     0,915     e
                 0,850    0,001    0,894      0,850    0,871      0,870    0,988     0,908     d
                 0,818    0,001    0,881      0,818    0,849      0,848    0,961     0,870     g
                 0,400    0,003    0,467      0,400    0,431      0,429    0,803     0,303     f
                 0,864    0,006    0,848      0,864    0,856      0,850    0,967     0,896     i
                 0,594    0,001    0,698      0,594    0,642      0,642    0,871     0,597     j
                 0,901    0,001    0,924      0,901    0,913      0,911    0,983     0,940     m
                 0,857    0,002    0,894      0,857    0,875      0,873    0,983     0,903     l
                 0,827    0,011    0,855      0,827    0,841      0,828    0,947     0,864     o
                 0,879    0,004    0,898      0,879    0,888      0,884    0,977     0,913     n
                 0,333    0,001    0,522      0,333    0,407      0,415    0,774     0,307     q
                 0,336    0,005    0,421      0,336    0,374      0,370    0,771     0,271     p
                 0,665    0,018    0,657      0,665    0,661      0,644    0,912     0,647     s
                 0,675    0,004    0,801      0,675    0,733      0,730    0,931     0,731     r
                 0,903    0,001    0,940      0,903    0,921      0,919    0,985     0,946     u
                 0,264    0,010    0,344      0,264    0,299      0,290    0,779     0,203     t
                 0,789    0,000    0,928      0,789    0,853      0,855    0,983     0,887     v
                 0,738    0,000    0,887      0,738    0,806      0,808    0,935     0,796     y
                 0,000    0,000    0,000      0,000    0,000      -0,000   0,499     0,000     z
Weighted Avg.    0,846    0,034    0,840      0,846    0,842      0,814    0,955     0,866     


=== Confusion Matrix ===

     a     b     c     d     e     f     g     h     i     j     k     l     m     n     o     p     q     r     s     t     u     v     w     x     y     z    aa   <-- classified as
    97     0    42     3     0     5    16     0     3     0     0     0     1     4     0     0     5     0     4     4    89     1     0    14     0     1     0 |     a = ch
     0    58     2     0     0     4     0     0     7     1     0     0     0     0     0     0     0     0     0     0     0     0     0     0     0     0     0 |     b = rr
    24     1 22021    84     2   172   146     2   160    12    13    26    83    12     7    23   198    51    18   104   280    59    14   202     3     3     5 |     c = 0
     1     0   139   388     0    16    10     0    12     0     1     4     5     0     0     1    20     4     0    10    33     3     2     7     0     0     0 |     d = hs
     0     0     2     0   141     8     0     0     9     0     0     0     4     0     0     0     0     1     0     0     0     0     1     0     0     0     0 |     e = hg
     5     3   205    16     1  8170    38     4    45    12     4     7    15     4     8    22    51    19     4    16    42    35     2    30     3     2     0 |     f = a
    19     0   275    10     1    35   256     0    31     1     1    11    13     9     0     0    36     3    23    22    96     4     4    59     2     1     1 |     g = c
     0     0     4     0     0    15     0   354     6     0     0     0    11     0     0     0     1     1     0     0     0     4     3     0     0     0     0 |     h = b
     1     2   133     8     3    74    32     1  4106    14     4     8    38     2     7    10    28    26     2    15    31    25     8    33     8     1     1 |     i = e
     0     0    18     1     0    23     2     2    23   749     0     0     4     0     0     1    32    16     0     0     1     5     1     1     1     1     0 |     j = d
     0     0    19     0     0    15     1     1    15     0   297     1     3     0     0     0     3     1     0     0     3     2     1     1     0     0     0 |     k = g
     2     0    42     8     0    10    12     0     5     0     1   156     5    13     1     0    13     2     3     7    79    11     1    14     0     3     2 |     l = f
     0     0   114     2     1    23    15     5    64     2     2     6  2057     0     5     9    11     6     2     9    24     4     0    15     6     0     0 |     m = i
     2     0    23     2     0    11    12     1     7     0     1    10     3   196     0     0     2     1     2     2    40     4     2     9     0     0     0 |     n = j
     1     0    18     0     0     7     1     3    10     1     0     1    18     0   793     0    14     1     0     2     1     0     5     3     1     0     0 |     o = m
     1     0    28     1     0    48     2     1    28     4     0     0    14     0     2   924    13     4     0     1     1     2     2     2     0     0     0 |     p = l
     5     2   357    14     1    97    21     4    47    21     2     7    15     0    16    14  3690    19     5    18    48    15    11    28     3     2     1 |     q = o
     0     0    54     4     1    44     4     0    41    10     2     3    12     3     3     4    23  1867     1     5    17     6     5    14     0     0     1 |     r = n
    13     0    64     0     0    10    31     0    12     0     0     2     3     1     0     0     4     2    93     0    33     1     1     8     0     1     0 |     s = q
     3     0   179    10     0    38    30     0    32     2     0     7     7     2     2     3    20     3     1   225    44    20     1    38     0     0     2 |     t = p
    43     0   419    28     0    65    76     0    30     1     4    53    35    23     1     4    47    14    13    41  1973    14     1    69     0     6     5 |     u = s
     4     0   111     2     0   125    11     3    57     3     2    12    19     2     2     7    30     7     0    14    24   947     3    15     1     1     0 |     v = r
     0     0    28     1     0    17     6     2    16     1     1     0     9     1     7     6    19     6     1     0     0     3  1251     9     0     2     0 |     w = u
    11     0   355    15     0    55    86     0    29     2     2    14    33     9     2     1    39    20     5    36   105     9     7   302     1     3     2 |     x = t
     0     0     9     1     0    14     4     0    24     2     0     0    15     0     2     2    13     5     1     2     1     2     0     2   374     1     0 |     y = v
     1     0    10     1     0     7     2     1     3     0     0     4     3     0     0     2     3     0     0     1    31     4     5     0     0   220     0 |     z = y
     0     0     6     0     0     0     0     0     0     0     0     2     0     0     0     0     1     1     0     1     7     2     0     3     0     0     0 |    aa = z

=== Percent Confusion Matrix ===
a	b	c	d	e	f	g	h	i	j	k	l	m	n	o	p	q	r	s	t	u	v	w	x	y	z	aa	
33.56	0.0	14.53	1.04	0.0	1.73	5.54	0.0	1.04	0.0	0.0	0.0	0.35	1.38	0.0	0.0	1.73	0.0	1.38	1.38	30.8	0.35	0.0	4.84	0.0	0.35	0.0	 a = ch
0.0	80.56	2.78	0.0	0.0	5.56	0.0	0.0	9.72	1.39	0.0	0.0	0.0	0.0	0.0	0.0	0.0	0.0	0.0	0.0	0.0	0.0	0.0	0.0	0.0	0.0	0.0	 b = rr
0.1	0.0	92.82	0.35	0.01	0.72	0.62	0.01	0.67	0.05	0.05	0.11	0.35	0.05	0.03	0.1	0.83	0.21	0.08	0.44	1.18	0.25	0.06	0.85	0.01	0.01	0.02	 c = 0
0.15	0.0	21.19	59.15	0.0	2.44	1.52	0.0	1.83	0.0	0.15	0.61	0.76	0.0	0.0	0.15	3.05	0.61	0.0	1.52	5.03	0.46	0.3	1.07	0.0	0.0	0.0	 d = hs
0.0	0.0	1.2	0.0	84.94	4.82	0.0	0.0	5.42	0.0	0.0	0.0	2.41	0.0	0.0	0.0	0.0	0.6	0.0	0.0	0.0	0.0	0.6	0.0	0.0	0.0	0.0	 e = hg
0.06	0.03	2.34	0.18	0.01	93.23	0.43	0.05	0.51	0.14	0.05	0.08	0.17	0.05	0.09	0.25	0.58	0.22	0.05	0.18	0.48	0.4	0.02	0.34	0.03	0.02	0.0	 f = a
2.08	0.0	30.12	1.1	0.11	3.83	28.04	0.0	3.4	0.11	0.11	1.2	1.42	0.99	0.0	0.0	3.94	0.33	2.52	2.41	10.51	0.44	0.44	6.46	0.22	0.11	0.11	 g = c
0.0	0.0	1.0	0.0	0.0	3.76	0.0	88.72	1.5	0.0	0.0	0.0	2.76	0.0	0.0	0.0	0.25	0.25	0.0	0.0	0.0	1.0	0.75	0.0	0.0	0.0	0.0	 h = b
0.02	0.04	2.88	0.17	0.06	1.6	0.69	0.02	88.86	0.3	0.09	0.17	0.82	0.04	0.15	0.22	0.61	0.56	0.04	0.32	0.67	0.54	0.17	0.71	0.17	0.02	0.02	 i = e
0.0	0.0	2.04	0.11	0.0	2.61	0.23	0.23	2.61	85.02	0.0	0.0	0.45	0.0	0.0	0.11	3.63	1.82	0.0	0.0	0.11	0.57	0.11	0.11	0.11	0.11	0.0	 j = d
0.0	0.0	5.23	0.0	0.0	4.13	0.28	0.28	4.13	0.0	81.82	0.28	0.83	0.0	0.0	0.0	0.83	0.28	0.0	0.0	0.83	0.55	0.28	0.28	0.0	0.0	0.0	 k = g
0.51	0.0	10.77	2.05	0.0	2.56	3.08	0.0	1.28	0.0	0.26	40.0	1.28	3.33	0.26	0.0	3.33	0.51	0.77	1.79	20.26	2.82	0.26	3.59	0.0	0.77	0.51	 l = f
0.0	0.0	4.79	0.08	0.04	0.97	0.63	0.21	2.69	0.08	0.08	0.25	86.36	0.0	0.21	0.38	0.46	0.25	0.08	0.38	1.01	0.17	0.0	0.63	0.25	0.0	0.0	 m = i
0.61	0.0	6.97	0.61	0.0	3.33	3.64	0.3	2.12	0.0	0.3	3.03	0.91	59.39	0.0	0.0	0.61	0.3	0.61	0.61	12.12	1.21	0.61	2.73	0.0	0.0	0.0	 n = j
0.11	0.0	2.05	0.0	0.0	0.8	0.11	0.34	1.14	0.11	0.0	0.11	2.05	0.0	90.11	0.0	1.59	0.11	0.0	0.23	0.11	0.0	0.57	0.34	0.11	0.0	0.0	 o = m
0.09	0.0	2.6	0.09	0.0	4.45	0.19	0.09	2.6	0.37	0.0	0.0	1.3	0.0	0.19	85.71	1.21	0.37	0.0	0.09	0.09	0.19	0.19	0.19	0.0	0.0	0.0	 p = l
0.11	0.04	8.0	0.31	0.02	2.17	0.47	0.09	1.05	0.47	0.04	0.16	0.34	0.0	0.36	0.31	82.68	0.43	0.11	0.4	1.08	0.34	0.25	0.63	0.07	0.04	0.02	 q = o
0.0	0.0	2.54	0.19	0.05	2.07	0.19	0.0	1.93	0.47	0.09	0.14	0.56	0.14	0.14	0.19	1.08	87.9	0.05	0.24	0.8	0.28	0.24	0.66	0.0	0.0	0.05	 r = n
4.66	0.0	22.94	0.0	0.0	3.58	11.11	0.0	4.3	0.0	0.0	0.72	1.08	0.36	0.0	0.0	1.43	0.72	33.33	0.0	11.83	0.36	0.36	2.87	0.0	0.36	0.0	 s = q
0.45	0.0	26.76	1.49	0.0	5.68	4.48	0.0	4.78	0.3	0.0	1.05	1.05	0.3	0.3	0.45	2.99	0.45	0.15	33.63	6.58	2.99	0.15	5.68	0.0	0.0	0.3	 t = p
1.45	0.0	14.13	0.94	0.0	2.19	2.56	0.0	1.01	0.03	0.13	1.79	1.18	0.78	0.03	0.13	1.59	0.47	0.44	1.38	66.54	0.47	0.03	2.33	0.0	0.2	0.17	 u = s
0.29	0.0	7.92	0.14	0.0	8.92	0.78	0.21	4.07	0.21	0.14	0.86	1.36	0.14	0.14	0.5	2.14	0.5	0.0	1.0	1.71	67.55	0.21	1.07	0.07	0.07	0.0	 v = r
0.0	0.0	2.02	0.07	0.0	1.23	0.43	0.14	1.15	0.07	0.07	0.0	0.65	0.07	0.51	0.43	1.37	0.43	0.07	0.0	0.0	0.22	90.26	0.65	0.0	0.14	0.0	 w = u
0.96	0.0	31.06	1.31	0.0	4.81	7.52	0.0	2.54	0.17	0.17	1.22	2.89	0.79	0.17	0.09	3.41	1.75	0.44	3.15	9.19	0.79	0.61	26.42	0.09	0.26	0.17	 x = t
0.0	0.0	1.9	0.21	0.0	2.95	0.84	0.0	5.06	0.42	0.0	0.0	3.16	0.0	0.42	0.42	2.74	1.05	0.21	0.42	0.21	0.42	0.0	0.42	78.9	0.21	0.0	 y = v
0.34	0.0	3.36	0.34	0.0	2.35	0.67	0.34	1.01	0.0	0.0	1.34	1.01	0.0	0.0	0.67	1.01	0.0	0.0	0.34	10.4	1.34	1.68	0.0	0.0	73.83	0.0	 z = y
0.0	0.0	26.09	0.0	0.0	0.0	0.0	0.0	0.0	0.0	0.0	8.7	0.0	0.0	0.0	0.0	4.35	4.35	0.0	4.35	30.43	8.7	0.0	13.04	0.0	0.0	0.0	 aa = z
