Timestamp:2013-07-22-20:41:24
Inventario:I0
Intervalo:3ms
Ngramas:5
Clasificador:RandomForest
Relation Name:  I0-3ms-5gramas
Num Instances:  61131
Num Attributes: 51

     Name                      Type  Nom  Int Real     Missing      Unique  Dist
   1 0Int(dB)                   Num   0%  10%  90%     0 /  0%     2 /  0%   776 
   2 0Pitch(Hz)                 Num   0%  52%  48%     0 /  0%   559 /  1%  3828 
   3 0RawPitch                  Num   0%  55%  45%     0 /  0%   613 /  1%  3808 
   4 0SmPitch                   Num   0%  53%  47%     0 /  0%   575 /  1%  3802 
   5 0Melogram(st)              Num   0%  49%  51%     0 /  0%   269 /  0%  3285 
   6 0ZCross                    Num   0% 100%   0%     0 /  0%     3 /  0%    50 
   7 0F1(Hz)                    Num   0%  52%  48%     0 /  0%  1075 /  2%  4783 
   8 0F2(Hz)                    Num   0%  52%  48%     0 /  0%  2270 /  4%  6724 
   9 0F3(Hz)                    Num   0%  52%  48%     0 /  0%  1945 /  3%  6241 
  10 0F4(Hz)                    Num   0%  52%  48%     0 /  0%  1922 /  3%  6122 
  11 1Int(dB)                   Num   0%  10%  90%     0 /  0%     2 /  0%   776 
  12 1Pitch(Hz)                 Num   0%  52%  48%     0 /  0%   559 /  1%  3828 
  13 1RawPitch                  Num   0%  55%  45%     0 /  0%   613 /  1%  3808 
  14 1SmPitch                   Num   0%  53%  47%     0 /  0%   575 /  1%  3802 
  15 1Melogram(st)              Num   0%  49%  51%     0 /  0%   269 /  0%  3285 
  16 1ZCross                    Num   0% 100%   0%     0 /  0%     3 /  0%    50 
  17 1F1(Hz)                    Num   0%  52%  48%     0 /  0%  1075 /  2%  4783 
  18 1F2(Hz)                    Num   0%  52%  48%     0 /  0%  2270 /  4%  6724 
  19 1F3(Hz)                    Num   0%  52%  48%     0 /  0%  1945 /  3%  6241 
  20 1F4(Hz)                    Num   0%  52%  48%     0 /  0%  1922 /  3%  6122 
  21 2Int(dB)                   Num   0%  10%  90%     0 /  0%     2 /  0%   776 
  22 2Pitch(Hz)                 Num   0%  52%  48%     0 /  0%   559 /  1%  3828 
  23 2RawPitch                  Num   0%  55%  45%     0 /  0%   613 /  1%  3808 
  24 2SmPitch                   Num   0%  53%  47%     0 /  0%   575 /  1%  3802 
  25 2Melogram(st)              Num   0%  49%  51%     0 /  0%   269 /  0%  3285 
  26 2ZCross                    Num   0% 100%   0%     0 /  0%     3 /  0%    50 
  27 2F1(Hz)                    Num   0%  52%  48%     0 /  0%  1075 /  2%  4783 
  28 2F2(Hz)                    Num   0%  52%  48%     0 /  0%  2270 /  4%  6724 
  29 2F3(Hz)                    Num   0%  52%  48%     0 /  0%  1945 /  3%  6241 
  30 2F4(Hz)                    Num   0%  52%  48%     0 /  0%  1922 /  3%  6122 
  31 3Int(dB)                   Num   0%  10%  90%     0 /  0%     2 /  0%   776 
  32 3Pitch(Hz)                 Num   0%  52%  48%     0 /  0%   559 /  1%  3828 
  33 3RawPitch                  Num   0%  55%  45%     0 /  0%   613 /  1%  3808 
  34 3SmPitch                   Num   0%  53%  47%     0 /  0%   575 /  1%  3802 
  35 3Melogram(st)              Num   0%  49%  51%     0 /  0%   269 /  0%  3285 
  36 3ZCross                    Num   0% 100%   0%     0 /  0%     3 /  0%    50 
  37 3F1(Hz)                    Num   0%  52%  48%     0 /  0%  1075 /  2%  4783 
  38 3F2(Hz)                    Num   0%  52%  48%     0 /  0%  2270 /  4%  6724 
  39 3F3(Hz)                    Num   0%  52%  48%     0 /  0%  1945 /  3%  6241 
  40 3F4(Hz)                    Num   0%  52%  48%     0 /  0%  1922 /  3%  6122 
  41 4Int(dB)                   Num   0%  10%  90%     0 /  0%     3 /  0%   777 
  42 4Pitch(Hz)                 Num   0%  52%  48%     0 /  0%   559 /  1%  3828 
  43 4RawPitch                  Num   0%  55%  45%     0 /  0%   613 /  1%  3808 
  44 4SmPitch                   Num   0%  53%  47%     0 /  0%   575 /  1%  3802 
  45 4Melogram(st)              Num   0%  49%  51%     0 /  0%   269 /  0%  3285 
  46 4ZCross                    Num   0% 100%   0%     0 /  0%     3 /  0%    50 
  47 4F1(Hz)                    Num   0%  52%  48%     0 /  0%  1075 /  2%  4783 
  48 4F2(Hz)                    Num   0%  52%  48%     0 /  0%  2270 /  4%  6724 
  49 4F3(Hz)                    Num   0%  52%  48%     0 /  0%  1945 /  3%  6241 
  50 4F4(Hz)                    Num   0%  52%  48%     0 /  0%  1922 /  3%  6122 
  51 class                      Nom 100%   0%   0%     0 /  0%     0 /  0%    27 


Options: -I 10 -K 0 -S 1 -num-slots 4 

Random forest of 10 trees, each constructed while considering 6 random features.
Out of bag error: 0.1804





=== Stratified cross-validation ===

Correctly Classified Instances       53040               86.7645 %
Incorrectly Classified Instances      8091               13.2355 %
Kappa statistic                          0.834 
K&B Relative Info Score            4870129.0943 %
K&B Information Score               160772.2496 bits      2.63   bits/instance
Class complexity | order 0          201724.4304 bits      3.2999 bits/instance
Class complexity | scheme          2889696.801  bits     47.2706 bits/instance
Complexity improvement     (Sf)    -2687972.3705 bits    -43.9707 bits/instance
Mean absolute error                      0.0176
Root mean squared error                  0.0888
Relative absolute error                 29.3051 %
Root relative squared error             51.2807 %
Coverage of cases (0.95 level)          95.6405 %
Mean rel. region size (0.95 level)       8.8673 %
Total Number of Instances            61131     


=== Detailed Accuracy By Class ===

                 TP Rate  FP Rate  Precision  Recall   F-Measure  MCC      ROC Area  PRC Area  Class
                 0,374    0,002    0,517      0,374    0,434      0,437    0,836     0,388     ch
                 0,917    0,000    0,930      0,917    0,923      0,923    1,000     0,944     rr
                 0,957    0,079    0,885      0,957    0,920      0,868    0,982     0,965     0
                 0,634    0,002    0,803      0,634    0,709      0,711    0,887     0,678     hs
                 0,813    0,000    0,944      0,813    0,874      0,876    0,994     0,937     hg
                 0,940    0,018    0,898      0,940    0,919      0,905    0,984     0,962     a
                 0,310    0,007    0,403      0,310    0,350      0,345    0,833     0,270     c
                 0,897    0,000    0,945      0,897    0,920      0,920    0,996     0,963     b
                 0,906    0,010    0,878      0,906    0,892      0,883    0,979     0,931     e
                 0,858    0,001    0,903      0,858    0,880      0,879    0,996     0,932     d
                 0,848    0,000    0,925      0,848    0,885      0,885    0,973     0,915     g
                 0,456    0,002    0,584      0,456    0,512      0,513    0,889     0,473     f
                 0,860    0,005    0,884      0,860    0,872      0,867    0,972     0,907     i
                 0,633    0,001    0,826      0,633    0,717      0,722    0,915     0,708     j
                 0,902    0,001    0,943      0,902    0,922      0,921    0,987     0,948     m
                 0,858    0,001    0,916      0,858    0,886      0,885    0,991     0,929     l
                 0,834    0,007    0,899      0,834    0,865      0,856    0,958     0,885     o
                 0,905    0,002    0,938      0,905    0,921      0,919    0,986     0,948     n
                 0,333    0,001    0,655      0,333    0,442      0,466    0,819     0,406     q
                 0,359    0,003    0,584      0,359    0,444      0,453    0,837     0,397     p
                 0,733    0,015    0,710      0,733    0,721      0,707    0,954     0,757     s
                 0,690    0,002    0,886      0,690    0,776      0,778    0,948     0,792     r
                 0,900    0,001    0,941      0,900    0,920      0,919    0,986     0,947     u
                 0,304    0,007    0,464      0,304    0,367      0,366    0,828     0,316     t
                 0,797    0,000    0,952      0,797    0,868      0,870    0,987     0,909     v
                 0,758    0,000    0,946      0,758    0,842      0,846    0,953     0,837     y
                 0,000    0,000    0,000      0,000    0,000      -0,000   0,564     0,003     z
Weighted Avg.    0,868    0,036    0,861      0,868    0,862      0,837    0,968     0,894     


=== Confusion Matrix ===

     a     b     c     d     e     f     g     h     i     j     k     l     m     n     o     p     q     r     s     t     u     v     w     x     y     z    aa   <-- classified as
   108     0    40     1     0     5    22     0     2     0     0     1     1     0     0     0     3     2     0     0    92     0     0    12     0     0     0 |     a = ch
     0    66     1     0     0     2     0     0     3     0     0     0     0     0     0     0     0     0     0     0     0     0     0     0     0     0     0 |     b = rr
    10     0 22709    31     0   138    80     2    99    12     5    18    63     7     9    20   112    28     8    32   218    23    11    79     3     4     1 |     c = 0
     0     0   158   416     0    20     7     0     5     1     0     1     3     0     0     1     8     1     0     7    23     0     1     4     0     0     0 |     d = hs
     0     0     4     0   135     7     0     0    14     0     0     0     4     0     0     0     0     2     0     0     0     0     0     0     0     0     0 |     e = hg
     5     1   189     9     1  8241    37     5    32    11     4     6    15     3     5    19    35    18     2    17    47    16     4    38     2     1     0 |     f = a
    23     0   303     6     0    43   283     0    15     1     0     6    15     6     0     1    20     1    25    15    82     2     5    61     0     0     0 |     g = c
     0     1     2     0     0    11     0   358     5     0     0     0     7     0     3     0     3     0     0     0     0     4     5     0     0     0     0 |     h = b
     2     2   157     9     4    69    22     0  4188    12     6     0    14     1     4     7    21    15     1    11    22    18     7    22     6     1     0 |     i = e
     0     1    19     1     0    28     0     1    24   756     0     1     3     0     0     1    27    11     0     0     2     2     2     1     0     1     0 |     j = d
     0     0    11     1     0    12     1     0    14     0   308     1     4     0     0     0     2     0     0     2     0     0     2     5     0     0     0 |     k = g
     1     0    56     0     0     6    11     0     7     0     1   178     1     5     1     0     8     1     0     7    95     2     1     8     0     0     1 |     l = f
     0     0   118     5     3    31     9     5    58     1     2     1  2049     0     5    10     7     3     0     8    32     5     3    20     5     2     0 |     m = i
     1     0    27     1     0    13     8     1    11     0     0     7     2   209     1     0     2     0     1     1    39     1     1     4     0     0     0 |     n = j
     0     0    18     0     0     9     1     3     8     0     0     0    16     0   794     2    15     0     0     3     0     0     8     3     0     0     0 |     o = m
     1     0    22     1     0    69     1     0    21     0     1     0    11     0     5   925    13     2     0     0     2     1     1     1     0     1     0 |     p = l
     3     0   424     8     0   100    12     0    37    22     1     6     9     3     6     8  3722    16     4     6    28    12     8    26     1     1     0 |     q = o
     0     0    52     2     0    33     6     0    40    10     0     1     6     0     0     3    23  1923     0     1    17     1     2     4     0     0     0 |     r = n
    10     0    76     0     0     3    48     0     9     0     0     0     4     2     0     0     2     0    93     0    24     0     1     7     0     0     0 |     s = q
     4     0   197    10     0    47    24     0    24     0     0    10    10     2     2     1    11     0     0   240    33    16     1    37     0     0     0 |     t = p
    30     0   470     6     0    49    37     0    21     0     1    49    17    10     1     2    31     7     4    17  2172     2     0    35     0     0     4 |     u = s
     1     0   126     2     0   122     7     1    59     4     2     5    15     1     1     6    25     4     0     9    24   968     5    15     0     0     0 |     v = r
     0     0    27     0     0    23    10     3    11     2     1     0    14     2     4     1    17     5     0     0     3     3  1248    12     0     0     0 |     w = u
     8     0   411     8     0    71    72     0    37     2     1     9    23     2     1     1    19     9     4    32    66    10     5   347     2     1     2 |     x = t
     0     0    16     1     0    15     3     0    23     2     0     0     9     0     0     0    13     1     0     1     0     3     3     5   378     1     0 |     y = v
     1     0    11     0     0    10     2     0     4     1     0     3     2     0     0     2     2     1     0     1    27     3     2     0     0   226     0 |     z = y
     1     0     3     0     0     1     0     0     0     0     0     2     0     0     0     0     1     1     0     1    11     0     0     2     0     0     0 |    aa = z

=== Percent Confusion Matrix ===
a	b	c	d	e	f	g	h	i	j	k	l	m	n	o	p	q	r	s	t	u	v	w	x	y	z	aa	
37.37	0.0	13.84	0.35	0.0	1.73	7.61	0.0	0.69	0.0	0.0	0.35	0.35	0.0	0.0	0.0	1.04	0.69	0.0	0.0	31.83	0.0	0.0	4.15	0.0	0.0	0.0	 a = ch
0.0	91.67	1.39	0.0	0.0	2.78	0.0	0.0	4.17	0.0	0.0	0.0	0.0	0.0	0.0	0.0	0.0	0.0	0.0	0.0	0.0	0.0	0.0	0.0	0.0	0.0	0.0	 b = rr
0.04	0.0	95.73	0.13	0.0	0.58	0.34	0.01	0.42	0.05	0.02	0.08	0.27	0.03	0.04	0.08	0.47	0.12	0.03	0.13	0.92	0.1	0.05	0.33	0.01	0.02	0.0	 c = 0
0.0	0.0	24.09	63.41	0.0	3.05	1.07	0.0	0.76	0.15	0.0	0.15	0.46	0.0	0.0	0.15	1.22	0.15	0.0	1.07	3.51	0.0	0.15	0.61	0.0	0.0	0.0	 d = hs
0.0	0.0	2.41	0.0	81.33	4.22	0.0	0.0	8.43	0.0	0.0	0.0	2.41	0.0	0.0	0.0	0.0	1.2	0.0	0.0	0.0	0.0	0.0	0.0	0.0	0.0	0.0	 e = hg
0.06	0.01	2.16	0.1	0.01	94.04	0.42	0.06	0.37	0.13	0.05	0.07	0.17	0.03	0.06	0.22	0.4	0.21	0.02	0.19	0.54	0.18	0.05	0.43	0.02	0.01	0.0	 f = a
2.52	0.0	33.19	0.66	0.0	4.71	31.0	0.0	1.64	0.11	0.0	0.66	1.64	0.66	0.0	0.11	2.19	0.11	2.74	1.64	8.98	0.22	0.55	6.68	0.0	0.0	0.0	 g = c
0.0	0.25	0.5	0.0	0.0	2.76	0.0	89.72	1.25	0.0	0.0	0.0	1.75	0.0	0.75	0.0	0.75	0.0	0.0	0.0	0.0	1.0	1.25	0.0	0.0	0.0	0.0	 h = b
0.04	0.04	3.4	0.19	0.09	1.49	0.48	0.0	90.63	0.26	0.13	0.0	0.3	0.02	0.09	0.15	0.45	0.32	0.02	0.24	0.48	0.39	0.15	0.48	0.13	0.02	0.0	 i = e
0.0	0.11	2.16	0.11	0.0	3.18	0.0	0.11	2.72	85.81	0.0	0.11	0.34	0.0	0.0	0.11	3.06	1.25	0.0	0.0	0.23	0.23	0.23	0.11	0.0	0.11	0.0	 j = d
0.0	0.0	3.03	0.28	0.0	3.31	0.28	0.0	3.86	0.0	84.85	0.28	1.1	0.0	0.0	0.0	0.55	0.0	0.0	0.55	0.0	0.0	0.55	1.38	0.0	0.0	0.0	 k = g
0.26	0.0	14.36	0.0	0.0	1.54	2.82	0.0	1.79	0.0	0.26	45.64	0.26	1.28	0.26	0.0	2.05	0.26	0.0	1.79	24.36	0.51	0.26	2.05	0.0	0.0	0.26	 l = f
0.0	0.0	4.95	0.21	0.13	1.3	0.38	0.21	2.43	0.04	0.08	0.04	86.02	0.0	0.21	0.42	0.29	0.13	0.0	0.34	1.34	0.21	0.13	0.84	0.21	0.08	0.0	 m = i
0.3	0.0	8.18	0.3	0.0	3.94	2.42	0.3	3.33	0.0	0.0	2.12	0.61	63.33	0.3	0.0	0.61	0.0	0.3	0.3	11.82	0.3	0.3	1.21	0.0	0.0	0.0	 n = j
0.0	0.0	2.05	0.0	0.0	1.02	0.11	0.34	0.91	0.0	0.0	0.0	1.82	0.0	90.23	0.23	1.7	0.0	0.0	0.34	0.0	0.0	0.91	0.34	0.0	0.0	0.0	 o = m
0.09	0.0	2.04	0.09	0.0	6.4	0.09	0.0	1.95	0.0	0.09	0.0	1.02	0.0	0.46	85.81	1.21	0.19	0.0	0.0	0.19	0.09	0.09	0.09	0.0	0.09	0.0	 p = l
0.07	0.0	9.5	0.18	0.0	2.24	0.27	0.0	0.83	0.49	0.02	0.13	0.2	0.07	0.13	0.18	83.4	0.36	0.09	0.13	0.63	0.27	0.18	0.58	0.02	0.02	0.0	 q = o
0.0	0.0	2.45	0.09	0.0	1.55	0.28	0.0	1.88	0.47	0.0	0.05	0.28	0.0	0.0	0.14	1.08	90.54	0.0	0.05	0.8	0.05	0.09	0.19	0.0	0.0	0.0	 r = n
3.58	0.0	27.24	0.0	0.0	1.08	17.2	0.0	3.23	0.0	0.0	0.0	1.43	0.72	0.0	0.0	0.72	0.0	33.33	0.0	8.6	0.0	0.36	2.51	0.0	0.0	0.0	 s = q
0.6	0.0	29.45	1.49	0.0	7.03	3.59	0.0	3.59	0.0	0.0	1.49	1.49	0.3	0.3	0.15	1.64	0.0	0.0	35.87	4.93	2.39	0.15	5.53	0.0	0.0	0.0	 t = p
1.01	0.0	15.85	0.2	0.0	1.65	1.25	0.0	0.71	0.0	0.03	1.65	0.57	0.34	0.03	0.07	1.05	0.24	0.13	0.57	73.25	0.07	0.0	1.18	0.0	0.0	0.13	 u = s
0.07	0.0	8.99	0.14	0.0	8.7	0.5	0.07	4.21	0.29	0.14	0.36	1.07	0.07	0.07	0.43	1.78	0.29	0.0	0.64	1.71	69.04	0.36	1.07	0.0	0.0	0.0	 v = r
0.0	0.0	1.95	0.0	0.0	1.66	0.72	0.22	0.79	0.14	0.07	0.0	1.01	0.14	0.29	0.07	1.23	0.36	0.0	0.0	0.22	0.22	90.04	0.87	0.0	0.0	0.0	 w = u
0.7	0.0	35.96	0.7	0.0	6.21	6.3	0.0	3.24	0.17	0.09	0.79	2.01	0.17	0.09	0.09	1.66	0.79	0.35	2.8	5.77	0.87	0.44	30.36	0.17	0.09	0.17	 x = t
0.0	0.0	3.38	0.21	0.0	3.16	0.63	0.0	4.85	0.42	0.0	0.0	1.9	0.0	0.0	0.0	2.74	0.21	0.0	0.21	0.0	0.63	0.63	1.05	79.75	0.21	0.0	 y = v
0.34	0.0	3.69	0.0	0.0	3.36	0.67	0.0	1.34	0.34	0.0	1.01	0.67	0.0	0.0	0.67	0.67	0.34	0.0	0.34	9.06	1.01	0.67	0.0	0.0	75.84	0.0	 z = y
4.35	0.0	13.04	0.0	0.0	4.35	0.0	0.0	0.0	0.0	0.0	8.7	0.0	0.0	0.0	0.0	4.35	4.35	0.0	4.35	47.83	0.0	0.0	8.7	0.0	0.0	0.0	 aa = z
