Timestamp:2013-08-30-03:50:24
Inventario:I0
Intervalo:3ms
Ngramas:5
Clasificador:BayesNet
Relation Name:  I0-3ms-5gramas
Num Instances:  61131
Num Attributes: 51

     Name                      Type  Nom  Int Real     Missing      Unique  Dist
   1 0Int(dB)                   Num   0%  10%  90%     0 /  0%     2 /  0%   776 
   2 0Pitch(Hz)                 Num   0%  52%  48%     0 /  0%   559 /  1%  3828 
   3 0RawPitch                  Num   0%  55%  45%     0 /  0%   613 /  1%  3808 
   4 0SmPitch                   Num   0%  53%  47%     0 /  0%   575 /  1%  3802 
   5 0Melogram(st)              Num   0%  49%  51%     0 /  0%   269 /  0%  3285 
   6 0ZCross                    Num   0% 100%   0%     0 /  0%     3 /  0%    50 
   7 0F1(Hz)                    Num   0%  52%  48%     0 /  0%  1075 /  2%  4783 
   8 0F2(Hz)                    Num   0%  52%  48%     0 /  0%  2270 /  4%  6724 
   9 0F3(Hz)                    Num   0%  52%  48%     0 /  0%  1945 /  3%  6241 
  10 0F4(Hz)                    Num   0%  52%  48%     0 /  0%  1922 /  3%  6122 
  11 1Int(dB)                   Num   0%  10%  90%     0 /  0%     2 /  0%   776 
  12 1Pitch(Hz)                 Num   0%  52%  48%     0 /  0%   559 /  1%  3828 
  13 1RawPitch                  Num   0%  55%  45%     0 /  0%   613 /  1%  3808 
  14 1SmPitch                   Num   0%  53%  47%     0 /  0%   575 /  1%  3802 
  15 1Melogram(st)              Num   0%  49%  51%     0 /  0%   269 /  0%  3285 
  16 1ZCross                    Num   0% 100%   0%     0 /  0%     3 /  0%    50 
  17 1F1(Hz)                    Num   0%  52%  48%     0 /  0%  1075 /  2%  4783 
  18 1F2(Hz)                    Num   0%  52%  48%     0 /  0%  2270 /  4%  6724 
  19 1F3(Hz)                    Num   0%  52%  48%     0 /  0%  1945 /  3%  6241 
  20 1F4(Hz)                    Num   0%  52%  48%     0 /  0%  1922 /  3%  6122 
  21 2Int(dB)                   Num   0%  10%  90%     0 /  0%     2 /  0%   776 
  22 2Pitch(Hz)                 Num   0%  52%  48%     0 /  0%   559 /  1%  3828 
  23 2RawPitch                  Num   0%  55%  45%     0 /  0%   613 /  1%  3808 
  24 2SmPitch                   Num   0%  53%  47%     0 /  0%   575 /  1%  3802 
  25 2Melogram(st)              Num   0%  49%  51%     0 /  0%   269 /  0%  3285 
  26 2ZCross                    Num   0% 100%   0%     0 /  0%     3 /  0%    50 
  27 2F1(Hz)                    Num   0%  52%  48%     0 /  0%  1075 /  2%  4783 
  28 2F2(Hz)                    Num   0%  52%  48%     0 /  0%  2270 /  4%  6724 
  29 2F3(Hz)                    Num   0%  52%  48%     0 /  0%  1945 /  3%  6241 
  30 2F4(Hz)                    Num   0%  52%  48%     0 /  0%  1922 /  3%  6122 
  31 3Int(dB)                   Num   0%  10%  90%     0 /  0%     2 /  0%   776 
  32 3Pitch(Hz)                 Num   0%  52%  48%     0 /  0%   559 /  1%  3828 
  33 3RawPitch                  Num   0%  55%  45%     0 /  0%   613 /  1%  3808 
  34 3SmPitch                   Num   0%  53%  47%     0 /  0%   575 /  1%  3802 
  35 3Melogram(st)              Num   0%  49%  51%     0 /  0%   269 /  0%  3285 
  36 3ZCross                    Num   0% 100%   0%     0 /  0%     3 /  0%    50 
  37 3F1(Hz)                    Num   0%  52%  48%     0 /  0%  1075 /  2%  4783 
  38 3F2(Hz)                    Num   0%  52%  48%     0 /  0%  2270 /  4%  6724 
  39 3F3(Hz)                    Num   0%  52%  48%     0 /  0%  1945 /  3%  6241 
  40 3F4(Hz)                    Num   0%  52%  48%     0 /  0%  1922 /  3%  6122 
  41 4Int(dB)                   Num   0%  10%  90%     0 /  0%     3 /  0%   777 
  42 4Pitch(Hz)                 Num   0%  52%  48%     0 /  0%   559 /  1%  3828 
  43 4RawPitch                  Num   0%  55%  45%     0 /  0%   613 /  1%  3808 
  44 4SmPitch                   Num   0%  53%  47%     0 /  0%   575 /  1%  3802 
  45 4Melogram(st)              Num   0%  49%  51%     0 /  0%   269 /  0%  3285 
  46 4ZCross                    Num   0% 100%   0%     0 /  0%     3 /  0%    50 
  47 4F1(Hz)                    Num   0%  52%  48%     0 /  0%  1075 /  2%  4783 
  48 4F2(Hz)                    Num   0%  52%  48%     0 /  0%  2270 /  4%  6724 
  49 4F3(Hz)                    Num   0%  52%  48%     0 /  0%  1945 /  3%  6241 
  50 4F4(Hz)                    Num   0%  52%  48%     0 /  0%  1922 /  3%  6122 
  51 class                      Nom 100%   0%   0%     0 /  0%     0 /  0%    27 


Options: -D -Q weka.classifiers.bayes.net.search.local.K2 -- -P 1 -S BAYES -E weka.classifiers.bayes.net.estimate.SimpleEstimator -- -A 0.5 

Bayes Network Classifier
not using ADTree
#attributes=51 #classindex=50
Network structure (nodes followed by parents)
0Int(dB)(19): class 
0Pitch(Hz)(30): class 
0RawPitch(17): class 
0SmPitch(25): class 
0Melogram(st)(36): class 
0ZCross(13): class 
0F1(Hz)(409): class 
0F2(Hz)(670): class 
0F3(Hz)(681): class 
0F4(Hz)(522): class 
1Int(dB)(19): class 
1Pitch(Hz)(26): class 
1RawPitch(17): class 
1SmPitch(25): class 
1Melogram(st)(33): class 
1ZCross(13): class 
1F1(Hz)(455): class 
1F2(Hz)(539): class 
1F3(Hz)(678): class 
1F4(Hz)(476): class 
2Int(dB)(21): class 
2Pitch(Hz)(27): class 
2RawPitch(16): class 
2SmPitch(24): class 
2Melogram(st)(33): class 
2ZCross(13): class 
2F1(Hz)(501): class 
2F2(Hz)(490): class 
2F3(Hz)(654): class 
2F4(Hz)(498): class 
3Int(dB)(21): class 
3Pitch(Hz)(26): class 
3RawPitch(17): class 
3SmPitch(24): class 
3Melogram(st)(36): class 
3ZCross(13): class 
3F1(Hz)(500): class 
3F2(Hz)(489): class 
3F3(Hz)(708): class 
3F4(Hz)(459): class 
4Int(dB)(19): class 
4Pitch(Hz)(31): class 
4RawPitch(19): class 
4SmPitch(25): class 
4Melogram(st)(30): class 
4ZCross(12): class 
4F1(Hz)(421): class 
4F2(Hz)(353): class 
4F3(Hz)(557): class 
4F4(Hz)(520): class 
class(27): 
LogScore Bayes: -6266254.761571143
LogScore BDeu: -9612812.44464184
LogScore MDL: -8785243.362884142
LogScore ENTROPY: -7117271.201797563
LogScore AIC: -7419967.201797567




=== Stratified cross-validation ===

Correctly Classified Instances       39450               64.5335 %
Incorrectly Classified Instances     21681               35.4665 %
Kappa statistic                          0.5616
K&B Relative Info Score            3313187.9956 %
K&B Information Score               109374.6546 bits      1.7892 bits/instance
Class complexity | order 0          201724.4304 bits      3.2999 bits/instance
Class complexity | scheme           919506.3336 bits     15.0416 bits/instance
Complexity improvement     (Sf)    -717781.9032 bits    -11.7417 bits/instance
Mean absolute error                      0.0265
Root mean squared error                  0.1543
Relative absolute error                 44.1512 %
Root relative squared error             89.0653 %
Coverage of cases (0.95 level)          68.9274 %
Mean rel. region size (0.95 level)       4.6666 %
Total Number of Instances            61131     


=== Detailed Accuracy By Class ===

                 TP Rate  FP Rate  Precision  Recall   F-Measure  MCC      ROC Area  PRC Area  Class
                 0,190    0,002    0,333      0,190    0,242      0,249    0,952     0,235     ch
                 0,611    0,006    0,114      0,611    0,192      0,262    0,993     0,242     rr
                 0,888    0,105    0,843      0,888    0,865      0,776    0,958     0,952     0
                 0,320    0,017    0,171      0,320    0,223      0,223    0,887     0,188     hs
                 0,771    0,010    0,179      0,771    0,291      0,369    0,985     0,602     hg
                 0,663    0,027    0,804      0,663    0,727      0,690    0,942     0,815     a
                 0,194    0,010    0,225      0,194    0,208      0,198    0,903     0,176     c
                 0,602    0,010    0,276      0,602    0,378      0,402    0,978     0,349     b
                 0,543    0,032    0,583      0,543    0,562      0,529    0,906     0,577     e
                 0,474    0,019    0,266      0,474    0,341      0,343    0,929     0,351     d
                 0,463    0,008    0,256      0,463    0,330      0,339    0,936     0,329     g
                 0,226    0,002    0,379      0,226    0,283      0,289    0,941     0,261     f
                 0,591    0,012    0,673      0,591    0,630      0,617    0,938     0,642     i
                 0,485    0,002    0,625      0,485    0,546      0,548    0,950     0,520     j
                 0,551    0,010    0,444      0,551    0,492      0,487    0,949     0,517     m
                 0,614    0,039    0,223      0,614    0,327      0,352    0,936     0,327     l
                 0,364    0,011    0,720      0,364    0,483      0,487    0,877     0,550     o
                 0,440    0,014    0,526      0,440    0,479      0,464    0,928     0,470     n
                 0,204    0,001    0,401      0,204    0,271      0,284    0,927     0,234     q
                 0,170    0,003    0,368      0,170    0,233      0,245    0,900     0,205     p
                 0,441    0,014    0,619      0,441    0,515      0,502    0,919     0,527     s
                 0,292    0,011    0,385      0,292    0,332      0,322    0,868     0,293     r
                 0,587    0,007    0,669      0,587    0,625      0,618    0,947     0,678     u
                 0,155    0,008    0,281      0,155    0,200      0,198    0,899     0,181     t
                 0,447    0,013    0,217      0,447    0,292      0,304    0,934     0,302     v
                 0,611    0,015    0,169      0,611    0,265      0,316    0,941     0,415     y
                 0,000    0,001    0,000      0,000    0,000      -0,000   0,957     0,004     z
Weighted Avg.    0,645    0,052    0,682      0,645    0,651      0,608    0,935     0,705     


=== Confusion Matrix ===

     a     b     c     d     e     f     g     h     i     j     k     l     m     n     o     p     q     r     s     t     u     v     w     x     y     z    aa   <-- classified as
    55     0    74     3     0    13    18     0     1     0     0     0     8     1     2     9     0     7     0     2    89     3     0     4     0     0     0 |     a = ch
     0    44     0     0     1     0     0     0    11     0     0     0     0     0     2     4     0     0     0     0     0     1     0     0     4     5     0 |     b = rr
    15    11 21058   229    85   145    71    56   230   125    27    47   180    39    47   227   167   142    42    59   207   112    32    83    68   196    22 |     c = 0
     0     0   168   210    25    22    18     3    39    10     0     1     5     3    12    38     5     3     0     6    14     4    11     6    23    30     0 |     d = hs
     0     0     0     0   128     4     0     1    14     3     0     0     2     0     0    10     0     1     0     0     0     0     0     0     3     0     0 |     e = hg
    18    96   222   101    46  5811    85    83   426   329    65    20    37    11    43   423   199   125     8    12    54   201    34    58   149   105     2 |     f = a
     4     0   467    28     3     3   177     0    21     6     0     3    14     3     3     1     5     8     3     5   103     9    10    26     6     5     0 |     g = c
     0     0     0     0    13    19     0   240    25     7     2     0     5     0    20    34     7     2     0     0     0     6     5     0     2    12     0 |     h = b
     3    44   153   101   101   262    57    76  2509    96   117     7   114     2    81   359    62   106    13    29    19    55    34    39   122    60     0 |     i = e
     0    14     2    27     9    64     0    18    44   418    16     0    16     0    28    66    17    42     2     2     0     3    16     4    43    30     0 |     j = d
     0     7    16     0     6    28     1     3    42     2   168     1    36     3     6    17     3     2     0     1     7     3     0     4     0     7     0 |     k = g
     1     0   155    10     6    16    13     3    17     2     0    88     0     5     2     6     0     1     0     0    18     4     4    14     3    22     0 |     l = f
     8     0    97    35    44    14    39    58   182    19    31     3  1408     3    88   117     5    43     8    12    30     4     7    35    25    61     6 |     m = i
     0     0    46     4     8    10     4     1    25     5     1     2     4   160     1     0     2     2     0     1    42     1     1     2     1     7     0 |     n = j
     1     3    14    27    13    29     3    37    39    15    16     0    26     0   485    65     3    26     0     4     0    17    13     1    22    21     0 |     o = m
     0     0     4    43    11    52     3    27    47    21    10     0    29     0    30   662    10    38     0     2     8     9    16     5    25    26     0 |     p = l
     3    74   440   153    83   420    46   113   209   287    74    12    33     0    54   335  1624    93     3    20    20    52   135    40   102    36     2 |     q = o
     0    52    57    92    59    73     5    48   120    62    56     4    37     3    88   213    10   934     0     5     8    21    44    21    37    71     4 |     r = n
     5     0    92     1     0    11    18     0     5     0     0     0    13     0     0     2     0     7    57     2    51     0     0     2     0    13     0 |     s = q
     2     0   277    28     7    13    33     1    17    17     0     9     4     4     1    22     7    17     0   114    14    14     8    29     9    22     0 |     t = p
    40     7   880    53    13    47    46     9    48    29    16     7    74    12    13    60    25    45     2     9  1307    60    15    28    25    95     0 |     u = s
     3     1   131    49    13   123    20    35   125    69    45    17    32     2    24   145    13    19     1    10    15   409    15    19    57    10     0 |     v = r
     2    12    22     9    10    42    17    44    54    19     7     1     2     0    35    85    56    42     1     8     5    16   813    23    27    34     0 |     w = u
     5     5   567    20    15     2   106     1     3     7     0    10     8     4     5     0    24    66     1     7    58    29     3   177     4    16     0 |     x = t
     0    17     6     7    12     6     3    10    47    25     5     0     4     1    17    44    13     2     0     0     2    24     0     8   212     9     0 |     y = v
     0     0    15     0     3     0     3     3     0     0     0     0     0     0     5    31     0     3     1     0    40     4     0     1     7   182     0 |     z = y
     0     0    23     0     0     0     0     0     0     0     0     0     0     0     0     0     0     0     0     0     0     0     0     0     0     0     0 |    aa = z

=== Percent Confusion Matrix ===
a	b	c	d	e	f	g	h	i	j	k	l	m	n	o	p	q	r	s	t	u	v	w	x	y	z	aa	
19.03	0.0	25.61	1.04	0.0	4.5	6.23	0.0	0.35	0.0	0.0	0.0	2.77	0.35	0.69	3.11	0.0	2.42	0.0	0.69	30.8	1.04	0.0	1.38	0.0	0.0	0.0	 a = ch
0.0	61.11	0.0	0.0	1.39	0.0	0.0	0.0	15.28	0.0	0.0	0.0	0.0	0.0	2.78	5.56	0.0	0.0	0.0	0.0	0.0	1.39	0.0	0.0	5.56	6.94	0.0	 b = rr
0.06	0.05	88.77	0.97	0.36	0.61	0.3	0.24	0.97	0.53	0.11	0.2	0.76	0.16	0.2	0.96	0.7	0.6	0.18	0.25	0.87	0.47	0.13	0.35	0.29	0.83	0.09	 c = 0
0.0	0.0	25.61	32.01	3.81	3.35	2.74	0.46	5.95	1.52	0.0	0.15	0.76	0.46	1.83	5.79	0.76	0.46	0.0	0.91	2.13	0.61	1.68	0.91	3.51	4.57	0.0	 d = hs
0.0	0.0	0.0	0.0	77.11	2.41	0.0	0.6	8.43	1.81	0.0	0.0	1.2	0.0	0.0	6.02	0.0	0.6	0.0	0.0	0.0	0.0	0.0	0.0	1.81	0.0	0.0	 e = hg
0.21	1.1	2.53	1.15	0.52	66.31	0.97	0.95	4.86	3.75	0.74	0.23	0.42	0.13	0.49	4.83	2.27	1.43	0.09	0.14	0.62	2.29	0.39	0.66	1.7	1.2	0.02	 f = a
0.44	0.0	51.15	3.07	0.33	0.33	19.39	0.0	2.3	0.66	0.0	0.33	1.53	0.33	0.33	0.11	0.55	0.88	0.33	0.55	11.28	0.99	1.1	2.85	0.66	0.55	0.0	 g = c
0.0	0.0	0.0	0.0	3.26	4.76	0.0	60.15	6.27	1.75	0.5	0.0	1.25	0.0	5.01	8.52	1.75	0.5	0.0	0.0	0.0	1.5	1.25	0.0	0.5	3.01	0.0	 h = b
0.06	0.95	3.31	2.19	2.19	5.67	1.23	1.64	54.3	2.08	2.53	0.15	2.47	0.04	1.75	7.77	1.34	2.29	0.28	0.63	0.41	1.19	0.74	0.84	2.64	1.3	0.0	 i = e
0.0	1.59	0.23	3.06	1.02	7.26	0.0	2.04	4.99	47.45	1.82	0.0	1.82	0.0	3.18	7.49	1.93	4.77	0.23	0.23	0.0	0.34	1.82	0.45	4.88	3.41	0.0	 j = d
0.0	1.93	4.41	0.0	1.65	7.71	0.28	0.83	11.57	0.55	46.28	0.28	9.92	0.83	1.65	4.68	0.83	0.55	0.0	0.28	1.93	0.83	0.0	1.1	0.0	1.93	0.0	 k = g
0.26	0.0	39.74	2.56	1.54	4.1	3.33	0.77	4.36	0.51	0.0	22.56	0.0	1.28	0.51	1.54	0.0	0.26	0.0	0.0	4.62	1.03	1.03	3.59	0.77	5.64	0.0	 l = f
0.34	0.0	4.07	1.47	1.85	0.59	1.64	2.43	7.64	0.8	1.3	0.13	59.11	0.13	3.69	4.91	0.21	1.81	0.34	0.5	1.26	0.17	0.29	1.47	1.05	2.56	0.25	 m = i
0.0	0.0	13.94	1.21	2.42	3.03	1.21	0.3	7.58	1.52	0.3	0.61	1.21	48.48	0.3	0.0	0.61	0.61	0.0	0.3	12.73	0.3	0.3	0.61	0.3	2.12	0.0	 n = j
0.11	0.34	1.59	3.07	1.48	3.3	0.34	4.2	4.43	1.7	1.82	0.0	2.95	0.0	55.11	7.39	0.34	2.95	0.0	0.45	0.0	1.93	1.48	0.11	2.5	2.39	0.0	 o = m
0.0	0.0	0.37	3.99	1.02	4.82	0.28	2.5	4.36	1.95	0.93	0.0	2.69	0.0	2.78	61.41	0.93	3.53	0.0	0.19	0.74	0.83	1.48	0.46	2.32	2.41	0.0	 p = l
0.07	1.66	9.86	3.43	1.86	9.41	1.03	2.53	4.68	6.43	1.66	0.27	0.74	0.0	1.21	7.51	36.39	2.08	0.07	0.45	0.45	1.17	3.02	0.9	2.29	0.81	0.04	 q = o
0.0	2.45	2.68	4.33	2.78	3.44	0.24	2.26	5.65	2.92	2.64	0.19	1.74	0.14	4.14	10.03	0.47	43.97	0.0	0.24	0.38	0.99	2.07	0.99	1.74	3.34	0.19	 r = n
1.79	0.0	32.97	0.36	0.0	3.94	6.45	0.0	1.79	0.0	0.0	0.0	4.66	0.0	0.0	0.72	0.0	2.51	20.43	0.72	18.28	0.0	0.0	0.72	0.0	4.66	0.0	 s = q
0.3	0.0	41.41	4.19	1.05	1.94	4.93	0.15	2.54	2.54	0.0	1.35	0.6	0.6	0.15	3.29	1.05	2.54	0.0	17.04	2.09	2.09	1.2	4.33	1.35	3.29	0.0	 t = p
1.35	0.24	29.68	1.79	0.44	1.59	1.55	0.3	1.62	0.98	0.54	0.24	2.5	0.4	0.44	2.02	0.84	1.52	0.07	0.3	44.08	2.02	0.51	0.94	0.84	3.2	0.0	 u = s
0.21	0.07	9.34	3.5	0.93	8.77	1.43	2.5	8.92	4.92	3.21	1.21	2.28	0.14	1.71	10.34	0.93	1.36	0.07	0.71	1.07	29.17	1.07	1.36	4.07	0.71	0.0	 v = r
0.14	0.87	1.59	0.65	0.72	3.03	1.23	3.17	3.9	1.37	0.51	0.07	0.14	0.0	2.53	6.13	4.04	3.03	0.07	0.58	0.36	1.15	58.66	1.66	1.95	2.45	0.0	 w = u
0.44	0.44	49.61	1.75	1.31	0.17	9.27	0.09	0.26	0.61	0.0	0.87	0.7	0.35	0.44	0.0	2.1	5.77	0.09	0.61	5.07	2.54	0.26	15.49	0.35	1.4	0.0	 x = t
0.0	3.59	1.27	1.48	2.53	1.27	0.63	2.11	9.92	5.27	1.05	0.0	0.84	0.21	3.59	9.28	2.74	0.42	0.0	0.0	0.42	5.06	0.0	1.69	44.73	1.9	0.0	 y = v
0.0	0.0	5.03	0.0	1.01	0.0	1.01	1.01	0.0	0.0	0.0	0.0	0.0	0.0	1.68	10.4	0.0	1.01	0.34	0.0	13.42	1.34	0.0	0.34	2.35	61.07	0.0	 z = y
0.0	0.0	100.0	0.0	0.0	0.0	0.0	0.0	0.0	0.0	0.0	0.0	0.0	0.0	0.0	0.0	0.0	0.0	0.0	0.0	0.0	0.0	0.0	0.0	0.0	0.0	0.0	 aa = z
