Timestamp:2013-08-30-03:48:06
Inventario:I0
Intervalo:3ms
Ngramas:2
Clasificador:BayesNet
Relation Name:  I0-3ms-2gramas
Num Instances:  61134
Num Attributes: 21

     Name                      Type  Nom  Int Real     Missing      Unique  Dist
   1 0Int(dB)                   Num   0%  10%  90%     0 /  0%     2 /  0%   776 
   2 0Pitch(Hz)                 Num   0%  52%  48%     0 /  0%   559 /  1%  3828 
   3 0RawPitch                  Num   0%  55%  45%     0 /  0%   613 /  1%  3808 
   4 0SmPitch                   Num   0%  53%  47%     0 /  0%   575 /  1%  3802 
   5 0Melogram(st)              Num   0%  49%  51%     0 /  0%   269 /  0%  3285 
   6 0ZCross                    Num   0% 100%   0%     0 /  0%     3 /  0%    50 
   7 0F1(Hz)                    Num   0%  52%  48%     0 /  0%  1075 /  2%  4783 
   8 0F2(Hz)                    Num   0%  52%  48%     0 /  0%  2270 /  4%  6724 
   9 0F3(Hz)                    Num   0%  52%  48%     0 /  0%  1945 /  3%  6241 
  10 0F4(Hz)                    Num   0%  52%  48%     0 /  0%  1922 /  3%  6122 
  11 1Int(dB)                   Num   0%  10%  90%     0 /  0%     3 /  0%   777 
  12 1Pitch(Hz)                 Num   0%  52%  48%     0 /  0%   559 /  1%  3828 
  13 1RawPitch                  Num   0%  55%  45%     0 /  0%   613 /  1%  3808 
  14 1SmPitch                   Num   0%  53%  47%     0 /  0%   575 /  1%  3802 
  15 1Melogram(st)              Num   0%  49%  51%     0 /  0%   269 /  0%  3285 
  16 1ZCross                    Num   0% 100%   0%     0 /  0%     3 /  0%    50 
  17 1F1(Hz)                    Num   0%  52%  48%     0 /  0%  1075 /  2%  4783 
  18 1F2(Hz)                    Num   0%  52%  48%     0 /  0%  2270 /  4%  6724 
  19 1F3(Hz)                    Num   0%  52%  48%     0 /  0%  1945 /  3%  6241 
  20 1F4(Hz)                    Num   0%  52%  48%     0 /  0%  1922 /  3%  6122 
  21 class                      Nom 100%   0%   0%     0 /  0%     0 /  0%    27 


Options: -D -Q weka.classifiers.bayes.net.search.local.K2 -- -P 1 -S BAYES -E weka.classifiers.bayes.net.estimate.SimpleEstimator -- -A 0.5 

Bayes Network Classifier
not using ADTree
#attributes=21 #classindex=20
Network structure (nodes followed by parents)
0Int(dB)(21): class 
0Pitch(Hz)(26): class 
0RawPitch(17): class 
0SmPitch(24): class 
0Melogram(st)(36): class 
0ZCross(13): class 
0F1(Hz)(500): class 
0F2(Hz)(489): class 
0F3(Hz)(708): class 
0F4(Hz)(459): class 
1Int(dB)(19): class 
1Pitch(Hz)(31): class 
1RawPitch(19): class 
1SmPitch(25): class 
1Melogram(st)(30): class 
1ZCross(12): class 
1F1(Hz)(421): class 
1F2(Hz)(353): class 
1F3(Hz)(557): class 
1F4(Hz)(520): class 
class(27): 
LogScore Bayes: -2566832.6614398398
LogScore BDeu: -3828459.8706348697
LogScore MDL: -3519644.7004693393
LogScore ENTROPY: -2885693.8728557364
LogScore AIC: -3000739.872855736




=== Stratified cross-validation ===

Correctly Classified Instances       39287               64.2637 %
Incorrectly Classified Instances     21847               35.7363 %
Kappa statistic                          0.5547
K&B Relative Info Score            3337213.5364 %
K&B Information Score               110167.6984 bits      1.8021 bits/instance
Class complexity | order 0          201728.5273 bits      3.2998 bits/instance
Class complexity | scheme           390238.4356 bits      6.3833 bits/instance
Complexity improvement     (Sf)    -188509.9082 bits     -3.0836 bits/instance
Mean absolute error                      0.0274
Root mean squared error                  0.1474
Relative absolute error                 45.5866 %
Root relative squared error             85.1051 %
Coverage of cases (0.95 level)          74.4921 %
Mean rel. region size (0.95 level)       6.3126 %
Total Number of Instances            61134     


=== Detailed Accuracy By Class ===

                 TP Rate  FP Rate  Precision  Recall   F-Measure  MCC      ROC Area  PRC Area  Class
                 0,159    0,001    0,351      0,159    0,219      0,234    0,938     0,190     ch
                 0,528    0,005    0,116      0,528    0,190      0,246    0,993     0,369     rr
                 0,897    0,119    0,827      0,897    0,860      0,768    0,960     0,954     0
                 0,288    0,016    0,167      0,288    0,212      0,208    0,877     0,160     hs
                 0,669    0,007    0,200      0,669    0,308      0,363    0,980     0,528     hg
                 0,691    0,032    0,782      0,691    0,734      0,694    0,945     0,819     a
                 0,085    0,004    0,243      0,085    0,126      0,137    0,895     0,157     c
                 0,481    0,009    0,266      0,481    0,342      0,352    0,972     0,319     b
                 0,562    0,038    0,550      0,562    0,556      0,519    0,908     0,578     e
                 0,388    0,016    0,263      0,388    0,313      0,307    0,919     0,311     d
                 0,386    0,008    0,229      0,386    0,287      0,292    0,931     0,320     g
                 0,179    0,002    0,341      0,179    0,235      0,244    0,928     0,216     f
                 0,589    0,013    0,641      0,589    0,614      0,600    0,940     0,636     i
                 0,406    0,001    0,601      0,406    0,485      0,492    0,947     0,466     j
                 0,508    0,011    0,412      0,508    0,455      0,449    0,946     0,468     m
                 0,540    0,034    0,221      0,540    0,314      0,328    0,933     0,287     l
                 0,378    0,015    0,670      0,378    0,483      0,475    0,874     0,532     o
                 0,408    0,016    0,479      0,408    0,441      0,424    0,923     0,423     n
                 0,168    0,002    0,331      0,168    0,223      0,234    0,916     0,197     q
                 0,117    0,003    0,322      0,117    0,171      0,189    0,895     0,160     p
                 0,420    0,015    0,584      0,420    0,488      0,474    0,925     0,522     s
                 0,249    0,010    0,362      0,249    0,295      0,287    0,859     0,270     r
                 0,582    0,008    0,627      0,582    0,604      0,595    0,950     0,663     u
                 0,113    0,004    0,325      0,113    0,168      0,183    0,885     0,165     t
                 0,426    0,013    0,202      0,426    0,274      0,286    0,935     0,261     v
                 0,577    0,013    0,174      0,577    0,268      0,312    0,936     0,367     y
                 0,000    0,001    0,000      0,000    0,000      -0,000   0,947     0,003     z
Weighted Avg.    0,643    0,059    0,659      0,643    0,640      0,594    0,935     0,697     


=== Confusion Matrix ===

     a     b     c     d     e     f     g     h     i     j     k     l     m     n     o     p     q     r     s     t     u     v     w     x     y     z    aa   <-- classified as
    46     0    87     1     0    11     3     1     4     0     0     0     7     0     4     3     0     9     0     1    97     6     1     5     2     1     0 |     a = ch
     0    38     0     0     0     1     0     0    21     0     0     0     0     0     2     3     0     0     0     0     0     4     0     0     1     2     0 |     b = rr
    11     6 21281   197    67   171    36    35   262   111    23    32   185    37    50   188   196   134    42    52   169   107    31    39    64   178    21 |     c = 0
     0     0   210   189    21    14     4     2    45     9     0     3     9     2    11    30     9     7     0     2    15     6    12     1    24    31     0 |     d = hs
     0     0     0     0   111     8     0     3    18     2     0     0     5     0     0    10     1     4     0     0     0     1     0     0     3     0     0 |     e = hg
    13    95   243    88    55  6057    34    68   421   226    58    21    40    10    49   381   235   114    11     9    60   172    33    29   146    94     1 |     f = a
    11     0   485    19     6     5    78     1    25     5     1     2    13     4     5     3    12    14     4     5   157     6    13    30     6     3     0 |     g = c
     0     0     0     0     8    23     0   192    30    11     5     0    11     0    26    40    11     7     0     0     0     3    18     0     7     7     0 |     h = b
     5    50   167   104    47   287    27    64  2596   101   111     7   145     3    76   314    64   105     8    21    16    51    46    27   122    57     0 |     i = e
     1    18     5    25    12    78     0    17    73   342    13     1    19     0    22    58    31    67     3     2     0     4    17     0    47    26     0 |     j = d
     0     2    20     0     1    37     0     2    42     9   140     1    50     2     4    13     4    12     1     0     9     4     4     0     0     6     0 |     k = g
     0     1   190    16     6    15     3     1    15     2     1    70     0     4     1     4     1     2     0     0    20     7     1     6     6    18     0 |     l = f
    10     0   110    27    35    10    23    56   231    18    31     2  1404     2    80    94     8    56    13    10    24    13    12    23    24    61     5 |     m = i
     0     0    61     7     7    19     3     0    21     8     1     1     6   134     5     0     2     2     0     4    34     4     1     2     1     7     0 |     n = j
     1     0    14    29    12    27     1    31    61    10    19     0    35     0   447    73    11    50     0     4     0     7    18     1    17    12     0 |     o = m
     0     0     5    37    11    61     1    21    89    19     9     2    35     0    36   582    20    45     2     1     7    15    18     2    28    32     0 |     p = l
     2    51   469   146    64   526    22    85   239   252    71     8    21     1    61   243  1685    83     1    14    15    36   157    32   133    46     0 |     q = o
     0    42    78    94    32    98     1    45   173    40    45    19    49     3   100   217    12   867     1     4     9    28    49     9    45    60     4 |     r = n
     5     0    95     1     0    11     3     0    11     0     0     1    15     1     0     5     2     3    47     3    66     2     1     1     0     6     0 |     s = q
     4     0   317    19     3    17    14     0    26    16     0     6     3     5     2    24    20    16     0    78    26    16    10    13    12    22     0 |     t = p
     7     2  1078    45    11    48    15     7    53    22    15     8    77     9     7    32    34    51     5    10  1244    52    15    17    29    72     0 |     u = s
     3     0   156    48    14   149    10    39   133    48    44    16    40     1    29   144    25    35     0     8    17   349    21     8    43    22     0 |     v = r
     2     5    18     9     8    53     7    35    65    19    14     1     3     0    35    88    86    41     1     6     4     8   807    16    30    25     0 |     w = u
    10     4   597    23    12    12    33     3    12     6     3     4     8     5     3     9    32    68     1     7   106    32     2   129     3    19     0 |     x = t
     0    14     6     5     9     6     0    11    50    26     7     0     8     0    24    41    13    10     0     1     1    25     1     7   202     7     0 |     y = v
     0     0    22     1     3     0     3     4     1     0     0     0     2     0     5    31     0     9     2     0    34     5     0     0     4   172     0 |     z = y
     0     0    23     0     0     0     0     0     0     0     0     0     0     0     0     0     0     0     0     0     0     0     0     0     0     0     0 |    aa = z

=== Percent Confusion Matrix ===
a	b	c	d	e	f	g	h	i	j	k	l	m	n	o	p	q	r	s	t	u	v	w	x	y	z	aa	
15.92	0.0	30.1	0.35	0.0	3.81	1.04	0.35	1.38	0.0	0.0	0.0	2.42	0.0	1.38	1.04	0.0	3.11	0.0	0.35	33.56	2.08	0.35	1.73	0.69	0.35	0.0	 a = ch
0.0	52.78	0.0	0.0	0.0	1.39	0.0	0.0	29.17	0.0	0.0	0.0	0.0	0.0	2.78	4.17	0.0	0.0	0.0	0.0	0.0	5.56	0.0	0.0	1.39	2.78	0.0	 b = rr
0.05	0.03	89.7	0.83	0.28	0.72	0.15	0.15	1.1	0.47	0.1	0.13	0.78	0.16	0.21	0.79	0.83	0.56	0.18	0.22	0.71	0.45	0.13	0.16	0.27	0.75	0.09	 c = 0
0.0	0.0	32.01	28.81	3.2	2.13	0.61	0.3	6.86	1.37	0.0	0.46	1.37	0.3	1.68	4.57	1.37	1.07	0.0	0.3	2.29	0.91	1.83	0.15	3.66	4.73	0.0	 d = hs
0.0	0.0	0.0	0.0	66.87	4.82	0.0	1.81	10.84	1.2	0.0	0.0	3.01	0.0	0.0	6.02	0.6	2.41	0.0	0.0	0.0	0.6	0.0	0.0	1.81	0.0	0.0	 e = hg
0.15	1.08	2.77	1.0	0.63	69.12	0.39	0.78	4.8	2.58	0.66	0.24	0.46	0.11	0.56	4.35	2.68	1.3	0.13	0.1	0.68	1.96	0.38	0.33	1.67	1.07	0.01	 f = a
1.2	0.0	53.12	2.08	0.66	0.55	8.54	0.11	2.74	0.55	0.11	0.22	1.42	0.44	0.55	0.33	1.31	1.53	0.44	0.55	17.2	0.66	1.42	3.29	0.66	0.33	0.0	 g = c
0.0	0.0	0.0	0.0	2.01	5.76	0.0	48.12	7.52	2.76	1.25	0.0	2.76	0.0	6.52	10.03	2.76	1.75	0.0	0.0	0.0	0.75	4.51	0.0	1.75	1.75	0.0	 h = b
0.11	1.08	3.61	2.25	1.02	6.21	0.58	1.38	56.18	2.19	2.4	0.15	3.14	0.06	1.64	6.8	1.38	2.27	0.17	0.45	0.35	1.1	1.0	0.58	2.64	1.23	0.0	 i = e
0.11	2.04	0.57	2.84	1.36	8.85	0.0	1.93	8.29	38.82	1.48	0.11	2.16	0.0	2.5	6.58	3.52	7.6	0.34	0.23	0.0	0.45	1.93	0.0	5.33	2.95	0.0	 j = d
0.0	0.55	5.51	0.0	0.28	10.19	0.0	0.55	11.57	2.48	38.57	0.28	13.77	0.55	1.1	3.58	1.1	3.31	0.28	0.0	2.48	1.1	1.1	0.0	0.0	1.65	0.0	 k = g
0.0	0.26	48.72	4.1	1.54	3.85	0.77	0.26	3.85	0.51	0.26	17.95	0.0	1.03	0.26	1.03	0.26	0.51	0.0	0.0	5.13	1.79	0.26	1.54	1.54	4.62	0.0	 l = f
0.42	0.0	4.62	1.13	1.47	0.42	0.97	2.35	9.7	0.76	1.3	0.08	58.94	0.08	3.36	3.95	0.34	2.35	0.55	0.42	1.01	0.55	0.5	0.97	1.01	2.56	0.21	 m = i
0.0	0.0	18.48	2.12	2.12	5.76	0.91	0.0	6.36	2.42	0.3	0.3	1.82	40.61	1.52	0.0	0.61	0.61	0.0	1.21	10.3	1.21	0.3	0.61	0.3	2.12	0.0	 n = j
0.11	0.0	1.59	3.3	1.36	3.07	0.11	3.52	6.93	1.14	2.16	0.0	3.98	0.0	50.8	8.3	1.25	5.68	0.0	0.45	0.0	0.8	2.05	0.11	1.93	1.36	0.0	 o = m
0.0	0.0	0.46	3.43	1.02	5.66	0.09	1.95	8.26	1.76	0.83	0.19	3.25	0.0	3.34	53.99	1.86	4.17	0.19	0.09	0.65	1.39	1.67	0.19	2.6	2.97	0.0	 p = l
0.04	1.14	10.51	3.27	1.43	11.79	0.49	1.9	5.36	5.65	1.59	0.18	0.47	0.02	1.37	5.44	37.75	1.86	0.02	0.31	0.34	0.81	3.52	0.72	2.98	1.03	0.0	 q = o
0.0	1.98	3.67	4.43	1.51	4.61	0.05	2.12	8.15	1.88	2.12	0.89	2.31	0.14	4.71	10.22	0.56	40.82	0.05	0.19	0.42	1.32	2.31	0.42	2.12	2.82	0.19	 r = n
1.79	0.0	34.05	0.36	0.0	3.94	1.08	0.0	3.94	0.0	0.0	0.36	5.38	0.36	0.0	1.79	0.72	1.08	16.85	1.08	23.66	0.72	0.36	0.36	0.0	2.15	0.0	 s = q
0.6	0.0	47.38	2.84	0.45	2.54	2.09	0.0	3.89	2.39	0.0	0.9	0.45	0.75	0.3	3.59	2.99	2.39	0.0	11.66	3.89	2.39	1.49	1.94	1.79	3.29	0.0	 t = p
0.24	0.07	36.36	1.52	0.37	1.62	0.51	0.24	1.79	0.74	0.51	0.27	2.6	0.3	0.24	1.08	1.15	1.72	0.17	0.34	41.96	1.75	0.51	0.57	0.98	2.43	0.0	 u = s
0.21	0.0	11.13	3.42	1.0	10.63	0.71	2.78	9.49	3.42	3.14	1.14	2.85	0.07	2.07	10.27	1.78	2.5	0.0	0.57	1.21	24.89	1.5	0.57	3.07	1.57	0.0	 v = r
0.14	0.36	1.3	0.65	0.58	3.82	0.51	2.53	4.69	1.37	1.01	0.07	0.22	0.0	2.53	6.35	6.2	2.96	0.07	0.43	0.29	0.58	58.23	1.15	2.16	1.8	0.0	 w = u
0.87	0.35	52.23	2.01	1.05	1.05	2.89	0.26	1.05	0.52	0.26	0.35	0.7	0.44	0.26	0.79	2.8	5.95	0.09	0.61	9.27	2.8	0.17	11.29	0.26	1.66	0.0	 x = t
0.0	2.95	1.27	1.05	1.9	1.27	0.0	2.32	10.55	5.49	1.48	0.0	1.69	0.0	5.06	8.65	2.74	2.11	0.0	0.21	0.21	5.27	0.21	1.48	42.62	1.48	0.0	 y = v
0.0	0.0	7.38	0.34	1.01	0.0	1.01	1.34	0.34	0.0	0.0	0.0	0.67	0.0	1.68	10.4	0.0	3.02	0.67	0.0	11.41	1.68	0.0	0.0	1.34	57.72	0.0	 z = y
0.0	0.0	100.0	0.0	0.0	0.0	0.0	0.0	0.0	0.0	0.0	0.0	0.0	0.0	0.0	0.0	0.0	0.0	0.0	0.0	0.0	0.0	0.0	0.0	0.0	0.0	0.0	 aa = z
