Timestamp:2014-12-07-10:38:19
Inventario:I0
Intervalo:3ms
Ngramas:3
Clasificador:NaiveBayes
Relation Name:  I0-3ms-3gramas
Num Instances:  61133
Num Attributes: 31

     Name                      Type  Nom  Int Real     Missing      Unique  Dist
   1 0Int(dB)                   Num   0%  10%  90%     0 /  0%     2 /  0%   776 
   2 0Pitch(Hz)                 Num   0%  52%  48%     0 /  0%   559 /  1%  3828 
   3 0RawPitch                  Num   0%  55%  45%     0 /  0%   613 /  1%  3808 
   4 0SmPitch                   Num   0%  53%  47%     0 /  0%   575 /  1%  3802 
   5 0Melogram(st)              Num   0%  49%  51%     0 /  0%   269 /  0%  3285 
   6 0ZCross                    Num   0% 100%   0%     0 /  0%     3 /  0%    50 
   7 0F1(Hz)                    Num   0%  52%  48%     0 /  0%  1075 /  2%  4783 
   8 0F2(Hz)                    Num   0%  52%  48%     0 /  0%  2270 /  4%  6724 
   9 0F3(Hz)                    Num   0%  52%  48%     0 /  0%  1945 /  3%  6241 
  10 0F4(Hz)                    Num   0%  52%  48%     0 /  0%  1922 /  3%  6122 
  11 1Int(dB)                   Num   0%  10%  90%     0 /  0%     2 /  0%   776 
  12 1Pitch(Hz)                 Num   0%  52%  48%     0 /  0%   559 /  1%  3828 
  13 1RawPitch                  Num   0%  55%  45%     0 /  0%   613 /  1%  3808 
  14 1SmPitch                   Num   0%  53%  47%     0 /  0%   575 /  1%  3802 
  15 1Melogram(st)              Num   0%  49%  51%     0 /  0%   269 /  0%  3285 
  16 1ZCross                    Num   0% 100%   0%     0 /  0%     3 /  0%    50 
  17 1F1(Hz)                    Num   0%  52%  48%     0 /  0%  1075 /  2%  4783 
  18 1F2(Hz)                    Num   0%  52%  48%     0 /  0%  2270 /  4%  6724 
  19 1F3(Hz)                    Num   0%  52%  48%     0 /  0%  1945 /  3%  6241 
  20 1F4(Hz)                    Num   0%  52%  48%     0 /  0%  1922 /  3%  6122 
  21 2Int(dB)                   Num   0%  10%  90%     0 /  0%     3 /  0%   777 
  22 2Pitch(Hz)                 Num   0%  52%  48%     0 /  0%   559 /  1%  3828 
  23 2RawPitch                  Num   0%  55%  45%     0 /  0%   613 /  1%  3808 
  24 2SmPitch                   Num   0%  53%  47%     0 /  0%   575 /  1%  3802 
  25 2Melogram(st)              Num   0%  49%  51%     0 /  0%   269 /  0%  3285 
  26 2ZCross                    Num   0% 100%   0%     0 /  0%     3 /  0%    50 
  27 2F1(Hz)                    Num   0%  52%  48%     0 /  0%  1075 /  2%  4783 
  28 2F2(Hz)                    Num   0%  52%  48%     0 /  0%  2270 /  4%  6724 
  29 2F3(Hz)                    Num   0%  52%  48%     0 /  0%  1945 /  3%  6241 
  30 2F4(Hz)                    Num   0%  52%  48%     0 /  0%  1922 /  3%  6122 
  31 class                      Nom 100%   0%   0%     0 /  0%     0 /  0%    27 


Naive Bayes Classifier

                    Class
Attribute              ch        rr         0        hs        hg         a         c         b         e         d         g         f         i         j         m         l         o         n         q         p         s         r         u         t         v         y         z
                      (0)       (0)    (0.39)    (0.01)       (0)    (0.14)    (0.01)    (0.01)    (0.08)    (0.01)    (0.01)    (0.01)    (0.04)    (0.01)    (0.01)    (0.02)    (0.07)    (0.03)       (0)    (0.01)    (0.05)    (0.02)    (0.02)    (0.02)    (0.01)       (0)       (0)
==============================================================================================================================================================================================================================================================================================
0Int(dB)
  mean            -19.9936  -10.2821  -48.3096  -19.9632  -11.1499   -2.9704  -25.9741   -6.0419   -5.3093   -7.9123   -7.6283  -21.6022   -8.9731   -15.553   -7.6681   -8.1955    -8.186   -8.9753  -23.7359  -23.6951   -21.311  -11.6455   -5.5524  -27.1185   -9.4384  -16.4203  -27.1225
  std. dev.          8.799    4.5778   16.2241   11.2123    6.1061    8.4572    9.9461    4.3058    8.2373    6.1046    7.9844    5.7466    8.4929    6.2728    6.1881    5.5901   12.1008    7.4484   12.0952   10.3982    6.7973    9.2316    8.2298    9.4642    7.2529    5.0274    2.1763
  weight sum           289        72     23724       656       166      8763       913       399      4621       881       363       390      2382       330       880      1078      4463      2124       279       669      2965      1402      1386      1143       474       298        23
  precision         0.1044    0.1044    0.1044    0.1044    0.1044    0.1044    0.1044    0.1044    0.1044    0.1044    0.1044    0.1044    0.1044    0.1044    0.1044    0.1044    0.1044    0.1044    0.1044    0.1044    0.1044    0.1044    0.1044    0.1044    0.1044    0.1044    0.1044

0Pitch(Hz)
  mean             51.7515  243.6091   16.8261   88.1577  146.1484  226.1137   42.6301  215.2472  188.9058  202.1732  212.4122   83.3863  172.0827  156.2681  193.3952   174.535  179.2936   191.739   79.9278   80.1816   51.3157  161.3824  228.1408    62.906  176.5997   113.747         0
  std. dev.        99.4781  120.4384   56.5383   87.7594   37.2723  103.9013   88.0982    72.645   88.6428   84.1187   99.4933  118.4168   77.7161  131.1085   86.8212   64.4942  105.6064   88.9018  113.6795  116.3338    92.457   94.6139   87.2319  106.4942   74.9254    69.215    0.0217
  weight sum           289        72     23724       656       166      8763       913       399      4621       881       363       390      2382       330       880      1078      4463      2124       279       669      2965      1402      1386      1143       474       298        23
  precision         0.1303    0.1303    0.1303    0.1303    0.1303    0.1303    0.1303    0.1303    0.1303    0.1303    0.1303    0.1303    0.1303    0.1303    0.1303    0.1303    0.1303    0.1303    0.1303    0.1303    0.1303    0.1303    0.1303    0.1303    0.1303    0.1303    0.1303

0RawPitch
  mean             36.0714  234.8331    13.799    70.331  125.9222  216.5076   28.5916  212.6251  184.5166  196.0755  200.9562   44.2201   164.127   98.0998  182.2858  159.0286  173.0126  178.9262   43.0834   59.6586   30.3659  155.4697  219.2103   38.0427   162.209   78.5481         0
  std. dev.        86.3403  128.3072   50.8222   86.1069   73.3146  109.5529     73.23   75.8109   95.0659    93.992  111.3443   85.6843    83.993  112.1179   97.6326   77.3089  112.4306  101.8806   93.4908  108.4587   74.7045  101.0405   94.8961   87.1034   86.4484     77.53    0.0218
  weight sum           289        72     23724       656       166      8763       913       399      4621       881       363       390      2382       330       880      1078      4463      2124       279       669      2965      1402      1386      1143       474       298        23
  precision          0.131     0.131     0.131     0.131     0.131     0.131     0.131     0.131     0.131     0.131     0.131     0.131     0.131     0.131     0.131     0.131     0.131     0.131     0.131     0.131     0.131     0.131     0.131     0.131     0.131     0.131     0.131

0SmPitch
  mean             49.7693  243.6099    15.183   81.4166  148.0911  224.3096   35.5655  215.2432  187.1933   201.397  210.8602   65.6641  169.4288  112.2002  190.8854  173.2505  177.1572  189.3702   63.6195   71.3448   43.8341  158.4217  227.7542   51.6954  172.8045  108.5197         0
  std. dev.        97.6205  120.4448    52.654   85.0181   35.1754  105.5763   82.3546   72.6414   90.0322   85.6399  101.3118  102.6473   80.1407  137.8981   90.4757   66.0665  107.7873   91.3798  105.2692   114.316   87.5743   96.2399   87.2767   99.4562   79.0612   71.3229    0.0219
  weight sum           289        72     23724       656       166      8763       913       399      4621       881       363       390      2382       330       880      1078      4463      2124       279       669      2965      1402      1386      1143       474       298        23
  precision         0.1312    0.1312    0.1312    0.1312    0.1312    0.1312    0.1312    0.1312    0.1312    0.1312    0.1312    0.1312    0.1312    0.1312    0.1312    0.1312    0.1312    0.1312    0.1312    0.1312    0.1312    0.1312    0.1312    0.1312    0.1312    0.1312    0.1312

0Melogram(st)
  mean             14.6249   56.5246     4.955   26.9086   48.9647   53.1383   12.3162   55.1353   50.2427   52.9912   51.3216   22.1701   48.1463    16.825   50.8756   51.3118   46.6963   50.3143   17.3996   20.3871   13.9444   43.1037   53.5545   14.8685    50.247   40.1914         0
  std. dev.        25.2031      8.88   15.6686    25.111    5.8969   14.8987   23.2782    7.3613   15.7114     11.36   17.4461   27.2791    16.741   26.5483   14.5425    9.1798    20.402   16.1193   26.3327   27.5538   23.9912   22.2754    15.256   25.2946   12.2573   18.3872    0.0042
  weight sum           289        72     23724       656       166      8763       913       399      4621       881       363       390      2382       330       880      1078      4463      2124       279       669      2965      1402      1386      1143       474       298        23
  precision         0.0252    0.0252    0.0252    0.0252    0.0252    0.0252    0.0252    0.0252    0.0252    0.0252    0.0252    0.0252    0.0252    0.0252    0.0252    0.0252    0.0252    0.0252    0.0252    0.0252    0.0252    0.0252    0.0252    0.0252    0.0252    0.0252    0.0252

0ZCross
  mean               8.324    3.4413    0.2433     1.064    3.1044    7.5265    1.4117    3.7726    4.9486    3.6786    4.3935     0.683    3.5738    3.7647    2.8421    3.1974    4.0411    2.5089    4.0443    0.8259     3.611    3.1065    3.7945    0.5598    3.0063    1.5029         0
  std. dev.        12.7058    2.5971    1.0804     1.717    2.3032    4.4225    3.4583    1.6953    3.2071    2.1134    2.7825    1.5768    3.2163    3.7708    1.4404    1.9434    2.9298    1.5756    7.2139    2.1464    6.9497    2.4631    2.8295    1.3734    1.7698    1.7228    0.1939
  weight sum           289        72     23724       656       166      8763       913       399      4621       881       363       390      2382       330       880      1078      4463      2124       279       669      2965      1402      1386      1143       474       298        23
  precision         1.1633    1.1633    1.1633    1.1633    1.1633    1.1633    1.1633    1.1633    1.1633    1.1633    1.1633    1.1633    1.1633    1.1633    1.1633    1.1633    1.1633    1.1633    1.1633    1.1633    1.1633    1.1633    1.1633    1.1633    1.1633    1.1633    1.1633

0F1(Hz)
  mean            149.2382  598.1656   54.3872  398.8292  446.6654  697.9583   88.4145  476.4709  458.5411  515.5991  495.6713  289.1851  356.2706  456.7683  432.6942  474.2056  479.3315  474.0563  180.7184  234.2936  198.4629  488.1452  491.2079  115.2557  483.0395  344.0107         0
  std. dev.       268.7008  132.8905  167.8352  295.7018    82.438  264.1447  201.9238  133.0036  152.8966  152.8143  192.9817  336.6982   151.878  339.4874  164.9188  143.2847  229.0643  155.8048  246.0319  297.9488  289.8418   236.494  314.7115  210.9403  172.7087  183.8546    0.0607
  weight sum           289        72     23724       656       166      8763       913       399      4621       881       363       390      2382       330       880      1078      4463      2124       279       669      2965      1402      1386      1143       474       298        23
  precision         0.3642    0.3642    0.3642    0.3642    0.3642    0.3642    0.3642    0.3642    0.3642    0.3642    0.3642    0.3642    0.3642    0.3642    0.3642    0.3642    0.3642    0.3642    0.3642    0.3642    0.3642    0.3642    0.3642    0.3642    0.3642    0.3642    0.3642

0F2(Hz)
  mean            444.9315 1659.8855  169.8219 1150.5521 1935.1869 1446.6537  263.2268 1582.3712 1759.9732 1483.1122 1698.0593  748.0315 1927.6297 1303.0173 1663.2334 1666.9065  1139.398 1607.2819  727.5921  695.1881  617.0261 1369.3342 1035.0423  384.7197 1552.3339 1349.5226         0
  std. dev.       767.9997  131.6108  518.3697  832.8053  354.3601  420.5834  615.5829  347.2603  557.1365  317.3199  587.1878  851.0634  710.1468  900.6146  453.7951  350.6546  546.4539  447.0903  958.9795  852.7715  873.7945  614.9232  450.7523   683.442  436.2916  656.3398    0.0738
  weight sum           289        72     23724       656       166      8763       913       399      4621       881       363       390      2382       330       880      1078      4463      2124       279       669      2965      1402      1386      1143       474       298        23
  precision         0.4431    0.4431    0.4431    0.4431    0.4431    0.4431    0.4431    0.4431    0.4431    0.4431    0.4431    0.4431    0.4431    0.4431    0.4431    0.4431    0.4431    0.4431    0.4431    0.4431    0.4431    0.4431    0.4431    0.4431    0.4431    0.4431    0.4431

0F3(Hz)
  mean            742.5605 2857.5611  290.0514  1880.015 2531.0496 2696.6583  479.7474 2755.3926 2590.6505 2867.7838 2903.3775  1279.894 2603.7866 1910.9274 2750.9703 2800.5119 2481.3348 2773.7449  1090.383  1173.423 1027.0764  2379.903 2624.5033  702.0478 2649.6795 2336.2837         0
  std. dev.      1282.7234  403.5958  869.7551 1291.5495  115.1927  771.9424 1084.8658  466.0183   826.473  489.8996  921.0225 1450.2735   977.692 1313.9569  595.8806  587.9798 1040.3144  651.5815 1397.9352 1427.8284  1436.786 1074.4256  861.9955 1234.9588  712.8436 1153.2014      0.11
  weight sum           289        72     23724       656       166      8763       913       399      4621       881       363       390      2382       330       880      1078      4463      2124       279       669      2965      1402      1386      1143       474       298        23
  precision         0.6602    0.6602    0.6602    0.6602    0.6602    0.6602    0.6602    0.6602    0.6602    0.6602    0.6602    0.6602    0.6602    0.6602    0.6602    0.6602    0.6602    0.6602    0.6602    0.6602    0.6602    0.6602    0.6602    0.6602    0.6602    0.6602    0.6602

0F4(Hz)
  mean            869.8467  3253.288  348.5104 2334.1747 3589.1043 3106.2985  547.0015 3302.3329 3124.7953 3327.0352 2939.9367 1463.5817 3100.6951 2382.9221   3297.85 3228.0335 2858.4583 3179.5123 1323.0481  1388.764 1158.3341 2765.0003 3006.9754  805.7066 3208.4845 2695.1005         0
  std. dev.       1502.527  415.1975  1042.791 1589.4682   91.7681  877.0562 1239.7491  445.1166  964.1286  534.3496  934.5647 1647.5371 1123.6536 1625.1897  648.8061  601.5205 1181.9837  748.6223 1708.3575 1669.1522 1617.9319 1192.4621  902.9144 1421.4216  764.1853 1317.1939    0.1129
  weight sum           289        72     23724       656       166      8763       913       399      4621       881       363       390      2382       330       880      1078      4463      2124       279       669      2965      1402      1386      1143       474       298        23
  precision         0.6775    0.6775    0.6775    0.6775    0.6775    0.6775    0.6775    0.6775    0.6775    0.6775    0.6775    0.6775    0.6775    0.6775    0.6775    0.6775    0.6775    0.6775    0.6775    0.6775    0.6775    0.6775    0.6775    0.6775    0.6775    0.6775    0.6775

1Int(dB)
  mean            -19.6045  -10.7359  -48.4234  -20.6613  -10.9468   -2.9038  -24.9992    -5.983   -5.2147   -7.8485   -7.6838  -21.9074    -8.825  -15.7349   -7.6295   -8.2406   -8.1561   -9.2153   -22.777  -23.0692  -21.5782  -11.8322   -5.2953  -26.0649   -9.2887  -16.3972  -27.1089
  std. dev.         8.4766    4.4858   16.0582    11.264    6.2491    8.2769    9.9604    4.3042    8.1108    6.1433    8.0063    5.4948    8.4293    6.1333    6.0498    5.6463   12.1343    7.6319   11.5769   10.5151    6.6353    9.3217    7.8625    9.9422    6.8079    4.8213    2.1562
  weight sum           289        72     23724       656       166      8763       913       399      4621       881       363       390      2382       330       880      1078      4463      2124       279       669      2965      1402      1386      1143       474       298        23
  precision         0.1044    0.1044    0.1044    0.1044    0.1044    0.1044    0.1044    0.1044    0.1044    0.1044    0.1044    0.1044    0.1044    0.1044    0.1044    0.1044    0.1044    0.1044    0.1044    0.1044    0.1044    0.1044    0.1044    0.1044    0.1044    0.1044    0.1044

1Pitch(Hz)
  mean             53.0447  243.6109   16.2544   84.0265  146.7969  226.5604   50.8978  215.2668  190.0809  202.0027  212.1825   79.0516  173.0172   155.177  193.8298  174.5421    179.07  190.4227   84.2846   81.8269   47.6853  161.5632   229.415   70.0517   177.836  113.8375         0
  std. dev.       100.7407  121.1132   55.6483   87.1965   37.9983   103.385   95.1804   72.3685   87.8538   84.4676  100.3526  116.8139   76.7882   130.778   86.7404   64.1915  105.2101   89.8055  115.9655  115.3898   90.0179   95.0481   85.2349  109.9001   73.0885   69.2084    0.0217
  weight sum           289        72     23724       656       166      8763       913       399      4621       881       363       390      2382       330       880      1078      4463      2124       279       669      2965      1402      1386      1143       474       298        23
  precision         0.1303    0.1303    0.1303    0.1303    0.1303    0.1303    0.1303    0.1303    0.1303    0.1303    0.1303    0.1303    0.1303    0.1303    0.1303    0.1303    0.1303    0.1303    0.1303    0.1303    0.1303    0.1303    0.1303    0.1303    0.1303    0.1303    0.1303

1RawPitch
  mean             37.5218  233.0192   13.3299   66.0701  126.8755  217.0892   35.1933  212.6875  185.5537   195.986  201.2961   40.9502  165.5748   95.7641   182.691  158.2832  172.9408  177.3346   43.8765   61.7046   26.5841  155.6187  220.5485   44.3574  163.4913   78.4487         0
  std. dev.        87.6032  131.1754   50.0219   84.4174   74.1476   108.988   81.2248   75.4521   94.6689   94.0584   111.593   82.2165   83.1744  110.7962   97.6648   77.6752  112.1655  102.7294   92.4393  108.2125   70.1815  101.2738   93.0837    91.741     84.69   77.4231    0.0218
  weight sum           289        72     23724       656       166      8763       913       399      4621       881       363       390      2382       330       880      1078      4463      2124       279       669      2965      1402      1386      1143       474       298        23
  precision          0.131     0.131     0.131     0.131     0.131     0.131     0.131     0.131     0.131     0.131     0.131     0.131     0.131     0.131     0.131     0.131     0.131     0.131     0.131     0.131     0.131     0.131     0.131     0.131     0.131     0.131     0.131

1SmPitch
  mean             50.0403  243.6154   14.6603   77.2882  148.7384   224.793   42.8652  215.2622  188.4788  201.3343    210.63    61.329  170.4827  111.1232   190.939  172.9414   176.912  187.9132   66.3564   72.6147   40.2184  158.6783  229.0404    59.126  174.2215  108.6012         0
  std. dev.        97.9176   121.119   51.7904   84.1076   35.9087  105.0105    89.863   72.3668   89.1689   85.7678  102.1531  100.0281   79.2893  137.2341    90.948   66.1933  107.4207   92.3102  107.5613  113.3626   84.5527   96.5949   85.2781   104.139   77.2865   71.3254    0.0219
  weight sum           289        72     23724       656       166      8763       913       399      4621       881       363       390      2382       330       880      1078      4463      2124       279       669      2965      1402      1386      1143       474       298        23
  precision         0.1312    0.1312    0.1312    0.1312    0.1312    0.1312    0.1312    0.1312    0.1312    0.1312    0.1312    0.1312    0.1312    0.1312    0.1312    0.1312    0.1312    0.1312    0.1312    0.1312    0.1312    0.1312    0.1312    0.1312    0.1312    0.1312    0.1312

1Melogram(st)
  mean             15.2704   56.4746    4.8138   25.7986   49.3549   53.3068   14.0041    55.143   50.4808   52.9769   51.1937   21.2057    48.407   16.3654   50.8971   51.2035    46.671   49.9698   18.4246   20.9157   12.9456   43.0986   54.1306   16.5965   50.6047    40.204         0
  std. dev.        25.6147    8.9359   15.4725   25.1082    4.5649   14.5692   24.4479    7.3503   15.3557    11.374   17.6599   27.0683   16.3656   26.3777   14.5478    9.4371   20.3864   16.5749   26.7557   27.5522   23.4215   22.3166   14.2012    26.151   11.5705   18.3904    0.0042
  weight sum           289        72     23724       656       166      8763       913       399      4621       881       363       390      2382       330       880      1078      4463      2124       279       669      2965      1402      1386      1143       474       298        23
  precision         0.0252    0.0252    0.0252    0.0252    0.0252    0.0252    0.0252    0.0252    0.0252    0.0252    0.0252    0.0252    0.0252    0.0252    0.0252    0.0252    0.0252    0.0252    0.0252    0.0252    0.0252    0.0252    0.0252    0.0252    0.0252    0.0252    0.0252

1ZCross
  mean               8.489    3.3444    0.2298    0.9966    3.1604    7.5394    1.5493     3.863    4.9388    3.7314    4.3679    0.6234    3.5777    3.7436    2.8249    3.1812    4.0484    2.4421    4.2111    0.8868    3.6106    3.0525    3.8272    0.6961    3.0137    1.4912         0
  std. dev.         12.787    2.6007    1.0464    1.7046    2.3504    4.4124    3.5218    1.7383    3.1975     2.116    2.7571    1.5029    3.1538     3.781     1.406    1.9093    2.8985    1.5266    7.2153    2.1292     6.988    2.4195    2.8121    1.5181    1.7401    1.7078    0.1939
  weight sum           289        72     23724       656       166      8763       913       399      4621       881       363       390      2382       330       880      1078      4463      2124       279       669      2965      1402      1386      1143       474       298        23
  precision         1.1633    1.1633    1.1633    1.1633    1.1633    1.1633    1.1633    1.1633    1.1633    1.1633    1.1633    1.1633    1.1633    1.1633    1.1633    1.1633    1.1633    1.1633    1.1633    1.1633    1.1633    1.1633    1.1633    1.1633    1.1633    1.1633    1.1633

1F1(Hz)
  mean             141.645  603.0674    52.722   384.784  446.2178  705.0561   94.4766  477.4468  462.8688  516.4354  493.7188  273.3116  360.2165  452.4804  431.7605  471.9862   483.672  467.0929  180.2536   231.865  183.6771  485.2774  496.5514  117.3276  482.8358  341.5369         0
  std. dev.       262.3972  135.0893  165.2486  299.6463   83.6969  257.0474  207.9472  132.8331  146.9719  152.9405  193.5409  333.7331    146.32   344.254  163.6131  140.0641  226.1449  156.0634  246.5083  294.8658  283.7015  236.1252  309.2602  213.2675  168.5953  183.8953    0.0607
  weight sum           289        72     23724       656       166      8763       913       399      4621       881       363       390      2382       330       880      1078      4463      2124       279       669      2965      1402      1386      1143       474       298        23
  precision         0.3642    0.3642    0.3642    0.3642    0.3642    0.3642    0.3642    0.3642    0.3642    0.3642    0.3642    0.3642    0.3642    0.3642    0.3642    0.3642    0.3642    0.3642    0.3642    0.3642    0.3642    0.3642    0.3642    0.3642    0.3642    0.3642    0.3642

1F2(Hz)
  mean            427.8683 1649.5966   165.045 1110.6043 1931.8747 1456.7095  277.1651 1576.1073 1781.0424 1482.7607 1690.1635  711.0984 1961.8033 1273.6584 1666.1853 1669.0553 1142.8991 1599.9194  720.0537  688.7812  572.1167  1367.669 1050.0402  389.7194 1567.0717 1347.5288         0
  std. dev.       759.4217  128.5092  511.9472  844.4516  350.6376  402.3282  624.4934   345.027  532.5896  319.5763  594.0469  846.9056  680.1225  905.9766  443.7597  340.1256  536.7971   453.953  955.2282  845.5644  857.3759  617.6943  432.2873  688.3695  413.6827  662.3656    0.0738
  weight sum           289        72     23724       656       166      8763       913       399      4621       881       363       390      2382       330       880      1078      4463      2124       279       669      2965      1402      1386      1143       474       298        23
  precision         0.4431    0.4431    0.4431    0.4431    0.4431    0.4431    0.4431    0.4431    0.4431    0.4431    0.4431    0.4431    0.4431    0.4431    0.4431    0.4431    0.4431    0.4431    0.4431    0.4431    0.4431    0.4431    0.4431    0.4431    0.4431    0.4431    0.4431

1F3(Hz)
  mean             707.708 2858.6523  281.5731 1813.3756 2527.8161 2716.3116  508.5051 2752.2917 2615.4812 2867.2974 2894.0835 1211.3864 2642.4014  1874.533 2751.1286 2809.4292 2498.5172 2762.5242 1079.1805 1166.7586  951.3499  2376.762 2665.1247  706.0305 2671.7957 2324.6345         0
  std. dev.      1256.6343  410.6124  858.2629 1314.7793  113.9825  739.9882 1106.6488  466.8815  792.6591  499.4354   933.351 1437.6125   937.499 1323.7223  581.4549  577.7166 1024.1918   668.733 1394.1902 1419.9233 1409.3318  1080.231  803.6971  1235.641  674.1267 1158.5468      0.11
  weight sum           289        72     23724       656       166      8763       913       399      4621       881       363       390      2382       330       880      1078      4463      2124       279       669      2965      1402      1386      1143       474       298        23
  precision         0.6602    0.6602    0.6602    0.6602    0.6602    0.6602    0.6602    0.6602    0.6602    0.6602    0.6602    0.6602    0.6602    0.6602    0.6602    0.6602    0.6602    0.6602    0.6602    0.6602    0.6602    0.6602    0.6602    0.6602    0.6602    0.6602    0.6602

1F4(Hz)
  mean            837.3664 3248.0373  338.5791 2253.0612 3589.5532 3127.8318  586.5008 3300.9049 3152.5297  3324.975 2934.4812 1389.8901 3143.1187 2343.9636 3303.8875 3235.5627 2876.7808 3168.6566 1307.4461 1391.0821 1073.8381   2756.89 3052.6473  813.3891 3237.2541 2686.1611         0
  std. dev.      1486.5336  408.9504 1029.6891 1619.9647   90.9769  839.5435 1278.7059  442.7817  921.2174  545.8289  948.5863 1639.0113 1073.3319  1642.708  630.9786  585.4975 1161.8705  770.9632 1700.6345 1671.3759 1588.4958 1198.7223  827.1813 1428.2552  705.6697  1327.065    0.1129
  weight sum           289        72     23724       656       166      8763       913       399      4621       881       363       390      2382       330       880      1078      4463      2124       279       669      2965      1402      1386      1143       474       298        23
  precision         0.6775    0.6775    0.6775    0.6775    0.6775    0.6775    0.6775    0.6775    0.6775    0.6775    0.6775    0.6775    0.6775    0.6775    0.6775    0.6775    0.6775    0.6775    0.6775    0.6775    0.6775    0.6775    0.6775    0.6775    0.6775    0.6775    0.6775

2Int(dB)
  mean            -19.1309  -11.0566  -48.5187  -21.3443  -10.6689   -2.9029  -23.8998   -5.8815   -5.2154   -7.7207   -7.7144  -22.1122    -8.745  -15.7949   -7.5852   -8.2304    -8.205   -9.4674  -21.7073   -22.303  -21.7774  -11.9296   -5.0964  -24.7837   -9.0867  -16.2984   -27.151
  std. dev.         8.2302     4.341   15.9245   11.3134    6.4127    8.1774    10.048     4.314     8.061    6.1865    7.9877    5.3257    8.4284     6.103    5.9771     5.768   12.2015    7.8333   11.1802   10.6956    6.5743    9.4955    7.5403   10.5316    6.4709    4.7071    2.2431
  weight sum           289        72     23724       656       166      8763       913       399      4621       881       363       390      2382       330       880      1078      4463      2124       279       669      2965      1402      1386      1143       474       298        23
  precision         0.1043    0.1043    0.1043    0.1043    0.1043    0.1043    0.1043    0.1043    0.1043    0.1043    0.1043    0.1043    0.1043    0.1043    0.1043    0.1043    0.1043    0.1043    0.1043    0.1043    0.1043    0.1043    0.1043    0.1043    0.1043    0.1043    0.1043

2Pitch(Hz)
  mean             57.2926  243.6833   15.7169   79.9944  147.5913   226.621   60.4216  215.3119  190.6854  201.8505  211.9581   76.6061  173.6379  154.1093    194.15  174.4069  178.3171  189.1463   90.0832   85.0097   45.1599  161.7188   230.256   78.6084  178.8974  113.9875         0
  std. dev.       103.6809  121.7943   54.8012   86.5333   38.8775  103.2128  101.9126   72.0861   87.4198   84.7618   101.191  115.9204   76.0641  130.4811   86.8219    64.136  105.1185   90.7082  118.9842  114.5412    88.338   95.5111   83.5916  113.5628   71.7887   69.2177    0.0217
  weight sum           289        72     23724       656       166      8763       913       399      4621       881       363       390      2382       330       880      1078      4463      2124       279       669      2965      1402      1386      1143       474       298        23
  precision         0.1303    0.1303    0.1303    0.1303    0.1303    0.1303    0.1303    0.1303    0.1303    0.1303    0.1303    0.1303    0.1303    0.1303    0.1303    0.1303    0.1303    0.1303    0.1303    0.1303    0.1303    0.1303    0.1303    0.1303    0.1303    0.1303    0.1303

2RawPitch
  mean             39.8485  234.3892   12.8471   62.1704   129.542  217.1337    43.308  212.7712  186.0468  195.7565  201.5263   38.1953  166.4491     94.58  183.0776  157.9907  172.3446  175.4321   49.6468   64.9618   23.9913  155.5984   221.377   53.7764  164.8761   79.1943         0
  std. dev.        89.0351  131.0658   49.2585   82.8608   75.8327   108.934   89.2099   75.1283   94.2836    93.879  111.8555   79.1883   82.7406  109.6497   97.7579   78.0879   111.886  103.7454   97.7558  108.2823   66.8443  101.9004   91.8259   98.3045   82.9596   77.1668    0.0218
  weight sum           289        72     23724       656       166      8763       913       399      4621       881       363       390      2382       330       880      1078      4463      2124       279       669      2965      1402      1386      1143       474       298        23
  precision          0.131     0.131     0.131     0.131     0.131     0.131     0.131     0.131     0.131     0.131     0.131     0.131     0.131     0.131     0.131     0.131     0.131     0.131     0.131     0.131     0.131     0.131     0.131     0.131     0.131     0.131     0.131

2SmPitch
  mean             52.8659  243.6883   14.1437   73.2597  149.5327  224.9684   51.9976  215.3073  189.2421  201.2862  210.4051   58.8759  171.0176  110.0585  190.8812   172.492  176.2127  186.0892   71.1737   75.7198   37.5887  158.9145   229.966   68.0467   175.782  108.7328         0
  std. dev.       100.3428  121.7968   50.9153   83.0946    36.794  104.7042   97.4937   72.0825   88.6477   85.8449  102.9728   98.5289   78.8205  136.6015   91.5707   66.5539  107.2818    93.569  111.1712  112.6926   82.2568   96.9797   83.6261  108.9491   75.5882   71.3475    0.0219
  weight sum           289        72     23724       656       166      8763       913       399      4621       881       363       390      2382       330       880      1078      4463      2124       279       669      2965      1402      1386      1143       474       298        23
  precision         0.1312    0.1312    0.1312    0.1312    0.1312    0.1312    0.1312    0.1312    0.1312    0.1312    0.1312    0.1312    0.1312    0.1312    0.1312    0.1312    0.1312    0.1312    0.1312    0.1312    0.1312    0.1312    0.1312    0.1312    0.1312    0.1312    0.1312

2Melogram(st)
  mean             16.2714   56.4407    4.6712   24.6982   49.4313   53.3894   15.8736   55.1544   50.6147   52.9664   51.0657    20.695   48.6212   16.3146   50.9332   51.1007   46.5702   49.6579     19.67   21.7002   12.2041   43.0879   54.4863    18.711   50.8737   40.2278         0
  std. dev.         26.128    8.9923   15.2685   25.0657    4.6213   14.3758   25.5384    7.3375   15.1287   11.3858   17.8701   26.9749   16.0378   26.4707   14.5558    9.6857    20.439    16.981   27.2243    27.606   22.9897   22.3579   13.4335   27.0038   11.0856    18.398    0.0042
  weight sum           289        72     23724       656       166      8763       913       399      4621       881       363       390      2382       330       880      1078      4463      2124       279       669      2965      1402      1386      1143       474       298        23
  precision         0.0252    0.0252    0.0252    0.0252    0.0252    0.0252    0.0252    0.0252    0.0252    0.0252    0.0252    0.0252    0.0252    0.0252    0.0252    0.0252    0.0252    0.0252    0.0252    0.0252    0.0252    0.0252    0.0252    0.0252    0.0252    0.0252    0.0252

2ZCross
  mean              8.5896    3.2959    0.2221    0.9327    3.2585    7.5244    1.6729    3.9359    4.9156    3.8027    4.3582    0.5846    3.5967    3.7119    2.8341    3.1823    4.0424    2.3944     4.307     0.979    3.5996    3.0351    3.8515    0.8946    3.0554    1.5146         0
  std. dev.        12.7749    2.6156    1.0405    1.6812    2.4065    4.4211    3.5391    1.7782    3.2034    2.1182    2.7159    1.4661    3.1513    3.7813    1.3988     1.884    2.9091    1.5238    7.1567    2.1273    6.9991    2.4104    2.7932       1.7     1.742    1.7005    0.1939
  weight sum           289        72     23724       656       166      8763       913       399      4621       881       363       390      2382       330       880      1078      4463      2124       279       669      2965      1402      1386      1143       474       298        23
  precision         1.1633    1.1633    1.1633    1.1633    1.1633    1.1633    1.1633    1.1633    1.1633    1.1633    1.1633    1.1633    1.1633    1.1633    1.1633    1.1633    1.1633    1.1633    1.1633    1.1633    1.1633    1.1633    1.1633    1.1633    1.1633    1.1633    1.1633

2F1(Hz)
  mean            134.0304  608.6065   50.9748  370.8809  446.6215  711.1854  103.4879  478.6471  466.9426  517.5707  493.2121  257.3532  363.5983  447.9045  431.1649  470.5344  486.8876   460.667  182.3828   232.006  169.5554  483.1726  501.4313  124.9647  483.3099  340.6239         0
  std. dev.       255.4969  136.8825  162.6166  302.9978   85.8468  250.8735   215.266  132.4441  141.0764   152.918  192.4513  329.9021  141.2908  348.6185  162.2572  137.0126  224.2029  156.4058    246.94  292.2556  276.6965  234.5445  304.2361  218.7114  163.8664  183.0212    0.0607
  weight sum           289        72     23724       656       166      8763       913       399      4621       881       363       390      2382       330       880      1078      4463      2124       279       669      2965      1402      1386      1143       474       298        23
  precision         0.3642    0.3642    0.3642    0.3642    0.3642    0.3642    0.3642    0.3642    0.3642    0.3642    0.3642    0.3642    0.3642    0.3642    0.3642    0.3642    0.3642    0.3642    0.3642    0.3642    0.3642    0.3642    0.3642    0.3642    0.3642    0.3642    0.3642

2F2(Hz)
  mean            410.8756 1638.7108  159.7012 1070.4154 1925.4529 1464.9921  302.3623 1571.3768 1800.7234 1482.7798 1687.2659  674.1402 1991.3969 1244.3036 1668.8094  1670.994 1143.6165 1592.8805  725.7135  689.6151  529.8886 1370.3938 1063.4653  415.3561  1582.791 1351.3498         0
  std. dev.       750.4936  126.0433  504.4931  853.6499  351.1186  386.1433  643.6399   343.705  507.5736    322.46  594.1662  841.0747  651.9928  910.3629  433.9806  329.5639  529.3781   460.739  954.4333  839.5096  839.1176  618.0853  414.3404  708.2955  389.8601  664.0945    0.0738
  weight sum           289        72     23724       656       166      8763       913       399      4621       881       363       390      2382       330       880      1078      4463      2124       279       669      2965      1402      1386      1143       474       298        23
  precision         0.4431    0.4431    0.4431    0.4431    0.4431    0.4431    0.4431    0.4431    0.4431    0.4431    0.4431    0.4431    0.4431    0.4431    0.4431    0.4431    0.4431    0.4431    0.4431    0.4431    0.4431    0.4431    0.4431    0.4431    0.4431    0.4431    0.4431

2F3(Hz)
  mean            672.5356 2860.0461   272.306  1746.696 2525.2826 2732.7922  556.6205 2749.6624  2638.722 2866.4836 2893.5233 1142.9212 2676.1136 1837.9646 2751.9434 2818.3643 2509.8227 2751.6432 1088.8543 1172.1015  879.9332 2378.9471  2701.015  743.7442 2694.3199 2324.5104         0
  std. dev.       1228.457   417.525  845.5117 1334.2803  112.9788    712.03 1144.0071  467.7999  758.2975  508.9155  933.1946 1421.5854  900.3451 1332.3169  566.7825   567.257 1013.4676  685.4656 1396.2439  1413.788 1378.3878 1080.1857  745.1651 1257.3577  632.0142 1157.9491      0.11
  weight sum           289        72     23724       656       166      8763       913       399      4621       881       363       390      2382       330       880      1078      4463      2124       279       669      2965      1402      1386      1143       474       298        23
  precision         0.6602    0.6602    0.6602    0.6602    0.6602    0.6602    0.6602    0.6602    0.6602    0.6602    0.6602    0.6602    0.6602    0.6602    0.6602    0.6602    0.6602    0.6602    0.6602    0.6602    0.6602    0.6602    0.6602    0.6602    0.6602    0.6602    0.6602

2F4(Hz)
  mean            804.6681 3242.8713  327.6383 2171.6193 3590.4838 3145.5664  647.7106 3299.4904  3179.034 3322.1873 2936.8721   1316.03 3179.5458 2305.1837 3309.3984  3243.195  2888.156 3157.8057 1313.0507 1407.7959  995.2684 2757.3675 3093.8479  860.4427  3265.765 2686.8886         0
  std. dev.      1469.2433  402.6487 1014.9346 1645.6702   89.5848  806.5713 1332.4515   440.844  877.8457  556.6252  950.2793 1626.8785  1026.953  1659.267  612.3136  568.8859 1148.0627  792.5274 1695.0534 1675.5478 1556.8632 1199.2031  750.1771 1459.7094  640.7738 1327.8399    0.1129
  weight sum           289        72     23724       656       166      8763       913       399      4621       881       363       390      2382       330       880      1078      4463      2124       279       669      2965      1402      1386      1143       474       298        23
  precision         0.6775    0.6775    0.6775    0.6775    0.6775    0.6775    0.6775    0.6775    0.6775    0.6775    0.6775    0.6775    0.6775    0.6775    0.6775    0.6775    0.6775    0.6775    0.6775    0.6775    0.6775    0.6775    0.6775    0.6775    0.6775    0.6775    0.6775





=== Stratified cross-validation ===

Correctly Classified Instances       18040               29.5094 %
Incorrectly Classified Instances     43093               70.4906 %
Kappa statistic                          0.2203
K&B Relative Info Score            1064187.2276 %
K&B Information Score                35131.7314 bits      0.5747 bits/instance
Class complexity | order 0          201727.1617 bits      3.2998 bits/instance
Class complexity | scheme          3515042.2736 bits     57.4983 bits/instance
Complexity improvement     (Sf)    -3313315.1118 bits    -54.1985 bits/instance
Mean absolute error                      0.0525
Root mean squared error                  0.2172
Relative absolute error                 87.4723 %
Root relative squared error            125.4192 %
Coverage of cases (0.95 level)          35.3982 %
Mean rel. region size (0.95 level)       6.2472 %
Total Number of Instances            61133     


=== Detailed Accuracy By Class ===

                 TP Rate  FP Rate  Precision  Recall   F-Measure  MCC      ROC Area  PRC Area  Class
                 0,201    0,003    0,224      0,201    0,212      0,208    0,678     0,110     ch
                 0,278    0,015    0,022      0,278    0,040      0,074    0,878     0,032     rr
                 0,473    0,016    0,950      0,473    0,631      0,564    0,867     0,839     0
                 0,114    0,021    0,056      0,114    0,075      0,065    0,639     0,037     hs
                 0,934    0,132    0,019      0,934    0,037      0,122    0,952     0,095     hg
                 0,504    0,042    0,670      0,504    0,575      0,522    0,886     0,632     a
                 0,084    0,008    0,139      0,084    0,105      0,098    0,484     0,056     c
                 0,356    0,112    0,021      0,356    0,039      0,062    0,828     0,026     b
                 0,080    0,006    0,528      0,080    0,139      0,184    0,755     0,223     e
                 0,018    0,009    0,028      0,018    0,022      0,011    0,776     0,033     d
                 0,028    0,002    0,078      0,028    0,041      0,043    0,747     0,022     g
                 0,049    0,005    0,058      0,049    0,053      0,048    0,522     0,019     f
                 0,063    0,002    0,536      0,063    0,112      0,174    0,830     0,258     i
                 0,221    0,003    0,299      0,221    0,254      0,254    0,738     0,144     j
                 0,001    0,003    0,006      0,001    0,002      -0,004   0,790     0,036     m
                 0,297    0,052    0,093      0,297    0,142      0,140    0,830     0,067     l
                 0,007    0,003    0,160      0,007    0,014      0,019    0,742     0,165     o
                 0,016    0,011    0,051      0,016    0,024      0,009    0,776     0,077     n
                 0,022    0,001    0,092      0,022    0,035      0,042    0,641     0,026     q
                 0,016    0,003    0,057      0,016    0,026      0,025    0,528     0,030     p
                 0,116    0,003    0,700      0,116    0,199      0,273    0,603     0,276     s
                 0,019    0,004    0,096      0,019    0,032      0,033    0,693     0,044     r
                 0,232    0,005    0,541      0,232    0,324      0,345    0,857     0,310     u
                 0,073    0,008    0,147      0,073    0,098      0,092    0,509     0,061     t
                 0,000    0,002    0,000      0,000    0,000      -0,004   0,756     0,015     v
                 0,144    0,019    0,035      0,144    0,057      0,062    0,846     0,027     y
                 1,000    0,234    0,002      1,000    0,003      0,035    0,891     0,002     z
Weighted Avg.    0,295    0,017    0,600      0,295    0,373      0,349    0,802     0,486     


=== Confusion Matrix ===

     a     b     c     d     e     f     g     h     i     j     k     l     m     n     o     p     q     r     s     t     u     v     w     x     y     z    aa   <-- classified as
    58     9    18     5     7     9    25     5     0     6     0     5     1     2     0     8     0     4     2     1    30     2     0     2     0     0    90 |     a = ch
     0    20     0     0    35     8     0     5     0     0     0     0     0     0     0     0     0     0     0     0     0     0     0     0     0     4     0 |     b = rr
     1    79 11218   312   579    74    28   351    21    86     0    75    33    15    14   302    11   161     2    23    22    33    14    74     9   200  9987 |     c = 0
     0    11    22    75   184    11     1    33     3     4     0    14     1     5     0    29     0     6     0     0     6    13     3     0     1    44   190 |     d = hs
     0     0     0     0   155     0     0     6     0     1     0     0     0     0     0     2     0     2     0     0     0     0     0     0     0     0     0 |     e = hg
     1   157    62    76  1255  4414    42  1284    63   222     0    21     2    39     1   526    63    35    13    22     4    66    33    45    23    89   205 |     f = a
    21     0    56    36    24     0    77    19     3     2     0    13     2    11     0    14     7    19     7    18    28     7     8    57     0    12   472 |     g = c
     0    20     0     0   120    34     0   142     0     1     5     0     0     0     3    53     0     4     0     0     0     0    14     0     0     3     0 |     h = b
     0    62     9    89  1757   554    35   970   369     1    37    10    21    11    10   280    33    48     6    19     1    11    27    42     0    62   157 |     i = e
     0    42     6    13   253    91     0   318     0    16     0     4     0     0     8   103     0     2     0     0     0     3     0     0     0    18     4 |     j = d
     0    15     1     7    96    58     1    91     0     2    10     4     6     0    13    35     0     1     0     0     2     0     0     2     0     1    18 |     k = g
     0    20    11    31    26     8     5    14     2     0     3    19     0     2     0     9     0    10     0     0     5     8     0    19     4    17   177 |     l = f
     1     2    17    46   594   107    20   473   143     0    27     4   149     4    86   357    10     7     4    22     3     9     4    39     0   153   101 |     m = i
     0     7    11    22    15    32     2    19     4     0     0     7     0    73     4     1     2    19     4     1     5    19     0     7     0     8    68 |     n = j
     0    12     0    29   339    54     0   245     0    13     0     1     1     0     1   125     0     2     0     1     0     0    22     5     0    16    14 |     o = m
     0    48     1    12   370    41     0   214     7     3     0     2     1     0     1   320     1    10     0     5     0     3     1     9     0    25     4 |     p = l
     1    88    19   118   799   634     8  1206    36   126     0    18     6    13     1   435    32    33     9    19     3    11   119    26    58   195   450 |     q = o
     0   139     9    91   622    78     0   645    10     9    17     6    17     0     1   255     3    34     0     0     0     1    20     2     0    96    69 |     r = n
    23     0     6     9    19    11    21     6     4     5     0     4     0     6     1     3     0    19     6     1    23     1     0     7     0     9    95 |     s = q
     0    12    29    49    42    21    20    15     0     6     2    17     2     3     0    38     3    28     2    11     1    20     1    34     0    22   291 |     t = p
   152    75   222   172    93    63   183    23    16    20     1    53    24    45     9    84     8   107     2     2   343    25     0    44     2    80  1117 |     u = s
     0    68    18    73   283    94     7   261    11    21    26    14     8     1     1   232     3    34     0     6     2    27     2    25     9    33   143 |     v = r
     0    11     4    12   109   160     3   445     0    16     0     2     1     2     6   141    11     7     0    13     0     6   321    30     8    61    17 |     w = u
     1    23    63    58    40     2    70    21     0     8     0    27     3    12     0     7    12    62     8    25     4    14     3    84     0    15   581 |     x = t
     0     0     1     5   248    34     0    95     7     4     0     2     0     0     5    40     1     4     0     0     0     1     0     9     0    13     5 |     y = v
     0     1     6     7   132     0     5    19     0     1     0     5     0     0     0    29     0     6     0     3     8     1     1    11     0    43    20 |     z = y
     0     0     0     0     0     0     0     0     0     0     0     0     0     0     0     0     0     0     0     0     0     0     0     0     0     0    23 |    aa = z

=== Percent Confusion Matrix ===
a	b	c	d	e	f	g	h	i	j	k	l	m	n	o	p	q	r	s	t	u	v	w	x	y	z	aa	
20.07	3.11	6.23	1.73	2.42	3.11	8.65	1.73	0.0	2.08	0.0	1.73	0.35	0.69	0.0	2.77	0.0	1.38	0.69	0.35	10.38	0.69	0.0	0.69	0.0	0.0	31.14	 a = ch
0.0	27.78	0.0	0.0	48.61	11.11	0.0	6.94	0.0	0.0	0.0	0.0	0.0	0.0	0.0	0.0	0.0	0.0	0.0	0.0	0.0	0.0	0.0	0.0	0.0	5.56	0.0	 b = rr
0.0	0.33	47.29	1.32	2.44	0.31	0.12	1.48	0.09	0.36	0.0	0.32	0.14	0.06	0.06	1.27	0.05	0.68	0.01	0.1	0.09	0.14	0.06	0.31	0.04	0.84	42.1	 c = 0
0.0	1.68	3.35	11.43	28.05	1.68	0.15	5.03	0.46	0.61	0.0	2.13	0.15	0.76	0.0	4.42	0.0	0.91	0.0	0.0	0.91	1.98	0.46	0.0	0.15	6.71	28.96	 d = hs
0.0	0.0	0.0	0.0	93.37	0.0	0.0	3.61	0.0	0.6	0.0	0.0	0.0	0.0	0.0	1.2	0.0	1.2	0.0	0.0	0.0	0.0	0.0	0.0	0.0	0.0	0.0	 e = hg
0.01	1.79	0.71	0.87	14.32	50.37	0.48	14.65	0.72	2.53	0.0	0.24	0.02	0.45	0.01	6.0	0.72	0.4	0.15	0.25	0.05	0.75	0.38	0.51	0.26	1.02	2.34	 f = a
2.3	0.0	6.13	3.94	2.63	0.0	8.43	2.08	0.33	0.22	0.0	1.42	0.22	1.2	0.0	1.53	0.77	2.08	0.77	1.97	3.07	0.77	0.88	6.24	0.0	1.31	51.7	 g = c
0.0	5.01	0.0	0.0	30.08	8.52	0.0	35.59	0.0	0.25	1.25	0.0	0.0	0.0	0.75	13.28	0.0	1.0	0.0	0.0	0.0	0.0	3.51	0.0	0.0	0.75	0.0	 h = b
0.0	1.34	0.19	1.93	38.02	11.99	0.76	20.99	7.99	0.02	0.8	0.22	0.45	0.24	0.22	6.06	0.71	1.04	0.13	0.41	0.02	0.24	0.58	0.91	0.0	1.34	3.4	 i = e
0.0	4.77	0.68	1.48	28.72	10.33	0.0	36.1	0.0	1.82	0.0	0.45	0.0	0.0	0.91	11.69	0.0	0.23	0.0	0.0	0.0	0.34	0.0	0.0	0.0	2.04	0.45	 j = d
0.0	4.13	0.28	1.93	26.45	15.98	0.28	25.07	0.0	0.55	2.75	1.1	1.65	0.0	3.58	9.64	0.0	0.28	0.0	0.0	0.55	0.0	0.0	0.55	0.0	0.28	4.96	 k = g
0.0	5.13	2.82	7.95	6.67	2.05	1.28	3.59	0.51	0.0	0.77	4.87	0.0	0.51	0.0	2.31	0.0	2.56	0.0	0.0	1.28	2.05	0.0	4.87	1.03	4.36	45.38	 l = f
0.04	0.08	0.71	1.93	24.94	4.49	0.84	19.86	6.0	0.0	1.13	0.17	6.26	0.17	3.61	14.99	0.42	0.29	0.17	0.92	0.13	0.38	0.17	1.64	0.0	6.42	4.24	 m = i
0.0	2.12	3.33	6.67	4.55	9.7	0.61	5.76	1.21	0.0	0.0	2.12	0.0	22.12	1.21	0.3	0.61	5.76	1.21	0.3	1.52	5.76	0.0	2.12	0.0	2.42	20.61	 n = j
0.0	1.36	0.0	3.3	38.52	6.14	0.0	27.84	0.0	1.48	0.0	0.11	0.11	0.0	0.11	14.2	0.0	0.23	0.0	0.11	0.0	0.0	2.5	0.57	0.0	1.82	1.59	 o = m
0.0	4.45	0.09	1.11	34.32	3.8	0.0	19.85	0.65	0.28	0.0	0.19	0.09	0.0	0.09	29.68	0.09	0.93	0.0	0.46	0.0	0.28	0.09	0.83	0.0	2.32	0.37	 p = l
0.02	1.97	0.43	2.64	17.9	14.21	0.18	27.02	0.81	2.82	0.0	0.4	0.13	0.29	0.02	9.75	0.72	0.74	0.2	0.43	0.07	0.25	2.67	0.58	1.3	4.37	10.08	 q = o
0.0	6.54	0.42	4.28	29.28	3.67	0.0	30.37	0.47	0.42	0.8	0.28	0.8	0.0	0.05	12.01	0.14	1.6	0.0	0.0	0.0	0.05	0.94	0.09	0.0	4.52	3.25	 r = n
8.24	0.0	2.15	3.23	6.81	3.94	7.53	2.15	1.43	1.79	0.0	1.43	0.0	2.15	0.36	1.08	0.0	6.81	2.15	0.36	8.24	0.36	0.0	2.51	0.0	3.23	34.05	 s = q
0.0	1.79	4.33	7.32	6.28	3.14	2.99	2.24	0.0	0.9	0.3	2.54	0.3	0.45	0.0	5.68	0.45	4.19	0.3	1.64	0.15	2.99	0.15	5.08	0.0	3.29	43.5	 t = p
5.13	2.53	7.49	5.8	3.14	2.12	6.17	0.78	0.54	0.67	0.03	1.79	0.81	1.52	0.3	2.83	0.27	3.61	0.07	0.07	11.57	0.84	0.0	1.48	0.07	2.7	37.67	 u = s
0.0	4.85	1.28	5.21	20.19	6.7	0.5	18.62	0.78	1.5	1.85	1.0	0.57	0.07	0.07	16.55	0.21	2.43	0.0	0.43	0.14	1.93	0.14	1.78	0.64	2.35	10.2	 v = r
0.0	0.79	0.29	0.87	7.86	11.54	0.22	32.11	0.0	1.15	0.0	0.14	0.07	0.14	0.43	10.17	0.79	0.51	0.0	0.94	0.0	0.43	23.16	2.16	0.58	4.4	1.23	 w = u
0.09	2.01	5.51	5.07	3.5	0.17	6.12	1.84	0.0	0.7	0.0	2.36	0.26	1.05	0.0	0.61	1.05	5.42	0.7	2.19	0.35	1.22	0.26	7.35	0.0	1.31	50.83	 x = t
0.0	0.0	0.21	1.05	52.32	7.17	0.0	20.04	1.48	0.84	0.0	0.42	0.0	0.0	1.05	8.44	0.21	0.84	0.0	0.0	0.0	0.21	0.0	1.9	0.0	2.74	1.05	 y = v
0.0	0.34	2.01	2.35	44.3	0.0	1.68	6.38	0.0	0.34	0.0	1.68	0.0	0.0	0.0	9.73	0.0	2.01	0.0	1.01	2.68	0.34	0.34	3.69	0.0	14.43	6.71	 z = y
0.0	0.0	0.0	0.0	0.0	0.0	0.0	0.0	0.0	0.0	0.0	0.0	0.0	0.0	0.0	0.0	0.0	0.0	0.0	0.0	0.0	0.0	0.0	0.0	0.0	0.0	100.0	 aa = z
