Timestamp:2014-12-07-10:39:23
Inventario:I0
Intervalo:3ms
Ngramas:5
Clasificador:NaiveBayes
Relation Name:  I0-3ms-5gramas
Num Instances:  61131
Num Attributes: 51

     Name                      Type  Nom  Int Real     Missing      Unique  Dist
   1 0Int(dB)                   Num   0%  10%  90%     0 /  0%     2 /  0%   776 
   2 0Pitch(Hz)                 Num   0%  52%  48%     0 /  0%   559 /  1%  3828 
   3 0RawPitch                  Num   0%  55%  45%     0 /  0%   613 /  1%  3808 
   4 0SmPitch                   Num   0%  53%  47%     0 /  0%   575 /  1%  3802 
   5 0Melogram(st)              Num   0%  49%  51%     0 /  0%   269 /  0%  3285 
   6 0ZCross                    Num   0% 100%   0%     0 /  0%     3 /  0%    50 
   7 0F1(Hz)                    Num   0%  52%  48%     0 /  0%  1075 /  2%  4783 
   8 0F2(Hz)                    Num   0%  52%  48%     0 /  0%  2270 /  4%  6724 
   9 0F3(Hz)                    Num   0%  52%  48%     0 /  0%  1945 /  3%  6241 
  10 0F4(Hz)                    Num   0%  52%  48%     0 /  0%  1922 /  3%  6122 
  11 1Int(dB)                   Num   0%  10%  90%     0 /  0%     2 /  0%   776 
  12 1Pitch(Hz)                 Num   0%  52%  48%     0 /  0%   559 /  1%  3828 
  13 1RawPitch                  Num   0%  55%  45%     0 /  0%   613 /  1%  3808 
  14 1SmPitch                   Num   0%  53%  47%     0 /  0%   575 /  1%  3802 
  15 1Melogram(st)              Num   0%  49%  51%     0 /  0%   269 /  0%  3285 
  16 1ZCross                    Num   0% 100%   0%     0 /  0%     3 /  0%    50 
  17 1F1(Hz)                    Num   0%  52%  48%     0 /  0%  1075 /  2%  4783 
  18 1F2(Hz)                    Num   0%  52%  48%     0 /  0%  2270 /  4%  6724 
  19 1F3(Hz)                    Num   0%  52%  48%     0 /  0%  1945 /  3%  6241 
  20 1F4(Hz)                    Num   0%  52%  48%     0 /  0%  1922 /  3%  6122 
  21 2Int(dB)                   Num   0%  10%  90%     0 /  0%     2 /  0%   776 
  22 2Pitch(Hz)                 Num   0%  52%  48%     0 /  0%   559 /  1%  3828 
  23 2RawPitch                  Num   0%  55%  45%     0 /  0%   613 /  1%  3808 
  24 2SmPitch                   Num   0%  53%  47%     0 /  0%   575 /  1%  3802 
  25 2Melogram(st)              Num   0%  49%  51%     0 /  0%   269 /  0%  3285 
  26 2ZCross                    Num   0% 100%   0%     0 /  0%     3 /  0%    50 
  27 2F1(Hz)                    Num   0%  52%  48%     0 /  0%  1075 /  2%  4783 
  28 2F2(Hz)                    Num   0%  52%  48%     0 /  0%  2270 /  4%  6724 
  29 2F3(Hz)                    Num   0%  52%  48%     0 /  0%  1945 /  3%  6241 
  30 2F4(Hz)                    Num   0%  52%  48%     0 /  0%  1922 /  3%  6122 
  31 3Int(dB)                   Num   0%  10%  90%     0 /  0%     2 /  0%   776 
  32 3Pitch(Hz)                 Num   0%  52%  48%     0 /  0%   559 /  1%  3828 
  33 3RawPitch                  Num   0%  55%  45%     0 /  0%   613 /  1%  3808 
  34 3SmPitch                   Num   0%  53%  47%     0 /  0%   575 /  1%  3802 
  35 3Melogram(st)              Num   0%  49%  51%     0 /  0%   269 /  0%  3285 
  36 3ZCross                    Num   0% 100%   0%     0 /  0%     3 /  0%    50 
  37 3F1(Hz)                    Num   0%  52%  48%     0 /  0%  1075 /  2%  4783 
  38 3F2(Hz)                    Num   0%  52%  48%     0 /  0%  2270 /  4%  6724 
  39 3F3(Hz)                    Num   0%  52%  48%     0 /  0%  1945 /  3%  6241 
  40 3F4(Hz)                    Num   0%  52%  48%     0 /  0%  1922 /  3%  6122 
  41 4Int(dB)                   Num   0%  10%  90%     0 /  0%     3 /  0%   777 
  42 4Pitch(Hz)                 Num   0%  52%  48%     0 /  0%   559 /  1%  3828 
  43 4RawPitch                  Num   0%  55%  45%     0 /  0%   613 /  1%  3808 
  44 4SmPitch                   Num   0%  53%  47%     0 /  0%   575 /  1%  3802 
  45 4Melogram(st)              Num   0%  49%  51%     0 /  0%   269 /  0%  3285 
  46 4ZCross                    Num   0% 100%   0%     0 /  0%     3 /  0%    50 
  47 4F1(Hz)                    Num   0%  52%  48%     0 /  0%  1075 /  2%  4783 
  48 4F2(Hz)                    Num   0%  52%  48%     0 /  0%  2270 /  4%  6724 
  49 4F3(Hz)                    Num   0%  52%  48%     0 /  0%  1945 /  3%  6241 
  50 4F4(Hz)                    Num   0%  52%  48%     0 /  0%  1922 /  3%  6122 
  51 class                      Nom 100%   0%   0%     0 /  0%     0 /  0%    27 


Naive Bayes Classifier

                    Class
Attribute              ch        rr         0        hs        hg         a         c         b         e         d         g         f         i         j         m         l         o         n         q         p         s         r         u         t         v         y         z
                      (0)       (0)    (0.39)    (0.01)       (0)    (0.14)    (0.01)    (0.01)    (0.08)    (0.01)    (0.01)    (0.01)    (0.04)    (0.01)    (0.01)    (0.02)    (0.07)    (0.03)       (0)    (0.01)    (0.05)    (0.02)    (0.02)    (0.02)    (0.01)       (0)       (0)
==============================================================================================================================================================================================================================================================================================
0Int(dB)
  mean            -20.6221     -9.16    -48.04  -18.5255  -11.2725   -3.2813  -27.6011   -6.0246   -5.7241   -7.8499   -7.4592  -20.7259   -9.4261  -14.9315   -7.7048    -8.014   -8.4226   -8.5206  -25.5535  -24.4609  -20.6302   -11.058   -6.2108  -28.5175   -9.5827  -16.3114  -27.1406
  std. dev.         9.4596    4.4586    16.606   11.1587    5.9752    9.0255   10.1332    4.3441    8.6737    6.0046    7.8489    6.4969    8.7661    6.7167    6.5729    5.6317   12.1005    7.1638   13.0919   10.4839    7.3254    9.2421    9.0317    9.0394    8.1601    5.5245    2.1747
  weight sum           289        72     23722       656       166      8763       913       399      4621       881       363       390      2382       330       880      1078      4463      2124       279       669      2965      1402      1386      1143       474       298        23
  precision         0.1044    0.1044    0.1044    0.1044    0.1044    0.1044    0.1044    0.1044    0.1044    0.1044    0.1044    0.1044    0.1044    0.1044    0.1044    0.1044    0.1044    0.1044    0.1044    0.1044    0.1044    0.1044    0.1044    0.1044    0.1044    0.1044    0.1044

0Pitch(Hz)
  mean             56.1911  243.7014   17.8444   96.6508   145.325  224.1603   31.8425  215.3877  185.9586  202.5863  212.9144   92.5275  168.4152  159.9448  192.5935  174.3806  178.4602  193.9595    76.351   80.8407    61.011  160.8188  224.0701   56.0706   174.493  113.8222         0
  std. dev.       101.4179   118.969   58.0865   88.4935   36.4859  105.9484   75.3664   73.2475   90.1831   83.2977   97.7399  121.1784   80.7025  131.4712   86.9339   65.7656  106.9431   87.6232  112.6626  119.2349   98.1308   93.9814   92.7797  103.5184   78.6816   69.3027    0.0217
  weight sum           289        72     23722       656       166      8763       913       399      4621       881       363       390      2382       330       880      1078      4463      2124       279       669      2965      1402      1386      1143       474       298        23
  precision         0.1303    0.1303    0.1303    0.1303    0.1303    0.1303    0.1303    0.1303    0.1303    0.1303    0.1303    0.1303    0.1303    0.1303    0.1303    0.1303    0.1303    0.1303    0.1303    0.1303    0.1303    0.1303    0.1303    0.1303    0.1303    0.1303    0.1303

0RawPitch
  mean             36.8623  235.6319   14.7579   78.6189  125.1362  214.4266    20.519  212.1451  181.3123  196.6253  202.5047   53.4311   159.707  105.3815  182.2026  160.3524  171.3618  181.6209   43.6271    59.358   40.0715  155.5835  215.2186   31.8302  160.0561   81.3504         0
  std. dev.        85.9099  120.0969   52.6837    88.442   72.1126  111.3886   62.0241   75.6124    96.693     93.42  108.8397   93.1789   86.3426  115.3496   96.8552   77.0715  113.5595  100.3583   93.6075  110.5316   84.1645  100.5261   99.6003   83.2759   89.3771   79.9848    0.0218
  weight sum           289        72     23722       656       166      8763       913       399      4621       881       363       390      2382       330       880      1078      4463      2124       279       669      2965      1402      1386      1143       474       298        23
  precision          0.131     0.131     0.131     0.131     0.131     0.131     0.131     0.131     0.131     0.131     0.131     0.131     0.131     0.131     0.131     0.131     0.131     0.131     0.131     0.131     0.131     0.131     0.131     0.131     0.131     0.131     0.131

0SmPitch
  mean             53.5664  243.7028   16.2046   89.9158  147.2454  222.2296   26.7454  215.3829  183.6469  201.5589  211.3648   75.3724  165.7532  118.0956  190.3116  173.3241  176.0047  191.9156   62.3413   74.0509   53.4094  157.7881  223.7517   45.1818  170.1525  108.6016         0
  std. dev.        99.4385  118.9764    54.355   86.4417   34.4255  107.7246    69.883   73.2428   92.0569   85.3024   99.5968  107.5217   82.6657  139.5851   90.2095   66.9521  109.2519   89.9154  105.8707   117.553   94.3086   95.6719   92.6385   95.3088   82.9875   71.4126    0.0219
  weight sum           289        72     23722       656       166      8763       913       399      4621       881       363       390      2382       330       880      1078      4463      2124       279       669      2965      1402      1386      1143       474       298        23
  precision         0.1312    0.1312    0.1312    0.1312    0.1312    0.1312    0.1312    0.1312    0.1312    0.1312    0.1312    0.1312    0.1312    0.1312    0.1312    0.1312    0.1312    0.1312    0.1312    0.1312    0.1312    0.1312    0.1312    0.1312    0.1312    0.1312    0.1312

0Melogram(st)
  mean             14.7839   56.6371    5.1991   29.1368   48.5555    52.547   10.0844   55.1355   49.4669   52.9371    51.584   24.1257   47.1058   18.2663   50.8511   51.3359   46.3882   50.8091   16.7848   21.0545   16.6882   43.2303   52.2659   13.6495    49.562   40.2031         0
  std. dev.        25.2461    8.7445   15.9975   24.9751    6.9615   15.9185   21.4057    7.3844   16.7812    11.592   17.0086   27.6198   17.9805   27.0729    14.527     9.184   20.7426   15.4567   26.0479   27.9133   25.3145    22.111   17.2831   24.5694    13.508   18.3963    0.0042
  weight sum           289        72     23722       656       166      8763       913       399      4621       881       363       390      2382       330       880      1078      4463      2124       279       669      2965      1402      1386      1143       474       298        23
  precision         0.0252    0.0252    0.0252    0.0252    0.0252    0.0252    0.0252    0.0252    0.0252    0.0252    0.0252    0.0252    0.0252    0.0252    0.0252    0.0252    0.0252    0.0252    0.0252    0.0252    0.0252    0.0252    0.0252    0.0252    0.0252    0.0252    0.0252

0ZCross
  mean              7.6236    3.7968    0.2872    1.2466    3.0273    7.4471    1.1352    3.6618    4.9169    3.6509      4.48    0.8262    3.5381    3.8599     2.891     3.302    4.0022    2.7044    3.3105    0.7946    3.5922    3.3197     3.713    0.3908    3.0579    1.5888         0
  std. dev.        12.1546    2.5647    1.2752    1.8142    2.2331    4.4787    3.2001    1.6163    3.3248    2.1087    2.8845    1.6993    3.3145    3.7654    1.5606    2.0309     3.118     1.779    6.5968    2.2759    6.7716    2.6143    2.8833    1.1844    1.8865    1.7664    0.1939
  weight sum           289        72     23722       656       166      8763       913       399      4621       881       363       390      2382       330       880      1078      4463      2124       279       669      2965      1402      1386      1143       474       298        23
  precision         1.1633    1.1633    1.1633    1.1633    1.1633    1.1633    1.1633    1.1633    1.1633    1.1633    1.1633    1.1633    1.1633    1.1633    1.1633    1.1633    1.1633    1.1633    1.1633    1.1633    1.1633    1.1633    1.1633    1.1633    1.1633    1.1633    1.1633

0F1(Hz)
  mean            172.4638  588.3468   58.0026  423.0093  447.4048  680.9195   86.6899  475.1008  448.4125  515.0145  500.5366  325.1812  346.5478  469.4034  436.0611  479.3693  467.7058  488.9893  180.7654  246.0456  229.8796  495.6522  478.6311  124.6764   481.936  349.2625         0
  std. dev.       282.0375  128.4052  173.4388  285.0517    79.827  280.4446  200.0022  133.1596   166.292  150.5296  192.0052   338.781  164.1875  326.5021  168.1113  150.1676  236.8053  155.1739  243.4922  303.9687  299.9625  236.1736    325.23  217.4711  177.8432  183.6581    0.0607
  weight sum           289        72     23722       656       166      8763       913       399      4621       881       363       390      2382       330       880      1078      4463      2124       279       669      2965      1402      1386      1143       474       298        23
  precision         0.3642    0.3642    0.3642    0.3642    0.3642    0.3642    0.3642    0.3642    0.3642    0.3642    0.3642    0.3642    0.3642    0.3642    0.3642    0.3642    0.3642    0.3642    0.3642    0.3642    0.3642    0.3642    0.3642    0.3642    0.3642    0.3642    0.3642

0F2(Hz)
  mean            508.7906 1678.4571  180.0747 1220.4929 1942.4841 1420.7508  263.0512 1594.6536  1711.214  1487.742 1712.2384  841.2265 1845.7313 1378.6962 1656.8342 1660.0699 1125.8145 1621.7181  743.6233  732.7258  711.9105 1375.7067 1005.5905  417.3085 1527.0448 1352.8946         0
  std. dev.       797.5472  133.8652  532.2925   804.585  361.1899  462.1989  621.1189  350.5389  608.9906  305.0599  572.2879   856.991   773.683  878.6453  474.1319   375.092  570.3838   432.109  967.7215  870.0008  899.2151  606.8033   487.338    704.23  478.6665  643.8841    0.0738
  weight sum           289        72     23722       656       166      8763       913       399      4621       881       363       390      2382       330       880      1078      4463      2124       279       669      2965      1402      1386      1143       474       298        23
  precision         0.4431    0.4431    0.4431    0.4431    0.4431    0.4431    0.4431    0.4431    0.4431    0.4431    0.4431    0.4431    0.4431    0.4431    0.4431    0.4431    0.4431    0.4431    0.4431    0.4431    0.4431    0.4431    0.4431    0.4431    0.4431    0.4431    0.4431

0F3(Hz)
  mean            856.9986 2855.3236  307.8348 2000.6489 2538.5587 2647.3152  470.6467 2761.2453 2531.3885 2876.0182 2922.0803 1442.7832 2511.4671 2006.1557  2751.419 2780.4773 2433.4936 2795.7539  1112.187 1227.9847  1188.052 2394.0847 2536.8144  765.2434 2605.9473 2359.0946         0
  std. dev.       1345.966   391.066  893.0846 1239.4704  116.4858  845.8528 1076.7198  462.6225   899.016  451.3023  895.0597  1462.749 1065.3826 1277.9101  624.0832  612.9305 1084.1339  615.0606 1404.3142 1449.2116 1480.1439 1058.4368  969.7241 1275.9804  782.8513 1141.7512      0.11
  weight sum           289        72     23722       656       166      8763       913       399      4621       881       363       390      2382       330       880      1078      4463      2124       279       669      2965      1402      1386      1143       474       298        23
  precision         0.6602    0.6602    0.6602    0.6602    0.6602    0.6602    0.6602    0.6602    0.6602    0.6602    0.6602    0.6602    0.6602    0.6602    0.6602    0.6602    0.6602    0.6602    0.6602    0.6602    0.6602    0.6602    0.6602    0.6602    0.6602    0.6602    0.6602

0F4(Hz)
  mean             994.409 3263.0083  369.3315 2480.6993 3585.2923 3050.5093  534.7174  3306.566 3059.3156 3339.2088 2951.1202 1646.6901 2996.5825 2493.1478 3285.2115 3209.6554 2805.3088 3200.4808 1353.1254 1434.1365 1339.1398  2789.776 2908.3713  870.2769 3151.3469 2711.8267         0
  std. dev.      1561.3061  425.7798 1069.3144 1521.6757   94.8201  963.5013 1226.2533  448.2742 1056.7202   485.379  905.6261 1657.1342  1233.239 1572.3077  682.5375  639.8246 1235.5521  700.8766 1721.8297 1673.1428 1665.4956 1173.7876 1040.3379 1454.1243  866.9449 1296.9456    0.1129
  weight sum           289        72     23722       656       166      8763       913       399      4621       881       363       390      2382       330       880      1078      4463      2124       279       669      2965      1402      1386      1143       474       298        23
  precision         0.6775    0.6775    0.6775    0.6775    0.6775    0.6775    0.6775    0.6775    0.6775    0.6775    0.6775    0.6775    0.6775    0.6775    0.6775    0.6775    0.6775    0.6775    0.6775    0.6775    0.6775    0.6775    0.6775    0.6775    0.6775    0.6775    0.6775

1Int(dB)
  mean            -20.3302   -9.7239  -48.1807  -19.2521    -11.26   -3.0982  -26.8362   -6.0547   -5.4866   -7.9081   -7.5492  -21.2109   -9.1799  -15.2763    -7.693   -8.1132   -8.2804   -8.7463  -24.6432  -24.1607  -20.9898  -11.3796   -5.8577  -27.9263   -9.5325  -16.3881  -27.1225
  std. dev.         9.1444    4.5425   16.4087   11.1741    6.0247    8.7116   10.0142    4.3203    8.4392    6.0541    7.9239    6.0791    8.6146    6.4785    6.3653    5.5937   12.0927    7.2928   12.6364   10.3678    7.0368    9.2131    8.6173    9.1523     7.706    5.2794    2.1763
  weight sum           289        72     23722       656       166      8763       913       399      4621       881       363       390      2382       330       880      1078      4463      2124       279       669      2965      1402      1386      1143       474       298        23
  precision         0.1044    0.1044    0.1044    0.1044    0.1044    0.1044    0.1044    0.1044    0.1044    0.1044    0.1044    0.1044    0.1044    0.1044    0.1044    0.1044    0.1044    0.1044    0.1044    0.1044    0.1044    0.1044    0.1044    0.1044    0.1044    0.1044    0.1044

1Pitch(Hz)
  mean              53.611  243.6453   17.3506     92.37  145.6586   225.313   36.4768  215.2805  187.5772  202.3699  212.6535    87.736  170.3677  157.4152  192.9799  174.4625  179.1099  192.8654   77.8778    80.083   55.8571  161.0589  226.2021   58.1728  175.4953  113.7326         0
  std. dev.       100.2935  119.7185   57.3369   88.1981     36.76  104.7693   81.2873   72.9354   89.3537   83.7255   98.6194  119.8851   79.1235  131.4828   86.8798    65.042  106.1835   88.2366  113.2393  117.7173   95.2626   94.2674   89.9667  104.2658   76.8043   69.2433    0.0217
  weight sum           289        72     23722       656       166      8763       913       399      4621       881       363       390      2382       330       880      1078      4463      2124       279       669      2965      1402      1386      1143       474       298        23
  precision         0.1303    0.1303    0.1303    0.1303    0.1303    0.1303    0.1303    0.1303    0.1303    0.1303    0.1303    0.1303    0.1303    0.1303    0.1303    0.1303    0.1303    0.1303    0.1303    0.1303    0.1303    0.1303    0.1303    0.1303    0.1303    0.1303    0.1303

1RawPitch
  mean             35.2881  234.6658   14.2573   74.5279  124.9579  215.6322   23.8167  212.4958  183.2465   196.583   201.784   48.2806  162.0978   101.206  182.3071   159.885  172.4006  180.3575   42.6111   59.0868   34.8586  155.0776  217.6541   33.7367  160.7277   80.2361         0
  std. dev.        85.5457  124.0276   51.6702   87.3797   72.3067   110.342   66.9833   75.7639   95.6687   93.9793   110.061   89.3653   85.0721  113.6466   97.1869   77.2387  112.8726  101.0363   93.6218  109.7595   79.3913  100.6981   96.8389   84.0987   87.7179   79.4991    0.0218
  weight sum           289        72     23722       656       166      8763       913       399      4621       881       363       390      2382       330       880      1078      4463      2124       279       669      2965      1402      1386      1143       474       298        23
  precision          0.131     0.131     0.131     0.131     0.131     0.131     0.131     0.131     0.131     0.131     0.131     0.131     0.131     0.131     0.131     0.131     0.131     0.131     0.131     0.131     0.131     0.131     0.131     0.131     0.131     0.131     0.131

1SmPitch
  mean             50.9882  243.6463   15.6887   85.6305  147.5994  223.4418   30.2692  215.2757  185.6219  201.4721  211.1034    70.017  167.7906  114.6943  190.5824  173.3358  176.7887  190.6615   62.4547   71.8706   48.3424  158.1315  225.9095   47.4704  171.5216  108.5105         0
  std. dev.        98.2177  119.7255   53.4945   85.8028   34.6672  106.5208   75.3549   72.9315    90.965   85.4827  100.4567  105.0767   81.2541  138.6661   90.3454    66.388  108.4257   90.6273   105.156  115.6481   90.9074   95.8797   89.8265   96.8431   80.8806    71.348    0.0219
  weight sum           289        72     23722       656       166      8763       913       399      4621       881       363       390      2382       330       880      1078      4463      2124       279       669      2965      1402      1386      1143       474       298        23
  precision         0.1312    0.1312    0.1312    0.1312    0.1312    0.1312    0.1312    0.1312    0.1312    0.1312    0.1312    0.1312    0.1312    0.1312    0.1312    0.1312    0.1312    0.1312    0.1312    0.1312    0.1312    0.1312    0.1312    0.1312    0.1312    0.1312    0.1312

1Melogram(st)
  mean             14.6155   56.5833    5.0779   28.0184   48.5862   52.8858   11.0776   55.1326   49.8961   52.9623   51.4516   23.1557   47.7099   17.4508   50.8618   51.3211   46.6075   50.5544   17.0018   20.5736   15.2741   43.1054   52.9335     13.78   49.9009   40.1907         0
  std. dev.        25.1859    8.8179   15.8345   25.0644    6.9688   15.3538   22.2961    7.3726   16.2028   11.4775   17.2291   27.4771   17.2872    26.773   14.5347    9.1814   20.5184   15.7929   26.1653   27.7174   24.6735   22.2333   16.2835   24.6746   12.9012    18.389    0.0042
  weight sum           289        72     23722       656       166      8763       913       399      4621       881       363       390      2382       330       880      1078      4463      2124       279       669      2965      1402      1386      1143       474       298        23
  precision         0.0252    0.0252    0.0252    0.0252    0.0252    0.0252    0.0252    0.0252    0.0252    0.0252    0.0252    0.0252    0.0252    0.0252    0.0252    0.0252    0.0252    0.0252    0.0252    0.0252    0.0252    0.0252    0.0252    0.0252    0.0252    0.0252    0.0252

1ZCross
  mean              8.0382     3.619    0.2622    1.1491    3.0483     7.494    1.2805    3.6939    4.9388    3.6535    4.4416    0.7606    3.5626    3.7965    2.8619    3.2459    4.0249    2.6004    3.7483    0.7981    3.6012    3.1986     3.755    0.4661    3.0211    1.5419         0
  std. dev.        12.4853    2.5979    1.1593    1.7507    2.2609    4.4452    3.3608    1.6345    3.2469    2.1151    2.8337    1.6601    3.2866     3.758    1.4853      1.99    3.0126    1.6679    7.0385    2.2079    6.8692    2.5341    2.8542    1.2738    1.8245    1.7461    0.1939
  weight sum           289        72     23722       656       166      8763       913       399      4621       881       363       390      2382       330       880      1078      4463      2124       279       669      2965      1402      1386      1143       474       298        23
  precision         1.1633    1.1633    1.1633    1.1633    1.1633    1.1633    1.1633    1.1633    1.1633    1.1633    1.1633    1.1633    1.1633    1.1633    1.1633    1.1633    1.1633    1.1633    1.1633    1.1633    1.1633    1.1633    1.1633    1.1633    1.1633    1.1633    1.1633

1F1(Hz)
  mean            160.0249  593.2537   56.1656  411.3104   447.102  689.9933   86.1302  475.6604  453.7041  515.3225  497.8616  306.1148  351.6224  462.2393  433.9603  476.8136  473.8855   481.404  180.8137  237.3702  213.9577  491.5118  484.7897  118.6446   482.716  346.5944         0
  std. dev.       275.4776  130.5479  170.5763  290.4985   81.2728  271.9374  199.5924  133.0495  159.4091  151.6572  192.5218  338.5217  157.9743  333.5693  166.2426  146.4707  232.8436  155.4916  244.9093  300.9599  295.2668  236.4522  320.1911  213.3507  175.3475  183.8016    0.0607
  weight sum           289        72     23722       656       166      8763       913       399      4621       881       363       390      2382       330       880      1078      4463      2124       279       669      2965      1402      1386      1143       474       298        23
  precision         0.3642    0.3642    0.3642    0.3642    0.3642    0.3642    0.3642    0.3642    0.3642    0.3642    0.3642    0.3642    0.3642    0.3642    0.3642    0.3642    0.3642    0.3642    0.3642    0.3642    0.3642    0.3642    0.3642    0.3642    0.3642    0.3642    0.3642

1F2(Hz)
  mean             473.778 1669.1036  174.9481 1187.1762 1938.9343 1434.7453  258.9462  1588.885 1736.7393 1485.0866 1705.7219  789.7769 1888.1428 1338.4501 1660.2498 1664.3427 1133.1742 1614.7551  735.5402  704.6533  664.0189 1371.8996 1019.5348  395.5687 1539.7833 1351.3082         0
  std. dev.        781.926  132.9358   525.318  819.4843    357.96  440.4572   614.656  348.9663  582.7337  311.0098   579.874  854.4487  742.2294  892.0009  464.1507  361.2032  558.0272  439.8811  963.3154  860.7976   887.849  611.2741  469.8361   689.467  458.3007  650.1642    0.0738
  weight sum           289        72     23722       656       166      8763       913       399      4621       881       363       390      2382       330       880      1078      4463      2124       279       669      2965      1402      1386      1143       474       298        23
  precision         0.4431    0.4431    0.4431    0.4431    0.4431    0.4431    0.4431    0.4431    0.4431    0.4431    0.4431    0.4431    0.4431    0.4431    0.4431    0.4431    0.4431    0.4431    0.4431    0.4431    0.4431    0.4431    0.4431    0.4431    0.4431    0.4431    0.4431

1F3(Hz)
  mean            795.0792 2856.2498  299.0333 1942.6317 2534.8201 2673.8933  468.1924 2758.3909 2562.5981 2871.6844 2912.7207 1354.9581 2559.2594 1954.6742 2751.1016 2791.7017  2458.752 2784.7779 1101.2661 1183.8464 1106.6064 2385.3478 2579.3441  726.0625 2627.9047 2347.9306         0
  std. dev.      1313.9652  396.6713  881.6893 1266.4117  115.9751  807.1522 1075.5469  464.4753   862.118  470.7591  908.2088 1459.2869 1021.4692 1298.9427  610.1776  597.6983 1061.5374  633.7109 1401.1542 1435.8403  1460.634 1066.9882  919.5861 1251.6312  749.1252 1147.6786      0.11
  weight sum           289        72     23722       656       166      8763       913       399      4621       881       363       390      2382       330       880      1078      4463      2124       279       669      2965      1402      1386      1143       474       298        23
  precision         0.6602    0.6602    0.6602    0.6602    0.6602    0.6602    0.6602    0.6602    0.6602    0.6602    0.6602    0.6602    0.6602    0.6602    0.6602    0.6602    0.6602    0.6602    0.6602    0.6602    0.6602    0.6602    0.6602    0.6602    0.6602    0.6602    0.6602

1F4(Hz)
  mean            925.6482 3258.0211  358.9847 2409.9312 3587.8758 3080.8207  531.2282 3304.2194 3093.8052 3333.3219 2945.4874 1546.4595 3050.9117 2432.8048 3291.4922 3220.3541 2833.3702 3189.9948 1338.2907 1391.7283 1247.5304 2776.2211 2956.7717  828.8626  3179.632 2703.6944         0
  std. dev.      1529.4719  420.9233 1056.2377 1556.4363   92.7396  918.2884 1223.4382  447.2142 1009.5134  510.4315  920.2088 1654.1329 1178.4462 1602.2581  665.9862  617.1557 1207.9571  725.2273 1715.4379 1668.1046 1643.9706 1184.1783   976.944 1432.3378  817.5562 1307.2061    0.1129
  weight sum           289        72     23722       656       166      8763       913       399      4621       881       363       390      2382       330       880      1078      4463      2124       279       669      2965      1402      1386      1143       474       298        23
  precision         0.6775    0.6775    0.6775    0.6775    0.6775    0.6775    0.6775    0.6775    0.6775    0.6775    0.6775    0.6775    0.6775    0.6775    0.6775    0.6775    0.6775    0.6775    0.6775    0.6775    0.6775    0.6775    0.6775    0.6775    0.6775    0.6775    0.6775

2Int(dB)
  mean            -19.9936  -10.2821  -48.3098  -19.9632  -11.1499   -2.9704  -25.9741   -6.0419   -5.3093   -7.9123   -7.6283  -21.6022   -8.9731   -15.553   -7.6681   -8.1955    -8.186   -8.9753  -23.7359  -23.6951   -21.311  -11.6455   -5.5524  -27.1185   -9.4384  -16.4203  -27.1225
  std. dev.          8.799    4.5778   16.2247   11.2123    6.1061    8.4572    9.9461    4.3058    8.2373    6.1046    7.9844    5.7466    8.4929    6.2728    6.1881    5.5901   12.1008    7.4484   12.0952   10.3982    6.7973    9.2316    8.2298    9.4642    7.2529    5.0274    2.1763
  weight sum           289        72     23722       656       166      8763       913       399      4621       881       363       390      2382       330       880      1078      4463      2124       279       669      2965      1402      1386      1143       474       298        23
  precision         0.1044    0.1044    0.1044    0.1044    0.1044    0.1044    0.1044    0.1044    0.1044    0.1044    0.1044    0.1044    0.1044    0.1044    0.1044    0.1044    0.1044    0.1044    0.1044    0.1044    0.1044    0.1044    0.1044    0.1044    0.1044    0.1044    0.1044

2Pitch(Hz)
  mean             51.7515  243.6091   16.8275   88.1577  146.1484  226.1137   42.6301  215.2472  188.9058  202.1732  212.4122   83.3863  172.0827  156.2681  193.3952   174.535  179.2936   191.739   79.9278   80.1816   51.3157  161.3824  228.1408    62.906  176.5997   113.747         0
  std. dev.        99.4781  120.4384   56.5405   87.7594   37.2723  103.9013   88.0982    72.645   88.6428   84.1187   99.4933  118.4168   77.7161  131.1085   86.8212   64.4942  105.6064   88.9018  113.6795  116.3338    92.457   94.6139   87.2319  106.4942   74.9254    69.215    0.0217
  weight sum           289        72     23722       656       166      8763       913       399      4621       881       363       390      2382       330       880      1078      4463      2124       279       669      2965      1402      1386      1143       474       298        23
  precision         0.1303    0.1303    0.1303    0.1303    0.1303    0.1303    0.1303    0.1303    0.1303    0.1303    0.1303    0.1303    0.1303    0.1303    0.1303    0.1303    0.1303    0.1303    0.1303    0.1303    0.1303    0.1303    0.1303    0.1303    0.1303    0.1303    0.1303

2RawPitch
  mean             36.0714  234.8331   13.8002    70.331  125.9222  216.5076   28.5916  212.6251  184.5166  196.0755  200.9562   44.2201   164.127   98.0998  182.2858  159.0286  173.0126  178.9262   43.0834   59.6586   30.3659  155.4697  219.2103   38.0427   162.209   78.5481         0
  std. dev.        86.3403  128.3072   50.8241   86.1069   73.3146  109.5529     73.23   75.8109   95.0659    93.992  111.3443   85.6843    83.993  112.1179   97.6326   77.3089  112.4306  101.8806   93.4908  108.4587   74.7045  101.0405   94.8961   87.1034   86.4484     77.53    0.0218
  weight sum           289        72     23722       656       166      8763       913       399      4621       881       363       390      2382       330       880      1078      4463      2124       279       669      2965      1402      1386      1143       474       298        23
  precision          0.131     0.131     0.131     0.131     0.131     0.131     0.131     0.131     0.131     0.131     0.131     0.131     0.131     0.131     0.131     0.131     0.131     0.131     0.131     0.131     0.131     0.131     0.131     0.131     0.131     0.131     0.131

2SmPitch
  mean             49.7693  243.6099   15.1843   81.4166  148.0911  224.3096   35.5655  215.2432  187.1933   201.397  210.8602   65.6641  169.4288  112.2002  190.8854  173.2505  177.1572  189.3702   63.6195   71.3448   43.8341  158.4217  227.7542   51.6954  172.8045  108.5197         0
  std. dev.        97.6205  120.4448    52.656   85.0181   35.1754  105.5763   82.3546   72.6414   90.0322   85.6399  101.3118  102.6473   80.1407  137.8981   90.4757   66.0665  107.7873   91.3798  105.2692   114.316   87.5743   96.2399   87.2767   99.4562   79.0612   71.3229    0.0219
  weight sum           289        72     23722       656       166      8763       913       399      4621       881       363       390      2382       330       880      1078      4463      2124       279       669      2965      1402      1386      1143       474       298        23
  precision         0.1312    0.1312    0.1312    0.1312    0.1312    0.1312    0.1312    0.1312    0.1312    0.1312    0.1312    0.1312    0.1312    0.1312    0.1312    0.1312    0.1312    0.1312    0.1312    0.1312    0.1312    0.1312    0.1312    0.1312    0.1312    0.1312    0.1312

2Melogram(st)
  mean             14.6249   56.5246    4.9554   26.9086   48.9647   53.1383   12.3162   55.1353   50.2427   52.9912   51.3216   22.1701   48.1463    16.825   50.8756   51.3118   46.6963   50.3143   17.3996   20.3871   13.9444   43.1037   53.5545   14.8685    50.247   40.1914         0
  std. dev.        25.2031      8.88   15.6692    25.111    5.8969   14.8987   23.2782    7.3613   15.7114     11.36   17.4461   27.2791    16.741   26.5483   14.5425    9.1798    20.402   16.1193   26.3327   27.5538   23.9912   22.2754    15.256   25.2946   12.2573   18.3872    0.0042
  weight sum           289        72     23722       656       166      8763       913       399      4621       881       363       390      2382       330       880      1078      4463      2124       279       669      2965      1402      1386      1143       474       298        23
  precision         0.0252    0.0252    0.0252    0.0252    0.0252    0.0252    0.0252    0.0252    0.0252    0.0252    0.0252    0.0252    0.0252    0.0252    0.0252    0.0252    0.0252    0.0252    0.0252    0.0252    0.0252    0.0252    0.0252    0.0252    0.0252    0.0252    0.0252

2ZCross
  mean               8.324    3.4413    0.2433     1.064    3.1044    7.5265    1.4117    3.7726    4.9486    3.6786    4.3935     0.683    3.5738    3.7647    2.8421    3.1974    4.0411    2.5089    4.0443    0.8259     3.611    3.1065    3.7945    0.5598    3.0063    1.5029         0
  std. dev.        12.7058    2.5971    1.0804     1.717    2.3032    4.4225    3.4583    1.6953    3.2071    2.1134    2.7825    1.5768    3.2163    3.7708    1.4404    1.9434    2.9298    1.5756    7.2139    2.1464    6.9497    2.4631    2.8295    1.3734    1.7698    1.7228    0.1939
  weight sum           289        72     23722       656       166      8763       913       399      4621       881       363       390      2382       330       880      1078      4463      2124       279       669      2965      1402      1386      1143       474       298        23
  precision         1.1633    1.1633    1.1633    1.1633    1.1633    1.1633    1.1633    1.1633    1.1633    1.1633    1.1633    1.1633    1.1633    1.1633    1.1633    1.1633    1.1633    1.1633    1.1633    1.1633    1.1633    1.1633    1.1633    1.1633    1.1633    1.1633    1.1633

2F1(Hz)
  mean            149.2382  598.1656   54.3918  398.8292  446.6654  697.9583   88.4145  476.4709  458.5411  515.5991  495.6713  289.1851  356.2706  456.7683  432.6942  474.2056  479.3315  474.0563  180.7184  234.2936  198.4629  488.1452  491.2079  115.2557  483.0395  344.0107         0
  std. dev.       268.7008  132.8905  167.8415  295.7018    82.438  264.1447  201.9238  133.0036  152.8966  152.8143  192.9817  336.6982   151.878  339.4874  164.9188  143.2847  229.0643  155.8048  246.0319  297.9488  289.8418   236.494  314.7115  210.9403  172.7087  183.8546    0.0607
  weight sum           289        72     23722       656       166      8763       913       399      4621       881       363       390      2382       330       880      1078      4463      2124       279       669      2965      1402      1386      1143       474       298        23
  precision         0.3642    0.3642    0.3642    0.3642    0.3642    0.3642    0.3642    0.3642    0.3642    0.3642    0.3642    0.3642    0.3642    0.3642    0.3642    0.3642    0.3642    0.3642    0.3642    0.3642    0.3642    0.3642    0.3642    0.3642    0.3642    0.3642    0.3642

2F2(Hz)
  mean            444.9315 1659.8855  169.8362 1150.5521 1935.1869 1446.6537  263.2268 1582.3712 1759.9732 1483.1122 1698.0593  748.0315 1927.6297 1303.0173 1663.2334 1666.9065  1139.398 1607.2819  727.5921  695.1881  617.0261 1369.3342 1035.0423  384.7197 1552.3339 1349.5226         0
  std. dev.       767.9997  131.6108  518.3893  832.8053  354.3601  420.5834  615.5829  347.2603  557.1365  317.3199  587.1878  851.0634  710.1468  900.6146  453.7951  350.6546  546.4539  447.0903  958.9795  852.7715  873.7945  614.9232  450.7523   683.442  436.2916  656.3398    0.0738
  weight sum           289        72     23722       656       166      8763       913       399      4621       881       363       390      2382       330       880      1078      4463      2124       279       669      2965      1402      1386      1143       474       298        23
  precision         0.4431    0.4431    0.4431    0.4431    0.4431    0.4431    0.4431    0.4431    0.4431    0.4431    0.4431    0.4431    0.4431    0.4431    0.4431    0.4431    0.4431    0.4431    0.4431    0.4431    0.4431    0.4431    0.4431    0.4431    0.4431    0.4431    0.4431

2F3(Hz)
  mean            742.5605 2857.5611  290.0758  1880.015 2531.0496 2696.6583  479.7474 2755.3926 2590.6505 2867.7838 2903.3775  1279.894 2603.7866 1910.9274 2750.9703 2800.5119 2481.3348 2773.7449  1090.383  1173.423 1027.0764  2379.903 2624.5033  702.0478 2649.6795 2336.2837         0
  std. dev.      1282.7234  403.5958  869.7877 1291.5495  115.1927  771.9424 1084.8658  466.0183   826.473  489.8996  921.0225 1450.2735   977.692 1313.9569  595.8806  587.9798 1040.3144  651.5815 1397.9352 1427.8284  1436.786 1074.4256  861.9955 1234.9588  712.8436 1153.2014      0.11
  weight sum           289        72     23722       656       166      8763       913       399      4621       881       363       390      2382       330       880      1078      4463      2124       279       669      2965      1402      1386      1143       474       298        23
  precision         0.6602    0.6602    0.6602    0.6602    0.6602    0.6602    0.6602    0.6602    0.6602    0.6602    0.6602    0.6602    0.6602    0.6602    0.6602    0.6602    0.6602    0.6602    0.6602    0.6602    0.6602    0.6602    0.6602    0.6602    0.6602    0.6602    0.6602

2F4(Hz)
  mean            869.8467  3253.288  348.5398 2334.1747 3589.1043 3106.2985  547.0015 3302.3329 3124.7953 3327.0352 2939.9367 1463.5817 3100.6951 2382.9221   3297.85 3228.0335 2858.4583 3179.5123 1323.0481  1388.764 1158.3341 2765.0003 3006.9754  805.7066 3208.4845 2695.1005         0
  std. dev.       1502.527  415.1975 1042.8301 1589.4682   91.7681  877.0562 1239.7491  445.1166  964.1286  534.3496  934.5647 1647.5371 1123.6536 1625.1897  648.8061  601.5205 1181.9837  748.6223 1708.3575 1669.1522 1617.9319 1192.4621  902.9144 1421.4216  764.1853 1317.1939    0.1129
  weight sum           289        72     23722       656       166      8763       913       399      4621       881       363       390      2382       330       880      1078      4463      2124       279       669      2965      1402      1386      1143       474       298        23
  precision         0.6775    0.6775    0.6775    0.6775    0.6775    0.6775    0.6775    0.6775    0.6775    0.6775    0.6775    0.6775    0.6775    0.6775    0.6775    0.6775    0.6775    0.6775    0.6775    0.6775    0.6775    0.6775    0.6775    0.6775    0.6775    0.6775    0.6775

3Int(dB)
  mean            -19.6045  -10.7359  -48.4237  -20.6613  -10.9468   -2.9038  -24.9992    -5.983   -5.2147   -7.8485   -7.6838  -21.9074    -8.825  -15.7349   -7.6295   -8.2406   -8.1561   -9.2153   -22.777  -23.0692  -21.5782  -11.8322   -5.2953  -26.0649   -9.2887  -16.3972  -27.1089
  std. dev.         8.4766    4.4858   16.0588    11.264    6.2491    8.2769    9.9604    4.3042    8.1108    6.1433    8.0063    5.4948    8.4293    6.1333    6.0498    5.6463   12.1343    7.6319   11.5769   10.5151    6.6353    9.3217    7.8625    9.9422    6.8079    4.8213    2.1562
  weight sum           289        72     23722       656       166      8763       913       399      4621       881       363       390      2382       330       880      1078      4463      2124       279       669      2965      1402      1386      1143       474       298        23
  precision         0.1044    0.1044    0.1044    0.1044    0.1044    0.1044    0.1044    0.1044    0.1044    0.1044    0.1044    0.1044    0.1044    0.1044    0.1044    0.1044    0.1044    0.1044    0.1044    0.1044    0.1044    0.1044    0.1044    0.1044    0.1044    0.1044    0.1044

3Pitch(Hz)
  mean             53.0447  243.6109   16.2557   84.0265  146.7969  226.5604   50.8978  215.2668  190.0809  202.0027  212.1825   79.0516  173.0172   155.177  193.8298  174.5421    179.07  190.4227   84.2846   81.8269   47.6853  161.5632   229.415   70.0517   177.836  113.8375         0
  std. dev.       100.7407  121.1132   55.6504   87.1965   37.9983   103.385   95.1804   72.3685   87.8538   84.4676  100.3526  116.8139   76.7882   130.778   86.7404   64.1915  105.2101   89.8055  115.9655  115.3898   90.0179   95.0481   85.2349  109.9001   73.0885   69.2084    0.0217
  weight sum           289        72     23722       656       166      8763       913       399      4621       881       363       390      2382       330       880      1078      4463      2124       279       669      2965      1402      1386      1143       474       298        23
  precision         0.1303    0.1303    0.1303    0.1303    0.1303    0.1303    0.1303    0.1303    0.1303    0.1303    0.1303    0.1303    0.1303    0.1303    0.1303    0.1303    0.1303    0.1303    0.1303    0.1303    0.1303    0.1303    0.1303    0.1303    0.1303    0.1303    0.1303

3RawPitch
  mean             37.5218  233.0192    13.331   66.0701  126.8755  217.0892   35.1933  212.6875  185.5537   195.986  201.2961   40.9502  165.5748   95.7641   182.691  158.2832  172.9408  177.3346   43.8765   61.7046   26.5841  155.6187  220.5485   44.3574  163.4913   78.4487         0
  std. dev.        87.6032  131.1754   50.0238   84.4174   74.1476   108.988   81.2248   75.4521   94.6689   94.0584   111.593   82.2165   83.1744  110.7962   97.6648   77.6752  112.1655  102.7294   92.4393  108.2125   70.1815  101.2738   93.0837    91.741     84.69   77.4231    0.0218
  weight sum           289        72     23722       656       166      8763       913       399      4621       881       363       390      2382       330       880      1078      4463      2124       279       669      2965      1402      1386      1143       474       298        23
  precision          0.131     0.131     0.131     0.131     0.131     0.131     0.131     0.131     0.131     0.131     0.131     0.131     0.131     0.131     0.131     0.131     0.131     0.131     0.131     0.131     0.131     0.131     0.131     0.131     0.131     0.131     0.131

3SmPitch
  mean             50.0403  243.6154   14.6616   77.2882  148.7384   224.793   42.8652  215.2622  188.4788  201.3343    210.63    61.329  170.4827  111.1232   190.939  172.9414   176.912  187.9132   66.3564   72.6147   40.2184  158.6783  229.0404    59.126  174.2215  108.6012         0
  std. dev.        97.9176   121.119   51.7924   84.1076   35.9087  105.0105    89.863   72.3668   89.1689   85.7678  102.1531  100.0281   79.2893  137.2341    90.948   66.1933  107.4207   92.3102  107.5613  113.3626   84.5527   96.5949   85.2781   104.139   77.2865   71.3254    0.0219
  weight sum           289        72     23722       656       166      8763       913       399      4621       881       363       390      2382       330       880      1078      4463      2124       279       669      2965      1402      1386      1143       474       298        23
  precision         0.1312    0.1312    0.1312    0.1312    0.1312    0.1312    0.1312    0.1312    0.1312    0.1312    0.1312    0.1312    0.1312    0.1312    0.1312    0.1312    0.1312    0.1312    0.1312    0.1312    0.1312    0.1312    0.1312    0.1312    0.1312    0.1312    0.1312

3Melogram(st)
  mean             15.2704   56.4746    4.8142   25.7986   49.3549   53.3068   14.0041    55.143   50.4808   52.9769   51.1937   21.2057    48.407   16.3654   50.8971   51.2035    46.671   49.9698   18.4246   20.9157   12.9456   43.0986   54.1306   16.5965   50.6047    40.204         0
  std. dev.        25.6147    8.9359   15.4731   25.1082    4.5649   14.5692   24.4479    7.3503   15.3557    11.374   17.6599   27.0683   16.3656   26.3777   14.5478    9.4371   20.3864   16.5749   26.7557   27.5522   23.4215   22.3166   14.2012    26.151   11.5705   18.3904    0.0042
  weight sum           289        72     23722       656       166      8763       913       399      4621       881       363       390      2382       330       880      1078      4463      2124       279       669      2965      1402      1386      1143       474       298        23
  precision         0.0252    0.0252    0.0252    0.0252    0.0252    0.0252    0.0252    0.0252    0.0252    0.0252    0.0252    0.0252    0.0252    0.0252    0.0252    0.0252    0.0252    0.0252    0.0252    0.0252    0.0252    0.0252    0.0252    0.0252    0.0252    0.0252    0.0252

3ZCross
  mean               8.489    3.3444    0.2298    0.9966    3.1604    7.5394    1.5493     3.863    4.9388    3.7314    4.3679    0.6234    3.5777    3.7436    2.8249    3.1812    4.0484    2.4421    4.2111    0.8868    3.6106    3.0525    3.8272    0.6961    3.0137    1.4912         0
  std. dev.         12.787    2.6007    1.0465    1.7046    2.3504    4.4124    3.5218    1.7383    3.1975     2.116    2.7571    1.5029    3.1538     3.781     1.406    1.9093    2.8985    1.5266    7.2153    2.1292     6.988    2.4195    2.8121    1.5181    1.7401    1.7078    0.1939
  weight sum           289        72     23722       656       166      8763       913       399      4621       881       363       390      2382       330       880      1078      4463      2124       279       669      2965      1402      1386      1143       474       298        23
  precision         1.1633    1.1633    1.1633    1.1633    1.1633    1.1633    1.1633    1.1633    1.1633    1.1633    1.1633    1.1633    1.1633    1.1633    1.1633    1.1633    1.1633    1.1633    1.1633    1.1633    1.1633    1.1633    1.1633    1.1633    1.1633    1.1633    1.1633

3F1(Hz)
  mean             141.645  603.0674   52.7265   384.784  446.2178  705.0561   94.4766  477.4468  462.8688  516.4354  493.7188  273.3116  360.2165  452.4804  431.7605  471.9862   483.672  467.0929  180.2536   231.865  183.6771  485.2774  496.5514  117.3276  482.8358  341.5369         0
  std. dev.       262.3972  135.0893  165.2548  299.6463   83.6969  257.0474  207.9472  132.8331  146.9719  152.9405  193.5409  333.7331    146.32   344.254  163.6131  140.0641  226.1449  156.0634  246.5083  294.8658  283.7015  236.1252  309.2602  213.2675  168.5953  183.8953    0.0607
  weight sum           289        72     23722       656       166      8763       913       399      4621       881       363       390      2382       330       880      1078      4463      2124       279       669      2965      1402      1386      1143       474       298        23
  precision         0.3642    0.3642    0.3642    0.3642    0.3642    0.3642    0.3642    0.3642    0.3642    0.3642    0.3642    0.3642    0.3642    0.3642    0.3642    0.3642    0.3642    0.3642    0.3642    0.3642    0.3642    0.3642    0.3642    0.3642    0.3642    0.3642    0.3642

3F2(Hz)
  mean            427.8683 1649.5966  165.0589 1110.6043 1931.8747 1456.7095  277.1651 1576.1073 1781.0424 1482.7607 1690.1635  711.0984 1961.8033 1273.6584 1666.1853 1669.0553 1142.8991 1599.9194  720.0537  688.7812  572.1167  1367.669 1050.0402  389.7194 1567.0717 1347.5288         0
  std. dev.       759.4217  128.5092  511.9666  844.4516  350.6376  402.3282  624.4934   345.027  532.5896  319.5763  594.0469  846.9056  680.1225  905.9766  443.7597  340.1256  536.7971   453.953  955.2282  845.5644  857.3759  617.6943  432.2873  688.3695  413.6827  662.3656    0.0738
  weight sum           289        72     23722       656       166      8763       913       399      4621       881       363       390      2382       330       880      1078      4463      2124       279       669      2965      1402      1386      1143       474       298        23
  precision         0.4431    0.4431    0.4431    0.4431    0.4431    0.4431    0.4431    0.4431    0.4431    0.4431    0.4431    0.4431    0.4431    0.4431    0.4431    0.4431    0.4431    0.4431    0.4431    0.4431    0.4431    0.4431    0.4431    0.4431    0.4431    0.4431    0.4431

3F3(Hz)
  mean             707.708 2858.6523  281.5968 1813.3756 2527.8161 2716.3116  508.5051 2752.2917 2615.4812 2867.2974 2894.0835 1211.3864 2642.4014  1874.533 2751.1286 2809.4292 2498.5172 2762.5242 1079.1805 1166.7586  951.3499  2376.762 2665.1247  706.0305 2671.7957 2324.6345         0
  std. dev.      1256.6343  410.6124  858.2952 1314.7793  113.9825  739.9882 1106.6488  466.8815  792.6591  499.4354   933.351 1437.6125   937.499 1323.7223  581.4549  577.7166 1024.1918   668.733 1394.1902 1419.9233 1409.3318  1080.231  803.6971  1235.641  674.1267 1158.5468      0.11
  weight sum           289        72     23722       656       166      8763       913       399      4621       881       363       390      2382       330       880      1078      4463      2124       279       669      2965      1402      1386      1143       474       298        23
  precision         0.6602    0.6602    0.6602    0.6602    0.6602    0.6602    0.6602    0.6602    0.6602    0.6602    0.6602    0.6602    0.6602    0.6602    0.6602    0.6602    0.6602    0.6602    0.6602    0.6602    0.6602    0.6602    0.6602    0.6602    0.6602    0.6602    0.6602

3F4(Hz)
  mean            837.3664 3248.0373  338.6077 2253.0612 3589.5532 3127.8318  586.5008 3300.9049 3152.5297  3324.975 2934.4812 1389.8901 3143.1187 2343.9636 3303.8875 3235.5627 2876.7808 3168.6566 1307.4461 1391.0821 1073.8381   2756.89 3052.6473  813.3891 3237.2541 2686.1611         0
  std. dev.      1486.5336  408.9504 1029.7278 1619.9647   90.9769  839.5435 1278.7059  442.7817  921.2174  545.8289  948.5863 1639.0113 1073.3319  1642.708  630.9786  585.4975 1161.8705  770.9632 1700.6345 1671.3759 1588.4958 1198.7223  827.1813 1428.2552  705.6697  1327.065    0.1129
  weight sum           289        72     23722       656       166      8763       913       399      4621       881       363       390      2382       330       880      1078      4463      2124       279       669      2965      1402      1386      1143       474       298        23
  precision         0.6775    0.6775    0.6775    0.6775    0.6775    0.6775    0.6775    0.6775    0.6775    0.6775    0.6775    0.6775    0.6775    0.6775    0.6775    0.6775    0.6775    0.6775    0.6775    0.6775    0.6775    0.6775    0.6775    0.6775    0.6775    0.6775    0.6775

4Int(dB)
  mean            -19.1309  -11.0566  -48.5189  -21.3443  -10.6689   -2.9029  -23.8998   -5.8815   -5.2154   -7.7207   -7.7144  -22.1122    -8.745  -15.7949   -7.5852   -8.2304    -8.205   -9.4674  -21.7073   -22.303  -21.7774  -11.9296   -5.0964  -24.7837   -9.0867  -16.2984   -27.151
  std. dev.         8.2302     4.341   15.9252   11.3134    6.4127    8.1774    10.048     4.314     8.061    6.1865    7.9877    5.3257    8.4284     6.103    5.9771     5.768   12.2015    7.8333   11.1802   10.6956    6.5743    9.4955    7.5403   10.5316    6.4709    4.7071    2.2431
  weight sum           289        72     23722       656       166      8763       913       399      4621       881       363       390      2382       330       880      1078      4463      2124       279       669      2965      1402      1386      1143       474       298        23
  precision         0.1043    0.1043    0.1043    0.1043    0.1043    0.1043    0.1043    0.1043    0.1043    0.1043    0.1043    0.1043    0.1043    0.1043    0.1043    0.1043    0.1043    0.1043    0.1043    0.1043    0.1043    0.1043    0.1043    0.1043    0.1043    0.1043    0.1043

4Pitch(Hz)
  mean             57.2926  243.6833   15.7183   79.9944  147.5913   226.621   60.4216  215.3119  190.6854  201.8505  211.9581   76.6061  173.6379  154.1093    194.15  174.4069  178.3171  189.1463   90.0832   85.0097   45.1599  161.7188   230.256   78.6084  178.8974  113.9875         0
  std. dev.       103.6809  121.7943   54.8033   86.5333   38.8775  103.2128  101.9126   72.0861   87.4198   84.7618   101.191  115.9204   76.0641  130.4811   86.8219    64.136  105.1185   90.7082  118.9842  114.5412    88.338   95.5111   83.5916  113.5628   71.7887   69.2177    0.0217
  weight sum           289        72     23722       656       166      8763       913       399      4621       881       363       390      2382       330       880      1078      4463      2124       279       669      2965      1402      1386      1143       474       298        23
  precision         0.1303    0.1303    0.1303    0.1303    0.1303    0.1303    0.1303    0.1303    0.1303    0.1303    0.1303    0.1303    0.1303    0.1303    0.1303    0.1303    0.1303    0.1303    0.1303    0.1303    0.1303    0.1303    0.1303    0.1303    0.1303    0.1303    0.1303

4RawPitch
  mean             39.8485  234.3892   12.8482   62.1704   129.542  217.1337    43.308  212.7712  186.0468  195.7565  201.5263   38.1953  166.4491     94.58  183.0776  157.9907  172.3446  175.4321   49.6468   64.9618   23.9913  155.5984   221.377   53.7764  164.8761   79.1943         0
  std. dev.        89.0351  131.0658   49.2604   82.8608   75.8327   108.934   89.2099   75.1283   94.2836    93.879  111.8555   79.1883   82.7406  109.6497   97.7579   78.0879   111.886  103.7454   97.7558  108.2823   66.8443  101.9004   91.8259   98.3045   82.9596   77.1668    0.0218
  weight sum           289        72     23722       656       166      8763       913       399      4621       881       363       390      2382       330       880      1078      4463      2124       279       669      2965      1402      1386      1143       474       298        23
  precision          0.131     0.131     0.131     0.131     0.131     0.131     0.131     0.131     0.131     0.131     0.131     0.131     0.131     0.131     0.131     0.131     0.131     0.131     0.131     0.131     0.131     0.131     0.131     0.131     0.131     0.131     0.131

4SmPitch
  mean             52.8659  243.6883   14.1449   73.2597  149.5327  224.9684   51.9976  215.3073  189.2421  201.2862  210.4051   58.8759  171.0176  110.0585  190.8812   172.492  176.2127  186.0892   71.1737   75.7198   37.5887  158.9145   229.966   68.0467   175.782  108.7328         0
  std. dev.       100.3428  121.7968   50.9173   83.0946    36.794  104.7042   97.4937   72.0825   88.6477   85.8449  102.9728   98.5289   78.8205  136.6015   91.5707   66.5539  107.2818    93.569  111.1712  112.6926   82.2568   96.9797   83.6261  108.9491   75.5882   71.3475    0.0219
  weight sum           289        72     23722       656       166      8763       913       399      4621       881       363       390      2382       330       880      1078      4463      2124       279       669      2965      1402      1386      1143       474       298        23
  precision         0.1312    0.1312    0.1312    0.1312    0.1312    0.1312    0.1312    0.1312    0.1312    0.1312    0.1312    0.1312    0.1312    0.1312    0.1312    0.1312    0.1312    0.1312    0.1312    0.1312    0.1312    0.1312    0.1312    0.1312    0.1312    0.1312    0.1312

4Melogram(st)
  mean             16.2714   56.4407    4.6716   24.6982   49.4313   53.3894   15.8736   55.1544   50.6147   52.9664   51.0657    20.695   48.6212   16.3146   50.9332   51.1007   46.5702   49.6579     19.67   21.7002   12.2041   43.0879   54.4863    18.711   50.8737   40.2278         0
  std. dev.         26.128    8.9923   15.2691   25.0657    4.6213   14.3758   25.5384    7.3375   15.1287   11.3858   17.8701   26.9749   16.0378   26.4707   14.5558    9.6857    20.439    16.981   27.2243    27.606   22.9897   22.3579   13.4335   27.0038   11.0856    18.398    0.0042
  weight sum           289        72     23722       656       166      8763       913       399      4621       881       363       390      2382       330       880      1078      4463      2124       279       669      2965      1402      1386      1143       474       298        23
  precision         0.0252    0.0252    0.0252    0.0252    0.0252    0.0252    0.0252    0.0252    0.0252    0.0252    0.0252    0.0252    0.0252    0.0252    0.0252    0.0252    0.0252    0.0252    0.0252    0.0252    0.0252    0.0252    0.0252    0.0252    0.0252    0.0252    0.0252

4ZCross
  mean              8.5896    3.2959    0.2221    0.9327    3.2585    7.5244    1.6729    3.9359    4.9156    3.8027    4.3582    0.5846    3.5967    3.7119    2.8341    3.1823    4.0424    2.3944     4.307     0.979    3.5996    3.0351    3.8515    0.8946    3.0554    1.5146         0
  std. dev.        12.7749    2.6156    1.0405    1.6812    2.4065    4.4211    3.5391    1.7782    3.2034    2.1182    2.7159    1.4661    3.1513    3.7813    1.3988     1.884    2.9091    1.5238    7.1567    2.1273    6.9991    2.4104    2.7932       1.7     1.742    1.7005    0.1939
  weight sum           289        72     23722       656       166      8763       913       399      4621       881       363       390      2382       330       880      1078      4463      2124       279       669      2965      1402      1386      1143       474       298        23
  precision         1.1633    1.1633    1.1633    1.1633    1.1633    1.1633    1.1633    1.1633    1.1633    1.1633    1.1633    1.1633    1.1633    1.1633    1.1633    1.1633    1.1633    1.1633    1.1633    1.1633    1.1633    1.1633    1.1633    1.1633    1.1633    1.1633    1.1633

4F1(Hz)
  mean            134.0304  608.6065   50.9791  370.8809  446.6215  711.1854  103.4879  478.6471  466.9426  517.5707  493.2121  257.3532  363.5983  447.9045  431.1649  470.5344  486.8876   460.667  182.3828   232.006  169.5554  483.1726  501.4313  124.9647  483.3099  340.6239         0
  std. dev.       255.4969  136.8825  162.6227  302.9978   85.8468  250.8735   215.266  132.4441  141.0764   152.918  192.4513  329.9021  141.2908  348.6185  162.2572  137.0126  224.2029  156.4058    246.94  292.2556  276.6965  234.5445  304.2361  218.7114  163.8664  183.0212    0.0607
  weight sum           289        72     23722       656       166      8763       913       399      4621       881       363       390      2382       330       880      1078      4463      2124       279       669      2965      1402      1386      1143       474       298        23
  precision         0.3642    0.3642    0.3642    0.3642    0.3642    0.3642    0.3642    0.3642    0.3642    0.3642    0.3642    0.3642    0.3642    0.3642    0.3642    0.3642    0.3642    0.3642    0.3642    0.3642    0.3642    0.3642    0.3642    0.3642    0.3642    0.3642    0.3642

4F2(Hz)
  mean            410.8756 1638.7108  159.7147 1070.4154 1925.4529 1464.9921  302.3623 1571.3768 1800.7234 1482.7798 1687.2659  674.1402 1991.3969 1244.3036 1668.8094  1670.994 1143.6165 1592.8805  725.7135  689.6151  529.8886 1370.3938 1063.4653  415.3561  1582.791 1351.3498         0
  std. dev.       750.4936  126.0433  504.5122  853.6499  351.1186  386.1433  643.6399   343.705  507.5736    322.46  594.1662  841.0747  651.9928  910.3629  433.9806  329.5639  529.3781   460.739  954.4333  839.5096  839.1176  618.0853  414.3404  708.2955  389.8601  664.0945    0.0738
  weight sum           289        72     23722       656       166      8763       913       399      4621       881       363       390      2382       330       880      1078      4463      2124       279       669      2965      1402      1386      1143       474       298        23
  precision         0.4431    0.4431    0.4431    0.4431    0.4431    0.4431    0.4431    0.4431    0.4431    0.4431    0.4431    0.4431    0.4431    0.4431    0.4431    0.4431    0.4431    0.4431    0.4431    0.4431    0.4431    0.4431    0.4431    0.4431    0.4431    0.4431    0.4431

4F3(Hz)
  mean            672.5356 2860.0461  272.3289  1746.696 2525.2826 2732.7922  556.6205 2749.6624  2638.722 2866.4836 2893.5233 1142.9212 2676.1136 1837.9646 2751.9434 2818.3643 2509.8227 2751.6432 1088.8543 1172.1015  879.9332 2378.9471  2701.015  743.7442 2694.3199 2324.5104         0
  std. dev.       1228.457   417.525  845.5437 1334.2803  112.9788    712.03 1144.0071  467.7999  758.2975  508.9155  933.1946 1421.5854  900.3451 1332.3169  566.7825   567.257 1013.4676  685.4656 1396.2439  1413.788 1378.3878 1080.1857  745.1651 1257.3577  632.0142 1157.9491      0.11
  weight sum           289        72     23722       656       166      8763       913       399      4621       881       363       390      2382       330       880      1078      4463      2124       279       669      2965      1402      1386      1143       474       298        23
  precision         0.6602    0.6602    0.6602    0.6602    0.6602    0.6602    0.6602    0.6602    0.6602    0.6602    0.6602    0.6602    0.6602    0.6602    0.6602    0.6602    0.6602    0.6602    0.6602    0.6602    0.6602    0.6602    0.6602    0.6602    0.6602    0.6602    0.6602

4F4(Hz)
  mean            804.6681 3242.8713   327.666 2171.6193 3590.4838 3145.5664  647.7106 3299.4904  3179.034 3322.1873 2936.8721   1316.03 3179.5458 2305.1837 3309.3984  3243.195  2888.156 3157.8057 1313.0507 1407.7959  995.2684 2757.3675 3093.8479  860.4427  3265.765 2686.8886         0
  std. dev.      1469.2433  402.6487  1014.973 1645.6702   89.5848  806.5713 1332.4515   440.844  877.8457  556.6252  950.2793 1626.8785  1026.953  1659.267  612.3136  568.8859 1148.0627  792.5274 1695.0534 1675.5478 1556.8632 1199.2031  750.1771 1459.7094  640.7738 1327.8399    0.1129
  weight sum           289        72     23722       656       166      8763       913       399      4621       881       363       390      2382       330       880      1078      4463      2124       279       669      2965      1402      1386      1143       474       298        23
  precision         0.6775    0.6775    0.6775    0.6775    0.6775    0.6775    0.6775    0.6775    0.6775    0.6775    0.6775    0.6775    0.6775    0.6775    0.6775    0.6775    0.6775    0.6775    0.6775    0.6775    0.6775    0.6775    0.6775    0.6775    0.6775    0.6775    0.6775





=== Stratified cross-validation ===

Correctly Classified Instances       17463               28.5665 %
Incorrectly Classified Instances     43668               71.4335 %
Kappa statistic                          0.2109
K&B Relative Info Score             944660.038  %
K&B Information Score                31185.0295 bits      0.5101 bits/instance
Class complexity | order 0          201724.4304 bits      3.2999 bits/instance
Class complexity | scheme          5687476.4035 bits     93.0375 bits/instance
Complexity improvement     (Sf)    -5485751.9731 bits    -89.7376 bits/instance
Mean absolute error                      0.053 
Root mean squared error                  0.223 
Relative absolute error                 88.3225 %
Root relative squared error            128.7577 %
Coverage of cases (0.95 level)          31.7449 %
Mean rel. region size (0.95 level)       4.9541 %
Total Number of Instances            61131     


=== Detailed Accuracy By Class ===

                 TP Rate  FP Rate  Precision  Recall   F-Measure  MCC      ROC Area  PRC Area  Class
                 0,260    0,005    0,208      0,260    0,231      0,228    0,690     0,113     ch
                 0,347    0,020    0,020      0,347    0,038      0,079    0,868     0,026     rr
                 0,475    0,017    0,947      0,475    0,633      0,564    0,857     0,829     0
                 0,105    0,019    0,056      0,105    0,073      0,063    0,667     0,035     hs
                 0,928    0,133    0,019      0,928    0,037      0,121    0,956     0,121     hg
                 0,459    0,036    0,683      0,459    0,549      0,503    0,883     0,617     a
                 0,126    0,012    0,134      0,126    0,130      0,117    0,500     0,065     c
                 0,416    0,120    0,022      0,416    0,042      0,073    0,830     0,025     b
                 0,059    0,004    0,519      0,059    0,106      0,156    0,747     0,209     e
                 0,015    0,014    0,015      0,015    0,015      0,001    0,774     0,031     d
                 0,030    0,003    0,052      0,030    0,038      0,035    0,745     0,020     g
                 0,082    0,009    0,055      0,082    0,066      0,060    0,564     0,023     f
                 0,055    0,003    0,450      0,055    0,097      0,146    0,818     0,211     i
                 0,245    0,003    0,295      0,245    0,268      0,265    0,760     0,166     j
                 0,000    0,002    0,000      0,000    0,000      -0,006   0,783     0,034     m
                 0,237    0,045    0,086      0,237    0,127      0,118    0,824     0,062     l
                 0,010    0,003    0,199      0,010    0,019      0,029    0,732     0,155     o
                 0,010    0,010    0,036      0,010    0,016      0,001    0,771     0,074     n
                 0,029    0,001    0,096      0,029    0,044      0,050    0,647     0,025     q
                 0,019    0,004    0,049      0,019    0,028      0,024    0,553     0,031     p
                 0,084    0,001    0,777      0,084    0,151      0,246    0,630     0,267     s
                 0,018    0,003    0,112      0,018    0,031      0,036    0,697     0,045     r
                 0,188    0,005    0,469      0,188    0,269      0,287    0,849     0,244     u
                 0,072    0,009    0,134      0,072    0,093      0,085    0,524     0,057     t
                 0,000    0,002    0,000      0,000    0,000      -0,004   0,744     0,014     v
                 0,128    0,022    0,028      0,128    0,046      0,050    0,850     0,026     y
                 1,000    0,224    0,002      1,000    0,003      0,036    0,891     0,002     z
Weighted Avg.    0,286    0,016    0,600      0,286    0,363      0,341    0,799     0,475     


=== Confusion Matrix ===

     a     b     c     d     e     f     g     h     i     j     k     l     m     n     o     p     q     r     s     t     u     v     w     x     y     z    aa   <-- classified as
    75    12    15     7     5     7    39     4     1     8     0     8     0     3     0     5     1     4     0     2    12     0     0     1     0     2    78 |     a = ch
     0    25     0     0    37     3     0     5     0     0     0     0     0     0     0     0     0     0     0     0     0     0     0     0     0     2     0 |     b = rr
     5   103 11277   293   589    57    46   376    22   126     1   140    33    16    15   243    14   152     2    28    15    28    15    98    16   216  9796 |     c = 0
     0    12    25    69   186     6     6    31     4     6     0    28     1     4     0    31     0    12     0     0     3    14     5     6     0    48   159 |     d = hs
     0     0     0     0   154     0     0     7     0     0     0     0     1     0     0     2     0     2     0     0     0     0     0     0     0     0     0 |     e = hg
     1   272    60    74  1287  4022    70  1349    66   369     3    33     7    45     2   445    67    42    18    41     0    52    69    55    31    94   189 |     f = a
    28     1    57    30    17     0   115    11     3     0     0    25     7    11     0    13     6    16    14    15    11     2    10    45     1    15   460 |     g = c
     0    23     0     0   122    23     0   166     0     1     6     0     0     0     0    47     0     4     0     0     0     0     2     0     1     4     0 |     h = b
     1    96    15    79  1740   474    37  1049   273    13    76    13    37    16     7   237    36    44    12    36     1     8    48    52     1    74   146 |     i = e
     0    52     5    13   252    81     0   331     0    13     4     3     0     0     4    93     0     1     0     0     0     2     0     3     0    22     2 |     j = d
     0    22     2     6    99    47     1    96     0     0    11     8     0     0     6    40     0     1     0     0     0     0     5     3     0     1    15 |     k = g
     0    21    17    28    28     5    12    13     2     1     5    32     0     4     0     6     0    13     0     0     1     8     0    15     5    19   155 |     l = f
     7     5    19    42   602   106    27   539    86     0    39     6   130     2    67   331    12     7     8    31     2     1     7    47     0   166    93 |     m = i
     0     5    10    17    12    31     1    19     2     4     0    15     1    81     2     2     2    23     2     1     6    15     1     7     0    10    61 |     n = j
     0    16     1    23   347    49     1   270     0    19     0     1     3     0     0   109     0     0     0     1     0     0     0     5     0    21    14 |     o = m
     0    54     2     9   383    37     2   258    10     4     0     4     2     0     1   256     2     9     0     4     0     0     3     9     0    27     2 |     p = l
     4   100    25   110   815   548    19  1249    27   165     0    32    19    15     0   405    44    24     6    27     2     9   111    34    42   205   426 |     q = o
     0   173    11    81   623    49     1   700     5    18    22    12    17     0     0   219     3    22     0     1     1     1     4     6     0   102    53 |     r = n
    32     0     8     8    20    11    34     6     2     5     0     8     0     5     2     3     0    15     8     0    11     1     0     3     0    10    87 |     s = q
     0    13    42    42    35    18    27    20     0    10     8    34     3     2     0    23     4    22     1    13     1    18     2    40     0    30   261 |     t = p
   207   105   211   147   101    59   288    34     9    22     9   110    15    58     6    81     3   105     2     1   248    24     0    31     0   105   984 |     u = s
     0    94    25    69   277    84    10   274     7    27    26    24     6     2     1   204     3    28     1    13     1    25     8    21     8    42   122 |     v = r
     0    14     7    10   111   147    10   509     0    14     0     3     3     1    16   111    12     3     0    18     0     5   261    32    12    70    17 |     w = u
     1    22    73    56    42     0    98    13     0    11     0    36     3    10     0     2    11    56     9    30     2     9     3    82     0    22   552 |     x = t
     0     5     2     5   237    28     2   100     7     8     1     2     1     0     1    39     1     3     0     1     0     1     0     9     0    16     5 |     y = v
     0     3     5     6   146     0    15    20     0     0     0     9     0     0     0    22     0     1     0     3     2     0     3    10     0    38    15 |     z = y
     0     0     0     0     0     0     0     0     0     0     0     0     0     0     0     0     0     0     0     0     0     0     0     0     0     0    23 |    aa = z

=== Percent Confusion Matrix ===
a	b	c	d	e	f	g	h	i	j	k	l	m	n	o	p	q	r	s	t	u	v	w	x	y	z	aa	
25.95	4.15	5.19	2.42	1.73	2.42	13.49	1.38	0.35	2.77	0.0	2.77	0.0	1.04	0.0	1.73	0.35	1.38	0.0	0.69	4.15	0.0	0.0	0.35	0.0	0.69	26.99	 a = ch
0.0	34.72	0.0	0.0	51.39	4.17	0.0	6.94	0.0	0.0	0.0	0.0	0.0	0.0	0.0	0.0	0.0	0.0	0.0	0.0	0.0	0.0	0.0	0.0	0.0	2.78	0.0	 b = rr
0.02	0.43	47.54	1.24	2.48	0.24	0.19	1.59	0.09	0.53	0.0	0.59	0.14	0.07	0.06	1.02	0.06	0.64	0.01	0.12	0.06	0.12	0.06	0.41	0.07	0.91	41.3	 c = 0
0.0	1.83	3.81	10.52	28.35	0.91	0.91	4.73	0.61	0.91	0.0	4.27	0.15	0.61	0.0	4.73	0.0	1.83	0.0	0.0	0.46	2.13	0.76	0.91	0.0	7.32	24.24	 d = hs
0.0	0.0	0.0	0.0	92.77	0.0	0.0	4.22	0.0	0.0	0.0	0.0	0.6	0.0	0.0	1.2	0.0	1.2	0.0	0.0	0.0	0.0	0.0	0.0	0.0	0.0	0.0	 e = hg
0.01	3.1	0.68	0.84	14.69	45.9	0.8	15.39	0.75	4.21	0.03	0.38	0.08	0.51	0.02	5.08	0.76	0.48	0.21	0.47	0.0	0.59	0.79	0.63	0.35	1.07	2.16	 f = a
3.07	0.11	6.24	3.29	1.86	0.0	12.6	1.2	0.33	0.0	0.0	2.74	0.77	1.2	0.0	1.42	0.66	1.75	1.53	1.64	1.2	0.22	1.1	4.93	0.11	1.64	50.38	 g = c
0.0	5.76	0.0	0.0	30.58	5.76	0.0	41.6	0.0	0.25	1.5	0.0	0.0	0.0	0.0	11.78	0.0	1.0	0.0	0.0	0.0	0.0	0.5	0.0	0.25	1.0	0.0	 h = b
0.02	2.08	0.32	1.71	37.65	10.26	0.8	22.7	5.91	0.28	1.64	0.28	0.8	0.35	0.15	5.13	0.78	0.95	0.26	0.78	0.02	0.17	1.04	1.13	0.02	1.6	3.16	 i = e
0.0	5.9	0.57	1.48	28.6	9.19	0.0	37.57	0.0	1.48	0.45	0.34	0.0	0.0	0.45	10.56	0.0	0.11	0.0	0.0	0.0	0.23	0.0	0.34	0.0	2.5	0.23	 j = d
0.0	6.06	0.55	1.65	27.27	12.95	0.28	26.45	0.0	0.0	3.03	2.2	0.0	0.0	1.65	11.02	0.0	0.28	0.0	0.0	0.0	0.0	1.38	0.83	0.0	0.28	4.13	 k = g
0.0	5.38	4.36	7.18	7.18	1.28	3.08	3.33	0.51	0.26	1.28	8.21	0.0	1.03	0.0	1.54	0.0	3.33	0.0	0.0	0.26	2.05	0.0	3.85	1.28	4.87	39.74	 l = f
0.29	0.21	0.8	1.76	25.27	4.45	1.13	22.63	3.61	0.0	1.64	0.25	5.46	0.08	2.81	13.9	0.5	0.29	0.34	1.3	0.08	0.04	0.29	1.97	0.0	6.97	3.9	 m = i
0.0	1.52	3.03	5.15	3.64	9.39	0.3	5.76	0.61	1.21	0.0	4.55	0.3	24.55	0.61	0.61	0.61	6.97	0.61	0.3	1.82	4.55	0.3	2.12	0.0	3.03	18.48	 n = j
0.0	1.82	0.11	2.61	39.43	5.57	0.11	30.68	0.0	2.16	0.0	0.11	0.34	0.0	0.0	12.39	0.0	0.0	0.0	0.11	0.0	0.0	0.0	0.57	0.0	2.39	1.59	 o = m
0.0	5.01	0.19	0.83	35.53	3.43	0.19	23.93	0.93	0.37	0.0	0.37	0.19	0.0	0.09	23.75	0.19	0.83	0.0	0.37	0.0	0.0	0.28	0.83	0.0	2.5	0.19	 p = l
0.09	2.24	0.56	2.46	18.26	12.28	0.43	27.99	0.6	3.7	0.0	0.72	0.43	0.34	0.0	9.07	0.99	0.54	0.13	0.6	0.04	0.2	2.49	0.76	0.94	4.59	9.55	 q = o
0.0	8.15	0.52	3.81	29.33	2.31	0.05	32.96	0.24	0.85	1.04	0.56	0.8	0.0	0.0	10.31	0.14	1.04	0.0	0.05	0.05	0.05	0.19	0.28	0.0	4.8	2.5	 r = n
11.47	0.0	2.87	2.87	7.17	3.94	12.19	2.15	0.72	1.79	0.0	2.87	0.0	1.79	0.72	1.08	0.0	5.38	2.87	0.0	3.94	0.36	0.0	1.08	0.0	3.58	31.18	 s = q
0.0	1.94	6.28	6.28	5.23	2.69	4.04	2.99	0.0	1.49	1.2	5.08	0.45	0.3	0.0	3.44	0.6	3.29	0.15	1.94	0.15	2.69	0.3	5.98	0.0	4.48	39.01	 t = p
6.98	3.54	7.12	4.96	3.41	1.99	9.71	1.15	0.3	0.74	0.3	3.71	0.51	1.96	0.2	2.73	0.1	3.54	0.07	0.03	8.36	0.81	0.0	1.05	0.0	3.54	33.19	 u = s
0.0	6.7	1.78	4.92	19.76	5.99	0.71	19.54	0.5	1.93	1.85	1.71	0.43	0.14	0.07	14.55	0.21	2.0	0.07	0.93	0.07	1.78	0.57	1.5	0.57	3.0	8.7	 v = r
0.0	1.01	0.51	0.72	8.01	10.61	0.72	36.72	0.0	1.01	0.0	0.22	0.22	0.07	1.15	8.01	0.87	0.22	0.0	1.3	0.0	0.36	18.83	2.31	0.87	5.05	1.23	 w = u
0.09	1.92	6.39	4.9	3.67	0.0	8.57	1.14	0.0	0.96	0.0	3.15	0.26	0.87	0.0	0.17	0.96	4.9	0.79	2.62	0.17	0.79	0.26	7.17	0.0	1.92	48.29	 x = t
0.0	1.05	0.42	1.05	50.0	5.91	0.42	21.1	1.48	1.69	0.21	0.42	0.21	0.0	0.21	8.23	0.21	0.63	0.0	0.21	0.0	0.21	0.0	1.9	0.0	3.38	1.05	 y = v
0.0	1.01	1.68	2.01	48.99	0.0	5.03	6.71	0.0	0.0	0.0	3.02	0.0	0.0	0.0	7.38	0.0	0.34	0.0	1.01	0.67	0.0	1.01	3.36	0.0	12.75	5.03	 z = y
0.0	0.0	0.0	0.0	0.0	0.0	0.0	0.0	0.0	0.0	0.0	0.0	0.0	0.0	0.0	0.0	0.0	0.0	0.0	0.0	0.0	0.0	0.0	0.0	0.0	0.0	100.0	 aa = z
