Timestamp:2013-07-22-20:38:40
Inventario:I0
Intervalo:3ms
Ngramas:3
Clasificador:RandomForest
Relation Name:  I0-3ms-3gramas
Num Instances:  61133
Num Attributes: 31

     Name                      Type  Nom  Int Real     Missing      Unique  Dist
   1 0Int(dB)                   Num   0%  10%  90%     0 /  0%     2 /  0%   776 
   2 0Pitch(Hz)                 Num   0%  52%  48%     0 /  0%   559 /  1%  3828 
   3 0RawPitch                  Num   0%  55%  45%     0 /  0%   613 /  1%  3808 
   4 0SmPitch                   Num   0%  53%  47%     0 /  0%   575 /  1%  3802 
   5 0Melogram(st)              Num   0%  49%  51%     0 /  0%   269 /  0%  3285 
   6 0ZCross                    Num   0% 100%   0%     0 /  0%     3 /  0%    50 
   7 0F1(Hz)                    Num   0%  52%  48%     0 /  0%  1075 /  2%  4783 
   8 0F2(Hz)                    Num   0%  52%  48%     0 /  0%  2270 /  4%  6724 
   9 0F3(Hz)                    Num   0%  52%  48%     0 /  0%  1945 /  3%  6241 
  10 0F4(Hz)                    Num   0%  52%  48%     0 /  0%  1922 /  3%  6122 
  11 1Int(dB)                   Num   0%  10%  90%     0 /  0%     2 /  0%   776 
  12 1Pitch(Hz)                 Num   0%  52%  48%     0 /  0%   559 /  1%  3828 
  13 1RawPitch                  Num   0%  55%  45%     0 /  0%   613 /  1%  3808 
  14 1SmPitch                   Num   0%  53%  47%     0 /  0%   575 /  1%  3802 
  15 1Melogram(st)              Num   0%  49%  51%     0 /  0%   269 /  0%  3285 
  16 1ZCross                    Num   0% 100%   0%     0 /  0%     3 /  0%    50 
  17 1F1(Hz)                    Num   0%  52%  48%     0 /  0%  1075 /  2%  4783 
  18 1F2(Hz)                    Num   0%  52%  48%     0 /  0%  2270 /  4%  6724 
  19 1F3(Hz)                    Num   0%  52%  48%     0 /  0%  1945 /  3%  6241 
  20 1F4(Hz)                    Num   0%  52%  48%     0 /  0%  1922 /  3%  6122 
  21 2Int(dB)                   Num   0%  10%  90%     0 /  0%     3 /  0%   777 
  22 2Pitch(Hz)                 Num   0%  52%  48%     0 /  0%   559 /  1%  3828 
  23 2RawPitch                  Num   0%  55%  45%     0 /  0%   613 /  1%  3808 
  24 2SmPitch                   Num   0%  53%  47%     0 /  0%   575 /  1%  3802 
  25 2Melogram(st)              Num   0%  49%  51%     0 /  0%   269 /  0%  3285 
  26 2ZCross                    Num   0% 100%   0%     0 /  0%     3 /  0%    50 
  27 2F1(Hz)                    Num   0%  52%  48%     0 /  0%  1075 /  2%  4783 
  28 2F2(Hz)                    Num   0%  52%  48%     0 /  0%  2270 /  4%  6724 
  29 2F3(Hz)                    Num   0%  52%  48%     0 /  0%  1945 /  3%  6241 
  30 2F4(Hz)                    Num   0%  52%  48%     0 /  0%  1922 /  3%  6122 
  31 class                      Nom 100%   0%   0%     0 /  0%     0 /  0%    27 


Options: -I 10 -K 0 -S 1 -num-slots 4 

Random forest of 10 trees, each constructed while considering 5 random features.
Out of bag error: 0.189





=== Stratified cross-validation ===

Correctly Classified Instances       52293               85.5397 %
Incorrectly Classified Instances      8840               14.4603 %
Kappa statistic                          0.819 
K&B Relative Info Score            4793591.7843 %
K&B Information Score               158249.5774 bits      2.5886 bits/instance
Class complexity | order 0          201727.1617 bits      3.2998 bits/instance
Class complexity | scheme          3650171.4836 bits     59.7087 bits/instance
Complexity improvement     (Sf)    -3448444.3218 bits    -56.4089 bits/instance
Mean absolute error                      0.0178
Root mean squared error                  0.0918
Relative absolute error                 29.6008 %
Root relative squared error             53.0187 %
Coverage of cases (0.95 level)          94.4743 %
Mean rel. region size (0.95 level)       8.5699 %
Total Number of Instances            61133     


=== Detailed Accuracy By Class ===

                 TP Rate  FP Rate  Precision  Recall   F-Measure  MCC      ROC Area  PRC Area  Class
                 0,339    0,002    0,458      0,339    0,390      0,392    0,783     0,301     ch
                 0,889    0,000    0,853      0,889    0,871      0,871    1,000     0,928     rr
                 0,945    0,079    0,884      0,945    0,914      0,857    0,979     0,960     0
                 0,610    0,002    0,777      0,610    0,683      0,685    0,862     0,623     hs
                 0,813    0,000    0,918      0,813    0,863      0,864    0,982     0,901     hg
                 0,931    0,018    0,897      0,931    0,914      0,899    0,982     0,956     a
                 0,295    0,008    0,352      0,295    0,321      0,313    0,803     0,228     c
                 0,887    0,000    0,934      0,887    0,910      0,910    0,993     0,945     b
                 0,895    0,012    0,857      0,895    0,876      0,865    0,974     0,919     e
                 0,844    0,001    0,915      0,844    0,878      0,877    0,991     0,922     d
                 0,824    0,001    0,882      0,824    0,852      0,852    0,969     0,882     g
                 0,392    0,003    0,446      0,392    0,417      0,415    0,847     0,363     f
                 0,862    0,005    0,873      0,862    0,867      0,862    0,968     0,896     i
                 0,615    0,001    0,793      0,615    0,693      0,697    0,874     0,632     j
                 0,886    0,001    0,933      0,886    0,909      0,908    0,987     0,940     m
                 0,847    0,002    0,907      0,847    0,876      0,874    0,989     0,911     l
                 0,829    0,009    0,878      0,829    0,852      0,842    0,951     0,874     o
                 0,888    0,003    0,908      0,888    0,898      0,895    0,980     0,923     n
                 0,344    0,001    0,632      0,344    0,445      0,464    0,797     0,343     q
                 0,363    0,003    0,535      0,363    0,433      0,436    0,809     0,351     p
                 0,705    0,017    0,683      0,705    0,694      0,678    0,935     0,707     s
                 0,682    0,003    0,854      0,682    0,758      0,758    0,933     0,767     r
                 0,901    0,001    0,948      0,901    0,924      0,922    0,985     0,946     u
                 0,271    0,008    0,408      0,271    0,326      0,322    0,800     0,244     t
                 0,749    0,000    0,929      0,749    0,829      0,833    0,979     0,882     v
                 0,758    0,000    0,922      0,758    0,832      0,836    0,933     0,803     y
                 0,000    0,000    0,000      0,000    0,000      -0,000   0,542     0,001     z
Weighted Avg.    0,855    0,036    0,849      0,855    0,850      0,823    0,961     0,879     


=== Confusion Matrix ===

     a     b     c     d     e     f     g     h     i     j     k     l     m     n     o     p     q     r     s     t     u     v     w     x     y     z    aa   <-- classified as
    98     0    41     2     0    10    18     0     3     0     0     4     0     0     1     0     3     1     3     1    90     1     0    13     0     0     0 |     a = ch
     0    64     0     0     0     2     0     0     5     0     0     0     0     0     0     0     1     0     0     0     0     0     0     0     0     0     0 |     b = rr
    16     0 22424    44     1   178   117     2   138     9     8    33    74     6     5    16   138    37    11    57   237    27    12   116     5     8     5 |     c = 0
     1     0   158   400     0    17     8     0     4     1     0     4     1     0     0     1    15     4     2     1    29     1     1     8     0     0     0 |     d = hs
     0     0     5     0   135    10     0     0    12     0     1     0     3     0     0     0     0     0     0     0     0     0     0     0     0     0     0 |     e = hg
     3     5   225    10     2  8159    39     3    46    11     5     9    12     0     3    18    45    26     5    14    44    33     4    38     2     2     0 |     f = a
    15     0   296     2     0    42   269     0    20     0     0    12    15     8     1     0    20     2    17    14   100     8     3    67     0     1     1 |     g = c
     0     0     6     0     0    10     0   354     9     0     1     0     7     0     3     0     2     0     0     0     0     4     3     0     0     0     0 |     h = b
     2     4   168     7     5    66    23     2  4136    11     4     5    28     2     6     8    18    25     2    14    25    25     3    25     6     1     0 |     i = e
     0     0    17     1     0    25     1     4    32   744     1     0     4     0     1     2    27    12     0     0     2     4     2     1     0     1     0 |     j = d
     0     0    17     0     0    13     2     0    17     0   299     0     2     1     0     0     2     0     0     0     5     1     3     1     0     0     0 |     k = g
     4     0    60     3     0     9    13     0    12     0     1   153     6     3     0     0    11     3     0     6    85     2     1    16     0     0     2 |     l = f
     2     0   114     5     0    28    13     6    63     3     5     7  2053     2     6     9     7     5     1    11    16     6     1    13     6     0     0 |     m = i
     1     0    24     0     0    16     7     1     7     0     1     6     2   203     0     0     4     0     1     3    49     0     3     2     0     0     0 |     n = j
     0     0    20     0     0    13     2     0    17     0     0     2    18     0   780     4    12     1     0     1     2     2     4     2     0     0     0 |     o = m
     0     0    24     0     0    58     2     1    23     0     0     0    17     2     3   913    19     4     0     0     1     4     3     2     1     1     0 |     p = l
     3     2   405     8     3    92    22     3    49    17     4     7     8     4    16    14  3698    21     1    12    40     5     8    17     3     1     0 |     q = o
     0     0    68     4     0    39     2     0    35     6     1     3     5     0     2     5    29  1886     1     0    17     2     3    15     0     0     1 |     r = n
    15     0    69     1     0     6    43     0     5     0     0     2     2     2     0     0     4     1    96     0    22     1     2     7     0     0     1 |     s = q
     0     0   193     6     0    41    24     0    24     0     1    11     4     0     2     3    16     2     0   243    52    11     1    33     2     0     0 |     t = p
    37     0   444     8     0    46    51     0    20     1     3    60    25    15     1     2    42    16     7    33  2090     4     1    50     0     0     9 |     u = s
     2     0   130     5     0   110     8     2    60     6     1     5    18     2     1     3    29    11     0    15    24   956     1    12     0     1     0 |     v = r
     0     0    28     1     0    19     8     1    16     2     1     0     8     2     4     3    22     5     0     4     1     3  1249     7     0     2     0 |     w = u
    14     0   409     6     1    64    87     0    37     0     1    14    19     4     0     0    31    11     5    22    87    12     5   310     2     1     1 |     x = t
     0     0    10     2     0    20     4     0    34     2     0     0    16     0     1     1    16     3     0     1     2     2     3     2   355     0     0 |     y = v
     1     0     9     0     0     3     1     0     2     0     1     4     5     0     0     5     2     0     0     1    30     4     2     2     0   226     0 |     z = y
     0     0     6     0     0     0     0     0     0     0     0     2     0     0     0     0     0     0     0     1    12     1     0     1     0     0     0 |    aa = z

=== Percent Confusion Matrix ===
a	b	c	d	e	f	g	h	i	j	k	l	m	n	o	p	q	r	s	t	u	v	w	x	y	z	aa	
33.91	0.0	14.19	0.69	0.0	3.46	6.23	0.0	1.04	0.0	0.0	1.38	0.0	0.0	0.35	0.0	1.04	0.35	1.04	0.35	31.14	0.35	0.0	4.5	0.0	0.0	0.0	 a = ch
0.0	88.89	0.0	0.0	0.0	2.78	0.0	0.0	6.94	0.0	0.0	0.0	0.0	0.0	0.0	0.0	1.39	0.0	0.0	0.0	0.0	0.0	0.0	0.0	0.0	0.0	0.0	 b = rr
0.07	0.0	94.52	0.19	0.0	0.75	0.49	0.01	0.58	0.04	0.03	0.14	0.31	0.03	0.02	0.07	0.58	0.16	0.05	0.24	1.0	0.11	0.05	0.49	0.02	0.03	0.02	 c = 0
0.15	0.0	24.09	60.98	0.0	2.59	1.22	0.0	0.61	0.15	0.0	0.61	0.15	0.0	0.0	0.15	2.29	0.61	0.3	0.15	4.42	0.15	0.15	1.22	0.0	0.0	0.0	 d = hs
0.0	0.0	3.01	0.0	81.33	6.02	0.0	0.0	7.23	0.0	0.6	0.0	1.81	0.0	0.0	0.0	0.0	0.0	0.0	0.0	0.0	0.0	0.0	0.0	0.0	0.0	0.0	 e = hg
0.03	0.06	2.57	0.11	0.02	93.11	0.45	0.03	0.52	0.13	0.06	0.1	0.14	0.0	0.03	0.21	0.51	0.3	0.06	0.16	0.5	0.38	0.05	0.43	0.02	0.02	0.0	 f = a
1.64	0.0	32.42	0.22	0.0	4.6	29.46	0.0	2.19	0.0	0.0	1.31	1.64	0.88	0.11	0.0	2.19	0.22	1.86	1.53	10.95	0.88	0.33	7.34	0.0	0.11	0.11	 g = c
0.0	0.0	1.5	0.0	0.0	2.51	0.0	88.72	2.26	0.0	0.25	0.0	1.75	0.0	0.75	0.0	0.5	0.0	0.0	0.0	0.0	1.0	0.75	0.0	0.0	0.0	0.0	 h = b
0.04	0.09	3.64	0.15	0.11	1.43	0.5	0.04	89.5	0.24	0.09	0.11	0.61	0.04	0.13	0.17	0.39	0.54	0.04	0.3	0.54	0.54	0.06	0.54	0.13	0.02	0.0	 i = e
0.0	0.0	1.93	0.11	0.0	2.84	0.11	0.45	3.63	84.45	0.11	0.0	0.45	0.0	0.11	0.23	3.06	1.36	0.0	0.0	0.23	0.45	0.23	0.11	0.0	0.11	0.0	 j = d
0.0	0.0	4.68	0.0	0.0	3.58	0.55	0.0	4.68	0.0	82.37	0.0	0.55	0.28	0.0	0.0	0.55	0.0	0.0	0.0	1.38	0.28	0.83	0.28	0.0	0.0	0.0	 k = g
1.03	0.0	15.38	0.77	0.0	2.31	3.33	0.0	3.08	0.0	0.26	39.23	1.54	0.77	0.0	0.0	2.82	0.77	0.0	1.54	21.79	0.51	0.26	4.1	0.0	0.0	0.51	 l = f
0.08	0.0	4.79	0.21	0.0	1.18	0.55	0.25	2.64	0.13	0.21	0.29	86.19	0.08	0.25	0.38	0.29	0.21	0.04	0.46	0.67	0.25	0.04	0.55	0.25	0.0	0.0	 m = i
0.3	0.0	7.27	0.0	0.0	4.85	2.12	0.3	2.12	0.0	0.3	1.82	0.61	61.52	0.0	0.0	1.21	0.0	0.3	0.91	14.85	0.0	0.91	0.61	0.0	0.0	0.0	 n = j
0.0	0.0	2.27	0.0	0.0	1.48	0.23	0.0	1.93	0.0	0.0	0.23	2.05	0.0	88.64	0.45	1.36	0.11	0.0	0.11	0.23	0.23	0.45	0.23	0.0	0.0	0.0	 o = m
0.0	0.0	2.23	0.0	0.0	5.38	0.19	0.09	2.13	0.0	0.0	0.0	1.58	0.19	0.28	84.69	1.76	0.37	0.0	0.0	0.09	0.37	0.28	0.19	0.09	0.09	0.0	 p = l
0.07	0.04	9.07	0.18	0.07	2.06	0.49	0.07	1.1	0.38	0.09	0.16	0.18	0.09	0.36	0.31	82.86	0.47	0.02	0.27	0.9	0.11	0.18	0.38	0.07	0.02	0.0	 q = o
0.0	0.0	3.2	0.19	0.0	1.84	0.09	0.0	1.65	0.28	0.05	0.14	0.24	0.0	0.09	0.24	1.37	88.79	0.05	0.0	0.8	0.09	0.14	0.71	0.0	0.0	0.05	 r = n
5.38	0.0	24.73	0.36	0.0	2.15	15.41	0.0	1.79	0.0	0.0	0.72	0.72	0.72	0.0	0.0	1.43	0.36	34.41	0.0	7.89	0.36	0.72	2.51	0.0	0.0	0.36	 s = q
0.0	0.0	28.85	0.9	0.0	6.13	3.59	0.0	3.59	0.0	0.15	1.64	0.6	0.0	0.3	0.45	2.39	0.3	0.0	36.32	7.77	1.64	0.15	4.93	0.3	0.0	0.0	 t = p
1.25	0.0	14.97	0.27	0.0	1.55	1.72	0.0	0.67	0.03	0.1	2.02	0.84	0.51	0.03	0.07	1.42	0.54	0.24	1.11	70.49	0.13	0.03	1.69	0.0	0.0	0.3	 u = s
0.14	0.0	9.27	0.36	0.0	7.85	0.57	0.14	4.28	0.43	0.07	0.36	1.28	0.14	0.07	0.21	2.07	0.78	0.0	1.07	1.71	68.19	0.07	0.86	0.0	0.07	0.0	 v = r
0.0	0.0	2.02	0.07	0.0	1.37	0.58	0.07	1.15	0.14	0.07	0.0	0.58	0.14	0.29	0.22	1.59	0.36	0.0	0.29	0.07	0.22	90.12	0.51	0.0	0.14	0.0	 w = u
1.22	0.0	35.78	0.52	0.09	5.6	7.61	0.0	3.24	0.0	0.09	1.22	1.66	0.35	0.0	0.0	2.71	0.96	0.44	1.92	7.61	1.05	0.44	27.12	0.17	0.09	0.09	 x = t
0.0	0.0	2.11	0.42	0.0	4.22	0.84	0.0	7.17	0.42	0.0	0.0	3.38	0.0	0.21	0.21	3.38	0.63	0.0	0.21	0.42	0.42	0.63	0.42	74.89	0.0	0.0	 y = v
0.34	0.0	3.02	0.0	0.0	1.01	0.34	0.0	0.67	0.0	0.34	1.34	1.68	0.0	0.0	1.68	0.67	0.0	0.0	0.34	10.07	1.34	0.67	0.67	0.0	75.84	0.0	 z = y
0.0	0.0	26.09	0.0	0.0	0.0	0.0	0.0	0.0	0.0	0.0	8.7	0.0	0.0	0.0	0.0	0.0	0.0	0.0	4.35	52.17	4.35	0.0	4.35	0.0	0.0	0.0	 aa = z
