Timestamp:2014-12-07-10:40:38
Inventario:I0
Intervalo:6ms
Ngramas:4
Clasificador:NaiveBayes
Relation Name:  I0-6ms-4gramas
Num Instances:  30450
Num Attributes: 41

     Name                      Type  Nom  Int Real     Missing      Unique  Dist
   1 0Int(dB)                   Num   0%  10%  90%     0 /  0%     2 /  0%   776 
   2 0Pitch(Hz)                 Num   0%  51%  49%     0 /  0%   750 /  2%  3423 
   3 0RawPitch                  Num   0%  55%  45%     0 /  0%   699 /  2%  3337 
   4 0SmPitch                   Num   0%  53%  47%     0 /  0%   748 /  2%  3382 
   5 0Melogram(st)              Num   0%  48%  52%     0 /  0%   413 /  1%  3048 
   6 0ZCross                    Num   0% 100%   0%     0 /  0%     8 /  0%    47 
   7 0F1(Hz)                    Num   0%  52%  48%     0 /  0%  1130 /  4%  4802 
   8 0F2(Hz)                    Num   0%  51%  49%     0 /  0%  2251 /  7%  6691 
   9 0F3(Hz)                    Num   0%  52%  48%     0 /  0%  1969 /  6%  6255 
  10 0F4(Hz)                    Num   0%  52%  48%     0 /  0%  1938 /  6%  6099 
  11 1Int(dB)                   Num   0%  10%  90%     0 /  0%     2 /  0%   776 
  12 1Pitch(Hz)                 Num   0%  51%  49%     0 /  0%   750 /  2%  3423 
  13 1RawPitch                  Num   0%  55%  45%     0 /  0%   699 /  2%  3337 
  14 1SmPitch                   Num   0%  53%  47%     0 /  0%   748 /  2%  3382 
  15 1Melogram(st)              Num   0%  48%  52%     0 /  0%   413 /  1%  3048 
  16 1ZCross                    Num   0% 100%   0%     0 /  0%     8 /  0%    47 
  17 1F1(Hz)                    Num   0%  52%  48%     0 /  0%  1130 /  4%  4802 
  18 1F2(Hz)                    Num   0%  51%  49%     0 /  0%  2251 /  7%  6691 
  19 1F3(Hz)                    Num   0%  52%  48%     0 /  0%  1969 /  6%  6255 
  20 1F4(Hz)                    Num   0%  52%  48%     0 /  0%  1938 /  6%  6099 
  21 2Int(dB)                   Num   0%  10%  90%     0 /  0%     2 /  0%   776 
  22 2Pitch(Hz)                 Num   0%  51%  49%     0 /  0%   750 /  2%  3423 
  23 2RawPitch                  Num   0%  55%  45%     0 /  0%   699 /  2%  3337 
  24 2SmPitch                   Num   0%  53%  47%     0 /  0%   748 /  2%  3382 
  25 2Melogram(st)              Num   0%  48%  52%     0 /  0%   413 /  1%  3048 
  26 2ZCross                    Num   0% 100%   0%     0 /  0%     8 /  0%    47 
  27 2F1(Hz)                    Num   0%  52%  48%     0 /  0%  1130 /  4%  4802 
  28 2F2(Hz)                    Num   0%  51%  49%     0 /  0%  2251 /  7%  6691 
  29 2F3(Hz)                    Num   0%  52%  48%     0 /  0%  1969 /  6%  6255 
  30 2F4(Hz)                    Num   0%  52%  48%     0 /  0%  1938 /  6%  6099 
  31 3Int(dB)                   Num   0%  10%  90%     0 /  0%     3 /  0%   777 
  32 3Pitch(Hz)                 Num   0%  51%  49%     0 /  0%   750 /  2%  3423 
  33 3RawPitch                  Num   0%  55%  45%     0 /  0%   699 /  2%  3337 
  34 3SmPitch                   Num   0%  53%  47%     0 /  0%   748 /  2%  3382 
  35 3Melogram(st)              Num   0%  48%  52%     0 /  0%   413 /  1%  3048 
  36 3ZCross                    Num   0% 100%   0%     0 /  0%     8 /  0%    47 
  37 3F1(Hz)                    Num   0%  52%  48%     0 /  0%  1130 /  4%  4802 
  38 3F2(Hz)                    Num   0%  51%  49%     0 /  0%  2251 /  7%  6691 
  39 3F3(Hz)                    Num   0%  52%  48%     0 /  0%  1969 /  6%  6255 
  40 3F4(Hz)                    Num   0%  52%  48%     0 /  0%  1938 /  6%  6099 
  41 class                      Nom 100%   0%   0%     0 /  0%     0 /  0%    27 


Naive Bayes Classifier

                    Class
Attribute              ch        rr         0        hs        hg         a         c         b         e         d         g         f         i         j         m         l         o         n         q         p         s         r         u         t         v         y         z
                      (0)       (0)    (0.38)    (0.01)       (0)    (0.14)    (0.01)    (0.01)    (0.08)    (0.01)    (0.01)    (0.01)    (0.04)    (0.01)    (0.01)    (0.02)    (0.07)    (0.04)       (0)    (0.01)    (0.05)    (0.02)    (0.02)    (0.02)    (0.01)       (0)       (0)
==============================================================================================================================================================================================================================================================================================
0Int(dB)
  mean            -21.0591   -8.3024  -48.2636  -16.7186  -10.7758   -3.9499  -29.0946   -5.7424   -6.5177   -7.4895   -7.2142   -19.265  -10.1042   -13.933   -7.6279   -7.7514   -8.9796   -8.0553  -27.6733  -24.2758  -19.7225  -10.3414   -7.2074  -28.9544   -9.6633   -15.955  -27.0098
  std. dev.        10.0836    4.3085   16.5008   11.1221    5.9495    9.9058   10.4711    4.4556    9.2729    5.8788     7.671    7.5333    9.0807    7.3168    7.0198    5.9254   12.1898    6.9929   13.8776   11.1415    8.2109    9.5306    10.005    9.6397     9.523    6.2102    2.1854
  weight sum           144        36     11608       336        84      4405       452       203      2347       441       185       194      1206       166       442       551      2251      1066       141       335      1490       706       697       568       236       148        12
  precision         0.1001    0.1001    0.1001    0.1001    0.1001    0.1001    0.1001    0.1001    0.1001    0.1001    0.1001    0.1001    0.1001    0.1001    0.1001    0.1001    0.1001    0.1001    0.1001    0.1001    0.1001    0.1001    0.1001    0.1001    0.1001    0.1001    0.1001

0Pitch(Hz)
  mean              71.042  242.4721   17.3088  109.4686  145.7043  220.8667   30.8519  217.2235  181.8248  203.2221  213.3953   105.218  163.9943  166.3188  192.1681  174.2549  175.9605  196.5128   83.9608   93.9284   77.0345  160.7648  220.3105   61.8053  172.1805  115.0394   13.8783
  std. dev.       107.6866  117.3921   57.1161   87.9198   36.7211  108.6436   72.1715   74.2932   92.6133   82.3051   94.6038  123.3378   83.5367  131.8836   86.7075   66.9503  108.5713   86.2967  114.2289  123.7577  105.1039   92.1652   97.9407   108.126   83.5581   69.7346   46.0292
  weight sum           144        36     11608       336        84      4405       452       203      2347       441       185       194      1206       166       442       551      2251      1066       141       335      1490       706       697       568       236       148        12
  precision         0.1457    0.1457    0.1457    0.1457    0.1457    0.1457    0.1457    0.1457    0.1457    0.1457    0.1457    0.1457    0.1457    0.1457    0.1457    0.1457    0.1457    0.1457    0.1457    0.1457    0.1457    0.1457    0.1457    0.1457    0.1457    0.1457    0.1457

0RawPitch
  mean             51.1019  236.4993   14.6437   91.9293  127.2895  211.2216   20.7847  213.9778  176.4078  198.0723  204.2855   71.8086  154.7055  119.7653  182.4948  161.7904  167.3967  184.6402   54.8259   69.1911   56.1607   155.115  209.3446   38.3331  158.1664   86.0895         0
  std. dev.        96.6616  111.7705   52.4086   91.1179   66.4917  113.2132   60.6968   76.2461   98.3173    90.968  103.8311  103.3098   87.7211  118.6067   95.4348   75.7369  114.5172   97.9819  102.4749  114.3438   95.3233   98.9575  105.1448   90.0152   93.1318   78.9309    0.0248
  weight sum           144        36     11608       336        84      4405       452       203      2347       441       185       194      1206       166       442       551      2251      1066       141       335      1490       706       697       568       236       148        12
  precision         0.1486    0.1486    0.1486    0.1486    0.1486    0.1486    0.1486    0.1486    0.1486    0.1486    0.1486    0.1486    0.1486    0.1486    0.1486    0.1486    0.1486    0.1486    0.1486    0.1486    0.1486    0.1486    0.1486    0.1486    0.1486    0.1486    0.1486

0SmPitch
  mean              66.957  242.4754   15.8543  102.5829  147.0235  218.7254   26.2685  217.2192  178.7991  202.1298  211.3589   89.8563  161.4192  130.8158  190.2391   173.216  173.1852  194.2383   72.5757   87.5785   69.9939  157.1848  217.8306   52.1041  167.1436  111.9525         0
  std. dev.       104.6887  117.3947   53.6496   87.3314   35.4039  110.6105   66.9532    74.294   95.0401   84.4843   97.1136  112.3274    85.075  139.6501   89.4358   68.1094  110.6103   88.7942  110.2837   124.036  102.6011    94.664   99.6499  101.4186   87.5841   71.0847    0.0246
  weight sum           144        36     11608       336        84      4405       452       203      2347       441       185       194      1206       166       442       551      2251      1066       141       335      1490       706       697       568       236       148        12
  precision         0.1475    0.1475    0.1475    0.1475    0.1475    0.1475    0.1475    0.1475    0.1475    0.1475    0.1475    0.1475    0.1475    0.1475    0.1475    0.1475    0.1475    0.1475    0.1475    0.1475    0.1475    0.1475    0.1475    0.1475    0.1475    0.1475    0.1475

0Melogram(st)
  mean             17.8726   56.6309    5.0775   32.7696   48.5731   51.7497     9.751   55.4986   48.4575   53.2835   52.0295   29.5484   45.9796    22.886   51.0665   51.3752   45.7682   51.3436   19.5809    24.313   21.0535   43.6191   51.0893   15.7759   48.8822   40.9498    8.6892
  std. dev.        26.5804    8.5726   15.8211   24.2652    6.9778   17.1107   20.8888    6.3393   17.9973   10.6348   16.1861   27.7674   19.1192   28.2482   14.0816    9.2648   21.3497   14.7693    27.099   28.4512   26.7215   21.6674   18.8712   25.6632   14.6512   17.9386   19.4297
  weight sum           144        36     11608       336        84      4405       452       203      2347       441       185       194      1206       166       442       551      2251      1066       141       335      1490       706       697       568       236       148        12
  precision         0.0271    0.0271    0.0271    0.0271    0.0271    0.0271    0.0271    0.0271    0.0271    0.0271    0.0271    0.0271    0.0271    0.0271    0.0271    0.0271    0.0271    0.0271    0.0271    0.0271    0.0271    0.0271    0.0271    0.0271    0.0271    0.0271    0.0271

0ZCross
  mean              6.3668    3.9457    0.2937    1.5058    3.1444    7.2567    0.8233    3.6837    4.8042    3.6548    4.5814    0.9803     3.476     3.946     3.049    3.4727    3.8899    2.9976    1.7484    0.9461    3.5328    3.6365    3.6026    0.2997    3.1735    1.6419         0
  std. dev.        11.0968    2.3987     1.378    1.9678    2.1749     4.555    2.5938    1.7008    3.4983    2.0663     2.881    1.7329    3.4985    3.6834    1.8689    2.1394    3.3516    2.0734    4.2697    2.4661    6.4015    2.7719    2.9524    0.9241    2.0776    1.7621    0.1957
  weight sum           144        36     11608       336        84      4405       452       203      2347       441       185       194      1206       166       442       551      2251      1066       141       335      1490       706       697       568       236       148        12
  precision         1.1739    1.1739    1.1739    1.1739    1.1739    1.1739    1.1739    1.1739    1.1739    1.1739    1.1739    1.1739    1.1739    1.1739    1.1739    1.1739    1.1739    1.1739    1.1739    1.1739    1.1739    1.1739    1.1739    1.1739    1.1739    1.1739    1.1739

0F1(Hz)
  mean            219.9597  559.6767   58.3252  458.4204  447.9538  659.2628  107.6441  475.8208  436.6695  512.8505  512.4257  388.6967   338.547  490.1226  442.9551  487.3993  453.8732  507.3118  191.3207  284.7758  275.7582  508.7857   463.808  145.4844  481.3534  358.4718   60.3422
  std. dev.       298.5645   154.269  175.0326  267.9979   76.6683  297.1506   217.362  133.8734  181.6351  145.4958  186.1576  332.9385  174.0301   307.954  171.1412  158.2096  244.1481  152.7672  241.2163  310.8523  309.0503  230.9053  334.8008  226.3102  186.5623   183.303  200.1323
  weight sum           144        36     11608       336        84      4405       452       203      2347       441       185       194      1206       166       442       551      2251      1066       141       335      1490       706       697       568       236       148        12
  precision         0.3628    0.3628    0.3628    0.3628    0.3628    0.3628    0.3628    0.3628    0.3628    0.3628    0.3628    0.3628    0.3628    0.3628    0.3628    0.3628    0.3628    0.3628    0.3628    0.3628    0.3628    0.3628    0.3628    0.3628    0.3628    0.3628    0.3628

0F2(Hz)
  mean            656.3245 1654.7468    179.12 1314.9657 1947.8586 1391.5414  333.8069 1608.1036 1648.9094 1493.7924 1732.4354 1013.1541 1765.1714 1479.9784 1653.9502 1649.3107 1110.1712 1640.6035  807.7406  849.4854   848.765 1395.1368  978.1609  496.4092 1497.5644 1352.6202   97.6945
  std. dev.       851.2996  310.0038  531.0452  749.5014  367.3355  506.2369  688.0877  351.8408  663.0113  291.5337  537.3682  846.2205   818.714  832.7092  488.3406  406.6299   595.382  408.7206  987.7179  884.7804  917.0413  585.2109  525.2413  748.5475  532.8209  624.9533  324.0161
  weight sum           144        36     11608       336        84      4405       452       203      2347       441       185       194      1206       166       442       551      2251      1066       141       335      1490       706       697       568       236       148        12
  precision         0.4452    0.4452    0.4452    0.4452    0.4452    0.4452    0.4452    0.4452    0.4452    0.4452    0.4452    0.4452    0.4452    0.4452    0.4452    0.4452    0.4452    0.4452    0.4452    0.4452    0.4452    0.4452    0.4452    0.4452    0.4452    0.4452    0.4452

0F3(Hz)
  mean           1099.0818 2760.3853  306.6365 2167.7129 2548.9016 2589.5441  587.6207 2774.5685 2459.3827  2879.376 2961.3428 1733.2093 2427.5668 2139.3266  2758.745 2747.9337 2381.0703 2826.1018 1199.4931 1423.5785 1419.6529 2434.2368 2438.5289  910.4061 2548.4191 2387.9468  314.4416
  std. dev.      1428.7802  596.5661  891.0759 1140.9049  117.2853  922.5211 1176.4218  458.1769   978.513  407.1221  835.5839 1439.7519 1132.3873 1212.0068  635.5992       644 1130.0518  559.3741 1418.8656 1477.0492 1509.5788 1019.4008 1064.3754 1352.3308  870.0758 1125.1476 1042.8849
  weight sum           144        36     11608       336        84      4405       452       203      2347       441       185       194      1206       166       442       551      2251      1066       141       335      1490       706       697       568       236       148        12
  precision         0.6587    0.6587    0.6587    0.6587    0.6587    0.6587    0.6587    0.6587    0.6587    0.6587    0.6587    0.6587    0.6587    0.6587    0.6587    0.6587    0.6587    0.6587    0.6587    0.6587    0.6587    0.6587    0.6587    0.6587    0.6587    0.6587    0.6587

0F4(Hz)
  mean           1281.8971  3201.019  368.3452 2685.7434 3575.3699 2983.5701  663.4397 3303.7603 2976.4834 3353.1922 2976.6074 1974.2955 2903.1799 2648.4162  3282.685 3187.7823 2744.0896 3228.5292 1471.4741  1642.505 1602.8065 2845.7966 2803.9205 1021.9994 3070.5127 2739.1813   249.185
  std. dev.      1664.6592  691.0763 1068.3973 1397.8097  100.0541 1052.5912 1330.6935   454.712 1157.0182  430.1758  842.2855 1624.6563 1317.4154 1480.7704  695.6609  691.2923 1290.3365   629.953 1755.2347 1684.1321 1701.0102 1126.7975 1162.6311  1521.649  986.9812 1271.8362   826.453
  weight sum           144        36     11608       336        84      4405       452       203      2347       441       185       194      1206       166       442       551      2251      1066       141       335      1490       706       697       568       236       148        12
  precision         0.6801    0.6801    0.6801    0.6801    0.6801    0.6801    0.6801    0.6801    0.6801    0.6801    0.6801    0.6801    0.6801    0.6801    0.6801    0.6801    0.6801    0.6801    0.6801    0.6801    0.6801    0.6801    0.6801    0.6801    0.6801    0.6801    0.6801

1Int(dB)
  mean            -20.6996   -8.9282  -48.5573  -18.1633  -11.2383   -3.4374  -27.8376   -5.9081   -5.8995   -7.7601   -7.3717  -20.5244   -9.5588  -14.7956   -7.6504   -7.9896   -8.5713    -8.487  -25.9306   -24.346  -20.5056  -11.0633    -6.419  -28.6672   -9.6591  -16.2974  -27.1266
  std. dev.         9.5525    4.3425   16.0885    11.229    5.8112    9.1818   10.0373    4.3839     8.786    5.9525    7.7564    6.5835    8.7617     6.729    6.5409    5.7326   12.1108    7.1725   13.1369   10.5954    7.5575    9.3246    9.2206    9.0289    8.5344    5.6643    2.0567
  weight sum           144        36     11608       336        84      4405       452       203      2347       441       185       194      1206       166       442       551      2251      1066       141       335      1490       706       697       568       236       148        12
  precision         0.1001    0.1001    0.1001    0.1001    0.1001    0.1001    0.1001    0.1001    0.1001    0.1001    0.1001    0.1001    0.1001    0.1001    0.1001    0.1001    0.1001    0.1001    0.1001    0.1001    0.1001    0.1001    0.1001    0.1001    0.1001    0.1001    0.1001

1Pitch(Hz)
  mean             63.1163  242.1403   16.3313  100.7588  145.5083  223.9282    34.578  216.6881  185.9675  202.6766   212.796   94.6935   168.922  160.0614  192.8551  174.2065  178.5044  194.5075   80.5042   88.7104    66.158  160.5601  225.2933   60.2823  174.3037  114.5304         0
  std. dev.       105.2218  119.0149   55.6028   87.9794   36.6892  105.6291   78.1021   73.7386   90.3606   83.2781   96.4346  121.6627   80.1793  132.6672   86.6288   65.4243  106.4846   87.4225  112.7681  121.2011  100.7786   92.7713   91.5415  106.4525   79.5189   69.5485    0.0243
  weight sum           144        36     11608       336        84      4405       452       203      2347       441       185       194      1206       166       442       551      2251      1066       141       335      1490       706       697       568       236       148        12
  precision         0.1457    0.1457    0.1457    0.1457    0.1457    0.1457    0.1457    0.1457    0.1457    0.1457    0.1457    0.1457    0.1457    0.1457    0.1457    0.1457    0.1457    0.1457    0.1457    0.1457    0.1457    0.1457    0.1457    0.1457    0.1457    0.1457    0.1457

1RawPitch
  mean             42.7715  236.1237   13.5144   82.9718  128.3509  214.0487   22.5928  213.8095  181.6948  197.4072  204.0975   59.5046   160.411  111.3019   182.522  160.6459  171.1249  182.3971   45.6702   62.6966   45.4589  155.1658  215.3066   35.9507  159.9936   83.3606         0
  std. dev.        91.3684  113.4665   50.0944   89.6469   67.7151  110.7179     64.81   75.4922   96.2139   92.3001  105.3875   97.0109   84.8193  116.6969   96.0152   75.1805  112.4932    99.275   94.6845  109.6346   88.0291   98.4658   98.6174   87.7015   89.3728   78.8806    0.0248
  weight sum           144        36     11608       336        84      4405       452       203      2347       441       185       194      1206       166       442       551      2251      1066       141       335      1490       706       697       568       236       148        12
  precision         0.1486    0.1486    0.1486    0.1486    0.1486    0.1486    0.1486    0.1486    0.1486    0.1486    0.1486    0.1486    0.1486    0.1486    0.1486    0.1486    0.1486    0.1486    0.1486    0.1486    0.1486    0.1486    0.1486    0.1486    0.1486    0.1486    0.1486

1SmPitch
  mean             58.9291  242.1395   14.8074   93.8667  147.3535  221.8974   29.0874  216.6838  183.5596   201.666   210.761   79.3311  166.5988  123.2024  190.6929  173.1788  175.9059  192.2137   64.2556   81.2201    58.855  157.1474  223.7844   49.3346  169.5293  111.4444         0
  std. dev.       101.6274  119.0136   51.7824   86.7027   34.6611  107.6014     72.94   73.7364   92.3488   85.2848   98.8831   109.012   81.8868  140.6511   89.7342   66.5932  108.6981   89.8285   105.941  121.1074   97.1833    95.098   92.4136   98.7093   83.4515   70.8778    0.0246
  weight sum           144        36     11608       336        84      4405       452       203      2347       441       185       194      1206       166       442       551      2251      1066       141       335      1490       706       697       568       236       148        12
  precision         0.1475    0.1475    0.1475    0.1475    0.1475    0.1475    0.1475    0.1475    0.1475    0.1475    0.1475    0.1475    0.1475    0.1475    0.1475    0.1475    0.1475    0.1475    0.1475    0.1475    0.1475    0.1475    0.1475    0.1475    0.1475    0.1475    0.1475

1Melogram(st)
  mean              15.625   56.5285    4.8249   30.2959   48.5782   52.6755   10.0599    55.464   49.6417   53.1202   51.7574    26.782   47.3894   19.5487    51.077    51.374   46.4994   50.9269   17.1639   22.7357   18.1011   43.2473   52.9038   15.0413   49.5329   40.8802    4.3435
  std. dev.        25.6842    8.7239   15.4713   24.7804    6.9598   15.6884   21.3837    6.3182   16.5413   10.9727   16.6431   27.8473   17.6115   27.4119   14.0968    8.9894   20.6431   15.3212   26.1749   28.2475   25.8594    22.026    16.369   25.3358   13.5253   17.9096   14.4057
  weight sum           144        36     11608       336        84      4405       452       203      2347       441       185       194      1206       166       442       551      2251      1066       141       335      1490       706       697       568       236       148        12
  precision         0.0271    0.0271    0.0271    0.0271    0.0271    0.0271    0.0271    0.0271    0.0271    0.0271    0.0271    0.0271    0.0271    0.0271    0.0271    0.0271    0.0271    0.0271    0.0271    0.0271    0.0271    0.0271    0.0271    0.0271    0.0271    0.0271    0.0271

1ZCross
  mean              7.5163    3.7826    0.2426    1.2717    2.9907    7.3966    1.0674    3.6663    4.8687    3.6096    4.5116    0.7806    3.5256    3.8612    2.9242    3.3108    3.9353    2.7476    2.8057     0.834    3.5722    3.3505    3.6666    0.3431    3.0094    1.5467         0
  std. dev.        11.9126    2.5825    1.1446    1.8313    2.1233    4.4581     2.968    1.6353    3.3612    2.0875    2.8159    1.5974    3.3498    3.6854    1.6245    2.0285     3.141    1.8154    5.7591    2.2811    6.6226    2.6457    2.8883     1.016    1.8905    1.7371    0.1957
  weight sum           144        36     11608       336        84      4405       452       203      2347       441       185       194      1206       166       442       551      2251      1066       141       335      1490       706       697       568       236       148        12
  precision         1.1739    1.1739    1.1739    1.1739    1.1739    1.1739    1.1739    1.1739    1.1739    1.1739    1.1739    1.1739    1.1739    1.1739    1.1739    1.1739    1.1739    1.1739    1.1739    1.1739    1.1739    1.1739    1.1739    1.1739    1.1739    1.1739    1.1739

1F1(Hz)
  mean            185.5587  584.5472   53.9368  440.8105  446.2738   678.782   95.2607  476.7715  448.1303  513.8187  507.8861  351.0107  348.8664  475.9087  438.6863   480.519  467.9136  492.7054  190.6106  266.1268  244.5145  500.4448  478.0605  131.1298  479.2443  352.3463         0
  std. dev.       288.2013  126.5479  168.2168  279.0023   77.4305  280.6871  208.0589  133.8716  167.3815  149.6379  183.9556  339.2273  162.2662  322.9997  167.6203  150.9485  235.6843  153.2949  243.4112   307.107  303.7481  232.1886   324.529   219.413  182.0392  184.1138    0.0605
  weight sum           144        36     11608       336        84      4405       452       203      2347       441       185       194      1206       166       442       551      2251      1066       141       335      1490       706       697       568       236       148        12
  precision         0.3628    0.3628    0.3628    0.3628    0.3628    0.3628    0.3628    0.3628    0.3628    0.3628    0.3628    0.3628    0.3628    0.3628    0.3628    0.3628    0.3628    0.3628    0.3628    0.3628    0.3628    0.3628    0.3628    0.3628    0.3628    0.3628    0.3628

1F2(Hz)
  mean            545.9126 1681.2018  166.3459 1266.1277 1942.1764 1420.9712  292.3369 1595.3099 1706.5198 1486.3363 1733.2802  909.4392 1853.8785 1400.0968 1659.8392 1657.8173 1129.6245 1627.8042  793.7232  788.7312  756.5559 1387.1791 1009.2259  444.1484 1510.0974 1354.5756         0
  std. dev.       812.4717  129.9678  512.7501  780.9303   365.148  464.0685  651.6401  347.6632  612.0386  303.8381  538.7244  858.5945  761.7664  868.4317  468.0746  382.5168  569.4748  422.4575  982.6316  873.3265  908.1567  594.7615  490.7397  720.0762  501.8135  639.8615    0.0742
  weight sum           144        36     11608       336        84      4405       452       203      2347       441       185       194      1206       166       442       551      2251      1066       141       335      1490       706       697       568       236       148        12
  precision         0.4452    0.4452    0.4452    0.4452    0.4452    0.4452    0.4452    0.4452    0.4452    0.4452    0.4452    0.4452    0.4452    0.4452    0.4452    0.4452    0.4452    0.4452    0.4452    0.4452    0.4452    0.4452    0.4452    0.4452    0.4452    0.4452    0.4452

1F3(Hz)
  mean            918.8872 2850.4872  285.4439 2081.1093 2541.7573 2646.4539  516.9818 2769.1914 2528.8267 2871.3859 2958.4586 1557.8537 2527.1222 2036.1772 2757.7032 2769.2348  2440.143 2805.9902 1178.0441 1327.9128 1262.8659 2415.9394 2534.3382  814.7046  2574.046 2367.5924         0
  std. dev.      1370.7064  389.3155  863.1657 1198.5707  116.9024  848.1394 1118.8856  461.4335   904.012  449.1931  836.9391 1464.1644 1049.8927 1263.8118   608.683  615.6626 1080.4541  594.2215 1414.2365 1461.7685 1494.4363 1037.4384  971.1663 1303.5167  824.8245 1138.4552    0.1098
  weight sum           144        36     11608       336        84      4405       452       203      2347       441       185       194      1206       166       442       551      2251      1066       141       335      1490       706       697       568       236       148        12
  precision         0.6587    0.6587    0.6587    0.6587    0.6587    0.6587    0.6587    0.6587    0.6587    0.6587    0.6587    0.6587    0.6587    0.6587    0.6587    0.6587    0.6587    0.6587    0.6587    0.6587    0.6587    0.6587    0.6587    0.6587    0.6587    0.6587    0.6587

1F4(Hz)
  mean           1071.0033  3266.248  343.1031 2576.2478 3581.7495  3048.592  585.6692 3300.7218  3055.702 3342.0954 2982.8308 1772.1778 3015.9411 2529.4304 3295.1845 3208.4667 2810.7638  3211.145 1441.5949 1547.8164  1424.233 2817.5539 2907.9441  922.9886 3113.8434 2721.5687         0
  std. dev.      1596.6904  428.7517 1035.5106 1468.1885    96.375  965.9419 1270.2137  452.9979 1062.5316  484.4215   846.372 1652.0276 1214.2293 1553.7169  662.9643  649.4483 1230.5926  676.3671  1743.909 1682.7609 1682.5488 1148.6111 1043.9573 1480.3061  924.3345 1292.5646    0.1133
  weight sum           144        36     11608       336        84      4405       452       203      2347       441       185       194      1206       166       442       551      2251      1066       141       335      1490       706       697       568       236       148        12
  precision         0.6801    0.6801    0.6801    0.6801    0.6801    0.6801    0.6801    0.6801    0.6801    0.6801    0.6801    0.6801    0.6801    0.6801    0.6801    0.6801    0.6801    0.6801    0.6801    0.6801    0.6801    0.6801    0.6801    0.6801    0.6801    0.6801    0.6801

2Int(dB)
  mean            -20.0731  -10.0046  -48.8226  -19.6244  -11.2299   -3.0972  -26.2943   -5.9703   -5.4538    -7.865   -7.5405  -21.4601   -9.0975  -15.5212   -7.6562   -8.1897     -8.32   -8.9503  -24.1077  -23.7488  -21.2313  -11.6893   -5.7217  -27.4258   -9.5258  -16.4401  -27.2184
  std. dev.         8.9367    4.4949    15.704   11.2787    5.8916     8.598    9.7704    4.3385    8.3541     6.066    7.9044    5.7951    8.4757    6.2304    6.1596    5.6838   12.1084    7.4378   12.2245   10.4007    6.9985    9.2928    8.3788    9.2469     7.587     5.191    2.0706
  weight sum           144        36     11608       336        84      4405       452       203      2347       441       185       194      1206       166       442       551      2251      1066       141       335      1490       706       697       568       236       148        12
  precision         0.1001    0.1001    0.1001    0.1001    0.1001    0.1001    0.1001    0.1001    0.1001    0.1001    0.1001    0.1001    0.1001    0.1001    0.1001    0.1001    0.1001    0.1001    0.1001    0.1001    0.1001    0.1001    0.1001    0.1001    0.1001    0.1001    0.1001

2Pitch(Hz)
  mean             60.0089  241.9986   15.2651   92.3531  146.1084  225.8723   45.8095  216.4448  188.9309  202.2266  212.2478   85.8604  172.4627   155.951  193.6446  174.3546  179.6002  192.4967   81.3588   87.4095   56.7121  160.5727  229.1165   67.3146  176.3071  114.3818         0
  std. dev.       105.1203  120.5087   53.8943   87.5234   37.1754  103.6424   89.9776   73.1236   88.8484    84.159   98.1766   118.982   77.3033  132.0546   86.5278   63.9762  105.0982   88.4656  112.3394  118.1256   95.8257   93.6407    86.113  109.1878   75.7086   69.4638    0.0243
  weight sum           144        36     11608       336        84      4405       452       203      2347       441       185       194      1206       166       442       551      2251      1066       141       335      1490       706       697       568       236       148        12
  precision         0.1457    0.1457    0.1457    0.1457    0.1457    0.1457    0.1457    0.1457    0.1457    0.1457    0.1457    0.1457    0.1457    0.1457    0.1457    0.1457    0.1457    0.1457    0.1457    0.1457    0.1457    0.1457    0.1457    0.1457    0.1457    0.1457    0.1457

2RawPitch
  mean             41.1484  235.3972   12.5263   75.1265    128.71  216.1754   29.3707  213.9829  185.2813  197.2802  202.8895   49.0657  164.6635  105.1488  182.4386  159.7832  173.0353  179.7586   43.3159   61.9638    35.509  155.6181  219.1052   41.0888  162.1708   81.1779         0
  std. dev.        91.8081  122.3209   48.0535   87.9145   68.4146  108.8555    73.522    75.294   94.3657   92.7599  107.8664   89.5288   82.3462  113.3571   96.7502   75.3969  111.2194  100.8095   91.8762  107.5662   79.5021   98.2908   94.0431   90.6115   85.6746   77.9688    0.0248
  weight sum           144        36     11608       336        84      4405       452       203      2347       441       185       194      1206       166       442       551      2251      1066       141       335      1490       706       697       568       236       148        12
  precision         0.1486    0.1486    0.1486    0.1486    0.1486    0.1486    0.1486    0.1486    0.1486    0.1486    0.1486    0.1486    0.1486    0.1486    0.1486    0.1486    0.1486    0.1486    0.1486    0.1486    0.1486    0.1486    0.1486    0.1486    0.1486    0.1486    0.1486

2SmPitch
  mean             53.7153   241.992   13.7654   85.4547  147.9943  223.9799   38.3513  216.4419  187.4191   201.473  210.2142   70.4798   169.864  117.4821  190.8861  173.1903  177.2873  189.8823   63.3268    77.653   49.1175  157.5853  227.6752   55.7485  172.2707  111.2939         0
  std. dev.        99.3518  120.5024    49.937   85.5645   35.0841  105.5011   84.9782   73.1204   90.1622   85.6758  100.5696  104.7099   79.4786  138.7855   90.4565   65.4581  107.1683    91.065  104.3402  117.5559   91.1045   95.6025   87.0875  102.6857   79.1623   70.7872    0.0246
  weight sum           144        36     11608       336        84      4405       452       203      2347       441       185       194      1206       166       442       551      2251      1066       141       335      1490       706       697       568       236       148        12
  precision         0.1475    0.1475    0.1475    0.1475    0.1475    0.1475    0.1475    0.1475    0.1475    0.1475    0.1475    0.1475    0.1475    0.1475    0.1475    0.1475    0.1475    0.1475    0.1475    0.1475    0.1475    0.1475    0.1475    0.1475    0.1475    0.1475    0.1475

2Melogram(st)
  mean             16.0798   56.4177    4.5875   28.1071   48.6286   53.2363   12.1991   55.4551    50.443   53.1699   51.4945   24.8443   48.4372   18.2447   51.0995   51.4308   46.7991   50.5315     18.33   22.0343   15.3296   43.0014   54.1423    16.053   50.2138   40.8578         0
  std. dev.        25.9793    8.8714   15.1434   25.0053    6.9732   14.7062    23.208    6.2942   15.4134   10.7286    17.083   27.7261   16.3134   26.9703   14.1123     8.713   20.2997   15.8473   26.6202   27.8912    24.704   22.2675    14.241   25.8618   12.2691    17.897    0.0045
  weight sum           144        36     11608       336        84      4405       452       203      2347       441       185       194      1206       166       442       551      2251      1066       141       335      1490       706       697       568       236       148        12
  precision         0.0271    0.0271    0.0271    0.0271    0.0271    0.0271    0.0271    0.0271    0.0271    0.0271    0.0271    0.0271    0.0271    0.0271    0.0271    0.0271    0.0271    0.0271    0.0271    0.0271    0.0271    0.0271    0.0271    0.0271    0.0271    0.0271    0.0271

2ZCross
  mean              8.1603    3.4891    0.2049    1.0691    3.0186    7.4843    1.3297    3.7299    4.9057    3.6229    4.4228    0.6596    3.5597    3.7622    2.8365    3.1936    3.9697    2.5339    3.7382    0.8165    3.5808     3.106    3.7441     0.494    2.9497    1.4674         0
  std. dev.        12.4653     2.661    0.9759    1.6936    2.1454    4.3926    3.2843    1.6388    3.2087    2.1011    2.7279    1.5398    3.2377       3.7    1.4872    1.9336    2.9459    1.6032    6.7336    2.1262    6.7951    2.4739    2.8259    1.2009    1.7773    1.7092    0.1957
  weight sum           144        36     11608       336        84      4405       452       203      2347       441       185       194      1206       166       442       551      2251      1066       141       335      1490       706       697       568       236       148        12
  precision         1.1739    1.1739    1.1739    1.1739    1.1739    1.1739    1.1739    1.1739    1.1739    1.1739    1.1739    1.1739    1.1739    1.1739    1.1739    1.1739    1.1739    1.1739    1.1739    1.1739    1.1739    1.1739    1.1739    1.1739    1.1739    1.1739    1.1739

2F1(Hz)
  mean            163.9306  594.0499   50.4075  413.5536  445.5396  695.8153   93.7542  477.9796  458.4701  515.3751  502.5993  314.7721  358.3341  465.0756  435.0134  475.2926  479.3066  477.6654  187.2581  254.2212  213.6703  492.2032  490.8774  121.7537  480.0437  346.4707         0
  std. dev.       276.6772  131.2429  162.5773  290.6269   79.8618  264.7557  206.4919   133.633  153.5049  150.3453  184.8457  339.9822  149.9822  335.2659  164.0396  143.5092  228.1739  154.0037  245.4514  302.9127  295.5057  232.9608  313.8193   213.372  177.0949  184.2574    0.0605
  weight sum           144        36     11608       336        84      4405       452       203      2347       441       185       194      1206       166       442       551      2251      1066       141       335      1490       706       697       568       236       148        12
  precision         0.3628    0.3628    0.3628    0.3628    0.3628    0.3628    0.3628    0.3628    0.3628    0.3628    0.3628    0.3628    0.3628    0.3628    0.3628    0.3628    0.3628    0.3628    0.3628    0.3628    0.3628    0.3628    0.3628    0.3628    0.3628    0.3628    0.3628

2F2(Hz)
  mean            488.0398 1661.1534  156.3842 1188.7462 1935.5772 1446.1936  281.5929  1584.431 1756.5682 1485.2782 1720.9577  816.2518 1934.2548 1329.7586 1666.5823 1665.8495 1142.3274 1613.3524  765.1485  744.6876  663.1769 1379.4718 1039.7614  411.6101 1534.4105 1351.4258         0
  std. dev.       789.6281  126.4913  498.6509   815.441  358.6963  423.1113  634.0553  345.3537  558.7593  309.9774  554.7945  860.6452    698.11  889.5689  447.8476  355.4966  545.8877  437.8344  973.3102  856.8311  888.1832   603.731  453.9752  701.7149  460.8175  652.6279    0.0742
  weight sum           144        36     11608       336        84      4405       452       203      2347       441       185       194      1206       166       442       551      2251      1066       141       335      1490       706       697       568       236       148        12
  precision         0.4452    0.4452    0.4452    0.4452    0.4452    0.4452    0.4452    0.4452    0.4452    0.4452    0.4452    0.4452    0.4452    0.4452    0.4452    0.4452    0.4452    0.4452    0.4452    0.4452    0.4452    0.4452    0.4452    0.4452    0.4452    0.4452    0.4452

2F3(Hz)
  mean            813.4969 2851.9328  267.8761  1951.595 2534.7699 2695.4534  508.6047 2763.6067 2589.9599 2868.7121 2939.9389   1393.87  2617.135 1948.8854 2757.0057 2791.1611   2486.42 2784.1348 1136.4637 1265.5167 1104.7053 2398.5302 2624.1187  750.6984 2617.9224 2344.6164         0
  std. dev.      1317.8001  401.0154  838.7672 1264.7949  115.5867  776.2304 1109.1319   464.646  828.9033  468.1374  865.0023 1464.4589  961.8845 1298.0665  580.1938  585.6179 1037.8263  632.3835 1405.2451 1443.9113 1460.5192 1055.2749   862.036 1264.8843  760.6246 1149.9587    0.1098
  weight sum           144        36     11608       336        84      4405       452       203      2347       441       185       194      1206       166       442       551      2251      1066       141       335      1490       706       697       568       236       148        12
  precision         0.6587    0.6587    0.6587    0.6587    0.6587    0.6587    0.6587    0.6587    0.6587    0.6587    0.6587    0.6587    0.6587    0.6587    0.6587    0.6587    0.6587    0.6587    0.6587    0.6587    0.6587    0.6587    0.6587    0.6587    0.6587    0.6587    0.6587

2F4(Hz)
  mean            959.0155  3255.197  322.5604 2417.2557 3587.0685 3102.7883  582.0463 3297.2411 3123.7667 3338.8508 2970.8728 1587.9694 3116.8532 2430.2114 3308.0056 3229.7781 2862.0839 3189.9726 1386.9973 1492.0901 1246.9293 2791.0442 3008.5041  859.4665 3170.8156 2704.1261         0
  std. dev.      1552.9773  417.7461 1007.8905 1552.3353   91.9652  881.6368 1271.1269  449.6185   967.012  509.6049  876.7275 1656.1296 1104.1679 1604.8994  628.3989  604.9613 1178.6146  725.7634 1727.2189 1680.2181 1646.1728 1170.1665  904.6428 1452.7462  830.6887 1312.9421    0.1133
  weight sum           144        36     11608       336        84      4405       452       203      2347       441       185       194      1206       166       442       551      2251      1066       141       335      1490       706       697       568       236       148        12
  precision         0.6801    0.6801    0.6801    0.6801    0.6801    0.6801    0.6801    0.6801    0.6801    0.6801    0.6801    0.6801    0.6801    0.6801    0.6801    0.6801    0.6801    0.6801    0.6801    0.6801    0.6801    0.6801    0.6801    0.6801    0.6801    0.6801    0.6801

3Int(dB)
  mean            -19.2082  -10.8555  -49.0436  -20.9921  -10.8661   -2.9833  -24.3157   -5.8664   -5.3083   -7.7311   -7.6486   -22.004   -8.8383  -15.8502    -7.594   -8.2353   -8.2927   -9.4333  -22.1263  -22.5156  -21.7519   -12.023   -5.2124  -25.2438   -9.1735  -16.3379  -27.3626
  std. dev.         8.3152     4.321   15.4151   11.3548    6.1531     8.264    9.7729    4.3194    8.1563    6.1548    7.9568    5.3215    8.4087    5.9506     5.964     5.787   12.1905    7.7906   11.2782   10.5794    6.6729    9.5141    7.6533   10.2129     6.683    4.7655    2.3916
  weight sum           144        36     11608       336        84      4405       452       203      2347       441       185       194      1206       166       442       551      2251      1066       141       335      1490       706       697       568       236       148        12
  precision         0.1027    0.1027    0.1027    0.1027    0.1027    0.1027    0.1027    0.1027    0.1027    0.1027    0.1027    0.1027    0.1027    0.1027    0.1027    0.1027    0.1027    0.1027    0.1027    0.1027    0.1027    0.1027    0.1027    0.1027    0.1027    0.1027    0.1027

3Pitch(Hz)
  mean             65.3575  242.0269   14.1336    84.257  147.2966  226.5892   64.1895  216.4591  191.0581   201.883  211.7374   78.2439  173.8339  153.6697  194.5281   174.343  178.5747  189.9462   90.7025   91.0913   50.6094  160.6495  230.7901   82.0092  178.6841  114.5787         0
  std. dev.       108.1943  121.8763   52.0151   86.5759    38.547  102.8612  103.1249    72.512   87.4612    84.869   99.8735  116.0641   75.6506  131.3106   86.3638    63.331  104.7438   90.1682  117.6818  115.9237   92.1351   94.6106   82.8574   114.771   71.8928    69.469    0.0243
  weight sum           144        36     11608       336        84      4405       452       203      2347       441       185       194      1206       166       442       551      2251      1066       141       335      1490       706       697       568       236       148        12
  precision         0.1457    0.1457    0.1457    0.1457    0.1457    0.1457    0.1457    0.1457    0.1457    0.1457    0.1457    0.1457    0.1457    0.1457    0.1457    0.1457    0.1457    0.1457    0.1457    0.1457    0.1457    0.1457    0.1457    0.1457    0.1457    0.1457    0.1457

3RawPitch
  mean             44.1099  240.0572   11.6312   67.0146  131.8552  216.8895   43.3669  214.4272  186.7023  196.4472  201.2831   43.1052  166.6698   100.811  183.2761  158.3555  172.5426  176.7646   52.6824   67.1849   29.0586  156.0344  221.3767   55.6644  164.8348   80.8777         0
  std. dev.        92.8202  123.2161   46.5646   85.4524   71.4692  108.2344   88.1441   74.6454   93.4491    92.771  110.3952   84.1331   81.1132  110.2804   96.8973    75.915  110.6448  102.4361   99.4069  107.2156   72.6111   99.0858   91.1707   99.5062   82.3683   76.7501    0.0248
  weight sum           144        36     11608       336        84      4405       452       203      2347       441       185       194      1206       166       442       551      2251      1066       141       335      1490       706       697       568       236       148        12
  precision         0.1486    0.1486    0.1486    0.1486    0.1486    0.1486    0.1486    0.1486    0.1486    0.1486    0.1486    0.1486    0.1486    0.1486    0.1486    0.1486    0.1486    0.1486    0.1486    0.1486    0.1486    0.1486    0.1486    0.1486    0.1486    0.1486    0.1486

3SmPitch
  mean             56.1916  242.0125   12.7081   77.3627  149.1881  224.8259   55.0909  216.4586  189.6338  201.3593   209.704   62.8463  171.4037  115.2176  191.1777  172.5581  176.5059  187.2824   71.9617   80.6143   42.5529  157.7841  229.7721   70.2383   175.012  111.4742         0
  std. dev.       101.5405  121.8671   48.0606   83.9352   36.4657  104.5105   99.5967   72.5063   88.7774    85.928  102.2181  100.1907   78.1033  137.4539   91.1197   65.6617   106.636   92.6603  110.3884  115.5198   85.9983   96.4061   83.4441  110.3043   75.4441   70.8065    0.0246
  weight sum           144        36     11608       336        84      4405       452       203      2347       441       185       194      1206       166       442       551      2251      1066       141       335      1490       706       697       568       236       148        12
  precision         0.1475    0.1475    0.1475    0.1475    0.1475    0.1475    0.1475    0.1475    0.1475    0.1475    0.1475    0.1475    0.1475    0.1475    0.1475    0.1475    0.1475    0.1475    0.1475    0.1475    0.1475    0.1475    0.1475    0.1475    0.1475    0.1475    0.1475

3Melogram(st)
  mean             17.7686   56.3213    4.2923   25.9362   49.3963   53.5262   16.1155   55.4708   50.8127     53.14   51.2372   23.1989   48.9436   18.1254    51.162   51.2206   46.6912   49.9025   20.3742   22.9162   13.5852   42.9905   54.8522   19.7139   50.9332   40.8824         0
  std. dev.        26.8469    8.9802   14.7034   25.0533    4.6146   14.1204   25.6792    6.2648   14.8245   10.7598   17.5082   27.5216   15.5254   27.1318   14.1243     9.232   20.3122   16.6936   27.3602   27.7784    23.839   22.3489   12.6632   27.3053   10.8363   17.9027    0.0045
  weight sum           144        36     11608       336        84      4405       452       203      2347       441       185       194      1206       166       442       551      2251      1066       141       335      1490       706       697       568       236       148        12
  precision         0.0271    0.0271    0.0271    0.0271    0.0271    0.0271    0.0271    0.0271    0.0271    0.0271    0.0271    0.0271    0.0271    0.0271    0.0271    0.0271    0.0271    0.0271    0.0271    0.0271    0.0271    0.0271    0.0271    0.0271    0.0271    0.0271    0.0271

3ZCross
  mean              8.4864    3.3261    0.1869    0.9224    3.1444    7.4925    1.5947    3.9034    4.8852    3.7028    4.3657    0.5628    3.5568    3.6985    2.8206    3.1766    3.9781    2.4018    4.1462    0.9461    3.5619    2.9847    3.8114    0.7812    2.9994    1.4753         0
  std. dev.        12.6364    2.6755    0.9421    1.6559    2.2708    4.3868    3.4225    1.7566    3.1792    2.0838    2.6593    1.4214    3.1167     3.727    1.4129    1.8741    2.8849    1.5266    6.8029    2.0925    6.8644    2.3912    2.7838    1.5121    1.7329    1.6886    0.1957
  weight sum           144        36     11608       336        84      4405       452       203      2347       441       185       194      1206       166       442       551      2251      1066       141       335      1490       706       697       568       236       148        12
  precision         1.1739    1.1739    1.1739    1.1739    1.1739    1.1739    1.1739    1.1739    1.1739    1.1739    1.1739    1.1739    1.1739    1.1739    1.1739    1.1739    1.1739    1.1739    1.1739    1.1739    1.1739    1.1739    1.1739    1.1739    1.1739    1.1739    1.1739

3F1(Hz)
  mean            151.4374   604.369   46.8684  386.2728  444.8961  709.1959  111.5271  480.2384   466.462  517.4169  498.9833   282.885  366.1781  459.4525  433.2282   471.414  486.7294  464.1109  188.7221  252.9801  184.2944  486.0354  499.9719  132.0725  480.4049   344.321         0
  std. dev.          265.4  135.6087  156.9509  299.2385   82.7519  251.4657  221.3523  133.0515  141.9729  150.5159    186.19  335.8097  138.5016  343.1604  161.0847  137.3747  223.3891  154.6842  246.5788   297.739  284.0022  231.9282  304.4022  221.3517  169.3091  182.3304    0.0605
  weight sum           144        36     11608       336        84      4405       452       203      2347       441       185       194      1206       166       442       551      2251      1066       141       335      1490       706       697       568       236       148        12
  precision         0.3628    0.3628    0.3628    0.3628    0.3628    0.3628    0.3628    0.3628    0.3628    0.3628    0.3628    0.3628    0.3628    0.3628    0.3628    0.3628    0.3628    0.3628    0.3628    0.3628    0.3628    0.3628    0.3628    0.3628    0.3628    0.3628    0.3628

3F2(Hz)
  mean            469.0704 1642.0449  145.6852 1110.2702 1927.7218 1464.8732  326.2732 1571.3127 1796.4609 1484.5553 1705.1671  741.9071 2002.2125 1284.8504 1672.4723 1670.4733  1145.619 1598.8226  761.1286  739.6676  575.0169 1377.7558 1063.4579  442.3682 1564.0307 1359.0462         0
  std. dev.        786.794  123.6284  482.7386  839.8572   352.358  388.4441   662.183   342.383  511.4411  315.1872  569.4236  856.5523  633.8216  898.6422  427.1976  334.3984   528.768  451.9357  966.1942  842.3733  858.8254  609.8542  420.6329  722.8585  418.6208  656.0956    0.0742
  weight sum           144        36     11608       336        84      4405       452       203      2347       441       185       194      1206       166       442       551      2251      1066       141       335      1490       706       697       568       236       148        12
  precision         0.4452    0.4452    0.4452    0.4452    0.4452    0.4452    0.4452    0.4452    0.4452    0.4452    0.4452    0.4452    0.4452    0.4452    0.4452    0.4452    0.4452    0.4452    0.4452    0.4452    0.4452    0.4452    0.4452    0.4452    0.4452    0.4452    0.4452

3F3(Hz)
  mean            763.8256 2854.4763  249.4221 1821.3397 2527.5629 2732.0295  597.3649 2757.6682 2636.0758 2867.4021 2921.8002 1256.1275 2693.6179  1892.249 2757.9089 2807.9203  2513.778 2762.2201  1137.314 1268.3759  955.8123 2392.0752 2692.0225  794.3786 2662.4101 2344.8657         0
  std. dev.       1280.578  415.0577  812.1428 1314.6306  113.4765  715.8519 1171.9293  466.9797  763.9923  487.3711  891.1037 1446.6971  876.6153 1311.8006   550.256  565.4537 1011.4708  667.8162 1406.6818 1430.7426 1411.0405  1066.903   759.659 1285.4487  686.8616 1148.9467    0.1098
  weight sum           144        36     11608       336        84      4405       452       203      2347       441       185       194      1206       166       442       551      2251      1066       141       335      1490       706       697       568       236       148        12
  precision         0.6587    0.6587    0.6587    0.6587    0.6587    0.6587    0.6587    0.6587    0.6587    0.6587    0.6587    0.6587    0.6587    0.6587    0.6587    0.6587    0.6587    0.6587    0.6587    0.6587    0.6587    0.6587    0.6587    0.6587    0.6587    0.6587    0.6587

3F4(Hz)
  mean            919.1659 3245.1284  300.7077 2258.5003 3588.6553 3142.9426  700.4728 3294.6984 3175.4825 3334.3495 2960.2051  1439.692 3200.0296 2374.2582 3319.9897 3244.9356 2890.9482 3168.5705 1375.3543 1514.1748 1081.1236 2775.0647 3085.5469  916.9123 3228.4218 2705.8262         0
  std. dev.      1540.0349  405.7071  976.9518 1616.8389   90.0492  810.7837 1374.6892  444.9588  884.6328  533.4148   906.295 1646.7272  997.3182 1633.7197  591.0299  572.9864 1145.4649  771.2787 1713.1057 1684.1176 1594.0112  1183.171  770.8999 1489.2699  721.3249 1314.4836    0.1133
  weight sum           144        36     11608       336        84      4405       452       203      2347       441       185       194      1206       166       442       551      2251      1066       141       335      1490       706       697       568       236       148        12
  precision         0.6801    0.6801    0.6801    0.6801    0.6801    0.6801    0.6801    0.6801    0.6801    0.6801    0.6801    0.6801    0.6801    0.6801    0.6801    0.6801    0.6801    0.6801    0.6801    0.6801    0.6801    0.6801    0.6801    0.6801    0.6801    0.6801    0.6801





=== Stratified cross-validation ===

Correctly Classified Instances        9147               30.0394 %
Incorrectly Classified Instances     21303               69.9606 %
Kappa statistic                          0.2232
K&B Relative Info Score             514363.7398 %
K&B Information Score                17093.2828 bits      0.5614 bits/instance
Class complexity | order 0          101111.4543 bits      3.3206 bits/instance
Class complexity | scheme          1670615.2908 bits     54.8642 bits/instance
Complexity improvement     (Sf)    -1569503.8365 bits    -51.5436 bits/instance
Mean absolute error                      0.0519
Root mean squared error                  0.2183
Relative absolute error                 86.0422 %
Root relative squared error            125.7057 %
Coverage of cases (0.95 level)          34.3514 %
Mean rel. region size (0.95 level)       5.4287 %
Total Number of Instances            30450     


=== Detailed Accuracy By Class ===

                 TP Rate  FP Rate  Precision  Recall   F-Measure  MCC      ROC Area  PRC Area  Class
                 0,250    0,005    0,188      0,250    0,215      0,213    0,728     0,114     ch
                 0,306    0,017    0,021      0,306    0,039      0,075    0,843     0,027     rr
                 0,527    0,014    0,959      0,527    0,680      0,612    0,910     0,887     0
                 0,101    0,020    0,054      0,101    0,071      0,060    0,691     0,035     hs
                 0,917    0,130    0,019      0,917    0,037      0,122    0,950     0,094     hg
                 0,443    0,037    0,671      0,443    0,534      0,487    0,879     0,615     a
                 0,144    0,014    0,135      0,144    0,139      0,126    0,571     0,075     c
                 0,443    0,121    0,024      0,443    0,046      0,080    0,834     0,026     b
                 0,047    0,004    0,514      0,047    0,086      0,138    0,743     0,207     e
                 0,025    0,020    0,018      0,025    0,021      0,004    0,774     0,031     d
                 0,054    0,004    0,070      0,054    0,061      0,057    0,753     0,021     g
                 0,103    0,011    0,055      0,103    0,072      0,067    0,614     0,024     f
                 0,061    0,004    0,363      0,061    0,105      0,136    0,811     0,194     i
                 0,235    0,002    0,379      0,235    0,290      0,295    0,763     0,176     j
                 0,000    0,002    0,000      0,000    0,000      -0,005   0,784     0,034     m
                 0,209    0,045    0,078      0,209    0,114      0,102    0,817     0,060     l
                 0,012    0,004    0,196      0,012    0,023      0,031    0,723     0,150     o
                 0,008    0,013    0,023      0,008    0,012      -0,007   0,774     0,074     n
                 0,014    0,001    0,059      0,014    0,023      0,027    0,672     0,024     q
                 0,021    0,005    0,043      0,021    0,028      0,022    0,584     0,029     p
                 0,097    0,001    0,783      0,097    0,172      0,265    0,652     0,261     s
                 0,013    0,002    0,110      0,013    0,023      0,030    0,704     0,049     r
                 0,164    0,006    0,409      0,164    0,234      0,248    0,841     0,200     u
                 0,076    0,012    0,106      0,076    0,088      0,075    0,571     0,055     t
                 0,000    0,001    0,000      0,000    0,000      -0,002   0,728     0,013     v
                 0,101    0,020    0,025      0,101    0,040      0,041    0,851     0,022     y
                 0,917    0,199    0,002      0,917    0,004      0,036    0,865     0,002     z
Weighted Avg.    0,300    0,015    0,593      0,300    0,375      0,352    0,821     0,490     


=== Confusion Matrix ===

    a    b    c    d    e    f    g    h    i    j    k    l    m    n    o    p    q    r    s    t    u    v    w    x    y    z   aa   <-- classified as
   36    6    7    5    2    4   18    4    0    5    0    5    0    1    0    3    0    1    0    0    9    1    0    1    0    0   36 |    a = ch
    0   11    0    0   20    1    0    3    0    0    0    0    0    0    0    0    0    0    0    0    0    0    1    0    0    0    0 |    b = rr
    7   37 6121  158  261   21   19  158    9   88    1   74   15    8    7   93    7   89    2   10    9   12    7   72    4   78 4241 |    c = 0
    0    8    9   34   97    5    0   19    0    2    0   17    2    0    0   21    0    8    0    1    4    7    1    9    0   24   68 |    d = hs
    0    0    0    0   77    0    0    3    0    0    0    0    1    0    0    1    0    2    0    0    0    0    0    0    0    0    0 |    e = hg
    4   96   31   37  578 1953   48  690   31  293    6   17   14   12    0  223   45   32   11   37    1   14   50   40    6   40   96 |    f = a
   13    0   41   13   11    0   65    6    2    0    0   25    1    3    0    5    1   10    5    9    4    1    2   22    0    6  207 |    g = c
    0   14    0    0   60   10    0   90    0    0    5    0    0    0    0   22    0    0    0    0    0    0    0    0    0    2    0 |    h = b
    5   45    4   36  842  251   29  524  110   19   57   10   43    3    1  116   28   28    5   23    0    2   21   34    1   34   76 |    i = e
    0   28    1    6  129   37    0  159    0   11    1    1    0    0    1   52    0    1    0    0    0    0    0    3    0   10    1 |    j = d
    0   10    0    3   52   26    0   46    0    0   10    6    1    0    0   21    0    1    0    0    0    0    0    1    0    1    7 |    k = g
    0    9    3   15   16    4    8    6    1    3    3   20    0    2    0    7    0    9    0    0    0    3    0   11    0    6   68 |    l = f
    9    3    6   23  308   55   21  263   34    0   20    2   74    1   26  166    8    3    2   19    1    0    4   32    0   83   43 |    m = i
    0    3    3    8    8   15    3   12    0    0    1   10    0   39    0    2    1   14    0    2    3   10    1    1    0    2   28 |    n = j
    0    6    1   12  171   26    1  141    0   11    0    0    2    0    0   50    0    0    0    1    0    0    0    3    0   11    6 |    o = m
    0   25    1    4  198   19    3  144    6    3    1    2    2    0    0  115    1    5    0    2    0    0    2    5    0   13    0 |    p = l
    5   46    4   52  390  265   20  615    6  100    1   17   18    4    2  233   27   11    2   22    0    1   63   28    4   99  216 |    q = o
    0   88    1   42  310   24    0  371    2   12   12    7   10    0    0   95    1    9    0    0    0    0    0    9    0   50   23 |    r = n
   15    0    6    5   12    6   18    3    1    4    0    7    0    2    0    0    0    9    2    0    7    0    0    1    0    4   39 |    s = q
    0    6   12   26   19   13   15   12    0    7    0   19    2    1    0    8    3   16    0    7    0    5    1   30    0   13  120 |    t = p
   97   41   85   72   68   36  132   26    5   19    7   79    5   25    1   47    1   70    0    2  144   12    1   14    0   46  455 |    u = s
    0   33    3   39  136   49    4  132    2   16   14   19    5    1    0  111    2   25    2    4    1    9    5   15    0   18   61 |    v = r
    0    7    5    4   55   79   12  253    1    8    0    1    6    0   11   54    8    3    0   12    0    2  114   18    5   33    6 |    w = u
    0    9   37   28   22    0   58    5    0    4    0   20    2    1    0    0    5   40    3   10    0    2    2   43    1   11  265 |    x = t
    0    3    3    2  113   11    1   50    4    4    3    1    0    0    0   17    0    2    0    1    0    1    1    7    0   10    2 |    y = v
    0    0    1    3   77    0    8    9    0    0    0    5    1    0    0    8    0    3    0    1    1    0    3    6    0   15    7 |    z = y
    0    0    0    0    0    0    0    0    0    0    0    0    0    0    0    0    0    0    0    0    0    0    0    1    0    0   11 |   aa = z

=== Percent Confusion Matrix ===
a	b	c	d	e	f	g	h	i	j	k	l	m	n	o	p	q	r	s	t	u	v	w	x	y	z	aa	
25.0	4.17	4.86	3.47	1.39	2.78	12.5	2.78	0.0	3.47	0.0	3.47	0.0	0.69	0.0	2.08	0.0	0.69	0.0	0.0	6.25	0.69	0.0	0.69	0.0	0.0	25.0	 a = ch
0.0	30.56	0.0	0.0	55.56	2.78	0.0	8.33	0.0	0.0	0.0	0.0	0.0	0.0	0.0	0.0	0.0	0.0	0.0	0.0	0.0	0.0	2.78	0.0	0.0	0.0	0.0	 b = rr
0.06	0.32	52.73	1.36	2.25	0.18	0.16	1.36	0.08	0.76	0.01	0.64	0.13	0.07	0.06	0.8	0.06	0.77	0.02	0.09	0.08	0.1	0.06	0.62	0.03	0.67	36.54	 c = 0
0.0	2.38	2.68	10.12	28.87	1.49	0.0	5.65	0.0	0.6	0.0	5.06	0.6	0.0	0.0	6.25	0.0	2.38	0.0	0.3	1.19	2.08	0.3	2.68	0.0	7.14	20.24	 d = hs
0.0	0.0	0.0	0.0	91.67	0.0	0.0	3.57	0.0	0.0	0.0	0.0	1.19	0.0	0.0	1.19	0.0	2.38	0.0	0.0	0.0	0.0	0.0	0.0	0.0	0.0	0.0	 e = hg
0.09	2.18	0.7	0.84	13.12	44.34	1.09	15.66	0.7	6.65	0.14	0.39	0.32	0.27	0.0	5.06	1.02	0.73	0.25	0.84	0.02	0.32	1.14	0.91	0.14	0.91	2.18	 f = a
2.88	0.0	9.07	2.88	2.43	0.0	14.38	1.33	0.44	0.0	0.0	5.53	0.22	0.66	0.0	1.11	0.22	2.21	1.11	1.99	0.88	0.22	0.44	4.87	0.0	1.33	45.8	 g = c
0.0	6.9	0.0	0.0	29.56	4.93	0.0	44.33	0.0	0.0	2.46	0.0	0.0	0.0	0.0	10.84	0.0	0.0	0.0	0.0	0.0	0.0	0.0	0.0	0.0	0.99	0.0	 h = b
0.21	1.92	0.17	1.53	35.88	10.69	1.24	22.33	4.69	0.81	2.43	0.43	1.83	0.13	0.04	4.94	1.19	1.19	0.21	0.98	0.0	0.09	0.89	1.45	0.04	1.45	3.24	 i = e
0.0	6.35	0.23	1.36	29.25	8.39	0.0	36.05	0.0	2.49	0.23	0.23	0.0	0.0	0.23	11.79	0.0	0.23	0.0	0.0	0.0	0.0	0.0	0.68	0.0	2.27	0.23	 j = d
0.0	5.41	0.0	1.62	28.11	14.05	0.0	24.86	0.0	0.0	5.41	3.24	0.54	0.0	0.0	11.35	0.0	0.54	0.0	0.0	0.0	0.0	0.0	0.54	0.0	0.54	3.78	 k = g
0.0	4.64	1.55	7.73	8.25	2.06	4.12	3.09	0.52	1.55	1.55	10.31	0.0	1.03	0.0	3.61	0.0	4.64	0.0	0.0	0.0	1.55	0.0	5.67	0.0	3.09	35.05	 l = f
0.75	0.25	0.5	1.91	25.54	4.56	1.74	21.81	2.82	0.0	1.66	0.17	6.14	0.08	2.16	13.76	0.66	0.25	0.17	1.58	0.08	0.0	0.33	2.65	0.0	6.88	3.57	 m = i
0.0	1.81	1.81	4.82	4.82	9.04	1.81	7.23	0.0	0.0	0.6	6.02	0.0	23.49	0.0	1.2	0.6	8.43	0.0	1.2	1.81	6.02	0.6	0.6	0.0	1.2	16.87	 n = j
0.0	1.36	0.23	2.71	38.69	5.88	0.23	31.9	0.0	2.49	0.0	0.0	0.45	0.0	0.0	11.31	0.0	0.0	0.0	0.23	0.0	0.0	0.0	0.68	0.0	2.49	1.36	 o = m
0.0	4.54	0.18	0.73	35.93	3.45	0.54	26.13	1.09	0.54	0.18	0.36	0.36	0.0	0.0	20.87	0.18	0.91	0.0	0.36	0.0	0.0	0.36	0.91	0.0	2.36	0.0	 p = l
0.22	2.04	0.18	2.31	17.33	11.77	0.89	27.32	0.27	4.44	0.04	0.76	0.8	0.18	0.09	10.35	1.2	0.49	0.09	0.98	0.0	0.04	2.8	1.24	0.18	4.4	9.6	 q = o
0.0	8.26	0.09	3.94	29.08	2.25	0.0	34.8	0.19	1.13	1.13	0.66	0.94	0.0	0.0	8.91	0.09	0.84	0.0	0.0	0.0	0.0	0.0	0.84	0.0	4.69	2.16	 r = n
10.64	0.0	4.26	3.55	8.51	4.26	12.77	2.13	0.71	2.84	0.0	4.96	0.0	1.42	0.0	0.0	0.0	6.38	1.42	0.0	4.96	0.0	0.0	0.71	0.0	2.84	27.66	 s = q
0.0	1.79	3.58	7.76	5.67	3.88	4.48	3.58	0.0	2.09	0.0	5.67	0.6	0.3	0.0	2.39	0.9	4.78	0.0	2.09	0.0	1.49	0.3	8.96	0.0	3.88	35.82	 t = p
6.51	2.75	5.7	4.83	4.56	2.42	8.86	1.74	0.34	1.28	0.47	5.3	0.34	1.68	0.07	3.15	0.07	4.7	0.0	0.13	9.66	0.81	0.07	0.94	0.0	3.09	30.54	 u = s
0.0	4.67	0.42	5.52	19.26	6.94	0.57	18.7	0.28	2.27	1.98	2.69	0.71	0.14	0.0	15.72	0.28	3.54	0.28	0.57	0.14	1.27	0.71	2.12	0.0	2.55	8.64	 v = r
0.0	1.0	0.72	0.57	7.89	11.33	1.72	36.3	0.14	1.15	0.0	0.14	0.86	0.0	1.58	7.75	1.15	0.43	0.0	1.72	0.0	0.29	16.36	2.58	0.72	4.73	0.86	 w = u
0.0	1.58	6.51	4.93	3.87	0.0	10.21	0.88	0.0	0.7	0.0	3.52	0.35	0.18	0.0	0.0	0.88	7.04	0.53	1.76	0.0	0.35	0.35	7.57	0.18	1.94	46.65	 x = t
0.0	1.27	1.27	0.85	47.88	4.66	0.42	21.19	1.69	1.69	1.27	0.42	0.0	0.0	0.0	7.2	0.0	0.85	0.0	0.42	0.0	0.42	0.42	2.97	0.0	4.24	0.85	 y = v
0.0	0.0	0.68	2.03	52.03	0.0	5.41	6.08	0.0	0.0	0.0	3.38	0.68	0.0	0.0	5.41	0.0	2.03	0.0	0.68	0.68	0.0	2.03	4.05	0.0	10.14	4.73	 z = y
0.0	0.0	0.0	0.0	0.0	0.0	0.0	0.0	0.0	0.0	0.0	0.0	0.0	0.0	0.0	0.0	0.0	0.0	0.0	0.0	0.0	0.0	0.0	8.33	0.0	0.0	91.67	 aa = z
