Timestamp:2013-07-23-02:52:32
Inventario:I0
Intervalo:6ms
Ngramas:2
Clasificador:RandomForest
Relation Name:  I0-6ms-2gramas
Num Instances:  30452
Num Attributes: 21

     Name                      Type  Nom  Int Real     Missing      Unique  Dist
   1 0Int(dB)                   Num   0%  10%  90%     0 /  0%     2 /  0%   776 
   2 0Pitch(Hz)                 Num   0%  51%  49%     0 /  0%   750 /  2%  3423 
   3 0RawPitch                  Num   0%  55%  45%     0 /  0%   699 /  2%  3337 
   4 0SmPitch                   Num   0%  53%  47%     0 /  0%   748 /  2%  3382 
   5 0Melogram(st)              Num   0%  48%  52%     0 /  0%   413 /  1%  3048 
   6 0ZCross                    Num   0% 100%   0%     0 /  0%     8 /  0%    47 
   7 0F1(Hz)                    Num   0%  52%  48%     0 /  0%  1130 /  4%  4802 
   8 0F2(Hz)                    Num   0%  51%  49%     0 /  0%  2251 /  7%  6691 
   9 0F3(Hz)                    Num   0%  52%  48%     0 /  0%  1969 /  6%  6255 
  10 0F4(Hz)                    Num   0%  52%  48%     0 /  0%  1938 /  6%  6099 
  11 1Int(dB)                   Num   0%  10%  90%     0 /  0%     3 /  0%   777 
  12 1Pitch(Hz)                 Num   0%  51%  49%     0 /  0%   750 /  2%  3423 
  13 1RawPitch                  Num   0%  55%  45%     0 /  0%   699 /  2%  3337 
  14 1SmPitch                   Num   0%  53%  47%     0 /  0%   748 /  2%  3382 
  15 1Melogram(st)              Num   0%  48%  52%     0 /  0%   413 /  1%  3048 
  16 1ZCross                    Num   0% 100%   0%     0 /  0%     8 /  0%    47 
  17 1F1(Hz)                    Num   0%  52%  48%     0 /  0%  1130 /  4%  4802 
  18 1F2(Hz)                    Num   0%  51%  49%     0 /  0%  2251 /  7%  6691 
  19 1F3(Hz)                    Num   0%  52%  48%     0 /  0%  1969 /  6%  6255 
  20 1F4(Hz)                    Num   0%  52%  48%     0 /  0%  1938 /  6%  6099 
  21 class                      Nom 100%   0%   0%     0 /  0%     0 /  0%    27 


Options: -I 10 -K 0 -S 1 -num-slots 4 

Random forest of 10 trees, each constructed while considering 5 random features.
Out of bag error: 0.2663





=== Stratified cross-validation ===

Correctly Classified Instances       23944               78.6287 %
Incorrectly Classified Instances      6508               21.3713 %
Kappa statistic                          0.7345
K&B Relative Info Score            2151846.5529 %
K&B Information Score                71511.7937 bits      2.3483 bits/instance
Class complexity | order 0          101114.2365 bits      3.3204 bits/instance
Class complexity | scheme          2579606.2555 bits     84.7106 bits/instance
Complexity improvement     (Sf)    -2478492.019 bits    -81.3901 bits/instance
Mean absolute error                      0.0235
Root mean squared error                  0.1089
Relative absolute error                 38.984  %
Root relative squared error             62.7383 %
Coverage of cases (0.95 level)          92.1155 %
Mean rel. region size (0.95 level)       9.8827 %
Total Number of Instances            30452     


=== Detailed Accuracy By Class ===

                 TP Rate  FP Rate  Precision  Recall   F-Measure  MCC      ROC Area  PRC Area  Class
                 0,306    0,002    0,383      0,306    0,340      0,339    0,766     0,222     ch
                 0,500    0,000    0,667      0,500    0,571      0,577    0,943     0,579     rr
                 0,915    0,083    0,872      0,915    0,893      0,826    0,966     0,944     0
                 0,479    0,004    0,579      0,479    0,524      0,522    0,845     0,396     hs
                 0,655    0,000    0,821      0,655    0,728      0,732    0,963     0,723     hg
                 0,899    0,034    0,816      0,899    0,855      0,831    0,970     0,918     a
                 0,199    0,009    0,245      0,199    0,220      0,210    0,762     0,118     c
                 0,655    0,001    0,787      0,655    0,715      0,716    0,965     0,729     b
                 0,825    0,026    0,728      0,825    0,773      0,755    0,958     0,823     e
                 0,662    0,004    0,721      0,662    0,690      0,687    0,972     0,705     d
                 0,649    0,001    0,795      0,649    0,714      0,716    0,949     0,752     g
                 0,299    0,003    0,363      0,299    0,328      0,325    0,787     0,181     f
                 0,786    0,010    0,767      0,786    0,776      0,767    0,954     0,811     i
                 0,440    0,001    0,624      0,440    0,516      0,522    0,846     0,443     j
                 0,801    0,003    0,823      0,801    0,812      0,809    0,983     0,832     m
                 0,684    0,004    0,752      0,684    0,717      0,713    0,960     0,735     l
                 0,740    0,018    0,766      0,740    0,753      0,734    0,930     0,781     o
                 0,747    0,008    0,782      0,747    0,764      0,756    0,964     0,805     n
                 0,248    0,001    0,438      0,248    0,317      0,327    0,787     0,229     q
                 0,230    0,005    0,342      0,230    0,275      0,274    0,752     0,151     p
                 0,615    0,019    0,628      0,615    0,622      0,602    0,910     0,602     s
                 0,435    0,005    0,681      0,435    0,531      0,536    0,882     0,481     r
                 0,791    0,003    0,879      0,791    0,832      0,830    0,969     0,866     u
                 0,222    0,010    0,305      0,222    0,257      0,248    0,765     0,142     t
                 0,525    0,001    0,810      0,525    0,638      0,650    0,932     0,627     v
                 0,669    0,001    0,846      0,669    0,747      0,751    0,923     0,689     y
                 0,000    0,000    0,000      0,000    0,000      -0,000   0,582     0,006     z
Weighted Avg.    0,786    0,042    0,776      0,786    0,779      0,745    0,944     0,807     


=== Confusion Matrix ===

     a     b     c     d     e     f     g     h     i     j     k     l     m     n     o     p     q     r     s     t     u     v     w     x     y     z    aa   <-- classified as
    44     0    16     0     0     5     8     0     1     0     0     1     1     1     0     1     3     1     0     2    50     2     2     5     0     0     1 |     a = ch
     0    18     2     0     0     7     0     0     8     0     0     0     0     0     0     0     0     0     0     0     0     1     0     0     0     0     0 |     b = rr
    13     0 10627    48     4   123    64     4   109    16     5    20    56     8     9    16   118    31    16    45   146    24    14    80     6     6     2 |     c = 0
     1     0    83   161     0    18     5     0    10     1     0     5     3     0     1     3    12     2     1     6    15     2     2     4     1     0     0 |     d = hs
     0     0     3     0    55     5     0     0    13     0     1     0     4     0     0     0     2     0     0     0     1     0     0     0     0     0     0 |     e = hg
     2     4   126     7     0  3960    22     1    64    15     3    12    12     4     6    13    56    19     0     8    20    25     2    17     3     2     2 |     f = a
    12     0   140     6     0    30    90     0    14     0     4     3    11     6     1     2    13     2    12    11    50     3     4    34     2     2     0 |     g = c
     0     1     7     0     2    14     0   133    13     1     1     0    10     0     5     1     8     1     0     0     0     2     4     0     0     0     0 |     h = b
     0     1    86     3     1    87    11     7  1936    12     5     3    41     4     8    14    29    31     2     5    22    12     5    16     5     1     0 |     i = e
     0     0    10     1     0    33     1     0    33   292     0     0     5     0     0     3    33    22     0     1     1     3     2     1     0     0     0 |     j = d
     0     0     9     0     0    21     1     0    17     1   120     0     4     0     0     0     2     3     0     0     2     0     3     2     0     0     0 |     k = g
     0     0    28     3     0    15     2     0     9     0     1    58     4     2     1     0     7     2     0     8    42     5     0     4     1     0     2 |     l = f
     0     1    64     5     2    17     7     9    84     1     1     1   948     0     6     9     4    11     2     5    13     2     1    10     2     1     0 |     m = i
     4     0    16     2     0    16     6     1     9     0     0     3     2    73     0     0     3     1     0     1    24     0     1     4     0     0     0 |     n = j
     0     1    11     0     1     8     0     2    15     0     0     0    17     1   354     3    14     4     0     2     1     2     3     2     0     0     1 |     o = m
     0     0    16     1     1    61     1     1    31     2     0     0    16     0     1   377    20     9     0     0     2     6     5     1     0     0     0 |     p = l
     3     0   219     4     0   118    13     4    55    31     1     6     7     2    14    15  1666    27     0     5    19     8    10    16     6     2     0 |     q = o
     1     0    52     3     0    39     2     0    65    16     0     0    12     1     3    16    33   796     0     2     8     6     4     5     1     1     0 |     r = n
     6     0    38     0     1     3    21     0     7     0     0     1     4     1     0     0     2     0    35     1    17     0     0     4     0     0     0 |     s = q
     1     0   104     8     0    31    11     0    21     0     0     5     7     2     3     2    10     5     1    77    21    10     1    13     1     0     1 |     t = p
    20     0   244    12     0    44    42     0    21     3     2    31    28     9     3     2    24    10     5    18   917    13     0    39     0     2     1 |     u = s
     2     1    62     4     0   123     6     2    62     1     2     3    16     0     6    11    36    16     1     7    18   307     2    17     1     0     0 |     v = r
     0     0    20     1     0    15     8     4    19     2     3     1     4     1     6     4    34     8     0     0     0     3   551    12     0     1     0 |     w = u
     5     0   182     9     0    35    42     0    17     1     2     5    12     2     0     2    26    12     5    16    55     8     6   126     0     0     0 |     x = t
     1     0     9     0     0    22     2     1    24     8     0     0    10     0     2     3    18     3     0     4     0     3     2     0   124     0     0 |     y = v
     0     0     9     0     0     3     2     0     4     2     0     0     2     0     0     4     2     1     0     1    14     2     3     0     0    99     0 |     z = y
     0     0     1     0     0     1     1     0     0     0     0     2     0     0     1     0     0     1     0     0     2     2     0     1     0     0     0 |    aa = z

=== Percent Confusion Matrix ===
a	b	c	d	e	f	g	h	i	j	k	l	m	n	o	p	q	r	s	t	u	v	w	x	y	z	aa	
30.56	0.0	11.11	0.0	0.0	3.47	5.56	0.0	0.69	0.0	0.0	0.69	0.69	0.69	0.0	0.69	2.08	0.69	0.0	1.39	34.72	1.39	1.39	3.47	0.0	0.0	0.69	 a = ch
0.0	50.0	5.56	0.0	0.0	19.44	0.0	0.0	22.22	0.0	0.0	0.0	0.0	0.0	0.0	0.0	0.0	0.0	0.0	0.0	0.0	2.78	0.0	0.0	0.0	0.0	0.0	 b = rr
0.11	0.0	91.53	0.41	0.03	1.06	0.55	0.03	0.94	0.14	0.04	0.17	0.48	0.07	0.08	0.14	1.02	0.27	0.14	0.39	1.26	0.21	0.12	0.69	0.05	0.05	0.02	 c = 0
0.3	0.0	24.7	47.92	0.0	5.36	1.49	0.0	2.98	0.3	0.0	1.49	0.89	0.0	0.3	0.89	3.57	0.6	0.3	1.79	4.46	0.6	0.6	1.19	0.3	0.0	0.0	 d = hs
0.0	0.0	3.57	0.0	65.48	5.95	0.0	0.0	15.48	0.0	1.19	0.0	4.76	0.0	0.0	0.0	2.38	0.0	0.0	0.0	1.19	0.0	0.0	0.0	0.0	0.0	0.0	 e = hg
0.05	0.09	2.86	0.16	0.0	89.9	0.5	0.02	1.45	0.34	0.07	0.27	0.27	0.09	0.14	0.3	1.27	0.43	0.0	0.18	0.45	0.57	0.05	0.39	0.07	0.05	0.05	 f = a
2.65	0.0	30.97	1.33	0.0	6.64	19.91	0.0	3.1	0.0	0.88	0.66	2.43	1.33	0.22	0.44	2.88	0.44	2.65	2.43	11.06	0.66	0.88	7.52	0.44	0.44	0.0	 g = c
0.0	0.49	3.45	0.0	0.99	6.9	0.0	65.52	6.4	0.49	0.49	0.0	4.93	0.0	2.46	0.49	3.94	0.49	0.0	0.0	0.0	0.99	1.97	0.0	0.0	0.0	0.0	 h = b
0.0	0.04	3.66	0.13	0.04	3.71	0.47	0.3	82.49	0.51	0.21	0.13	1.75	0.17	0.34	0.6	1.24	1.32	0.09	0.21	0.94	0.51	0.21	0.68	0.21	0.04	0.0	 i = e
0.0	0.0	2.27	0.23	0.0	7.48	0.23	0.0	7.48	66.21	0.0	0.0	1.13	0.0	0.0	0.68	7.48	4.99	0.0	0.23	0.23	0.68	0.45	0.23	0.0	0.0	0.0	 j = d
0.0	0.0	4.86	0.0	0.0	11.35	0.54	0.0	9.19	0.54	64.86	0.0	2.16	0.0	0.0	0.0	1.08	1.62	0.0	0.0	1.08	0.0	1.62	1.08	0.0	0.0	0.0	 k = g
0.0	0.0	14.43	1.55	0.0	7.73	1.03	0.0	4.64	0.0	0.52	29.9	2.06	1.03	0.52	0.0	3.61	1.03	0.0	4.12	21.65	2.58	0.0	2.06	0.52	0.0	1.03	 l = f
0.0	0.08	5.31	0.41	0.17	1.41	0.58	0.75	6.97	0.08	0.08	0.08	78.61	0.0	0.5	0.75	0.33	0.91	0.17	0.41	1.08	0.17	0.08	0.83	0.17	0.08	0.0	 m = i
2.41	0.0	9.64	1.2	0.0	9.64	3.61	0.6	5.42	0.0	0.0	1.81	1.2	43.98	0.0	0.0	1.81	0.6	0.0	0.6	14.46	0.0	0.6	2.41	0.0	0.0	0.0	 n = j
0.0	0.23	2.49	0.0	0.23	1.81	0.0	0.45	3.39	0.0	0.0	0.0	3.85	0.23	80.09	0.68	3.17	0.9	0.0	0.45	0.23	0.45	0.68	0.45	0.0	0.0	0.23	 o = m
0.0	0.0	2.9	0.18	0.18	11.07	0.18	0.18	5.63	0.36	0.0	0.0	2.9	0.0	0.18	68.42	3.63	1.63	0.0	0.0	0.36	1.09	0.91	0.18	0.0	0.0	0.0	 p = l
0.13	0.0	9.73	0.18	0.0	5.24	0.58	0.18	2.44	1.38	0.04	0.27	0.31	0.09	0.62	0.67	74.01	1.2	0.0	0.22	0.84	0.36	0.44	0.71	0.27	0.09	0.0	 q = o
0.09	0.0	4.88	0.28	0.0	3.66	0.19	0.0	6.1	1.5	0.0	0.0	1.13	0.09	0.28	1.5	3.1	74.67	0.0	0.19	0.75	0.56	0.38	0.47	0.09	0.09	0.0	 r = n
4.26	0.0	26.95	0.0	0.71	2.13	14.89	0.0	4.96	0.0	0.0	0.71	2.84	0.71	0.0	0.0	1.42	0.0	24.82	0.71	12.06	0.0	0.0	2.84	0.0	0.0	0.0	 s = q
0.3	0.0	31.04	2.39	0.0	9.25	3.28	0.0	6.27	0.0	0.0	1.49	2.09	0.6	0.9	0.6	2.99	1.49	0.3	22.99	6.27	2.99	0.3	3.88	0.3	0.0	0.3	 t = p
1.34	0.0	16.38	0.81	0.0	2.95	2.82	0.0	1.41	0.2	0.13	2.08	1.88	0.6	0.2	0.13	1.61	0.67	0.34	1.21	61.54	0.87	0.0	2.62	0.0	0.13	0.07	 u = s
0.28	0.14	8.78	0.57	0.0	17.42	0.85	0.28	8.78	0.14	0.28	0.42	2.27	0.0	0.85	1.56	5.1	2.27	0.14	0.99	2.55	43.48	0.28	2.41	0.14	0.0	0.0	 v = r
0.0	0.0	2.87	0.14	0.0	2.15	1.15	0.57	2.73	0.29	0.43	0.14	0.57	0.14	0.86	0.57	4.88	1.15	0.0	0.0	0.0	0.43	79.05	1.72	0.0	0.14	0.0	 w = u
0.88	0.0	32.04	1.58	0.0	6.16	7.39	0.0	2.99	0.18	0.35	0.88	2.11	0.35	0.0	0.35	4.58	2.11	0.88	2.82	9.68	1.41	1.06	22.18	0.0	0.0	0.0	 x = t
0.42	0.0	3.81	0.0	0.0	9.32	0.85	0.42	10.17	3.39	0.0	0.0	4.24	0.0	0.85	1.27	7.63	1.27	0.0	1.69	0.0	1.27	0.85	0.0	52.54	0.0	0.0	 y = v
0.0	0.0	6.08	0.0	0.0	2.03	1.35	0.0	2.7	1.35	0.0	0.0	1.35	0.0	0.0	2.7	1.35	0.68	0.0	0.68	9.46	1.35	2.03	0.0	0.0	66.89	0.0	 z = y
0.0	0.0	8.33	0.0	0.0	8.33	8.33	0.0	0.0	0.0	0.0	16.67	0.0	0.0	8.33	0.0	0.0	8.33	0.0	0.0	16.67	16.67	0.0	8.33	0.0	0.0	0.0	 aa = z
