Timestamp:2013-07-23-02:53:54
Inventario:I0
Intervalo:6ms
Ngramas:4
Clasificador:RandomForest
Relation Name:  I0-6ms-4gramas
Num Instances:  30450
Num Attributes: 41

     Name                      Type  Nom  Int Real     Missing      Unique  Dist
   1 0Int(dB)                   Num   0%  10%  90%     0 /  0%     2 /  0%   776 
   2 0Pitch(Hz)                 Num   0%  51%  49%     0 /  0%   750 /  2%  3423 
   3 0RawPitch                  Num   0%  55%  45%     0 /  0%   699 /  2%  3337 
   4 0SmPitch                   Num   0%  53%  47%     0 /  0%   748 /  2%  3382 
   5 0Melogram(st)              Num   0%  48%  52%     0 /  0%   413 /  1%  3048 
   6 0ZCross                    Num   0% 100%   0%     0 /  0%     8 /  0%    47 
   7 0F1(Hz)                    Num   0%  52%  48%     0 /  0%  1130 /  4%  4802 
   8 0F2(Hz)                    Num   0%  51%  49%     0 /  0%  2251 /  7%  6691 
   9 0F3(Hz)                    Num   0%  52%  48%     0 /  0%  1969 /  6%  6255 
  10 0F4(Hz)                    Num   0%  52%  48%     0 /  0%  1938 /  6%  6099 
  11 1Int(dB)                   Num   0%  10%  90%     0 /  0%     2 /  0%   776 
  12 1Pitch(Hz)                 Num   0%  51%  49%     0 /  0%   750 /  2%  3423 
  13 1RawPitch                  Num   0%  55%  45%     0 /  0%   699 /  2%  3337 
  14 1SmPitch                   Num   0%  53%  47%     0 /  0%   748 /  2%  3382 
  15 1Melogram(st)              Num   0%  48%  52%     0 /  0%   413 /  1%  3048 
  16 1ZCross                    Num   0% 100%   0%     0 /  0%     8 /  0%    47 
  17 1F1(Hz)                    Num   0%  52%  48%     0 /  0%  1130 /  4%  4802 
  18 1F2(Hz)                    Num   0%  51%  49%     0 /  0%  2251 /  7%  6691 
  19 1F3(Hz)                    Num   0%  52%  48%     0 /  0%  1969 /  6%  6255 
  20 1F4(Hz)                    Num   0%  52%  48%     0 /  0%  1938 /  6%  6099 
  21 2Int(dB)                   Num   0%  10%  90%     0 /  0%     2 /  0%   776 
  22 2Pitch(Hz)                 Num   0%  51%  49%     0 /  0%   750 /  2%  3423 
  23 2RawPitch                  Num   0%  55%  45%     0 /  0%   699 /  2%  3337 
  24 2SmPitch                   Num   0%  53%  47%     0 /  0%   748 /  2%  3382 
  25 2Melogram(st)              Num   0%  48%  52%     0 /  0%   413 /  1%  3048 
  26 2ZCross                    Num   0% 100%   0%     0 /  0%     8 /  0%    47 
  27 2F1(Hz)                    Num   0%  52%  48%     0 /  0%  1130 /  4%  4802 
  28 2F2(Hz)                    Num   0%  51%  49%     0 /  0%  2251 /  7%  6691 
  29 2F3(Hz)                    Num   0%  52%  48%     0 /  0%  1969 /  6%  6255 
  30 2F4(Hz)                    Num   0%  52%  48%     0 /  0%  1938 /  6%  6099 
  31 3Int(dB)                   Num   0%  10%  90%     0 /  0%     3 /  0%   777 
  32 3Pitch(Hz)                 Num   0%  51%  49%     0 /  0%   750 /  2%  3423 
  33 3RawPitch                  Num   0%  55%  45%     0 /  0%   699 /  2%  3337 
  34 3SmPitch                   Num   0%  53%  47%     0 /  0%   748 /  2%  3382 
  35 3Melogram(st)              Num   0%  48%  52%     0 /  0%   413 /  1%  3048 
  36 3ZCross                    Num   0% 100%   0%     0 /  0%     8 /  0%    47 
  37 3F1(Hz)                    Num   0%  52%  48%     0 /  0%  1130 /  4%  4802 
  38 3F2(Hz)                    Num   0%  51%  49%     0 /  0%  2251 /  7%  6691 
  39 3F3(Hz)                    Num   0%  52%  48%     0 /  0%  1969 /  6%  6255 
  40 3F4(Hz)                    Num   0%  52%  48%     0 /  0%  1938 /  6%  6099 
  41 class                      Nom 100%   0%   0%     0 /  0%     0 /  0%    27 


Options: -I 10 -K 0 -S 1 -num-slots 4 

Random forest of 10 trees, each constructed while considering 6 random features.
Out of bag error: 0.2568





=== Stratified cross-validation ===

Correctly Classified Instances       24596               80.775  %
Incorrectly Classified Instances      5854               19.225  %
Kappa statistic                          0.7597
K&B Relative Info Score            2208055.0504 %
K&B Information Score                73377.8578 bits      2.4098 bits/instance
Class complexity | order 0          101111.4543 bits      3.3206 bits/instance
Class complexity | scheme          1882693.6926 bits     61.829  bits/instance
Complexity improvement     (Sf)    -1781582.2383 bits    -58.5084 bits/instance
Mean absolute error                      0.0234
Root mean squared error                  0.1046
Relative absolute error                 38.8371 %
Root relative squared error             60.2263 %
Coverage of cases (0.95 level)          94.3021 %
Mean rel. region size (0.95 level)      10.599  %
Total Number of Instances            30450     


=== Detailed Accuracy By Class ===

                 TP Rate  FP Rate  Precision  Recall   F-Measure  MCC      ROC Area  PRC Area  Class
                 0,257    0,002    0,381      0,257    0,307      0,310    0,804     0,234     ch
                 0,500    0,000    0,720      0,500    0,590      0,600    0,957     0,597     rr
                 0,942    0,089    0,867      0,942    0,903      0,842    0,975     0,957     0
                 0,542    0,002    0,725      0,542    0,620      0,623    0,887     0,549     hs
                 0,667    0,000    0,812      0,667    0,732      0,735    0,975     0,768     hg
                 0,898    0,033    0,823      0,898    0,859      0,835    0,976     0,926     a
                 0,228    0,008    0,306      0,228    0,261      0,254    0,798     0,173     c
                 0,734    0,001    0,776      0,734    0,754      0,753    0,983     0,774     b
                 0,828    0,024    0,742      0,828    0,783      0,765    0,962     0,829     e
                 0,728    0,003    0,775      0,728    0,751      0,748    0,971     0,776     d
                 0,686    0,001    0,852      0,686    0,760      0,764    0,968     0,804     g
                 0,371    0,002    0,529      0,371    0,436      0,440    0,877     0,368     f
                 0,784    0,009    0,788      0,784    0,786      0,777    0,961     0,825     i
                 0,482    0,001    0,727      0,482    0,580      0,590    0,889     0,553     j
                 0,787    0,002    0,870      0,787    0,827      0,825    0,977     0,852     m
                 0,673    0,004    0,762      0,673    0,715      0,711    0,970     0,736     l
                 0,753    0,016    0,795      0,753    0,774      0,756    0,941     0,802     o
                 0,798    0,005    0,848      0,798    0,822      0,816    0,981     0,867     n
                 0,291    0,001    0,672      0,291    0,406      0,441    0,815     0,335     q
                 0,236    0,003    0,432      0,236    0,305      0,314    0,788     0,235     p
                 0,714    0,017    0,680      0,714    0,697      0,681    0,946     0,716     s
                 0,429    0,003    0,771      0,429    0,551      0,568    0,906     0,562     r
                 0,783    0,002    0,888      0,783    0,832      0,830    0,968     0,863     u
                 0,245    0,006    0,421      0,245    0,310      0,311    0,830     0,238     t
                 0,564    0,001    0,893      0,564    0,691      0,708    0,964     0,720     v
                 0,649    0,000    0,889      0,649    0,750      0,758    0,937     0,729     y
                 0,000    0,000    0,000      0,000    0,000      -0,000   0,582     0,004     z
Weighted Avg.    0,808    0,044    0,798      0,808    0,798      0,768    0,956     0,835     


=== Confusion Matrix ===

     a     b     c     d     e     f     g     h     i     j     k     l     m     n     o     p     q     r     s     t     u     v     w     x     y     z    aa   <-- classified as
    37     0    27     1     0     8    11     0     2     0     0     1     1     0     0     0     1     1     0     1    50     0     0     3     0     0     0 |     a = ch
     0    18     1     0     0     3     0     0     8     0     0     0     0     0     0     0     3     2     0     0     1     0     0     0     0     0     0 |     b = rr
    10     0 10940    15     4    96    36     4    97    11     5    11    43     6     5    22    74    23     4    20   113    16    11    39     1     2     0 |     c = 0
     1     0    80   182     0    19     3     0    10     0     1     1     3     2     1     2     5     1     0     6    15     2     2     0     0     0     0 |     d = hs
     0     0     2     0    56     5     0     0    14     0     0     0     3     0     0     0     2     1     1     0     0     0     0     0     0     0     0 |     e = hg
     3     2   120     6     0  3955    25     2    69    12     4     6    13     2     1    16    64    19     0     9    28    18     2    24     3     0     2 |     f = a
     8     0   163     5     0    31   103     0    14     1     1     4     9     0     0     0    15     0     9     9    43     0     4    33     0     0     0 |     g = c
     0     0     3     0     0    12     0   149    10     1     0     0    12     0     4     1     5     1     0     0     0     1     4     0     0     0     0 |     h = b
     1     0    99     6     5    88     9     3  1943    15     3     1    42     0     5     8    41    21     0     8    26     6     3     9     5     0     0 |     i = e
     0     0     8     2     0    32     0     1    22   321     1     0     4     0     2     4    26    12     0     0     0     3     3     0     0     0     0 |     j = d
     0     0     9     1     0    12     1     0    17     2   127     1     5     0     0     0     4     2     0     0     1     0     2     1     0     0     0 |     k = g
     1     0    33     0     0    14     3     0     6     0     0    72     2     3     0     0     1     3     0     7    44     1     1     2     0     1     0 |     l = f
     2     0    63     2     3    26     7     7    79     1     0     3   946     0     9    12     5     4     0     3    20     3     3     6     2     0     0 |     m = i
     1     0    21     5     0     9     6     1     9     0     0     6     1    80     1     0     3     0     0     1    21     0     1     0     0     0     0 |     n = j
     1     0    10     0     0    12     2     5    18     0     0     0    20     0   348     3    11     4     0     2     1     1     2     1     1     0     0 |     o = m
     0     0    21     1     0    57     0     2    38     3     0     2    16     0     2   371    21     6     0     0     3     3     3     0     0     2     0 |     p = l
     2     1   228     7     0   115     7     7    48    19     1     1     9     3    11    14  1696    17     1     6    22     7    12    14     0     3     0 |     q = o
     1     2    42     4     1    38     1     2    47    10     1     1    12     1     3     8    22   851     0     1     6     2     5     4     1     0     0 |     r = n
     6     0    44     0     0     6    25     0     2     0     0     0     2     0     0     0     3     1    41     1     9     0     0     1     0     0     0 |     s = q
     2     0   118     6     0    25    14     1    13     0     0     3     3     2     0     1    17     3     2    79    23     6     0    15     2     0     0 |     t = p
    13     0   232     4     0    34    19     0    16     2     0    15    22     4     0     4    14     9     0     9  1064     8     0    20     0     0     1 |     u = s
     3     2    86     4     0   122     5     5    70     7     1     2    14     2     1     8    32     6     0     4    17   303     2     7     1     2     0 |     v = r
     0     0    19     0     0    26     4     3    25     2     3     0     2     3     4     7    35     6     0     1     3     1   546     5     0     2     0 |     w = u
     4     0   224     0     0    34    52     0    16     4     0     3     4     2     3     0    17     7     3    14    32     6     4   139     0     0     0 |     x = t
     1     0    12     0     0    23     1     0    20     2     1     1    10     0     0     4    15     2     0     2     0     4     1     4   133     0     0 |     y = v
     0     0     5     0     0     3     2     0     5     1     0     1     3     0     0     2     2     2     0     0    19     2     4     1     0    96     0 |     z = y
     0     0     4     0     0     0     1     0     0     0     0     1     0     0     0     0     0     0     0     0     4     0     0     2     0     0     0 |    aa = z

=== Percent Confusion Matrix ===
a	b	c	d	e	f	g	h	i	j	k	l	m	n	o	p	q	r	s	t	u	v	w	x	y	z	aa	
25.69	0.0	18.75	0.69	0.0	5.56	7.64	0.0	1.39	0.0	0.0	0.69	0.69	0.0	0.0	0.0	0.69	0.69	0.0	0.69	34.72	0.0	0.0	2.08	0.0	0.0	0.0	 a = ch
0.0	50.0	2.78	0.0	0.0	8.33	0.0	0.0	22.22	0.0	0.0	0.0	0.0	0.0	0.0	0.0	8.33	5.56	0.0	0.0	2.78	0.0	0.0	0.0	0.0	0.0	0.0	 b = rr
0.09	0.0	94.25	0.13	0.03	0.83	0.31	0.03	0.84	0.09	0.04	0.09	0.37	0.05	0.04	0.19	0.64	0.2	0.03	0.17	0.97	0.14	0.09	0.34	0.01	0.02	0.0	 c = 0
0.3	0.0	23.81	54.17	0.0	5.65	0.89	0.0	2.98	0.0	0.3	0.3	0.89	0.6	0.3	0.6	1.49	0.3	0.0	1.79	4.46	0.6	0.6	0.0	0.0	0.0	0.0	 d = hs
0.0	0.0	2.38	0.0	66.67	5.95	0.0	0.0	16.67	0.0	0.0	0.0	3.57	0.0	0.0	0.0	2.38	1.19	1.19	0.0	0.0	0.0	0.0	0.0	0.0	0.0	0.0	 e = hg
0.07	0.05	2.72	0.14	0.0	89.78	0.57	0.05	1.57	0.27	0.09	0.14	0.3	0.05	0.02	0.36	1.45	0.43	0.0	0.2	0.64	0.41	0.05	0.54	0.07	0.0	0.05	 f = a
1.77	0.0	36.06	1.11	0.0	6.86	22.79	0.0	3.1	0.22	0.22	0.88	1.99	0.0	0.0	0.0	3.32	0.0	1.99	1.99	9.51	0.0	0.88	7.3	0.0	0.0	0.0	 g = c
0.0	0.0	1.48	0.0	0.0	5.91	0.0	73.4	4.93	0.49	0.0	0.0	5.91	0.0	1.97	0.49	2.46	0.49	0.0	0.0	0.0	0.49	1.97	0.0	0.0	0.0	0.0	 h = b
0.04	0.0	4.22	0.26	0.21	3.75	0.38	0.13	82.79	0.64	0.13	0.04	1.79	0.0	0.21	0.34	1.75	0.89	0.0	0.34	1.11	0.26	0.13	0.38	0.21	0.0	0.0	 i = e
0.0	0.0	1.81	0.45	0.0	7.26	0.0	0.23	4.99	72.79	0.23	0.0	0.91	0.0	0.45	0.91	5.9	2.72	0.0	0.0	0.0	0.68	0.68	0.0	0.0	0.0	0.0	 j = d
0.0	0.0	4.86	0.54	0.0	6.49	0.54	0.0	9.19	1.08	68.65	0.54	2.7	0.0	0.0	0.0	2.16	1.08	0.0	0.0	0.54	0.0	1.08	0.54	0.0	0.0	0.0	 k = g
0.52	0.0	17.01	0.0	0.0	7.22	1.55	0.0	3.09	0.0	0.0	37.11	1.03	1.55	0.0	0.0	0.52	1.55	0.0	3.61	22.68	0.52	0.52	1.03	0.0	0.52	0.0	 l = f
0.17	0.0	5.22	0.17	0.25	2.16	0.58	0.58	6.55	0.08	0.0	0.25	78.44	0.0	0.75	1.0	0.41	0.33	0.0	0.25	1.66	0.25	0.25	0.5	0.17	0.0	0.0	 m = i
0.6	0.0	12.65	3.01	0.0	5.42	3.61	0.6	5.42	0.0	0.0	3.61	0.6	48.19	0.6	0.0	1.81	0.0	0.0	0.6	12.65	0.0	0.6	0.0	0.0	0.0	0.0	 n = j
0.23	0.0	2.26	0.0	0.0	2.71	0.45	1.13	4.07	0.0	0.0	0.0	4.52	0.0	78.73	0.68	2.49	0.9	0.0	0.45	0.23	0.23	0.45	0.23	0.23	0.0	0.0	 o = m
0.0	0.0	3.81	0.18	0.0	10.34	0.0	0.36	6.9	0.54	0.0	0.36	2.9	0.0	0.36	67.33	3.81	1.09	0.0	0.0	0.54	0.54	0.54	0.0	0.0	0.36	0.0	 p = l
0.09	0.04	10.13	0.31	0.0	5.11	0.31	0.31	2.13	0.84	0.04	0.04	0.4	0.13	0.49	0.62	75.34	0.76	0.04	0.27	0.98	0.31	0.53	0.62	0.0	0.13	0.0	 q = o
0.09	0.19	3.94	0.38	0.09	3.56	0.09	0.19	4.41	0.94	0.09	0.09	1.13	0.09	0.28	0.75	2.06	79.83	0.0	0.09	0.56	0.19	0.47	0.38	0.09	0.0	0.0	 r = n
4.26	0.0	31.21	0.0	0.0	4.26	17.73	0.0	1.42	0.0	0.0	0.0	1.42	0.0	0.0	0.0	2.13	0.71	29.08	0.71	6.38	0.0	0.0	0.71	0.0	0.0	0.0	 s = q
0.6	0.0	35.22	1.79	0.0	7.46	4.18	0.3	3.88	0.0	0.0	0.9	0.9	0.6	0.0	0.3	5.07	0.9	0.6	23.58	6.87	1.79	0.0	4.48	0.6	0.0	0.0	 t = p
0.87	0.0	15.57	0.27	0.0	2.28	1.28	0.0	1.07	0.13	0.0	1.01	1.48	0.27	0.0	0.27	0.94	0.6	0.0	0.6	71.41	0.54	0.0	1.34	0.0	0.0	0.07	 u = s
0.42	0.28	12.18	0.57	0.0	17.28	0.71	0.71	9.92	0.99	0.14	0.28	1.98	0.28	0.14	1.13	4.53	0.85	0.0	0.57	2.41	42.92	0.28	0.99	0.14	0.28	0.0	 v = r
0.0	0.0	2.73	0.0	0.0	3.73	0.57	0.43	3.59	0.29	0.43	0.0	0.29	0.43	0.57	1.0	5.02	0.86	0.0	0.14	0.43	0.14	78.34	0.72	0.0	0.29	0.0	 w = u
0.7	0.0	39.44	0.0	0.0	5.99	9.15	0.0	2.82	0.7	0.0	0.53	0.7	0.35	0.53	0.0	2.99	1.23	0.53	2.46	5.63	1.06	0.7	24.47	0.0	0.0	0.0	 x = t
0.42	0.0	5.08	0.0	0.0	9.75	0.42	0.0	8.47	0.85	0.42	0.42	4.24	0.0	0.0	1.69	6.36	0.85	0.0	0.85	0.0	1.69	0.42	1.69	56.36	0.0	0.0	 y = v
0.0	0.0	3.38	0.0	0.0	2.03	1.35	0.0	3.38	0.68	0.0	0.68	2.03	0.0	0.0	1.35	1.35	1.35	0.0	0.0	12.84	1.35	2.7	0.68	0.0	64.86	0.0	 z = y
0.0	0.0	33.33	0.0	0.0	0.0	8.33	0.0	0.0	0.0	0.0	8.33	0.0	0.0	0.0	0.0	0.0	0.0	0.0	0.0	33.33	0.0	0.0	16.67	0.0	0.0	0.0	 aa = z
