Timestamp:2013-07-23-02:54:41
Inventario:I0
Intervalo:6ms
Ngramas:5
Clasificador:RandomForest
Relation Name:  I0-6ms-5gramas
Num Instances:  30449
Num Attributes: 51

     Name                      Type  Nom  Int Real     Missing      Unique  Dist
   1 0Int(dB)                   Num   0%  10%  90%     0 /  0%     2 /  0%   776 
   2 0Pitch(Hz)                 Num   0%  51%  49%     0 /  0%   750 /  2%  3423 
   3 0RawPitch                  Num   0%  55%  45%     0 /  0%   699 /  2%  3337 
   4 0SmPitch                   Num   0%  53%  47%     0 /  0%   748 /  2%  3382 
   5 0Melogram(st)              Num   0%  48%  52%     0 /  0%   413 /  1%  3048 
   6 0ZCross                    Num   0% 100%   0%     0 /  0%     8 /  0%    47 
   7 0F1(Hz)                    Num   0%  52%  48%     0 /  0%  1130 /  4%  4802 
   8 0F2(Hz)                    Num   0%  51%  49%     0 /  0%  2251 /  7%  6691 
   9 0F3(Hz)                    Num   0%  52%  48%     0 /  0%  1969 /  6%  6255 
  10 0F4(Hz)                    Num   0%  52%  48%     0 /  0%  1938 /  6%  6099 
  11 1Int(dB)                   Num   0%  10%  90%     0 /  0%     2 /  0%   776 
  12 1Pitch(Hz)                 Num   0%  51%  49%     0 /  0%   750 /  2%  3423 
  13 1RawPitch                  Num   0%  55%  45%     0 /  0%   699 /  2%  3337 
  14 1SmPitch                   Num   0%  53%  47%     0 /  0%   748 /  2%  3382 
  15 1Melogram(st)              Num   0%  48%  52%     0 /  0%   413 /  1%  3048 
  16 1ZCross                    Num   0% 100%   0%     0 /  0%     8 /  0%    47 
  17 1F1(Hz)                    Num   0%  52%  48%     0 /  0%  1130 /  4%  4802 
  18 1F2(Hz)                    Num   0%  51%  49%     0 /  0%  2251 /  7%  6691 
  19 1F3(Hz)                    Num   0%  52%  48%     0 /  0%  1969 /  6%  6255 
  20 1F4(Hz)                    Num   0%  52%  48%     0 /  0%  1938 /  6%  6099 
  21 2Int(dB)                   Num   0%  10%  90%     0 /  0%     2 /  0%   776 
  22 2Pitch(Hz)                 Num   0%  51%  49%     0 /  0%   750 /  2%  3423 
  23 2RawPitch                  Num   0%  55%  45%     0 /  0%   699 /  2%  3337 
  24 2SmPitch                   Num   0%  53%  47%     0 /  0%   748 /  2%  3382 
  25 2Melogram(st)              Num   0%  48%  52%     0 /  0%   413 /  1%  3048 
  26 2ZCross                    Num   0% 100%   0%     0 /  0%     8 /  0%    47 
  27 2F1(Hz)                    Num   0%  52%  48%     0 /  0%  1130 /  4%  4802 
  28 2F2(Hz)                    Num   0%  51%  49%     0 /  0%  2251 /  7%  6691 
  29 2F3(Hz)                    Num   0%  52%  48%     0 /  0%  1969 /  6%  6255 
  30 2F4(Hz)                    Num   0%  52%  48%     0 /  0%  1938 /  6%  6099 
  31 3Int(dB)                   Num   0%  10%  90%     0 /  0%     2 /  0%   776 
  32 3Pitch(Hz)                 Num   0%  51%  49%     0 /  0%   750 /  2%  3423 
  33 3RawPitch                  Num   0%  55%  45%     0 /  0%   699 /  2%  3337 
  34 3SmPitch                   Num   0%  53%  47%     0 /  0%   748 /  2%  3382 
  35 3Melogram(st)              Num   0%  48%  52%     0 /  0%   413 /  1%  3048 
  36 3ZCross                    Num   0% 100%   0%     0 /  0%     8 /  0%    47 
  37 3F1(Hz)                    Num   0%  52%  48%     0 /  0%  1130 /  4%  4802 
  38 3F2(Hz)                    Num   0%  51%  49%     0 /  0%  2251 /  7%  6691 
  39 3F3(Hz)                    Num   0%  52%  48%     0 /  0%  1969 /  6%  6255 
  40 3F4(Hz)                    Num   0%  52%  48%     0 /  0%  1938 /  6%  6099 
  41 4Int(dB)                   Num   0%  10%  90%     0 /  0%     3 /  0%   777 
  42 4Pitch(Hz)                 Num   0%  51%  49%     0 /  0%   750 /  2%  3423 
  43 4RawPitch                  Num   0%  55%  45%     0 /  0%   699 /  2%  3337 
  44 4SmPitch                   Num   0%  53%  47%     0 /  0%   748 /  2%  3382 
  45 4Melogram(st)              Num   0%  48%  52%     0 /  0%   413 /  1%  3048 
  46 4ZCross                    Num   0% 100%   0%     0 /  0%     8 /  0%    47 
  47 4F1(Hz)                    Num   0%  52%  48%     0 /  0%  1130 /  4%  4802 
  48 4F2(Hz)                    Num   0%  51%  49%     0 /  0%  2251 /  7%  6691 
  49 4F3(Hz)                    Num   0%  52%  48%     0 /  0%  1969 /  6%  6255 
  50 4F4(Hz)                    Num   0%  52%  48%     0 /  0%  1938 /  6%  6099 
  51 class                      Nom 100%   0%   0%     0 /  0%     0 /  0%    27 


Options: -I 10 -K 0 -S 1 -num-slots 4 

Random forest of 10 trees, each constructed while considering 6 random features.
Out of bag error: 0.2475





=== Stratified cross-validation ===

Correctly Classified Instances       24899               81.7728 %
Incorrectly Classified Instances      5550               18.2272 %
Kappa statistic                          0.7722
K&B Relative Info Score            2232397.0919 %
K&B Information Score                74196.8506 bits      2.4368 bits/instance
Class complexity | order 0          101110.063  bits      3.3206 bits/instance
Class complexity | scheme          1719490.5278 bits     56.4712 bits/instance
Complexity improvement     (Sf)    -1618380.4648 bits    -53.1505 bits/instance
Mean absolute error                      0.0232
Root mean squared error                  0.1032
Relative absolute error                 38.493  %
Root relative squared error             59.4011 %
Coverage of cases (0.95 level)          94.8011 %
Mean rel. region size (0.95 level)      10.6951 %
Total Number of Instances            30449     


=== Detailed Accuracy By Class ===

                 TP Rate  FP Rate  Precision  Recall   F-Measure  MCC      ROC Area  PRC Area  Class
                 0,313    0,002    0,489      0,313    0,381      0,389    0,825     0,304     ch
                 0,583    0,000    0,913      0,583    0,712      0,730    0,930     0,666     rr
                 0,945    0,087    0,869      0,945    0,905      0,845    0,974     0,957     0
                 0,563    0,002    0,765      0,563    0,648      0,653    0,905     0,600     hs
                 0,774    0,000    0,878      0,774    0,823      0,824    0,969     0,819     hg
                 0,909    0,031    0,830      0,909    0,867      0,845    0,977     0,930     a
                 0,257    0,007    0,352      0,257    0,297      0,291    0,811     0,196     c
                 0,754    0,001    0,810      0,754    0,781      0,780    0,978     0,807     b
                 0,829    0,024    0,744      0,829    0,784      0,766    0,966     0,841     e
                 0,721    0,003    0,803      0,721    0,760      0,758    0,979     0,799     d
                 0,632    0,000    0,914      0,632    0,748      0,759    0,971     0,803     g
                 0,412    0,002    0,584      0,412    0,483      0,488    0,888     0,434     f
                 0,799    0,009    0,785      0,799    0,792      0,783    0,964     0,830     i
                 0,482    0,000    0,851      0,482    0,615      0,639    0,880     0,579     j
                 0,805    0,002    0,864      0,805    0,834      0,832    0,983     0,853     m
                 0,740    0,003    0,810      0,740    0,773      0,770    0,970     0,772     l
                 0,757    0,014    0,811      0,757    0,783      0,767    0,943     0,813     o
                 0,809    0,005    0,864      0,809    0,835      0,830    0,978     0,860     n
                 0,298    0,001    0,583      0,298    0,394      0,415    0,823     0,346     q
                 0,310    0,003    0,547      0,310    0,396      0,407    0,847     0,344     p
                 0,717    0,016    0,703      0,717    0,710      0,695    0,954     0,734     s
                 0,500    0,003    0,795      0,500    0,614      0,624    0,928     0,610     r
                 0,796    0,002    0,888      0,796    0,840      0,837    0,971     0,860     u
                 0,303    0,006    0,490      0,303    0,374      0,376    0,846     0,272     t
                 0,496    0,001    0,880      0,496    0,634      0,659    0,952     0,681     v
                 0,655    0,000    0,874      0,655    0,749      0,756    0,950     0,746     y
                 0,083    0,000    0,333      0,083    0,133      0,167    0,665     0,057     z
Weighted Avg.    0,818    0,043    0,810      0,818    0,809      0,780    0,959     0,845     


=== Confusion Matrix ===

     a     b     c     d     e     f     g     h     i     j     k     l     m     n     o     p     q     r     s     t     u     v     w     x     y     z    aa   <-- classified as
    45     0    28     1     0     6    10     0     4     0     0     0     0     0     0     0     1     1     1     5    40     0     0     2     0     0     0 |     a = ch
     0    21     1     0     0     3     0     0     9     0     0     0     0     0     0     0     2     0     0     0     0     0     0     0     0     0     0 |     b = rr
    11     0 10965    13     3    96    28     4   102    12     2     8    36     3     5    16    77    24     5    11   110    21     7    45     1     2     0 |     c = 0
     0     0    88   189     0    11     1     0     8     0     0     1     4     0     1     1     6     2     1     0    13     3     7     0     0     0     0 |     d = hs
     0     0     1     0    65     5     1     0     8     0     0     0     3     0     0     0     0     1     0     0     0     0     0     0     0     0     0 |     e = hg
     0     2   121     8     1  4002    21     0    58     9     2     1    12     2     3    15    47    18     2     8    23    23     3    22     1     0     1 |     f = a
    12     0   162     3     0    31   116     0    15     0     0     1     7     2     0     0    13     1    11    13    29     4     2    29     1     0     0 |     g = c
     0     0     7     0     0    12     0   153    13     0     0     0     8     0     2     0     3     0     0     0     0     2     2     0     1     0     0 |     h = b
     1     0   105     6     2   100    12     3  1945    10     4     3    33     2     4    11    28    15     2     2    18    13     7    16     2     3     0 |     i = e
     0     0     9     2     0    25     0     1    32   318     0     0     3     0     1     0    32    13     0     0     1     1     1     2     0     0     0 |     j = d
     1     0     8     0     0    17     0     0    19     1   117     0    10     0     1     0     2     2     0     1     3     0     2     1     0     0     0 |     k = g
     2     0    30     0     0     8     2     1     5     0     0    80     5     1     0     0     5     2     0     7    42     1     0     3     0     0     0 |     l = f
     1     0    65     2     2    22     3     7    73     0     0     2   964     1     7     6     4     5     2     5    19     1     4     8     3     0     0 |     m = i
     0     0    21     3     0    10     5     1    10     0     0     5     2    80     0     1     0     1     0     4    21     0     1     1     0     0     0 |     n = j
     0     0     8     0     0    11     2     6    13     2     0     0    20     0   356     4    11     2     0     0     2     0     4     1     0     0     0 |     o = m
     0     0    19     1     0    42     0     0    28     3     0     0    18     0     1   408    14     4     0     0     2     3     2     4     0     2     0 |     p = l
     1     0   231     3     0   112    14     1    48    18     0     4    15     0    16    12  1704    16     0     5    25     4    12     7     2     1     0 |     q = o
     0     0    40     1     0    34     0     1    51     9     2     3    12     0     1     3    31   862     0     1     9     1     1     4     0     0     0 |     r = n
     3     0    43     0     0     4    25     0     5     0     0     0     2     0     0     0     2     0    42     0    12     0     0     3     0     0     0 |     s = q
     1     0   107     6     0    31    17     0    18     1     0     6     4     2     0     1     9     0     1   104    11     2     3    10     1     0     0 |     t = p
     6     0   240     2     0    31    23     0    23     3     0    16    27     1     1     2    18     4     1     7  1068     5     0     9     0     2     1 |     u = s
     3     0    67     3     0   118     5     6    49     3     0     2    14     0     2     9    36     7     0     4    16   353     4     3     1     1     0 |     v = r
     0     0    16     1     0    21     7     4    27     2     1     0     4     0     6     5    30     6     0     0     3     0   555     5     2     2     0 |     w = u
     5     0   213     2     0    38    36     0    15     2     0     5     5     0     1     0    10    12     4    12    29     3     3   172     0     1     0 |     x = t
     0     0     9     1     1    24     2     0    34     3     0     0    11     0     3     8    14     0     0     0     0     1     5     3   117     0     0 |     y = v
     0     0     5     0     0     6     0     1     3     0     0     0     9     0     1     2     1     0     0     0    18     3     0     1     1    97     0 |     z = y
     0     0     3     0     0     2     0     0     0     0     0     0     0     0     0     0     0     0     0     1     5     0     0     0     0     0     1 |    aa = z

=== Percent Confusion Matrix ===
a	b	c	d	e	f	g	h	i	j	k	l	m	n	o	p	q	r	s	t	u	v	w	x	y	z	aa	
31.25	0.0	19.44	0.69	0.0	4.17	6.94	0.0	2.78	0.0	0.0	0.0	0.0	0.0	0.0	0.0	0.69	0.69	0.69	3.47	27.78	0.0	0.0	1.39	0.0	0.0	0.0	 a = ch
0.0	58.33	2.78	0.0	0.0	8.33	0.0	0.0	25.0	0.0	0.0	0.0	0.0	0.0	0.0	0.0	5.56	0.0	0.0	0.0	0.0	0.0	0.0	0.0	0.0	0.0	0.0	 b = rr
0.09	0.0	94.47	0.11	0.03	0.83	0.24	0.03	0.88	0.1	0.02	0.07	0.31	0.03	0.04	0.14	0.66	0.21	0.04	0.09	0.95	0.18	0.06	0.39	0.01	0.02	0.0	 c = 0
0.0	0.0	26.19	56.25	0.0	3.27	0.3	0.0	2.38	0.0	0.0	0.3	1.19	0.0	0.3	0.3	1.79	0.6	0.3	0.0	3.87	0.89	2.08	0.0	0.0	0.0	0.0	 d = hs
0.0	0.0	1.19	0.0	77.38	5.95	1.19	0.0	9.52	0.0	0.0	0.0	3.57	0.0	0.0	0.0	0.0	1.19	0.0	0.0	0.0	0.0	0.0	0.0	0.0	0.0	0.0	 e = hg
0.0	0.05	2.75	0.18	0.02	90.85	0.48	0.0	1.32	0.2	0.05	0.02	0.27	0.05	0.07	0.34	1.07	0.41	0.05	0.18	0.52	0.52	0.07	0.5	0.02	0.0	0.02	 f = a
2.65	0.0	35.84	0.66	0.0	6.86	25.66	0.0	3.32	0.0	0.0	0.22	1.55	0.44	0.0	0.0	2.88	0.22	2.43	2.88	6.42	0.88	0.44	6.42	0.22	0.0	0.0	 g = c
0.0	0.0	3.45	0.0	0.0	5.91	0.0	75.37	6.4	0.0	0.0	0.0	3.94	0.0	0.99	0.0	1.48	0.0	0.0	0.0	0.0	0.99	0.99	0.0	0.49	0.0	0.0	 h = b
0.04	0.0	4.47	0.26	0.09	4.26	0.51	0.13	82.87	0.43	0.17	0.13	1.41	0.09	0.17	0.47	1.19	0.64	0.09	0.09	0.77	0.55	0.3	0.68	0.09	0.13	0.0	 i = e
0.0	0.0	2.04	0.45	0.0	5.67	0.0	0.23	7.26	72.11	0.0	0.0	0.68	0.0	0.23	0.0	7.26	2.95	0.0	0.0	0.23	0.23	0.23	0.45	0.0	0.0	0.0	 j = d
0.54	0.0	4.32	0.0	0.0	9.19	0.0	0.0	10.27	0.54	63.24	0.0	5.41	0.0	0.54	0.0	1.08	1.08	0.0	0.54	1.62	0.0	1.08	0.54	0.0	0.0	0.0	 k = g
1.03	0.0	15.46	0.0	0.0	4.12	1.03	0.52	2.58	0.0	0.0	41.24	2.58	0.52	0.0	0.0	2.58	1.03	0.0	3.61	21.65	0.52	0.0	1.55	0.0	0.0	0.0	 l = f
0.08	0.0	5.39	0.17	0.17	1.82	0.25	0.58	6.05	0.0	0.0	0.17	79.93	0.08	0.58	0.5	0.33	0.41	0.17	0.41	1.58	0.08	0.33	0.66	0.25	0.0	0.0	 m = i
0.0	0.0	12.65	1.81	0.0	6.02	3.01	0.6	6.02	0.0	0.0	3.01	1.2	48.19	0.0	0.6	0.0	0.6	0.0	2.41	12.65	0.0	0.6	0.6	0.0	0.0	0.0	 n = j
0.0	0.0	1.81	0.0	0.0	2.49	0.45	1.36	2.94	0.45	0.0	0.0	4.52	0.0	80.54	0.9	2.49	0.45	0.0	0.0	0.45	0.0	0.9	0.23	0.0	0.0	0.0	 o = m
0.0	0.0	3.45	0.18	0.0	7.62	0.0	0.0	5.08	0.54	0.0	0.0	3.27	0.0	0.18	74.05	2.54	0.73	0.0	0.0	0.36	0.54	0.36	0.73	0.0	0.36	0.0	 p = l
0.04	0.0	10.26	0.13	0.0	4.98	0.62	0.04	2.13	0.8	0.0	0.18	0.67	0.0	0.71	0.53	75.7	0.71	0.0	0.22	1.11	0.18	0.53	0.31	0.09	0.04	0.0	 q = o
0.0	0.0	3.75	0.09	0.0	3.19	0.0	0.09	4.78	0.84	0.19	0.28	1.13	0.0	0.09	0.28	2.91	80.86	0.0	0.09	0.84	0.09	0.09	0.38	0.0	0.0	0.0	 r = n
2.13	0.0	30.5	0.0	0.0	2.84	17.73	0.0	3.55	0.0	0.0	0.0	1.42	0.0	0.0	0.0	1.42	0.0	29.79	0.0	8.51	0.0	0.0	2.13	0.0	0.0	0.0	 s = q
0.3	0.0	31.94	1.79	0.0	9.25	5.07	0.0	5.37	0.3	0.0	1.79	1.19	0.6	0.0	0.3	2.69	0.0	0.3	31.04	3.28	0.6	0.9	2.99	0.3	0.0	0.0	 t = p
0.4	0.0	16.11	0.13	0.0	2.08	1.54	0.0	1.54	0.2	0.0	1.07	1.81	0.07	0.07	0.13	1.21	0.27	0.07	0.47	71.68	0.34	0.0	0.6	0.0	0.13	0.07	 u = s
0.42	0.0	9.49	0.42	0.0	16.71	0.71	0.85	6.94	0.42	0.0	0.28	1.98	0.0	0.28	1.27	5.1	0.99	0.0	0.57	2.27	50.0	0.57	0.42	0.14	0.14	0.0	 v = r
0.0	0.0	2.3	0.14	0.0	3.01	1.0	0.57	3.87	0.29	0.14	0.0	0.57	0.0	0.86	0.72	4.3	0.86	0.0	0.0	0.43	0.0	79.63	0.72	0.29	0.29	0.0	 w = u
0.88	0.0	37.5	0.35	0.0	6.69	6.34	0.0	2.64	0.35	0.0	0.88	0.88	0.0	0.18	0.0	1.76	2.11	0.7	2.11	5.11	0.53	0.53	30.28	0.0	0.18	0.0	 x = t
0.0	0.0	3.81	0.42	0.42	10.17	0.85	0.0	14.41	1.27	0.0	0.0	4.66	0.0	1.27	3.39	5.93	0.0	0.0	0.0	0.0	0.42	2.12	1.27	49.58	0.0	0.0	 y = v
0.0	0.0	3.38	0.0	0.0	4.05	0.0	0.68	2.03	0.0	0.0	0.0	6.08	0.0	0.68	1.35	0.68	0.0	0.0	0.0	12.16	2.03	0.0	0.68	0.68	65.54	0.0	 z = y
0.0	0.0	25.0	0.0	0.0	16.67	0.0	0.0	0.0	0.0	0.0	0.0	0.0	0.0	0.0	0.0	0.0	0.0	0.0	8.33	41.67	0.0	0.0	0.0	0.0	0.0	8.33	 aa = z
