Timestamp:2013-08-30-03:52:48
Inventario:I0
Intervalo:6ms
Ngramas:5
Clasificador:BayesNet
Relation Name:  I0-6ms-5gramas
Num Instances:  30449
Num Attributes: 51

     Name                      Type  Nom  Int Real     Missing      Unique  Dist
   1 0Int(dB)                   Num   0%  10%  90%     0 /  0%     2 /  0%   776 
   2 0Pitch(Hz)                 Num   0%  51%  49%     0 /  0%   750 /  2%  3423 
   3 0RawPitch                  Num   0%  55%  45%     0 /  0%   699 /  2%  3337 
   4 0SmPitch                   Num   0%  53%  47%     0 /  0%   748 /  2%  3382 
   5 0Melogram(st)              Num   0%  48%  52%     0 /  0%   413 /  1%  3048 
   6 0ZCross                    Num   0% 100%   0%     0 /  0%     8 /  0%    47 
   7 0F1(Hz)                    Num   0%  52%  48%     0 /  0%  1130 /  4%  4802 
   8 0F2(Hz)                    Num   0%  51%  49%     0 /  0%  2251 /  7%  6691 
   9 0F3(Hz)                    Num   0%  52%  48%     0 /  0%  1969 /  6%  6255 
  10 0F4(Hz)                    Num   0%  52%  48%     0 /  0%  1938 /  6%  6099 
  11 1Int(dB)                   Num   0%  10%  90%     0 /  0%     2 /  0%   776 
  12 1Pitch(Hz)                 Num   0%  51%  49%     0 /  0%   750 /  2%  3423 
  13 1RawPitch                  Num   0%  55%  45%     0 /  0%   699 /  2%  3337 
  14 1SmPitch                   Num   0%  53%  47%     0 /  0%   748 /  2%  3382 
  15 1Melogram(st)              Num   0%  48%  52%     0 /  0%   413 /  1%  3048 
  16 1ZCross                    Num   0% 100%   0%     0 /  0%     8 /  0%    47 
  17 1F1(Hz)                    Num   0%  52%  48%     0 /  0%  1130 /  4%  4802 
  18 1F2(Hz)                    Num   0%  51%  49%     0 /  0%  2251 /  7%  6691 
  19 1F3(Hz)                    Num   0%  52%  48%     0 /  0%  1969 /  6%  6255 
  20 1F4(Hz)                    Num   0%  52%  48%     0 /  0%  1938 /  6%  6099 
  21 2Int(dB)                   Num   0%  10%  90%     0 /  0%     2 /  0%   776 
  22 2Pitch(Hz)                 Num   0%  51%  49%     0 /  0%   750 /  2%  3423 
  23 2RawPitch                  Num   0%  55%  45%     0 /  0%   699 /  2%  3337 
  24 2SmPitch                   Num   0%  53%  47%     0 /  0%   748 /  2%  3382 
  25 2Melogram(st)              Num   0%  48%  52%     0 /  0%   413 /  1%  3048 
  26 2ZCross                    Num   0% 100%   0%     0 /  0%     8 /  0%    47 
  27 2F1(Hz)                    Num   0%  52%  48%     0 /  0%  1130 /  4%  4802 
  28 2F2(Hz)                    Num   0%  51%  49%     0 /  0%  2251 /  7%  6691 
  29 2F3(Hz)                    Num   0%  52%  48%     0 /  0%  1969 /  6%  6255 
  30 2F4(Hz)                    Num   0%  52%  48%     0 /  0%  1938 /  6%  6099 
  31 3Int(dB)                   Num   0%  10%  90%     0 /  0%     2 /  0%   776 
  32 3Pitch(Hz)                 Num   0%  51%  49%     0 /  0%   750 /  2%  3423 
  33 3RawPitch                  Num   0%  55%  45%     0 /  0%   699 /  2%  3337 
  34 3SmPitch                   Num   0%  53%  47%     0 /  0%   748 /  2%  3382 
  35 3Melogram(st)              Num   0%  48%  52%     0 /  0%   413 /  1%  3048 
  36 3ZCross                    Num   0% 100%   0%     0 /  0%     8 /  0%    47 
  37 3F1(Hz)                    Num   0%  52%  48%     0 /  0%  1130 /  4%  4802 
  38 3F2(Hz)                    Num   0%  51%  49%     0 /  0%  2251 /  7%  6691 
  39 3F3(Hz)                    Num   0%  52%  48%     0 /  0%  1969 /  6%  6255 
  40 3F4(Hz)                    Num   0%  52%  48%     0 /  0%  1938 /  6%  6099 
  41 4Int(dB)                   Num   0%  10%  90%     0 /  0%     3 /  0%   777 
  42 4Pitch(Hz)                 Num   0%  51%  49%     0 /  0%   750 /  2%  3423 
  43 4RawPitch                  Num   0%  55%  45%     0 /  0%   699 /  2%  3337 
  44 4SmPitch                   Num   0%  53%  47%     0 /  0%   748 /  2%  3382 
  45 4Melogram(st)              Num   0%  48%  52%     0 /  0%   413 /  1%  3048 
  46 4ZCross                    Num   0% 100%   0%     0 /  0%     8 /  0%    47 
  47 4F1(Hz)                    Num   0%  52%  48%     0 /  0%  1130 /  4%  4802 
  48 4F2(Hz)                    Num   0%  51%  49%     0 /  0%  2251 /  7%  6691 
  49 4F3(Hz)                    Num   0%  52%  48%     0 /  0%  1969 /  6%  6255 
  50 4F4(Hz)                    Num   0%  52%  48%     0 /  0%  1938 /  6%  6099 
  51 class                      Nom 100%   0%   0%     0 /  0%     0 /  0%    27 


Options: -D -Q weka.classifiers.bayes.net.search.local.K2 -- -P 1 -S BAYES -E weka.classifiers.bayes.net.estimate.SimpleEstimator -- -A 0.5 

Bayes Network Classifier
not using ADTree
#attributes=51 #classindex=50
Network structure (nodes followed by parents)
0Int(dB)(11): class 
0Pitch(Hz)(9): class 
0RawPitch(8): class 
0SmPitch(9): class 
0Melogram(st)(15): class 
0ZCross(10): class 
0F1(Hz)(19): class 
0F2(Hz)(19): class 
0F3(Hz)(17): class 
0F4(Hz)(15): class 
1Int(dB)(15): class 
1Pitch(Hz)(11): class 
1RawPitch(11): class 
1SmPitch(10): class 
1Melogram(st)(14): class 
1ZCross(11): class 
1F1(Hz)(15): class 
1F2(Hz)(20): class 
1F3(Hz)(20): class 
1F4(Hz)(14): class 
2Int(dB)(14): class 
2Pitch(Hz)(13): class 
2RawPitch(10): class 
2SmPitch(11): class 
2Melogram(st)(13): class 
2ZCross(12): class 
2F1(Hz)(21): class 
2F2(Hz)(19): class 
2F3(Hz)(20): class 
2F4(Hz)(14): class 
3Int(dB)(12): class 
3Pitch(Hz)(12): class 
3RawPitch(12): class 
3SmPitch(7): class 
3Melogram(st)(12): class 
3ZCross(12): class 
3F1(Hz)(20): class 
3F2(Hz)(18): class 
3F3(Hz)(22): class 
3F4(Hz)(16): class 
4Int(dB)(11): class 
4Pitch(Hz)(11): class 
4RawPitch(11): class 
4SmPitch(9): class 
4Melogram(st)(12): class 
4ZCross(12): class 
4F1(Hz)(20): class 
4F2(Hz)(17): class 
4F3(Hz)(18): class 
4F4(Hz)(13): class 
class(27): 
LogScore Bayes: -2118950.2634694865
LogScore BDeu: -2225324.1133401883
LogScore MDL: -2211670.6726335776
LogScore ENTROPY: -2121363.158375744
LogScore AIC: -2138858.1583757433




=== Stratified cross-validation ===

Correctly Classified Instances       16469               54.0872 %
Incorrectly Classified Instances     13980               45.9128 %
Kappa statistic                          0.446 
K&B Relative Info Score            1263319.1882 %
K&B Information Score                41988.1863 bits      1.379  bits/instance
Class complexity | order 0          101110.063  bits      3.3206 bits/instance
Class complexity | scheme           514040.305  bits     16.882  bits/instance
Complexity improvement     (Sf)    -412930.242  bits    -13.5614 bits/instance
Mean absolute error                      0.0342
Root mean squared error                  0.1723
Relative absolute error                 56.7204 %
Root relative squared error             99.2448 %
Coverage of cases (0.95 level)          60.7967 %
Mean rel. region size (0.95 level)       5.3142 %
Total Number of Instances            30449     


=== Detailed Accuracy By Class ===

                 TP Rate  FP Rate  Precision  Recall   F-Measure  MCC      ROC Area  PRC Area  Class
                 0,250    0,006    0,171      0,250    0,203      0,202    0,916     0,147     ch
                 0,639    0,014    0,052      0,639    0,095      0,179    0,969     0,165     rr
                 0,872    0,066    0,891      0,872    0,881      0,810    0,955     0,949     0
                 0,220    0,022    0,099      0,220    0,136      0,133    0,840     0,077     hs
                 0,690    0,036    0,051      0,690    0,094      0,180    0,972     0,281     hg
                 0,591    0,037    0,730      0,591    0,653      0,606    0,917     0,741     a
                 0,381    0,041    0,121      0,381    0,184      0,195    0,882     0,127     c
                 0,355    0,018    0,117      0,355    0,176      0,195    0,941     0,095     b
                 0,316    0,023    0,536      0,316    0,397      0,375    0,872     0,424     e
                 0,299    0,026    0,146      0,299    0,196      0,192    0,883     0,134     d
                 0,270    0,019    0,078      0,270    0,122      0,136    0,879     0,131     g
                 0,160    0,005    0,157      0,160    0,159      0,153    0,911     0,113     f
                 0,428    0,016    0,527      0,428    0,472      0,455    0,913     0,460     i
                 0,355    0,002    0,465      0,355    0,403      0,404    0,921     0,333     j
                 0,192    0,008    0,262      0,192    0,222      0,215    0,892     0,172     m
                 0,423    0,046    0,145      0,423    0,216      0,225    0,880     0,139     l
                 0,165    0,007    0,657      0,165    0,264      0,307    0,833     0,394     o
                 0,166    0,015    0,288      0,166    0,211      0,197    0,865     0,192     n
                 0,135    0,003    0,170      0,135    0,150      0,148    0,878     0,113     q
                 0,066    0,007    0,098      0,066    0,079      0,072    0,859     0,071     p
                 0,217    0,010    0,535      0,217    0,309      0,320    0,884     0,376     s
                 0,089    0,008    0,200      0,089    0,123      0,120    0,815     0,119     r
                 0,442    0,010    0,512      0,442    0,474      0,464    0,917     0,504     u
                 0,109    0,011    0,159      0,109    0,130      0,118    0,869     0,115     t
                 0,191    0,021    0,065      0,191    0,097      0,100    0,865     0,058     v
                 0,500    0,018    0,121      0,500    0,195      0,239    0,922     0,273     y
                 0,083    0,002    0,019      0,083    0,030      0,038    0,978     0,013     z
Weighted Avg.    0,541    0,038    0,632      0,541    0,562      0,529    0,911     0,609     


=== Confusion Matrix ===

     a     b     c     d     e     f     g     h     i     j     k     l     m     n     o     p     q     r     s     t     u     v     w     x     y     z    aa   <-- classified as
    36     0    22     0     1     7    40     0     0     0     0     1     4     1     0     7     0     5     0     5     9     0     0     4     1     1     0 |     a = ch
     0    23     0     0     5     0     0     0     2     0     0     0     0     0     0     0     0     2     0     0     0     0     0     0     1     3     0 |     b = rr
    22    13 10117   133    89    88   193    35    56    72    26    34    98    16    11   101    28    59    21    31    99    27    13    79    47    78    21 |     c = 0
     0     0    48    74    41    15    24     4     5     9     2    11     7     2     8    19     3     5     0     8    10     5     2     4    12    17     1 |     d = hs
     0     3     0     0    58     1     0     5     7     2     0     0     3     0     0     3     0     0     0     0     0     0     0     0     1     1     0 |     e = hg
    19   111    83    60    54  2604   107    50   183   207    75    14    32     3     8   241    73    63     7    32    16    84    21    43   148    54    13 |     f = a
     6     0   163    19     4     1   172     0     8     0     0    12     8     3     0     3     2     3     4     9    12     2     1    11     3     6     0 |     g = c
     0    10     0     0    13    13     0    72    11     5     5     0     4     0    12    37     3     2     0     0     0     0     7     0     4     5     0 |     h = b
     7    53    52    50   265   167    63    54   741    62   157     5    86     7    13   203    23    60    14    24    10    13    30    41   107    40     0 |     i = e
     0    23     0    14    10    40     0    14    10   132    19     0     9     0    16    59     0    30     0     0     0     4     9     2    33    17     0 |     j = d
     0     7     5     0    20    20     0     4    11     8    50     0    17     1     2     7     0     7     0     0     5     7     3     5     3     3     0 |     k = g
     0     5    20    16     8    11    51     2     5     1     0    31     0     3     0     4     1     4     0     5     9     4     0     6     3     3     2 |     l = f
    12     3    33    26   147    11    41    57    74     0    45     2   516     0    48    66     1    18    24     8     7     0     3    23     6    35     0 |     m = i
     0     0     5     6    10    10    26     3    11     1     8     4     0    59     0     1     0     2     0     4    12     0     0     0     4     0     0 |     n = j
     0     3     6    14    49    28     3    28    28    15    31     0    24     0    85    69     2     9     0     3     0     1    15     1    10    18     0 |     o = m
     0     7     0     4    27    39     7    33     5    21     5     0    19     0    27   233     7    27     0     1     6     7     7     2    27    40     0 |     p = l
    11    77   175   123   141   274    65   110    84   217    51     3     8     2    20   157   372    32     7    24    13    23   141    20    67    25     9 |     q = o
     0    66     7    50   115    64     9    47    33    35    66     4    48     0    43   138     1   177     0     2     8    16    13    14    48    59     3 |     r = n
     1     0    42     0     0     8    30     0     1     0     2     0    19     0     0     1     0     2    19     0    11     0     0     1     0     4     0 |     s = q
     1     0    69    29     9    13    67     4     5    11     0    23     1    15     0     9     3     4     1    22     6    10     2    19     2     7     3 |     t = p
    83    13   244    45    15    33   325     4    15    20    39    21    59    13     2    48     4    34     5    16   323    28     1    21    18    61     0 |     u = s
     3     4    34    56    14    81    31    28    45    54    35    15    11     1     8    83     5    14     0     9     9    63    15     9    73     5     1 |     v = r
     3    10    10     5    16    31    19    52    25    16    11     0     1     1    11    64    33    19     3    10     1     1   308    15    16    16     0 |     w = u
     5     4   209    16     4     0   123     0     0     2     5    12     4     0     4     0     3    29     4     9    24    15     7    62     6    21     0 |     x = t
     0    11     4     9    27     8     5     8    17    16     5     2     0     0     3    37     2     4     1     2     1     5     1     4    45    19     0 |     y = v
     2     0     4     0     4     0     6     0     1     1     0     3     2     0     4    19     0     4     2     1    12     0     3     3     3    74     0 |     z = y
     0     0     1     0     0     0     9     0     0     0     0     0     0     0     0     0     0     0     0     0     1     0     0     0     0     0     1 |    aa = z

=== Percent Confusion Matrix ===
a	b	c	d	e	f	g	h	i	j	k	l	m	n	o	p	q	r	s	t	u	v	w	x	y	z	aa	
25.0	0.0	15.28	0.0	0.69	4.86	27.78	0.0	0.0	0.0	0.0	0.69	2.78	0.69	0.0	4.86	0.0	3.47	0.0	3.47	6.25	0.0	0.0	2.78	0.69	0.69	0.0	 a = ch
0.0	63.89	0.0	0.0	13.89	0.0	0.0	0.0	5.56	0.0	0.0	0.0	0.0	0.0	0.0	0.0	0.0	5.56	0.0	0.0	0.0	0.0	0.0	0.0	2.78	8.33	0.0	 b = rr
0.19	0.11	87.16	1.15	0.77	0.76	1.66	0.3	0.48	0.62	0.22	0.29	0.84	0.14	0.09	0.87	0.24	0.51	0.18	0.27	0.85	0.23	0.11	0.68	0.4	0.67	0.18	 c = 0
0.0	0.0	14.29	22.02	12.2	4.46	7.14	1.19	1.49	2.68	0.6	3.27	2.08	0.6	2.38	5.65	0.89	1.49	0.0	2.38	2.98	1.49	0.6	1.19	3.57	5.06	0.3	 d = hs
0.0	3.57	0.0	0.0	69.05	1.19	0.0	5.95	8.33	2.38	0.0	0.0	3.57	0.0	0.0	3.57	0.0	0.0	0.0	0.0	0.0	0.0	0.0	0.0	1.19	1.19	0.0	 e = hg
0.43	2.52	1.88	1.36	1.23	59.11	2.43	1.14	4.15	4.7	1.7	0.32	0.73	0.07	0.18	5.47	1.66	1.43	0.16	0.73	0.36	1.91	0.48	0.98	3.36	1.23	0.3	 f = a
1.33	0.0	36.06	4.2	0.88	0.22	38.05	0.0	1.77	0.0	0.0	2.65	1.77	0.66	0.0	0.66	0.44	0.66	0.88	1.99	2.65	0.44	0.22	2.43	0.66	1.33	0.0	 g = c
0.0	4.93	0.0	0.0	6.4	6.4	0.0	35.47	5.42	2.46	2.46	0.0	1.97	0.0	5.91	18.23	1.48	0.99	0.0	0.0	0.0	0.0	3.45	0.0	1.97	2.46	0.0	 h = b
0.3	2.26	2.22	2.13	11.29	7.12	2.68	2.3	31.57	2.64	6.69	0.21	3.66	0.3	0.55	8.65	0.98	2.56	0.6	1.02	0.43	0.55	1.28	1.75	4.56	1.7	0.0	 i = e
0.0	5.22	0.0	3.17	2.27	9.07	0.0	3.17	2.27	29.93	4.31	0.0	2.04	0.0	3.63	13.38	0.0	6.8	0.0	0.0	0.0	0.91	2.04	0.45	7.48	3.85	0.0	 j = d
0.0	3.78	2.7	0.0	10.81	10.81	0.0	2.16	5.95	4.32	27.03	0.0	9.19	0.54	1.08	3.78	0.0	3.78	0.0	0.0	2.7	3.78	1.62	2.7	1.62	1.62	0.0	 k = g
0.0	2.58	10.31	8.25	4.12	5.67	26.29	1.03	2.58	0.52	0.0	15.98	0.0	1.55	0.0	2.06	0.52	2.06	0.0	2.58	4.64	2.06	0.0	3.09	1.55	1.55	1.03	 l = f
1.0	0.25	2.74	2.16	12.19	0.91	3.4	4.73	6.14	0.0	3.73	0.17	42.79	0.0	3.98	5.47	0.08	1.49	1.99	0.66	0.58	0.0	0.25	1.91	0.5	2.9	0.0	 m = i
0.0	0.0	3.01	3.61	6.02	6.02	15.66	1.81	6.63	0.6	4.82	2.41	0.0	35.54	0.0	0.6	0.0	1.2	0.0	2.41	7.23	0.0	0.0	0.0	2.41	0.0	0.0	 n = j
0.0	0.68	1.36	3.17	11.09	6.33	0.68	6.33	6.33	3.39	7.01	0.0	5.43	0.0	19.23	15.61	0.45	2.04	0.0	0.68	0.0	0.23	3.39	0.23	2.26	4.07	0.0	 o = m
0.0	1.27	0.0	0.73	4.9	7.08	1.27	5.99	0.91	3.81	0.91	0.0	3.45	0.0	4.9	42.29	1.27	4.9	0.0	0.18	1.09	1.27	1.27	0.36	4.9	7.26	0.0	 p = l
0.49	3.42	7.77	5.46	6.26	12.17	2.89	4.89	3.73	9.64	2.27	0.13	0.36	0.09	0.89	6.97	16.53	1.42	0.31	1.07	0.58	1.02	6.26	0.89	2.98	1.11	0.4	 q = o
0.0	6.19	0.66	4.69	10.79	6.0	0.84	4.41	3.1	3.28	6.19	0.38	4.5	0.0	4.03	12.95	0.09	16.6	0.0	0.19	0.75	1.5	1.22	1.31	4.5	5.53	0.28	 r = n
0.71	0.0	29.79	0.0	0.0	5.67	21.28	0.0	0.71	0.0	1.42	0.0	13.48	0.0	0.0	0.71	0.0	1.42	13.48	0.0	7.8	0.0	0.0	0.71	0.0	2.84	0.0	 s = q
0.3	0.0	20.6	8.66	2.69	3.88	20.0	1.19	1.49	3.28	0.0	6.87	0.3	4.48	0.0	2.69	0.9	1.19	0.3	6.57	1.79	2.99	0.6	5.67	0.6	2.09	0.9	 t = p
5.57	0.87	16.38	3.02	1.01	2.21	21.81	0.27	1.01	1.34	2.62	1.41	3.96	0.87	0.13	3.22	0.27	2.28	0.34	1.07	21.68	1.88	0.07	1.41	1.21	4.09	0.0	 u = s
0.42	0.57	4.82	7.93	1.98	11.47	4.39	3.97	6.37	7.65	4.96	2.12	1.56	0.14	1.13	11.76	0.71	1.98	0.0	1.27	1.27	8.92	2.12	1.27	10.34	0.71	0.14	 v = r
0.43	1.43	1.43	0.72	2.3	4.45	2.73	7.46	3.59	2.3	1.58	0.0	0.14	0.14	1.58	9.18	4.73	2.73	0.43	1.43	0.14	0.14	44.19	2.15	2.3	2.3	0.0	 w = u
0.88	0.7	36.8	2.82	0.7	0.0	21.65	0.0	0.0	0.35	0.88	2.11	0.7	0.0	0.7	0.0	0.53	5.11	0.7	1.58	4.23	2.64	1.23	10.92	1.06	3.7	0.0	 x = t
0.0	4.66	1.69	3.81	11.44	3.39	2.12	3.39	7.2	6.78	2.12	0.85	0.0	0.0	1.27	15.68	0.85	1.69	0.42	0.85	0.42	2.12	0.42	1.69	19.07	8.05	0.0	 y = v
1.35	0.0	2.7	0.0	2.7	0.0	4.05	0.0	0.68	0.68	0.0	2.03	1.35	0.0	2.7	12.84	0.0	2.7	1.35	0.68	8.11	0.0	2.03	2.03	2.03	50.0	0.0	 z = y
0.0	0.0	8.33	0.0	0.0	0.0	75.0	0.0	0.0	0.0	0.0	0.0	0.0	0.0	0.0	0.0	0.0	0.0	0.0	0.0	8.33	0.0	0.0	0.0	0.0	0.0	8.33	 aa = z
