Timestamp:2013-08-30-03:52:23
Inventario:I0
Intervalo:6ms
Ngramas:4
Clasificador:BayesNet
Relation Name:  I0-6ms-4gramas
Num Instances:  30450
Num Attributes: 41

     Name                      Type  Nom  Int Real     Missing      Unique  Dist
   1 0Int(dB)                   Num   0%  10%  90%     0 /  0%     2 /  0%   776 
   2 0Pitch(Hz)                 Num   0%  51%  49%     0 /  0%   750 /  2%  3423 
   3 0RawPitch                  Num   0%  55%  45%     0 /  0%   699 /  2%  3337 
   4 0SmPitch                   Num   0%  53%  47%     0 /  0%   748 /  2%  3382 
   5 0Melogram(st)              Num   0%  48%  52%     0 /  0%   413 /  1%  3048 
   6 0ZCross                    Num   0% 100%   0%     0 /  0%     8 /  0%    47 
   7 0F1(Hz)                    Num   0%  52%  48%     0 /  0%  1130 /  4%  4802 
   8 0F2(Hz)                    Num   0%  51%  49%     0 /  0%  2251 /  7%  6691 
   9 0F3(Hz)                    Num   0%  52%  48%     0 /  0%  1969 /  6%  6255 
  10 0F4(Hz)                    Num   0%  52%  48%     0 /  0%  1938 /  6%  6099 
  11 1Int(dB)                   Num   0%  10%  90%     0 /  0%     2 /  0%   776 
  12 1Pitch(Hz)                 Num   0%  51%  49%     0 /  0%   750 /  2%  3423 
  13 1RawPitch                  Num   0%  55%  45%     0 /  0%   699 /  2%  3337 
  14 1SmPitch                   Num   0%  53%  47%     0 /  0%   748 /  2%  3382 
  15 1Melogram(st)              Num   0%  48%  52%     0 /  0%   413 /  1%  3048 
  16 1ZCross                    Num   0% 100%   0%     0 /  0%     8 /  0%    47 
  17 1F1(Hz)                    Num   0%  52%  48%     0 /  0%  1130 /  4%  4802 
  18 1F2(Hz)                    Num   0%  51%  49%     0 /  0%  2251 /  7%  6691 
  19 1F3(Hz)                    Num   0%  52%  48%     0 /  0%  1969 /  6%  6255 
  20 1F4(Hz)                    Num   0%  52%  48%     0 /  0%  1938 /  6%  6099 
  21 2Int(dB)                   Num   0%  10%  90%     0 /  0%     2 /  0%   776 
  22 2Pitch(Hz)                 Num   0%  51%  49%     0 /  0%   750 /  2%  3423 
  23 2RawPitch                  Num   0%  55%  45%     0 /  0%   699 /  2%  3337 
  24 2SmPitch                   Num   0%  53%  47%     0 /  0%   748 /  2%  3382 
  25 2Melogram(st)              Num   0%  48%  52%     0 /  0%   413 /  1%  3048 
  26 2ZCross                    Num   0% 100%   0%     0 /  0%     8 /  0%    47 
  27 2F1(Hz)                    Num   0%  52%  48%     0 /  0%  1130 /  4%  4802 
  28 2F2(Hz)                    Num   0%  51%  49%     0 /  0%  2251 /  7%  6691 
  29 2F3(Hz)                    Num   0%  52%  48%     0 /  0%  1969 /  6%  6255 
  30 2F4(Hz)                    Num   0%  52%  48%     0 /  0%  1938 /  6%  6099 
  31 3Int(dB)                   Num   0%  10%  90%     0 /  0%     3 /  0%   777 
  32 3Pitch(Hz)                 Num   0%  51%  49%     0 /  0%   750 /  2%  3423 
  33 3RawPitch                  Num   0%  55%  45%     0 /  0%   699 /  2%  3337 
  34 3SmPitch                   Num   0%  53%  47%     0 /  0%   748 /  2%  3382 
  35 3Melogram(st)              Num   0%  48%  52%     0 /  0%   413 /  1%  3048 
  36 3ZCross                    Num   0% 100%   0%     0 /  0%     8 /  0%    47 
  37 3F1(Hz)                    Num   0%  52%  48%     0 /  0%  1130 /  4%  4802 
  38 3F2(Hz)                    Num   0%  51%  49%     0 /  0%  2251 /  7%  6691 
  39 3F3(Hz)                    Num   0%  52%  48%     0 /  0%  1969 /  6%  6255 
  40 3F4(Hz)                    Num   0%  52%  48%     0 /  0%  1938 /  6%  6099 
  41 class                      Nom 100%   0%   0%     0 /  0%     0 /  0%    27 


Options: -D -Q weka.classifiers.bayes.net.search.local.K2 -- -P 1 -S BAYES -E weka.classifiers.bayes.net.estimate.SimpleEstimator -- -A 0.5 

Bayes Network Classifier
not using ADTree
#attributes=41 #classindex=40
Network structure (nodes followed by parents)
0Int(dB)(15): class 
0Pitch(Hz)(11): class 
0RawPitch(11): class 
0SmPitch(10): class 
0Melogram(st)(14): class 
0ZCross(11): class 
0F1(Hz)(15): class 
0F2(Hz)(20): class 
0F3(Hz)(20): class 
0F4(Hz)(14): class 
1Int(dB)(14): class 
1Pitch(Hz)(13): class 
1RawPitch(10): class 
1SmPitch(11): class 
1Melogram(st)(13): class 
1ZCross(12): class 
1F1(Hz)(21): class 
1F2(Hz)(19): class 
1F3(Hz)(20): class 
1F4(Hz)(14): class 
2Int(dB)(12): class 
2Pitch(Hz)(12): class 
2RawPitch(12): class 
2SmPitch(7): class 
2Melogram(st)(12): class 
2ZCross(12): class 
2F1(Hz)(20): class 
2F2(Hz)(18): class 
2F3(Hz)(22): class 
2F4(Hz)(16): class 
3Int(dB)(11): class 
3Pitch(Hz)(11): class 
3RawPitch(11): class 
3SmPitch(9): class 
3Melogram(st)(12): class 
3ZCross(12): class 
3F1(Hz)(20): class 
3F2(Hz)(17): class 
3F3(Hz)(18): class 
3F4(Hz)(13): class 
class(27): 
LogScore Bayes: -1707529.8015918504
LogScore BDeu: -1794052.0463571697
LogScore MDL: -1782882.3024792525
LogScore ENTROPY: -1709577.8675193351
LogScore AIC: -1723778.8675193351




=== Stratified cross-validation ===

Correctly Classified Instances       16895               55.4844 %
Incorrectly Classified Instances     13555               44.5156 %
Kappa statistic                          0.4573
K&B Relative Info Score            1316791.4113 %
K&B Information Score                43759.4764 bits      1.4371 bits/instance
Class complexity | order 0          101111.4543 bits      3.3206 bits/instance
Class complexity | scheme           410611.3559 bits     13.4848 bits/instance
Complexity improvement     (Sf)    -309499.9016 bits    -10.1642 bits/instance
Mean absolute error                      0.0334
Root mean squared error                  0.1677
Relative absolute error                 55.3894 %
Root relative squared error             96.5706 %
Coverage of cases (0.95 level)          63.4319 %
Mean rel. region size (0.95 level)       5.7262 %
Total Number of Instances            30450     


=== Detailed Accuracy By Class ===

                 TP Rate  FP Rate  Precision  Recall   F-Measure  MCC      ROC Area  PRC Area  Class
                 0,208    0,005    0,166      0,208    0,185      0,181    0,918     0,145     ch
                 0,611    0,013    0,051      0,611    0,094      0,174    0,964     0,254     rr
                 0,886    0,088    0,862      0,886    0,874      0,794    0,957     0,951     0
                 0,190    0,022    0,088      0,190    0,121      0,116    0,842     0,068     hs
                 0,762    0,031    0,064      0,762    0,119      0,216    0,976     0,285     hg
                 0,615    0,038    0,731      0,615    0,668      0,621    0,922     0,752     a
                 0,263    0,024    0,144      0,263    0,186      0,178    0,883     0,125     c
                 0,291    0,015    0,112      0,291    0,162      0,172    0,938     0,099     b
                 0,365    0,028    0,525      0,365    0,431      0,400    0,877     0,439     e
                 0,286    0,023    0,153      0,286    0,199      0,193    0,878     0,153     d
                 0,270    0,016    0,092      0,270    0,138      0,149    0,881     0,125     g
                 0,139    0,005    0,145      0,139    0,142      0,137    0,907     0,091     f
                 0,455    0,017    0,532      0,455    0,491      0,473    0,916     0,469     i
                 0,349    0,003    0,420      0,349    0,382      0,380    0,924     0,319     j
                 0,183    0,009    0,237      0,183    0,207      0,198    0,894     0,168     m
                 0,417    0,045    0,146      0,417    0,216      0,224    0,882     0,138     l
                 0,173    0,009    0,609      0,173    0,270      0,300    0,836     0,397     o
                 0,189    0,015    0,321      0,189    0,238      0,226    0,870     0,201     n
                 0,135    0,003    0,183      0,135    0,155      0,154    0,883     0,131     q
                 0,057    0,005    0,107      0,057    0,074      0,071    0,859     0,073     p
                 0,262    0,010    0,565      0,262    0,358      0,364    0,886     0,391     s
                 0,091    0,008    0,206      0,091    0,126      0,124    0,813     0,113     r
                 0,440    0,010    0,511      0,440    0,473      0,463    0,921     0,513     u
                 0,100    0,009    0,169      0,100    0,126      0,117    0,874     0,120     t
                 0,203    0,022    0,067      0,203    0,100      0,104    0,866     0,058     v
                 0,480    0,017    0,119      0,480    0,190      0,232    0,917     0,261     y
                 0,000    0,002    0,000      0,000    0,000      -0,001   0,977     0,008     z
Weighted Avg.    0,555    0,047    0,619      0,555    0,568      0,529    0,914     0,614     


=== Confusion Matrix ===

     a     b     c     d     e     f     g     h     i     j     k     l     m     n     o     p     q     r     s     t     u     v     w     x     y     z    aa   <-- classified as
    30     0    26     0     1     7    33     0     1     0     0     3     2     1     0     6     0     8     0     2    20     1     0     2     0     1     0 |     a = ch
     0    22     0     0     5     0     0     0     2     0     0     0     0     0     0     0     0     2     0     0     0     0     0     0     3     2     0 |     b = rr
    12    10 10284   138    80    85    78    29    65    55    25    26    99    17    11    94    46    56    21    29    95    27    12    58    53    84    19 |     c = 0
     0     1    64    64    38    17    13     3     6     7     2     9     7     0    10    18     3     3     0     7    13    10     3     5    13    19     1 |     d = hs
     0     1     0     0    64     0     0     4     8     1     0     0     2     0     0     3     0     0     0     0     0     0     0     0     0     1     0 |     e = hg
    15   108    94    63    33  2708    88    43   202   192    58    16    31     6     6   222    79    56     4    13    19    72    25    36   151    52    13 |     f = a
    11     0   203    18     4     1   119     1     7     0     0     9     9     5     1     2     3     2     5     8    18     2     3    10     4     7     0 |     g = c
     0    12     0     0    11    13     0    59    18     3     5     0     4     0    10    40     7     0     0     0     0     0     9     0     6     6     0 |     h = b
     6    59    73    50   207   167    36    41   857    49   135     7    87     7    16   212    24    58    13    18     8    15    22    34   100    44     2 |     i = e
     0    22     0    14     4    41     0    17    15   126    12     0    13     0    17    54     3    31     0     0     0     5    10     2    36    19     0 |     j = d
     0     8     6     0    18    24     0     4    12     9    50     0    22     2     0     5     0     6     0     0     4     2     3     4     3     3     0 |     k = g
     0     6    54    14     7    12    19     0     6     2     0    27     0     3     0     3     1     4     0     7    11     1     0     6     6     3     2 |     l = f
     8     2    41    17   139    11    26    44    90     0    37     2   549     1    57    64     1    14    20     9     9     0     2    20     7    36     0 |     m = i
     0     0    17     5     9    14    13     3    13     0     5     5     0    58     0     1     0     1     0     3    12     0     0     2     5     0     0 |     n = j
     0     4     6    14    52    26     3    26    34    13    28     1    22     0    81    72     3    10     0     3     0     2    16     0     9    17     0 |     o = m
     0     8     0     7    22    38     6    30    19    17     5     0    25     0    21   230     7    23     0     3     6     7    10     1    32    34     0 |     p = l
     5    71   205   130   115   297    34   108   107   213    40     2     8     1    27   158   390    36     8    16    13    23   139    19    64    18     4 |     q = o
     0    54    17    49   108    62     3    35    43    28    62     4    51     0    54   128     2   202     0     2     8    14    17    13    54    54     2 |     r = n
     5     0    46     0     0     9    21     0     1     0     2     0    17     1     0     1     0     1    19     1    12     0     0     1     0     4     0 |     s = q
     0     0   107    24     6    13    31     3     4    12     0    23     0    18     0    12     4     3     1    19     6    11     3    22     1    10     2 |     t = p
    76     9   361    36     9    31   181     4    19    16    24    21    62    12     5    44     8    41     5    12   390    30     0    21    16    57     0 |     u = s
     3     6    49    49     8    89    15    25    52    48    29    16    14     3     7    80     7    10     0     9     9    64    12     9    84     8     1 |     v = r
     1     9     9     5    22    31    17    39    29    15    12     1     1     0    12    71    43    20     3     4     1     1   307    12    17    15     0 |     w = u
     7     5   256    17     4     0    80     0     0     2     3    11     5     3     2     0     5    32     3    10    21    15     4    57     8    18     0 |     x = t
     0    12     4    10    26     6     3     9    20    17     7     0     1     0     4    31     4     4     1     1     1     7     1     3    48    16     0 |     y = v
     2     1     4     0     3     0     8     0     1     0     0     3     1     0     1    25     0     7     1     1    13     1     3     1     1    71     0 |     z = y
     0     0    10     0     0     0     1     0     0     0     0     0     0     0     0     0     0     0     0     0     1     0     0     0     0     0     0 |    aa = z

=== Percent Confusion Matrix ===
a	b	c	d	e	f	g	h	i	j	k	l	m	n	o	p	q	r	s	t	u	v	w	x	y	z	aa	
20.83	0.0	18.06	0.0	0.69	4.86	22.92	0.0	0.69	0.0	0.0	2.08	1.39	0.69	0.0	4.17	0.0	5.56	0.0	1.39	13.89	0.69	0.0	1.39	0.0	0.69	0.0	 a = ch
0.0	61.11	0.0	0.0	13.89	0.0	0.0	0.0	5.56	0.0	0.0	0.0	0.0	0.0	0.0	0.0	0.0	5.56	0.0	0.0	0.0	0.0	0.0	0.0	8.33	5.56	0.0	 b = rr
0.1	0.09	88.59	1.19	0.69	0.73	0.67	0.25	0.56	0.47	0.22	0.22	0.85	0.15	0.09	0.81	0.4	0.48	0.18	0.25	0.82	0.23	0.1	0.5	0.46	0.72	0.16	 c = 0
0.0	0.3	19.05	19.05	11.31	5.06	3.87	0.89	1.79	2.08	0.6	2.68	2.08	0.0	2.98	5.36	0.89	0.89	0.0	2.08	3.87	2.98	0.89	1.49	3.87	5.65	0.3	 d = hs
0.0	1.19	0.0	0.0	76.19	0.0	0.0	4.76	9.52	1.19	0.0	0.0	2.38	0.0	0.0	3.57	0.0	0.0	0.0	0.0	0.0	0.0	0.0	0.0	0.0	1.19	0.0	 e = hg
0.34	2.45	2.13	1.43	0.75	61.48	2.0	0.98	4.59	4.36	1.32	0.36	0.7	0.14	0.14	5.04	1.79	1.27	0.09	0.3	0.43	1.63	0.57	0.82	3.43	1.18	0.3	 f = a
2.43	0.0	44.91	3.98	0.88	0.22	26.33	0.22	1.55	0.0	0.0	1.99	1.99	1.11	0.22	0.44	0.66	0.44	1.11	1.77	3.98	0.44	0.66	2.21	0.88	1.55	0.0	 g = c
0.0	5.91	0.0	0.0	5.42	6.4	0.0	29.06	8.87	1.48	2.46	0.0	1.97	0.0	4.93	19.7	3.45	0.0	0.0	0.0	0.0	0.0	4.43	0.0	2.96	2.96	0.0	 h = b
0.26	2.51	3.11	2.13	8.82	7.12	1.53	1.75	36.51	2.09	5.75	0.3	3.71	0.3	0.68	9.03	1.02	2.47	0.55	0.77	0.34	0.64	0.94	1.45	4.26	1.87	0.09	 i = e
0.0	4.99	0.0	3.17	0.91	9.3	0.0	3.85	3.4	28.57	2.72	0.0	2.95	0.0	3.85	12.24	0.68	7.03	0.0	0.0	0.0	1.13	2.27	0.45	8.16	4.31	0.0	 j = d
0.0	4.32	3.24	0.0	9.73	12.97	0.0	2.16	6.49	4.86	27.03	0.0	11.89	1.08	0.0	2.7	0.0	3.24	0.0	0.0	2.16	1.08	1.62	2.16	1.62	1.62	0.0	 k = g
0.0	3.09	27.84	7.22	3.61	6.19	9.79	0.0	3.09	1.03	0.0	13.92	0.0	1.55	0.0	1.55	0.52	2.06	0.0	3.61	5.67	0.52	0.0	3.09	3.09	1.55	1.03	 l = f
0.66	0.17	3.4	1.41	11.53	0.91	2.16	3.65	7.46	0.0	3.07	0.17	45.52	0.08	4.73	5.31	0.08	1.16	1.66	0.75	0.75	0.0	0.17	1.66	0.58	2.99	0.0	 m = i
0.0	0.0	10.24	3.01	5.42	8.43	7.83	1.81	7.83	0.0	3.01	3.01	0.0	34.94	0.0	0.6	0.0	0.6	0.0	1.81	7.23	0.0	0.0	1.2	3.01	0.0	0.0	 n = j
0.0	0.9	1.36	3.17	11.76	5.88	0.68	5.88	7.69	2.94	6.33	0.23	4.98	0.0	18.33	16.29	0.68	2.26	0.0	0.68	0.0	0.45	3.62	0.0	2.04	3.85	0.0	 o = m
0.0	1.45	0.0	1.27	3.99	6.9	1.09	5.44	3.45	3.09	0.91	0.0	4.54	0.0	3.81	41.74	1.27	4.17	0.0	0.54	1.09	1.27	1.81	0.18	5.81	6.17	0.0	 p = l
0.22	3.15	9.11	5.78	5.11	13.19	1.51	4.8	4.75	9.46	1.78	0.09	0.36	0.04	1.2	7.02	17.33	1.6	0.36	0.71	0.58	1.02	6.18	0.84	2.84	0.8	0.18	 q = o
0.0	5.07	1.59	4.6	10.13	5.82	0.28	3.28	4.03	2.63	5.82	0.38	4.78	0.0	5.07	12.01	0.19	18.95	0.0	0.19	0.75	1.31	1.59	1.22	5.07	5.07	0.19	 r = n
3.55	0.0	32.62	0.0	0.0	6.38	14.89	0.0	0.71	0.0	1.42	0.0	12.06	0.71	0.0	0.71	0.0	0.71	13.48	0.71	8.51	0.0	0.0	0.71	0.0	2.84	0.0	 s = q
0.0	0.0	31.94	7.16	1.79	3.88	9.25	0.9	1.19	3.58	0.0	6.87	0.0	5.37	0.0	3.58	1.19	0.9	0.3	5.67	1.79	3.28	0.9	6.57	0.3	2.99	0.6	 t = p
5.1	0.6	24.23	2.42	0.6	2.08	12.15	0.27	1.28	1.07	1.61	1.41	4.16	0.81	0.34	2.95	0.54	2.75	0.34	0.81	26.17	2.01	0.0	1.41	1.07	3.83	0.0	 u = s
0.42	0.85	6.94	6.94	1.13	12.61	2.12	3.54	7.37	6.8	4.11	2.27	1.98	0.42	0.99	11.33	0.99	1.42	0.0	1.27	1.27	9.07	1.7	1.27	11.9	1.13	0.14	 v = r
0.14	1.29	1.29	0.72	3.16	4.45	2.44	5.6	4.16	2.15	1.72	0.14	0.14	0.0	1.72	10.19	6.17	2.87	0.43	0.57	0.14	0.14	44.05	1.72	2.44	2.15	0.0	 w = u
1.23	0.88	45.07	2.99	0.7	0.0	14.08	0.0	0.0	0.35	0.53	1.94	0.88	0.53	0.35	0.0	0.88	5.63	0.53	1.76	3.7	2.64	0.7	10.04	1.41	3.17	0.0	 x = t
0.0	5.08	1.69	4.24	11.02	2.54	1.27	3.81	8.47	7.2	2.97	0.0	0.42	0.0	1.69	13.14	1.69	1.69	0.42	0.42	0.42	2.97	0.42	1.27	20.34	6.78	0.0	 y = v
1.35	0.68	2.7	0.0	2.03	0.0	5.41	0.0	0.68	0.0	0.0	2.03	0.68	0.0	0.68	16.89	0.0	4.73	0.68	0.68	8.78	0.68	2.03	0.68	0.68	47.97	0.0	 z = y
0.0	0.0	83.33	0.0	0.0	0.0	8.33	0.0	0.0	0.0	0.0	0.0	0.0	0.0	0.0	0.0	0.0	0.0	0.0	0.0	8.33	0.0	0.0	0.0	0.0	0.0	0.0	 aa = z
