Timestamp:2013-07-23-02:52:01
Inventario:I0
Intervalo:6ms
Ngramas:1
Clasificador:RandomForest
Relation Name:  I0-6ms-1gramas
Num Instances:  30453
Num Attributes: 11

     Name                      Type  Nom  Int Real     Missing      Unique  Dist
   1 0Int(dB)                   Num   0%  10%  90%     0 /  0%     3 /  0%   777 
   2 0Pitch(Hz)                 Num   0%  51%  49%     0 /  0%   750 /  2%  3423 
   3 0RawPitch                  Num   0%  55%  45%     0 /  0%   699 /  2%  3337 
   4 0SmPitch                   Num   0%  53%  47%     0 /  0%   748 /  2%  3382 
   5 0Melogram(st)              Num   0%  48%  52%     0 /  0%   413 /  1%  3048 
   6 0ZCross                    Num   0% 100%   0%     0 /  0%     8 /  0%    47 
   7 0F1(Hz)                    Num   0%  52%  48%     0 /  0%  1130 /  4%  4802 
   8 0F2(Hz)                    Num   0%  51%  49%     0 /  0%  2251 /  7%  6691 
   9 0F3(Hz)                    Num   0%  52%  48%     0 /  0%  1969 /  6%  6255 
  10 0F4(Hz)                    Num   0%  52%  48%     0 /  0%  1938 /  6%  6099 
  11 class                      Nom 100%   0%   0%     0 /  0%     0 /  0%    27 


Options: -I 10 -K 0 -S 1 -num-slots 4 

Random forest of 10 trees, each constructed while considering 4 random features.
Out of bag error: 0.2465





=== Stratified cross-validation ===

Correctly Classified Instances       24245               79.6145 %
Incorrectly Classified Instances      6208               20.3855 %
Kappa statistic                          0.7448
K&B Relative Info Score            2165811.729  %
K&B Information Score                71974.8708 bits      2.3635 bits/instance
Class complexity | order 0          101115.6277 bits      3.3204 bits/instance
Class complexity | scheme          2281735.7687 bits     74.9265 bits/instance
Complexity improvement     (Sf)    -2180620.141 bits    -71.6061 bits/instance
Mean absolute error                      0.023 
Root mean squared error                  0.1058
Relative absolute error                 38.0594 %
Root relative squared error             60.9539 %
Coverage of cases (0.95 level)          92.6904 %
Mean rel. region size (0.95 level)      10.4314 %
Total Number of Instances            30453     


=== Detailed Accuracy By Class ===

                 TP Rate  FP Rate  Precision  Recall   F-Measure  MCC      ROC Area  PRC Area  Class
                 0,236    0,002    0,374      0,236    0,289      0,294    0,731     0,185     ch
                 0,556    0,000    0,645      0,556    0,597      0,598    0,958     0,622     rr
                 0,941    0,098    0,855      0,941    0,896      0,830    0,973     0,962     0
                 0,449    0,002    0,716      0,449    0,552      0,563    0,847     0,491     hs
                 0,702    0,001    0,787      0,702    0,742      0,743    0,957     0,727     hg
                 0,893    0,028    0,841      0,893    0,866      0,844    0,971     0,920     a
                 0,177    0,006    0,295      0,177    0,221      0,220    0,786     0,165     c
                 0,685    0,002    0,735      0,685    0,709      0,708    0,960     0,739     b
                 0,821    0,021    0,764      0,821    0,791      0,774    0,958     0,833     e
                 0,628    0,003    0,727      0,628    0,674      0,671    0,945     0,666     d
                 0,708    0,001    0,819      0,708    0,759      0,760    0,933     0,761     g
                 0,232    0,002    0,385      0,232    0,289      0,295    0,822     0,260     f
                 0,805    0,009    0,786      0,805    0,795      0,787    0,961     0,824     i
                 0,428    0,001    0,696      0,428    0,530      0,544    0,849     0,510     j
                 0,762    0,002    0,840      0,762    0,800      0,798    0,968     0,822     m
                 0,693    0,004    0,769      0,693    0,729      0,725    0,954     0,745     l
                 0,757    0,014    0,807      0,757    0,782      0,765    0,939     0,816     o
                 0,771    0,007    0,790      0,771    0,780      0,772    0,963     0,801     n
                 0,213    0,001    0,455      0,213    0,290      0,309    0,723     0,196     q
                 0,248    0,003    0,477      0,248    0,326      0,339    0,805     0,292     p
                 0,617    0,026    0,554      0,617    0,584      0,562    0,930     0,620     s
                 0,462    0,004    0,731      0,462    0,566      0,573    0,886     0,541     r
                 0,796    0,003    0,866      0,796    0,830      0,827    0,969     0,874     u
                 0,167    0,006    0,332      0,167    0,222      0,226    0,797     0,183     t
                 0,551    0,001    0,788      0,551    0,648      0,657    0,920     0,627     v
                 0,615    0,001    0,791      0,615    0,692      0,696    0,913     0,692     y
                 0,000    0,000    0,000      0,000    0,000      -0,000   0,581     0,004     z
Weighted Avg.    0,796    0,047    0,782      0,796    0,785      0,753    0,949     0,824     


=== Confusion Matrix ===

     a     b     c     d     e     f     g     h     i     j     k     l     m     n     o     p     q     r     s     t     u     v     w     x     y     z    aa   <-- classified as
    34     0    27     0     0     5     3     0     4     0     0     0     0     2     0     0     2     0     5     1    54     1     0     5     1     0     0 |     a = ch
     0    20     0     0     0     3     0     0     7     1     0     0     0     0     0     0     1     2     0     0     1     1     0     0     0     0     0 |     b = rr
     6     1 10931    17     2    97    32     2    90     9     6    14    49     5    10    10    59    28     6    24   151    13     8    36     4     1     0 |     c = 0
     0     0    92   151     0    18     3     0    11     1     2     1     4     0     2     1    10     2     1     5    23     2     4     3     0     0     0 |     d = hs
     0     0     4     0    59     6     0     0    10     0     0     0     4     0     0     0     1     0     0     0     0     0     0     0     0     0     0 |     e = hg
     4     3   125     4     1  3933    13     2    56    13     3     8    16     0     5    20    61    24     0     5    44    31     3    24     3     4     0 |     f = a
     3     0   161     2     0    19    80     0    11     0     1     8     7     6     0     0    16     3     7     9    82     1     2    28     2     3     1 |     g = c
     0     0     5     0     0    14     0   139    13     0     0     0     9     0     2     1     6     4     0     0     0     3     7     0     0     0     0 |     h = b
     1     2   100     6     7    69    11     5  1928    10     5     1    31     3     8    19    25    33     0     7    33    12     9    15     5     2     0 |     i = e
     0     0    16     2     0    29     1     4    28   277     1     0     5     0     0     3    41    24     0     1     2     2     4     0     0     1     0 |     j = d
     0     0    12     0     0    11     0     1    11     1   131     1     8     0     0     0     1     2     0     0     1     0     4     1     0     0     0 |     k = g
     1     2    49     0     0     6     5     1     5     0     0    45     2     1     0     0     8     2     0     1    55     1     0     9     1     0     0 |     l = f
     0     0    73     2     3    16     6    10    55     1     1     1   971     0     8     9     3    10     0     2    18     5     2     7     3     0     0 |     m = i
     1     0    19     1     0    19     8     0    10     1     0     1     3    71     0     0     0     0     1     2    24     1     2     1     0     0     1 |     n = j
     0     0    17     0     0    11     0     2    18     1     1     0    21     0   337     2    13     5     0     0     2     2     7     2     1     0     0 |     o = m
     0     0    22     3     0    45     2     1    25     2     0     0    24     0     6   382    20     9     0     0     4     4     1     0     0     1     0 |     p = l
     2     1   234     5     1    93    10     7    45    30     2     3    10     1    11    15  1705    18     2     3    22     8    10     6     4     1     2 |     q = o
     0     1    52     6     2    33     1     4    45    12     1     0    10     0     3    13    19   822     0     3    19     6     3     5     5     0     1 |     r = n
     6     0    39     0     0     5     9     0     5     0     0     0     4     2     0     0     4     2    30     2    27     2     1     3     0     0     0 |     s = q
     1     0   119     2     0    27     8     0    17     3     0     5     1     0     2     2     9     2     1    83    36     4     1    10     2     0     0 |     t = p
    29     0   317     4     0    37    37     0    15     2     0    19    18     8     0     4    14     3     9    11   919     9     2    24     1     6     2 |     u = s
     1     1    79     3     0   116     5     5    54     5     1     1    14     2     1     7    25    13     0     2    30   326     5     8     1     1     0 |     v = r
     0     0    23     0     0    13     1     4    18     1     4     1     7     0     4     6    38     9     1     0     4     1   555     3     0     4     0 |     w = u
     2     0   232     3     0    25    32     0    14     3     0     8    11     1     1     0    13    18     2    11    85     3     6    95     2     0     1 |     x = t
     0     0    11     0     0    17     3     2    25     6     0     0     7     0     1     2    16     6     0     2     0     5     2     1   130     0     0 |     y = v
     0     0    17     0     0     7     1     0     4     2     1     0     0     0     0     1     2     0     1     0    15     3     3     0     0    91     0 |     z = y
     0     0     3     0     0     0     0     0     1     0     0     0     0     0     0     0     0     0     0     0     8     0     0     0     0     0     0 |    aa = z

=== Percent Confusion Matrix ===
a	b	c	d	e	f	g	h	i	j	k	l	m	n	o	p	q	r	s	t	u	v	w	x	y	z	aa	
23.61	0.0	18.75	0.0	0.0	3.47	2.08	0.0	2.78	0.0	0.0	0.0	0.0	1.39	0.0	0.0	1.39	0.0	3.47	0.69	37.5	0.69	0.0	3.47	0.69	0.0	0.0	 a = ch
0.0	55.56	0.0	0.0	0.0	8.33	0.0	0.0	19.44	2.78	0.0	0.0	0.0	0.0	0.0	0.0	2.78	5.56	0.0	0.0	2.78	2.78	0.0	0.0	0.0	0.0	0.0	 b = rr
0.05	0.01	94.14	0.15	0.02	0.84	0.28	0.02	0.78	0.08	0.05	0.12	0.42	0.04	0.09	0.09	0.51	0.24	0.05	0.21	1.3	0.11	0.07	0.31	0.03	0.01	0.0	 c = 0
0.0	0.0	27.38	44.94	0.0	5.36	0.89	0.0	3.27	0.3	0.6	0.3	1.19	0.0	0.6	0.3	2.98	0.6	0.3	1.49	6.85	0.6	1.19	0.89	0.0	0.0	0.0	 d = hs
0.0	0.0	4.76	0.0	70.24	7.14	0.0	0.0	11.9	0.0	0.0	0.0	4.76	0.0	0.0	0.0	1.19	0.0	0.0	0.0	0.0	0.0	0.0	0.0	0.0	0.0	0.0	 e = hg
0.09	0.07	2.84	0.09	0.02	89.28	0.3	0.05	1.27	0.3	0.07	0.18	0.36	0.0	0.11	0.45	1.38	0.54	0.0	0.11	1.0	0.7	0.07	0.54	0.07	0.09	0.0	 f = a
0.66	0.0	35.62	0.44	0.0	4.2	17.7	0.0	2.43	0.0	0.22	1.77	1.55	1.33	0.0	0.0	3.54	0.66	1.55	1.99	18.14	0.22	0.44	6.19	0.44	0.66	0.22	 g = c
0.0	0.0	2.46	0.0	0.0	6.9	0.0	68.47	6.4	0.0	0.0	0.0	4.43	0.0	0.99	0.49	2.96	1.97	0.0	0.0	0.0	1.48	3.45	0.0	0.0	0.0	0.0	 h = b
0.04	0.09	4.26	0.26	0.3	2.94	0.47	0.21	82.15	0.43	0.21	0.04	1.32	0.13	0.34	0.81	1.07	1.41	0.0	0.3	1.41	0.51	0.38	0.64	0.21	0.09	0.0	 i = e
0.0	0.0	3.63	0.45	0.0	6.58	0.23	0.91	6.35	62.81	0.23	0.0	1.13	0.0	0.0	0.68	9.3	5.44	0.0	0.23	0.45	0.45	0.91	0.0	0.0	0.23	0.0	 j = d
0.0	0.0	6.49	0.0	0.0	5.95	0.0	0.54	5.95	0.54	70.81	0.54	4.32	0.0	0.0	0.0	0.54	1.08	0.0	0.0	0.54	0.0	2.16	0.54	0.0	0.0	0.0	 k = g
0.52	1.03	25.26	0.0	0.0	3.09	2.58	0.52	2.58	0.0	0.0	23.2	1.03	0.52	0.0	0.0	4.12	1.03	0.0	0.52	28.35	0.52	0.0	4.64	0.52	0.0	0.0	 l = f
0.0	0.0	6.05	0.17	0.25	1.33	0.5	0.83	4.56	0.08	0.08	0.08	80.51	0.0	0.66	0.75	0.25	0.83	0.0	0.17	1.49	0.41	0.17	0.58	0.25	0.0	0.0	 m = i
0.6	0.0	11.45	0.6	0.0	11.45	4.82	0.0	6.02	0.6	0.0	0.6	1.81	42.77	0.0	0.0	0.0	0.0	0.6	1.2	14.46	0.6	1.2	0.6	0.0	0.0	0.6	 n = j
0.0	0.0	3.85	0.0	0.0	2.49	0.0	0.45	4.07	0.23	0.23	0.0	4.75	0.0	76.24	0.45	2.94	1.13	0.0	0.0	0.45	0.45	1.58	0.45	0.23	0.0	0.0	 o = m
0.0	0.0	3.99	0.54	0.0	8.17	0.36	0.18	4.54	0.36	0.0	0.0	4.36	0.0	1.09	69.33	3.63	1.63	0.0	0.0	0.73	0.73	0.18	0.0	0.0	0.18	0.0	 p = l
0.09	0.04	10.4	0.22	0.04	4.13	0.44	0.31	2.0	1.33	0.09	0.13	0.44	0.04	0.49	0.67	75.74	0.8	0.09	0.13	0.98	0.36	0.44	0.27	0.18	0.04	0.09	 q = o
0.0	0.09	4.88	0.56	0.19	3.1	0.09	0.38	4.22	1.13	0.09	0.0	0.94	0.0	0.28	1.22	1.78	77.11	0.0	0.28	1.78	0.56	0.28	0.47	0.47	0.0	0.09	 r = n
4.26	0.0	27.66	0.0	0.0	3.55	6.38	0.0	3.55	0.0	0.0	0.0	2.84	1.42	0.0	0.0	2.84	1.42	21.28	1.42	19.15	1.42	0.71	2.13	0.0	0.0	0.0	 s = q
0.3	0.0	35.52	0.6	0.0	8.06	2.39	0.0	5.07	0.9	0.0	1.49	0.3	0.0	0.6	0.6	2.69	0.6	0.3	24.78	10.75	1.19	0.3	2.99	0.6	0.0	0.0	 t = p
1.95	0.0	21.28	0.27	0.0	2.48	2.48	0.0	1.01	0.13	0.0	1.28	1.21	0.54	0.0	0.27	0.94	0.2	0.6	0.74	61.68	0.6	0.13	1.61	0.07	0.4	0.13	 u = s
0.14	0.14	11.19	0.42	0.0	16.43	0.71	0.71	7.65	0.71	0.14	0.14	1.98	0.28	0.14	0.99	3.54	1.84	0.0	0.28	4.25	46.18	0.71	1.13	0.14	0.14	0.0	 v = r
0.0	0.0	3.3	0.0	0.0	1.87	0.14	0.57	2.58	0.14	0.57	0.14	1.0	0.0	0.57	0.86	5.45	1.29	0.14	0.0	0.57	0.14	79.63	0.43	0.0	0.57	0.0	 w = u
0.35	0.0	40.85	0.53	0.0	4.4	5.63	0.0	2.46	0.53	0.0	1.41	1.94	0.18	0.18	0.0	2.29	3.17	0.35	1.94	14.96	0.53	1.06	16.73	0.35	0.0	0.18	 x = t
0.0	0.0	4.66	0.0	0.0	7.2	1.27	0.85	10.59	2.54	0.0	0.0	2.97	0.0	0.42	0.85	6.78	2.54	0.0	0.85	0.0	2.12	0.85	0.42	55.08	0.0	0.0	 y = v
0.0	0.0	11.49	0.0	0.0	4.73	0.68	0.0	2.7	1.35	0.68	0.0	0.0	0.0	0.0	0.68	1.35	0.0	0.68	0.0	10.14	2.03	2.03	0.0	0.0	61.49	0.0	 z = y
0.0	0.0	25.0	0.0	0.0	0.0	0.0	0.0	8.33	0.0	0.0	0.0	0.0	0.0	0.0	0.0	0.0	0.0	0.0	0.0	66.67	0.0	0.0	0.0	0.0	0.0	0.0	 aa = z
