Timestamp:2013-07-23-02:53:12
Inventario:I0
Intervalo:6ms
Ngramas:3
Clasificador:RandomForest
Relation Name:  I0-6ms-3gramas
Num Instances:  30451
Num Attributes: 31

     Name                      Type  Nom  Int Real     Missing      Unique  Dist
   1 0Int(dB)                   Num   0%  10%  90%     0 /  0%     2 /  0%   776 
   2 0Pitch(Hz)                 Num   0%  51%  49%     0 /  0%   750 /  2%  3423 
   3 0RawPitch                  Num   0%  55%  45%     0 /  0%   699 /  2%  3337 
   4 0SmPitch                   Num   0%  53%  47%     0 /  0%   748 /  2%  3382 
   5 0Melogram(st)              Num   0%  48%  52%     0 /  0%   413 /  1%  3048 
   6 0ZCross                    Num   0% 100%   0%     0 /  0%     8 /  0%    47 
   7 0F1(Hz)                    Num   0%  52%  48%     0 /  0%  1130 /  4%  4802 
   8 0F2(Hz)                    Num   0%  51%  49%     0 /  0%  2251 /  7%  6691 
   9 0F3(Hz)                    Num   0%  52%  48%     0 /  0%  1969 /  6%  6255 
  10 0F4(Hz)                    Num   0%  52%  48%     0 /  0%  1938 /  6%  6099 
  11 1Int(dB)                   Num   0%  10%  90%     0 /  0%     2 /  0%   776 
  12 1Pitch(Hz)                 Num   0%  51%  49%     0 /  0%   750 /  2%  3423 
  13 1RawPitch                  Num   0%  55%  45%     0 /  0%   699 /  2%  3337 
  14 1SmPitch                   Num   0%  53%  47%     0 /  0%   748 /  2%  3382 
  15 1Melogram(st)              Num   0%  48%  52%     0 /  0%   413 /  1%  3048 
  16 1ZCross                    Num   0% 100%   0%     0 /  0%     8 /  0%    47 
  17 1F1(Hz)                    Num   0%  52%  48%     0 /  0%  1130 /  4%  4802 
  18 1F2(Hz)                    Num   0%  51%  49%     0 /  0%  2251 /  7%  6691 
  19 1F3(Hz)                    Num   0%  52%  48%     0 /  0%  1969 /  6%  6255 
  20 1F4(Hz)                    Num   0%  52%  48%     0 /  0%  1938 /  6%  6099 
  21 2Int(dB)                   Num   0%  10%  90%     0 /  0%     3 /  0%   777 
  22 2Pitch(Hz)                 Num   0%  51%  49%     0 /  0%   750 /  2%  3423 
  23 2RawPitch                  Num   0%  55%  45%     0 /  0%   699 /  2%  3337 
  24 2SmPitch                   Num   0%  53%  47%     0 /  0%   748 /  2%  3382 
  25 2Melogram(st)              Num   0%  48%  52%     0 /  0%   413 /  1%  3048 
  26 2ZCross                    Num   0% 100%   0%     0 /  0%     8 /  0%    47 
  27 2F1(Hz)                    Num   0%  52%  48%     0 /  0%  1130 /  4%  4802 
  28 2F2(Hz)                    Num   0%  51%  49%     0 /  0%  2251 /  7%  6691 
  29 2F3(Hz)                    Num   0%  52%  48%     0 /  0%  1969 /  6%  6255 
  30 2F4(Hz)                    Num   0%  52%  48%     0 /  0%  1938 /  6%  6099 
  31 class                      Nom 100%   0%   0%     0 /  0%     0 /  0%    27 


Options: -I 10 -K 0 -S 1 -num-slots 4 

Random forest of 10 trees, each constructed while considering 5 random features.
Out of bag error: 0.2611





=== Stratified cross-validation ===

Correctly Classified Instances       24321               79.8693 %
Incorrectly Classified Instances      6130               20.1307 %
Kappa statistic                          0.7486
K&B Relative Info Score            2172443.7451 %
K&B Information Score                72201.3045 bits      2.3711 bits/instance
Class complexity | order 0          101112.8454 bits      3.3205 bits/instance
Class complexity | scheme          2147847.922  bits     70.5346 bits/instance
Complexity improvement     (Sf)    -2046735.0766 bits    -67.2141 bits/instance
Mean absolute error                      0.0237
Root mean squared error                  0.1065
Relative absolute error                 39.2625 %
Root relative squared error             61.3124 %
Coverage of cases (0.95 level)          93.4912 %
Mean rel. region size (0.95 level)      10.4699 %
Total Number of Instances            30451     


=== Detailed Accuracy By Class ===

                 TP Rate  FP Rate  Precision  Recall   F-Measure  MCC      ROC Area  PRC Area  Class
                 0,264    0,002    0,409      0,264    0,321      0,326    0,768     0,196     ch
                 0,611    0,000    0,688      0,611    0,647      0,648    0,985     0,625     rr
                 0,936    0,089    0,866      0,936    0,900      0,836    0,972     0,953     0
                 0,506    0,003    0,664      0,506    0,574      0,576    0,851     0,496     hs
                 0,631    0,000    0,869      0,631    0,731      0,740    0,963     0,711     hg
                 0,909    0,034    0,819      0,909    0,862      0,839    0,975     0,926     a
                 0,237    0,008    0,319      0,237    0,272      0,266    0,782     0,148     c
                 0,665    0,001    0,754      0,665    0,707      0,706    0,972     0,727     b
                 0,818    0,024    0,740      0,818    0,777      0,758    0,961     0,826     e
                 0,678    0,003    0,781      0,678    0,726      0,724    0,970     0,751     d
                 0,654    0,001    0,812      0,654    0,725      0,727    0,957     0,764     g
                 0,325    0,002    0,457      0,325    0,380      0,382    0,850     0,271     f
                 0,795    0,010    0,772      0,795    0,783      0,775    0,960     0,819     i
                 0,458    0,001    0,768      0,458    0,574      0,591    0,861     0,502     j
                 0,794    0,002    0,846      0,794    0,819      0,817    0,974     0,841     m
                 0,684    0,004    0,766      0,684    0,723      0,719    0,963     0,745     l
                 0,732    0,016    0,785      0,732    0,757      0,739    0,935     0,789     o
                 0,791    0,007    0,813      0,791    0,802      0,795    0,973     0,842     n
                 0,284    0,001    0,541      0,284    0,372      0,390    0,782     0,279     q
                 0,230    0,004    0,374      0,230    0,285      0,287    0,772     0,211     p
                 0,654    0,019    0,643      0,654    0,649      0,630    0,935     0,665     s
                 0,425    0,004    0,733      0,425    0,538      0,551    0,900     0,517     r
                 0,786    0,003    0,875      0,786    0,828      0,826    0,964     0,862     u
                 0,213    0,007    0,371      0,213    0,271      0,271    0,811     0,196     t
                 0,508    0,001    0,857      0,508    0,638      0,658    0,930     0,633     v
                 0,622    0,001    0,807      0,622    0,702      0,707    0,936     0,686     y
                 0,000    0,000    0,000      0,000    0,000      -0,000   0,623     0,009     z
Weighted Avg.    0,799    0,044    0,787      0,799    0,789      0,757    0,951     0,823     


=== Confusion Matrix ===

     a     b     c     d     e     f     g     h     i     j     k     l     m     n     o     p     q     r     s     t     u     v     w     x     y     z    aa   <-- classified as
    38     0    18     1     0     7     8     0     3     0     0     0     2     1     0     0     4     1     4     2    49     1     0     5     0     0     0 |     a = ch
     0    22     3     0     0     4     0     0     7     0     0     0     0     0     0     0     0     0     0     0     0     0     0     0     0     0     0 |     b = rr
     5     2 10863    26     2   103    40     7    91     9     5    13    54     3     7    14    84    34     6    34   126    20     7    49     2     3     0 |     c = 0
     0     0    85   170     0    16     2     0    11     0     0     5     4     0     0     1     9     4     0     7    17     1     2     2     0     0     0 |     d = hs
     0     0     1     0    53     7     0     1    13     0     0     0     5     0     0     1     1     2     0     0     0     0     0     0     0     0     0 |     e = hg
     2     4   120     6     0  4005    18     1    56     6     2     3    12     3     4    14    56     8     0    10    29    17     4    21     2     2     0 |     f = a
    12     0   153     3     0    32   107     0    12     0     1     0     8     1     0     0    17     4     9     8    54     1     3    27     0     0     0 |     g = c
     0     0     3     0     0    13     0   135    16     1     0     0    11     0     7     1     8     2     0     0     0     1     3     0     1     1     0 |     h = b
     2     0   110     7     2    95    14     4  1919     9     2     1    43     1     3    14    32    25     0    13    24     8     7     6     5     1     0 |     i = e
     0     0    13     2     0    35     0     2    28   299     0     0     4     0     1     6    30    13     0     0     1     3     3     1     0     0     0 |     j = d
     0     0    13     0     1    13     3     1    20     1   121     0     4     0     1     0     2     1     0     1     0     1     2     0     0     0     0 |     k = g
     0     0    35     3     0    11     2     1     4     0     2    63     3     1     0     0     4     0     0     4    50     4     1     4     1     1     0 |     l = f
     0     0    65     4     1    21    10     5    82     1     3     1   959     1     4     7     2     7     1     4    13     2     2     7     3     1     0 |     m = i
     0     0    17     3     0    18     5     0     7     0     0     2     2    76     1     0     4     2     0     1    25     0     0     2     0     1     0 |     n = j
     0     0     7     0     0    11     1     2    11     2     1     0    26     0   351     4    10     5     0     2     1     2     1     4     0     0     1 |     o = m
     0     0    16     1     0    53     1     0    35     2     1     0    19     0     5   377    17     9     0     0     2     2     6     2     0     3     0 |     p = l
     1     0   238     8     0   117    16     5    58    26     1     5     6     2    12    16  1647    28     2     6    18     8    13    13     4     1     0 |     q = o
     1     0    46     2     2    30     1     1    44     9     1     1     9     1     6     6    30   843     0     2     7     8     5    10     0     1     0 |     r = n
     6     0    39     1     0     3    18     0     5     0     0     0     5     0     0     0     2     0    40     2    16     0     1     3     0     0     0 |     s = q
     3     0   109     7     0    31    10     0    16     0     0     8     4     1     0     2    10     1     1    77    25     6     3    19     0     0     2 |     t = p
    16     0   257     9     0    42    29     0    26     0     1    23    18     2     3     3    22    10     4    14   975    10     1    21     1     2     1 |     u = s
     1     2    75     1     0   136     5     8    58     6     2     2    15     2     3    11    33     6     0    10    20   300     4     4     1     0     1 |     v = r
     0     0    22     0     0    16     6     6    20     3     2     1     4     1     6     8    37    12     0     0     0     0   548     2     0     3     0 |     w = u
     5     0   212     1     0    44    38     0    19     2     2     7    12     1     1     0    20    13     6     7    43     7     5   121     0     1     1 |     x = t
     0     2    11     1     0    22     1     0    29     5     1     0     9     0     0     4    15     6     1     0     1     3     2     2   120     1     0 |     y = v
     1     0     9     0     0     5     0     0     3     2     1     2     4     1     0     3     2     1     0     1    15     3     3     0     0    92     0 |     z = y
     0     0     1     0     0     0     0     0     0     0     0     1     0     1     0     0     1     0     0     1     5     1     0     1     0     0     0 |    aa = z

=== Percent Confusion Matrix ===
a	b	c	d	e	f	g	h	i	j	k	l	m	n	o	p	q	r	s	t	u	v	w	x	y	z	aa	
26.39	0.0	12.5	0.69	0.0	4.86	5.56	0.0	2.08	0.0	0.0	0.0	1.39	0.69	0.0	0.0	2.78	0.69	2.78	1.39	34.03	0.69	0.0	3.47	0.0	0.0	0.0	 a = ch
0.0	61.11	8.33	0.0	0.0	11.11	0.0	0.0	19.44	0.0	0.0	0.0	0.0	0.0	0.0	0.0	0.0	0.0	0.0	0.0	0.0	0.0	0.0	0.0	0.0	0.0	0.0	 b = rr
0.04	0.02	93.57	0.22	0.02	0.89	0.34	0.06	0.78	0.08	0.04	0.11	0.47	0.03	0.06	0.12	0.72	0.29	0.05	0.29	1.09	0.17	0.06	0.42	0.02	0.03	0.0	 c = 0
0.0	0.0	25.3	50.6	0.0	4.76	0.6	0.0	3.27	0.0	0.0	1.49	1.19	0.0	0.0	0.3	2.68	1.19	0.0	2.08	5.06	0.3	0.6	0.6	0.0	0.0	0.0	 d = hs
0.0	0.0	1.19	0.0	63.1	8.33	0.0	1.19	15.48	0.0	0.0	0.0	5.95	0.0	0.0	1.19	1.19	2.38	0.0	0.0	0.0	0.0	0.0	0.0	0.0	0.0	0.0	 e = hg
0.05	0.09	2.72	0.14	0.0	90.92	0.41	0.02	1.27	0.14	0.05	0.07	0.27	0.07	0.09	0.32	1.27	0.18	0.0	0.23	0.66	0.39	0.09	0.48	0.05	0.05	0.0	 f = a
2.65	0.0	33.85	0.66	0.0	7.08	23.67	0.0	2.65	0.0	0.22	0.0	1.77	0.22	0.0	0.0	3.76	0.88	1.99	1.77	11.95	0.22	0.66	5.97	0.0	0.0	0.0	 g = c
0.0	0.0	1.48	0.0	0.0	6.4	0.0	66.5	7.88	0.49	0.0	0.0	5.42	0.0	3.45	0.49	3.94	0.99	0.0	0.0	0.0	0.49	1.48	0.0	0.49	0.49	0.0	 h = b
0.09	0.0	4.69	0.3	0.09	4.05	0.6	0.17	81.76	0.38	0.09	0.04	1.83	0.04	0.13	0.6	1.36	1.07	0.0	0.55	1.02	0.34	0.3	0.26	0.21	0.04	0.0	 i = e
0.0	0.0	2.95	0.45	0.0	7.94	0.0	0.45	6.35	67.8	0.0	0.0	0.91	0.0	0.23	1.36	6.8	2.95	0.0	0.0	0.23	0.68	0.68	0.23	0.0	0.0	0.0	 j = d
0.0	0.0	7.03	0.0	0.54	7.03	1.62	0.54	10.81	0.54	65.41	0.0	2.16	0.0	0.54	0.0	1.08	0.54	0.0	0.54	0.0	0.54	1.08	0.0	0.0	0.0	0.0	 k = g
0.0	0.0	18.04	1.55	0.0	5.67	1.03	0.52	2.06	0.0	1.03	32.47	1.55	0.52	0.0	0.0	2.06	0.0	0.0	2.06	25.77	2.06	0.52	2.06	0.52	0.52	0.0	 l = f
0.0	0.0	5.39	0.33	0.08	1.74	0.83	0.41	6.8	0.08	0.25	0.08	79.52	0.08	0.33	0.58	0.17	0.58	0.08	0.33	1.08	0.17	0.17	0.58	0.25	0.08	0.0	 m = i
0.0	0.0	10.24	1.81	0.0	10.84	3.01	0.0	4.22	0.0	0.0	1.2	1.2	45.78	0.6	0.0	2.41	1.2	0.0	0.6	15.06	0.0	0.0	1.2	0.0	0.6	0.0	 n = j
0.0	0.0	1.58	0.0	0.0	2.49	0.23	0.45	2.49	0.45	0.23	0.0	5.88	0.0	79.41	0.9	2.26	1.13	0.0	0.45	0.23	0.45	0.23	0.9	0.0	0.0	0.23	 o = m
0.0	0.0	2.9	0.18	0.0	9.62	0.18	0.0	6.35	0.36	0.18	0.0	3.45	0.0	0.91	68.42	3.09	1.63	0.0	0.0	0.36	0.36	1.09	0.36	0.0	0.54	0.0	 p = l
0.04	0.0	10.57	0.36	0.0	5.2	0.71	0.22	2.58	1.16	0.04	0.22	0.27	0.09	0.53	0.71	73.17	1.24	0.09	0.27	0.8	0.36	0.58	0.58	0.18	0.04	0.0	 q = o
0.09	0.0	4.32	0.19	0.19	2.81	0.09	0.09	4.13	0.84	0.09	0.09	0.84	0.09	0.56	0.56	2.81	79.08	0.0	0.19	0.66	0.75	0.47	0.94	0.0	0.09	0.0	 r = n
4.26	0.0	27.66	0.71	0.0	2.13	12.77	0.0	3.55	0.0	0.0	0.0	3.55	0.0	0.0	0.0	1.42	0.0	28.37	1.42	11.35	0.0	0.71	2.13	0.0	0.0	0.0	 s = q
0.9	0.0	32.54	2.09	0.0	9.25	2.99	0.0	4.78	0.0	0.0	2.39	1.19	0.3	0.0	0.6	2.99	0.3	0.3	22.99	7.46	1.79	0.9	5.67	0.0	0.0	0.6	 t = p
1.07	0.0	17.25	0.6	0.0	2.82	1.95	0.0	1.74	0.0	0.07	1.54	1.21	0.13	0.2	0.2	1.48	0.67	0.27	0.94	65.44	0.67	0.07	1.41	0.07	0.13	0.07	 u = s
0.14	0.28	10.62	0.14	0.0	19.26	0.71	1.13	8.22	0.85	0.28	0.28	2.12	0.28	0.42	1.56	4.67	0.85	0.0	1.42	2.83	42.49	0.57	0.57	0.14	0.0	0.14	 v = r
0.0	0.0	3.16	0.0	0.0	2.3	0.86	0.86	2.87	0.43	0.29	0.14	0.57	0.14	0.86	1.15	5.31	1.72	0.0	0.0	0.0	0.0	78.62	0.29	0.0	0.43	0.0	 w = u
0.88	0.0	37.32	0.18	0.0	7.75	6.69	0.0	3.35	0.35	0.35	1.23	2.11	0.18	0.18	0.0	3.52	2.29	1.06	1.23	7.57	1.23	0.88	21.3	0.0	0.18	0.18	 x = t
0.0	0.85	4.66	0.42	0.0	9.32	0.42	0.0	12.29	2.12	0.42	0.0	3.81	0.0	0.0	1.69	6.36	2.54	0.42	0.0	0.42	1.27	0.85	0.85	50.85	0.42	0.0	 y = v
0.68	0.0	6.08	0.0	0.0	3.38	0.0	0.0	2.03	1.35	0.68	1.35	2.7	0.68	0.0	2.03	1.35	0.68	0.0	0.68	10.14	2.03	2.03	0.0	0.0	62.16	0.0	 z = y
0.0	0.0	8.33	0.0	0.0	0.0	0.0	0.0	0.0	0.0	0.0	8.33	0.0	8.33	0.0	0.0	8.33	0.0	0.0	8.33	41.67	8.33	0.0	8.33	0.0	0.0	0.0	 aa = z
