Timestamp:2014-12-07-10:40:06
Inventario:I0
Intervalo:6ms
Ngramas:1
Clasificador:NaiveBayes
Relation Name:  I0-6ms-1gramas
Num Instances:  30453
Num Attributes: 11

     Name                      Type  Nom  Int Real     Missing      Unique  Dist
   1 0Int(dB)                   Num   0%  10%  90%     0 /  0%     3 /  0%   777 
   2 0Pitch(Hz)                 Num   0%  51%  49%     0 /  0%   750 /  2%  3423 
   3 0RawPitch                  Num   0%  55%  45%     0 /  0%   699 /  2%  3337 
   4 0SmPitch                   Num   0%  53%  47%     0 /  0%   748 /  2%  3382 
   5 0Melogram(st)              Num   0%  48%  52%     0 /  0%   413 /  1%  3048 
   6 0ZCross                    Num   0% 100%   0%     0 /  0%     8 /  0%    47 
   7 0F1(Hz)                    Num   0%  52%  48%     0 /  0%  1130 /  4%  4802 
   8 0F2(Hz)                    Num   0%  51%  49%     0 /  0%  2251 /  7%  6691 
   9 0F3(Hz)                    Num   0%  52%  48%     0 /  0%  1969 /  6%  6255 
  10 0F4(Hz)                    Num   0%  52%  48%     0 /  0%  1938 /  6%  6099 
  11 class                      Nom 100%   0%   0%     0 /  0%     0 /  0%    27 


Naive Bayes Classifier

                    Class
Attribute              ch        rr         0        hs        hg         a         c         b         e         d         g         f         i         j         m         l         o         n         q         p         s         r         u         t         v         y         z
                      (0)       (0)    (0.38)    (0.01)       (0)    (0.14)    (0.01)    (0.01)    (0.08)    (0.01)    (0.01)    (0.01)    (0.04)    (0.01)    (0.01)    (0.02)    (0.07)    (0.04)       (0)    (0.01)    (0.05)    (0.02)    (0.02)    (0.02)    (0.01)       (0)       (0)
==============================================================================================================================================================================================================================================================================================
0Int(dB)
  mean            -19.2082  -10.8555  -49.0429  -20.9921  -10.8661   -2.9833  -24.3157   -5.8664   -5.3083   -7.7311   -7.6486   -22.004   -8.8383  -15.8502    -7.594   -8.2353   -8.2927   -9.4333  -22.1263  -22.5156  -21.7519   -12.023   -5.2124  -25.2438   -9.1735  -16.3379  -27.3626
  std. dev.         8.3152     4.321   15.4132   11.3548    6.1531     8.264    9.7729    4.3194    8.1563    6.1548    7.9568    5.3215    8.4087    5.9506     5.964     5.787   12.1905    7.7906   11.2782   10.5794    6.6729    9.5141    7.6533   10.2129     6.683    4.7655    2.3916
  weight sum           144        36     11611       336        84      4405       452       203      2347       441       185       194      1206       166       442       551      2251      1066       141       335      1490       706       697       568       236       148        12
  precision         0.1027    0.1027    0.1027    0.1027    0.1027    0.1027    0.1027    0.1027    0.1027    0.1027    0.1027    0.1027    0.1027    0.1027    0.1027    0.1027    0.1027    0.1027    0.1027    0.1027    0.1027    0.1027    0.1027    0.1027    0.1027    0.1027    0.1027

0Pitch(Hz)
  mean             65.3575  242.0269   14.1299    84.257  147.2966  226.5892   64.1895  216.4591  191.0581   201.883  211.7374   78.2439  173.8339  153.6697  194.5281   174.343  178.5747  189.9462   90.7025   91.0913   50.6094  160.6495  230.7901   82.0092  178.6841  114.5787         0
  std. dev.       108.1943  121.8763   52.0089   86.5759    38.547  102.8612  103.1249    72.512   87.4612    84.869   99.8735  116.0641   75.6506  131.3106   86.3638    63.331  104.7438   90.1682  117.6818  115.9237   92.1351   94.6106   82.8574   114.771   71.8928    69.469    0.0243
  weight sum           144        36     11611       336        84      4405       452       203      2347       441       185       194      1206       166       442       551      2251      1066       141       335      1490       706       697       568       236       148        12
  precision         0.1457    0.1457    0.1457    0.1457    0.1457    0.1457    0.1457    0.1457    0.1457    0.1457    0.1457    0.1457    0.1457    0.1457    0.1457    0.1457    0.1457    0.1457    0.1457    0.1457    0.1457    0.1457    0.1457    0.1457    0.1457    0.1457    0.1457

0RawPitch
  mean             44.1099  240.0572   11.6282   67.0146  131.8552  216.8895   43.3669  214.4272  186.7023  196.4472  201.2831   43.1052  166.6698   100.811  183.2761  158.3555  172.5426  176.7646   52.6824   67.1849   29.0586  156.0344  221.3767   55.6644  164.8348   80.8777         0
  std. dev.        92.8202  123.2161    46.559   85.4524   71.4692  108.2344   88.1441   74.6454   93.4491    92.771  110.3952   84.1331   81.1132  110.2804   96.8973    75.915  110.6448  102.4361   99.4069  107.2156   72.6111   99.0858   91.1707   99.5062   82.3683   76.7501    0.0248
  weight sum           144        36     11611       336        84      4405       452       203      2347       441       185       194      1206       166       442       551      2251      1066       141       335      1490       706       697       568       236       148        12
  precision         0.1486    0.1486    0.1486    0.1486    0.1486    0.1486    0.1486    0.1486    0.1486    0.1486    0.1486    0.1486    0.1486    0.1486    0.1486    0.1486    0.1486    0.1486    0.1486    0.1486    0.1486    0.1486    0.1486    0.1486    0.1486    0.1486    0.1486

0SmPitch
  mean             56.1916  242.0125   12.7048   77.3627  149.1881  224.8259   55.0909  216.4586  189.6338  201.3593   209.704   62.8463  171.4037  115.2176  191.1777  172.5581  176.5059  187.2824   71.9617   80.6143   42.5529  157.7841  229.7721   70.2383   175.012  111.4742         0
  std. dev.       101.5405  121.8671   48.0549   83.9352   36.4657  104.5105   99.5967   72.5063   88.7774    85.928  102.2181  100.1907   78.1033  137.4539   91.1197   65.6617   106.636   92.6603  110.3884  115.5198   85.9983   96.4061   83.4441  110.3043   75.4441   70.8065    0.0246
  weight sum           144        36     11611       336        84      4405       452       203      2347       441       185       194      1206       166       442       551      2251      1066       141       335      1490       706       697       568       236       148        12
  precision         0.1475    0.1475    0.1475    0.1475    0.1475    0.1475    0.1475    0.1475    0.1475    0.1475    0.1475    0.1475    0.1475    0.1475    0.1475    0.1475    0.1475    0.1475    0.1475    0.1475    0.1475    0.1475    0.1475    0.1475    0.1475    0.1475    0.1475

0Melogram(st)
  mean             17.7686   56.3213    4.2912   25.9362   49.3963   53.5262   16.1155   55.4708   50.8127     53.14   51.2372   23.1989   48.9436   18.1254    51.162   51.2206   46.6912   49.9025   20.3742   22.9162   13.5852   42.9905   54.8522   19.7139   50.9332   40.8824         0
  std. dev.        26.8469    8.9802   14.7017   25.0533    4.6146   14.1204   25.6792    6.2648   14.8245   10.7598   17.5082   27.5216   15.5254   27.1318   14.1243     9.232   20.3122   16.6936   27.3602   27.7784    23.839   22.3489   12.6632   27.3053   10.8363   17.9027    0.0045
  weight sum           144        36     11611       336        84      4405       452       203      2347       441       185       194      1206       166       442       551      2251      1066       141       335      1490       706       697       568       236       148        12
  precision         0.0271    0.0271    0.0271    0.0271    0.0271    0.0271    0.0271    0.0271    0.0271    0.0271    0.0271    0.0271    0.0271    0.0271    0.0271    0.0271    0.0271    0.0271    0.0271    0.0271    0.0271    0.0271    0.0271    0.0271    0.0271    0.0271    0.0271

0ZCross
  mean              8.4864    3.3261    0.1868    0.9224    3.1444    7.4925    1.5947    3.9034    4.8852    3.7028    4.3657    0.5628    3.5568    3.6985    2.8206    3.1766    3.9781    2.4018    4.1462    0.9461    3.5619    2.9847    3.8114    0.7812    2.9994    1.4753         0
  std. dev.        12.6364    2.6755     0.942    1.6559    2.2708    4.3868    3.4225    1.7566    3.1792    2.0838    2.6593    1.4214    3.1167     3.727    1.4129    1.8741    2.8849    1.5266    6.8029    2.0925    6.8644    2.3912    2.7838    1.5121    1.7329    1.6886    0.1957
  weight sum           144        36     11611       336        84      4405       452       203      2347       441       185       194      1206       166       442       551      2251      1066       141       335      1490       706       697       568       236       148        12
  precision         1.1739    1.1739    1.1739    1.1739    1.1739    1.1739    1.1739    1.1739    1.1739    1.1739    1.1739    1.1739    1.1739    1.1739    1.1739    1.1739    1.1739    1.1739    1.1739    1.1739    1.1739    1.1739    1.1739    1.1739    1.1739    1.1739    1.1739

0F1(Hz)
  mean            151.4374   604.369   46.8563  386.2728  444.8961  709.1959  111.5271  480.2384   466.462  517.4169  498.9833   282.885  366.1781  459.4525  433.2282   471.414  486.7294  464.1109  188.7221  252.9801  184.2944  486.0354  499.9719  132.0725  480.4049   344.321         0
  std. dev.          265.4  135.6087  156.9324  299.2385   82.7519  251.4657  221.3523  133.0515  141.9729  150.5159    186.19  335.8097  138.5016  343.1604  161.0847  137.3747  223.3891  154.6842  246.5788   297.739  284.0022  231.9282  304.4022  221.3517  169.3091  182.3304    0.0605
  weight sum           144        36     11611       336        84      4405       452       203      2347       441       185       194      1206       166       442       551      2251      1066       141       335      1490       706       697       568       236       148        12
  precision         0.3628    0.3628    0.3628    0.3628    0.3628    0.3628    0.3628    0.3628    0.3628    0.3628    0.3628    0.3628    0.3628    0.3628    0.3628    0.3628    0.3628    0.3628    0.3628    0.3628    0.3628    0.3628    0.3628    0.3628    0.3628    0.3628    0.3628

0F2(Hz)
  mean            469.0704 1642.0449  145.6475 1110.2702 1927.7218 1464.8732  326.2732 1571.3127 1796.4609 1484.5553 1705.1671  741.9071 2002.2125 1284.8504 1672.4723 1670.4733  1145.619 1598.8226  761.1286  739.6676  575.0169 1377.7558 1063.4579  442.3682 1564.0307 1359.0462         0
  std. dev.        786.794  123.6284  482.6819  839.8572   352.358  388.4441   662.183   342.383  511.4411  315.1872  569.4236  856.5523  633.8216  898.6422  427.1976  334.3984   528.768  451.9357  966.1942  842.3733  858.8254  609.8542  420.6329  722.8585  418.6208  656.0956    0.0742
  weight sum           144        36     11611       336        84      4405       452       203      2347       441       185       194      1206       166       442       551      2251      1066       141       335      1490       706       697       568       236       148        12
  precision         0.4452    0.4452    0.4452    0.4452    0.4452    0.4452    0.4452    0.4452    0.4452    0.4452    0.4452    0.4452    0.4452    0.4452    0.4452    0.4452    0.4452    0.4452    0.4452    0.4452    0.4452    0.4452    0.4452    0.4452    0.4452    0.4452    0.4452

0F3(Hz)
  mean            763.8256 2854.4763  249.3576 1821.3397 2527.5629 2732.0295  597.3649 2757.6682 2636.0758 2867.4021 2921.8002 1256.1275 2693.6179  1892.249 2757.9089 2807.9203  2513.778 2762.2201  1137.314 1268.3759  955.8123 2392.0752 2692.0225  794.3786 2662.4101 2344.8657         0
  std. dev.       1280.578  415.0577  812.0478 1314.6306  113.4765  715.8519 1171.9293  466.9797  763.9923  487.3711  891.1037 1446.6971  876.6153 1311.8006   550.256  565.4537 1011.4708  667.8162 1406.6818 1430.7426 1411.0405  1066.903   759.659 1285.4487  686.8616 1148.9467    0.1098
  weight sum           144        36     11611       336        84      4405       452       203      2347       441       185       194      1206       166       442       551      2251      1066       141       335      1490       706       697       568       236       148        12
  precision         0.6587    0.6587    0.6587    0.6587    0.6587    0.6587    0.6587    0.6587    0.6587    0.6587    0.6587    0.6587    0.6587    0.6587    0.6587    0.6587    0.6587    0.6587    0.6587    0.6587    0.6587    0.6587    0.6587    0.6587    0.6587    0.6587    0.6587

0F4(Hz)
  mean            919.1659 3245.1284    300.63 2258.5003 3588.6553 3142.9426  700.4728 3294.6984 3175.4825 3334.3495 2960.2051  1439.692 3200.0296 2374.2582 3319.9897 3244.9356 2890.9482 3168.5705 1375.3543 1514.1748 1081.1236 2775.0647 3085.5469  916.9123 3228.4218 2705.8262         0
  std. dev.      1540.0349  405.7071  976.8376 1616.8389   90.0492  810.7837 1374.6892  444.9588  884.6328  533.4148   906.295 1646.7272  997.3182 1633.7197  591.0299  572.9864 1145.4649  771.2787 1713.1057 1684.1176 1594.0112  1183.171  770.8999 1489.2699  721.3249 1314.4836    0.1133
  weight sum           144        36     11611       336        84      4405       452       203      2347       441       185       194      1206       166       442       551      2251      1066       141       335      1490       706       697       568       236       148        12
  precision         0.6801    0.6801    0.6801    0.6801    0.6801    0.6801    0.6801    0.6801    0.6801    0.6801    0.6801    0.6801    0.6801    0.6801    0.6801    0.6801    0.6801    0.6801    0.6801    0.6801    0.6801    0.6801    0.6801    0.6801    0.6801    0.6801    0.6801





=== Stratified cross-validation ===

Correctly Classified Instances        9948               32.6667 %
Incorrectly Classified Instances     20505               67.3333 %
Kappa statistic                          0.2491
K&B Relative Info Score             730984.3482 %
K&B Information Score                24292.2796 bits      0.7977 bits/instance
Class complexity | order 0          101115.6277 bits      3.3204 bits/instance
Class complexity | scheme           597792.0213 bits     19.63   bits/instance
Complexity improvement     (Sf)    -496676.3936 bits    -16.3096 bits/instance
Mean absolute error                      0.0517
Root mean squared error                  0.1968
Relative absolute error                 85.7556 %
Root relative squared error            113.3508 %
Coverage of cases (0.95 level)          56.996  %
Mean rel. region size (0.95 level)      15.5859 %
Total Number of Instances            30453     


=== Detailed Accuracy By Class ===

                 TP Rate  FP Rate  Precision  Recall   F-Measure  MCC      ROC Area  PRC Area  Class
                 0,125    0,002    0,250      0,125    0,167      0,174    0,611     0,100     ch
                 0,000    0,001    0,000      0,000    0,000      -0,001   0,896     0,032     rr
                 0,465    0,015    0,951      0,465    0,625      0,561    0,892     0,859     0
                 0,143    0,025    0,059      0,143    0,084      0,076    0,629     0,043     hs
                 0,798    0,102    0,021      0,798    0,041      0,120    0,946     0,076     hg
                 0,673    0,080    0,586      0,673    0,626      0,560    0,891     0,635     a
                 0,020    0,003    0,090      0,020    0,033      0,036    0,459     0,047     c
                 0,212    0,055    0,025      0,212    0,045      0,055    0,827     0,022     b
                 0,174    0,025    0,371      0,174    0,237      0,214    0,788     0,275     e
                 0,020    0,004    0,064      0,020    0,031      0,028    0,798     0,044     d
                 0,000    0,000    0,000      0,000    0,000      0,000    0,762     0,024     g
                 0,000    0,000    0,000      0,000    0,000      -0,001   0,514     0,019     f
                 0,144    0,005    0,567      0,144    0,230      0,273    0,858     0,338     i
                 0,048    0,001    0,258      0,048    0,081      0,110    0,713     0,099     j
                 0,000    0,001    0,000      0,000    0,000      -0,004   0,820     0,043     m
                 0,410    0,077    0,089      0,410    0,146      0,160    0,854     0,086     l
                 0,010    0,005    0,135      0,010    0,019      0,017    0,756     0,186     o
                 0,048    0,024    0,068      0,048    0,056      0,028    0,791     0,082     n
                 0,000    0,000    0,000      0,000    0,000      -0,001   0,595     0,024     q
                 0,003    0,000    0,111      0,003    0,006      0,017    0,510     0,024     p
                 0,158    0,004    0,690      0,158    0,258      0,317    0,551     0,254     s
                 0,007    0,003    0,058      0,007    0,013      0,012    0,692     0,044     r
                 0,254    0,003    0,634      0,254    0,363      0,393    0,866     0,358     u
                 0,095    0,011    0,145      0,095    0,115      0,104    0,478     0,056     t
                 0,000    0,000    0,000      0,000    0,000      0,000    0,787     0,018     v
                 0,115    0,007    0,076      0,115    0,091      0,088    0,847     0,035     y
                 1,000    0,244    0,002      1,000    0,003      0,035    0,943     0,003     z
Weighted Avg.    0,327    0,024    0,572      0,327    0,389      0,359    0,814     0,500     


=== Confusion Matrix ===

    a    b    c    d    e    f    g    h    i    j    k    l    m    n    o    p    q    r    s    t    u    v    w    x    y    z   aa   <-- classified as
   18    1   11    3    1    7    1    3    1    0    0    0    0    1    0    8    0    8    0    0   28    0    0    4    0    0   49 |    a = ch
    0    0    0    0   11   13    0    1    0    1    0    0    0    0    0    8    0    1    0    0    0    0    0    0    0    1    0 |    b = rr
    0    0 5398  160  222  103    9   73   28   26    0    0   43    0    3  156   25  128    0    1    1   15    8   44    0   25 5143 |    c = 0
    0    0    4   48   75   20    0   13    3    1    0    1    3    0    0   39    2    7    0    0    2    4    0    0    0    8  106 |    d = hs
    0    0    0    0   67    1    0    2    0    2    0    0    0    0    0    5    0    3    0    0    0    0    0    0    0    4    0 |    e = hg
    0    2   27   52  332 2963   13  250   60   29    0    1    6    5    0  396   34   53    3    2    4   15    0   35    0    7  116 |    f = a
    6    0   31   23   18    7    9    7    3    2    0    0    3    1    0    8    6   13    0    1   34    1    2   45    0    1  231 |    g = c
    0    0    0    0   39   36    0   43   18    1    0    0    0    0    0   59    0    0    0    0    0    0    7    0    0    0    0 |    h = b
    0    4    5   48  744  447   12  208  409    2    0    0    7    2    2  267   15   42    0    3    0    4    0   27    0   14   85 |    i = e
    0    0    2    4  115   96    0   95   19    9    0    0    0    0    0   83    0    7    0    0    2    0    0    0    0    6    3 |    j = d
    0    0    0    6   38   60    0   19   17    0    0    0    9    0    0   20    0    4    0    0    0    1    0    1    0    0   10 |    k = g
    0    0    6   24   17   16    0    7    0    3    0    0    0    0    0    3    3   11    0    0    1    0    0   12    0    1   90 |    l = f
    0    0    4   35  233   76    7   64  278    0    0    0  174    1   22  195    3   15    0    0    1    0    0   27    0   16   55 |    m = i
    0    0    8   12   11   28    1    7    4    0    0    0    0    8    1    3   16   10    1    0    0   13    0    6    0    1   36 |    n = j
    0    1    0   19  148   50    0   73   13    2    0    0    4    0    0   94    0   10    0    0    0    0   15    2    0    5    6 |    o = m
    0    0    0    8  148   53    1   57   18    0    0    0    0    0    0  226    0   23    0    0    0    0    0    7    0    7    3 |    p = l
    0    2    7   79  259  564    8  327  116   29    0    0    0    1    0  342   23  134    2    1    0    5   64   17    0   35  236 |    q = o
    0    7    2   59  275  140    0  223   22    3    0    0   21    0    1  192    2   51    0    0    0    1    2    0    0   27   38 |    r = n
    7    0    7    7   10    8    2    1    2    4    0    0    4    2    0    1    2   11    0    0   19    0    0    2    0    1   51 |    s = q
    0    0   15   29   19   18    4    7    2    3    0    0    0    0    0   30    7   29    0    1    0    3    0   17    0    4  147 |    t = p
   41    1  111  103   40   71    4    2   23    9    0    0   24    7    0   53   14   67    1    0  236   13    0   26    0   13  631 |    u = s
    0    0    6   44  116  101    2   60   37    7    0    0    5    0    0  172    3   44    0    0    0    5    4   13    0    7   80 |    v = r
    0    3    1    5   44  152    3  123   14    3    0    0    0    1    0  100   11   11    0    0    1    1  177   18    0   20    9 |    w = u
    0    4   28   36   24   11   24   12    1    3    0    1    4    2    1    9    5   43    1    0    8    2    0   54    0    4  291 |    x = t
    0    0    0    1  108   17    0   33   13    1    0    0    0    0    0   38    0   12    0    0    0    3    0    7    0    1    2 |    y = v
    0    0    3    6   44    0    0    6    0    0    0    0    0    0    1   33    0   14    0    0    5    0    0    8    0   17   11 |    z = y
    0    0    0    0    0    0    0    0    0    0    0    0    0    0    0    0    0    0    0    0    0    0    0    0    0    0   12 |   aa = z

=== Percent Confusion Matrix ===
a	b	c	d	e	f	g	h	i	j	k	l	m	n	o	p	q	r	s	t	u	v	w	x	y	z	aa	
12.5	0.69	7.64	2.08	0.69	4.86	0.69	2.08	0.69	0.0	0.0	0.0	0.0	0.69	0.0	5.56	0.0	5.56	0.0	0.0	19.44	0.0	0.0	2.78	0.0	0.0	34.03	 a = ch
0.0	0.0	0.0	0.0	30.56	36.11	0.0	2.78	0.0	2.78	0.0	0.0	0.0	0.0	0.0	22.22	0.0	2.78	0.0	0.0	0.0	0.0	0.0	0.0	0.0	2.78	0.0	 b = rr
0.0	0.0	46.49	1.38	1.91	0.89	0.08	0.63	0.24	0.22	0.0	0.0	0.37	0.0	0.03	1.34	0.22	1.1	0.0	0.01	0.01	0.13	0.07	0.38	0.0	0.22	44.29	 c = 0
0.0	0.0	1.19	14.29	22.32	5.95	0.0	3.87	0.89	0.3	0.0	0.3	0.89	0.0	0.0	11.61	0.6	2.08	0.0	0.0	0.6	1.19	0.0	0.0	0.0	2.38	31.55	 d = hs
0.0	0.0	0.0	0.0	79.76	1.19	0.0	2.38	0.0	2.38	0.0	0.0	0.0	0.0	0.0	5.95	0.0	3.57	0.0	0.0	0.0	0.0	0.0	0.0	0.0	4.76	0.0	 e = hg
0.0	0.05	0.61	1.18	7.54	67.26	0.3	5.68	1.36	0.66	0.0	0.02	0.14	0.11	0.0	8.99	0.77	1.2	0.07	0.05	0.09	0.34	0.0	0.79	0.0	0.16	2.63	 f = a
1.33	0.0	6.86	5.09	3.98	1.55	1.99	1.55	0.66	0.44	0.0	0.0	0.66	0.22	0.0	1.77	1.33	2.88	0.0	0.22	7.52	0.22	0.44	9.96	0.0	0.22	51.11	 g = c
0.0	0.0	0.0	0.0	19.21	17.73	0.0	21.18	8.87	0.49	0.0	0.0	0.0	0.0	0.0	29.06	0.0	0.0	0.0	0.0	0.0	0.0	3.45	0.0	0.0	0.0	0.0	 h = b
0.0	0.17	0.21	2.05	31.7	19.05	0.51	8.86	17.43	0.09	0.0	0.0	0.3	0.09	0.09	11.38	0.64	1.79	0.0	0.13	0.0	0.17	0.0	1.15	0.0	0.6	3.62	 i = e
0.0	0.0	0.45	0.91	26.08	21.77	0.0	21.54	4.31	2.04	0.0	0.0	0.0	0.0	0.0	18.82	0.0	1.59	0.0	0.0	0.45	0.0	0.0	0.0	0.0	1.36	0.68	 j = d
0.0	0.0	0.0	3.24	20.54	32.43	0.0	10.27	9.19	0.0	0.0	0.0	4.86	0.0	0.0	10.81	0.0	2.16	0.0	0.0	0.0	0.54	0.0	0.54	0.0	0.0	5.41	 k = g
0.0	0.0	3.09	12.37	8.76	8.25	0.0	3.61	0.0	1.55	0.0	0.0	0.0	0.0	0.0	1.55	1.55	5.67	0.0	0.0	0.52	0.0	0.0	6.19	0.0	0.52	46.39	 l = f
0.0	0.0	0.33	2.9	19.32	6.3	0.58	5.31	23.05	0.0	0.0	0.0	14.43	0.08	1.82	16.17	0.25	1.24	0.0	0.0	0.08	0.0	0.0	2.24	0.0	1.33	4.56	 m = i
0.0	0.0	4.82	7.23	6.63	16.87	0.6	4.22	2.41	0.0	0.0	0.0	0.0	4.82	0.6	1.81	9.64	6.02	0.6	0.0	0.0	7.83	0.0	3.61	0.0	0.6	21.69	 n = j
0.0	0.23	0.0	4.3	33.48	11.31	0.0	16.52	2.94	0.45	0.0	0.0	0.9	0.0	0.0	21.27	0.0	2.26	0.0	0.0	0.0	0.0	3.39	0.45	0.0	1.13	1.36	 o = m
0.0	0.0	0.0	1.45	26.86	9.62	0.18	10.34	3.27	0.0	0.0	0.0	0.0	0.0	0.0	41.02	0.0	4.17	0.0	0.0	0.0	0.0	0.0	1.27	0.0	1.27	0.54	 p = l
0.0	0.09	0.31	3.51	11.51	25.06	0.36	14.53	5.15	1.29	0.0	0.0	0.0	0.04	0.0	15.19	1.02	5.95	0.09	0.04	0.0	0.22	2.84	0.76	0.0	1.55	10.48	 q = o
0.0	0.66	0.19	5.53	25.8	13.13	0.0	20.92	2.06	0.28	0.0	0.0	1.97	0.0	0.09	18.01	0.19	4.78	0.0	0.0	0.0	0.09	0.19	0.0	0.0	2.53	3.56	 r = n
4.96	0.0	4.96	4.96	7.09	5.67	1.42	0.71	1.42	2.84	0.0	0.0	2.84	1.42	0.0	0.71	1.42	7.8	0.0	0.0	13.48	0.0	0.0	1.42	0.0	0.71	36.17	 s = q
0.0	0.0	4.48	8.66	5.67	5.37	1.19	2.09	0.6	0.9	0.0	0.0	0.0	0.0	0.0	8.96	2.09	8.66	0.0	0.3	0.0	0.9	0.0	5.07	0.0	1.19	43.88	 t = p
2.75	0.07	7.45	6.91	2.68	4.77	0.27	0.13	1.54	0.6	0.0	0.0	1.61	0.47	0.0	3.56	0.94	4.5	0.07	0.0	15.84	0.87	0.0	1.74	0.0	0.87	42.35	 u = s
0.0	0.0	0.85	6.23	16.43	14.31	0.28	8.5	5.24	0.99	0.0	0.0	0.71	0.0	0.0	24.36	0.42	6.23	0.0	0.0	0.0	0.71	0.57	1.84	0.0	0.99	11.33	 v = r
0.0	0.43	0.14	0.72	6.31	21.81	0.43	17.65	2.01	0.43	0.0	0.0	0.0	0.14	0.0	14.35	1.58	1.58	0.0	0.0	0.14	0.14	25.39	2.58	0.0	2.87	1.29	 w = u
0.0	0.7	4.93	6.34	4.23	1.94	4.23	2.11	0.18	0.53	0.0	0.18	0.7	0.35	0.18	1.58	0.88	7.57	0.18	0.0	1.41	0.35	0.0	9.51	0.0	0.7	51.23	 x = t
0.0	0.0	0.0	0.42	45.76	7.2	0.0	13.98	5.51	0.42	0.0	0.0	0.0	0.0	0.0	16.1	0.0	5.08	0.0	0.0	0.0	1.27	0.0	2.97	0.0	0.42	0.85	 y = v
0.0	0.0	2.03	4.05	29.73	0.0	0.0	4.05	0.0	0.0	0.0	0.0	0.0	0.0	0.68	22.3	0.0	9.46	0.0	0.0	3.38	0.0	0.0	5.41	0.0	11.49	7.43	 z = y
0.0	0.0	0.0	0.0	0.0	0.0	0.0	0.0	0.0	0.0	0.0	0.0	0.0	0.0	0.0	0.0	0.0	0.0	0.0	0.0	0.0	0.0	0.0	0.0	0.0	0.0	100.0	 aa = z
