Timestamp:2014-12-07-10:40:13
Inventario:I0
Intervalo:6ms
Ngramas:2
Clasificador:NaiveBayes
Relation Name:  I0-6ms-2gramas
Num Instances:  30452
Num Attributes: 21

     Name                      Type  Nom  Int Real     Missing      Unique  Dist
   1 0Int(dB)                   Num   0%  10%  90%     0 /  0%     2 /  0%   776 
   2 0Pitch(Hz)                 Num   0%  51%  49%     0 /  0%   750 /  2%  3423 
   3 0RawPitch                  Num   0%  55%  45%     0 /  0%   699 /  2%  3337 
   4 0SmPitch                   Num   0%  53%  47%     0 /  0%   748 /  2%  3382 
   5 0Melogram(st)              Num   0%  48%  52%     0 /  0%   413 /  1%  3048 
   6 0ZCross                    Num   0% 100%   0%     0 /  0%     8 /  0%    47 
   7 0F1(Hz)                    Num   0%  52%  48%     0 /  0%  1130 /  4%  4802 
   8 0F2(Hz)                    Num   0%  51%  49%     0 /  0%  2251 /  7%  6691 
   9 0F3(Hz)                    Num   0%  52%  48%     0 /  0%  1969 /  6%  6255 
  10 0F4(Hz)                    Num   0%  52%  48%     0 /  0%  1938 /  6%  6099 
  11 1Int(dB)                   Num   0%  10%  90%     0 /  0%     3 /  0%   777 
  12 1Pitch(Hz)                 Num   0%  51%  49%     0 /  0%   750 /  2%  3423 
  13 1RawPitch                  Num   0%  55%  45%     0 /  0%   699 /  2%  3337 
  14 1SmPitch                   Num   0%  53%  47%     0 /  0%   748 /  2%  3382 
  15 1Melogram(st)              Num   0%  48%  52%     0 /  0%   413 /  1%  3048 
  16 1ZCross                    Num   0% 100%   0%     0 /  0%     8 /  0%    47 
  17 1F1(Hz)                    Num   0%  52%  48%     0 /  0%  1130 /  4%  4802 
  18 1F2(Hz)                    Num   0%  51%  49%     0 /  0%  2251 /  7%  6691 
  19 1F3(Hz)                    Num   0%  52%  48%     0 /  0%  1969 /  6%  6255 
  20 1F4(Hz)                    Num   0%  52%  48%     0 /  0%  1938 /  6%  6099 
  21 class                      Nom 100%   0%   0%     0 /  0%     0 /  0%    27 


Naive Bayes Classifier

                    Class
Attribute              ch        rr         0        hs        hg         a         c         b         e         d         g         f         i         j         m         l         o         n         q         p         s         r         u         t         v         y         z
                      (0)       (0)    (0.38)    (0.01)       (0)    (0.14)    (0.01)    (0.01)    (0.08)    (0.01)    (0.01)    (0.01)    (0.04)    (0.01)    (0.01)    (0.02)    (0.07)    (0.04)       (0)    (0.01)    (0.05)    (0.02)    (0.02)    (0.02)    (0.01)       (0)       (0)
==============================================================================================================================================================================================================================================================================================
0Int(dB)
  mean            -20.0731  -10.0046   -48.822  -19.6244  -11.2299   -3.0972  -26.2943   -5.9703   -5.4538    -7.865   -7.5405  -21.4601   -9.0975  -15.5212   -7.6562   -8.1897     -8.32   -8.9503  -24.1077  -23.7488  -21.2313  -11.6893   -5.7217  -27.4258   -9.5258  -16.4401  -27.2184
  std. dev.         8.9367    4.4949   15.7027   11.2787    5.8916     8.598    9.7704    4.3385    8.3541     6.066    7.9044    5.7951    8.4757    6.2304    6.1596    5.6838   12.1084    7.4378   12.2245   10.4007    6.9985    9.2928    8.3788    9.2469     7.587     5.191    2.0706
  weight sum           144        36     11610       336        84      4405       452       203      2347       441       185       194      1206       166       442       551      2251      1066       141       335      1490       706       697       568       236       148        12
  precision         0.1001    0.1001    0.1001    0.1001    0.1001    0.1001    0.1001    0.1001    0.1001    0.1001    0.1001    0.1001    0.1001    0.1001    0.1001    0.1001    0.1001    0.1001    0.1001    0.1001    0.1001    0.1001    0.1001    0.1001    0.1001    0.1001    0.1001

0Pitch(Hz)
  mean             60.0089  241.9986   15.2625   92.3531  146.1084  225.8723   45.8095  216.4448  188.9309  202.2266  212.2478   85.8604  172.4627   155.951  193.6446  174.3546  179.6002  192.4967   81.3588   87.4095   56.7121  160.5727  229.1165   67.3146  176.3071  114.3818         0
  std. dev.       105.1203  120.5087     53.89   87.5234   37.1754  103.6424   89.9776   73.1236   88.8484    84.159   98.1766   118.982   77.3033  132.0546   86.5278   63.9762  105.0982   88.4656  112.3394  118.1256   95.8257   93.6407    86.113  109.1878   75.7086   69.4638    0.0243
  weight sum           144        36     11610       336        84      4405       452       203      2347       441       185       194      1206       166       442       551      2251      1066       141       335      1490       706       697       568       236       148        12
  precision         0.1457    0.1457    0.1457    0.1457    0.1457    0.1457    0.1457    0.1457    0.1457    0.1457    0.1457    0.1457    0.1457    0.1457    0.1457    0.1457    0.1457    0.1457    0.1457    0.1457    0.1457    0.1457    0.1457    0.1457    0.1457    0.1457    0.1457

0RawPitch
  mean             41.1484  235.3972   12.5242   75.1265    128.71  216.1754   29.3707  213.9829  185.2813  197.2802  202.8895   49.0657  164.6635  105.1488  182.4386  159.7832  173.0353  179.7586   43.3159   61.9638    35.509  155.6181  219.1052   41.0888  162.1708   81.1779         0
  std. dev.        91.8081  122.3209   48.0496   87.9145   68.4146  108.8555    73.522    75.294   94.3657   92.7599  107.8664   89.5288   82.3462  113.3571   96.7502   75.3969  111.2194  100.8095   91.8762  107.5662   79.5021   98.2908   94.0431   90.6115   85.6746   77.9688    0.0248
  weight sum           144        36     11610       336        84      4405       452       203      2347       441       185       194      1206       166       442       551      2251      1066       141       335      1490       706       697       568       236       148        12
  precision         0.1486    0.1486    0.1486    0.1486    0.1486    0.1486    0.1486    0.1486    0.1486    0.1486    0.1486    0.1486    0.1486    0.1486    0.1486    0.1486    0.1486    0.1486    0.1486    0.1486    0.1486    0.1486    0.1486    0.1486    0.1486    0.1486    0.1486

0SmPitch
  mean             53.7153   241.992    13.763   85.4547  147.9943  223.9799   38.3513  216.4419  187.4191   201.473  210.2142   70.4798   169.864  117.4821  190.8861  173.1903  177.2873  189.8823   63.3268    77.653   49.1175  157.5853  227.6752   55.7485  172.2707  111.2939         0
  std. dev.        99.3518  120.5024   49.9331   85.5645   35.0841  105.5011   84.9782   73.1204   90.1622   85.6758  100.5696  104.7099   79.4786  138.7855   90.4565   65.4581  107.1683    91.065  104.3402  117.5559   91.1045   95.6025   87.0875  102.6857   79.1623   70.7872    0.0246
  weight sum           144        36     11610       336        84      4405       452       203      2347       441       185       194      1206       166       442       551      2251      1066       141       335      1490       706       697       568       236       148        12
  precision         0.1475    0.1475    0.1475    0.1475    0.1475    0.1475    0.1475    0.1475    0.1475    0.1475    0.1475    0.1475    0.1475    0.1475    0.1475    0.1475    0.1475    0.1475    0.1475    0.1475    0.1475    0.1475    0.1475    0.1475    0.1475    0.1475    0.1475

0Melogram(st)
  mean             16.0798   56.4177    4.5867   28.1071   48.6286   53.2363   12.1991   55.4551    50.443   53.1699   51.4945   24.8443   48.4372   18.2447   51.0995   51.4308   46.7991   50.5315     18.33   22.0343   15.3296   43.0014   54.1423    16.053   50.2138   40.8578         0
  std. dev.        25.9793    8.8714   15.1422   25.0053    6.9732   14.7062    23.208    6.2942   15.4134   10.7286    17.083   27.7261   16.3134   26.9703   14.1123     8.713   20.2997   15.8473   26.6202   27.8912    24.704   22.2675    14.241   25.8618   12.2691    17.897    0.0045
  weight sum           144        36     11610       336        84      4405       452       203      2347       441       185       194      1206       166       442       551      2251      1066       141       335      1490       706       697       568       236       148        12
  precision         0.0271    0.0271    0.0271    0.0271    0.0271    0.0271    0.0271    0.0271    0.0271    0.0271    0.0271    0.0271    0.0271    0.0271    0.0271    0.0271    0.0271    0.0271    0.0271    0.0271    0.0271    0.0271    0.0271    0.0271    0.0271    0.0271    0.0271

0ZCross
  mean              8.1603    3.4891    0.2049    1.0691    3.0186    7.4843    1.3297    3.7299    4.9057    3.6229    4.4228    0.6596    3.5597    3.7622    2.8365    3.1936    3.9697    2.5339    3.7382    0.8165    3.5808     3.106    3.7441     0.494    2.9497    1.4674         0
  std. dev.        12.4653     2.661    0.9758    1.6936    2.1454    4.3926    3.2843    1.6388    3.2087    2.1011    2.7279    1.5398    3.2377       3.7    1.4872    1.9336    2.9459    1.6032    6.7336    2.1262    6.7951    2.4739    2.8259    1.2009    1.7773    1.7092    0.1957
  weight sum           144        36     11610       336        84      4405       452       203      2347       441       185       194      1206       166       442       551      2251      1066       141       335      1490       706       697       568       236       148        12
  precision         1.1739    1.1739    1.1739    1.1739    1.1739    1.1739    1.1739    1.1739    1.1739    1.1739    1.1739    1.1739    1.1739    1.1739    1.1739    1.1739    1.1739    1.1739    1.1739    1.1739    1.1739    1.1739    1.1739    1.1739    1.1739    1.1739    1.1739

0F1(Hz)
  mean            163.9306  594.0499   50.3988  413.5536  445.5396  695.8153   93.7542  477.9796  458.4701  515.3751  502.5993  314.7721  358.3341  465.0756  435.0134  475.2926  479.3066  477.6654  187.2581  254.2212  213.6703  492.2032  490.8774  121.7537  480.0437  346.4707         0
  std. dev.       276.6772  131.2429  162.5646  290.6269   79.8618  264.7557  206.4919   133.633  153.5049  150.3453  184.8457  339.9822  149.9822  335.2659  164.0396  143.5092  228.1739  154.0037  245.4514  302.9127  295.5057  232.9608  313.8193   213.372  177.0949  184.2574    0.0605
  weight sum           144        36     11610       336        84      4405       452       203      2347       441       185       194      1206       166       442       551      2251      1066       141       335      1490       706       697       568       236       148        12
  precision         0.3628    0.3628    0.3628    0.3628    0.3628    0.3628    0.3628    0.3628    0.3628    0.3628    0.3628    0.3628    0.3628    0.3628    0.3628    0.3628    0.3628    0.3628    0.3628    0.3628    0.3628    0.3628    0.3628    0.3628    0.3628    0.3628    0.3628

0F2(Hz)
  mean            488.0398 1661.1534  156.3573 1188.7462 1935.5772 1446.1936  281.5929  1584.431 1756.5682 1485.2782 1720.9577  816.2518 1934.2548 1329.7586 1666.5823 1665.8495 1142.3274 1613.3524  765.1485  744.6876  663.1769 1379.4718 1039.7614  411.6101 1534.4105 1351.4258         0
  std. dev.       789.6281  126.4913  498.6121   815.441  358.6963  423.1113  634.0553  345.3537  558.7593  309.9774  554.7945  860.6452    698.11  889.5689  447.8476  355.4966  545.8877  437.8344  973.3102  856.8311  888.1832   603.731  453.9752  701.7149  460.8175  652.6279    0.0742
  weight sum           144        36     11610       336        84      4405       452       203      2347       441       185       194      1206       166       442       551      2251      1066       141       335      1490       706       697       568       236       148        12
  precision         0.4452    0.4452    0.4452    0.4452    0.4452    0.4452    0.4452    0.4452    0.4452    0.4452    0.4452    0.4452    0.4452    0.4452    0.4452    0.4452    0.4452    0.4452    0.4452    0.4452    0.4452    0.4452    0.4452    0.4452    0.4452    0.4452    0.4452

0F3(Hz)
  mean            813.4969 2851.9328    267.83  1951.595 2534.7699 2695.4534  508.6047 2763.6067 2589.9599 2868.7121 2939.9389   1393.87  2617.135 1948.8854 2757.0057 2791.1611   2486.42 2784.1348 1136.4637 1265.5167 1104.7053 2398.5302 2624.1187  750.6984 2617.9224 2344.6164         0
  std. dev.      1317.8001  401.0154  838.7023 1264.7949  115.5867  776.2304 1109.1319   464.646  828.9033  468.1374  865.0023 1464.4589  961.8845 1298.0665  580.1938  585.6179 1037.8263  632.3835 1405.2451 1443.9113 1460.5192 1055.2749   862.036 1264.8843  760.6246 1149.9587    0.1098
  weight sum           144        36     11610       336        84      4405       452       203      2347       441       185       194      1206       166       442       551      2251      1066       141       335      1490       706       697       568       236       148        12
  precision         0.6587    0.6587    0.6587    0.6587    0.6587    0.6587    0.6587    0.6587    0.6587    0.6587    0.6587    0.6587    0.6587    0.6587    0.6587    0.6587    0.6587    0.6587    0.6587    0.6587    0.6587    0.6587    0.6587    0.6587    0.6587    0.6587    0.6587

0F4(Hz)
  mean            959.0155  3255.197  322.5048 2417.2557 3587.0685 3102.7883  582.0463 3297.2411 3123.7667 3338.8508 2970.8728 1587.9694 3116.8532 2430.2114 3308.0056 3229.7781 2862.0839 3189.9726 1386.9973 1492.0901 1246.9293 2791.0442 3008.5041  859.4665 3170.8156 2704.1261         0
  std. dev.      1552.9773  417.7461 1007.8125 1552.3353   91.9652  881.6368 1271.1269  449.6185   967.012  509.6049  876.7275 1656.1296 1104.1679 1604.8994  628.3989  604.9613 1178.6146  725.7634 1727.2189 1680.2181 1646.1728 1170.1665  904.6428 1452.7462  830.6887 1312.9421    0.1133
  weight sum           144        36     11610       336        84      4405       452       203      2347       441       185       194      1206       166       442       551      2251      1066       141       335      1490       706       697       568       236       148        12
  precision         0.6801    0.6801    0.6801    0.6801    0.6801    0.6801    0.6801    0.6801    0.6801    0.6801    0.6801    0.6801    0.6801    0.6801    0.6801    0.6801    0.6801    0.6801    0.6801    0.6801    0.6801    0.6801    0.6801    0.6801    0.6801    0.6801    0.6801

1Int(dB)
  mean            -19.2082  -10.8555  -49.0432  -20.9921  -10.8661   -2.9833  -24.3157   -5.8664   -5.3083   -7.7311   -7.6486   -22.004   -8.8383  -15.8502    -7.594   -8.2353   -8.2927   -9.4333  -22.1263  -22.5156  -21.7519   -12.023   -5.2124  -25.2438   -9.1735  -16.3379  -27.3626
  std. dev.         8.3152     4.321   15.4138   11.3548    6.1531     8.264    9.7729    4.3194    8.1563    6.1548    7.9568    5.3215    8.4087    5.9506     5.964     5.787   12.1905    7.7906   11.2782   10.5794    6.6729    9.5141    7.6533   10.2129     6.683    4.7655    2.3916
  weight sum           144        36     11610       336        84      4405       452       203      2347       441       185       194      1206       166       442       551      2251      1066       141       335      1490       706       697       568       236       148        12
  precision         0.1027    0.1027    0.1027    0.1027    0.1027    0.1027    0.1027    0.1027    0.1027    0.1027    0.1027    0.1027    0.1027    0.1027    0.1027    0.1027    0.1027    0.1027    0.1027    0.1027    0.1027    0.1027    0.1027    0.1027    0.1027    0.1027    0.1027

1Pitch(Hz)
  mean             65.3575  242.0269   14.1311    84.257  147.2966  226.5892   64.1895  216.4591  191.0581   201.883  211.7374   78.2439  173.8339  153.6697  194.5281   174.343  178.5747  189.9462   90.7025   91.0913   50.6094  160.6495  230.7901   82.0092  178.6841  114.5787         0
  std. dev.       108.1943  121.8763   52.0109   86.5759    38.547  102.8612  103.1249    72.512   87.4612    84.869   99.8735  116.0641   75.6506  131.3106   86.3638    63.331  104.7438   90.1682  117.6818  115.9237   92.1351   94.6106   82.8574   114.771   71.8928    69.469    0.0243
  weight sum           144        36     11610       336        84      4405       452       203      2347       441       185       194      1206       166       442       551      2251      1066       141       335      1490       706       697       568       236       148        12
  precision         0.1457    0.1457    0.1457    0.1457    0.1457    0.1457    0.1457    0.1457    0.1457    0.1457    0.1457    0.1457    0.1457    0.1457    0.1457    0.1457    0.1457    0.1457    0.1457    0.1457    0.1457    0.1457    0.1457    0.1457    0.1457    0.1457    0.1457

1RawPitch
  mean             44.1099  240.0572   11.6292   67.0146  131.8552  216.8895   43.3669  214.4272  186.7023  196.4472  201.2831   43.1052  166.6698   100.811  183.2761  158.3555  172.5426  176.7646   52.6824   67.1849   29.0586  156.0344  221.3767   55.6644  164.8348   80.8777         0
  std. dev.        92.8202  123.2161   46.5608   85.4524   71.4692  108.2344   88.1441   74.6454   93.4491    92.771  110.3952   84.1331   81.1132  110.2804   96.8973    75.915  110.6448  102.4361   99.4069  107.2156   72.6111   99.0858   91.1707   99.5062   82.3683   76.7501    0.0248
  weight sum           144        36     11610       336        84      4405       452       203      2347       441       185       194      1206       166       442       551      2251      1066       141       335      1490       706       697       568       236       148        12
  precision         0.1486    0.1486    0.1486    0.1486    0.1486    0.1486    0.1486    0.1486    0.1486    0.1486    0.1486    0.1486    0.1486    0.1486    0.1486    0.1486    0.1486    0.1486    0.1486    0.1486    0.1486    0.1486    0.1486    0.1486    0.1486    0.1486    0.1486

1SmPitch
  mean             56.1916  242.0125   12.7059   77.3627  149.1881  224.8259   55.0909  216.4586  189.6338  201.3593   209.704   62.8463  171.4037  115.2176  191.1777  172.5581  176.5059  187.2824   71.9617   80.6143   42.5529  157.7841  229.7721   70.2383   175.012  111.4742         0
  std. dev.       101.5405  121.8671   48.0568   83.9352   36.4657  104.5105   99.5967   72.5063   88.7774    85.928  102.2181  100.1907   78.1033  137.4539   91.1197   65.6617   106.636   92.6603  110.3884  115.5198   85.9983   96.4061   83.4441  110.3043   75.4441   70.8065    0.0246
  weight sum           144        36     11610       336        84      4405       452       203      2347       441       185       194      1206       166       442       551      2251      1066       141       335      1490       706       697       568       236       148        12
  precision         0.1475    0.1475    0.1475    0.1475    0.1475    0.1475    0.1475    0.1475    0.1475    0.1475    0.1475    0.1475    0.1475    0.1475    0.1475    0.1475    0.1475    0.1475    0.1475    0.1475    0.1475    0.1475    0.1475    0.1475    0.1475    0.1475    0.1475

1Melogram(st)
  mean             17.7686   56.3213    4.2916   25.9362   49.3963   53.5262   16.1155   55.4708   50.8127     53.14   51.2372   23.1989   48.9436   18.1254    51.162   51.2206   46.6912   49.9025   20.3742   22.9162   13.5852   42.9905   54.8522   19.7139   50.9332   40.8824         0
  std. dev.        26.8469    8.9802   14.7022   25.0533    4.6146   14.1204   25.6792    6.2648   14.8245   10.7598   17.5082   27.5216   15.5254   27.1318   14.1243     9.232   20.3122   16.6936   27.3602   27.7784    23.839   22.3489   12.6632   27.3053   10.8363   17.9027    0.0045
  weight sum           144        36     11610       336        84      4405       452       203      2347       441       185       194      1206       166       442       551      2251      1066       141       335      1490       706       697       568       236       148        12
  precision         0.0271    0.0271    0.0271    0.0271    0.0271    0.0271    0.0271    0.0271    0.0271    0.0271    0.0271    0.0271    0.0271    0.0271    0.0271    0.0271    0.0271    0.0271    0.0271    0.0271    0.0271    0.0271    0.0271    0.0271    0.0271    0.0271    0.0271

1ZCross
  mean              8.4864    3.3261    0.1869    0.9224    3.1444    7.4925    1.5947    3.9034    4.8852    3.7028    4.3657    0.5628    3.5568    3.6985    2.8206    3.1766    3.9781    2.4018    4.1462    0.9461    3.5619    2.9847    3.8114    0.7812    2.9994    1.4753         0
  std. dev.        12.6364    2.6755     0.942    1.6559    2.2708    4.3868    3.4225    1.7566    3.1792    2.0838    2.6593    1.4214    3.1167     3.727    1.4129    1.8741    2.8849    1.5266    6.8029    2.0925    6.8644    2.3912    2.7838    1.5121    1.7329    1.6886    0.1957
  weight sum           144        36     11610       336        84      4405       452       203      2347       441       185       194      1206       166       442       551      2251      1066       141       335      1490       706       697       568       236       148        12
  precision         1.1739    1.1739    1.1739    1.1739    1.1739    1.1739    1.1739    1.1739    1.1739    1.1739    1.1739    1.1739    1.1739    1.1739    1.1739    1.1739    1.1739    1.1739    1.1739    1.1739    1.1739    1.1739    1.1739    1.1739    1.1739    1.1739    1.1739

1F1(Hz)
  mean            151.4374   604.369   46.8603  386.2728  444.8961  709.1959  111.5271  480.2384   466.462  517.4169  498.9833   282.885  366.1781  459.4525  433.2282   471.414  486.7294  464.1109  188.7221  252.9801  184.2944  486.0354  499.9719  132.0725  480.4049   344.321         0
  std. dev.          265.4  135.6087  156.9386  299.2385   82.7519  251.4657  221.3523  133.0515  141.9729  150.5159    186.19  335.8097  138.5016  343.1604  161.0847  137.3747  223.3891  154.6842  246.5788   297.739  284.0022  231.9282  304.4022  221.3517  169.3091  182.3304    0.0605
  weight sum           144        36     11610       336        84      4405       452       203      2347       441       185       194      1206       166       442       551      2251      1066       141       335      1490       706       697       568       236       148        12
  precision         0.3628    0.3628    0.3628    0.3628    0.3628    0.3628    0.3628    0.3628    0.3628    0.3628    0.3628    0.3628    0.3628    0.3628    0.3628    0.3628    0.3628    0.3628    0.3628    0.3628    0.3628    0.3628    0.3628    0.3628    0.3628    0.3628    0.3628

1F2(Hz)
  mean            469.0704 1642.0449  145.6601 1110.2702 1927.7218 1464.8732  326.2732 1571.3127 1796.4609 1484.5553 1705.1671  741.9071 2002.2125 1284.8504 1672.4723 1670.4733  1145.619 1598.8226  761.1286  739.6676  575.0169 1377.7558 1063.4579  442.3682 1564.0307 1359.0462         0
  std. dev.        786.794  123.6284  482.7008  839.8572   352.358  388.4441   662.183   342.383  511.4411  315.1872  569.4236  856.5523  633.8216  898.6422  427.1976  334.3984   528.768  451.9357  966.1942  842.3733  858.8254  609.8542  420.6329  722.8585  418.6208  656.0956    0.0742
  weight sum           144        36     11610       336        84      4405       452       203      2347       441       185       194      1206       166       442       551      2251      1066       141       335      1490       706       697       568       236       148        12
  precision         0.4452    0.4452    0.4452    0.4452    0.4452    0.4452    0.4452    0.4452    0.4452    0.4452    0.4452    0.4452    0.4452    0.4452    0.4452    0.4452    0.4452    0.4452    0.4452    0.4452    0.4452    0.4452    0.4452    0.4452    0.4452    0.4452    0.4452

1F3(Hz)
  mean            763.8256 2854.4763  249.3791 1821.3397 2527.5629 2732.0295  597.3649 2757.6682 2636.0758 2867.4021 2921.8002 1256.1275 2693.6179  1892.249 2757.9089 2807.9203  2513.778 2762.2201  1137.314 1268.3759  955.8123 2392.0752 2692.0225  794.3786 2662.4101 2344.8657         0
  std. dev.       1280.578  415.0577  812.0795 1314.6306  113.4765  715.8519 1171.9293  466.9797  763.9923  487.3711  891.1037 1446.6971  876.6153 1311.8006   550.256  565.4537 1011.4708  667.8162 1406.6818 1430.7426 1411.0405  1066.903   759.659 1285.4487  686.8616 1148.9467    0.1098
  weight sum           144        36     11610       336        84      4405       452       203      2347       441       185       194      1206       166       442       551      2251      1066       141       335      1490       706       697       568       236       148        12
  precision         0.6587    0.6587    0.6587    0.6587    0.6587    0.6587    0.6587    0.6587    0.6587    0.6587    0.6587    0.6587    0.6587    0.6587    0.6587    0.6587    0.6587    0.6587    0.6587    0.6587    0.6587    0.6587    0.6587    0.6587    0.6587    0.6587    0.6587

1F4(Hz)
  mean            919.1659 3245.1284  300.6559 2258.5003 3588.6553 3142.9426  700.4728 3294.6984 3175.4825 3334.3495 2960.2051  1439.692 3200.0296 2374.2582 3319.9897 3244.9356 2890.9482 3168.5705 1375.3543 1514.1748 1081.1236 2775.0647 3085.5469  916.9123 3228.4218 2705.8262         0
  std. dev.      1540.0349  405.7071  976.8757 1616.8389   90.0492  810.7837 1374.6892  444.9588  884.6328  533.4148   906.295 1646.7272  997.3182 1633.7197  591.0299  572.9864 1145.4649  771.2787 1713.1057 1684.1176 1594.0112  1183.171  770.8999 1489.2699  721.3249 1314.4836    0.1133
  weight sum           144        36     11610       336        84      4405       452       203      2347       441       185       194      1206       166       442       551      2251      1066       141       335      1490       706       697       568       236       148        12
  precision         0.6801    0.6801    0.6801    0.6801    0.6801    0.6801    0.6801    0.6801    0.6801    0.6801    0.6801    0.6801    0.6801    0.6801    0.6801    0.6801    0.6801    0.6801    0.6801    0.6801    0.6801    0.6801    0.6801    0.6801    0.6801    0.6801    0.6801





=== Stratified cross-validation ===

Correctly Classified Instances        9331               30.6417 %
Incorrectly Classified Instances     21121               69.3583 %
Kappa statistic                          0.2307
K&B Relative Info Score             608203.1461 %
K&B Information Score                20212.2674 bits      0.6637 bits/instance
Class complexity | order 0          101114.2365 bits      3.3204 bits/instance
Class complexity | scheme          1117524.5984 bits     36.6979 bits/instance
Complexity improvement     (Sf)    -1016410.3619 bits    -33.3775 bits/instance
Mean absolute error                      0.0519
Root mean squared error                  0.2095
Relative absolute error                 86.0501 %
Root relative squared error            120.6427 %
Coverage of cases (0.95 level)          41.8166 %
Mean rel. region size (0.95 level)       8.5347 %
Total Number of Instances            30452     


=== Detailed Accuracy By Class ===

                 TP Rate  FP Rate  Precision  Recall   F-Measure  MCC      ROC Area  PRC Area  Class
                 0,188    0,003    0,243      0,188    0,212      0,210    0,671     0,112     ch
                 0,222    0,009    0,028      0,222    0,050      0,077    0,878     0,020     rr
                 0,484    0,017    0,947      0,484    0,641      0,574    0,888     0,857     0
                 0,116    0,022    0,055      0,116    0,075      0,065    0,662     0,036     hs
                 0,893    0,124    0,020      0,893    0,038      0,122    0,949     0,090     hg
                 0,546    0,051    0,646      0,546    0,592      0,532    0,887     0,632     a
                 0,073    0,007    0,139      0,073    0,096      0,091    0,508     0,066     c
                 0,345    0,104    0,022      0,345    0,041      0,064    0,830     0,026     b
                 0,099    0,008    0,519      0,099    0,166      0,202    0,761     0,239     e
                 0,014    0,011    0,018      0,014    0,015      0,003    0,780     0,034     d
                 0,032    0,001    0,130      0,032    0,052      0,062    0,757     0,024     g
                 0,010    0,004    0,017      0,010    0,013      0,008    0,562     0,020     f
                 0,073    0,002    0,599      0,073    0,130      0,200    0,835     0,282     i
                 0,139    0,002    0,277      0,139    0,185      0,193    0,735     0,129     j
                 0,000    0,003    0,000      0,000    0,000      -0,006   0,801     0,038     m
                 0,314    0,059    0,089      0,314    0,139      0,139    0,833     0,071     l
                 0,010    0,005    0,131      0,010    0,019      0,017    0,744     0,170     o
                 0,021    0,014    0,050      0,021    0,029      0,010    0,785     0,079     n
                 0,007    0,001    0,059      0,007    0,013      0,019    0,645     0,023     q
                 0,015    0,003    0,061      0,015    0,024      0,025    0,552     0,030     p
                 0,144    0,007    0,526      0,144    0,226      0,258    0,604     0,264     s
                 0,021    0,003    0,140      0,021    0,037      0,046    0,696     0,046     r
                 0,234    0,004    0,606      0,234    0,337      0,368    0,854     0,316     u
                 0,085    0,010    0,145      0,085    0,107      0,098    0,519     0,060     t
                 0,000    0,000    0,000      0,000    0,000      -0,002   0,752     0,015     v
                 0,108    0,016    0,032      0,108    0,049      0,050    0,850     0,028     y
                 1,000    0,225    0,002      1,000    0,003      0,037    0,904     0,002     z
Weighted Avg.    0,306    0,019    0,585      0,306    0,380      0,353    0,813     0,492     


=== Confusion Matrix ===

    a    b    c    d    e    f    g    h    i    j    k    l    m    n    o    p    q    r    s    t    u    v    w    x    y    z   aa   <-- classified as
   27    4   12    2    4    6    9    2    0    5    0    3    0    1    0    5    1    0    0    0   21    1    0    1    0    0   40 |    a = ch
    0    8    0    0   18    5    0    2    0    1    0    0    0    0    0    0    0    1    0    0    0    0    0    0    0    1    0 |    b = rr
    0   25 5625  142  242   39   13  144    9   44    0   25   14    3    6  143   15   96    0   10   43    9    8   38    2   73 4842 |    c = 0
    0    5    6   39   92   10    0   17    2    2    0    5    0    1    0   27    0    5    0    0   14    5    0    0    0   17   89 |    d = hs
    0    0    0    0   75    0    0    4    1    0    0    0    0    0    0    2    0    2    0    0    0    0    0    0    0    0    0 |    e = hg
    3   30   34   47  504 2404   21  569   33  158    0   12    2   15    0  293   42   24    5   10    6   17    8   28    2   39   99 |    f = a
    9    1   43   18   13    0   33    8    2    0    0    6    1    5    0    7    7   10    4    7   22    2    3   31    0    7  213 |    g = c
    0   10    0    0   53   19    0   70    2    2    2    0    0    0    0   35    0    1    0    0    0    0    7    0    0    2    0 |    h = b
    1   26    5   45  851  322   12  438  232    2    8    2    8    4   11  166   33   31    3    8    4    4    1   29    0   21   80 |    i = e
    0    9    2    5  124   59    0  160    1    6    1    2    0    0    1   56    0    1    0    0    0    1    0    0    0   11    2 |    j = d
    0    5    0    5   44   35    0   45    2    0    6    2    5    0    4   19    0    3    0    0    1    0    0    1    0    0    8 |    k = g
    0    5    6   21   15   10    2    7    1    1    0    2    0    1    0    7    0    7    0    0   10    3    0   12    0    6   78 |    l = f
    1    0    4   27  281   63    7  209   94    1    8    3   88    2   43  195    7   14    1    9    6    1    1   25    0   67   49 |    m = i
    0    1    7   11   10   20    3    9    1    1    0    4    0   23    3    2    4   10    1    2    3   16    0    1    0    3   31 |    n = j
    0    3    0   16  166   30    0  116    0    9    0    0    0    0    0   70    1    4    0    0    0    0   12    3    0    6    6 |    o = m
    0   14    0    6  187   34    0  103    6    0    0    1    0    0    0  173    1    5    0    2    0    0    1    6    0   10    2 |    p = l
    1   31    8   67  370  369    3  563   26   58    1    6    0    5    0  267   23   39    1    9    8    6   57   19    5   86  223 |    q = o
    0   44    2   49  307   62    0  323    6    6    9    1   13    0    0  136    0   22    0    0    7    0    7    2    0   40   30 |    r = n
    9    0    6    7   12    8   13    1    2    4    0    2    0    1    1    1    0   11    1    1   16    0    0    2    0    1   42 |    s = q
    0    5   18   26   23   14    8   10    0    3    0    4    0    1    0   20    4   15    0    5   11    9    0   19    0   10  130 |    t = p
   60   26  116   88   54   44   71   10   13   13    1   15   12   17    4   51    7   72    0    5  215   13    0   26    0   27  530 |    u = s
    0   14    6   41  132   61    3  122    8   14   10    7    2    0    1  143    5   21    0    1    8   15    1    9    0   13   69 |    v = r
    0    6    1    5   50   89    3  215    0    6    0    2    0    0    1   80   10    4    0    1    0    1  163   20    1   30    9 |    w = u
    0    8   32   28   22    3   33   10    0    4    0   13    2    4    0    4   14   38    1    9    8    3    0   48    0    8  276 |    x = t
    0    1    2    3  119   16    0   44    6    2    0    0    0    0    2   23    0    2    0    1    0    1    0    6    0    6    2 |    y = v
    0    0    2    5   65    0    3   10    0    0    0    1    0    0    0   18    1    5    0    2    6    0    0    6    0   16    8 |    z = y
    0    0    0    0    0    0    0    0    0    0    0    0    0    0    0    0    0    0    0    0    0    0    0    0    0    0   12 |   aa = z

=== Percent Confusion Matrix ===
a	b	c	d	e	f	g	h	i	j	k	l	m	n	o	p	q	r	s	t	u	v	w	x	y	z	aa	
18.75	2.78	8.33	1.39	2.78	4.17	6.25	1.39	0.0	3.47	0.0	2.08	0.0	0.69	0.0	3.47	0.69	0.0	0.0	0.0	14.58	0.69	0.0	0.69	0.0	0.0	27.78	 a = ch
0.0	22.22	0.0	0.0	50.0	13.89	0.0	5.56	0.0	2.78	0.0	0.0	0.0	0.0	0.0	0.0	0.0	2.78	0.0	0.0	0.0	0.0	0.0	0.0	0.0	2.78	0.0	 b = rr
0.0	0.22	48.45	1.22	2.08	0.34	0.11	1.24	0.08	0.38	0.0	0.22	0.12	0.03	0.05	1.23	0.13	0.83	0.0	0.09	0.37	0.08	0.07	0.33	0.02	0.63	41.71	 c = 0
0.0	1.49	1.79	11.61	27.38	2.98	0.0	5.06	0.6	0.6	0.0	1.49	0.0	0.3	0.0	8.04	0.0	1.49	0.0	0.0	4.17	1.49	0.0	0.0	0.0	5.06	26.49	 d = hs
0.0	0.0	0.0	0.0	89.29	0.0	0.0	4.76	1.19	0.0	0.0	0.0	0.0	0.0	0.0	2.38	0.0	2.38	0.0	0.0	0.0	0.0	0.0	0.0	0.0	0.0	0.0	 e = hg
0.07	0.68	0.77	1.07	11.44	54.57	0.48	12.92	0.75	3.59	0.0	0.27	0.05	0.34	0.0	6.65	0.95	0.54	0.11	0.23	0.14	0.39	0.18	0.64	0.05	0.89	2.25	 f = a
1.99	0.22	9.51	3.98	2.88	0.0	7.3	1.77	0.44	0.0	0.0	1.33	0.22	1.11	0.0	1.55	1.55	2.21	0.88	1.55	4.87	0.44	0.66	6.86	0.0	1.55	47.12	 g = c
0.0	4.93	0.0	0.0	26.11	9.36	0.0	34.48	0.99	0.99	0.99	0.0	0.0	0.0	0.0	17.24	0.0	0.49	0.0	0.0	0.0	0.0	3.45	0.0	0.0	0.99	0.0	 h = b
0.04	1.11	0.21	1.92	36.26	13.72	0.51	18.66	9.88	0.09	0.34	0.09	0.34	0.17	0.47	7.07	1.41	1.32	0.13	0.34	0.17	0.17	0.04	1.24	0.0	0.89	3.41	 i = e
0.0	2.04	0.45	1.13	28.12	13.38	0.0	36.28	0.23	1.36	0.23	0.45	0.0	0.0	0.23	12.7	0.0	0.23	0.0	0.0	0.0	0.23	0.0	0.0	0.0	2.49	0.45	 j = d
0.0	2.7	0.0	2.7	23.78	18.92	0.0	24.32	1.08	0.0	3.24	1.08	2.7	0.0	2.16	10.27	0.0	1.62	0.0	0.0	0.54	0.0	0.0	0.54	0.0	0.0	4.32	 k = g
0.0	2.58	3.09	10.82	7.73	5.15	1.03	3.61	0.52	0.52	0.0	1.03	0.0	0.52	0.0	3.61	0.0	3.61	0.0	0.0	5.15	1.55	0.0	6.19	0.0	3.09	40.21	 l = f
0.08	0.0	0.33	2.24	23.3	5.22	0.58	17.33	7.79	0.08	0.66	0.25	7.3	0.17	3.57	16.17	0.58	1.16	0.08	0.75	0.5	0.08	0.08	2.07	0.0	5.56	4.06	 m = i
0.0	0.6	4.22	6.63	6.02	12.05	1.81	5.42	0.6	0.6	0.0	2.41	0.0	13.86	1.81	1.2	2.41	6.02	0.6	1.2	1.81	9.64	0.0	0.6	0.0	1.81	18.67	 n = j
0.0	0.68	0.0	3.62	37.56	6.79	0.0	26.24	0.0	2.04	0.0	0.0	0.0	0.0	0.0	15.84	0.23	0.9	0.0	0.0	0.0	0.0	2.71	0.68	0.0	1.36	1.36	 o = m
0.0	2.54	0.0	1.09	33.94	6.17	0.0	18.69	1.09	0.0	0.0	0.18	0.0	0.0	0.0	31.4	0.18	0.91	0.0	0.36	0.0	0.0	0.18	1.09	0.0	1.81	0.36	 p = l
0.04	1.38	0.36	2.98	16.44	16.39	0.13	25.01	1.16	2.58	0.04	0.27	0.0	0.22	0.0	11.86	1.02	1.73	0.04	0.4	0.36	0.27	2.53	0.84	0.22	3.82	9.91	 q = o
0.0	4.13	0.19	4.6	28.8	5.82	0.0	30.3	0.56	0.56	0.84	0.09	1.22	0.0	0.0	12.76	0.0	2.06	0.0	0.0	0.66	0.0	0.66	0.19	0.0	3.75	2.81	 r = n
6.38	0.0	4.26	4.96	8.51	5.67	9.22	0.71	1.42	2.84	0.0	1.42	0.0	0.71	0.71	0.71	0.0	7.8	0.71	0.71	11.35	0.0	0.0	1.42	0.0	0.71	29.79	 s = q
0.0	1.49	5.37	7.76	6.87	4.18	2.39	2.99	0.0	0.9	0.0	1.19	0.0	0.3	0.0	5.97	1.19	4.48	0.0	1.49	3.28	2.69	0.0	5.67	0.0	2.99	38.81	 t = p
4.03	1.74	7.79	5.91	3.62	2.95	4.77	0.67	0.87	0.87	0.07	1.01	0.81	1.14	0.27	3.42	0.47	4.83	0.0	0.34	14.43	0.87	0.0	1.74	0.0	1.81	35.57	 u = s
0.0	1.98	0.85	5.81	18.7	8.64	0.42	17.28	1.13	1.98	1.42	0.99	0.28	0.0	0.14	20.25	0.71	2.97	0.0	0.14	1.13	2.12	0.14	1.27	0.0	1.84	9.77	 v = r
0.0	0.86	0.14	0.72	7.17	12.77	0.43	30.85	0.0	0.86	0.0	0.29	0.0	0.0	0.14	11.48	1.43	0.57	0.0	0.14	0.0	0.14	23.39	2.87	0.14	4.3	1.29	 w = u
0.0	1.41	5.63	4.93	3.87	0.53	5.81	1.76	0.0	0.7	0.0	2.29	0.35	0.7	0.0	0.7	2.46	6.69	0.18	1.58	1.41	0.53	0.0	8.45	0.0	1.41	48.59	 x = t
0.0	0.42	0.85	1.27	50.42	6.78	0.0	18.64	2.54	0.85	0.0	0.0	0.0	0.0	0.85	9.75	0.0	0.85	0.0	0.42	0.0	0.42	0.0	2.54	0.0	2.54	0.85	 y = v
0.0	0.0	1.35	3.38	43.92	0.0	2.03	6.76	0.0	0.0	0.0	0.68	0.0	0.0	0.0	12.16	0.68	3.38	0.0	1.35	4.05	0.0	0.0	4.05	0.0	10.81	5.41	 z = y
0.0	0.0	0.0	0.0	0.0	0.0	0.0	0.0	0.0	0.0	0.0	0.0	0.0	0.0	0.0	0.0	0.0	0.0	0.0	0.0	0.0	0.0	0.0	0.0	0.0	0.0	100.0	 aa = z
