Timestamp:2014-12-07-10:44:06
Inventario:I1
Intervalo:1ms
Ngramas:3
Clasificador:NaiveBayes
Relation Name:  I1-1ms-3gramas
Num Instances:  183402
Num Attributes: 31

     Name                      Type  Nom  Int Real     Missing      Unique  Dist
   1 0Int(dB)                   Num   0%   9%  91%     0 /  0%     3 /  0%   780 
   2 0Pitch(Hz)                 Num   0%  51%  49%     0 /  0%   256 /  0%  4213 
   3 0RawPitch                  Num   0%  55%  45%     0 /  0%   417 /  0%  4119 
   4 0SmPitch                   Num   0%  53%  47%     0 /  0%   263 /  0%  4193 
   5 0Melogram(st)              Num   0%  49%  51%     0 /  0%   133 /  0%  3454 
   6 0ZCross                    Num   0% 100%   0%     0 /  0%     4 /  0%    58 
   7 0F1(Hz)                    Num   0%  52%  48%     0 /  0%  1154 /  1%  4824 
   8 0F2(Hz)                    Num   0%  52%  48%     0 /  0%  2223 /  1%  6697 
   9 0F3(Hz)                    Num   0%  53%  47%     0 /  0%  1930 /  1%  6200 
  10 0F4(Hz)                    Num   0%  52%  48%     0 /  0%  1933 /  1%  6096 
  11 1Int(dB)                   Num   0%   9%  91%     0 /  0%     4 /  0%   781 
  12 1Pitch(Hz)                 Num   0%  51%  49%     0 /  0%   256 /  0%  4213 
  13 1RawPitch                  Num   0%  55%  45%     0 /  0%   417 /  0%  4119 
  14 1SmPitch                   Num   0%  53%  47%     0 /  0%   263 /  0%  4193 
  15 1Melogram(st)              Num   0%  49%  51%     0 /  0%   133 /  0%  3454 
  16 1ZCross                    Num   0% 100%   0%     0 /  0%     4 /  0%    58 
  17 1F1(Hz)                    Num   0%  52%  48%     0 /  0%  1154 /  1%  4824 
  18 1F2(Hz)                    Num   0%  52%  48%     0 /  0%  2223 /  1%  6697 
  19 1F3(Hz)                    Num   0%  53%  47%     0 /  0%  1930 /  1%  6200 
  20 1F4(Hz)                    Num   0%  52%  48%     0 /  0%  1933 /  1%  6096 
  21 2Int(dB)                   Num   0%   9%  91%     0 /  0%     3 /  0%   781 
  22 2Pitch(Hz)                 Num   0%  51%  49%     0 /  0%   256 /  0%  4213 
  23 2RawPitch                  Num   0%  55%  45%     0 /  0%   417 /  0%  4119 
  24 2SmPitch                   Num   0%  53%  47%     0 /  0%   263 /  0%  4193 
  25 2Melogram(st)              Num   0%  49%  51%     0 /  0%   133 /  0%  3454 
  26 2ZCross                    Num   0% 100%   0%     0 /  0%     4 /  0%    58 
  27 2F1(Hz)                    Num   0%  52%  48%     0 /  0%  1154 /  1%  4824 
  28 2F2(Hz)                    Num   0%  52%  48%     0 /  0%  2223 /  1%  6697 
  29 2F3(Hz)                    Num   0%  53%  47%     0 /  0%  1930 /  1%  6200 
  30 2F4(Hz)                    Num   0%  52%  48%     0 /  0%  1933 /  1%  6096 
  31 class                      Nom 100%   0%   0%     0 /  0%     0 /  0%    13 


Naive Bayes Classifier

                    Class
Attribute               a         b         e         d         f         i         k         j         l         o         0         s         u
                   (0.16)    (0.03)    (0.07)    (0.01)    (0.01)    (0.04)    (0.02)    (0.01)    (0.09)    (0.07)    (0.39)    (0.06)    (0.02)
==================================================================================================================================================
0Int(dB)
  mean             -4.2125  -12.4222   -5.1527   -8.2397  -15.0454   -8.6835  -23.8179  -11.5322  -12.9091   -8.1232  -48.0652  -21.0525   -5.1335
  std. dev.         9.5923   10.6829    8.0415    6.7613    8.8688     8.344   10.3689    8.2208   10.4478   12.1734   16.3662    6.7431    7.6759
  weight sum         28557      5814     13740      2682      2561      7083      3555      2062     17292     13234     72115     10570      4137
  precision         0.1039    0.1039    0.1039    0.1039    0.1039    0.1039    0.1039    0.1039    0.1039    0.1039    0.1039    0.1039    0.1039

0Pitch(Hz)
  mean            215.2862  159.0019  190.0442  197.3124  130.2645  172.8092   59.4252  182.9119  157.1975  178.3926   17.1388   49.7813  229.1151
  std. dev.       108.6186  111.4961   88.0362   89.0479  107.3679   76.7258  102.1778  121.0136  102.7246  105.3465   56.9505   88.8882   84.6861
  weight sum         28557      5814     13740      2682      2561      7083      3555      2062     17292     13234     72115     10570      4137
  precision         0.1184    0.1184    0.1184    0.1184    0.1184    0.1184    0.1184    0.1184    0.1184    0.1184    0.1184    0.1184    0.1184

0RawPitch
  mean            204.8389  147.2724  185.3904  190.7376  105.2473  165.1915   37.2727  148.3685   142.425  172.5714   14.0524   28.4232  220.3812
  std. dev.       115.4661  116.8386   95.8388    99.018  103.6816   84.2064   84.7441  125.6143  110.0624  113.2081   51.6498   70.3493   93.3578
  weight sum         28557      5814     13740      2682      2561      7083      3555      2062     17292     13234     72115     10570      4137
  precision         0.1214    0.1214    0.1214    0.1214    0.1214    0.1214    0.1214    0.1214    0.1214    0.1214    0.1214    0.1214    0.1214

0SmPitch
  mean            213.3047  154.4932  188.5286  196.6822  120.0376  170.4162   49.2977  161.5366  153.1279  176.1475   15.5182   42.8322  228.5834
  std. dev.       110.1891  114.0328   89.2681    90.157  104.6493   79.2706   95.9362    131.01  104.4742  107.6301    53.252   83.8804   85.0153
  weight sum         28557      5814     13740      2682      2561      7083      3555      2062     17292     13234     72115     10570      4137
  precision          0.119     0.119     0.119     0.119     0.119     0.119     0.119     0.119     0.119     0.119     0.119     0.119     0.119

0Melogram(st)
  mean             51.2207   41.2442   50.3338   51.7211   36.5638   48.3994   15.0126   33.8636   41.8901   46.4929    5.0368   14.3384   54.0407
  std. dev.        17.1322   24.4436    15.575   13.8647    25.185   16.3496   25.0926   28.4462   23.3773   20.5401   15.7743   23.8734   14.2925
  weight sum         28557      5814     13740      2682      2561      7083      3555      2062     17292     13234     72115     10570      4137
  precision         0.0239    0.0239    0.0239    0.0239    0.0239    0.0239    0.0239    0.0239    0.0239    0.0239    0.0239    0.0239    0.0239

0ZCross
  mean              7.3168    2.4891    5.2522    3.9674    2.0494    3.7306    2.3299    4.2838    2.5002    4.3707    0.2663    3.9467    4.0724
  std. dev.          4.734    2.2391    3.3232     2.323    2.2106    3.2938    4.9682    3.4625    2.1974    3.0828     1.162    7.6555    2.9865
  weight sum         28557      5814     13740      2682      2561      7083      3555      2062     17292     13234     72115     10570      4137
  precision         1.0175    1.0175    1.0175    1.0175    1.0175    1.0175    1.0175    1.0175    1.0175    1.0175    1.0175    1.0175    1.0175

0F1(Hz)
  mean              680.68  370.2872  463.9738  504.5848   380.668  361.4648   113.526  468.6451  401.7327  484.0118   55.2552  179.2811  498.5025
  std. dev.       272.1801  237.6445  146.1336  171.1324  278.7586  144.5804  219.7775  279.2685  236.1371  226.7963  168.6102  272.2007  308.2875
  weight sum         28557      5814     13740      2682      2561      7083      3555      2062     17292     13234     72115     10570      4137
  precision         0.3611    0.3611    0.3611    0.3611    0.3611    0.3611    0.3611    0.3611    0.3611    0.3611    0.3611    0.3611    0.3611

0F2(Hz)
  mean           1440.7973 1302.7636 1786.3109 1448.0724 1161.6312 1973.7484  377.3839 1471.9763 1313.4915 1138.3786  173.0675  583.0802 1052.4199
  std. dev.       457.3774  752.0998  528.1199   392.072  781.5797  671.6296  737.2366  796.9819  714.4786  536.2083  522.6785  849.1129  425.1574
  weight sum         28557      5814     13740      2682      2561      7083      3555      2062     17292     13234     72115     10570      4137
  precision         0.4448    0.4448    0.4448    0.4448    0.4448    0.4448    0.4448    0.4448    0.4448    0.4448    0.4448    0.4448    0.4448

0F3(Hz)
  mean            2651.859 2193.5767 2620.1056 2798.3149 1979.1395 2654.8736  634.7581 2383.7334 2265.3607 2496.9201  295.0862  974.0677 2674.1003
  std. dev.        818.296 1210.8731  787.0306  667.4265 1320.5796  926.0878 1198.1399 1264.2791 1207.4875 1027.3116  876.1293 1405.9163  785.3599
  weight sum         28557      5814     13740      2682      2561      7083      3555      2062     17292     13234     72115     10570      4137
  precision         0.6646    0.6646    0.6646    0.6646    0.6646    0.6646    0.6646    0.6646    0.6646    0.6646    0.6646    0.6646    0.6646

0F4(Hz)
  mean           3076.1686 2635.3487  3156.326 3240.8949 2367.2839 3155.7849   748.882 2624.1464 2607.4217 2872.8522  354.6228 1110.5837 3065.6415
  std. dev.       935.4026 1423.2744  913.7122  749.1185 1544.4726 1058.3659 1418.1093 1378.5193 1373.1509 1164.6509 1050.4882 1600.1344  804.1571
  weight sum         28557      5814     13740      2682      2561      7083      3555      2062     17292     13234     72115     10570      4137
  precision         0.6804    0.6804    0.6804    0.6804    0.6804    0.6804    0.6804    0.6804    0.6804    0.6804    0.6804    0.6804    0.6804

1Int(dB)
  mean             -4.2297  -12.3149   -5.1597   -8.1898   -15.033   -8.6607  -23.4365  -11.5452  -12.8541   -8.1449  -48.0905  -21.0861   -5.0726
  std. dev.         9.5985   10.6245    8.0314     6.778    8.8639    8.3453    10.376    8.2206   10.4125   12.1979   16.3155     6.733    7.5754
  weight sum         28557      5814     13740      2682      2561      7083      3555      2062     17292     13234     72115     10570      4137
  precision         0.1037    0.1037    0.1037    0.1037    0.1037    0.1037    0.1037    0.1037    0.1037    0.1037    0.1037    0.1037    0.1037

1Pitch(Hz)
  mean            215.2062  159.4679   190.258  197.2987  129.9494  173.0302   62.3562  182.7014  157.6467  178.1206    16.961   49.1772  229.3502
  std. dev.       108.6869  111.1515   87.8928   89.0771  107.2999   76.4927  104.0921  121.1126  102.5987   105.326   56.6733   88.5342   84.2123
  weight sum         28557      5814     13740      2682      2561      7083      3555      2062     17292     13234     72115     10570      4137
  precision         0.1184    0.1184    0.1184    0.1184    0.1184    0.1184    0.1184    0.1184    0.1184    0.1184    0.1184    0.1184    0.1184

1RawPitch
  mean            204.7785  147.7852  185.5139  190.6234  104.9895  165.4701   39.8614  148.1788  142.7725   172.363   13.9203     27.74  220.5579
  std. dev.       115.5309  116.6168   95.7233   98.9787   103.475   84.0796   87.5666  125.5965  110.0182  113.1234   51.4522   69.5067   92.9298
  weight sum         28557      5814     13740      2682      2561      7083      3555      2062     17292     13234     72115     10570      4137
  precision         0.1214    0.1214    0.1214    0.1214    0.1214    0.1214    0.1214    0.1214    0.1214    0.1214    0.1214    0.1214    0.1214

1SmPitch
  mean             213.264  154.8892  188.8112  196.7053  119.7549  170.6319   52.0187  161.4211   153.491  175.8934   15.3489   42.1596  228.8462
  std. dev.       110.2131  113.7583   89.0812   90.1193  104.5511   79.0959   98.1392  131.0196  104.4027   107.593   52.9677   83.3562   84.5411
  weight sum         28557      5814     13740      2682      2561      7083      3555      2062     17292     13234     72115     10570      4137
  precision          0.119     0.119     0.119     0.119     0.119     0.119     0.119     0.119     0.119     0.119     0.119     0.119     0.119

1Melogram(st)
  mean             51.2183   41.3724    50.379   51.7505   36.5095   48.4716   15.6069   33.8234   41.9866   46.4586    4.9859   14.1664     54.16
  std. dev.        17.1271   24.3658   15.5007   13.7974   25.2094   16.2405   25.4256   28.4675   23.3239   20.5573   15.7046   23.7903   14.0434
  weight sum         28557      5814     13740      2682      2561      7083      3555      2062     17292     13234     72115     10570      4137
  precision         0.0239    0.0239    0.0239    0.0239    0.0239    0.0239    0.0239    0.0239    0.0239    0.0239    0.0239    0.0239    0.0239

1ZCross
  mean              7.3101     2.508    5.2408    3.9977    2.0498    3.7393    2.3748    4.2784    2.5113    4.3663    0.2635    3.9462    4.0771
  std. dev.         4.7386     2.237    3.3253    2.3251    2.2131    3.2999    4.9618    3.4575    2.1977     3.087    1.1594    7.6582    2.9819
  weight sum         28557      5814     13740      2682      2561      7083      3555      2062     17292     13234     72115     10570      4137
  precision         1.0175    1.0175    1.0175    1.0175    1.0175    1.0175    1.0175    1.0175    1.0175    1.0175    1.0175    1.0175    1.0175

1F1(Hz)
  mean            682.1503  370.4332  465.3474  505.0486  378.3582  362.5437  116.1924  467.6817   401.309  485.0896   54.6953  175.0811  499.8715
  std. dev.        271.133  237.1009  144.1266  171.1736  278.5939  142.9356  221.6545   280.319  235.3747  226.1543  167.7972  269.9877  306.7882
  weight sum         28557      5814     13740      2682      2561      7083      3555      2062     17292     13234     72115     10570      4137
  precision         0.3611    0.3611    0.3611    0.3611    0.3611    0.3611    0.3611    0.3611    0.3611    0.3611    0.3611    0.3611    0.3611

1F2(Hz)
  mean           1442.2136 1303.2526 1793.0334 1448.0931 1159.1061 1983.2786  384.4934 1465.8354 1314.8252  1138.672   171.346  570.8828 1056.4734
  std. dev.       454.4964  750.2659  519.5885  392.9271  783.4471  662.5587  740.6138  799.4944  713.4479  533.7441  520.3678  844.3683  419.7581
  weight sum         28557      5814     13740      2682      2561      7083      3555      2062     17292     13234     72115     10570      4137
  precision         0.4448    0.4448    0.4448    0.4448    0.4448    0.4448    0.4448    0.4448    0.4448    0.4448    0.4448    0.4448    0.4448

1F3(Hz)
  mean           2655.0761 2194.6698 2628.2257 2798.0476 1972.9814 2665.7831  648.3756 2376.2444 2267.5482 2500.7441  292.1102  953.0816 2684.8467
  std. dev.       813.9125 1208.1856  775.3306  669.7534  1322.667  914.1503 1206.4489 1269.0187 1206.1062 1023.7463   872.183 1397.4736  768.1272
  weight sum         28557      5814     13740      2682      2561      7083      3555      2062     17292     13234     72115     10570      4137
  precision         0.6646    0.6646    0.6646    0.6646    0.6646    0.6646    0.6646    0.6646    0.6646    0.6646    0.6646    0.6646    0.6646

1F4(Hz)
  mean           3079.4149 2638.4197  3165.364 3239.8651 2361.3224 3167.5238  766.2866 2617.0327 2610.1057 2876.6923  351.1292 1087.6567 3077.7233
  std. dev.       930.1153 1420.8135  898.8907  751.6295 1547.6942 1043.4405 1429.9774 1384.5147 1371.8413 1160.0433 1045.9775 1592.0178  781.3188
  weight sum         28557      5814     13740      2682      2561      7083      3555      2062     17292     13234     72115     10570      4137
  precision         0.6804    0.6804    0.6804    0.6804    0.6804    0.6804    0.6804    0.6804    0.6804    0.6804    0.6804    0.6804    0.6804

2Int(dB)
  mean              -4.254  -12.2049   -5.1788   -8.1344  -15.0107    -8.647  -23.0454  -11.5529  -12.7927   -8.1757   -48.118  -21.1123   -5.0188
  std. dev.         9.6114   10.5691    8.0296    6.7971     8.868    8.3528   10.3933    8.2207   10.3811   12.2243   16.2753    6.7379    7.4803
  weight sum         28557      5814     13740      2682      2561      7083      3555      2062     17292     13234     72115     10570      4137
  precision         0.1037    0.1037    0.1037    0.1037    0.1037    0.1037    0.1037    0.1037    0.1037    0.1037    0.1037    0.1037    0.1037

2Pitch(Hz)
  mean            215.1081  159.9332  190.4015  197.2811  129.6994  173.2101   65.3742  182.4929  158.1051  177.8211   16.7879   48.6844  229.5826
  std. dev.       108.7696  110.8047   87.7758   89.0991  107.2959   76.2773  105.9656  121.2141   102.468  105.3227   56.4054    88.266   83.7347
  weight sum         28557      5814     13740      2682      2561      7083      3555      2062     17292     13234     72115     10570      4137
  precision         0.1184    0.1184    0.1184    0.1184    0.1184    0.1184    0.1184    0.1184    0.1184    0.1184    0.1184    0.1184    0.1184

2RawPitch
  mean            204.7122  148.2899  185.6605  190.4432    104.69  165.7379   42.5967  147.9941  143.1238  172.1393   13.7657   27.1754  220.7885
  std. dev.       115.5921  116.3341   95.6276   98.9727  103.2429   83.9735   90.3455  125.6089  109.9538  113.0491   51.2115   68.7975   92.5273
  weight sum         28557      5814     13740      2682      2561      7083      3555      2062     17292     13234     72115     10570      4137
  precision         0.1214    0.1214    0.1214    0.1214    0.1214    0.1214    0.1214    0.1214    0.1214    0.1214    0.1214    0.1214    0.1214

2SmPitch
  mean            213.2106  155.3207  189.0092  196.7284  119.5928  170.7795    54.878  161.3075  153.8621  175.6214   15.1795   41.6178  229.0387
  std. dev.       110.2529  113.4664   88.9353   90.0706  104.4955    78.963  100.3263  131.0323  104.3273  107.5646   52.6864   82.9328   84.1352
  weight sum         28557      5814     13740      2682      2561      7083      3555      2062     17292     13234     72115     10570      4137
  precision          0.119     0.119     0.119     0.119     0.119     0.119     0.119     0.119     0.119     0.119     0.119     0.119     0.119

2Melogram(st)
  mean             51.2091    41.496   50.4242   51.7797   36.4608   48.5268   16.2155   33.8146   42.0925   46.3993    4.9363   14.0219   54.2789
  std. dev.        17.1327   24.2847   15.4261   13.7295   25.2383   16.1496   25.7455   28.4871   23.2642   20.5969   15.6359   23.7231   13.7888
  weight sum         28557      5814     13740      2682      2561      7083      3555      2062     17292     13234     72115     10570      4137
  precision         0.0239    0.0239    0.0239    0.0239    0.0239    0.0239    0.0239    0.0239    0.0239    0.0239    0.0239    0.0239    0.0239

2ZCross
  mean              7.3004    2.5306    5.2275    4.0262    2.0522    3.7468    2.4163     4.274    2.5253    4.3624    0.2613    3.9463    4.0827
  std. dev.         4.7448    2.2366     3.329    2.3277    2.2158    3.3104    4.9515    3.4538    2.1995    3.0942     1.158    7.6595    2.9766
  weight sum         28557      5814     13740      2682      2561      7083      3555      2062     17292     13234     72115     10570      4137
  precision         1.0175    1.0175    1.0175    1.0175    1.0175    1.0175    1.0175    1.0175    1.0175    1.0175    1.0175    1.0175    1.0175

2F1(Hz)
  mean            683.5492  370.5749   466.604  505.4969  376.1761  363.6076   119.273  466.9295    400.97   485.985   54.1452  171.1197  501.0702
  std. dev.       270.1486   236.559  142.2478  171.2455  278.4193  141.3453  223.7154  281.1013  234.5833  225.6523   167.001  267.7597  305.5336
  weight sum         28557      5814     13740      2682      2561      7083      3555      2062     17292     13234     72115     10570      4137
  precision         0.3611    0.3611    0.3611    0.3611    0.3611    0.3611    0.3611    0.3611    0.3611    0.3611    0.3611    0.3611    0.3611

2F2(Hz)
  mean           1443.5164 1303.9361 1799.2434  1448.146 1156.6522 1992.3968  392.6864 1460.7123 1316.3119  1138.609  169.6356  559.5041 1060.1575
  std. dev.       451.7609  748.5317  511.5475  393.8005  785.3266  653.6523  744.4085  801.4354  712.2901   531.629  518.0391  839.7476  414.9703
  weight sum         28557      5814     13740      2682      2561      7083      3555      2062     17292     13234     72115     10570      4137
  precision         0.4448    0.4448    0.4448    0.4448    0.4448    0.4448    0.4448    0.4448    0.4448    0.4448    0.4448    0.4448    0.4448

2F3(Hz)
  mean           2658.1212 2195.7732 2635.6414 2797.7777 1966.8613 2676.2267   664.142 2370.3101 2270.1065 2503.6829  289.1632  933.5574 2694.2989
  std. dev.       809.8058 1205.5074   764.297  672.0457 1324.7402   902.456 1215.6316 1272.7594 1204.5273 1021.0061  868.2206 1389.3791   752.613
  weight sum         28557      5814     13740      2682      2561      7083      3555      2062     17292     13234     72115     10570      4137
  precision         0.6646    0.6646    0.6646    0.6646    0.6646    0.6646    0.6646    0.6646    0.6646    0.6646    0.6646    0.6646    0.6646

2F4(Hz)
  mean           3082.4058 2641.4866 3173.7603 3238.8126 2355.3511 3178.8998  786.5555 2611.1612 2613.1847 2879.5448  347.6746 1066.2635 3088.1777
  std. dev.       925.1344 1418.3454  884.9534    754.11 1550.8738 1028.8621 1443.3441 1389.1675 1370.2678 1156.4562 1041.4777 1584.0832  760.6201
  weight sum         28557      5814     13740      2682      2561      7083      3555      2062     17292     13234     72115     10570      4137
  precision         0.6804    0.6804    0.6804    0.6804    0.6804    0.6804    0.6804    0.6804    0.6804    0.6804    0.6804    0.6804    0.6804





=== Stratified cross-validation ===

Correctly Classified Instances       95642               52.1488 %
Incorrectly Classified Instances     87760               47.8512 %
Kappa statistic                          0.3966
K&B Relative Info Score            6925857.1188 %
K&B Information Score               199495.4648 bits      1.0877 bits/instance
Class complexity | order 0          528258.0151 bits      2.8803 bits/instance
Class complexity | scheme          3136063.7912 bits     17.0994 bits/instance
Complexity improvement     (Sf)    -2607805.7761 bits    -14.2191 bits/instance
Mean absolute error                      0.075 
Root mean squared error                  0.2455
Relative absolute error                 61.3734 %
Root relative squared error             99.3384 %
Coverage of cases (0.95 level)          60.941  %
Mean rel. region size (0.95 level)      13.6813 %
Total Number of Instances           183402     


=== Detailed Accuracy By Class ===

                 TP Rate  FP Rate  Precision  Recall   F-Measure  MCC      ROC Area  PRC Area  Class
                 0,456    0,038    0,687      0,456    0,548      0,498    0,886     0,620     a
                 0,004    0,003    0,043      0,004    0,007      0,004    0,725     0,058     b
                 0,604    0,090    0,351      0,604    0,444      0,404    0,869     0,410     e
                 0,503    0,149    0,048      0,503    0,087      0,118    0,813     0,046     d
                 0,044    0,017    0,036      0,044    0,039      0,024    0,730     0,031     f
                 0,393    0,039    0,287      0,393    0,332      0,305    0,864     0,277     i
                 0,087    0,011    0,137      0,087    0,106      0,095    0,834     0,090     k
                 0,086    0,003    0,280      0,086    0,131      0,150    0,745     0,070     j
                 0,055    0,024    0,191      0,055    0,086      0,055    0,750     0,183     l
                 0,002    0,001    0,139      0,002    0,004      0,009    0,781     0,189     o
                 0,891    0,141    0,804      0,891    0,845      0,739    0,950     0,948     0
                 0,234    0,014    0,506      0,234    0,320      0,318    0,889     0,378     s
                 0,446    0,025    0,295      0,446    0,355      0,345    0,875     0,360     u
Weighted Avg.    0,521    0,076    0,533      0,521    0,504      0,448    0,877     0,577     


=== Confusion Matrix ===

     a     b     c     d     e     f     g     h     i     j     k     l     m   <-- classified as
 13012    79  4001  6541   387   567   232   166   607    83  1516   213  1153 |     a = a
   352    23   757  1604   197   964   117    24   206    15  1061   119   375 |     b = b
  1226    81  8303  1732   225   923   180    65   225    14   527   105   134 |     c = e
   273     0   507  1348     1   142     0     0   141     0   100    37   133 |     d = d
   170     0   284   752   113   284    82    10   149     1   645    58    13 |     e = f
   321    71  2822   180   165  2784   137     5   133     1   369    91     4 |     f = i
    36    50   105   169   114   120   309    32   129     5  1939   508    39 |     g = k
   263     1   476   180    81   181    50   177   129     8   340    38   138 |     h = j
   995    74  2036  6879   535  1674   502    11   954    14  2762   436   420 |     i = l
  1372    73  2738  4527   262   113    86    31   637    30  1448   193  1724 |     j = o
   237    37  1064  2622   568  1163   295    33   972    17 64272   579   256 |     k = 0
   288    19   177   747   476   657   209    77   527    16  4877  2471    29 |     l = s
   383    23   366   994    54   120    52     2   185    12    64    36  1846 |     m = u

=== Percent Confusion Matrix ===
a	b	c	d	e	f	g	h	i	j	k	l	m	
45.57	0.28	14.01	22.91	1.36	1.99	0.81	0.58	2.13	0.29	5.31	0.75	4.04	 a = a
6.05	0.4	13.02	27.59	3.39	16.58	2.01	0.41	3.54	0.26	18.25	2.05	6.45	 b = b
8.92	0.59	60.43	12.61	1.64	6.72	1.31	0.47	1.64	0.1	3.84	0.76	0.98	 c = e
10.18	0.0	18.9	50.26	0.04	5.29	0.0	0.0	5.26	0.0	3.73	1.38	4.96	 d = d
6.64	0.0	11.09	29.36	4.41	11.09	3.2	0.39	5.82	0.04	25.19	2.26	0.51	 e = f
4.53	1.0	39.84	2.54	2.33	39.31	1.93	0.07	1.88	0.01	5.21	1.28	0.06	 f = i
1.01	1.41	2.95	4.75	3.21	3.38	8.69	0.9	3.63	0.14	54.54	14.29	1.1	 g = k
12.75	0.05	23.08	8.73	3.93	8.78	2.42	8.58	6.26	0.39	16.49	1.84	6.69	 h = j
5.75	0.43	11.77	39.78	3.09	9.68	2.9	0.06	5.52	0.08	15.97	2.52	2.43	 i = l
10.37	0.55	20.69	34.21	1.98	0.85	0.65	0.23	4.81	0.23	10.94	1.46	13.03	 j = o
0.33	0.05	1.48	3.64	0.79	1.61	0.41	0.05	1.35	0.02	89.12	0.8	0.35	 k = 0
2.72	0.18	1.67	7.07	4.5	6.22	1.98	0.73	4.99	0.15	46.14	23.38	0.27	 l = s
9.26	0.56	8.85	24.03	1.31	2.9	1.26	0.05	4.47	0.29	1.55	0.87	44.62	 m = u
