Timestamp:2014-12-07-10:51:30
Inventario:I1
Intervalo:10ms
Ngramas:3
Clasificador:NaiveBayes
Relation Name:  I1-10ms-3gramas
Num Instances:  18294
Num Attributes: 31

     Name                      Type  Nom  Int Real     Missing      Unique  Dist
   1 0Int(dB)                   Num   0%  10%  90%     0 /  0%     7 /  0%   772 
   2 0Pitch(Hz)                 Num   0%  51%  49%     0 /  0%   816 /  4%  3063 
   3 0RawPitch                  Num   0%  54%  46%     0 /  0%   853 /  5%  2955 
   4 0SmPitch                   Num   0%  52%  48%     0 /  0%   827 /  5%  3024 
   5 0Melogram(st)              Num   0%  47%  53%     0 /  0%   581 /  3%  2807 
   6 0ZCross                    Num   0% 100%   0%     0 /  0%    10 /  0%    42 
   7 0F1(Hz)                    Num   0%  51%  49%     0 /  0%  2131 / 12%  4724 
   8 0F2(Hz)                    Num   0%  51%  49%     0 /  0%  4210 / 23%  6615 
   9 0F3(Hz)                    Num   0%  51%  49%     0 /  0%  3688 / 20%  6145 
  10 0F4(Hz)                    Num   0%  51%  49%     0 /  0%  3689 / 20%  6054 
  11 1Int(dB)                   Num   0%  10%  90%     0 /  0%     7 /  0%   772 
  12 1Pitch(Hz)                 Num   0%  51%  49%     0 /  0%   816 /  4%  3063 
  13 1RawPitch                  Num   0%  54%  46%     0 /  0%   853 /  5%  2955 
  14 1SmPitch                   Num   0%  52%  48%     0 /  0%   827 /  5%  3024 
  15 1Melogram(st)              Num   0%  47%  53%     0 /  0%   581 /  3%  2807 
  16 1ZCross                    Num   0% 100%   0%     0 /  0%    10 /  0%    42 
  17 1F1(Hz)                    Num   0%  51%  49%     0 /  0%  2131 / 12%  4724 
  18 1F2(Hz)                    Num   0%  51%  49%     0 /  0%  4210 / 23%  6615 
  19 1F3(Hz)                    Num   0%  51%  49%     0 /  0%  3688 / 20%  6145 
  20 1F4(Hz)                    Num   0%  51%  49%     0 /  0%  3689 / 20%  6054 
  21 2Int(dB)                   Num   0%  10%  90%     0 /  0%     7 /  0%   772 
  22 2Pitch(Hz)                 Num   0%  51%  49%     0 /  0%   817 /  4%  3064 
  23 2RawPitch                  Num   0%  54%  46%     0 /  0%   854 /  5%  2956 
  24 2SmPitch                   Num   0%  52%  48%     0 /  0%   828 /  5%  3025 
  25 2Melogram(st)              Num   0%  47%  53%     0 /  0%   582 /  3%  2808 
  26 2ZCross                    Num   0% 100%   0%     0 /  0%    10 /  0%    42 
  27 2F1(Hz)                    Num   0%  51%  49%     0 /  0%  2131 / 12%  4724 
  28 2F2(Hz)                    Num   0%  51%  49%     0 /  0%  4210 / 23%  6615 
  29 2F3(Hz)                    Num   0%  51%  49%     0 /  0%  3688 / 20%  6145 
  30 2F4(Hz)                    Num   0%  51%  49%     0 /  0%  3689 / 20%  6054 
  31 class                      Nom 100%   0%   0%     0 /  0%     0 /  0%    13 


Naive Bayes Classifier

                    Class
Attribute               a         b         e         d         f         i         k         j         l         o         0         s         u
                   (0.16)    (0.03)    (0.08)    (0.02)    (0.01)    (0.04)    (0.02)    (0.01)     (0.1)    (0.08)    (0.37)    (0.06)    (0.02)
==================================================================================================================================================
0Int(dB)
  mean             -5.2562  -12.6892   -6.9781   -7.9197   -13.453  -10.5648  -29.0371   -9.9958   -12.268   -9.2289  -48.9829  -18.9987    -7.821
  std. dev.        10.6845   11.7406     9.587    6.6725    9.9848    9.3802   11.7357    8.1479   11.4469   12.1503   15.8892    8.6324   10.4376
  weight sum          2940       594      1438       274       261       748       359       208      1788      1377      6796      1088       423
  precision         0.1005    0.1005    0.1005    0.1005    0.1005    0.1005    0.1005    0.1005    0.1005    0.1005    0.1005    0.1005    0.1005

0Pitch(Hz)
  mean            210.9077  166.9471  179.7817  197.2304  147.5196  161.7269   45.2303  198.2059  160.6384  175.9738   15.5414   89.1838  217.8099
  std. dev.       110.2129  109.8658   93.2543   86.8545  107.4902   84.8365   86.5396  113.3167  102.1983  108.3955   54.3341  105.9803   101.251
  weight sum          2940       594      1438       274       261       748       359       208      1788      1377      6796      1088       423
  precision         0.1626    0.1626    0.1626    0.1626    0.1626    0.1626    0.1626    0.1626    0.1626    0.1626    0.1626    0.1626    0.1626

0RawPitch
  mean            200.2188  153.9342  175.0704  191.0767  125.4184  151.7646   33.1084  170.7467  148.0714  167.5572   12.9568   67.2703  208.6619
  std. dev.       115.2026  113.8843    97.669   95.3647  107.1313   87.9735   78.7427   117.394   107.319  114.1306   49.1179   98.9769  106.1879
  weight sum          2940       594      1438       274       261       748       359       208      1788      1377      6796      1088       423
  precision         0.1679    0.1679    0.1679    0.1679    0.1679    0.1679    0.1679    0.1679    0.1679    0.1679    0.1679    0.1679    0.1679

0SmPitch
  mean            208.5725  163.7838  177.2466  195.7809  139.8605  159.4793   41.5697  182.0344  157.2666  173.3248   13.9203   82.9337  215.6213
  std. dev.       111.9157  111.3474   95.7152    89.259  105.8427   85.9419   84.5613  123.9228  103.8082   110.039   50.3031  104.2147  102.5619
  weight sum          2940       594      1438       274       261       748       359       208      1788      1377      6796      1088       423
  precision         0.1647    0.1647    0.1647    0.1647    0.1647    0.1647    0.1647    0.1647    0.1647    0.1647    0.1647    0.1647    0.1647

0Melogram(st)
  mean             50.4189   43.8398   48.2348   52.1878   41.8303   45.5707   13.8987   40.4791   43.4308   45.7502    4.6135   25.1874   50.2186
  std. dev.        18.0558   22.8015   18.1696   12.6868   22.7672   19.4988   23.9276   26.1363   22.4143   21.3432   15.1924   27.0619   19.9908
  weight sum          2940       594      1438       274       261       748       359       208      1788      1377      6796      1088       423
  precision         0.0294    0.0294    0.0294    0.0294    0.0294    0.0294    0.0294    0.0294    0.0294    0.0294    0.0294    0.0294    0.0294

0ZCross
  mean              6.5747    2.4526     4.777    3.5572    2.4071    3.3008    0.9038    4.3131    2.7762    3.9062    0.2452     3.486    3.5022
  std. dev.         4.6892    2.4563    3.5473    2.1965    2.4072    3.5385      2.67     3.335    2.5274    3.5254    1.2666     6.311    3.0347
  weight sum          2940       594      1438       274       261       748       359       208      1788      1377      6796      1088       423
  precision         1.2927    1.2927    1.2927    1.2927    1.2927    1.2927    1.2927    1.2927    1.2927    1.2927    1.2927    1.2927    1.2927

0F1(Hz)
  mean            637.5745  403.2101  432.7945  496.7666  457.1842    337.77  142.0452  517.6713  445.4676   450.362   53.5772  300.0044  460.9396
  std. dev.       296.9353  236.5419  184.6991  165.6401   256.028  176.2367  234.9469  237.1531   236.879  244.3368  169.3511  300.3646  335.9081
  weight sum          2940       594      1438       274       261       748       359       208      1788      1377      6796      1088       423
  precision         0.3688    0.3688    0.3688    0.3688    0.3688    0.3688    0.3688    0.3688    0.3688    0.3688    0.3688    0.3688    0.3688

0F2(Hz)
  mean           1400.9882  1390.089 1632.6744 1453.0514 1322.7123 1742.2077  488.8921 1669.5818 1378.9653 1117.1452  162.6355  943.7002  979.7948
  std. dev.       529.3561    729.41   673.554  382.9596  699.8891  822.2232  814.8035  649.8485  677.7631  603.6027  507.4221  900.8743  538.5145
  weight sum          2940       594      1438       274       261       748       359       208      1788      1377      6796      1088       423
  precision         0.4504    0.4504    0.4504    0.4504    0.4504    0.4504    0.4504    0.4504    0.4504    0.4504    0.4504    0.4504    0.4504

0F3(Hz)
  mean           2565.6797 2335.5553 2447.1049 2804.1068 2268.6436 2408.7343  804.0563 2651.9452 2378.5124 2373.7752  279.3828 1586.7814 2430.7754
  std. dev.       931.4867  1153.522  996.0136  617.0332  1175.068 1138.7559 1297.4194 1021.5289 1126.6481 1134.1201  854.3516 1490.9632  1089.578
  weight sum          2940       594      1438       274       261       748       359       208      1788      1377      6796      1088       423
  precision         0.6705    0.6705    0.6705    0.6705    0.6705    0.6705    0.6705    0.6705    0.6705    0.6705    0.6705    0.6705    0.6705

0F4(Hz)
  mean           2978.0599  2763.331  2953.752 3256.2582 2681.0905 2889.2593  947.5424  2910.987 2735.5895 2740.1433  336.4594 1812.6325 2777.4425
  std. dev.      1069.8428  1333.663 1176.1247  689.7267 1356.4028 1330.8507 1533.8938 1099.0413 1274.1474 1297.7013 1026.7447 1698.8261 1184.8746
  weight sum          2940       594      1438       274       261       748       359       208      1788      1377      6796      1088       423
  precision         0.6851    0.6851    0.6851    0.6851    0.6851    0.6851    0.6851    0.6851    0.6851    0.6851    0.6851    0.6851    0.6851

1Int(dB)
  mean             -4.6583  -12.9285   -5.9386   -8.3922   -14.457   -9.6878  -26.8144   -10.843  -12.9059    -8.538  -49.4521  -20.0847    -6.523
  std. dev.         9.9884   11.2858    8.7524    6.7514    9.1174    8.9009   10.7849    8.0929   11.0446   12.0283   15.1913    7.6133    9.2325
  weight sum          2940       594      1438       274       261       748       359       208      1788      1377      6796      1088       423
  precision         0.1005    0.1005    0.1005    0.1005    0.1005    0.1005    0.1005    0.1005    0.1005    0.1005    0.1005    0.1005    0.1005

1Pitch(Hz)
  mean            214.2999  164.0251  187.1289  195.7221  141.0758   169.624   50.2563   193.229  158.6824   180.298   13.6898   73.7984  226.0414
  std. dev.       107.3554  110.3131   89.1848   89.0024  107.2369   79.3475   92.1709  115.8584  102.1841  104.9788   51.1501  101.5493   90.8899
  weight sum          2940       594      1438       274       261       748       359       208      1788      1377      6796      1088       423
  precision         0.1626    0.1626    0.1626    0.1626    0.1626    0.1626    0.1626    0.1626    0.1626    0.1626    0.1626    0.1626    0.1626

1RawPitch
  mean            203.4999  151.3042  182.7671  190.1364  118.1042  160.2257   34.9983  163.7352  145.8014  173.1119   11.1138   51.2221  217.7899
  std. dev.        112.824  114.0339   93.8486   97.1465  105.1012   83.7348   81.2069   119.526  107.4094   111.182   45.2383   89.8162   96.3272
  weight sum          2940       594      1438       274       261       748       359       208      1788      1377      6796      1088       423
  precision         0.1679    0.1679    0.1679    0.1679    0.1679    0.1679    0.1679    0.1679    0.1679    0.1679    0.1679    0.1679    0.1679

1SmPitch
  mean            212.0791  160.0578  185.0532  194.9849  133.6333  167.3233   42.6618   176.808  155.1611  177.9648   12.1427   67.1405  225.0495
  std. dev.       109.1565  112.2555    91.154   90.4121  104.9032   80.6951   87.7373   127.148  103.6989  106.8233     46.89   98.3612   91.3186
  weight sum          2940       594      1438       274       261       748       359       208      1788      1377      6796      1088       423
  precision         0.1647    0.1647    0.1647    0.1647    0.1647    0.1647    0.1647    0.1647    0.1647    0.1647    0.1647    0.1647    0.1647

1Melogram(st)
  mean             51.3965   42.9332   50.1673   51.7352   40.1599   47.7876   14.2826   38.3508   42.7693   46.7989    4.1827   21.1461   52.9506
  std. dev.        16.7239   23.4206    15.729   13.4859   23.6891   17.1488   24.3913   27.0326   22.8013   20.3195   14.5496   26.4483   16.4082
  weight sum          2940       594      1438       274       261       748       359       208      1788      1377      6796      1088       423
  precision         0.0294    0.0294    0.0294    0.0294    0.0294    0.0294    0.0294    0.0294    0.0294    0.0294    0.0294    0.0294    0.0294

1ZCross
  mean              6.7426    2.2633    4.8777    3.4959    2.0356    3.3458    1.5951    4.1329    2.4581    4.0104    0.1759    3.6642    3.6091
  std. dev.         4.6066    2.1902    3.2885    2.1909    2.1197    3.3619    3.8849    3.2724    2.2446    3.2415    0.9112    6.8364     2.929
  weight sum          2940       594      1438       274       261       748       359       208      1788      1377      6796      1088       423
  precision         1.2927    1.2927    1.2927    1.2927    1.2927    1.2927    1.2927    1.2927    1.2927    1.2927    1.2927    1.2927    1.2927

1F1(Hz)
  mean            664.8149  387.8062  452.4055   498.733  427.4933  353.4925  127.6663  497.0503  426.5745  474.0843   46.3563  251.0896  482.6221
  std. dev.       276.6469  236.7462  159.6131  169.3003  266.6231  155.8578  228.0776  257.1319  236.4448  229.5879  157.5769  294.8533  319.3509
  weight sum          2940       594      1438       274       261       748       359       208      1788      1377      6796      1088       423
  precision         0.3688    0.3688    0.3688    0.3688    0.3688    0.3688    0.3688    0.3688    0.3688    0.3688    0.3688    0.3688    0.3688

1F2(Hz)
  mean           1438.6375 1355.9289 1730.4304 1445.7075 1255.6134 1886.1841  431.7638 1586.5331 1353.2069 1149.4791  141.6984  798.7645 1027.4385
  std. dev.       474.1145   740.105  583.9406  386.9614  728.5852  727.5947  778.0737  720.2017  692.2601  557.6755  475.9233  897.7998  482.4236
  weight sum          2940       594      1438       274       261       748       359       208      1788      1377      6796      1088       423
  precision         0.4504    0.4504    0.4504    0.4504    0.4504    0.4504    0.4504    0.4504    0.4504    0.4504    0.4504    0.4504    0.4504

1F3(Hz)
  mean           2639.6428 2275.3297 2566.2209 2794.9126 2161.8658 2569.2982  722.0767 2539.5137 2333.2836 2474.5963   243.839 1339.5813 2578.9648
  std. dev.       836.6339 1178.2882  864.4824  636.9647 1236.4745 1001.9819 1259.9164 1137.2988 1158.4901 1047.0894  803.7972  1486.614   937.242
  weight sum          2940       594      1438       274       261       748       359       208      1788      1377      6796      1088       423
  precision         0.6705    0.6705    0.6705    0.6705    0.6705    0.6705    0.6705    0.6705    0.6705    0.6705    0.6705    0.6705    0.6705

1F4(Hz)
  mean           3062.2428  2712.388 3090.2109 3253.5853 2569.1202 3069.7504   839.695 2787.9035 2687.0272 2853.8724  293.9451 1532.2927 2942.8419
  std. dev.        957.834 1372.7244 1010.4123  716.7462  1435.181 1158.3793 1470.5476 1230.8393 1314.7306 1192.6404  966.7807 1697.2616  994.8814
  weight sum          2940       594      1438       274       261       748       359       208      1788      1377      6796      1088       423
  precision         0.6851    0.6851    0.6851    0.6851    0.6851    0.6851    0.6851    0.6851    0.6851    0.6851    0.6851    0.6851    0.6851

2Int(dB)
  mean             -4.4871  -12.4295   -5.4216   -8.4296  -14.8768   -9.1229   -23.807   -11.433  -12.9986   -8.3525  -49.8209  -20.8427   -5.5461
  std. dev.         9.7495   10.5978    8.2134    6.9616    8.5952    8.6417   10.1518    8.1091   10.5213   12.1594    14.616    6.9618    7.9501
  weight sum          2940       594      1438       274       261       748       359       208      1788      1377      6796      1088       423
  precision         0.1005    0.1005    0.1005    0.1005    0.1005    0.1005    0.1005    0.1005    0.1005    0.1005    0.1005    0.1005    0.1005

2Pitch(Hz)
  mean            215.0265  166.0775  190.3918  195.1331  138.4937  173.2212   74.2804   189.521  160.7763  179.1301   11.8136   65.3303  230.9859
  std. dev.       106.7631  107.8218   87.4257   90.1576  106.1938   75.5653  107.7668  117.4738  101.2805   103.979   47.9018   98.1451   83.0165
  weight sum          2940       594      1438       274       261       748       359       208      1788      1377      6796      1088       423
  precision         0.1626    0.1626    0.1626    0.1626    0.1626    0.1626    0.1626    0.1626    0.1626    0.1626    0.1626    0.1626    0.1626

2RawPitch
  mean            204.5729  152.1597  186.9416  189.7645  114.3432  164.8509   52.3656  159.3212   147.628  172.8881    9.4611   41.3002  221.8351
  std. dev.       112.2304   112.921   92.1579   97.5291  102.4081   80.9322   95.3432  120.6807  106.4437  110.0663   41.8753   81.8762   90.5835
  weight sum          2940       594      1438       274       261       748       359       208      1788      1377      6796      1088       423
  precision         0.1679    0.1679    0.1679    0.1679    0.1679    0.1679    0.1679    0.1679    0.1679    0.1679    0.1679    0.1679    0.1679

2SmPitch
  mean            213.0261   161.354  188.8901  194.7762  131.3637   170.918   62.4555  173.1423  157.3569  177.1958    10.224    58.482  230.1655
  std. dev.       108.3889   110.475   88.8533   90.8856  103.6517   77.6434  104.0351  128.2142  102.8844  105.5718   43.0567   93.9293   83.5323
  weight sum          2940       594      1438       274       261       748       359       208      1788      1377      6796      1088       423
  precision         0.1647    0.1647    0.1647    0.1647    0.1647    0.1647    0.1647    0.1647    0.1647    0.1647    0.1647    0.1647    0.1647

2Melogram(st)
  mean             51.7443   43.3262    50.757   51.4874   39.8199   48.7629   19.2437   37.3835   43.1466   46.9889    3.6603   18.9536   54.7081
  std. dev.        16.1385   23.0622   14.7786    13.878   23.9008   15.7624   26.8969   27.4632   22.5915   20.0024   13.7168   25.9113      13.2
  weight sum          2940       594      1438       274       261       748       359       208      1788      1377      6796      1088       423
  precision         0.0294    0.0294    0.0294    0.0294    0.0294    0.0294    0.0294    0.0294    0.0294    0.0294    0.0294    0.0294    0.0294

2ZCross
  mean              6.8081    2.2589    4.8831    3.6374     1.892    3.3285    2.1785    4.0396    2.2904    4.0329    0.1408     3.745     3.713
  std. dev.         4.5857    2.0707    3.1607    2.2054    1.9842    3.1155    4.3479    3.2326    2.0063    2.9611    0.7914    7.1467    2.8728
  weight sum          2940       594      1438       274       261       748       359       208      1788      1377      6796      1088       423
  precision         1.2927    1.2927    1.2927    1.2927    1.2927    1.2927    1.2927    1.2927    1.2927    1.2927    1.2927    1.2927    1.2927

2F1(Hz)
  mean            684.8624  383.8168  467.7497  501.2874  399.7197  366.3373  142.4787  486.1043  413.7109  488.3137   40.0701  209.0603  499.4556
  std. dev.       260.7635  232.2972  137.6849  170.6693  273.4014  136.8258  238.7502   268.092  232.1978  220.1308  146.5336  281.8697   302.477
  weight sum          2940       594      1438       274       261       748       359       208      1788      1377      6796      1088       423
  precision         0.3688    0.3688    0.3688    0.3688    0.3688    0.3688    0.3688    0.3688    0.3688    0.3688    0.3688    0.3688    0.3688

2F2(Hz)
  mean             1462.31 1349.6905 1804.3312 1443.6267 1203.5318 1998.9223  455.5853 1528.4904 1344.3387 1157.6298  123.4876  679.9428 1072.0404
  std. dev.       430.5852  728.3086  496.1344  393.2262  754.0967  624.7892   774.158  755.9826  694.7635  525.4581   446.987    878.69  424.8655
  weight sum          2940       594      1438       274       261       748       359       208      1788      1377      6796      1088       423
  precision         0.4504    0.4504    0.4504    0.4504    0.4504    0.4504    0.4504    0.4504    0.4504    0.4504    0.4504    0.4504    0.4504

2F3(Hz)
  mean           2687.7356 2268.8241 2653.2835 2791.7189 2069.2644 2693.2397  790.4307  2465.751 2319.5551 2526.8298  212.0685 1133.9016 2703.6172
  std. dev.       764.2898 1165.0514  742.6344  658.6982 1282.9054  863.6174 1294.5372  1196.626  1170.449  995.0347   754.286 1449.5509  758.4179
  weight sum          2940       594      1438       274       261       748       359       208      1788      1377      6796      1088       423
  precision         0.6705    0.6705    0.6705    0.6705    0.6705    0.6705    0.6705    0.6705    0.6705    0.6705    0.6705    0.6705    0.6705

2F4(Hz)
  mean           3116.7672 2720.5333 3189.0151 3246.4091 2471.0333 3209.5559  925.0577 2715.8314  2669.269 2910.5036  256.0406 1303.1942 3086.4504
  std. dev.       872.2076 1363.5495  856.4692  742.7362 1495.7988  985.3806 1518.7625 1302.3612 1330.0138 1127.9374  908.4214 1663.3803  766.0819
  weight sum          2940       594      1438       274       261       748       359       208      1788      1377      6796      1088       423
  precision         0.6851    0.6851    0.6851    0.6851    0.6851    0.6851    0.6851    0.6851    0.6851    0.6851    0.6851    0.6851    0.6851





=== Stratified cross-validation ===

Correctly Classified Instances        8936               48.8466 %
Incorrectly Classified Instances      9358               51.1534 %
Kappa statistic                          0.3721
K&B Relative Info Score             644608.9807 %
K&B Information Score                18906.0744 bits      1.0335 bits/instance
Class complexity | order 0           53632.982  bits      2.9317 bits/instance
Class complexity | scheme           300733.4695 bits     16.4389 bits/instance
Complexity improvement     (Sf)    -247100.4875 bits    -13.5072 bits/instance
Mean absolute error                      0.0791
Root mean squared error                  0.2568
Relative absolute error                 63.671  %
Root relative squared error            103.068  %
Coverage of cases (0.95 level)          59.1669 %
Mean rel. region size (0.95 level)      13.2986 %
Total Number of Instances            18294     


=== Detailed Accuracy By Class ===

                 TP Rate  FP Rate  Precision  Recall   F-Measure  MCC      ROC Area  PRC Area  Class
                 0,449    0,053    0,618      0,449    0,520      0,453    0,865     0,590     a
                 0,002    0,003    0,017      0,002    0,003      -0,005   0,715     0,056     b
                 0,338    0,044    0,397      0,338    0,365      0,317    0,843     0,353     e
                 0,712    0,240    0,043      0,712    0,081      0,133    0,817     0,054     d
                 0,015    0,009    0,025      0,015    0,019      0,009    0,727     0,029     f
                 0,295    0,028    0,310      0,295    0,303      0,274    0,856     0,266     i
                 0,206    0,027    0,133      0,206    0,162      0,145    0,836     0,096     k
                 0,082    0,001    0,405      0,082    0,136      0,178    0,779     0,112     j
                 0,050    0,028    0,165      0,050    0,077      0,039    0,724     0,167     l
                 0,009    0,003    0,218      0,009    0,017      0,030    0,764     0,180     o
                 0,907    0,104    0,837      0,907    0,871      0,791    0,960     0,955     0
                 0,229    0,025    0,366      0,229    0,282      0,255    0,837     0,313     s
                 0,243    0,007    0,440      0,243    0,314      0,316    0,854     0,249     u
Weighted Avg.    0,488    0,061    0,527      0,488    0,487      0,438    0,866     0,549     


=== Confusion Matrix ===

    a    b    c    d    e    f    g    h    i    j    k    l    m   <-- classified as
 1320    8  188  962   22   55   77    7   83   27  112   46   33 |    a = a
   47    1   19  272   12   71   27    1   27    1   78   26   12 |    b = b
  173   16  486  493   11   87   49    2   28    8   49   23   13 |    c = e
   37    0   10  195    0    5    0    0   11    0    7    9    0 |    d = d
   19    2   13  123    4   12   11    1   16    0   43   17    0 |    e = f
   44    6  218  130    4  221   39    0   25    2   32   25    2 |    f = i
    6    3    4   21    6   11   74    0   16    2  171   43    2 |    g = k
   38    1   29   51    4   17    2   17   14    0   20   14    1 |    h = j
  140    5  103  952   25   78   79    2   90    2  227   77    8 |    i = l
  190    9   99  703   22   27   33    1   63   12  129   35   54 |    j = o
   16    1   27  264   20   69   32    3   83    0 6164  112    5 |    k = 0
   52    2   22  171   29   52  112    7   68    0  323  249    1 |    l = s
   53    5    7  189    1    8   20    1   23    1    8    4  103 |    m = u

=== Percent Confusion Matrix ===
a	b	c	d	e	f	g	h	i	j	k	l	m	
44.9	0.27	6.39	32.72	0.75	1.87	2.62	0.24	2.82	0.92	3.81	1.56	1.12	 a = a
7.91	0.17	3.2	45.79	2.02	11.95	4.55	0.17	4.55	0.17	13.13	4.38	2.02	 b = b
12.03	1.11	33.8	34.28	0.76	6.05	3.41	0.14	1.95	0.56	3.41	1.6	0.9	 c = e
13.5	0.0	3.65	71.17	0.0	1.82	0.0	0.0	4.01	0.0	2.55	3.28	0.0	 d = d
7.28	0.77	4.98	47.13	1.53	4.6	4.21	0.38	6.13	0.0	16.48	6.51	0.0	 e = f
5.88	0.8	29.14	17.38	0.53	29.55	5.21	0.0	3.34	0.27	4.28	3.34	0.27	 f = i
1.67	0.84	1.11	5.85	1.67	3.06	20.61	0.0	4.46	0.56	47.63	11.98	0.56	 g = k
18.27	0.48	13.94	24.52	1.92	8.17	0.96	8.17	6.73	0.0	9.62	6.73	0.48	 h = j
7.83	0.28	5.76	53.24	1.4	4.36	4.42	0.11	5.03	0.11	12.7	4.31	0.45	 i = l
13.8	0.65	7.19	51.05	1.6	1.96	2.4	0.07	4.58	0.87	9.37	2.54	3.92	 j = o
0.24	0.01	0.4	3.88	0.29	1.02	0.47	0.04	1.22	0.0	90.7	1.65	0.07	 k = 0
4.78	0.18	2.02	15.72	2.67	4.78	10.29	0.64	6.25	0.0	29.69	22.89	0.09	 l = s
12.53	1.18	1.65	44.68	0.24	1.89	4.73	0.24	5.44	0.24	1.89	0.95	24.35	 m = u
