Timestamp:2014-12-07-10:51:55
Inventario:I1
Intervalo:15ms
Ngramas:2
Clasificador:NaiveBayes
Relation Name:  I1-15ms-2gramas
Num Instances:  12188
Num Attributes: 21

     Name                      Type  Nom  Int Real     Missing      Unique  Dist
   1 0Int(dB)                   Num   0%  10%  90%     0 /  0%    10 /  0%   768 
   2 0Pitch(Hz)                 Num   0%  50%  50%     0 /  0%   940 /  8%  2714 
   3 0RawPitch                  Num   0%  53%  47%     0 /  0%   980 /  8%  2609 
   4 0SmPitch                   Num   0%  51%  49%     0 /  0%   957 /  8%  2691 
   5 0Melogram(st)              Num   0%  46%  54%     0 /  0%   837 /  7%  2573 
   6 0ZCross                    Num   0% 100%   0%     0 /  0%    10 /  0%    40 
   7 0F1(Hz)                    Num   0%  50%  50%     0 /  0%  2281 / 19%  3977 
   8 0F2(Hz)                    Num   0%  50%  50%     0 /  0%  3848 / 32%  5158 
   9 0F3(Hz)                    Num   0%  50%  50%     0 /  0%  3419 / 28%  4850 
  10 0F4(Hz)                    Num   0%  50%  50%     0 /  0%  3319 / 27%  4764 
  11 1Int(dB)                   Num   0%  10%  90%     0 /  0%    10 /  0%   768 
  12 1Pitch(Hz)                 Num   0%  50%  50%     0 /  0%   941 /  8%  2715 
  13 1RawPitch                  Num   0%  53%  47%     0 /  0%   979 /  8%  2609 
  14 1SmPitch                   Num   0%  51%  49%     0 /  0%   957 /  8%  2691 
  15 1Melogram(st)              Num   0%  46%  54%     0 /  0%   838 /  7%  2574 
  16 1ZCross                    Num   0% 100%   0%     0 /  0%    10 /  0%    40 
  17 1F1(Hz)                    Num   0%  50%  50%     0 /  0%  2281 / 19%  3977 
  18 1F2(Hz)                    Num   0%  50%  50%     0 /  0%  3848 / 32%  5158 
  19 1F3(Hz)                    Num   0%  50%  50%     0 /  0%  3419 / 28%  4850 
  20 1F4(Hz)                    Num   0%  50%  50%     0 /  0%  3319 / 27%  4764 
  21 class                      Nom 100%   0%   0%     0 /  0%     0 /  0%    13 


Naive Bayes Classifier

                    Class
Attribute               a         b         e         d         f         i         k         j         l         o         0         s         u
                   (0.16)    (0.03)    (0.08)    (0.01)    (0.01)    (0.04)    (0.02)    (0.01)     (0.1)    (0.08)    (0.36)    (0.06)    (0.02)
==================================================================================================================================================
0Int(dB)
  mean             -5.1539  -12.6599   -6.5035   -8.0119  -13.4875  -10.0663  -27.9776  -10.3348  -12.4121   -8.9829  -50.0118   -19.422   -7.1056
  std. dev.        10.4855   11.4853    9.1484    6.7561    9.7297    8.7445   11.1086    7.8285   11.1588   12.0392   14.6113    8.3375    9.4113
  weight sum          1989       399       971       182       177       503       237       138      1216       940      4417       734       285
  precision         0.1005    0.1005    0.1005    0.1005    0.1005    0.1005    0.1005    0.1005    0.1005    0.1005    0.1005    0.1005    0.1005

0Pitch(Hz)
  mean            211.6164   169.157  183.4717  194.5985   151.416  170.1872   54.5724  200.3096  163.0522  178.6603   12.1245   87.4997   222.874
  std. dev.       108.5356  107.9278   90.6248   87.0546  107.3372    80.118   96.3726  108.1536  100.0747  105.9497    48.346  105.5074   96.7144
  weight sum          1989       399       971       182       177       503       237       138      1216       940      4417       734       285
  precision         0.1828    0.1828    0.1828    0.1828    0.1828    0.1828    0.1828    0.1828    0.1828    0.1828    0.1828    0.1828    0.1828

0RawPitch
  mean            201.8512  156.3794  179.2232  189.0935  126.9095  160.6735   39.5096  171.5768  149.7129  170.2865    9.8324   67.6261  214.8787
  std. dev.       112.7474  112.6669   94.3626   94.4871  104.8815   84.5436   84.3002  112.0719  106.3379  111.2599   42.7162   98.8623  100.3251
  weight sum          1989       399       971       182       177       503       237       138      1216       940      4417       734       285
  precision           0.19      0.19      0.19      0.19      0.19      0.19      0.19      0.19      0.19      0.19      0.19      0.19      0.19

0SmPitch
  mean            209.8362  166.7235  181.7709    193.94  140.8054  167.6412   45.6176  180.6449  157.7592  176.3381   10.5802   81.5026  222.2202
  std. dev.       109.8749  110.0496   92.0323   88.2607    105.09   82.3894    88.932  120.2434  102.7047  107.6496   43.6586  103.5428    96.345
  weight sum          1989       399       971       182       177       503       237       138      1216       940      4417       734       285
  precision         0.1841    0.1841    0.1841    0.1841    0.1841    0.1841    0.1841    0.1841    0.1841    0.1841    0.1841    0.1841    0.1841

0Melogram(st)
  mean              50.884   44.1038    49.433   51.8812   42.1057   47.5936   14.8746   40.4552   43.8201    46.689    3.8382   24.7338   51.8876
  std. dev.        17.3482   22.6152   16.6562   13.0394   22.5058    17.453   24.6697    26.043   22.0426   20.4728   13.9973   27.0164   18.0236
  weight sum          1989       399       971       182       177       503       237       138      1216       940      4417       734       285
  precision         0.0321    0.0321    0.0321    0.0321    0.0321    0.0321    0.0321    0.0321    0.0321    0.0321    0.0321    0.0321    0.0321

0ZCross
  mean              6.5278    2.5119      4.81    3.7075     2.392    3.4699    1.0979    4.2984    2.7591    4.0255    0.1445     3.515    3.6946
  std. dev.         4.5495    2.4124    3.2495    2.1562    2.3218    3.3736    2.7766    3.1753    2.4051    3.4165    0.8058    6.2894    3.0049
  weight sum          1989       399       971       182       177       503       237       138      1216       940      4417       734       285
  precision         1.1026    1.1026    1.1026    1.1026    1.1026    1.1026    1.1026    1.1026    1.1026    1.1026    1.1026    1.1026    1.1026

0F1(Hz)
  mean            646.5551  407.9579  448.7867  496.8996   455.282  347.8788  140.3908  530.5918  441.1747  460.8448   44.4946  295.9167  479.4518
  std. dev.       288.6109  229.4716  167.2097  161.9561   257.875  165.9413  234.5799  234.8762  231.8044  237.0895  156.5552  300.4659  324.8579
  weight sum          1989       399       971       182       177       503       237       138      1216       940      4417       734       285
  precision          0.438     0.438     0.438     0.438     0.438     0.438     0.438     0.438     0.438     0.438     0.438     0.438     0.438

0F2(Hz)
  mean           1415.1431 1414.0003 1697.5367 1453.6687 1319.8463  1816.924  488.2649 1685.2956 1386.8572 1136.7816  133.6062  935.5638 1012.0156
  std. dev.       509.9497  704.2441  606.8332  367.5538  697.8781  769.2522  818.5231  625.2818  672.6677   583.467  464.3597  904.4936  498.3854
  weight sum          1989       399       971       182       177       503       237       138      1216       940      4417       734       285
  precision         0.5776    0.5776    0.5776    0.5776    0.5776    0.5776    0.5776    0.5776    0.5776    0.5776    0.5776    0.5776    0.5776

0F3(Hz)
  mean           2589.7585 2386.6296 2529.5236 2793.2433  2267.597 2497.6197  807.6565 2687.4702 2387.7719 2424.0221  231.1113 1578.4534 2541.1097
  std. dev.       897.5737 1113.8644  892.9521  599.9523 1184.2012 1063.4499 1312.7141  983.5877 1117.6839 1093.5808  786.3537 1503.9955  990.0091
  weight sum          1989       399       971       182       177       503       237       138      1216       940      4417       734       285
  precision         0.8494    0.8494    0.8494    0.8494    0.8494    0.8494    0.8494    0.8494    0.8494    0.8494    0.8494    0.8494    0.8494

0F4(Hz)
  mean           3011.8957 2816.2806 3071.5364 3271.8573  2669.134 2991.7043   924.148 2948.2644 2745.0585 2797.3211   277.447 1784.0486 2890.5441
  std. dev.      1031.5735 1281.9024 1053.8859  673.6241 1361.3599 1236.9689 1510.5341 1056.4644 1263.8789  1248.566  942.3686 1695.0136 1057.0684
  weight sum          1989       399       971       182       177       503       237       138      1216       940      4417       734       285
  precision         0.8707    0.8707    0.8707    0.8707    0.8707    0.8707    0.8707    0.8707    0.8707    0.8707    0.8707    0.8707    0.8707

1Int(dB)
  mean             -4.6544  -12.4692   -5.5049   -8.3797  -14.3263   -9.1576  -24.1574  -11.2999   -12.944   -8.3852  -50.5579  -20.8081   -5.5692
  std. dev.         9.8223    10.584    8.2833    6.9795    8.9225    8.3719    9.7036    7.9816   10.4277   12.0282   13.7499    7.1395    7.6498
  weight sum          1989       399       971       182       177       503       237       138      1216       940      4417       734       285
  precision         0.1005    0.1005    0.1005    0.1005    0.1005    0.1005    0.1005    0.1005    0.1005    0.1005    0.1005    0.1005    0.1005

1Pitch(Hz)
  mean             214.311  169.0755  189.9846  193.7345   145.764  175.8084   81.2941  193.2924  164.0239  180.3637    9.3571    72.049  231.3108
  std. dev.       106.3793  105.9927   87.3032   88.2964  105.9069   73.8088  112.1046  112.2145   99.0431  102.9621    43.029  100.6337   84.4017
  weight sum          1989       399       971       182       177       503       237       138      1216       940      4417       734       285
  precision         0.1828    0.1828    0.1828    0.1828    0.1828    0.1828    0.1828    0.1828    0.1828    0.1828    0.1828    0.1828    0.1828

1RawPitch
  mean            204.6048   155.219  186.8578  188.6822  119.8712  168.3408   54.0652  163.1869  150.4952  174.1912    7.3672   50.0984  222.5963
  std. dev.       110.9966  111.9695   91.2535   95.9007  101.1981   79.5481   95.1492  113.8058  105.2885  108.1025   36.8732   87.9211   90.9444
  weight sum          1989       399       971       182       177       503       237       138      1216       940      4417       734       285
  precision           0.19      0.19      0.19      0.19      0.19      0.19      0.19      0.19      0.19      0.19      0.19      0.19      0.19

1SmPitch
  mean            212.5582  164.9116  188.6266  192.9144  135.2172  174.1996   69.0467  174.2298  158.9159  178.2642    8.0627   64.6148  230.9021
  std. dev.       107.6671  109.5012   88.6539   89.8451  102.9917   75.9109  106.8168  123.5109  101.6767  104.6347   38.1417   96.5376   84.0603
  weight sum          1989       399       971       182       177       503       237       138      1216       940      4417       734       285
  precision         0.1841    0.1841    0.1841    0.1841    0.1841    0.1841    0.1841    0.1841    0.1841    0.1841    0.1841    0.1841    0.1841

1Melogram(st)
  mean             51.7631   44.2448   50.9897   51.2049   40.8426    49.433   20.3758   38.6135   43.6284   47.3663    3.0759   20.9705   54.7393
  std. dev.         15.996   22.4965   14.4101    14.175   23.1702   14.7392   27.2261   26.9882   22.2052   19.6193   12.6713   26.5014   13.2895
  weight sum          1989       399       971       182       177       503       237       138      1216       940      4417       734       285
  precision         0.0321    0.0321    0.0321    0.0321    0.0321    0.0321    0.0321    0.0321    0.0321    0.0321    0.0321    0.0321    0.0321

1ZCross
  mean              6.6459    2.3765    4.8701    3.7378    2.1179    3.5072    2.0097    4.1146      2.42    4.0889    0.1006    3.6457    3.8532
  std. dev.         4.4895    2.1579    2.9907    2.1488    2.1208    3.0758    3.8238    3.1341    2.0459     2.998      0.68    6.8152    2.8492
  weight sum          1989       399       971       182       177       503       237       138      1216       940      4417       734       285
  precision         1.1026    1.1026    1.1026    1.1026    1.1026    1.1026    1.1026    1.1026    1.1026    1.1026    1.1026    1.1026    1.1026

1F1(Hz)
  mean            680.2157  391.9946  469.1052  501.1355  420.1259  370.0223  149.0756  512.7342  419.6976  487.7924   34.4817  230.8844  504.5577
  std. dev.       263.0262  227.7233  136.7924  166.0339  268.8685  133.9826  241.1664  254.1979  227.0331   218.941  138.1328  288.0245   299.786
  weight sum          1989       399       971       182       177       503       237       138      1216       940      4417       734       285
  precision          0.438     0.438     0.438     0.438     0.438     0.438     0.438     0.438     0.438     0.438     0.438     0.438     0.438

1F2(Hz)
  mean           1457.3331 1374.8709 1803.6497 1443.3798 1256.0162 2010.9745  492.3714 1597.3744 1366.5428 1164.8777  104.1698   752.285 1075.9553
  std. dev.       439.9568  707.8796  490.0179  376.3503  726.8151  600.2718  805.2505  696.4687  682.2074   526.346   412.975  896.0285   411.661
  weight sum          1989       399       971       182       177       503       237       138      1216       940      4417       734       285
  precision         0.5776    0.5776    0.5776    0.5776    0.5776    0.5776    0.5776    0.5776    0.5776    0.5776    0.5776    0.5776    0.5776

1F3(Hz)
  mean            2676.475 2325.0319 2651.8402 2787.5447 2156.9356 2714.2403  831.7238 2576.0221  2351.715 2529.7403  180.9842 1261.1104 2728.7599
  std. dev.       781.3816 1133.6314  731.0473  632.9234 1243.2456  831.8369 1309.4045 1097.9216 1143.7696  990.6689  703.2706 1486.1393   731.591
  weight sum          1989       399       971       182       177       503       237       138      1216       940      4417       734       285
  precision         0.8494    0.8494    0.8494    0.8494    0.8494    0.8494    0.8494    0.8494    0.8494    0.8494    0.8494    0.8494    0.8494

1F4(Hz)
  mean            3105.401 2772.6162 3206.8695 3262.7057 2560.0986 3233.1412  980.7342 2839.3045 2707.7342 2916.3463  217.2523 1430.7891 3100.5588
  std. dev.       892.4908 1317.5612  845.6004  714.9786 1438.2149  946.7373 1549.9003 1192.4973 1299.2549 1123.3047  842.5928 1682.7208  725.9921
  weight sum          1989       399       971       182       177       503       237       138      1216       940      4417       734       285
  precision         0.8707    0.8707    0.8707    0.8707    0.8707    0.8707    0.8707    0.8707    0.8707    0.8707    0.8707    0.8707    0.8707





=== Stratified cross-validation ===

Correctly Classified Instances        6169               50.6154 %
Incorrectly Classified Instances      6019               49.3846 %
Kappa statistic                          0.3942
K&B Relative Info Score             460661.9773 %
K&B Information Score                13600.2595 bits      1.1159 bits/instance
Class complexity | order 0           35957.1789 bits      2.9502 bits/instance
Class complexity | scheme           143141.2962 bits     11.7444 bits/instance
Complexity improvement     (Sf)    -107184.1173 bits     -8.7942 bits/instance
Mean absolute error                      0.0781
Root mean squared error                  0.2406
Relative absolute error                 62.5501 %
Root relative squared error             96.2815 %
Coverage of cases (0.95 level)          65.6629 %
Mean rel. region size (0.95 level)      17.67   %
Total Number of Instances            12188     


=== Detailed Accuracy By Class ===

                 TP Rate  FP Rate  Precision  Recall   F-Measure  MCC      ROC Area  PRC Area  Class
                 0,468    0,057    0,614      0,468    0,531      0,460    0,862     0,587     a
                 0,000    0,000    0,000      0,000    0,000      -0,004   0,718     0,056     b
                 0,504    0,076    0,365      0,504    0,424      0,371    0,847     0,368     e
                 0,604    0,187    0,047      0,604    0,087      0,128    0,810     0,053     d
                 0,006    0,001    0,077      0,006    0,011      0,017    0,728     0,031     f
                 0,326    0,032    0,305      0,326    0,315      0,285    0,862     0,285     i
                 0,207    0,025    0,141      0,207    0,168      0,151    0,836     0,094     k
                 0,058    0,001    0,444      0,058    0,103      0,157    0,783     0,092     j
                 0,072    0,041    0,163      0,072    0,099      0,045    0,732     0,174     l
                 0,010    0,003    0,231      0,010    0,018      0,033    0,765     0,185     o
                 0,920    0,096    0,845      0,920    0,881      0,810    0,969     0,963     0
                 0,244    0,027    0,366      0,244    0,293      0,263    0,820     0,315     s
                 0,274    0,009    0,426      0,274    0,333      0,329    0,857     0,276     u
Weighted Avg.    0,506    0,061    0,524      0,506    0,495      0,447    0,868     0,549     


=== Confusion Matrix ===

    a    b    c    d    e    f    g    h    i    j    k    l    m   <-- classified as
  931    0  227  524    4   30   43    3   74   18   80   38   17 |    a = a
   33    0   50  135    1   58   22    1   26    1   43   19   10 |    b = b
  119    1  489  182    0   60   28    0   38    4   29   16    5 |    c = e
   26    0   19  110    0    5    0    0   12    0    6    3    1 |    d = d
   15    1   15   69    1   12   10    0   19    0   22   13    0 |    e = f
   29    2  197   36    0  164   24    0   19    0   18   13    1 |    f = i
    3    0    6   11    0   11   49    1   15    3  104   33    1 |    g = k
   28    0   28   25    0   10    1    8   17    0   10   10    1 |    h = j
  109    0  135  535    0   78   51    0   87    0  139   67   15 |    i = l
  130    1  107  427    1   16   23    0   70    9   84   24   48 |    j = o
   10    0   16  110    5   47   22    0   67    1 4064   70    5 |    k = 0
   46    0   30   92    1   42   60    5   68    0  210  179    1 |    l = s
   37    0   19  101    0    4   14    0   22    3    3    4   78 |    m = u

=== Percent Confusion Matrix ===
a	b	c	d	e	f	g	h	i	j	k	l	m	
46.81	0.0	11.41	26.34	0.2	1.51	2.16	0.15	3.72	0.9	4.02	1.91	0.85	 a = a
8.27	0.0	12.53	33.83	0.25	14.54	5.51	0.25	6.52	0.25	10.78	4.76	2.51	 b = b
12.26	0.1	50.36	18.74	0.0	6.18	2.88	0.0	3.91	0.41	2.99	1.65	0.51	 c = e
14.29	0.0	10.44	60.44	0.0	2.75	0.0	0.0	6.59	0.0	3.3	1.65	0.55	 d = d
8.47	0.56	8.47	38.98	0.56	6.78	5.65	0.0	10.73	0.0	12.43	7.34	0.0	 e = f
5.77	0.4	39.17	7.16	0.0	32.6	4.77	0.0	3.78	0.0	3.58	2.58	0.2	 f = i
1.27	0.0	2.53	4.64	0.0	4.64	20.68	0.42	6.33	1.27	43.88	13.92	0.42	 g = k
20.29	0.0	20.29	18.12	0.0	7.25	0.72	5.8	12.32	0.0	7.25	7.25	0.72	 h = j
8.96	0.0	11.1	44.0	0.0	6.41	4.19	0.0	7.15	0.0	11.43	5.51	1.23	 i = l
13.83	0.11	11.38	45.43	0.11	1.7	2.45	0.0	7.45	0.96	8.94	2.55	5.11	 j = o
0.23	0.0	0.36	2.49	0.11	1.06	0.5	0.0	1.52	0.02	92.01	1.58	0.11	 k = 0
6.27	0.0	4.09	12.53	0.14	5.72	8.17	0.68	9.26	0.0	28.61	24.39	0.14	 l = s
12.98	0.0	6.67	35.44	0.0	1.4	4.91	0.0	7.72	1.05	1.05	1.4	27.37	 m = u
