Timestamp:2014-12-07-10:43:31
Inventario:I1
Intervalo:1ms
Ngramas:2
Clasificador:NaiveBayes
Relation Name:  I1-1ms-2gramas
Num Instances:  183403
Num Attributes: 21

     Name                      Type  Nom  Int Real     Missing      Unique  Dist
   1 0Int(dB)                   Num   0%   9%  91%     0 /  0%     4 /  0%   781 
   2 0Pitch(Hz)                 Num   0%  51%  49%     0 /  0%   256 /  0%  4213 
   3 0RawPitch                  Num   0%  55%  45%     0 /  0%   417 /  0%  4119 
   4 0SmPitch                   Num   0%  53%  47%     0 /  0%   263 /  0%  4193 
   5 0Melogram(st)              Num   0%  49%  51%     0 /  0%   133 /  0%  3454 
   6 0ZCross                    Num   0% 100%   0%     0 /  0%     4 /  0%    58 
   7 0F1(Hz)                    Num   0%  52%  48%     0 /  0%  1154 /  1%  4824 
   8 0F2(Hz)                    Num   0%  52%  48%     0 /  0%  2223 /  1%  6697 
   9 0F3(Hz)                    Num   0%  53%  47%     0 /  0%  1930 /  1%  6200 
  10 0F4(Hz)                    Num   0%  52%  48%     0 /  0%  1933 /  1%  6096 
  11 1Int(dB)                   Num   0%   9%  91%     0 /  0%     3 /  0%   781 
  12 1Pitch(Hz)                 Num   0%  51%  49%     0 /  0%   256 /  0%  4213 
  13 1RawPitch                  Num   0%  55%  45%     0 /  0%   417 /  0%  4119 
  14 1SmPitch                   Num   0%  53%  47%     0 /  0%   263 /  0%  4193 
  15 1Melogram(st)              Num   0%  49%  51%     0 /  0%   133 /  0%  3454 
  16 1ZCross                    Num   0% 100%   0%     0 /  0%     4 /  0%    58 
  17 1F1(Hz)                    Num   0%  52%  48%     0 /  0%  1154 /  1%  4824 
  18 1F2(Hz)                    Num   0%  52%  48%     0 /  0%  2223 /  1%  6697 
  19 1F3(Hz)                    Num   0%  53%  47%     0 /  0%  1930 /  1%  6200 
  20 1F4(Hz)                    Num   0%  52%  48%     0 /  0%  1933 /  1%  6096 
  21 class                      Nom 100%   0%   0%     0 /  0%     0 /  0%    13 


Naive Bayes Classifier

                    Class
Attribute               a         b         e         d         f         i         k         j         l         o         0         s         u
                   (0.16)    (0.03)    (0.07)    (0.01)    (0.01)    (0.04)    (0.02)    (0.01)    (0.09)    (0.07)    (0.39)    (0.06)    (0.02)
==================================================================================================================================================
0Int(dB)
  mean             -4.2297  -12.3149   -5.1597   -8.1898   -15.033   -8.6607  -23.4365  -11.5452  -12.8541   -8.1449  -48.0905  -21.0861   -5.0726
  std. dev.         9.5985   10.6245    8.0314     6.778    8.8639    8.3453    10.376    8.2206   10.4125   12.1979   16.3154     6.733    7.5754
  weight sum         28557      5814     13740      2682      2561      7083      3555      2062     17292     13234     72116     10570      4137
  precision         0.1037    0.1037    0.1037    0.1037    0.1037    0.1037    0.1037    0.1037    0.1037    0.1037    0.1037    0.1037    0.1037

0Pitch(Hz)
  mean            215.2062  159.4679   190.258  197.2987  129.9494  173.0302   62.3562  182.7014  157.6467  178.1206   16.9607   49.1772  229.3502
  std. dev.       108.6869  111.1515   87.8928   89.0771  107.2999   76.4927  104.0921  121.1126  102.5987   105.326    56.673   88.5342   84.2123
  weight sum         28557      5814     13740      2682      2561      7083      3555      2062     17292     13234     72116     10570      4137
  precision         0.1184    0.1184    0.1184    0.1184    0.1184    0.1184    0.1184    0.1184    0.1184    0.1184    0.1184    0.1184    0.1184

0RawPitch
  mean            204.7785  147.7852  185.5139  190.6234  104.9895  165.4701   39.8614  148.1788  142.7725   172.363   13.9201     27.74  220.5579
  std. dev.       115.5309  116.6168   95.7233   98.9787   103.475   84.0796   87.5666  125.5965  110.0182  113.1234   51.4519   69.5067   92.9298
  weight sum         28557      5814     13740      2682      2561      7083      3555      2062     17292     13234     72116     10570      4137
  precision         0.1214    0.1214    0.1214    0.1214    0.1214    0.1214    0.1214    0.1214    0.1214    0.1214    0.1214    0.1214    0.1214

0SmPitch
  mean             213.264  154.8892  188.8112  196.7053  119.7549  170.6319   52.0187  161.4211   153.491  175.8934   15.3486   42.1596  228.8462
  std. dev.       110.2131  113.7583   89.0812   90.1193  104.5511   79.0959   98.1392  131.0196  104.4027   107.593   52.9674   83.3562   84.5411
  weight sum         28557      5814     13740      2682      2561      7083      3555      2062     17292     13234     72116     10570      4137
  precision          0.119     0.119     0.119     0.119     0.119     0.119     0.119     0.119     0.119     0.119     0.119     0.119     0.119

0Melogram(st)
  mean             51.2183   41.3724    50.379   51.7505   36.5095   48.4716   15.6069   33.8234   41.9866   46.4586    4.9859   14.1664     54.16
  std. dev.        17.1271   24.3658   15.5007   13.7974   25.2094   16.2405   25.4256   28.4675   23.3239   20.5573   15.7045   23.7903   14.0434
  weight sum         28557      5814     13740      2682      2561      7083      3555      2062     17292     13234     72116     10570      4137
  precision         0.0239    0.0239    0.0239    0.0239    0.0239    0.0239    0.0239    0.0239    0.0239    0.0239    0.0239    0.0239    0.0239

0ZCross
  mean              7.3101     2.508    5.2408    3.9977    2.0498    3.7393    2.3748    4.2784    2.5113    4.3663    0.2635    3.9462    4.0771
  std. dev.         4.7386     2.237    3.3253    2.3251    2.2131    3.2999    4.9618    3.4575    2.1977     3.087    1.1594    7.6582    2.9819
  weight sum         28557      5814     13740      2682      2561      7083      3555      2062     17292     13234     72116     10570      4137
  precision         1.0175    1.0175    1.0175    1.0175    1.0175    1.0175    1.0175    1.0175    1.0175    1.0175    1.0175    1.0175    1.0175

0F1(Hz)
  mean            682.1503  370.4332  465.3474  505.0486  378.3582  362.5437  116.1924  467.6817   401.309  485.0896   54.6945  175.0811  499.8715
  std. dev.        271.133  237.1009  144.1266  171.1736  278.5939  142.9356  221.6545   280.319  235.3747  226.1543  167.7961  269.9877  306.7882
  weight sum         28557      5814     13740      2682      2561      7083      3555      2062     17292     13234     72116     10570      4137
  precision         0.3611    0.3611    0.3611    0.3611    0.3611    0.3611    0.3611    0.3611    0.3611    0.3611    0.3611    0.3611    0.3611

0F2(Hz)
  mean           1442.2136 1303.2526 1793.0334 1448.0931 1159.1061 1983.2786  384.4934 1465.8354 1314.8252  1138.672  171.3436  570.8828 1056.4734
  std. dev.       454.4964  750.2659  519.5885  392.9271  783.4471  662.5587  740.6138  799.4944  713.4479  533.7441  520.3646  844.3683  419.7581
  weight sum         28557      5814     13740      2682      2561      7083      3555      2062     17292     13234     72116     10570      4137
  precision         0.4448    0.4448    0.4448    0.4448    0.4448    0.4448    0.4448    0.4448    0.4448    0.4448    0.4448    0.4448    0.4448

0F3(Hz)
  mean           2655.0761 2194.6698 2628.2257 2798.0476 1972.9814 2665.7831  648.3756 2376.2444 2267.5482 2500.7441  292.1061  953.0816 2684.8467
  std. dev.       813.9125 1208.1856  775.3306  669.7534  1322.667  914.1503 1206.4489 1269.0187 1206.1062 1023.7463  872.1776 1397.4736  768.1272
  weight sum         28557      5814     13740      2682      2561      7083      3555      2062     17292     13234     72116     10570      4137
  precision         0.6646    0.6646    0.6646    0.6646    0.6646    0.6646    0.6646    0.6646    0.6646    0.6646    0.6646    0.6646    0.6646

0F4(Hz)
  mean           3079.4149 2638.4197  3165.364 3239.8651 2361.3224 3167.5238  766.2866 2617.0327 2610.1057 2876.6923  351.1243 1087.6567 3077.7233
  std. dev.       930.1153 1420.8135  898.8907  751.6295 1547.6942 1043.4405 1429.9774 1384.5147 1371.8413 1160.0433 1045.9711 1592.0178  781.3188
  weight sum         28557      5814     13740      2682      2561      7083      3555      2062     17292     13234     72116     10570      4137
  precision         0.6804    0.6804    0.6804    0.6804    0.6804    0.6804    0.6804    0.6804    0.6804    0.6804    0.6804    0.6804    0.6804

1Int(dB)
  mean              -4.254  -12.2049   -5.1788   -8.1344  -15.0107    -8.647  -23.0454  -11.5529  -12.7927   -8.1757   -48.118  -21.1123   -5.0188
  std. dev.         9.6114   10.5691    8.0296    6.7971     8.868    8.3528   10.3933    8.2207   10.3811   12.2243   16.2752    6.7379    7.4803
  weight sum         28557      5814     13740      2682      2561      7083      3555      2062     17292     13234     72116     10570      4137
  precision         0.1037    0.1037    0.1037    0.1037    0.1037    0.1037    0.1037    0.1037    0.1037    0.1037    0.1037    0.1037    0.1037

1Pitch(Hz)
  mean            215.1081  159.9332  190.4015  197.2811  129.6994  173.2101   65.3742  182.4929  158.1051  177.8211   16.7877   48.6844  229.5826
  std. dev.       108.7696  110.8047   87.7758   89.0991  107.2959   76.2773  105.9656  121.2141   102.468  105.3227   56.4051    88.266   83.7347
  weight sum         28557      5814     13740      2682      2561      7083      3555      2062     17292     13234     72116     10570      4137
  precision         0.1184    0.1184    0.1184    0.1184    0.1184    0.1184    0.1184    0.1184    0.1184    0.1184    0.1184    0.1184    0.1184

1RawPitch
  mean            204.7122  148.2899  185.6605  190.4432    104.69  165.7379   42.5967  147.9941  143.1238  172.1393   13.7655   27.1754  220.7885
  std. dev.       115.5921  116.3341   95.6276   98.9727  103.2429   83.9735   90.3455  125.6089  109.9538  113.0491   51.2112   68.7975   92.5273
  weight sum         28557      5814     13740      2682      2561      7083      3555      2062     17292     13234     72116     10570      4137
  precision         0.1214    0.1214    0.1214    0.1214    0.1214    0.1214    0.1214    0.1214    0.1214    0.1214    0.1214    0.1214    0.1214

1SmPitch
  mean            213.2106  155.3207  189.0092  196.7284  119.5928  170.7795    54.878  161.3075  153.8621  175.6214   15.1793   41.6178  229.0387
  std. dev.       110.2529  113.4664   88.9353   90.0706  104.4955    78.963  100.3263  131.0323  104.3273  107.5646   52.6861   82.9328   84.1352
  weight sum         28557      5814     13740      2682      2561      7083      3555      2062     17292     13234     72116     10570      4137
  precision          0.119     0.119     0.119     0.119     0.119     0.119     0.119     0.119     0.119     0.119     0.119     0.119     0.119

1Melogram(st)
  mean             51.2091    41.496   50.4242   51.7797   36.4608   48.5268   16.2155   33.8146   42.0925   46.3993    4.9362   14.0219   54.2789
  std. dev.        17.1327   24.2847   15.4261   13.7295   25.2383   16.1496   25.7455   28.4871   23.2642   20.5969   15.6358   23.7231   13.7888
  weight sum         28557      5814     13740      2682      2561      7083      3555      2062     17292     13234     72116     10570      4137
  precision         0.0239    0.0239    0.0239    0.0239    0.0239    0.0239    0.0239    0.0239    0.0239    0.0239    0.0239    0.0239    0.0239

1ZCross
  mean              7.3004    2.5306    5.2275    4.0262    2.0522    3.7468    2.4163     4.274    2.5253    4.3624    0.2613    3.9463    4.0827
  std. dev.         4.7448    2.2366     3.329    2.3277    2.2158    3.3104    4.9515    3.4538    2.1995    3.0942     1.158    7.6595    2.9766
  weight sum         28557      5814     13740      2682      2561      7083      3555      2062     17292     13234     72116     10570      4137
  precision         1.0175    1.0175    1.0175    1.0175    1.0175    1.0175    1.0175    1.0175    1.0175    1.0175    1.0175    1.0175    1.0175

1F1(Hz)
  mean            683.5492  370.5749   466.604  505.4969  376.1761  363.6076   119.273  466.9295    400.97   485.985   54.1445  171.1197  501.0702
  std. dev.       270.1486   236.559  142.2478  171.2455  278.4193  141.3453  223.7154  281.1013  234.5833  225.6523  166.9999  267.7597  305.5336
  weight sum         28557      5814     13740      2682      2561      7083      3555      2062     17292     13234     72116     10570      4137
  precision         0.3611    0.3611    0.3611    0.3611    0.3611    0.3611    0.3611    0.3611    0.3611    0.3611    0.3611    0.3611    0.3611

1F2(Hz)
  mean           1443.5164 1303.9361 1799.2434  1448.146 1156.6522 1992.3968  392.6864 1460.7123 1316.3119  1138.609  169.6332  559.5041 1060.1575
  std. dev.       451.7609  748.5317  511.5475  393.8005  785.3266  653.6523  744.4085  801.4354  712.2901   531.629  518.0359  839.7476  414.9703
  weight sum         28557      5814     13740      2682      2561      7083      3555      2062     17292     13234     72116     10570      4137
  precision         0.4448    0.4448    0.4448    0.4448    0.4448    0.4448    0.4448    0.4448    0.4448    0.4448    0.4448    0.4448    0.4448

1F3(Hz)
  mean           2658.1212 2195.7732 2635.6414 2797.7777 1966.8613 2676.2267   664.142 2370.3101 2270.1065 2503.6829  289.1592  933.5574 2694.2989
  std. dev.       809.8058 1205.5074   764.297  672.0457 1324.7402   902.456 1215.6316 1272.7594 1204.5273 1021.0061  868.2153 1389.3791   752.613
  weight sum         28557      5814     13740      2682      2561      7083      3555      2062     17292     13234     72116     10570      4137
  precision         0.6646    0.6646    0.6646    0.6646    0.6646    0.6646    0.6646    0.6646    0.6646    0.6646    0.6646    0.6646    0.6646

1F4(Hz)
  mean           3082.4058 2641.4866 3173.7603 3238.8126 2355.3511 3178.8998  786.5555 2611.1612 2613.1847 2879.5448  347.6697 1066.2635 3088.1777
  std. dev.       925.1344 1418.3454  884.9534    754.11 1550.8738 1028.8621 1443.3441 1389.1675 1370.2678 1156.4562 1041.4713 1584.0832  760.6201
  weight sum         28557      5814     13740      2682      2561      7083      3555      2062     17292     13234     72116     10570      4137
  precision         0.6804    0.6804    0.6804    0.6804    0.6804    0.6804    0.6804    0.6804    0.6804    0.6804    0.6804    0.6804    0.6804





=== Stratified cross-validation ===

Correctly Classified Instances       97349               53.0793 %
Incorrectly Classified Instances     86054               46.9207 %
Kappa statistic                          0.4046
K&B Relative Info Score            7135783.0547 %
K&B Information Score               205541.9673 bits      1.1207 bits/instance
Class complexity | order 0          528259.3617 bits      2.8803 bits/instance
Class complexity | scheme          2134486.8122 bits     11.6382 bits/instance
Complexity improvement     (Sf)    -1606227.4505 bits     -8.7579 bits/instance
Mean absolute error                      0.0748
Root mean squared error                  0.2348
Relative absolute error                 61.2206 %
Root relative squared error             94.9804 %
Coverage of cases (0.95 level)          66.0584 %
Mean rel. region size (0.95 level)      16.8758 %
Total Number of Instances           183403     


=== Detailed Accuracy By Class ===

                 TP Rate  FP Rate  Precision  Recall   F-Measure  MCC      ROC Area  PRC Area  Class
                 0,499    0,045    0,672      0,499    0,573      0,515    0,886     0,620     a
                 0,004    0,002    0,053      0,004    0,007      0,006    0,725     0,058     b
                 0,664    0,120    0,309      0,664    0,422      0,390    0,869     0,410     e
                 0,369    0,108    0,048      0,369    0,085      0,099    0,813     0,046     d
                 0,030    0,008    0,049      0,030    0,037      0,028    0,730     0,031     f
                 0,358    0,038    0,273      0,358    0,310      0,281    0,864     0,284     i
                 0,074    0,010    0,125      0,074    0,093      0,082    0,832     0,089     k
                 0,063    0,002    0,295      0,063    0,103      0,131    0,743     0,068     j
                 0,074    0,035    0,181      0,074    0,105      0,059    0,751     0,182     l
                 0,002    0,001    0,136      0,002    0,005      0,009    0,782     0,194     o
                 0,892    0,142    0,803      0,892    0,845      0,739    0,950     0,948     0
                 0,237    0,016    0,482      0,237    0,318      0,311    0,889     0,384     s
                 0,440    0,022    0,317      0,440    0,369      0,357    0,876     0,361     u
Weighted Avg.    0,531    0,080    0,525      0,531    0,507      0,448    0,878     0,578     


=== Confusion Matrix ===

     a     b     c     d     e     f     g     h     i     j     k     l     m   <-- classified as
 14250    65  4665  4967   194   523   225   117   864    92  1525   244   826 |     a = a
   399    22  1242  1124    75   867   107     6   362    21  1069   137   383 |     b = b
  1383    79  9127   852    65   843   171    39   382    10   532   118   139 |     c = e
   356     0   813   989     0   163     0     0   153     0   102    34    72 |     d = d
   177     0   447   538    76   306    83     4   199     2   648    63    18 |     e = f
   334    41  3154    96    57  2534   135     5   242     0   370   107     8 |     f = i
    41    53   123   151    63   116   262    23   183     7  1955   530    48 |     g = k
   313     5   553   106    39   167    54   129   203    14   342    40    97 |     h = j
  1211    58  3446  5077   276  1758   457     7  1273    11  2789   502   427 |     i = l
  1606    41  3664  3310   149   124    88    27   867    32  1453   226  1647 |     j = o
   349    20  1495  2013   255  1124   280    29  1322    18 64327   654   230 |     k = 0
   333    17   264   570   265   649   180    51   741    17  4956  2508    19 |     l = s
   460    15   532   762    25   117    55     1   239    12    62    37  1820 |     m = u

=== Percent Confusion Matrix ===
a	b	c	d	e	f	g	h	i	j	k	l	m	
49.9	0.23	16.34	17.39	0.68	1.83	0.79	0.41	3.03	0.32	5.34	0.85	2.89	 a = a
6.86	0.38	21.36	19.33	1.29	14.91	1.84	0.1	6.23	0.36	18.39	2.36	6.59	 b = b
10.07	0.57	66.43	6.2	0.47	6.14	1.24	0.28	2.78	0.07	3.87	0.86	1.01	 c = e
13.27	0.0	30.31	36.88	0.0	6.08	0.0	0.0	5.7	0.0	3.8	1.27	2.68	 d = d
6.91	0.0	17.45	21.01	2.97	11.95	3.24	0.16	7.77	0.08	25.3	2.46	0.7	 e = f
4.72	0.58	44.53	1.36	0.8	35.78	1.91	0.07	3.42	0.0	5.22	1.51	0.11	 f = i
1.15	1.49	3.46	4.25	1.77	3.26	7.37	0.65	5.15	0.2	54.99	14.91	1.35	 g = k
15.18	0.24	26.82	5.14	1.89	8.1	2.62	6.26	9.84	0.68	16.59	1.94	4.7	 h = j
7.0	0.34	19.93	29.36	1.6	10.17	2.64	0.04	7.36	0.06	16.13	2.9	2.47	 i = l
12.14	0.31	27.69	25.01	1.13	0.94	0.66	0.2	6.55	0.24	10.98	1.71	12.45	 j = o
0.48	0.03	2.07	2.79	0.35	1.56	0.39	0.04	1.83	0.02	89.2	0.91	0.32	 k = 0
3.15	0.16	2.5	5.39	2.51	6.14	1.7	0.48	7.01	0.16	46.89	23.73	0.18	 l = s
11.12	0.36	12.86	18.42	0.6	2.83	1.33	0.02	5.78	0.29	1.5	0.89	43.99	 m = u
