Timestamp:2014-12-07-10:51:26
Inventario:I1
Intervalo:10ms
Ngramas:2
Clasificador:NaiveBayes
Relation Name:  I1-10ms-2gramas
Num Instances:  18295
Num Attributes: 21

     Name                      Type  Nom  Int Real     Missing      Unique  Dist
   1 0Int(dB)                   Num   0%  10%  90%     0 /  0%     7 /  0%   772 
   2 0Pitch(Hz)                 Num   0%  51%  49%     0 /  0%   816 /  4%  3063 
   3 0RawPitch                  Num   0%  54%  46%     0 /  0%   853 /  5%  2955 
   4 0SmPitch                   Num   0%  52%  48%     0 /  0%   827 /  5%  3024 
   5 0Melogram(st)              Num   0%  47%  53%     0 /  0%   581 /  3%  2807 
   6 0ZCross                    Num   0% 100%   0%     0 /  0%    10 /  0%    42 
   7 0F1(Hz)                    Num   0%  51%  49%     0 /  0%  2131 / 12%  4724 
   8 0F2(Hz)                    Num   0%  51%  49%     0 /  0%  4210 / 23%  6615 
   9 0F3(Hz)                    Num   0%  51%  49%     0 /  0%  3688 / 20%  6145 
  10 0F4(Hz)                    Num   0%  51%  49%     0 /  0%  3689 / 20%  6054 
  11 1Int(dB)                   Num   0%  10%  90%     0 /  0%     7 /  0%   772 
  12 1Pitch(Hz)                 Num   0%  51%  49%     0 /  0%   817 /  4%  3064 
  13 1RawPitch                  Num   0%  54%  46%     0 /  0%   854 /  5%  2956 
  14 1SmPitch                   Num   0%  52%  48%     0 /  0%   828 /  5%  3025 
  15 1Melogram(st)              Num   0%  47%  53%     0 /  0%   582 /  3%  2808 
  16 1ZCross                    Num   0% 100%   0%     0 /  0%    10 /  0%    42 
  17 1F1(Hz)                    Num   0%  51%  49%     0 /  0%  2131 / 12%  4724 
  18 1F2(Hz)                    Num   0%  51%  49%     0 /  0%  4210 / 23%  6615 
  19 1F3(Hz)                    Num   0%  51%  49%     0 /  0%  3688 / 20%  6145 
  20 1F4(Hz)                    Num   0%  51%  49%     0 /  0%  3689 / 20%  6054 
  21 class                      Nom 100%   0%   0%     0 /  0%     0 /  0%    13 


Naive Bayes Classifier

                    Class
Attribute               a         b         e         d         f         i         k         j         l         o         0         s         u
                   (0.16)    (0.03)    (0.08)    (0.02)    (0.01)    (0.04)    (0.02)    (0.01)     (0.1)    (0.08)    (0.37)    (0.06)    (0.02)
==================================================================================================================================================
0Int(dB)
  mean             -4.6583  -12.9285   -5.9386   -8.3922   -14.457   -9.6878  -26.8144   -10.843  -12.9059    -8.538  -49.4515  -20.0847    -6.523
  std. dev.         9.9884   11.2858    8.7524    6.7514    9.1174    8.9009   10.7849    8.0929   11.0446   12.0283   15.1903    7.6133    9.2325
  weight sum          2940       594      1438       274       261       748       359       208      1788      1377      6797      1088       423
  precision         0.1005    0.1005    0.1005    0.1005    0.1005    0.1005    0.1005    0.1005    0.1005    0.1005    0.1005    0.1005    0.1005

0Pitch(Hz)
  mean            214.2999  164.0251  187.1289  195.7221  141.0758   169.624   50.2563   193.229  158.6824   180.298   13.6877   73.7984  226.0414
  std. dev.       107.3554  110.3131   89.1848   89.0024  107.2369   79.3475   92.1709  115.8584  102.1841  104.9788   51.1466  101.5493   90.8899
  weight sum          2940       594      1438       274       261       748       359       208      1788      1377      6797      1088       423
  precision         0.1626    0.1626    0.1626    0.1626    0.1626    0.1626    0.1626    0.1626    0.1626    0.1626    0.1626    0.1626    0.1626

0RawPitch
  mean            203.4999  151.3042  182.7671  190.1364  118.1042  160.2257   34.9983  163.7352  145.8014  173.1119   11.1121   51.2221  217.7899
  std. dev.        112.824  114.0339   93.8486   97.1465  105.1012   83.7348   81.2069   119.526  107.4094   111.182   45.2351   89.8162   96.3272
  weight sum          2940       594      1438       274       261       748       359       208      1788      1377      6797      1088       423
  precision         0.1679    0.1679    0.1679    0.1679    0.1679    0.1679    0.1679    0.1679    0.1679    0.1679    0.1679    0.1679    0.1679

0SmPitch
  mean            212.0791  160.0578  185.0532  194.9849  133.6333  167.3233   42.6618   176.808  155.1611  177.9648   12.1409   67.1405  225.0495
  std. dev.       109.1565  112.2555    91.154   90.4121  104.9032   80.6951   87.7373   127.148  103.6989  106.8233   46.8868   98.3612   91.3186
  weight sum          2940       594      1438       274       261       748       359       208      1788      1377      6797      1088       423
  precision         0.1647    0.1647    0.1647    0.1647    0.1647    0.1647    0.1647    0.1647    0.1647    0.1647    0.1647    0.1647    0.1647

0Melogram(st)
  mean             51.3965   42.9332   50.1673   51.7352   40.1599   47.7876   14.2826   38.3508   42.7693   46.7989    4.1821   21.1461   52.9506
  std. dev.        16.7239   23.4206    15.729   13.4859   23.6891   17.1488   24.3913   27.0326   22.8013   20.3195   14.5486   26.4483   16.4082
  weight sum          2940       594      1438       274       261       748       359       208      1788      1377      6797      1088       423
  precision         0.0294    0.0294    0.0294    0.0294    0.0294    0.0294    0.0294    0.0294    0.0294    0.0294    0.0294    0.0294    0.0294

0ZCross
  mean              6.7426    2.2633    4.8777    3.4959    2.0356    3.3458    1.5951    4.1329    2.4581    4.0104    0.1759    3.6642    3.6091
  std. dev.         4.6066    2.1902    3.2885    2.1909    2.1197    3.3619    3.8849    3.2724    2.2446    3.2415    0.9112    6.8364     2.929
  weight sum          2940       594      1438       274       261       748       359       208      1788      1377      6797      1088       423
  precision         1.2927    1.2927    1.2927    1.2927    1.2927    1.2927    1.2927    1.2927    1.2927    1.2927    1.2927    1.2927    1.2927

0F1(Hz)
  mean            664.8149  387.8062  452.4055   498.733  427.4933  353.4925  127.6663  497.0503  426.5745  474.0843   46.3495  251.0896  482.6221
  std. dev.       276.6469  236.7462  159.6131  169.3003  266.6231  155.8578  228.0776  257.1319  236.4448  229.5879  157.5663  294.8533  319.3509
  weight sum          2940       594      1438       274       261       748       359       208      1788      1377      6797      1088       423
  precision         0.3688    0.3688    0.3688    0.3688    0.3688    0.3688    0.3688    0.3688    0.3688    0.3688    0.3688    0.3688    0.3688

0F2(Hz)
  mean           1438.6375 1355.9289 1730.4304 1445.7075 1255.6134 1886.1841  431.7638 1586.5331 1353.2069 1149.4791  141.6776  798.7645 1027.4385
  std. dev.       474.1145   740.105  583.9406  386.9614  728.5852  727.5947  778.0737  720.2017  692.2601  557.6755  475.8914  897.7998  482.4236
  weight sum          2940       594      1438       274       261       748       359       208      1788      1377      6797      1088       423
  precision         0.4504    0.4504    0.4504    0.4504    0.4504    0.4504    0.4504    0.4504    0.4504    0.4504    0.4504    0.4504    0.4504

0F3(Hz)
  mean           2639.6428 2275.3297 2566.2209 2794.9126 2161.8658 2569.2982  722.0767 2539.5137 2333.2836 2474.5963  243.8031 1339.5813 2578.9648
  std. dev.       836.6339 1178.2882  864.4824  636.9647 1236.4745 1001.9819 1259.9164 1137.2988 1158.4901 1047.0894  803.7435  1486.614   937.242
  weight sum          2940       594      1438       274       261       748       359       208      1788      1377      6797      1088       423
  precision         0.6705    0.6705    0.6705    0.6705    0.6705    0.6705    0.6705    0.6705    0.6705    0.6705    0.6705    0.6705    0.6705

0F4(Hz)
  mean           3062.2428  2712.388 3090.2109 3253.5853 2569.1202 3069.7504   839.695 2787.9035 2687.0272 2853.8724  293.9019 1532.2927 2942.8419
  std. dev.        957.834 1372.7244 1010.4123  716.7462  1435.181 1158.3793 1470.5476 1230.8393 1314.7306 1192.6404  966.7162 1697.2616  994.8814
  weight sum          2940       594      1438       274       261       748       359       208      1788      1377      6797      1088       423
  precision         0.6851    0.6851    0.6851    0.6851    0.6851    0.6851    0.6851    0.6851    0.6851    0.6851    0.6851    0.6851    0.6851

1Int(dB)
  mean             -4.4871  -12.4295   -5.4216   -8.4296  -14.8768   -9.1229   -23.807   -11.433  -12.9986   -8.3525  -49.8199  -20.8427   -5.5461
  std. dev.         9.7495   10.5978    8.2134    6.9616    8.5952    8.6417   10.1518    8.1091   10.5213   12.1594   14.6152    6.9618    7.9501
  weight sum          2940       594      1438       274       261       748       359       208      1788      1377      6797      1088       423
  precision         0.1005    0.1005    0.1005    0.1005    0.1005    0.1005    0.1005    0.1005    0.1005    0.1005    0.1005    0.1005    0.1005

1Pitch(Hz)
  mean            215.0265  166.0775  190.3918  195.1331  138.4937  173.2212   74.2804   189.521  160.7763  179.1301   11.8118   65.3303  230.9859
  std. dev.       106.7631  107.8218   87.4257   90.1576  106.1938   75.5653  107.7668  117.4738  101.2805   103.979   47.8985   98.1451   83.0165
  weight sum          2940       594      1438       274       261       748       359       208      1788      1377      6797      1088       423
  precision         0.1626    0.1626    0.1626    0.1626    0.1626    0.1626    0.1626    0.1626    0.1626    0.1626    0.1626    0.1626    0.1626

1RawPitch
  mean            204.5729  152.1597  186.9416  189.7645  114.3432  164.8509   52.3656  159.3212   147.628  172.8881    9.4597   41.3002  221.8351
  std. dev.       112.2304   112.921   92.1579   97.5291  102.4081   80.9322   95.3432  120.6807  106.4437  110.0663   41.8723   81.8762   90.5835
  weight sum          2940       594      1438       274       261       748       359       208      1788      1377      6797      1088       423
  precision         0.1679    0.1679    0.1679    0.1679    0.1679    0.1679    0.1679    0.1679    0.1679    0.1679    0.1679    0.1679    0.1679

1SmPitch
  mean            213.0261   161.354  188.8901  194.7762  131.3637   170.918   62.4555  173.1423  157.3569  177.1958   10.2225    58.482  230.1655
  std. dev.       108.3889   110.475   88.8533   90.8856  103.6517   77.6434  104.0351  128.2142  102.8844  105.5718   43.0537   93.9293   83.5323
  weight sum          2940       594      1438       274       261       748       359       208      1788      1377      6797      1088       423
  precision         0.1647    0.1647    0.1647    0.1647    0.1647    0.1647    0.1647    0.1647    0.1647    0.1647    0.1647    0.1647    0.1647

1Melogram(st)
  mean             51.7443   43.3262    50.757   51.4874   39.8199   48.7629   19.2437   37.3835   43.1466   46.9889    3.6598   18.9536   54.7081
  std. dev.        16.1385   23.0622   14.7786    13.878   23.9008   15.7624   26.8969   27.4632   22.5915   20.0024   13.7158   25.9113      13.2
  weight sum          2940       594      1438       274       261       748       359       208      1788      1377      6797      1088       423
  precision         0.0294    0.0294    0.0294    0.0294    0.0294    0.0294    0.0294    0.0294    0.0294    0.0294    0.0294    0.0294    0.0294

1ZCross
  mean              6.8081    2.2589    4.8831    3.6374     1.892    3.3285    2.1785    4.0396    2.2904    4.0329    0.1407     3.745     3.713
  std. dev.         4.5857    2.0707    3.1607    2.2054    1.9842    3.1155    4.3479    3.2326    2.0063    2.9611    0.7914    7.1467    2.8728
  weight sum          2940       594      1438       274       261       748       359       208      1788      1377      6797      1088       423
  precision         1.2927    1.2927    1.2927    1.2927    1.2927    1.2927    1.2927    1.2927    1.2927    1.2927    1.2927    1.2927    1.2927

1F1(Hz)
  mean            684.8624  383.8168  467.7497  501.2874  399.7197  366.3373  142.4787  486.1043  413.7109  488.3137   40.0642  209.0603  499.4556
  std. dev.       260.7635  232.2972  137.6849  170.6693  273.4014  136.8258  238.7502   268.092  232.1978  220.1308  146.5236  281.8697   302.477
  weight sum          2940       594      1438       274       261       748       359       208      1788      1377      6797      1088       423
  precision         0.3688    0.3688    0.3688    0.3688    0.3688    0.3688    0.3688    0.3688    0.3688    0.3688    0.3688    0.3688    0.3688

1F2(Hz)
  mean             1462.31 1349.6905 1804.3312 1443.6267 1203.5318 1998.9223  455.5853 1528.4904 1344.3387 1157.6298  123.4695  679.9428 1072.0404
  std. dev.       430.5852  728.3086  496.1344  393.2262  754.0967  624.7892   774.158  755.9826  694.7635  525.4581  446.9566    878.69  424.8655
  weight sum          2940       594      1438       274       261       748       359       208      1788      1377      6797      1088       423
  precision         0.4504    0.4504    0.4504    0.4504    0.4504    0.4504    0.4504    0.4504    0.4504    0.4504    0.4504    0.4504    0.4504

1F3(Hz)
  mean           2687.7356 2268.8241 2653.2835 2791.7189 2069.2644 2693.2397  790.4307  2465.751 2319.5551 2526.8298  212.0373 1133.9016 2703.6172
  std. dev.       764.2898 1165.0514  742.6344  658.6982 1282.9054  863.6174 1294.5372  1196.626  1170.449  995.0347  754.2349 1449.5509  758.4179
  weight sum          2940       594      1438       274       261       748       359       208      1788      1377      6797      1088       423
  precision         0.6705    0.6705    0.6705    0.6705    0.6705    0.6705    0.6705    0.6705    0.6705    0.6705    0.6705    0.6705    0.6705

1F4(Hz)
  mean           3116.7672 2720.5333 3189.0151 3246.4091 2471.0333 3209.5559  925.0577 2715.8314  2669.269 2910.5036  256.0029 1303.1942 3086.4504
  std. dev.       872.2076 1363.5495  856.4692  742.7362 1495.7988  985.3806 1518.7625 1302.3612 1330.0138 1127.9374  908.3598 1663.3803  766.0819
  weight sum          2940       594      1438       274       261       748       359       208      1788      1377      6797      1088       423
  precision         0.6851    0.6851    0.6851    0.6851    0.6851    0.6851    0.6851    0.6851    0.6851    0.6851    0.6851    0.6851    0.6851





=== Stratified cross-validation ===

Correctly Classified Instances        9565               52.282  %
Incorrectly Classified Instances      8730               47.718  %
Kappa statistic                          0.4063
K&B Relative Info Score             709615.1177 %
K&B Information Score                20811.9999 bits      1.1376 bits/instance
Class complexity | order 0           53634.4104 bits      2.9316 bits/instance
Class complexity | scheme           210410.8926 bits     11.501  bits/instance
Complexity improvement     (Sf)    -156776.4821 bits     -8.5694 bits/instance
Mean absolute error                      0.0761
Root mean squared error                  0.2362
Relative absolute error                 61.3072 %
Root relative squared error             94.7841 %
Coverage of cases (0.95 level)          66.592  %
Mean rel. region size (0.95 level)      17.4785 %
Total Number of Instances            18295     


=== Detailed Accuracy By Class ===

                 TP Rate  FP Rate  Precision  Recall   F-Measure  MCC      ROC Area  PRC Area  Class
                 0,528    0,059    0,632      0,528    0,575      0,505    0,874     0,607     a
                 0,000    0,002    0,000      0,000    0,000      -0,008   0,726     0,059     b
                 0,590    0,101    0,333      0,590    0,426      0,381    0,854     0,385     e
                 0,482    0,140    0,050      0,482    0,090      0,118    0,810     0,049     d
                 0,000    0,002    0,000      0,000    0,000      -0,006   0,736     0,029     f
                 0,325    0,034    0,287      0,325    0,305      0,274    0,856     0,273     i
                 0,156    0,018    0,147      0,156    0,151      0,134    0,841     0,094     k
                 0,063    0,001    0,520      0,063    0,112      0,177    0,762     0,105     j
                 0,074    0,041    0,164      0,074    0,102      0,048    0,739     0,176     l
                 0,002    0,002    0,081      0,002    0,004      0,001    0,777     0,196     o
                 0,912    0,112    0,828      0,912    0,868      0,786    0,963     0,958     0
                 0,224    0,025    0,361      0,224    0,277      0,250    0,850     0,319     s
                 0,331    0,009    0,468      0,331    0,388      0,382    0,862     0,335     u
Weighted Avg.    0,523    0,069    0,511      0,523    0,502      0,449    0,873     0,559     


=== Confusion Matrix ===

    a    b    c    d    e    f    g    h    i    j    k    l    m   <-- classified as
 1553    6  411  558    7   53   32    6  112   17  118   53   14 |    a = a
   52    0  104  159    0   87   24    0   38    0   82   31   17 |    b = b
  173    8  849  154    2   79   30    2   58    5   50   17   11 |    c = e
   45    0   54  132    0   13    0    0   14    0    9    6    1 |    d = d
   23    1   29   85    0   25   11    0   25    0   46   16    0 |    e = f
   43    5  311   22    3  243   23    0   43    0   33   21    1 |    f = i
    6    2    6   17    1   12   56    0   26    4  173   54    2 |    g = k
   43    1   57   17    1   18    2   13   20    1   22   13    0 |    h = j
  166    2  268  674   10  135   57    1  132    0  244   80   19 |    i = l
  213    4  309  451    4   18   12    0   98    3  135   40   90 |    j = o
   24    0   63  179    4   82   23    1  116    4 6200   97    4 |    k = 0
   58    0   39  104    6   76   97    1   92    2  369  244    0 |    l = s
   59    3   46  111    1    6   14    1   30    1    7    4  140 |    m = u

=== Percent Confusion Matrix ===
a	b	c	d	e	f	g	h	i	j	k	l	m	
52.82	0.2	13.98	18.98	0.24	1.8	1.09	0.2	3.81	0.58	4.01	1.8	0.48	 a = a
8.75	0.0	17.51	26.77	0.0	14.65	4.04	0.0	6.4	0.0	13.8	5.22	2.86	 b = b
12.03	0.56	59.04	10.71	0.14	5.49	2.09	0.14	4.03	0.35	3.48	1.18	0.76	 c = e
16.42	0.0	19.71	48.18	0.0	4.74	0.0	0.0	5.11	0.0	3.28	2.19	0.36	 d = d
8.81	0.38	11.11	32.57	0.0	9.58	4.21	0.0	9.58	0.0	17.62	6.13	0.0	 e = f
5.75	0.67	41.58	2.94	0.4	32.49	3.07	0.0	5.75	0.0	4.41	2.81	0.13	 f = i
1.67	0.56	1.67	4.74	0.28	3.34	15.6	0.0	7.24	1.11	48.19	15.04	0.56	 g = k
20.67	0.48	27.4	8.17	0.48	8.65	0.96	6.25	9.62	0.48	10.58	6.25	0.0	 h = j
9.28	0.11	14.99	37.7	0.56	7.55	3.19	0.06	7.38	0.0	13.65	4.47	1.06	 i = l
15.47	0.29	22.44	32.75	0.29	1.31	0.87	0.0	7.12	0.22	9.8	2.9	6.54	 j = o
0.35	0.0	0.93	2.63	0.06	1.21	0.34	0.01	1.71	0.06	91.22	1.43	0.06	 k = 0
5.33	0.0	3.58	9.56	0.55	6.99	8.92	0.09	8.46	0.18	33.92	22.43	0.0	 l = s
13.95	0.71	10.87	26.24	0.24	1.42	3.31	0.24	7.09	0.24	1.65	0.95	33.1	 m = u
