Timestamp:2014-12-07-10:51:44
Inventario:I1
Intervalo:10ms
Ngramas:5
Clasificador:NaiveBayes
Relation Name:  I1-10ms-5gramas
Num Instances:  18292
Num Attributes: 51

     Name                      Type  Nom  Int Real     Missing      Unique  Dist
   1 0Int(dB)                   Num   0%  10%  90%     0 /  0%     7 /  0%   772 
   2 0Pitch(Hz)                 Num   0%  51%  49%     0 /  0%   816 /  4%  3063 
   3 0RawPitch                  Num   0%  54%  46%     0 /  0%   853 /  5%  2955 
   4 0SmPitch                   Num   0%  52%  48%     0 /  0%   827 /  5%  3024 
   5 0Melogram(st)              Num   0%  47%  53%     0 /  0%   581 /  3%  2807 
   6 0ZCross                    Num   0% 100%   0%     0 /  0%    10 /  0%    42 
   7 0F1(Hz)                    Num   0%  51%  49%     0 /  0%  2131 / 12%  4724 
   8 0F2(Hz)                    Num   0%  51%  49%     0 /  0%  4210 / 23%  6615 
   9 0F3(Hz)                    Num   0%  51%  49%     0 /  0%  3688 / 20%  6145 
  10 0F4(Hz)                    Num   0%  51%  49%     0 /  0%  3689 / 20%  6054 
  11 1Int(dB)                   Num   0%  10%  90%     0 /  0%     7 /  0%   772 
  12 1Pitch(Hz)                 Num   0%  51%  49%     0 /  0%   816 /  4%  3063 
  13 1RawPitch                  Num   0%  54%  46%     0 /  0%   853 /  5%  2955 
  14 1SmPitch                   Num   0%  52%  48%     0 /  0%   827 /  5%  3024 
  15 1Melogram(st)              Num   0%  47%  53%     0 /  0%   581 /  3%  2807 
  16 1ZCross                    Num   0% 100%   0%     0 /  0%    10 /  0%    42 
  17 1F1(Hz)                    Num   0%  51%  49%     0 /  0%  2131 / 12%  4724 
  18 1F2(Hz)                    Num   0%  51%  49%     0 /  0%  4210 / 23%  6615 
  19 1F3(Hz)                    Num   0%  51%  49%     0 /  0%  3688 / 20%  6145 
  20 1F4(Hz)                    Num   0%  51%  49%     0 /  0%  3689 / 20%  6054 
  21 2Int(dB)                   Num   0%  10%  90%     0 /  0%     7 /  0%   772 
  22 2Pitch(Hz)                 Num   0%  51%  49%     0 /  0%   816 /  4%  3063 
  23 2RawPitch                  Num   0%  54%  46%     0 /  0%   853 /  5%  2955 
  24 2SmPitch                   Num   0%  52%  48%     0 /  0%   827 /  5%  3024 
  25 2Melogram(st)              Num   0%  47%  53%     0 /  0%   581 /  3%  2807 
  26 2ZCross                    Num   0% 100%   0%     0 /  0%    10 /  0%    42 
  27 2F1(Hz)                    Num   0%  51%  49%     0 /  0%  2131 / 12%  4724 
  28 2F2(Hz)                    Num   0%  51%  49%     0 /  0%  4210 / 23%  6615 
  29 2F3(Hz)                    Num   0%  51%  49%     0 /  0%  3688 / 20%  6145 
  30 2F4(Hz)                    Num   0%  51%  49%     0 /  0%  3689 / 20%  6054 
  31 3Int(dB)                   Num   0%  10%  90%     0 /  0%     7 /  0%   772 
  32 3Pitch(Hz)                 Num   0%  51%  49%     0 /  0%   816 /  4%  3063 
  33 3RawPitch                  Num   0%  54%  46%     0 /  0%   853 /  5%  2955 
  34 3SmPitch                   Num   0%  52%  48%     0 /  0%   827 /  5%  3024 
  35 3Melogram(st)              Num   0%  47%  53%     0 /  0%   581 /  3%  2807 
  36 3ZCross                    Num   0% 100%   0%     0 /  0%    10 /  0%    42 
  37 3F1(Hz)                    Num   0%  51%  49%     0 /  0%  2131 / 12%  4724 
  38 3F2(Hz)                    Num   0%  51%  49%     0 /  0%  4210 / 23%  6615 
  39 3F3(Hz)                    Num   0%  51%  49%     0 /  0%  3688 / 20%  6145 
  40 3F4(Hz)                    Num   0%  51%  49%     0 /  0%  3689 / 20%  6054 
  41 4Int(dB)                   Num   0%  10%  90%     0 /  0%     7 /  0%   772 
  42 4Pitch(Hz)                 Num   0%  51%  49%     0 /  0%   817 /  4%  3064 
  43 4RawPitch                  Num   0%  54%  46%     0 /  0%   854 /  5%  2956 
  44 4SmPitch                   Num   0%  52%  48%     0 /  0%   828 /  5%  3025 
  45 4Melogram(st)              Num   0%  47%  53%     0 /  0%   582 /  3%  2808 
  46 4ZCross                    Num   0% 100%   0%     0 /  0%    10 /  0%    42 
  47 4F1(Hz)                    Num   0%  51%  49%     0 /  0%  2131 / 12%  4724 
  48 4F2(Hz)                    Num   0%  51%  49%     0 /  0%  4210 / 23%  6615 
  49 4F3(Hz)                    Num   0%  51%  49%     0 /  0%  3688 / 20%  6145 
  50 4F4(Hz)                    Num   0%  51%  49%     0 /  0%  3689 / 20%  6054 
  51 class                      Nom 100%   0%   0%     0 /  0%     0 /  0%    13 


Naive Bayes Classifier

                    Class
Attribute               a         b         e         d         f         i         k         j         l         o         0         s         u
                   (0.16)    (0.03)    (0.08)    (0.02)    (0.01)    (0.04)    (0.02)    (0.01)     (0.1)    (0.08)    (0.37)    (0.06)    (0.02)
==================================================================================================================================================
0Int(dB)
  mean             -6.9299  -11.3972   -9.6111   -7.3375   -10.982  -12.4993  -28.9427   -7.9265  -10.5751  -11.2977  -48.0267  -16.7013  -10.2969
  std. dev.        12.4228   11.9964   11.4443    6.7656   11.4347    10.575   14.6657    8.3185   11.2885     13.03   17.1401   10.7389   12.4298
  weight sum          2940       594      1438       274       261       748       359       208      1788      1377      6794      1088       423
  precision         0.1005    0.1005    0.1005    0.1005    0.1005    0.1005    0.1005    0.1005    0.1005    0.1005    0.1005    0.1005    0.1005

0Pitch(Hz)
  mean            201.0034  176.5923  162.8814  198.8408  162.8376  141.7256   63.4241    207.66  169.9132  162.3445   19.6403  119.6317  196.4288
  std. dev.       118.0639  106.6658  100.9376   83.7207  106.0306   94.1851   97.4722  105.4294   98.9979  115.4514   60.4023   108.576  121.8438
  weight sum          2940       594      1438       274       261       748       359       208      1788      1377      6794      1088       423
  precision         0.1626    0.1626    0.1626    0.1626    0.1626    0.1626    0.1626    0.1626    0.1626    0.1626    0.1626    0.1626    0.1626

0RawPitch
  mean            190.7861  167.2471  157.1635  187.8956  143.5452  130.5727   54.9296  189.0015  156.5264   154.051    16.296   100.989  185.1858
  std. dev.       121.3283  111.4688   104.273   95.0589  109.1897   95.3267   97.1775  111.1097  104.9976  119.4964   54.9452   108.926   124.139
  weight sum          2940       594      1438       274       261       748       359       208      1788      1377      6794      1088       423
  precision         0.1679    0.1679    0.1679    0.1679    0.1679    0.1679    0.1679    0.1679    0.1679    0.1679    0.1679    0.1679    0.1679

0SmPitch
  mean            198.9282  173.7853  160.1278  195.3865  154.4791  139.4948   59.0713  197.8072  165.8643  160.0958   17.9599  114.4385  191.6402
  std. dev.        119.099  108.2015  103.2014   87.7561   106.176    94.338   96.1487  112.0091  101.1554  116.5286   56.9887  109.0531  124.0826
  weight sum          2940       594      1438       274       261       748       359       208      1788      1377      6794      1088       423
  precision         0.1647    0.1647    0.1647    0.1647    0.1647    0.1647    0.1647    0.1647    0.1647    0.1647    0.1647    0.1647    0.1647

0Melogram(st)
  mean             47.8679   45.9865   43.9709   52.5997   45.1576   40.3717   18.4083   46.0511   45.7882   42.2639    5.6482   33.2222    43.858
  std. dev.        20.9198   21.1991    21.953   12.1434   20.6297   23.2088   25.7915   22.6357   20.6911   23.8573    16.628   26.5643   25.2949
  weight sum          2940       594      1438       274       261       748       359       208      1788      1377      6794      1088       423
  precision         0.0294    0.0294    0.0294    0.0294    0.0294    0.0294    0.0294    0.0294    0.0294    0.0294    0.0294    0.0294    0.0294

0ZCross
  mean              6.1908    3.0467    4.2718    3.7176    3.4224    3.2887    0.9578    4.9159    3.4414     3.572    0.3724    2.9929    3.5052
  std. dev.         5.0845    3.0136    3.6952    2.3058    3.1109    4.3028    2.3623    3.4702    2.9316    3.7147    1.6643    4.6176    3.5492
  weight sum          2940       594      1438       274       261       748       359       208      1788      1377      6794      1088       423
  precision         1.2927    1.2927    1.2927    1.2927    1.2927    1.2927    1.2927    1.2927    1.2927    1.2927    1.2927    1.2927    1.2927

0F1(Hz)
  mean            581.8893   435.447  397.3557  502.3049  499.4316  314.4877  200.7741  534.7907  483.6365  404.7558   67.3207  386.2288  421.2912
  std. dev.       329.6543  227.9619  220.5354   161.099  230.5154  214.7262  258.7271  200.0208  228.4353  263.5378  189.0983  290.7527  363.4485
  weight sum          2940       594      1438       274       261       748       359       208      1788      1377      6794      1088       423
  precision         0.3688    0.3688    0.3688    0.3688    0.3688    0.3688    0.3688    0.3688    0.3688    0.3688    0.3688    0.3688    0.3688

0F2(Hz)
  mean           1322.2779 1470.3392 1452.2339 1458.0465 1440.7522 1458.8644  687.0894 1751.2317 1440.8441 1058.6386   201.594 1196.2565  898.5293
  std. dev.       623.3526  691.4076  782.1386  396.8566  648.3082  923.3942  889.5204  539.5803  627.2748  680.2641  559.6456  845.2303  631.6566
  weight sum          2940       594      1438       274       261       748       359       208      1788      1377      6794      1088       423
  precision         0.4504    0.4504    0.4504    0.4504    0.4504    0.4504    0.4504    0.4504    0.4504    0.4504    0.4504    0.4504    0.4504

0F3(Hz)
  mean           2408.7717 2460.7556 2228.1348 2796.2121 2441.7175 2099.7998  1137.313 2777.1815 2499.6946 2179.4174  344.8935 2018.2593 2149.9078
  std. dev.      1092.4253 1067.6148 1168.5798  625.8303 1052.2514 1316.2452 1424.8917  854.1819 1026.5094 1259.3843   936.734 1394.2183 1279.6717
  weight sum          2940       594      1438       274       261       748       359       208      1788      1377      6794      1088       423
  precision         0.6705    0.6705    0.6705    0.6705    0.6705    0.6705    0.6705    0.6705    0.6705    0.6705    0.6705    0.6705    0.6705

0F4(Hz)
  mean           2796.1617 2886.9193 2704.2382 3234.7921 2859.7375 2531.2629  1320.825 3047.5686 2870.0464 2526.1338  415.0202 2305.0499 2470.7103
  std. dev.      1258.5259 1222.9136 1397.5563  688.6875 1204.9182 1557.2602 1658.7081  904.2258  1154.012 1451.9381  1124.632 1584.8836 1423.5708
  weight sum          2940       594      1438       274       261       748       359       208      1788      1377      6794      1088       423
  precision         0.6851    0.6851    0.6851    0.6851    0.6851    0.6851    0.6851    0.6851    0.6851    0.6851    0.6851    0.6851    0.6851

1Int(dB)
  mean             -6.0715  -12.0773   -8.2832   -7.4101   -12.229  -11.5529  -29.7121   -8.9959  -11.3777  -10.1884  -48.5012  -17.8566    -9.141
  std. dev.         11.593   11.9572   10.5574    6.5796   10.7764   10.0097    13.133    8.3062   11.4403   12.4847   16.5463    9.7234    11.517
  weight sum          2940       594      1438       274       261       748       359       208      1788      1377      6794      1088       423
  precision         0.1005    0.1005    0.1005    0.1005    0.1005    0.1005    0.1005    0.1005    0.1005    0.1005    0.1005    0.1005    0.1005

1Pitch(Hz)
  mean            206.0621  171.2937  171.3761  198.7927  155.4117  151.1778   52.2515  204.1805  164.8362  169.4942   17.6176  105.2645  206.5505
  std. dev.       114.2169  108.4803   97.3583   85.1445  107.1208   90.4554   90.8879  109.9244  100.6919  112.1681     57.63  108.3916  112.6088
  weight sum          2940       594      1438       274       261       748       359       208      1788      1377      6794      1088       423
  precision         0.1626    0.1626    0.1626    0.1626    0.1626    0.1626    0.1626    0.1626    0.1626    0.1626    0.1626    0.1626    0.1626

1RawPitch
  mean            195.4446  160.9589  165.9268  191.4984  134.3425  140.1369   44.2356  179.2415  152.3061  160.7417   14.7182   84.1322  196.9115
  std. dev.       118.3762  112.6321  101.4248   94.4455  108.4897   92.6731    90.161  114.9368  106.1494  117.1537   52.3175  105.4116  116.0658
  weight sum          2940       594      1438       274       261       748       359       208      1788      1377      6794      1088       423
  precision         0.1679    0.1679    0.1679    0.1679    0.1679    0.1679    0.1679    0.1679    0.1679    0.1679    0.1679    0.1679    0.1679

1SmPitch
  mean            203.8807  168.8457  168.9406  196.8992  147.5141  148.7333   49.1687   189.762  160.9791  166.8657   15.9871   99.1219  203.2317
  std. dev.       115.5779  109.5157   99.8036    88.053  106.2865   91.0219   89.7494  118.5348  102.6724  113.6276   53.9948  107.7534  114.3476
  weight sum          2940       594      1438       274       261       748       359       208      1788      1377      6794      1088       423
  precision         0.1647    0.1647    0.1647    0.1647    0.1647    0.1647    0.1647    0.1647    0.1647    0.1647    0.1647    0.1647    0.1647

1Melogram(st)
  mean               49.16   45.0143   46.0304    52.515   43.7744   42.8057    15.562   43.3962   44.6065   44.1418    5.1053    29.426   46.9326
  std. dev.         19.561   21.9175   20.3297   12.2196   21.5454   21.7211    24.636   24.5265   21.6008   22.6348   15.8999   27.0956   23.1329
  weight sum          2940       594      1438       274       261       748       359       208      1788      1377      6794      1088       423
  precision         0.0294    0.0294    0.0294    0.0294    0.0294    0.0294    0.0294    0.0294    0.0294    0.0294    0.0294    0.0294    0.0294

1ZCross
  mean                6.39    2.7268    4.5442    3.6516    2.8924    3.2766     0.767     4.599    3.1312    3.7485    0.3145    3.2068    3.4685
  std. dev.         4.8474    2.7447    3.6764    2.2302    2.7663    3.9228    2.1753     3.424    2.7623    3.6397    1.5734    5.4768    3.3113
  weight sum          2940       594      1438       274       261       748       359       208      1788      1377      6794      1088       423
  precision         1.2927    1.2927    1.2927    1.2927    1.2927    1.2927    1.2927    1.2927    1.2927    1.2927    1.2927    1.2927    1.2927

1F1(Hz)
  mean            608.9814  420.5783  414.4876  501.4785  481.1684  324.4815  165.4842  529.5553  464.9534  427.1986   60.6401  346.0092  438.9512
  std. dev.       314.7754   233.997  204.0813  158.0796  244.4663  196.3871  245.7115  219.8325  234.5858  255.5101  179.8321  298.6162  351.0171
  weight sum          2940       594      1438       274       261       748       359       208      1788      1377      6794      1088       423
  precision         0.3688    0.3688    0.3688    0.3688    0.3688    0.3688    0.3688    0.3688    0.3688    0.3688    0.3688    0.3688    0.3688

1F2(Hz)
  mean           1361.1691 1431.5618 1540.0099 1468.7056 1382.0687 1594.9962   573.529 1715.3824 1407.8892   1087.12  182.9445 1079.3236  933.7491
  std. dev.       579.0188  712.6322  736.2298  370.6571  677.1876  886.9887   855.291  593.2573  655.8699  643.6083  536.0273  882.1814  589.8158
  weight sum          2940       594      1438       274       261       748       359       208      1788      1377      6794      1088       423
  precision         0.4504    0.4504    0.4504    0.4504    0.4504    0.4504    0.4504    0.4504    0.4504    0.4504    0.4504    0.4504    0.4504

1F3(Hz)
  mean            2487.049 2400.4431 2334.9624 2822.3852 2354.9866 2246.1444  941.3005 2720.7046 2435.6044 2276.2654  313.3268 1816.4569 2280.9865
  std. dev.       1017.274 1114.3931 1092.4038     574.1 1117.9617 1243.3357 1360.3557  934.8311 1083.4285 1203.3602  898.7423 1456.7625 1204.2554
  weight sum          2940       594      1438       274       261       748       359       208      1788      1377      6794      1088       423
  precision         0.6705    0.6705    0.6705    0.6705    0.6705    0.6705    0.6705    0.6705    0.6705    0.6705    0.6705    0.6705    0.6705

1F4(Hz)
  mean           2887.8182 2825.1944 2827.1616 3269.4529 2769.7197 2704.0163 1102.4223 2987.6935 2797.1675 2631.6643  377.1315 2074.1952 2611.7192
  std. dev.      1170.9939 1281.0444 1299.7201  631.6893 1285.7643 1464.2027 1597.4595  998.5564 1221.0656 1382.1236 1079.4377 1657.6248 1326.9291
  weight sum          2940       594      1438       274       261       748       359       208      1788      1377      6794      1088       423
  precision         0.6851    0.6851    0.6851    0.6851    0.6851    0.6851    0.6851    0.6851    0.6851    0.6851    0.6851    0.6851    0.6851

2Int(dB)
  mean             -5.2562  -12.6892   -6.9781   -7.9197   -13.453  -10.5648  -29.0371   -9.9958   -12.268   -9.2289  -48.9843  -18.9987    -7.821
  std. dev.        10.6845   11.7406     9.587    6.6725    9.9848    9.3802   11.7357    8.1479   11.4469   12.1503   15.8913    8.6324   10.4376
  weight sum          2940       594      1438       274       261       748       359       208      1788      1377      6794      1088       423
  precision         0.1005    0.1005    0.1005    0.1005    0.1005    0.1005    0.1005    0.1005    0.1005    0.1005    0.1005    0.1005    0.1005

2Pitch(Hz)
  mean            210.9077  166.9471  179.7817  197.2304  147.5196  161.7269   45.2303  198.2059  160.6384  175.9738    15.546   89.1838  217.8099
  std. dev.       110.2129  109.8658   93.2543   86.8545  107.4902   84.8365   86.5396  113.3167  102.1983  108.3955   54.3414  105.9803   101.251
  weight sum          2940       594      1438       274       261       748       359       208      1788      1377      6794      1088       423
  precision         0.1626    0.1626    0.1626    0.1626    0.1626    0.1626    0.1626    0.1626    0.1626    0.1626    0.1626    0.1626    0.1626

2RawPitch
  mean            200.2188  153.9342  175.0704  191.0767  125.4184  151.7646   33.1084  170.7467  148.0714  167.5572   12.9606   67.2703  208.6619
  std. dev.       115.2026  113.8843    97.669   95.3647  107.1313   87.9735   78.7427   117.394   107.319  114.1306   49.1247   98.9769  106.1879
  weight sum          2940       594      1438       274       261       748       359       208      1788      1377      6794      1088       423
  precision         0.1679    0.1679    0.1679    0.1679    0.1679    0.1679    0.1679    0.1679    0.1679    0.1679    0.1679    0.1679    0.1679

2SmPitch
  mean            208.5725  163.7838  177.2466  195.7809  139.8605  159.4793   41.5697  182.0344  157.2666  173.3248   13.9244   82.9337  215.6213
  std. dev.       111.9157  111.3474   95.7152    89.259  105.8427   85.9419   84.5613  123.9228  103.8082   110.039   50.3099  104.2147  102.5619
  weight sum          2940       594      1438       274       261       748       359       208      1788      1377      6794      1088       423
  precision         0.1647    0.1647    0.1647    0.1647    0.1647    0.1647    0.1647    0.1647    0.1647    0.1647    0.1647    0.1647    0.1647

2Melogram(st)
  mean             50.4189   43.8398   48.2348   52.1878   41.8303   45.5707   13.8987   40.4791   43.4308   45.7502    4.6149   25.1874   50.2186
  std. dev.        18.0558   22.8015   18.1696   12.6868   22.7672   19.4988   23.9276   26.1363   22.4143   21.3432   15.1945   27.0619   19.9908
  weight sum          2940       594      1438       274       261       748       359       208      1788      1377      6794      1088       423
  precision         0.0294    0.0294    0.0294    0.0294    0.0294    0.0294    0.0294    0.0294    0.0294    0.0294    0.0294    0.0294    0.0294

2ZCross
  mean              6.5747    2.4526     4.777    3.5572    2.4071    3.3008    0.9038    4.3131    2.7762    3.9062    0.2453     3.486    3.5022
  std. dev.         4.6892    2.4563    3.5473    2.1965    2.4072    3.5385      2.67     3.335    2.5274    3.5254    1.2668     6.311    3.0347
  weight sum          2940       594      1438       274       261       748       359       208      1788      1377      6794      1088       423
  precision         1.2927    1.2927    1.2927    1.2927    1.2927    1.2927    1.2927    1.2927    1.2927    1.2927    1.2927    1.2927    1.2927

2F1(Hz)
  mean            637.5745  403.2101  432.7945  496.7666  457.1842    337.77  142.0452  517.6713  445.4676   450.362    53.593  300.0044  460.9396
  std. dev.       296.9353  236.5419  184.6991  165.6401   256.028  176.2367  234.9469  237.1531   236.879  244.3368  169.3736  300.3646  335.9081
  weight sum          2940       594      1438       274       261       748       359       208      1788      1377      6794      1088       423
  precision         0.3688    0.3688    0.3688    0.3688    0.3688    0.3688    0.3688    0.3688    0.3688    0.3688    0.3688    0.3688    0.3688

2F2(Hz)
  mean           1400.9882  1390.089 1632.6744 1453.0514 1322.7123 1742.2077  488.8921 1669.5818 1378.9653 1117.1452  162.6833  943.7002  979.7948
  std. dev.       529.3561    729.41   673.554  382.9596  699.8891  822.2232  814.8035  649.8485  677.7631  603.6027  507.4891  900.8743  538.5145
  weight sum          2940       594      1438       274       261       748       359       208      1788      1377      6794      1088       423
  precision         0.4504    0.4504    0.4504    0.4504    0.4504    0.4504    0.4504    0.4504    0.4504    0.4504    0.4504    0.4504    0.4504

2F3(Hz)
  mean           2565.6797 2335.5553 2447.1049 2804.1068 2268.6436 2408.7343  804.0563 2651.9452 2378.5124 2373.7752   279.465 1586.7814 2430.7754
  std. dev.       931.4867  1153.522  996.0136  617.0332  1175.068 1138.7559 1297.4194 1021.5289 1126.6481 1134.1201  854.4639 1490.9632  1089.578
  weight sum          2940       594      1438       274       261       748       359       208      1788      1377      6794      1088       423
  precision         0.6705    0.6705    0.6705    0.6705    0.6705    0.6705    0.6705    0.6705    0.6705    0.6705    0.6705    0.6705    0.6705

2F4(Hz)
  mean           2978.0599  2763.331  2953.752 3256.2582 2681.0905 2889.2593  947.5424  2910.987 2735.5895 2740.1433  336.5585 1812.6325 2777.4425
  std. dev.      1069.8428  1333.663 1176.1247  689.7267 1356.4028 1330.8507 1533.8938 1099.0413 1274.1474 1297.7013 1026.8796 1698.8261 1184.8746
  weight sum          2940       594      1438       274       261       748       359       208      1788      1377      6794      1088       423
  precision         0.6851    0.6851    0.6851    0.6851    0.6851    0.6851    0.6851    0.6851    0.6851    0.6851    0.6851    0.6851    0.6851

3Int(dB)
  mean             -4.6583  -12.9285   -5.9386   -8.3922   -14.457   -9.6878  -26.8144   -10.843  -12.9059    -8.538  -49.4538  -20.0847    -6.523
  std. dev.         9.9884   11.2858    8.7524    6.7514    9.1174    8.9009   10.7849    8.0929   11.0446   12.0283   15.1932    7.6133    9.2325
  weight sum          2940       594      1438       274       261       748       359       208      1788      1377      6794      1088       423
  precision         0.1005    0.1005    0.1005    0.1005    0.1005    0.1005    0.1005    0.1005    0.1005    0.1005    0.1005    0.1005    0.1005

3Pitch(Hz)
  mean            214.2999  164.0251  187.1289  195.7221  141.0758   169.624   50.2563   193.229  158.6824   180.298   13.6938   73.7984  226.0414
  std. dev.       107.3554  110.3131   89.1848   89.0024  107.2369   79.3475   92.1709  115.8584  102.1841  104.9788   51.1571  101.5493   90.8899
  weight sum          2940       594      1438       274       261       748       359       208      1788      1377      6794      1088       423
  precision         0.1626    0.1626    0.1626    0.1626    0.1626    0.1626    0.1626    0.1626    0.1626    0.1626    0.1626    0.1626    0.1626

3RawPitch
  mean            203.4999  151.3042  182.7671  190.1364  118.1042  160.2257   34.9983  163.7352  145.8014  173.1119    11.117   51.2221  217.7899
  std. dev.        112.824  114.0339   93.8486   97.1465  105.1012   83.7348   81.2069   119.526  107.4094   111.182   45.2445   89.8162   96.3272
  weight sum          2940       594      1438       274       261       748       359       208      1788      1377      6794      1088       423
  precision         0.1679    0.1679    0.1679    0.1679    0.1679    0.1679    0.1679    0.1679    0.1679    0.1679    0.1679    0.1679    0.1679

3SmPitch
  mean            212.0791  160.0578  185.0532  194.9849  133.6333  167.3233   42.6618   176.808  155.1611  177.9648   12.1462   67.1405  225.0495
  std. dev.       109.1565  112.2555    91.154   90.4121  104.9032   80.6951   87.7373   127.148  103.6989  106.8233   46.8965   98.3612   91.3186
  weight sum          2940       594      1438       274       261       748       359       208      1788      1377      6794      1088       423
  precision         0.1647    0.1647    0.1647    0.1647    0.1647    0.1647    0.1647    0.1647    0.1647    0.1647    0.1647    0.1647    0.1647

3Melogram(st)
  mean             51.3965   42.9332   50.1673   51.7352   40.1599   47.7876   14.2826   38.3508   42.7693   46.7989    4.1839   21.1461   52.9506
  std. dev.        16.7239   23.4206    15.729   13.4859   23.6891   17.1488   24.3913   27.0326   22.8013   20.3195   14.5516   26.4483   16.4082
  weight sum          2940       594      1438       274       261       748       359       208      1788      1377      6794      1088       423
  precision         0.0294    0.0294    0.0294    0.0294    0.0294    0.0294    0.0294    0.0294    0.0294    0.0294    0.0294    0.0294    0.0294

3ZCross
  mean              6.7426    2.2633    4.8777    3.4959    2.0356    3.3458    1.5951    4.1329    2.4581    4.0104     0.176    3.6642    3.6091
  std. dev.         4.6066    2.1902    3.2885    2.1909    2.1197    3.3619    3.8849    3.2724    2.2446    3.2415    0.9114    6.8364     2.929
  weight sum          2940       594      1438       274       261       748       359       208      1788      1377      6794      1088       423
  precision         1.2927    1.2927    1.2927    1.2927    1.2927    1.2927    1.2927    1.2927    1.2927    1.2927    1.2927    1.2927    1.2927

3F1(Hz)
  mean            664.8149  387.8062  452.4055   498.733  427.4933  353.4925  127.6663  497.0503  426.5745  474.0843     46.37  251.0896  482.6221
  std. dev.       276.6469  236.7462  159.6131  169.3003  266.6231  155.8578  228.0776  257.1319  236.4448  229.5879  157.5981  294.8533  319.3509
  weight sum          2940       594      1438       274       261       748       359       208      1788      1377      6794      1088       423
  precision         0.3688    0.3688    0.3688    0.3688    0.3688    0.3688    0.3688    0.3688    0.3688    0.3688    0.3688    0.3688    0.3688

3F2(Hz)
  mean           1438.6375 1355.9289 1730.4304 1445.7075 1255.6134 1886.1841  431.7638 1586.5331 1353.2069 1149.4791  141.7401  798.7645 1027.4385
  std. dev.       474.1145   740.105  583.9406  386.9614  728.5852  727.5947  778.0737  720.2017  692.2601  557.6755  475.9872  897.7998  482.4236
  weight sum          2940       594      1438       274       261       748       359       208      1788      1377      6794      1088       423
  precision         0.4504    0.4504    0.4504    0.4504    0.4504    0.4504    0.4504    0.4504    0.4504    0.4504    0.4504    0.4504    0.4504

3F3(Hz)
  mean           2639.6428 2275.3297 2566.2209 2794.9126 2161.8658 2569.2982  722.0767 2539.5137 2333.2836 2474.5963  243.9108 1339.5813 2578.9648
  std. dev.       836.6339 1178.2882  864.4824  636.9647 1236.4745 1001.9819 1259.9164 1137.2988 1158.4901 1047.0894  803.9046  1486.614   937.242
  weight sum          2940       594      1438       274       261       748       359       208      1788      1377      6794      1088       423
  precision         0.6705    0.6705    0.6705    0.6705    0.6705    0.6705    0.6705    0.6705    0.6705    0.6705    0.6705    0.6705    0.6705

3F4(Hz)
  mean           3062.2428  2712.388 3090.2109 3253.5853 2569.1202 3069.7504   839.695 2787.9035 2687.0272 2853.8724  294.0316 1532.2927 2942.8419
  std. dev.        957.834 1372.7244 1010.4123  716.7462  1435.181 1158.3793 1470.5476 1230.8393 1314.7306 1192.6404  966.9098 1697.2616  994.8814
  weight sum          2940       594      1438       274       261       748       359       208      1788      1377      6794      1088       423
  precision         0.6851    0.6851    0.6851    0.6851    0.6851    0.6851    0.6851    0.6851    0.6851    0.6851    0.6851    0.6851    0.6851

4Int(dB)
  mean             -4.4871  -12.4295   -5.4216   -8.4296  -14.8768   -9.1229   -23.807   -11.433  -12.9986   -8.3525  -49.8229  -20.8427   -5.5461
  std. dev.         9.7495   10.5978    8.2134    6.9616    8.5952    8.6417   10.1518    8.1091   10.5213   12.1594   14.6176    6.9618    7.9501
  weight sum          2940       594      1438       274       261       748       359       208      1788      1377      6794      1088       423
  precision         0.1005    0.1005    0.1005    0.1005    0.1005    0.1005    0.1005    0.1005    0.1005    0.1005    0.1005    0.1005    0.1005

4Pitch(Hz)
  mean            215.0265  166.0775  190.3918  195.1331  138.4937  173.2212   74.2804   189.521  160.7763  179.1301   11.8171   65.3303  230.9859
  std. dev.       106.7631  107.8218   87.4257   90.1576  106.1938   75.5653  107.7668  117.4738  101.2805   103.979   47.9085   98.1451   83.0165
  weight sum          2940       594      1438       274       261       748       359       208      1788      1377      6794      1088       423
  precision         0.1626    0.1626    0.1626    0.1626    0.1626    0.1626    0.1626    0.1626    0.1626    0.1626    0.1626    0.1626    0.1626

4RawPitch
  mean            204.5729  152.1597  186.9416  189.7645  114.3432  164.8509   52.3656  159.3212   147.628  172.8881    9.4639   41.3002  221.8351
  std. dev.       112.2304   112.921   92.1579   97.5291  102.4081   80.9322   95.3432  120.6807  106.4437  110.0663   41.8811   81.8762   90.5835
  weight sum          2940       594      1438       274       261       748       359       208      1788      1377      6794      1088       423
  precision         0.1679    0.1679    0.1679    0.1679    0.1679    0.1679    0.1679    0.1679    0.1679    0.1679    0.1679    0.1679    0.1679

4SmPitch
  mean            213.0261   161.354  188.8901  194.7762  131.3637   170.918   62.4555  173.1423  157.3569  177.1958    10.227    58.482  230.1655
  std. dev.       108.3889   110.475   88.8533   90.8856  103.6517   77.6434  104.0351  128.2142  102.8844  105.5718   43.0626   93.9293   83.5323
  weight sum          2940       594      1438       274       261       748       359       208      1788      1377      6794      1088       423
  precision         0.1647    0.1647    0.1647    0.1647    0.1647    0.1647    0.1647    0.1647    0.1647    0.1647    0.1647    0.1647    0.1647

4Melogram(st)
  mean             51.7443   43.3262    50.757   51.4874   39.8199   48.7629   19.2437   37.3835   43.1466   46.9889    3.6614   18.9536   54.7081
  std. dev.        16.1385   23.0622   14.7786    13.878   23.9008   15.7624   26.8969   27.4632   22.5915   20.0024   13.7186   25.9113      13.2
  weight sum          2940       594      1438       274       261       748       359       208      1788      1377      6794      1088       423
  precision         0.0294    0.0294    0.0294    0.0294    0.0294    0.0294    0.0294    0.0294    0.0294    0.0294    0.0294    0.0294    0.0294

4ZCross
  mean              6.8081    2.2589    4.8831    3.6374     1.892    3.3285    2.1785    4.0396    2.2904    4.0329    0.1408     3.745     3.713
  std. dev.         4.5857    2.0707    3.1607    2.2054    1.9842    3.1155    4.3479    3.2326    2.0063    2.9611    0.7915    7.1467    2.8728
  weight sum          2940       594      1438       274       261       748       359       208      1788      1377      6794      1088       423
  precision         1.2927    1.2927    1.2927    1.2927    1.2927    1.2927    1.2927    1.2927    1.2927    1.2927    1.2927    1.2927    1.2927

4F1(Hz)
  mean            684.8624  383.8168  467.7497  501.2874  399.7197  366.3373  142.4787  486.1043  413.7109  488.3137   40.0819  209.0603  499.4556
  std. dev.       260.7635  232.2972  137.6849  170.6693  273.4014  136.8258  238.7502   268.092  232.1978  220.1308  146.5535  281.8697   302.477
  weight sum          2940       594      1438       274       261       748       359       208      1788      1377      6794      1088       423
  precision         0.3688    0.3688    0.3688    0.3688    0.3688    0.3688    0.3688    0.3688    0.3688    0.3688    0.3688    0.3688    0.3688

4F2(Hz)
  mean             1462.31 1349.6905 1804.3312 1443.6267 1203.5318 1998.9223  455.5853 1528.4904 1344.3387 1157.6298   123.524  679.9428 1072.0404
  std. dev.       430.5852  728.3086  496.1344  393.2262  754.0967  624.7892   774.158  755.9826  694.7635  525.4581  447.0477    878.69  424.8655
  weight sum          2940       594      1438       274       261       748       359       208      1788      1377      6794      1088       423
  precision         0.4504    0.4504    0.4504    0.4504    0.4504    0.4504    0.4504    0.4504    0.4504    0.4504    0.4504    0.4504    0.4504

4F3(Hz)
  mean           2687.7356 2268.8241 2653.2835 2791.7189 2069.2644 2693.2397  790.4307  2465.751 2319.5551 2526.8298  212.1309 1133.9016 2703.6172
  std. dev.       764.2898 1165.0514  742.6344  658.6982 1282.9054  863.6174 1294.5372  1196.626  1170.449  995.0347  754.3882 1449.5509  758.4179
  weight sum          2940       594      1438       274       261       748       359       208      1788      1377      6794      1088       423
  precision         0.6705    0.6705    0.6705    0.6705    0.6705    0.6705    0.6705    0.6705    0.6705    0.6705    0.6705    0.6705    0.6705

4F4(Hz)
  mean           3116.7672 2720.5333 3189.0151 3246.4091 2471.0333 3209.5559  925.0577 2715.8314  2669.269 2910.5036   256.116 1303.1942 3086.4504
  std. dev.       872.2076 1363.5495  856.4692  742.7362 1495.7988  985.3806 1518.7625 1302.3612 1330.0138 1127.9374  908.5444 1663.3803  766.0819
  weight sum          2940       594      1438       274       261       748       359       208      1788      1377      6794      1088       423
  precision         0.6851    0.6851    0.6851    0.6851    0.6851    0.6851    0.6851    0.6851    0.6851    0.6851    0.6851    0.6851    0.6851





=== Stratified cross-validation ===

Correctly Classified Instances        8174               44.6862 %
Incorrectly Classified Instances     10118               55.3138 %
Kappa statistic                          0.3322
K&B Relative Info Score             536548.6764 %
K&B Information Score                15736.7818 bits      0.8603 bits/instance
Class complexity | order 0           53630.1246 bits      2.9319 bits/instance
Class complexity | scheme           481103.314  bits     26.3013 bits/instance
Complexity improvement     (Sf)    -427473.1895 bits    -23.3694 bits/instance
Mean absolute error                      0.0851
Root mean squared error                  0.2816
Relative absolute error                 68.5149 %
Root relative squared error            113.0064 %
Coverage of cases (0.95 level)          49.4588 %
Mean rel. region size (0.95 level)       9.8803 %
Total Number of Instances            18292     


=== Detailed Accuracy By Class ===

                 TP Rate  FP Rate  Precision  Recall   F-Measure  MCC      ROC Area  PRC Area  Class
                 0,359    0,042    0,618      0,359    0,454      0,399    0,846     0,548     a
                 0,000    0,001    0,000      0,000    0,000      -0,006   0,706     0,057     b
                 0,113    0,015    0,385      0,113    0,174      0,175    0,822     0,264     e
                 0,792    0,314    0,037      0,792    0,070      0,124    0,820     0,052     d
                 0,046    0,015    0,042      0,046    0,044      0,029    0,726     0,030     f
                 0,233    0,024    0,293      0,233    0,259      0,233    0,842     0,237     i
                 0,265    0,044    0,107      0,265    0,152      0,142    0,821     0,100     k
                 0,096    0,004    0,217      0,096    0,133      0,138    0,817     0,093     j
                 0,032    0,015    0,186      0,032    0,055      0,039    0,715     0,162     l
                 0,007    0,004    0,132      0,007    0,014      0,014    0,725     0,153     o
                 0,889    0,087    0,858      0,889    0,873      0,797    0,954     0,943     0
                 0,242    0,027    0,359      0,242    0,289      0,259    0,815     0,294     s
                 0,163    0,010    0,286      0,163    0,208      0,202    0,836     0,156     u
Weighted Avg.    0,447    0,051    0,522      0,447    0,456      0,415    0,853     0,523     


=== Confusion Matrix ===

    a    b    c    d    e    f    g    h    i    j    k    l    m   <-- classified as
 1054    1   74 1261   33   75  138    7   41   41   93   50   72 |    a = a
   38    0    4  337   15   44   44    3   20    0   58   30    1 |    b = b
  161    8  162  779   14  102   76    7   17   15   46   29   22 |    c = e
   25    0    7  217    0    0    2    0    8    0    6    8    1 |    d = d
   15    0    3  144   12    7   20    5    9    0   28   18    0 |    e = f
   38    2   77  312    9  174   57    2   14    2   31   27    3 |    f = i
    5    1    0   34   14    7   95    1   10    2  158   32    0 |    g = k
   31    1   11   89    9   10    7   20    4    0   10   16    0 |    h = j
  115    4   36 1096   40   45  104    8   58    2  187   85    8 |    i = l
  123    0   35  798   31   57   78    2   34   10  121   32   56 |    j = o
   15    1    6  352   50   27  101   11   48    2 6040  135    6 |    k = 0
   37    4    3  255   59   19  132   24   39    1  249  263    3 |    l = s
   49    0    3  209    2   27   35    2   10    1    9    7   69 |    m = u

=== Percent Confusion Matrix ===
a	b	c	d	e	f	g	h	i	j	k	l	m	
35.85	0.03	2.52	42.89	1.12	2.55	4.69	0.24	1.39	1.39	3.16	1.7	2.45	 a = a
6.4	0.0	0.67	56.73	2.53	7.41	7.41	0.51	3.37	0.0	9.76	5.05	0.17	 b = b
11.2	0.56	11.27	54.17	0.97	7.09	5.29	0.49	1.18	1.04	3.2	2.02	1.53	 c = e
9.12	0.0	2.55	79.2	0.0	0.0	0.73	0.0	2.92	0.0	2.19	2.92	0.36	 d = d
5.75	0.0	1.15	55.17	4.6	2.68	7.66	1.92	3.45	0.0	10.73	6.9	0.0	 e = f
5.08	0.27	10.29	41.71	1.2	23.26	7.62	0.27	1.87	0.27	4.14	3.61	0.4	 f = i
1.39	0.28	0.0	9.47	3.9	1.95	26.46	0.28	2.79	0.56	44.01	8.91	0.0	 g = k
14.9	0.48	5.29	42.79	4.33	4.81	3.37	9.62	1.92	0.0	4.81	7.69	0.0	 h = j
6.43	0.22	2.01	61.3	2.24	2.52	5.82	0.45	3.24	0.11	10.46	4.75	0.45	 i = l
8.93	0.0	2.54	57.95	2.25	4.14	5.66	0.15	2.47	0.73	8.79	2.32	4.07	 j = o
0.22	0.01	0.09	5.18	0.74	0.4	1.49	0.16	0.71	0.03	88.9	1.99	0.09	 k = 0
3.4	0.37	0.28	23.44	5.42	1.75	12.13	2.21	3.58	0.09	22.89	24.17	0.28	 l = s
11.58	0.0	0.71	49.41	0.47	6.38	8.27	0.47	2.36	0.24	2.13	1.65	16.31	 m = u
