Timestamp:2013-07-22-21:00:47
Inventario:I1
Intervalo:1ms
Ngramas:5
Clasificador:RandomForest
Relation Name:  I1-1ms-5gramas
Num Instances:  183400
Num Attributes: 51

     Name                      Type  Nom  Int Real     Missing      Unique  Dist
   1 0Int(dB)                   Num   0%   9%  91%     0 /  0%     2 /  0%   779 
   2 0Pitch(Hz)                 Num   0%  51%  49%     0 /  0%   256 /  0%  4213 
   3 0RawPitch                  Num   0%  55%  45%     0 /  0%   417 /  0%  4119 
   4 0SmPitch                   Num   0%  53%  47%     0 /  0%   263 /  0%  4193 
   5 0Melogram(st)              Num   0%  49%  51%     0 /  0%   133 /  0%  3454 
   6 0ZCross                    Num   0% 100%   0%     0 /  0%     4 /  0%    58 
   7 0F1(Hz)                    Num   0%  52%  48%     0 /  0%  1154 /  1%  4824 
   8 0F2(Hz)                    Num   0%  52%  48%     0 /  0%  2223 /  1%  6697 
   9 0F3(Hz)                    Num   0%  53%  47%     0 /  0%  1930 /  1%  6200 
  10 0F4(Hz)                    Num   0%  52%  48%     0 /  0%  1933 /  1%  6096 
  11 1Int(dB)                   Num   0%   9%  91%     0 /  0%     2 /  0%   779 
  12 1Pitch(Hz)                 Num   0%  51%  49%     0 /  0%   256 /  0%  4213 
  13 1RawPitch                  Num   0%  55%  45%     0 /  0%   417 /  0%  4119 
  14 1SmPitch                   Num   0%  53%  47%     0 /  0%   263 /  0%  4193 
  15 1Melogram(st)              Num   0%  49%  51%     0 /  0%   133 /  0%  3454 
  16 1ZCross                    Num   0% 100%   0%     0 /  0%     4 /  0%    58 
  17 1F1(Hz)                    Num   0%  52%  48%     0 /  0%  1154 /  1%  4824 
  18 1F2(Hz)                    Num   0%  52%  48%     0 /  0%  2223 /  1%  6697 
  19 1F3(Hz)                    Num   0%  53%  47%     0 /  0%  1930 /  1%  6200 
  20 1F4(Hz)                    Num   0%  52%  48%     0 /  0%  1933 /  1%  6096 
  21 2Int(dB)                   Num   0%   9%  91%     0 /  0%     3 /  0%   780 
  22 2Pitch(Hz)                 Num   0%  51%  49%     0 /  0%   256 /  0%  4213 
  23 2RawPitch                  Num   0%  55%  45%     0 /  0%   417 /  0%  4119 
  24 2SmPitch                   Num   0%  53%  47%     0 /  0%   263 /  0%  4193 
  25 2Melogram(st)              Num   0%  49%  51%     0 /  0%   133 /  0%  3454 
  26 2ZCross                    Num   0% 100%   0%     0 /  0%     4 /  0%    58 
  27 2F1(Hz)                    Num   0%  52%  48%     0 /  0%  1154 /  1%  4824 
  28 2F2(Hz)                    Num   0%  52%  48%     0 /  0%  2223 /  1%  6697 
  29 2F3(Hz)                    Num   0%  53%  47%     0 /  0%  1930 /  1%  6200 
  30 2F4(Hz)                    Num   0%  52%  48%     0 /  0%  1933 /  1%  6096 
  31 3Int(dB)                   Num   0%   9%  91%     0 /  0%     4 /  0%   781 
  32 3Pitch(Hz)                 Num   0%  51%  49%     0 /  0%   256 /  0%  4213 
  33 3RawPitch                  Num   0%  55%  45%     0 /  0%   417 /  0%  4119 
  34 3SmPitch                   Num   0%  53%  47%     0 /  0%   263 /  0%  4193 
  35 3Melogram(st)              Num   0%  49%  51%     0 /  0%   133 /  0%  3454 
  36 3ZCross                    Num   0% 100%   0%     0 /  0%     4 /  0%    58 
  37 3F1(Hz)                    Num   0%  52%  48%     0 /  0%  1154 /  1%  4824 
  38 3F2(Hz)                    Num   0%  52%  48%     0 /  0%  2223 /  1%  6697 
  39 3F3(Hz)                    Num   0%  53%  47%     0 /  0%  1930 /  1%  6200 
  40 3F4(Hz)                    Num   0%  52%  48%     0 /  0%  1933 /  1%  6096 
  41 4Int(dB)                   Num   0%   9%  91%     0 /  0%     3 /  0%   781 
  42 4Pitch(Hz)                 Num   0%  51%  49%     0 /  0%   256 /  0%  4213 
  43 4RawPitch                  Num   0%  55%  45%     0 /  0%   417 /  0%  4119 
  44 4SmPitch                   Num   0%  53%  47%     0 /  0%   263 /  0%  4193 
  45 4Melogram(st)              Num   0%  49%  51%     0 /  0%   133 /  0%  3454 
  46 4ZCross                    Num   0% 100%   0%     0 /  0%     4 /  0%    58 
  47 4F1(Hz)                    Num   0%  52%  48%     0 /  0%  1154 /  1%  4824 
  48 4F2(Hz)                    Num   0%  52%  48%     0 /  0%  2223 /  1%  6697 
  49 4F3(Hz)                    Num   0%  53%  47%     0 /  0%  1930 /  1%  6200 
  50 4F4(Hz)                    Num   0%  52%  48%     0 /  0%  1933 /  1%  6096 
  51 class                      Nom 100%   0%   0%     0 /  0%     0 /  0%    13 


Options: -I 10 -K 0 -S 1 -num-slots 4 

Random forest of 10 trees, each constructed while considering 6 random features.
Out of bag error: 0.1262





=== Stratified cross-validation ===

Correctly Classified Instances      165703               90.3506 %
Incorrectly Classified Instances     17697                9.6494 %
Kappa statistic                          0.8777
K&B Relative Info Score            15769769.8017 %
K&B Information Score               454244.9399 bits      2.4768 bits/instance
Class complexity | order 0          528255.3218 bits      2.8803 bits/instance
Class complexity | scheme          7365181.5075 bits     40.1591 bits/instance
Complexity improvement     (Sf)    -6836926.1857 bits    -37.2788 bits/instance
Mean absolute error                      0.0224
Root mean squared error                  0.1054
Relative absolute error                 18.3694 %
Root relative squared error             42.6551 %
Coverage of cases (0.95 level)          96.2732 %
Mean rel. region size (0.95 level)      13.204  %
Total Number of Instances           183400     


=== Detailed Accuracy By Class ===

                 TP Rate  FP Rate  Precision  Recall   F-Measure  MCC      ROC Area  PRC Area  Class
                 0,943    0,010    0,947      0,943    0,945      0,935    0,982     0,966     a
                 0,809    0,005    0,840      0,809    0,824      0,819    0,947     0,853     b
                 0,944    0,004    0,948      0,944    0,946      0,941    0,983     0,963     e
                 0,941    0,001    0,959      0,941    0,950      0,949    0,985     0,964     d
                 0,744    0,003    0,788      0,744    0,766      0,763    0,933     0,791     f
                 0,930    0,002    0,947      0,930    0,939      0,936    0,979     0,952     i
                 0,478    0,008    0,554      0,478    0,513      0,506    0,854     0,488     k
                 0,822    0,001    0,901      0,822    0,859      0,859    0,942     0,858     j
                 0,835    0,014    0,863      0,835    0,849      0,833    0,961     0,896     l
                 0,878    0,004    0,941      0,878    0,909      0,902    0,960     0,914     o
                 0,952    0,058    0,915      0,952    0,933      0,888    0,986     0,970     0
                 0,759    0,015    0,758      0,759    0,758      0,744    0,956     0,814     s
                 0,960    0,000    0,987      0,960    0,973      0,973    0,993     0,981     u
Weighted Avg.    0,904    0,027    0,902      0,904    0,903      0,880    0,974     0,932     


=== Confusion Matrix ===

     a     b     c     d     e     f     g     h     i     j     k     l     m   <-- classified as
 26931    74    49    12    28    23   151    14   258    36   783   194     4 |     a = a
   101  4703    49     6    31    30    91     7   180    37   439   131     9 |     b = b
    59    47 12971    11    20    28    54     5   156    31   274    81     3 |     c = e
    28     5    29  2524     7     0     2     0    18    13    26    29     1 |     d = d
    55    32    24     1  1905    13    37     8    64    33   115   274     0 |     e = f
    40    40    33     1     6  6590    25     4    60     9   222    51     2 |     f = i
   126    81    71     5    34    20  1700    12   258    42   834   365     7 |     g = k
    22     9    18     0    14     4    33  1694    38     9    78   142     1 |     h = j
   314   139   155    15    59    60   265    28 14447    83  1338   380     9 |     i = l
    95    60    34    20    42    16    45     8   139 11621  1034   120     0 |     j = o
   457   253   194    18    90   127   421    51   730   352 68629   782     9 |     k = 0
   198   134    52    19   178    38   225    47   368    69  1216  8018     8 |     l = s
    15    19     8     1     2    11    20     3    32    10    41     5  3970 |     m = u

=== Percent Confusion Matrix ===
a	b	c	d	e	f	g	h	i	j	k	l	m	
94.31	0.26	0.17	0.04	0.1	0.08	0.53	0.05	0.9	0.13	2.74	0.68	0.01	 a = a
1.74	80.89	0.84	0.1	0.53	0.52	1.57	0.12	3.1	0.64	7.55	2.25	0.15	 b = b
0.43	0.34	94.4	0.08	0.15	0.2	0.39	0.04	1.14	0.23	1.99	0.59	0.02	 c = e
1.04	0.19	1.08	94.11	0.26	0.0	0.07	0.0	0.67	0.48	0.97	1.08	0.04	 d = d
2.15	1.25	0.94	0.04	74.39	0.51	1.44	0.31	2.5	1.29	4.49	10.7	0.0	 e = f
0.56	0.56	0.47	0.01	0.08	93.04	0.35	0.06	0.85	0.13	3.13	0.72	0.03	 f = i
3.54	2.28	2.0	0.14	0.96	0.56	47.82	0.34	7.26	1.18	23.46	10.27	0.2	 g = k
1.07	0.44	0.87	0.0	0.68	0.19	1.6	82.15	1.84	0.44	3.78	6.89	0.05	 h = j
1.82	0.8	0.9	0.09	0.34	0.35	1.53	0.16	83.55	0.48	7.74	2.2	0.05	 i = l
0.72	0.45	0.26	0.15	0.32	0.12	0.34	0.06	1.05	87.81	7.81	0.91	0.0	 j = o
0.63	0.35	0.27	0.02	0.12	0.18	0.58	0.07	1.01	0.49	95.17	1.08	0.01	 k = 0
1.87	1.27	0.49	0.18	1.68	0.36	2.13	0.44	3.48	0.65	11.5	75.86	0.08	 l = s
0.36	0.46	0.19	0.02	0.05	0.27	0.48	0.07	0.77	0.24	0.99	0.12	95.96	 m = u
