Timestamp:2014-12-07-10:51:36
Inventario:I1
Intervalo:10ms
Ngramas:4
Clasificador:NaiveBayes
Relation Name:  I1-10ms-4gramas
Num Instances:  18293
Num Attributes: 41

     Name                      Type  Nom  Int Real     Missing      Unique  Dist
   1 0Int(dB)                   Num   0%  10%  90%     0 /  0%     7 /  0%   772 
   2 0Pitch(Hz)                 Num   0%  51%  49%     0 /  0%   816 /  4%  3063 
   3 0RawPitch                  Num   0%  54%  46%     0 /  0%   853 /  5%  2955 
   4 0SmPitch                   Num   0%  52%  48%     0 /  0%   827 /  5%  3024 
   5 0Melogram(st)              Num   0%  47%  53%     0 /  0%   581 /  3%  2807 
   6 0ZCross                    Num   0% 100%   0%     0 /  0%    10 /  0%    42 
   7 0F1(Hz)                    Num   0%  51%  49%     0 /  0%  2131 / 12%  4724 
   8 0F2(Hz)                    Num   0%  51%  49%     0 /  0%  4210 / 23%  6615 
   9 0F3(Hz)                    Num   0%  51%  49%     0 /  0%  3688 / 20%  6145 
  10 0F4(Hz)                    Num   0%  51%  49%     0 /  0%  3689 / 20%  6054 
  11 1Int(dB)                   Num   0%  10%  90%     0 /  0%     7 /  0%   772 
  12 1Pitch(Hz)                 Num   0%  51%  49%     0 /  0%   816 /  4%  3063 
  13 1RawPitch                  Num   0%  54%  46%     0 /  0%   853 /  5%  2955 
  14 1SmPitch                   Num   0%  52%  48%     0 /  0%   827 /  5%  3024 
  15 1Melogram(st)              Num   0%  47%  53%     0 /  0%   581 /  3%  2807 
  16 1ZCross                    Num   0% 100%   0%     0 /  0%    10 /  0%    42 
  17 1F1(Hz)                    Num   0%  51%  49%     0 /  0%  2131 / 12%  4724 
  18 1F2(Hz)                    Num   0%  51%  49%     0 /  0%  4210 / 23%  6615 
  19 1F3(Hz)                    Num   0%  51%  49%     0 /  0%  3688 / 20%  6145 
  20 1F4(Hz)                    Num   0%  51%  49%     0 /  0%  3689 / 20%  6054 
  21 2Int(dB)                   Num   0%  10%  90%     0 /  0%     7 /  0%   772 
  22 2Pitch(Hz)                 Num   0%  51%  49%     0 /  0%   816 /  4%  3063 
  23 2RawPitch                  Num   0%  54%  46%     0 /  0%   853 /  5%  2955 
  24 2SmPitch                   Num   0%  52%  48%     0 /  0%   827 /  5%  3024 
  25 2Melogram(st)              Num   0%  47%  53%     0 /  0%   581 /  3%  2807 
  26 2ZCross                    Num   0% 100%   0%     0 /  0%    10 /  0%    42 
  27 2F1(Hz)                    Num   0%  51%  49%     0 /  0%  2131 / 12%  4724 
  28 2F2(Hz)                    Num   0%  51%  49%     0 /  0%  4210 / 23%  6615 
  29 2F3(Hz)                    Num   0%  51%  49%     0 /  0%  3688 / 20%  6145 
  30 2F4(Hz)                    Num   0%  51%  49%     0 /  0%  3689 / 20%  6054 
  31 3Int(dB)                   Num   0%  10%  90%     0 /  0%     7 /  0%   772 
  32 3Pitch(Hz)                 Num   0%  51%  49%     0 /  0%   817 /  4%  3064 
  33 3RawPitch                  Num   0%  54%  46%     0 /  0%   854 /  5%  2956 
  34 3SmPitch                   Num   0%  52%  48%     0 /  0%   828 /  5%  3025 
  35 3Melogram(st)              Num   0%  47%  53%     0 /  0%   582 /  3%  2808 
  36 3ZCross                    Num   0% 100%   0%     0 /  0%    10 /  0%    42 
  37 3F1(Hz)                    Num   0%  51%  49%     0 /  0%  2131 / 12%  4724 
  38 3F2(Hz)                    Num   0%  51%  49%     0 /  0%  4210 / 23%  6615 
  39 3F3(Hz)                    Num   0%  51%  49%     0 /  0%  3688 / 20%  6145 
  40 3F4(Hz)                    Num   0%  51%  49%     0 /  0%  3689 / 20%  6054 
  41 class                      Nom 100%   0%   0%     0 /  0%     0 /  0%    13 


Naive Bayes Classifier

                    Class
Attribute               a         b         e         d         f         i         k         j         l         o         0         s         u
                   (0.16)    (0.03)    (0.08)    (0.02)    (0.01)    (0.04)    (0.02)    (0.01)     (0.1)    (0.08)    (0.37)    (0.06)    (0.02)
==================================================================================================================================================
0Int(dB)
  mean             -6.0715  -12.0773   -8.2832   -7.4101   -12.229  -11.5529  -29.7121   -8.9959  -11.3777  -10.1884  -48.5008  -17.8566    -9.141
  std. dev.         11.593   11.9572   10.5574    6.5796   10.7764   10.0097    13.133    8.3062   11.4403   12.4847   16.5452    9.7234    11.517
  weight sum          2940       594      1438       274       261       748       359       208      1788      1377      6795      1088       423
  precision         0.1005    0.1005    0.1005    0.1005    0.1005    0.1005    0.1005    0.1005    0.1005    0.1005    0.1005    0.1005    0.1005

0Pitch(Hz)
  mean            206.0621  171.2937  171.3761  198.7927  155.4117  151.1778   52.2515  204.1805  164.8362  169.4942    17.615  105.2645  206.5505
  std. dev.       114.2169  108.4803   97.3583   85.1445  107.1208   90.4554   90.8879  109.9244  100.6919  112.1681   57.6262  108.3916  112.6088
  weight sum          2940       594      1438       274       261       748       359       208      1788      1377      6795      1088       423
  precision         0.1626    0.1626    0.1626    0.1626    0.1626    0.1626    0.1626    0.1626    0.1626    0.1626    0.1626    0.1626    0.1626

0RawPitch
  mean            195.4446  160.9589  165.9268  191.4984  134.3425  140.1369   44.2356  179.2415  152.3061  160.7417    14.716   84.1322  196.9115
  std. dev.       118.3762  112.6321  101.4248   94.4455  108.4897   92.6731    90.161  114.9368  106.1494  117.1537   52.3139  105.4116  116.0658
  weight sum          2940       594      1438       274       261       748       359       208      1788      1377      6795      1088       423
  precision         0.1679    0.1679    0.1679    0.1679    0.1679    0.1679    0.1679    0.1679    0.1679    0.1679    0.1679    0.1679    0.1679

0SmPitch
  mean            203.8807  168.8457  168.9406  196.8992  147.5141  148.7333   49.1687   189.762  160.9791  166.8657   15.9847   99.1219  203.2317
  std. dev.       115.5779  109.5157   99.8036    88.053  106.2865   91.0219   89.7494  118.5348  102.6724  113.6276   53.9912  107.7534  114.3476
  weight sum          2940       594      1438       274       261       748       359       208      1788      1377      6795      1088       423
  precision         0.1647    0.1647    0.1647    0.1647    0.1647    0.1647    0.1647    0.1647    0.1647    0.1647    0.1647    0.1647    0.1647

0Melogram(st)
  mean               49.16   45.0143   46.0304    52.515   43.7744   42.8057    15.562   43.3962   44.6065   44.1418    5.1045    29.426   46.9326
  std. dev.         19.561   21.9175   20.3297   12.2196   21.5454   21.7211    24.636   24.5265   21.6008   22.6348   15.8989   27.0956   23.1329
  weight sum          2940       594      1438       274       261       748       359       208      1788      1377      6795      1088       423
  precision         0.0294    0.0294    0.0294    0.0294    0.0294    0.0294    0.0294    0.0294    0.0294    0.0294    0.0294    0.0294    0.0294

0ZCross
  mean                6.39    2.7268    4.5442    3.6516    2.8924    3.2766     0.767     4.599    3.1312    3.7485    0.3145    3.2068    3.4685
  std. dev.         4.8474    2.7447    3.6764    2.2302    2.7663    3.9228    2.1753     3.424    2.7623    3.6397    1.5733    5.4768    3.3113
  weight sum          2940       594      1438       274       261       748       359       208      1788      1377      6795      1088       423
  precision         1.2927    1.2927    1.2927    1.2927    1.2927    1.2927    1.2927    1.2927    1.2927    1.2927    1.2927    1.2927    1.2927

0F1(Hz)
  mean            608.9814  420.5783  414.4876  501.4785  481.1684  324.4815  165.4842  529.5553  464.9534  427.1986   60.6312  346.0092  438.9512
  std. dev.       314.7754   233.997  204.0813  158.0796  244.4663  196.3871  245.7115  219.8325  234.5858  255.5101  179.8204  298.6162  351.0171
  weight sum          2940       594      1438       274       261       748       359       208      1788      1377      6795      1088       423
  precision         0.3688    0.3688    0.3688    0.3688    0.3688    0.3688    0.3688    0.3688    0.3688    0.3688    0.3688    0.3688    0.3688

0F2(Hz)
  mean           1361.1691 1431.5618 1540.0099 1468.7056 1382.0687 1594.9962   573.529 1715.3824 1407.8892   1087.12  182.9176 1079.3236  933.7491
  std. dev.       579.0188  712.6322  736.2298  370.6571  677.1876  886.9887   855.291  593.2573  655.8699  643.6083  535.9925  882.1814  589.8158
  weight sum          2940       594      1438       274       261       748       359       208      1788      1377      6795      1088       423
  precision         0.4504    0.4504    0.4504    0.4504    0.4504    0.4504    0.4504    0.4504    0.4504    0.4504    0.4504    0.4504    0.4504

0F3(Hz)
  mean            2487.049 2400.4431 2334.9624 2822.3852 2354.9866 2246.1444  941.3005 2720.7046 2435.6044 2276.2654  313.2807 1816.4569 2280.9865
  std. dev.       1017.274 1114.3931 1092.4038     574.1 1117.9617 1243.3357 1360.3557  934.8311 1083.4285 1203.3602  898.6842 1456.7625 1204.2554
  weight sum          2940       594      1438       274       261       748       359       208      1788      1377      6795      1088       423
  precision         0.6705    0.6705    0.6705    0.6705    0.6705    0.6705    0.6705    0.6705    0.6705    0.6705    0.6705    0.6705    0.6705

0F4(Hz)
  mean           2887.8182 2825.1944 2827.1616 3269.4529 2769.7197 2704.0163 1102.4223 2987.6935 2797.1675 2631.6643   377.076 2074.1952 2611.7192
  std. dev.      1170.9939 1281.0444 1299.7201  631.6893 1285.7643 1464.2027 1597.4595  998.5564 1221.0656 1382.1236 1079.3679 1657.6248 1326.9291
  weight sum          2940       594      1438       274       261       748       359       208      1788      1377      6795      1088       423
  precision         0.6851    0.6851    0.6851    0.6851    0.6851    0.6851    0.6851    0.6851    0.6851    0.6851    0.6851    0.6851    0.6851

1Int(dB)
  mean             -5.2562  -12.6892   -6.9781   -7.9197   -13.453  -10.5648  -29.0371   -9.9958   -12.268   -9.2289  -48.9834  -18.9987    -7.821
  std. dev.        10.6845   11.7406     9.587    6.6725    9.9848    9.3802   11.7357    8.1479   11.4469   12.1503   15.8904    8.6324   10.4376
  weight sum          2940       594      1438       274       261       748       359       208      1788      1377      6795      1088       423
  precision         0.1005    0.1005    0.1005    0.1005    0.1005    0.1005    0.1005    0.1005    0.1005    0.1005    0.1005    0.1005    0.1005

1Pitch(Hz)
  mean            210.9077  166.9471  179.7817  197.2304  147.5196  161.7269   45.2303  198.2059  160.6384  175.9738   15.5437   89.1838  217.8099
  std. dev.       110.2129  109.8658   93.2543   86.8545  107.4902   84.8365   86.5396  113.3167  102.1983  108.3955   54.3378  105.9803   101.251
  weight sum          2940       594      1438       274       261       748       359       208      1788      1377      6795      1088       423
  precision         0.1626    0.1626    0.1626    0.1626    0.1626    0.1626    0.1626    0.1626    0.1626    0.1626    0.1626    0.1626    0.1626

1RawPitch
  mean            200.2188  153.9342  175.0704  191.0767  125.4184  151.7646   33.1084  170.7467  148.0714  167.5572   12.9587   67.2703  208.6619
  std. dev.       115.2026  113.8843    97.669   95.3647  107.1313   87.9735   78.7427   117.394   107.319  114.1306   49.1213   98.9769  106.1879
  weight sum          2940       594      1438       274       261       748       359       208      1788      1377      6795      1088       423
  precision         0.1679    0.1679    0.1679    0.1679    0.1679    0.1679    0.1679    0.1679    0.1679    0.1679    0.1679    0.1679    0.1679

1SmPitch
  mean            208.5725  163.7838  177.2466  195.7809  139.8605  159.4793   41.5697  182.0344  157.2666  173.3248   13.9223   82.9337  215.6213
  std. dev.       111.9157  111.3474   95.7152    89.259  105.8427   85.9419   84.5613  123.9228  103.8082   110.039   50.3065  104.2147  102.5619
  weight sum          2940       594      1438       274       261       748       359       208      1788      1377      6795      1088       423
  precision         0.1647    0.1647    0.1647    0.1647    0.1647    0.1647    0.1647    0.1647    0.1647    0.1647    0.1647    0.1647    0.1647

1Melogram(st)
  mean             50.4189   43.8398   48.2348   52.1878   41.8303   45.5707   13.8987   40.4791   43.4308   45.7502    4.6142   25.1874   50.2186
  std. dev.        18.0558   22.8015   18.1696   12.6868   22.7672   19.4988   23.9276   26.1363   22.4143   21.3432   15.1935   27.0619   19.9908
  weight sum          2940       594      1438       274       261       748       359       208      1788      1377      6795      1088       423
  precision         0.0294    0.0294    0.0294    0.0294    0.0294    0.0294    0.0294    0.0294    0.0294    0.0294    0.0294    0.0294    0.0294

1ZCross
  mean              6.5747    2.4526     4.777    3.5572    2.4071    3.3008    0.9038    4.3131    2.7762    3.9062    0.2452     3.486    3.5022
  std. dev.         4.6892    2.4563    3.5473    2.1965    2.4072    3.5385      2.67     3.335    2.5274    3.5254    1.2667     6.311    3.0347
  weight sum          2940       594      1438       274       261       748       359       208      1788      1377      6795      1088       423
  precision         1.2927    1.2927    1.2927    1.2927    1.2927    1.2927    1.2927    1.2927    1.2927    1.2927    1.2927    1.2927    1.2927

1F1(Hz)
  mean            637.5745  403.2101  432.7945  496.7666  457.1842    337.77  142.0452  517.6713  445.4676   450.362   53.5851  300.0044  460.9396
  std. dev.       296.9353  236.5419  184.6991  165.6401   256.028  176.2367  234.9469  237.1531   236.879  244.3368  169.3624  300.3646  335.9081
  weight sum          2940       594      1438       274       261       748       359       208      1788      1377      6795      1088       423
  precision         0.3688    0.3688    0.3688    0.3688    0.3688    0.3688    0.3688    0.3688    0.3688    0.3688    0.3688    0.3688    0.3688

1F2(Hz)
  mean           1400.9882  1390.089 1632.6744 1453.0514 1322.7123 1742.2077  488.8921 1669.5818 1378.9653 1117.1452  162.6594  943.7002  979.7948
  std. dev.       529.3561    729.41   673.554  382.9596  699.8891  822.2232  814.8035  649.8485  677.7631  603.6027  507.4556  900.8743  538.5145
  weight sum          2940       594      1438       274       261       748       359       208      1788      1377      6795      1088       423
  precision         0.4504    0.4504    0.4504    0.4504    0.4504    0.4504    0.4504    0.4504    0.4504    0.4504    0.4504    0.4504    0.4504

1F3(Hz)
  mean           2565.6797 2335.5553 2447.1049 2804.1068 2268.6436 2408.7343  804.0563 2651.9452 2378.5124 2373.7752  279.4239 1586.7814 2430.7754
  std. dev.       931.4867  1153.522  996.0136  617.0332  1175.068 1138.7559 1297.4194 1021.5289 1126.6481 1134.1201  854.4078 1490.9632  1089.578
  weight sum          2940       594      1438       274       261       748       359       208      1788      1377      6795      1088       423
  precision         0.6705    0.6705    0.6705    0.6705    0.6705    0.6705    0.6705    0.6705    0.6705    0.6705    0.6705    0.6705    0.6705

1F4(Hz)
  mean           2978.0599  2763.331  2953.752 3256.2582 2681.0905 2889.2593  947.5424  2910.987 2735.5895 2740.1433  336.5089 1812.6325 2777.4425
  std. dev.      1069.8428  1333.663 1176.1247  689.7267 1356.4028 1330.8507 1533.8938 1099.0413 1274.1474 1297.7013 1026.8121 1698.8261 1184.8746
  weight sum          2940       594      1438       274       261       748       359       208      1788      1377      6795      1088       423
  precision         0.6851    0.6851    0.6851    0.6851    0.6851    0.6851    0.6851    0.6851    0.6851    0.6851    0.6851    0.6851    0.6851

2Int(dB)
  mean             -4.6583  -12.9285   -5.9386   -8.3922   -14.457   -9.6878  -26.8144   -10.843  -12.9059    -8.538  -49.4531  -20.0847    -6.523
  std. dev.         9.9884   11.2858    8.7524    6.7514    9.1174    8.9009   10.7849    8.0929   11.0446   12.0283   15.1922    7.6133    9.2325
  weight sum          2940       594      1438       274       261       748       359       208      1788      1377      6795      1088       423
  precision         0.1005    0.1005    0.1005    0.1005    0.1005    0.1005    0.1005    0.1005    0.1005    0.1005    0.1005    0.1005    0.1005

2Pitch(Hz)
  mean            214.2999  164.0251  187.1289  195.7221  141.0758   169.624   50.2563   193.229  158.6824   180.298   13.6918   73.7984  226.0414
  std. dev.       107.3554  110.3131   89.1848   89.0024  107.2369   79.3475   92.1709  115.8584  102.1841  104.9788   51.1536  101.5493   90.8899
  weight sum          2940       594      1438       274       261       748       359       208      1788      1377      6795      1088       423
  precision         0.1626    0.1626    0.1626    0.1626    0.1626    0.1626    0.1626    0.1626    0.1626    0.1626    0.1626    0.1626    0.1626

2RawPitch
  mean            203.4999  151.3042  182.7671  190.1364  118.1042  160.2257   34.9983  163.7352  145.8014  173.1119   11.1154   51.2221  217.7899
  std. dev.        112.824  114.0339   93.8486   97.1465  105.1012   83.7348   81.2069   119.526  107.4094   111.182   45.2414   89.8162   96.3272
  weight sum          2940       594      1438       274       261       748       359       208      1788      1377      6795      1088       423
  precision         0.1679    0.1679    0.1679    0.1679    0.1679    0.1679    0.1679    0.1679    0.1679    0.1679    0.1679    0.1679    0.1679

2SmPitch
  mean            212.0791  160.0578  185.0532  194.9849  133.6333  167.3233   42.6618   176.808  155.1611  177.9648   12.1445   67.1405  225.0495
  std. dev.       109.1565  112.2555    91.154   90.4121  104.9032   80.6951   87.7373   127.148  103.6989  106.8233   46.8932   98.3612   91.3186
  weight sum          2940       594      1438       274       261       748       359       208      1788      1377      6795      1088       423
  precision         0.1647    0.1647    0.1647    0.1647    0.1647    0.1647    0.1647    0.1647    0.1647    0.1647    0.1647    0.1647    0.1647

2Melogram(st)
  mean             51.3965   42.9332   50.1673   51.7352   40.1599   47.7876   14.2826   38.3508   42.7693   46.7989    4.1833   21.1461   52.9506
  std. dev.        16.7239   23.4206    15.729   13.4859   23.6891   17.1488   24.3913   27.0326   22.8013   20.3195   14.5506   26.4483   16.4082
  weight sum          2940       594      1438       274       261       748       359       208      1788      1377      6795      1088       423
  precision         0.0294    0.0294    0.0294    0.0294    0.0294    0.0294    0.0294    0.0294    0.0294    0.0294    0.0294    0.0294    0.0294

2ZCross
  mean              6.7426    2.2633    4.8777    3.4959    2.0356    3.3458    1.5951    4.1329    2.4581    4.0104     0.176    3.6642    3.6091
  std. dev.         4.6066    2.1902    3.2885    2.1909    2.1197    3.3619    3.8849    3.2724    2.2446    3.2415    0.9113    6.8364     2.929
  weight sum          2940       594      1438       274       261       748       359       208      1788      1377      6795      1088       423
  precision         1.2927    1.2927    1.2927    1.2927    1.2927    1.2927    1.2927    1.2927    1.2927    1.2927    1.2927    1.2927    1.2927

2F1(Hz)
  mean            664.8149  387.8062  452.4055   498.733  427.4933  353.4925  127.6663  497.0503  426.5745  474.0843   46.3631  251.0896  482.6221
  std. dev.       276.6469  236.7462  159.6131  169.3003  266.6231  155.8578  228.0776  257.1319  236.4448  229.5879  157.5875  294.8533  319.3509
  weight sum          2940       594      1438       274       261       748       359       208      1788      1377      6795      1088       423
  precision         0.3688    0.3688    0.3688    0.3688    0.3688    0.3688    0.3688    0.3688    0.3688    0.3688    0.3688    0.3688    0.3688

2F2(Hz)
  mean           1438.6375 1355.9289 1730.4304 1445.7075 1255.6134 1886.1841  431.7638 1586.5331 1353.2069 1149.4791  141.7193  798.7645 1027.4385
  std. dev.       474.1145   740.105  583.9406  386.9614  728.5852  727.5947  778.0737  720.2017  692.2601  557.6755  475.9552  897.7998  482.4236
  weight sum          2940       594      1438       274       261       748       359       208      1788      1377      6795      1088       423
  precision         0.4504    0.4504    0.4504    0.4504    0.4504    0.4504    0.4504    0.4504    0.4504    0.4504    0.4504    0.4504    0.4504

2F3(Hz)
  mean           2639.6428 2275.3297 2566.2209 2794.9126 2161.8658 2569.2982  722.0767 2539.5137 2333.2836 2474.5963  243.8749 1339.5813 2578.9648
  std. dev.       836.6339 1178.2882  864.4824  636.9647 1236.4745 1001.9819 1259.9164 1137.2988 1158.4901 1047.0894  803.8509  1486.614   937.242
  weight sum          2940       594      1438       274       261       748       359       208      1788      1377      6795      1088       423
  precision         0.6705    0.6705    0.6705    0.6705    0.6705    0.6705    0.6705    0.6705    0.6705    0.6705    0.6705    0.6705    0.6705

2F4(Hz)
  mean           3062.2428  2712.388 3090.2109 3253.5853 2569.1202 3069.7504   839.695 2787.9035 2687.0272 2853.8724  293.9884 1532.2927 2942.8419
  std. dev.        957.834 1372.7244 1010.4123  716.7462  1435.181 1158.3793 1470.5476 1230.8393 1314.7306 1192.6404  966.8453 1697.2616  994.8814
  weight sum          2940       594      1438       274       261       748       359       208      1788      1377      6795      1088       423
  precision         0.6851    0.6851    0.6851    0.6851    0.6851    0.6851    0.6851    0.6851    0.6851    0.6851    0.6851    0.6851    0.6851

3Int(dB)
  mean             -4.4871  -12.4295   -5.4216   -8.4296  -14.8768   -9.1229   -23.807   -11.433  -12.9986   -8.3525  -49.8217  -20.8427   -5.5461
  std. dev.         9.7495   10.5978    8.2134    6.9616    8.5952    8.6417   10.1518    8.1091   10.5213   12.1594   14.6169    6.9618    7.9501
  weight sum          2940       594      1438       274       261       748       359       208      1788      1377      6795      1088       423
  precision         0.1005    0.1005    0.1005    0.1005    0.1005    0.1005    0.1005    0.1005    0.1005    0.1005    0.1005    0.1005    0.1005

3Pitch(Hz)
  mean            215.0265  166.0775  190.3918  195.1331  138.4937  173.2212   74.2804   189.521  160.7763  179.1301   11.8153   65.3303  230.9859
  std. dev.       106.7631  107.8218   87.4257   90.1576  106.1938   75.5653  107.7668  117.4738  101.2805   103.979   47.9052   98.1451   83.0165
  weight sum          2940       594      1438       274       261       748       359       208      1788      1377      6795      1088       423
  precision         0.1626    0.1626    0.1626    0.1626    0.1626    0.1626    0.1626    0.1626    0.1626    0.1626    0.1626    0.1626    0.1626

3RawPitch
  mean            204.5729  152.1597  186.9416  189.7645  114.3432  164.8509   52.3656  159.3212   147.628  172.8881    9.4625   41.3002  221.8351
  std. dev.       112.2304   112.921   92.1579   97.5291  102.4081   80.9322   95.3432  120.6807  106.4437  110.0663   41.8782   81.8762   90.5835
  weight sum          2940       594      1438       274       261       748       359       208      1788      1377      6795      1088       423
  precision         0.1679    0.1679    0.1679    0.1679    0.1679    0.1679    0.1679    0.1679    0.1679    0.1679    0.1679    0.1679    0.1679

3SmPitch
  mean            213.0261   161.354  188.8901  194.7762  131.3637   170.918   62.4555  173.1423  157.3569  177.1958   10.2255    58.482  230.1655
  std. dev.       108.3889   110.475   88.8533   90.8856  103.6517   77.6434  104.0351  128.2142  102.8844  105.5718   43.0597   93.9293   83.5323
  weight sum          2940       594      1438       274       261       748       359       208      1788      1377      6795      1088       423
  precision         0.1647    0.1647    0.1647    0.1647    0.1647    0.1647    0.1647    0.1647    0.1647    0.1647    0.1647    0.1647    0.1647

3Melogram(st)
  mean             51.7443   43.3262    50.757   51.4874   39.8199   48.7629   19.2437   37.3835   43.1466   46.9889    3.6608   18.9536   54.7081
  std. dev.        16.1385   23.0622   14.7786    13.878   23.9008   15.7624   26.8969   27.4632   22.5915   20.0024   13.7177   25.9113      13.2
  weight sum          2940       594      1438       274       261       748       359       208      1788      1377      6795      1088       423
  precision         0.0294    0.0294    0.0294    0.0294    0.0294    0.0294    0.0294    0.0294    0.0294    0.0294    0.0294    0.0294    0.0294

3ZCross
  mean              6.8081    2.2589    4.8831    3.6374     1.892    3.3285    2.1785    4.0396    2.2904    4.0329    0.1408     3.745     3.713
  std. dev.         4.5857    2.0707    3.1607    2.2054    1.9842    3.1155    4.3479    3.2326    2.0063    2.9611    0.7915    7.1467    2.8728
  weight sum          2940       594      1438       274       261       748       359       208      1788      1377      6795      1088       423
  precision         1.2927    1.2927    1.2927    1.2927    1.2927    1.2927    1.2927    1.2927    1.2927    1.2927    1.2927    1.2927    1.2927

3F1(Hz)
  mean            684.8624  383.8168  467.7497  501.2874  399.7197  366.3373  142.4787  486.1043  413.7109  488.3137    40.076  209.0603  499.4556
  std. dev.       260.7635  232.2972  137.6849  170.6693  273.4014  136.8258  238.7502   268.092  232.1978  220.1308  146.5436  281.8697   302.477
  weight sum          2940       594      1438       274       261       748       359       208      1788      1377      6795      1088       423
  precision         0.3688    0.3688    0.3688    0.3688    0.3688    0.3688    0.3688    0.3688    0.3688    0.3688    0.3688    0.3688    0.3688

3F2(Hz)
  mean             1462.31 1349.6905 1804.3312 1443.6267 1203.5318 1998.9223  455.5853 1528.4904 1344.3387 1157.6298  123.5058  679.9428 1072.0404
  std. dev.       430.5852  728.3086  496.1344  393.2262  754.0967  624.7892   774.158  755.9826  694.7635  525.4581  447.0173    878.69  424.8655
  weight sum          2940       594      1438       274       261       748       359       208      1788      1377      6795      1088       423
  precision         0.4504    0.4504    0.4504    0.4504    0.4504    0.4504    0.4504    0.4504    0.4504    0.4504    0.4504    0.4504    0.4504

3F3(Hz)
  mean           2687.7356 2268.8241 2653.2835 2791.7189 2069.2644 2693.2397  790.4307  2465.751 2319.5551 2526.8298  212.0997 1133.9016 2703.6172
  std. dev.       764.2898 1165.0514  742.6344  658.6982 1282.9054  863.6174 1294.5372  1196.626  1170.449  995.0347  754.3371 1449.5509  758.4179
  weight sum          2940       594      1438       274       261       748       359       208      1788      1377      6795      1088       423
  precision         0.6705    0.6705    0.6705    0.6705    0.6705    0.6705    0.6705    0.6705    0.6705    0.6705    0.6705    0.6705    0.6705

3F4(Hz)
  mean           3116.7672 2720.5333 3189.0151 3246.4091 2471.0333 3209.5559  925.0577 2715.8314  2669.269 2910.5036  256.0783 1303.1942 3086.4504
  std. dev.       872.2076 1363.5495  856.4692  742.7362 1495.7988  985.3806 1518.7625 1302.3612 1330.0138 1127.9374  908.4829 1663.3803  766.0819
  weight sum          2940       594      1438       274       261       748       359       208      1788      1377      6795      1088       423
  precision         0.6851    0.6851    0.6851    0.6851    0.6851    0.6851    0.6851    0.6851    0.6851    0.6851    0.6851    0.6851    0.6851





=== Stratified cross-validation ===

Correctly Classified Instances        8484               46.3784 %
Incorrectly Classified Instances      9809               53.6216 %
Kappa statistic                          0.3484
K&B Relative Info Score             579204.905  %
K&B Information Score                16988.5832 bits      0.9287 bits/instance
Class complexity | order 0           53631.5533 bits      2.9318 bits/instance
Class complexity | scheme           392423.1805 bits     21.4521 bits/instance
Complexity improvement     (Sf)    -338791.6272 bits    -18.5203 bits/instance
Mean absolute error                      0.0825
Root mean squared error                  0.2728
Relative absolute error                 66.4089 %
Root relative squared error            109.482  %
Coverage of cases (0.95 level)          52.9055 %
Mean rel. region size (0.95 level)      10.8528 %
Total Number of Instances            18293     


=== Detailed Accuracy By Class ===

                 TP Rate  FP Rate  Precision  Recall   F-Measure  MCC      ROC Area  PRC Area  Class
                 0,393    0,046    0,621      0,393    0,482      0,422    0,854     0,568     a
                 0,000    0,001    0,000      0,000    0,000      -0,006   0,708     0,056     b
                 0,192    0,023    0,418      0,192    0,263      0,244    0,830     0,303     e
                 0,774    0,293    0,039      0,774    0,074      0,127    0,820     0,053     d
                 0,031    0,013    0,033      0,031    0,032      0,018    0,724     0,029     f
                 0,267    0,024    0,319      0,267    0,291      0,265    0,851     0,254     i
                 0,231    0,036    0,114      0,231    0,152      0,138    0,827     0,097     k
                 0,096    0,002    0,339      0,096    0,150      0,176    0,805     0,106     j
                 0,037    0,019    0,179      0,037    0,062      0,039    0,714     0,161     l
                 0,013    0,004    0,191      0,013    0,024      0,032    0,742     0,163     o
                 0,898    0,094    0,849      0,898    0,873      0,795    0,958     0,952     0
                 0,246    0,027    0,369      0,246    0,295      0,266    0,826     0,303     s
                 0,173    0,008    0,333      0,173    0,227      0,227    0,844     0,196     u
Weighted Avg.    0,464    0,054    0,530      0,464    0,471      0,427    0,858     0,536     


=== Confusion Matrix ===

    a    b    c    d    e    f    g    h    i    j    k    l    m   <-- classified as
 1156    0  100 1184   33   63  113    5   40   44   99   53   50 |    a = a
   40    0    8  322   12   50   40    2   22    0   67   27    4 |    b = b
  159    6  276  692   16   92   59    4   19   18   47   27   23 |    c = e
   30    0    6  212    0    1    2    0    9    0    6    8    0 |    d = d
   16    1    7  139    8    5   18    1   15    0   34   17    0 |    e = f
   41    3  124  241    4  200   51    2   18    3   30   26    5 |    f = i
    4    0    3   27   15    8   83    1   12    1  169   35    1 |    g = k
   33    1   18   76    8   11    4   20    7    0   14   15    1 |    h = j
  127    4   42 1065   37   51   94    3   67    3  205   82    8 |    i = l
  146    1   38  794   29   50   57    2   40   18  124   33   45 |    j = o
   13    1   16  313   35   44   61    4   67    2 6103  130    6 |    k = 0
   43    2   15  217   46   32  118   13   51    0  280  268    3 |    l = s
   53    0    7  207    3   20   31    2    8    5    8    6   73 |    m = u

=== Percent Confusion Matrix ===
a	b	c	d	e	f	g	h	i	j	k	l	m	
39.32	0.0	3.4	40.27	1.12	2.14	3.84	0.17	1.36	1.5	3.37	1.8	1.7	 a = a
6.73	0.0	1.35	54.21	2.02	8.42	6.73	0.34	3.7	0.0	11.28	4.55	0.67	 b = b
11.06	0.42	19.19	48.12	1.11	6.4	4.1	0.28	1.32	1.25	3.27	1.88	1.6	 c = e
10.95	0.0	2.19	77.37	0.0	0.36	0.73	0.0	3.28	0.0	2.19	2.92	0.0	 d = d
6.13	0.38	2.68	53.26	3.07	1.92	6.9	0.38	5.75	0.0	13.03	6.51	0.0	 e = f
5.48	0.4	16.58	32.22	0.53	26.74	6.82	0.27	2.41	0.4	4.01	3.48	0.67	 f = i
1.11	0.0	0.84	7.52	4.18	2.23	23.12	0.28	3.34	0.28	47.08	9.75	0.28	 g = k
15.87	0.48	8.65	36.54	3.85	5.29	1.92	9.62	3.37	0.0	6.73	7.21	0.48	 h = j
7.1	0.22	2.35	59.56	2.07	2.85	5.26	0.17	3.75	0.17	11.47	4.59	0.45	 i = l
10.6	0.07	2.76	57.66	2.11	3.63	4.14	0.15	2.9	1.31	9.01	2.4	3.27	 j = o
0.19	0.01	0.24	4.61	0.52	0.65	0.9	0.06	0.99	0.03	89.82	1.91	0.09	 k = 0
3.95	0.18	1.38	19.94	4.23	2.94	10.85	1.19	4.69	0.0	25.74	24.63	0.28	 l = s
12.53	0.0	1.65	48.94	0.71	4.73	7.33	0.47	1.89	1.18	1.89	1.42	17.26	 m = u
