Timestamp:2014-12-07-10:47:20
Inventario:I1
Intervalo:2ms
Ngramas:2
Clasificador:NaiveBayes
Relation Name:  I1-2ms-2gramas
Num Instances:  91702
Num Attributes: 21

     Name                      Type  Nom  Int Real     Missing      Unique  Dist
   1 0Int(dB)                   Num   0%   9%  91%     0 /  0%     5 /  0%   780 
   2 0Pitch(Hz)                 Num   0%  52%  48%     0 /  0%   471 /  1%  4016 
   3 0RawPitch                  Num   0%  55%  45%     0 /  0%   550 /  1%  4014 
   4 0SmPitch                   Num   0%  53%  47%     0 /  0%   491 /  1%  3998 
   5 0Melogram(st)              Num   0%  49%  51%     0 /  0%   212 /  0%  3363 
   6 0ZCross                    Num   0% 100%   0%     0 /  0%     6 /  0%    54 
   7 0F1(Hz)                    Num   0%  52%  48%     0 /  0%  1126 /  1%  4776 
   8 0F2(Hz)                    Num   0%  52%  48%     0 /  0%  2304 /  3%  6727 
   9 0F3(Hz)                    Num   0%  52%  48%     0 /  0%  1967 /  2%  6224 
  10 0F4(Hz)                    Num   0%  52%  48%     0 /  0%  1884 /  2%  6074 
  11 1Int(dB)                   Num   0%   9%  91%     0 /  0%     6 /  0%   781 
  12 1Pitch(Hz)                 Num   0%  52%  48%     0 /  0%   471 /  1%  4016 
  13 1RawPitch                  Num   0%  55%  45%     0 /  0%   550 /  1%  4014 
  14 1SmPitch                   Num   0%  53%  47%     0 /  0%   491 /  1%  3998 
  15 1Melogram(st)              Num   0%  49%  51%     0 /  0%   212 /  0%  3363 
  16 1ZCross                    Num   0% 100%   0%     0 /  0%     6 /  0%    54 
  17 1F1(Hz)                    Num   0%  52%  48%     0 /  0%  1126 /  1%  4776 
  18 1F2(Hz)                    Num   0%  52%  48%     0 /  0%  2304 /  3%  6727 
  19 1F3(Hz)                    Num   0%  52%  48%     0 /  0%  1967 /  2%  6224 
  20 1F4(Hz)                    Num   0%  52%  48%     0 /  0%  1884 /  2%  6074 
  21 class                      Nom 100%   0%   0%     0 /  0%     0 /  0%    13 


Naive Bayes Classifier

                    Class
Attribute               a         b         e         d         f         i         k         j         l         o         0         s         u
                   (0.16)    (0.03)    (0.08)    (0.01)    (0.01)    (0.04)    (0.02)    (0.01)    (0.09)    (0.07)    (0.39)    (0.06)    (0.02)
==================================================================================================================================================
0Int(dB)
  mean             -4.2367  -12.4737   -5.1801   -8.2684  -15.0289   -8.7172  -24.0199  -11.5265  -12.9586    -8.146  -48.2526   -21.048   -5.2139
  std. dev.         9.6141   10.7103     8.069    6.7651    8.8787    8.3524   10.3586     8.226   10.4732   12.1698   16.2021    6.7669    7.7793
  weight sum         14333      2915      6910      1346      1286      3561      1780      1035      8680      6646     35832      5298      2080
  precision         0.1039    0.1039    0.1039    0.1039    0.1039    0.1039    0.1039    0.1039    0.1039    0.1039    0.1039    0.1039    0.1039

0Pitch(Hz)
  mean            215.3054  159.5378  190.0868  197.3134  131.0502  173.0539   59.3235  183.6561  157.4696  178.5997   16.6922   51.3878  229.3808
  std. dev.       108.4186  111.1102   87.9634   89.1466  107.2576   76.5412  101.7345  120.3605  102.5312   105.265   56.2797   89.9464    84.526
  weight sum         14333      2915      6910      1346      1286      3561      1780      1035      8680      6646     35832      5298      2080
  precision         0.1242    0.1242    0.1242    0.1242    0.1242    0.1242    0.1242    0.1242    0.1242    0.1242    0.1242    0.1242    0.1242

0RawPitch
  mean            204.9204   147.555  185.5725  191.1584  106.2993  165.7052   37.3796  150.6697  142.8594  172.7286   13.6783   29.8532  220.4839
  std. dev.        114.845  116.3293   95.2181   98.1058  103.3674   83.3185   84.2379   124.789  109.5103  112.6688   50.8125   71.8517   93.0053
  weight sum         14333      2915      6910      1346      1286      3561      1780      1035      8680      6646     35832      5298      2080
  precision         0.1243    0.1243    0.1243    0.1243    0.1243    0.1243    0.1243    0.1243    0.1243    0.1243    0.1243    0.1243    0.1243

0SmPitch
  mean            213.3064  154.9178  188.5362  196.7689  120.8089  170.6841   49.2876  162.6175  153.3042  176.5062   15.0746   44.5105  228.8712
  std. dev.       109.9963  113.8128   89.2414   90.1148  104.3726   79.0929   95.6451  130.5354  104.3657  107.4391    52.489   85.1249   84.8121
  weight sum         14333      2915      6910      1346      1286      3561      1780      1035      8680      6646     35832      5298      2080
  precision         0.1248    0.1248    0.1248    0.1248    0.1248    0.1248    0.1248    0.1248    0.1248    0.1248    0.1248    0.1248    0.1248

0Melogram(st)
  mean             51.3027    41.476   50.4037   51.7167   37.0227   48.4912   15.1757   34.1019   41.9766   46.5516    4.9293   14.7561   54.0704
  std. dev.        16.9973   24.3018   15.4597   13.8885   25.0004   16.2162   25.1733   28.3884   23.3222    20.484    15.628   24.0962   14.2652
  weight sum         14333      2915      6910      1346      1286      3561      1780      1035      8680      6646     35832      5298      2080
  precision         0.0246    0.0246    0.0246    0.0246    0.0246    0.0246    0.0246    0.0246    0.0246    0.0246    0.0246    0.0246    0.0246

0ZCross
  mean              7.1259     2.518    5.2659    4.0278    2.0682    3.7314    2.2621    4.2416    2.5183    4.4315    0.2535    3.8872    4.0992
  std. dev.         4.5903    2.2548    3.2124    2.3586    2.2445    3.2172    4.8595    3.3434    2.2176    3.0586    1.1335    7.5791    2.9273
  weight sum         14333      2915      6910      1346      1286      3561      1780      1035      8680      6646     35832      5298      2080
  precision         1.0755    1.0755    1.0755    1.0755    1.0755    1.0755    1.0755    1.0755    1.0755    1.0755    1.0755    1.0755    1.0755

0F1(Hz)
  mean            680.5164  371.8273   463.877  504.9305  383.2741  361.6146  115.9159  470.2915  402.9693  484.2054   53.8361   184.019  498.0573
  std. dev.       271.5055   237.112   146.053  171.3464  277.9272  144.1442  221.5121  278.2264  235.9193  226.2125  166.7222  274.5144   307.944
  weight sum         14333      2915      6910      1346      1286      3561      1780      1035      8680      6646     35832      5298      2080
  precision         0.3648    0.3648    0.3648    0.3648    0.3648    0.3648    0.3648    0.3648    0.3648    0.3648    0.3648    0.3648    0.3648

0F2(Hz)
  mean           1442.0523 1308.1584  1785.616 1447.6544 1168.3225 1974.0792  384.4433 1477.8094 1316.1198 1140.4987  168.5623  597.2088  1053.554
  std. dev.       456.0769   749.768  528.1297  391.6426  778.4294  669.1502  741.8543  793.7485  712.9958  535.6978  516.6376  854.2978  426.6176
  weight sum         14333      2915      6910      1346      1286      3561      1780      1035      8680      6646     35832      5298      2080
  precision         0.4429    0.4429    0.4429    0.4429    0.4429    0.4429    0.4429    0.4429    0.4429    0.4429    0.4429    0.4429    0.4429

0F3(Hz)
  mean           2653.6177 2202.5227 2619.8245 2798.5752 1990.5358 2655.6632  646.9029  2393.029 2270.2248  2499.568  287.4189  998.6452  2673.852
  std. dev.       815.2889 1206.5921  786.5019   666.643 1314.6764  922.4738 1205.5934 1259.4562 1204.7969 1024.8703  866.0117 1415.7644  787.5699
  weight sum         14333      2915      6910      1346      1286      3561      1780      1035      8680      6646     35832      5298      2080
  precision          0.662     0.662     0.662     0.662     0.662     0.662     0.662     0.662     0.662     0.662     0.662     0.662     0.662

0F4(Hz)
  mean           3078.5421 2644.3886 3157.1809 3240.4226 2382.1202 3159.0187   764.337 2631.1945 2612.2739 2876.1426  345.4862 1137.1455  3063.919
  std. dev.       932.0325 1416.7903  913.7543  748.1848 1537.9929 1054.7924 1428.9578  1371.408 1369.5541 1161.7476  1038.639 1609.2368  806.6532
  weight sum         14333      2915      6910      1346      1286      3561      1780      1035      8680      6646     35832      5298      2080
  precision         0.6829    0.6829    0.6829    0.6829    0.6829    0.6829    0.6829    0.6829    0.6829    0.6829    0.6829    0.6829    0.6829

1Int(dB)
  mean             -4.2733  -12.2641    -5.199   -8.1726  -15.0003    -8.676  -23.2564   -11.554  -12.8516   -8.1936  -48.3069  -21.1143   -5.0927
  std. dev.         9.6287   10.5968    8.0531    6.8019    8.8607    8.3577   10.3629    8.2241   10.4051   12.2208   16.1114    6.7509    7.5769
  weight sum         14333      2915      6910      1346      1286      3561      1780      1035      8680      6646     35832      5298      2080
  precision         0.1037    0.1037    0.1037    0.1037    0.1037    0.1037    0.1037    0.1037    0.1037    0.1037    0.1037    0.1037    0.1037

1Pitch(Hz)
  mean            215.1446  160.3717  190.3791  197.2842  130.8258  173.4856   65.3555  183.2384  158.3241  178.0537   16.3383    50.307  229.8416
  std. dev.       108.5552  110.4325   87.7367   89.2015  107.1381   76.0683  105.6161   120.562  102.2966  105.2226   55.7277   89.3603   83.5753
  weight sum         14333      2915      6910      1346      1286      3561      1780      1035      8680      6646     35832      5298      2080
  precision         0.1242    0.1242    0.1242    0.1242    0.1242    0.1242    0.1242    0.1242    0.1242    0.1242    0.1242    0.1242    0.1242

1RawPitch
  mean            204.7828  148.5095   185.837  191.0311  105.9763  166.2787   42.6116  150.3037    143.61  172.2852   13.3728    28.613  220.9278
  std. dev.       114.9802  115.8451   95.0002   97.9614  102.9581   83.0617   89.3617  124.7589  109.4308  112.5036   50.3485   70.3623   92.1417
  weight sum         14333      2915      6910      1346      1286      3561      1780      1035      8680      6646     35832      5298      2080
  precision         0.1243    0.1243    0.1243    0.1243    0.1243    0.1243    0.1243    0.1243    0.1243    0.1243    0.1243    0.1243    0.1243

1SmPitch
  mean            213.2239  155.6124  188.9642  196.8148  120.6473  171.0525    54.999  162.3877   154.026  175.9682   14.7407   43.2996  229.2536
  std. dev.       110.0447  113.2741   88.9263   90.0345  104.2291   78.7886  100.1478  130.5579  104.2198  107.3853   51.9295    84.242   84.0032
  weight sum         14333      2915      6910      1346      1286      3561      1780      1035      8680      6646     35832      5298      2080
  precision         0.1248    0.1248    0.1248    0.1248    0.1248    0.1248    0.1248    0.1248    0.1248    0.1248    0.1248    0.1248    0.1248

1Melogram(st)
  mean             51.2983   41.6893   50.4842   51.7752   37.0069   48.6341   16.3925   34.0839   42.1689   46.4749    4.8254   14.4243   54.3072
  std. dev.        16.9875   24.1614   15.3213   13.7541   25.0249   15.9951   25.8227   28.4273   23.2142   20.5262   15.4831   23.9438   13.7628
  weight sum         14333      2915      6910      1346      1286      3561      1780      1035      8680      6646     35832      5298      2080
  precision         0.0246    0.0246    0.0246    0.0246    0.0246    0.0246    0.0246    0.0246    0.0246    0.0246    0.0246    0.0246    0.0246

1ZCross
  mean               7.111    2.5583    5.2438    4.0886    2.0698    3.7483    2.3479    4.2323    2.5396    4.4237    0.2484    3.8841    4.1111
  std. dev.         4.6004    2.2519    3.2168    2.3648    2.2498    3.2275    4.8445    3.3374    2.2159    3.0692    1.1311    7.5827    2.9164
  weight sum         14333      2915      6910      1346      1286      3561      1780      1035      8680      6646     35832      5298      2080
  precision         1.0755    1.0755    1.0755    1.0755    1.0755    1.0755    1.0755    1.0755    1.0755    1.0755    1.0755    1.0755    1.0755

1F1(Hz)
  mean            683.4195   372.086  466.4894  505.7205  378.5922    363.75  121.7702  468.7201  402.1582  486.2046   52.7328  175.7275  500.6341
  std. dev.        269.455  236.0116  142.2388  171.4004  277.5826  140.8431  225.3955  279.8473  234.3223  225.0865  165.0999  270.2225  305.2064
  weight sum         14333      2915      6910      1346      1286      3561      1780      1035      8680      6646     35832      5298      2080
  precision         0.3648    0.3648    0.3648    0.3648    0.3648    0.3648    0.3648    0.3648    0.3648    0.3648    0.3648    0.3648    0.3648

1F2(Hz)
  mean           1444.7727 1309.1173 1798.4442 1447.7215 1163.3139  1993.047   399.694 1467.5106 1318.9754 1140.7371  165.1158  573.2276 1061.2779
  std. dev.       450.4532    746.06  511.8666  393.3743   782.141  650.7685    748.44  797.6954  710.8251  531.1147  511.8646  845.2547  416.4942
  weight sum         14333      2915      6910      1346      1286      3561      1780      1035      8680      6646     35832      5298      2080
  precision         0.4429    0.4429    0.4429    0.4429    0.4429    0.4429    0.4429    0.4429    0.4429    0.4429    0.4429    0.4429    0.4429

1F3(Hz)
  mean           2659.8447 2204.7048 2634.9785 2797.9736 1978.2255 2677.3565  676.8886 2381.1662 2274.8969 2506.4348  281.5246  957.2863 2694.0925
  std. dev.       806.7783 1201.2074  764.1593  671.2133 1318.9077  898.3116 1222.9021 1267.0719 1201.7873 1018.6433  858.0542 1399.5559  755.1652
  weight sum         14333      2915      6910      1346      1286      3561      1780      1035      8680      6646     35832      5298      2080
  precision          0.662     0.662     0.662     0.662     0.662     0.662     0.662     0.662     0.662     0.662     0.662     0.662     0.662

1F4(Hz)
  mean           3084.7647 2650.5175   3174.33 3238.3887 2370.2376 3182.3609  803.0259 2619.6189 2618.0618 2882.7851  338.5171 1092.0781 3086.3027
  std. dev.       921.7526 1411.8243  885.5429  753.1084 1544.5093 1024.5862 1454.3715 1380.9381 1366.6706 1153.5603  1029.399 1593.8261   763.546
  weight sum         14333      2915      6910      1346      1286      3561      1780      1035      8680      6646     35832      5298      2080
  precision         0.6829    0.6829    0.6829    0.6829    0.6829    0.6829    0.6829    0.6829    0.6829    0.6829    0.6829    0.6829    0.6829





=== Stratified cross-validation ===

Correctly Classified Instances       48584               52.9803 %
Incorrectly Classified Instances     43118               47.0197 %
Kappa statistic                          0.4047
K&B Relative Info Score            3562807.9375 %
K&B Information Score               102848.0212 bits      1.1215 bits/instance
Class complexity | order 0          264697.5104 bits      2.8865 bits/instance
Class complexity | scheme          1065480.1004 bits     11.6189 bits/instance
Complexity improvement     (Sf)    -800782.59   bits     -8.7324 bits/instance
Mean absolute error                      0.0751
Root mean squared error                  0.2349
Relative absolute error                 61.3791 %
Root relative squared error             94.9452 %
Coverage of cases (0.95 level)          66.1818 %
Mean rel. region size (0.95 level)      17.0369 %
Total Number of Instances            91702     


=== Detailed Accuracy By Class ===

                 TP Rate  FP Rate  Precision  Recall   F-Measure  MCC      ROC Area  PRC Area  Class
                 0,494    0,046    0,666      0,494    0,567      0,508    0,885     0,613     a
                 0,003    0,002    0,045      0,003    0,005      0,003    0,723     0,058     b
                 0,660    0,121    0,308      0,660    0,420      0,387    0,868     0,411     e
                 0,376    0,110    0,048      0,376    0,086      0,100    0,812     0,045     d
                 0,026    0,007    0,049      0,026    0,034      0,026    0,729     0,030     f
                 0,354    0,039    0,269      0,354    0,306      0,277    0,863     0,281     i
                 0,079    0,010    0,134      0,079    0,099      0,089    0,834     0,089     k
                 0,066    0,002    0,318      0,066    0,109      0,140    0,743     0,073     j
                 0,077    0,036    0,184      0,077    0,109      0,062    0,749     0,182     l
                 0,004    0,001    0,175      0,004    0,007      0,015    0,781     0,193     o
                 0,894    0,139    0,805      0,894    0,847      0,743    0,951     0,949     0
                 0,247    0,017    0,474      0,247    0,325      0,315    0,887     0,373     s
                 0,423    0,020    0,334      0,423    0,373      0,360    0,872     0,357     u
Weighted Avg.    0,530    0,079    0,526      0,530    0,506      0,448    0,877     0,575     


=== Confusion Matrix ===

     a     b     c     d     e     f     g     h     i     j     k     l     m   <-- classified as
  7084    26  2437  2533    91   267   113    58   453    53   746   135   337 |     a = a
   204     8   607   577    34   448    57     1   195     9   524    77   174 |     b = b
   690    39  4564   456    32   420    83    19   198     7   267    68    67 |     c = e
   180     0   399   506     0    86     0     0    76     0    51    18    30 |     d = d
    91     1   224   276    34   154    40     1   106     0   316    37     6 |     e = f
   176    20  1578    54    28  1261    67     2   132     0   182    58     3 |     f = i
    21    20    58    73    35    61   140    10   101     5   966   269    21 |     g = k
   158     1   276    56    14    86    25    68   103     8   166    27    47 |     h = j
   633    19  1716  2549   124   886   234     2   670     4  1380   269   194 |     i = l
   807    20  1851  1703    66    63    38    13   443    24   722   125   771 |     j = o
   177     8   706   982   110   558   127    12   657    14 32035   351    95 |     k = 0
   179     6   133   300   109   333    90    27   389     8  2407  1311     6 |     l = s
   241     8   271   400    13    59    27     1   126     5    32    18   879 |     m = u

=== Percent Confusion Matrix ===
a	b	c	d	e	f	g	h	i	j	k	l	m	
49.42	0.18	17.0	17.67	0.63	1.86	0.79	0.4	3.16	0.37	5.2	0.94	2.35	 a = a
7.0	0.27	20.82	19.79	1.17	15.37	1.96	0.03	6.69	0.31	17.98	2.64	5.97	 b = b
9.99	0.56	66.05	6.6	0.46	6.08	1.2	0.27	2.87	0.1	3.86	0.98	0.97	 c = e
13.37	0.0	29.64	37.59	0.0	6.39	0.0	0.0	5.65	0.0	3.79	1.34	2.23	 d = d
7.08	0.08	17.42	21.46	2.64	11.98	3.11	0.08	8.24	0.0	24.57	2.88	0.47	 e = f
4.94	0.56	44.31	1.52	0.79	35.41	1.88	0.06	3.71	0.0	5.11	1.63	0.08	 f = i
1.18	1.12	3.26	4.1	1.97	3.43	7.87	0.56	5.67	0.28	54.27	15.11	1.18	 g = k
15.27	0.1	26.67	5.41	1.35	8.31	2.42	6.57	9.95	0.77	16.04	2.61	4.54	 h = j
7.29	0.22	19.77	29.37	1.43	10.21	2.7	0.02	7.72	0.05	15.9	3.1	2.24	 i = l
12.14	0.3	27.85	25.62	0.99	0.95	0.57	0.2	6.67	0.36	10.86	1.88	11.6	 j = o
0.49	0.02	1.97	2.74	0.31	1.56	0.35	0.03	1.83	0.04	89.4	0.98	0.27	 k = 0
3.38	0.11	2.51	5.66	2.06	6.29	1.7	0.51	7.34	0.15	45.43	24.75	0.11	 l = s
11.59	0.38	13.03	19.23	0.63	2.84	1.3	0.05	6.06	0.24	1.54	0.87	42.26	 m = u
