Timestamp:2014-12-07-10:48:35
Inventario:I1
Intervalo:2ms
Ngramas:5
Clasificador:NaiveBayes
Relation Name:  I1-2ms-5gramas
Num Instances:  91699
Num Attributes: 51

     Name                      Type  Nom  Int Real     Missing      Unique  Dist
   1 0Int(dB)                   Num   0%   9%  91%     0 /  0%     4 /  0%   779 
   2 0Pitch(Hz)                 Num   0%  52%  48%     0 /  0%   471 /  1%  4016 
   3 0RawPitch                  Num   0%  55%  45%     0 /  0%   550 /  1%  4014 
   4 0SmPitch                   Num   0%  53%  47%     0 /  0%   491 /  1%  3998 
   5 0Melogram(st)              Num   0%  49%  51%     0 /  0%   212 /  0%  3363 
   6 0ZCross                    Num   0% 100%   0%     0 /  0%     6 /  0%    54 
   7 0F1(Hz)                    Num   0%  52%  48%     0 /  0%  1126 /  1%  4776 
   8 0F2(Hz)                    Num   0%  52%  48%     0 /  0%  2304 /  3%  6727 
   9 0F3(Hz)                    Num   0%  52%  48%     0 /  0%  1967 /  2%  6224 
  10 0F4(Hz)                    Num   0%  52%  48%     0 /  0%  1884 /  2%  6074 
  11 1Int(dB)                   Num   0%   9%  91%     0 /  0%     4 /  0%   779 
  12 1Pitch(Hz)                 Num   0%  52%  48%     0 /  0%   471 /  1%  4016 
  13 1RawPitch                  Num   0%  55%  45%     0 /  0%   550 /  1%  4014 
  14 1SmPitch                   Num   0%  53%  47%     0 /  0%   491 /  1%  3998 
  15 1Melogram(st)              Num   0%  49%  51%     0 /  0%   212 /  0%  3363 
  16 1ZCross                    Num   0% 100%   0%     0 /  0%     6 /  0%    54 
  17 1F1(Hz)                    Num   0%  52%  48%     0 /  0%  1126 /  1%  4776 
  18 1F2(Hz)                    Num   0%  52%  48%     0 /  0%  2304 /  3%  6727 
  19 1F3(Hz)                    Num   0%  52%  48%     0 /  0%  1967 /  2%  6224 
  20 1F4(Hz)                    Num   0%  52%  48%     0 /  0%  1884 /  2%  6074 
  21 2Int(dB)                   Num   0%   9%  91%     0 /  0%     4 /  0%   779 
  22 2Pitch(Hz)                 Num   0%  52%  48%     0 /  0%   471 /  1%  4016 
  23 2RawPitch                  Num   0%  55%  45%     0 /  0%   550 /  1%  4014 
  24 2SmPitch                   Num   0%  53%  47%     0 /  0%   491 /  1%  3998 
  25 2Melogram(st)              Num   0%  49%  51%     0 /  0%   212 /  0%  3363 
  26 2ZCross                    Num   0% 100%   0%     0 /  0%     6 /  0%    54 
  27 2F1(Hz)                    Num   0%  52%  48%     0 /  0%  1126 /  1%  4776 
  28 2F2(Hz)                    Num   0%  52%  48%     0 /  0%  2304 /  3%  6727 
  29 2F3(Hz)                    Num   0%  52%  48%     0 /  0%  1967 /  2%  6224 
  30 2F4(Hz)                    Num   0%  52%  48%     0 /  0%  1884 /  2%  6074 
  31 3Int(dB)                   Num   0%   9%  91%     0 /  0%     5 /  0%   780 
  32 3Pitch(Hz)                 Num   0%  52%  48%     0 /  0%   471 /  1%  4016 
  33 3RawPitch                  Num   0%  55%  45%     0 /  0%   550 /  1%  4014 
  34 3SmPitch                   Num   0%  53%  47%     0 /  0%   491 /  1%  3998 
  35 3Melogram(st)              Num   0%  49%  51%     0 /  0%   212 /  0%  3363 
  36 3ZCross                    Num   0% 100%   0%     0 /  0%     6 /  0%    54 
  37 3F1(Hz)                    Num   0%  52%  48%     0 /  0%  1126 /  1%  4776 
  38 3F2(Hz)                    Num   0%  52%  48%     0 /  0%  2304 /  3%  6727 
  39 3F3(Hz)                    Num   0%  52%  48%     0 /  0%  1967 /  2%  6224 
  40 3F4(Hz)                    Num   0%  52%  48%     0 /  0%  1884 /  2%  6074 
  41 4Int(dB)                   Num   0%   9%  91%     0 /  0%     6 /  0%   781 
  42 4Pitch(Hz)                 Num   0%  52%  48%     0 /  0%   471 /  1%  4016 
  43 4RawPitch                  Num   0%  55%  45%     0 /  0%   550 /  1%  4014 
  44 4SmPitch                   Num   0%  53%  47%     0 /  0%   491 /  1%  3998 
  45 4Melogram(st)              Num   0%  49%  51%     0 /  0%   212 /  0%  3363 
  46 4ZCross                    Num   0% 100%   0%     0 /  0%     6 /  0%    54 
  47 4F1(Hz)                    Num   0%  52%  48%     0 /  0%  1126 /  1%  4776 
  48 4F2(Hz)                    Num   0%  52%  48%     0 /  0%  2304 /  3%  6727 
  49 4F3(Hz)                    Num   0%  52%  48%     0 /  0%  1967 /  2%  6224 
  50 4F4(Hz)                    Num   0%  52%  48%     0 /  0%  1884 /  2%  6074 
  51 class                      Nom 100%   0%   0%     0 /  0%     0 /  0%    13 


Naive Bayes Classifier

                    Class
Attribute               a         b         e         d         f         i         k         j         l         o         0         s         u
                   (0.16)    (0.03)    (0.08)    (0.01)    (0.01)    (0.04)    (0.02)    (0.01)    (0.09)    (0.07)    (0.39)    (0.06)    (0.02)
==================================================================================================================================================
0Int(dB)
  mean             -4.2757  -12.9517   -5.3785    -8.394  -14.9211   -9.0207  -25.9915  -11.2871  -13.0889   -8.2069  -48.0155  -20.6695   -5.7377
  std. dev.         9.7262   11.0857    8.3213    6.6861    9.0933    8.4876    10.615    8.2331   10.7778   12.0984   16.5374    7.0799    8.5115
  weight sum         14333      2915      6910      1346      1286      3561      1780      1035      8680      6646     35829      5298      2080
  precision          0.104     0.104     0.104     0.104     0.104     0.104     0.104     0.104     0.104     0.104     0.104     0.104     0.104

0Pitch(Hz)
  mean            214.9988  158.3167  187.8311   197.636  133.4787  170.7104   45.4874  185.2203   155.542  179.0057   17.7734   57.5162  226.5988
  std. dev.       108.6273  112.5154    89.376   88.5158  107.8479   78.6629    90.615  119.6705  103.2715  106.0757   57.9278   93.5792   88.9001
  weight sum         14333      2915      6910      1346      1286      3561      1780      1035      8680      6646     35829      5298      2080
  precision         0.1242    0.1242    0.1242    0.1242    0.1242    0.1242    0.1242    0.1242    0.1242    0.1242    0.1242    0.1242    0.1242

0RawPitch
  mean            204.3494  145.7471  183.7354  191.3539  107.8293  162.6083   26.9854  152.9092  141.6037  172.8374   14.6304   36.0295  217.8451
  std. dev.       115.1861  117.4623   96.0886   98.1177  104.5889    85.103   72.6717  124.5542  109.7128  113.3864   52.4273   78.5755   96.4573
  weight sum         14333      2915      6910      1346      1286      3561      1780      1035      8680      6646     35829      5298      2080
  precision         0.1243    0.1243    0.1243    0.1243    0.1243    0.1243    0.1243    0.1243    0.1243    0.1243    0.1243    0.1243    0.1243

0SmPitch
  mean            212.8412  154.2954  186.0241  196.8874  123.0395   168.338   36.9911  164.6083  151.5473  176.7654   16.1104    50.757  226.1601
  std. dev.       110.3986  114.7394   90.8509   89.8762  105.2004   80.7898   83.6155  130.0097  104.9331   108.303   54.1814   89.6883   88.9264
  weight sum         14333      2915      6910      1346      1286      3561      1780      1035      8680      6646     35829      5298      2080
  precision         0.1248    0.1248    0.1248    0.1248    0.1248    0.1248    0.1248    0.1248    0.1248    0.1248    0.1248    0.1248    0.1248

0Melogram(st)
  mean             51.1357   41.1754    49.922   51.7123   37.5097   47.8174   12.2643   34.7884   41.5725   46.5449    5.1965   16.4462   53.0541
  std. dev.        17.2713   24.5419   16.1676   13.9368   24.8181   17.1258   23.2714    28.183   23.5375   20.5679   15.9896   24.8614   16.0665
  weight sum         14333      2915      6910      1346      1286      3561      1780      1035      8680      6646     35829      5298      2080
  precision         0.0246    0.0246    0.0246    0.0246    0.0246    0.0246    0.0246    0.0246    0.0246    0.0246    0.0246    0.0246    0.0246

0ZCross
  mean              7.1116     2.445    5.2787    3.9088    2.1049    3.7163    1.9606    4.2925    2.5483    4.4166    0.2856    3.8492    4.0361
  std. dev.         4.5959    2.2805    3.2387    2.3525    2.2616    3.3178    4.7577    3.3568    2.2924    3.1384    1.2294    7.4543    2.9674
  weight sum         14333      2915      6910      1346      1286      3561      1780      1035      8680      6646     35829      5298      2080
  precision         1.0755    1.0755    1.0755    1.0755    1.0755    1.0755    1.0755    1.0755    1.0755    1.0755    1.0755    1.0755    1.0755

0F1(Hz)
  mean             668.919  373.9524  454.8987  503.1734   398.033  353.0997    106.77  476.7933  409.5418  475.4813   57.3408  211.2563   486.782
  std. dev.       280.6559  239.5318  158.1126   171.087  277.6832  155.6609  214.1692  271.5914  238.8566  232.0738  171.9957   285.625  318.7346
  weight sum         14333      2915      6910      1346      1286      3561      1780      1035      8680      6646     35829      5298      2080
  precision         0.3648    0.3648    0.3648    0.3648    0.3648    0.3648    0.3648    0.3648    0.3648    0.3648    0.3648    0.3648    0.3648

0F2(Hz)
  mean           1427.4626 1313.2845 1742.5255 1448.3414 1188.8427 1902.4024  363.8935 1516.1755 1319.6541 1133.1289  178.8136  678.4845 1023.5726
  std. dev.       480.6073  756.9492  577.7434  387.8491  768.0241   731.953    734.88  775.8481  712.9717  555.0163  530.2888  879.0447  463.4328
  weight sum         14333      2915      6910      1346      1286      3561      1780      1035      8680      6646     35829      5298      2080
  precision         0.4429    0.4429    0.4429    0.4429    0.4429    0.4429    0.4429    0.4429    0.4429    0.4429    0.4429    0.4429    0.4429

0F3(Hz)
  mean           2624.3686 2208.7712  2568.342 2800.0123 2032.1489 2574.2129  603.5516 2440.0681 2275.0773 2464.8989  305.4176 1137.6589 2590.9737
  std. dev.       855.8265 1214.9412   855.128  652.8176 1299.1963 1006.8574 1178.9937 1226.7346 1200.5933 1057.4006  889.8408 1458.8024  902.8727
  weight sum         14333      2915      6910      1346      1286      3561      1780      1035      8680      6646     35829      5298      2080
  precision          0.662     0.662     0.662     0.662     0.662     0.662     0.662     0.662     0.662     0.662     0.662     0.662     0.662

0F4(Hz)
  mean           3046.6768 2639.4751 3099.7413 3244.7952 2423.0307  3068.994   708.681 2677.6514 2618.6163 2838.7661  366.4808 1291.1615 2971.2354
  std. dev.       980.2169 1421.1017 1000.8098  732.3706  1515.383 1160.3846  1390.237 1331.7496 1363.7236 1202.1915 1065.5405  1652.347  956.3763
  weight sum         14333      2915      6910      1346      1286      3561      1780      1035      8680      6646     35829      5298      2080
  precision         0.6829    0.6829    0.6829    0.6829    0.6829    0.6829    0.6829    0.6829    0.6829    0.6829    0.6829    0.6829    0.6829

1Int(dB)
  mean             -4.2384   -12.821   -5.2725    -8.381  -14.9878   -8.8919  -25.3847  -11.3933  -13.0778    -8.154  -48.1014   -20.821    -5.542
  std. dev.         9.6628   10.9576    8.2012    6.7147    9.0002    8.4155   10.4934    8.2334   10.6631   12.1079   16.4155    6.9384    8.2546
  weight sum         14333      2915      6910      1346      1286      3561      1780      1035      8680      6646     35829      5298      2080
  precision          0.104     0.104     0.104     0.104     0.104     0.104     0.104     0.104     0.104     0.104     0.104     0.104     0.104

1Pitch(Hz)
  mean            215.2523  158.5726  188.7056  197.5174   132.578  171.6528   49.1587  184.5073  156.0332   179.115   17.4133   55.0574   227.888
  std. dev.       108.4244  112.1031   88.8894   88.7453  107.6288    77.843   93.8686  119.9648  103.0298  105.6864   57.3927   92.1575   87.0635
  weight sum         14333      2915      6910      1346      1286      3561      1780      1035      8680      6646     35829      5298      2080
  precision         0.1242    0.1242    0.1242    0.1242    0.1242    0.1242    0.1242    0.1242    0.1242    0.1242    0.1242    0.1242    0.1242

1RawPitch
  mean            204.6555  146.0307  184.6007  191.2896  107.2731   163.826   29.5175  151.8363   141.883  173.0518   14.2992   33.6774  218.9774
  std. dev.       114.9714  117.1223   95.7338   98.1559  104.2544   84.4289   75.5668  124.7138  109.6359  113.1417   51.8254   76.1767   95.0579
  weight sum         14333      2915      6910      1346      1286      3561      1780      1035      8680      6646     35829      5298      2080
  precision         0.1243    0.1243    0.1243    0.1243    0.1243    0.1243    0.1243    0.1243    0.1243    0.1243    0.1243    0.1243    0.1243

1SmPitch
  mean            213.1285  154.4121  187.0281  196.8406  122.2039   169.294   40.0605  163.7339  151.8949  176.9741   15.7548   48.4101  227.3868
  std. dev.       110.1559  114.4599   90.2619   89.9719   104.892   80.1089   86.8572  130.2651  104.7586  107.8927   53.6105   88.0641   87.2185
  weight sum         14333      2915      6910      1346      1286      3561      1780      1035      8680      6646     35829      5298      2080
  precision         0.1248    0.1248    0.1248    0.1248    0.1248    0.1248    0.1248    0.1248    0.1248    0.1248    0.1248    0.1248    0.1248

1Melogram(st)
  mean             51.2208   41.2076   50.1378   51.7327   37.3403   48.1087   13.0259   34.4845   41.6745   46.5873    5.1111   15.7557   53.4674
  std. dev.        17.1425    24.495    15.863   13.8754   24.8755   16.7578   23.8178   28.2675   23.4849   20.5055   15.8764   24.5571   15.3794
  weight sum         14333      2915      6910      1346      1286      3561      1780      1035      8680      6646     35829      5298      2080
  precision         0.0246    0.0246    0.0246    0.0246    0.0246    0.0246    0.0246    0.0246    0.0246    0.0246    0.0246    0.0246    0.0246

1ZCross
  mean              7.1251     2.462    5.2821    3.9431    2.0824    3.7217    2.0724     4.278    2.5223    4.4284    0.2716    3.8699    4.0615
  std. dev.         4.5896    2.2685    3.2153    2.3589    2.2428    3.2672    4.8346    3.3484    2.2531    3.0869    1.1738    7.5278    2.9528
  weight sum         14333      2915      6910      1346      1286      3561      1780      1035      8680      6646     35829      5298      2080
  precision         1.0755    1.0755    1.0755    1.0755    1.0755    1.0755    1.0755    1.0755    1.0755    1.0755    1.0755    1.0755    1.0755

1F1(Hz)
  mean            673.2103  372.9024  458.0799   503.768  393.0414  356.2436   108.679   474.344  406.7705  478.8171   56.1168  201.8144  491.0591
  std. dev.       277.2349  238.8814   153.926  171.2052  278.0738  151.5566  216.0479  274.1009  238.1131  229.7252  170.1221   282.228  315.0618
  weight sum         14333      2915      6910      1346      1286      3561      1780      1035      8680      6646     35829      5298      2080
  precision         0.3648    0.3648    0.3648    0.3648    0.3648    0.3648    0.3648    0.3648    0.3648    0.3648    0.3648    0.3648    0.3648

1F2(Hz)
  mean           1433.1553  1310.527 1757.7095  1447.887 1181.0302 1928.7407  366.7171 1502.1494 1317.0778 1136.7974   175.327  649.9813 1034.0495
  std. dev.       471.5399  755.0799  560.9633  388.9673  771.3771  710.0757  734.7767  782.9307  713.9427  547.7396  525.6626  871.3393  450.6215
  weight sum         14333      2915      6910      1346      1286      3561      1780      1035      8680      6646     35829      5298      2080
  precision         0.4429    0.4429    0.4429    0.4429    0.4429    0.4429    0.4429    0.4429    0.4429    0.4429    0.4429    0.4429    0.4429

1F3(Hz)
  mean           2635.5247 2205.0132 2586.6864  2799.579   2017.54 2604.0226  610.6892  2422.849 2270.9908 2478.8191  299.2748 1089.1553 2621.0935
  std. dev.       840.5679 1213.1591  831.7891  657.3075  1304.859  977.1249 1183.1002 1239.5107 1203.7558 1044.4223  881.7348 1445.7361  864.0366
  weight sum         14333      2915      6910      1346      1286      3561      1780      1035      8680      6646     35829      5298      2080
  precision          0.662     0.662     0.662     0.662     0.662     0.662     0.662     0.662     0.662     0.662     0.662     0.662     0.662

1F4(Hz)
  mean           3059.0113 2639.3069 3119.9567 3243.4772 2408.5536 3102.2711  718.4769 2659.8865 2613.5562 2854.0576  359.4106 1236.9671 3004.6925
  std. dev.       962.1251 1421.0299  971.1133   737.781 1523.4941 1123.1453 1397.4533 1346.7663 1367.6517 1186.1932 1056.6689 1638.8054  906.3874
  weight sum         14333      2915      6910      1346      1286      3561      1780      1035      8680      6646     35829      5298      2080
  precision         0.6829    0.6829    0.6829    0.6829    0.6829    0.6829    0.6829    0.6829    0.6829    0.6829    0.6829    0.6829    0.6829

2Int(dB)
  mean             -4.2251  -12.6603    -5.205   -8.3397  -15.0221   -8.7895  -24.7291   -11.474  -13.0346   -8.1324  -48.1801  -20.9474   -5.3672
  std. dev.         9.6253   10.8312    8.1176    6.7392    8.9257    8.3703   10.4027    8.2298   10.5604   12.1307   16.3018    6.8315     8.007
  weight sum         14333      2915      6910      1346      1286      3561      1780      1035      8680      6646     35829      5298      2080
  precision          0.104     0.104     0.104     0.104     0.104     0.104     0.104     0.104     0.104     0.104     0.104     0.104     0.104

2Pitch(Hz)
  mean            215.3388  158.9952  189.4672  197.4113   131.712  172.4288    53.654  184.0771  156.6579  178.9677   17.0619   53.0607  228.8154
  std. dev.       108.3673   111.641   88.3909   88.9567  107.4401   77.1572   97.5829  120.1609  102.8061  105.4237   56.8545   90.9487   85.6072
  weight sum         14333      2915      6910      1346      1286      3561      1780      1035      8680      6646     35829      5298      2080
  precision         0.1242    0.1242    0.1242    0.1242    0.1242    0.1242    0.1242    0.1242    0.1242    0.1242    0.1242    0.1242    0.1242

2RawPitch
  mean            204.8262  146.6041  185.2835  191.2629  106.7449  164.8572   33.1289  151.0749  142.3233  173.0225   13.9627   31.6136  219.9054
  std. dev.       114.8351  116.7477   95.4466   98.1667  103.7582   83.8605    79.591  124.7538  109.5843  112.8916   51.2554   73.9452   93.8544
  weight sum         14333      2915      6910      1346      1286      3561      1780      1035      8680      6646     35829      5298      2080
  precision         0.1243    0.1243    0.1243    0.1243    0.1243    0.1243    0.1243    0.1243    0.1243    0.1243    0.1243    0.1243    0.1243

2SmPitch
  mean            213.2942  154.5794  187.8876     196.8  121.4041  170.0743   44.1435   163.036  152.4881  176.8295   15.4236   46.3038  228.2489
  std. dev.       110.0116  114.1868   89.6855   90.0544  104.6191   79.5741   90.9798  130.4219  104.5892  107.6308   53.0684    86.487   85.8949
  weight sum         14333      2915      6910      1346      1286      3561      1780      1035      8680      6646     35829      5298      2080
  precision         0.1248    0.1248    0.1248    0.1248    0.1248    0.1248    0.1248    0.1248    0.1248    0.1248    0.1248    0.1248    0.1248

2Melogram(st)
  mean             51.2738   41.2827    50.296   51.7238   37.1801   48.3177     14.05   34.2928   41.8099   46.5862    5.0218   15.2118   53.7993
  std. dev.        17.0546   24.4294   15.6299   13.8823   24.9375   16.4721   24.4951   28.3283   23.4135   20.4797   15.7549   24.3073     14.79
  weight sum         14333      2915      6910      1346      1286      3561      1780      1035      8680      6646     35829      5298      2080
  precision         0.0246    0.0246    0.0246    0.0246    0.0246    0.0246    0.0246    0.0246    0.0246    0.0246    0.0246    0.0246    0.0246

2ZCross
  mean              7.1301    2.4852    5.2767    3.9831     2.069    3.7235    2.1715    4.2572    2.5131    4.4336    0.2613    3.8829    4.0842
  std. dev.         4.5874    2.2611     3.209    2.3602    2.2383    3.2289    4.8592    3.3478    2.2301    3.0623    1.1466    7.5644    2.9396
  weight sum         14333      2915      6910      1346      1286      3561      1780      1035      8680      6646     35829      5298      2080
  precision         1.0755    1.0755    1.0755    1.0755    1.0755    1.0755    1.0755    1.0755    1.0755    1.0755    1.0755    1.0755    1.0755

2F1(Hz)
  mean            677.0705  372.2266  461.0472  504.3029  388.0168  359.1654  111.5377  472.2792  404.4839  481.7752    54.986  192.7192  494.6223
  std. dev.       274.1678  238.0257  149.9473  171.2959   278.164  147.6819  218.3818  276.1588  237.1858  227.7162  168.4366  278.5354   311.451
  weight sum         14333      2915      6910      1346      1286      3561      1780      1035      8680      6646     35829      5298      2080
  precision         0.3648    0.3648    0.3648    0.3648    0.3648    0.3648    0.3648    0.3648    0.3648    0.3648    0.3648    0.3648    0.3648

2F2(Hz)
  mean           1438.0676 1309.0897 1772.0574 1447.6359 1173.9193 1952.7441  372.6766 1490.0244 1315.4675 1139.4043  171.9953  622.7896 1043.9884
  std. dev.       463.2855  752.5784  544.5249   390.147  775.1169  688.7429  736.2927  788.4768   714.103  541.1664  521.2486  863.0411  438.5623
  weight sum         14333      2915      6910      1346      1286      3561      1780      1035      8680      6646     35829      5298      2080
  precision         0.4429    0.4429    0.4429    0.4429    0.4429    0.4429    0.4429    0.4429    0.4429    0.4429    0.4429    0.4429    0.4429

2F3(Hz)
  mean           2645.3531 2203.0948 2603.6899 2799.2032 2003.0171 2631.3817  623.6913 2407.9268 2268.7893 2490.7242  293.4431 1042.7123 2648.1475
  std. dev.       826.9081 1210.0929  809.0505   661.974 1310.3914  948.5385  1190.513  1249.606 1205.4995 1033.2776  874.0689 1431.3732  826.0863
  weight sum         14333      2915      6910      1346      1286      3561      1780      1035      8680      6646     35829      5298      2080
  precision          0.662     0.662     0.662     0.662     0.662     0.662     0.662     0.662     0.662     0.662     0.662     0.662     0.662

2F4(Hz)
  mean           3069.6694 2641.4508 3139.0513 3242.0836 2393.9651 3132.5813  736.1449 2645.5451 2610.6993 2866.8671  352.5601 1185.4441 3035.0863
  std. dev.        945.882 1419.3848  942.3082  743.0753 1531.3561 1087.3648 1410.2767 1359.1957 1369.9796 1172.3377 1047.8695 1624.3261  857.2082
  weight sum         14333      2915      6910      1346      1286      3561      1780      1035      8680      6646     35829      5298      2080
  precision         0.6829    0.6829    0.6829    0.6829    0.6829    0.6829    0.6829    0.6829    0.6829    0.6829    0.6829    0.6829    0.6829

3Int(dB)
  mean             -4.2367  -12.4737   -5.1801   -8.2684  -15.0289   -8.7172  -24.0199  -11.5265  -12.9586    -8.146  -48.2529   -21.048   -5.2139
  std. dev.         9.6141   10.7103     8.069    6.7651    8.8787    8.3524   10.3586     8.226   10.4732   12.1698   16.2028    6.7669    7.7793
  weight sum         14333      2915      6910      1346      1286      3561      1780      1035      8680      6646     35829      5298      2080
  precision         0.1039    0.1039    0.1039    0.1039    0.1039    0.1039    0.1039    0.1039    0.1039    0.1039    0.1039    0.1039    0.1039

3Pitch(Hz)
  mean            215.3054  159.5378  190.0868  197.3134  131.0502  173.0539   59.3235  183.6561  157.4696  178.5997   16.6936   51.3878  229.3808
  std. dev.       108.4186  111.1102   87.9634   89.1466  107.2576   76.5412  101.7345  120.3605  102.5312   105.265   56.2818   89.9464    84.526
  weight sum         14333      2915      6910      1346      1286      3561      1780      1035      8680      6646     35829      5298      2080
  precision         0.1242    0.1242    0.1242    0.1242    0.1242    0.1242    0.1242    0.1242    0.1242    0.1242    0.1242    0.1242    0.1242

3RawPitch
  mean            204.9204   147.555  185.5725  191.1584  106.2993  165.7052   37.3796  150.6697  142.8594  172.7286   13.6795   29.8532  220.4839
  std. dev.        114.845  116.3293   95.2181   98.1058  103.3674   83.3185   84.2379   124.789  109.5103  112.6688   50.8144   71.8517   93.0053
  weight sum         14333      2915      6910      1346      1286      3561      1780      1035      8680      6646     35829      5298      2080
  precision         0.1243    0.1243    0.1243    0.1243    0.1243    0.1243    0.1243    0.1243    0.1243    0.1243    0.1243    0.1243    0.1243

3SmPitch
  mean            213.3064  154.9178  188.5362  196.7689  120.8089  170.6841   49.2876  162.6175  153.3042  176.5062   15.0759   44.5105  228.8712
  std. dev.       109.9963  113.8128   89.2414   90.1148  104.3726   79.0929   95.6451  130.5354  104.3657  107.4391    52.491   85.1249   84.8121
  weight sum         14333      2915      6910      1346      1286      3561      1780      1035      8680      6646     35829      5298      2080
  precision         0.1248    0.1248    0.1248    0.1248    0.1248    0.1248    0.1248    0.1248    0.1248    0.1248    0.1248    0.1248    0.1248

3Melogram(st)
  mean             51.3027    41.476   50.4037   51.7167   37.0227   48.4912   15.1757   34.1019   41.9766   46.5516    4.9297   14.7561   54.0704
  std. dev.        16.9973   24.3018   15.4597   13.8885   25.0004   16.2162   25.1733   28.3884   23.3222    20.484   15.6286   24.0962   14.2652
  weight sum         14333      2915      6910      1346      1286      3561      1780      1035      8680      6646     35829      5298      2080
  precision         0.0246    0.0246    0.0246    0.0246    0.0246    0.0246    0.0246    0.0246    0.0246    0.0246    0.0246    0.0246    0.0246

3ZCross
  mean              7.1259     2.518    5.2659    4.0278    2.0682    3.7314    2.2621    4.2416    2.5183    4.4315    0.2535    3.8872    4.0992
  std. dev.         4.5903    2.2548    3.2124    2.3586    2.2445    3.2172    4.8595    3.3434    2.2176    3.0586    1.1335    7.5791    2.9273
  weight sum         14333      2915      6910      1346      1286      3561      1780      1035      8680      6646     35829      5298      2080
  precision         1.0755    1.0755    1.0755    1.0755    1.0755    1.0755    1.0755    1.0755    1.0755    1.0755    1.0755    1.0755    1.0755

3F1(Hz)
  mean            680.5164  371.8273   463.877  504.9305  383.2741  361.6146  115.9159  470.2915  402.9693  484.2054   53.8406   184.019  498.0573
  std. dev.       271.5055   237.112   146.053  171.3464  277.9272  144.1442  221.5121  278.2264  235.9193  226.2125  166.7285  274.5144   307.944
  weight sum         14333      2915      6910      1346      1286      3561      1780      1035      8680      6646     35829      5298      2080
  precision         0.3648    0.3648    0.3648    0.3648    0.3648    0.3648    0.3648    0.3648    0.3648    0.3648    0.3648    0.3648    0.3648

3F2(Hz)
  mean           1442.0523 1308.1584  1785.616 1447.6544 1168.3225 1974.0792  384.4433 1477.8094 1316.1198 1140.4987  168.5764  597.2088  1053.554
  std. dev.       456.0769   749.768  528.1297  391.6426  778.4294  669.1502  741.8543  793.7485  712.9958  535.6978  516.6569  854.2978  426.6176
  weight sum         14333      2915      6910      1346      1286      3561      1780      1035      8680      6646     35829      5298      2080
  precision         0.4429    0.4429    0.4429    0.4429    0.4429    0.4429    0.4429    0.4429    0.4429    0.4429    0.4429    0.4429    0.4429

3F3(Hz)
  mean           2653.6177 2202.5227 2619.8245 2798.5752 1990.5358 2655.6632  646.9029  2393.029 2270.2248  2499.568  287.4429  998.6452  2673.852
  std. dev.       815.2889 1206.5921  786.5019   666.643 1314.6764  922.4738 1205.5934 1259.4562 1204.7969 1024.8703   866.044 1415.7644  787.5699
  weight sum         14333      2915      6910      1346      1286      3561      1780      1035      8680      6646     35829      5298      2080
  precision          0.662     0.662     0.662     0.662     0.662     0.662     0.662     0.662     0.662     0.662     0.662     0.662     0.662

3F4(Hz)
  mean           3078.5421 2644.3886 3157.1809 3240.4226 2382.1202 3159.0187   764.337 2631.1945 2612.2739 2876.1426  345.5151 1137.1455  3063.919
  std. dev.       932.0325 1416.7903  913.7543  748.1848 1537.9929 1054.7924 1428.9578  1371.408 1369.5541 1161.7476 1038.6777 1609.2368  806.6532
  weight sum         14333      2915      6910      1346      1286      3561      1780      1035      8680      6646     35829      5298      2080
  precision         0.6829    0.6829    0.6829    0.6829    0.6829    0.6829    0.6829    0.6829    0.6829    0.6829    0.6829    0.6829    0.6829

4Int(dB)
  mean             -4.2733  -12.2641    -5.199   -8.1726  -15.0003    -8.676  -23.2564   -11.554  -12.8516   -8.1936  -48.3072  -21.1143   -5.0927
  std. dev.         9.6287   10.5968    8.0531    6.8019    8.8607    8.3577   10.3629    8.2241   10.4051   12.2208   16.1121    6.7509    7.5769
  weight sum         14333      2915      6910      1346      1286      3561      1780      1035      8680      6646     35829      5298      2080
  precision         0.1037    0.1037    0.1037    0.1037    0.1037    0.1037    0.1037    0.1037    0.1037    0.1037    0.1037    0.1037    0.1037

4Pitch(Hz)
  mean            215.1446  160.3717  190.3791  197.2842  130.8258  173.4856   65.3555  183.2384  158.3241  178.0537   16.3396    50.307  229.8416
  std. dev.       108.5552  110.4325   87.7367   89.2015  107.1381   76.0683  105.6161   120.562  102.2966  105.2226   55.7299   89.3603   83.5753
  weight sum         14333      2915      6910      1346      1286      3561      1780      1035      8680      6646     35829      5298      2080
  precision         0.1242    0.1242    0.1242    0.1242    0.1242    0.1242    0.1242    0.1242    0.1242    0.1242    0.1242    0.1242    0.1242

4RawPitch
  mean            204.7828  148.5095   185.837  191.0311  105.9763  166.2787   42.6116  150.3037    143.61  172.2852   13.3739    28.613  220.9278
  std. dev.       114.9802  115.8451   95.0002   97.9614  102.9581   83.0617   89.3617  124.7589  109.4308  112.5036   50.3505   70.3623   92.1417
  weight sum         14333      2915      6910      1346      1286      3561      1780      1035      8680      6646     35829      5298      2080
  precision         0.1243    0.1243    0.1243    0.1243    0.1243    0.1243    0.1243    0.1243    0.1243    0.1243    0.1243    0.1243    0.1243

4SmPitch
  mean            213.2239  155.6124  188.9642  196.8148  120.6473  171.0525    54.999  162.3877   154.026  175.9682   14.7419   43.2996  229.2536
  std. dev.       110.0447  113.2741   88.9263   90.0345  104.2291   78.7886  100.1478  130.5579  104.2198  107.3853   51.9315    84.242   84.0032
  weight sum         14333      2915      6910      1346      1286      3561      1780      1035      8680      6646     35829      5298      2080
  precision         0.1248    0.1248    0.1248    0.1248    0.1248    0.1248    0.1248    0.1248    0.1248    0.1248    0.1248    0.1248    0.1248

4Melogram(st)
  mean             51.2983   41.6893   50.4842   51.7752   37.0069   48.6341   16.3925   34.0839   42.1689   46.4749    4.8258   14.4243   54.3072
  std. dev.        16.9875   24.1614   15.3213   13.7541   25.0249   15.9951   25.8227   28.4273   23.2142   20.5262   15.4837   23.9438   13.7628
  weight sum         14333      2915      6910      1346      1286      3561      1780      1035      8680      6646     35829      5298      2080
  precision         0.0246    0.0246    0.0246    0.0246    0.0246    0.0246    0.0246    0.0246    0.0246    0.0246    0.0246    0.0246    0.0246

4ZCross
  mean               7.111    2.5583    5.2438    4.0886    2.0698    3.7483    2.3479    4.2323    2.5396    4.4237    0.2484    3.8841    4.1111
  std. dev.         4.6004    2.2519    3.2168    2.3648    2.2498    3.2275    4.8445    3.3374    2.2159    3.0692    1.1311    7.5827    2.9164
  weight sum         14333      2915      6910      1346      1286      3561      1780      1035      8680      6646     35829      5298      2080
  precision         1.0755    1.0755    1.0755    1.0755    1.0755    1.0755    1.0755    1.0755    1.0755    1.0755    1.0755    1.0755    1.0755

4F1(Hz)
  mean            683.4195   372.086  466.4894  505.7205  378.5922    363.75  121.7702  468.7201  402.1582  486.2046   52.7372  175.7275  500.6341
  std. dev.        269.455  236.0116  142.2388  171.4004  277.5826  140.8431  225.3955  279.8473  234.3223  225.0865  165.1061  270.2225  305.2064
  weight sum         14333      2915      6910      1346      1286      3561      1780      1035      8680      6646     35829      5298      2080
  precision         0.3648    0.3648    0.3648    0.3648    0.3648    0.3648    0.3648    0.3648    0.3648    0.3648    0.3648    0.3648    0.3648

4F2(Hz)
  mean           1444.7727 1309.1173 1798.4442 1447.7215 1163.3139  1993.047   399.694 1467.5106 1318.9754 1140.7371  165.1296  573.2276 1061.2779
  std. dev.       450.4532    746.06  511.8666  393.3743   782.141  650.7685    748.44  797.6954  710.8251  531.1147  511.8838  845.2547  416.4942
  weight sum         14333      2915      6910      1346      1286      3561      1780      1035      8680      6646     35829      5298      2080
  precision         0.4429    0.4429    0.4429    0.4429    0.4429    0.4429    0.4429    0.4429    0.4429    0.4429    0.4429    0.4429    0.4429

4F3(Hz)
  mean           2659.8447 2204.7048 2634.9785 2797.9736 1978.2255 2677.3565  676.8886 2381.1662 2274.8969 2506.4348  281.5482  957.2863 2694.0925
  std. dev.       806.7783 1201.2074  764.1593  671.2133 1318.9077  898.3116 1222.9021 1267.0719 1201.7873 1018.6433  858.0862 1399.5559  755.1652
  weight sum         14333      2915      6910      1346      1286      3561      1780      1035      8680      6646     35829      5298      2080
  precision          0.662     0.662     0.662     0.662     0.662     0.662     0.662     0.662     0.662     0.662     0.662     0.662     0.662

4F4(Hz)
  mean           3084.7647 2650.5175   3174.33 3238.3887 2370.2376 3182.3609  803.0259 2619.6189 2618.0618 2882.7851  338.5454 1092.0781 3086.3027
  std. dev.       921.7526 1411.8243  885.5429  753.1084 1544.5093 1024.5862 1454.3715 1380.9381 1366.6706 1153.5603 1029.4374 1593.8261   763.546
  weight sum         14333      2915      6910      1346      1286      3561      1780      1035      8680      6646     35829      5298      2080
  precision         0.6829    0.6829    0.6829    0.6829    0.6829    0.6829    0.6829    0.6829    0.6829    0.6829    0.6829    0.6829    0.6829





=== Stratified cross-validation ===

Correctly Classified Instances       46331               50.5251 %
Incorrectly Classified Instances     45368               49.4749 %
Kappa statistic                          0.3822
K&B Relative Info Score            3242623.8856 %
K&B Information Score                93607.799  bits      1.0208 bits/instance
Class complexity | order 0          264693.4431 bits      2.8865 bits/instance
Class complexity | scheme          2550026.1729 bits     27.8087 bits/instance
Complexity improvement     (Sf)    -2285332.7297 bits    -24.9221 bits/instance
Mean absolute error                      0.0768
Root mean squared error                  0.2608
Relative absolute error                 62.7165 %
Root relative squared error            105.401  %
Coverage of cases (0.95 level)          56.102  %
Mean rel. region size (0.95 level)      10.8073 %
Total Number of Instances            91699     


=== Detailed Accuracy By Class ===

                 TP Rate  FP Rate  Precision  Recall   F-Measure  MCC      ROC Area  PRC Area  Class
                 0,426    0,036    0,685      0,426    0,525      0,477    0,879     0,600     a
                 0,003    0,003    0,029      0,003    0,006      -0,001   0,720     0,056     b
                 0,496    0,061    0,400      0,496    0,443      0,395    0,863     0,402     e
                 0,657    0,205    0,046      0,657    0,085      0,133    0,815     0,047     d
                 0,072    0,024    0,041      0,072    0,052      0,036    0,730     0,031     f
                 0,382    0,034    0,312      0,382    0,343      0,316    0,863     0,271     i
                 0,153    0,017    0,152      0,153    0,152      0,136    0,841     0,096     k
                 0,121    0,003    0,296      0,121    0,172      0,183    0,755     0,086     j
                 0,044    0,017    0,214      0,044    0,073      0,057    0,741     0,177     l
                 0,003    0,001    0,175      0,003    0,006      0,014    0,778     0,181     o
                 0,889    0,132    0,812      0,889    0,849      0,747    0,949     0,942     0
                 0,186    0,015    0,436      0,186    0,261      0,258    0,881     0,348     s
                 0,389    0,016    0,354      0,389    0,371      0,356    0,865     0,332     u
Weighted Avg.    0,505    0,070    0,541      0,505    0,498      0,445    0,874     0,566     


=== Confusion Matrix ===

     a     b     c     d     e     f     g     h     i     j     k     l     m   <-- classified as
  6102    49  1533  4442   304   267   157    96   205    52   710   129   287 |     a = a
   173     9   135  1170   124   431    74    22    77     2   514    70   114 |     b = b
   591    65  3427  1643   157   407   104    34    96     9   262    51    64 |     c = e
   129     0    94   884     3    30     1     0    68     0    47    22    68 |     d = d
    80     1    86   481    92   117    39     6    40     0   296    40     8 |     e = f
   171    46  1229   258   123  1362    77     3    61     0   183    45     3 |     f = i
    18    16    23    93    80    67   272    13    44     4   951   187    12 |     g = k
   119     1   174   181    47    96    19   125    33     0   151    33    56 |     h = j
   451    30   513  4272   358   651   277    14   382     8  1349   220   155 |     i = l
   667    55   908  3019   222    60    56    25   203    20   695   108   608 |     j = o
    87    11   309  1669   432   531   149    24   305    12 31861   353    86 |     k = 0
   140     8    82   509   283   310   527    54   191     6  2185   986    17 |     l = s
   186    15    54   751    44    42    37     6    81     1    38    16   809 |     m = u

=== Percent Confusion Matrix ===
a	b	c	d	e	f	g	h	i	j	k	l	m	
42.57	0.34	10.7	30.99	2.12	1.86	1.1	0.67	1.43	0.36	4.95	0.9	2.0	 a = a
5.93	0.31	4.63	40.14	4.25	14.79	2.54	0.75	2.64	0.07	17.63	2.4	3.91	 b = b
8.55	0.94	49.59	23.78	2.27	5.89	1.51	0.49	1.39	0.13	3.79	0.74	0.93	 c = e
9.58	0.0	6.98	65.68	0.22	2.23	0.07	0.0	5.05	0.0	3.49	1.63	5.05	 d = d
6.22	0.08	6.69	37.4	7.15	9.1	3.03	0.47	3.11	0.0	23.02	3.11	0.62	 e = f
4.8	1.29	34.51	7.25	3.45	38.25	2.16	0.08	1.71	0.0	5.14	1.26	0.08	 f = i
1.01	0.9	1.29	5.22	4.49	3.76	15.28	0.73	2.47	0.22	53.43	10.51	0.67	 g = k
11.5	0.1	16.81	17.49	4.54	9.28	1.84	12.08	3.19	0.0	14.59	3.19	5.41	 h = j
5.2	0.35	5.91	49.22	4.12	7.5	3.19	0.16	4.4	0.09	15.54	2.53	1.79	 i = l
10.04	0.83	13.66	45.43	3.34	0.9	0.84	0.38	3.05	0.3	10.46	1.63	9.15	 j = o
0.24	0.03	0.86	4.66	1.21	1.48	0.42	0.07	0.85	0.03	88.93	0.99	0.24	 k = 0
2.64	0.15	1.55	9.61	5.34	5.85	9.95	1.02	3.61	0.11	41.24	18.61	0.32	 l = s
8.94	0.72	2.6	36.11	2.12	2.02	1.78	0.29	3.89	0.05	1.83	0.77	38.89	 m = u
