Timestamp:2014-12-07-10:52:18
Inventario:I1
Intervalo:20ms
Ngramas:2
Clasificador:NaiveBayes
Relation Name:  I1-20ms-2gramas
Num Instances:  9128
Num Attributes: 21

     Name                      Type  Nom  Int Real     Missing      Unique  Dist
   1 0Int(dB)                   Num   0%  11%  89%     0 /  0%    14 /  0%   764 
   2 0Pitch(Hz)                 Num   0%  49%  51%     0 /  0%  1033 / 11%  2440 
   3 0RawPitch                  Num   0%  52%  48%     0 /  0%  1062 / 12%  2369 
   4 0SmPitch                   Num   0%  50%  50%     0 /  0%  1056 / 12%  2419 
   5 0Melogram(st)              Num   0%  45%  55%     0 /  0%   937 / 10%  2341 
   6 0ZCross                    Num   0% 100%   0%     0 /  0%     7 /  0%    34 
   7 0F1(Hz)                    Num   0%  49%  51%     0 /  0%  2180 / 24%  3398 
   8 0F2(Hz)                    Num   0%  49%  51%     0 /  0%  3463 / 38%  4259 
   9 0F3(Hz)                    Num   0%  49%  51%     0 /  0%  3209 / 35%  4087 
  10 0F4(Hz)                    Num   0%  49%  51%     0 /  0%  3134 / 34%  4027 
  11 1Int(dB)                   Num   0%  11%  89%     0 /  0%    14 /  0%   764 
  12 1Pitch(Hz)                 Num   0%  49%  51%     0 /  0%  1033 / 11%  2440 
  13 1RawPitch                  Num   0%  52%  48%     0 /  0%  1062 / 12%  2369 
  14 1SmPitch                   Num   0%  50%  50%     0 /  0%  1056 / 12%  2419 
  15 1Melogram(st)              Num   0%  45%  55%     0 /  0%   938 / 10%  2342 
  16 1ZCross                    Num   0% 100%   0%     0 /  0%     7 /  0%    34 
  17 1F1(Hz)                    Num   0%  49%  51%     0 /  0%  2180 / 24%  3398 
  18 1F2(Hz)                    Num   0%  49%  51%     0 /  0%  3463 / 38%  4259 
  19 1F3(Hz)                    Num   0%  49%  51%     0 /  0%  3209 / 35%  4087 
  20 1F4(Hz)                    Num   0%  49%  51%     0 /  0%  3134 / 34%  4027 
  21 class                      Nom 100%   0%   0%     0 /  0%     0 /  0%    13 


Naive Bayes Classifier

                    Class
Attribute               a         b         e         d         f         i         k         j         l         o         0         s         u
                   (0.16)    (0.03)    (0.08)    (0.02)    (0.02)    (0.04)    (0.02)    (0.01)     (0.1)    (0.08)    (0.35)    (0.06)    (0.02)
==================================================================================================================================================
0Int(dB)
  mean              -5.641   -12.305   -7.2226   -7.9351  -12.3449  -10.9862  -28.7486   -9.1161  -11.7615   -9.7163  -50.1358  -18.5798   -8.0296
  std. dev.        10.8727   11.5328    9.4909    6.9104   10.3558    9.3463   12.6169    7.7729   11.2693   12.1824   14.5007    9.0258    9.9998
  weight sum          1505       299       746       138       138       385       181       109       910       712      3236       551       218
  precision         0.1008    0.1008    0.1008    0.1008    0.1008    0.1008    0.1008    0.1008    0.1008    0.1008    0.1008    0.1008    0.1008

0Pitch(Hz)
  mean            211.1547  174.4724   183.146  192.6531  161.6772  163.4233   56.7335  210.1234  165.2806  177.1418   12.2267  100.5273  221.0527
  std. dev.       109.0219  105.6613   90.4096    88.609  107.4647   84.1925    92.985  103.3667   99.1761  106.6856   48.3613  107.4323   98.5341
  weight sum          1505       299       746       138       138       385       181       109       910       712      3236       551       218
  precision         0.2034    0.2034    0.2034    0.2034    0.2034    0.2034    0.2034    0.2034    0.2034    0.2034    0.2034    0.2034    0.2034

0RawPitch
  mean            200.9312  163.2284  176.8718  186.1671  134.4189  153.6209   48.3156  186.2007  153.2796  168.1349   10.0496   82.9122  210.2912
  std. dev.       113.0094  110.9161   96.4397   96.0987  106.6169   86.0466   91.5248  109.9068  104.4253   111.735   42.5592  104.8341  103.8231
  weight sum          1505       299       746       138       138       385       181       109       910       712      3236       551       218
  precision         0.2088    0.2088    0.2088    0.2088    0.2088    0.2088    0.2088    0.2088    0.2088    0.2088    0.2088    0.2088    0.2088

0SmPitch
  mean            209.2749  171.9345  181.1568  191.2271   150.738  161.2553   53.6257  196.1026  161.3762  174.8902   10.6901   95.1754  219.9482
  std. dev.       110.3154  107.9136   92.1927   90.5485  103.6325   84.9278   91.9518  116.7296  101.5417  108.2193   43.8936  106.8153    99.473
  weight sum          1505       299       746       138       138       385       181       109       910       712      3236       551       218
  precision         0.2051    0.2051    0.2051    0.2051    0.2051    0.2051    0.2051    0.2051    0.2051    0.2051    0.2051    0.2051    0.2051

0Melogram(st)
  mean             50.6224   45.7201   49.1776   51.4088   45.2162   45.9084   17.6956   44.9302   44.5707   46.5218    3.7033   28.2267   50.6374
  std. dev.        17.7748    21.266   17.1261   13.7531   20.2304   18.9795   25.7255   23.4066   21.4543   20.6378   13.7381   27.1257    19.473
  weight sum          1505       299       746       138       138       385       181       109       910       712      3236       551       218
  precision         0.0353    0.0353    0.0353    0.0353    0.0353    0.0353    0.0353    0.0353    0.0353    0.0353    0.0353    0.0353    0.0353

0ZCross
  mean              6.4973    2.4688    4.6951    3.5415    2.7115    3.0678    0.7805    4.6239    2.9119    3.8039    0.1471    3.3285    3.4387
  std. dev.         4.7305    2.5057    3.4013    2.2242    2.5858     3.289    1.9729    3.3012    2.5955    3.4966    0.8713    5.6883    3.0618
  weight sum          1505       299       746       138       138       385       181       109       910       712      3236       551       218
  precision         1.2727    1.2727    1.2727    1.2727    1.2727    1.2727    1.2727    1.2727    1.2727    1.2727    1.2727    1.2727    1.2727

0F1(Hz)
  mean            632.5964  423.0991  435.3843  494.4923  487.8092  340.7633  180.4755  545.9528  465.8644  450.1528   45.7552  343.9397  462.9492
  std. dev.       296.8673  227.7907  182.9634  163.5032    232.81  174.3406  253.1663  207.7542  226.3615  244.2194  157.7973  296.8921  332.7223
  weight sum          1505       299       746       138       138       385       181       109       910       712      3236       551       218
  precision         0.5127    0.5127    0.5127    0.5127    0.5127    0.5127    0.5127    0.5127    0.5127    0.5127    0.5127    0.5127    0.5127

0F2(Hz)
  mean           1400.8405 1449.4723 1633.7862 1449.0269 1414.8511 1740.6907  608.7768 1763.2818 1434.7296 1123.9385  138.7352 1079.6747  1000.033
  std. dev.       532.4998  686.1573  662.2232  382.0215  640.3559  805.0767  860.5114  523.8526  636.7728  603.6465  473.9153  883.7643   546.594
  weight sum          1505       299       746       138       138       385       181       109       910       712      3236       551       218
  precision         0.6985    0.6985    0.6985    0.6985    0.6985    0.6985    0.6985    0.6985    0.6985    0.6985    0.6985    0.6985    0.6985

0F3(Hz)
  mean           2566.7052 2437.2044 2466.1143 2791.3469 2406.0546 2427.5868 1006.1386 2807.0384 2469.2129 2381.9061    236.77 1809.7759  2460.271
  std. dev.       934.1062 1070.9844  983.2863   620.118 1054.0979 1119.2236 1375.3267  825.3591 1046.1641 1133.1835   790.092 1453.8806 1089.2339
  weight sum          1505       299       746       138       138       385       181       109       910       712      3236       551       218
  precision         1.0065    1.0065    1.0065    1.0065    1.0065    1.0065    1.0065    1.0065    1.0065    1.0065    1.0065    1.0065    1.0065

0F4(Hz)
  mean           2970.9678  2883.526  2968.206 3255.5773 2858.1926 2906.6724 1195.7113 3067.0397 2846.2368 2739.0875  289.9922 2081.6844  2778.374
  std. dev.      1072.0689 1232.2639 1156.9806  686.1677 1217.3342 1305.1093 1640.9175  874.5893 1183.2487 1292.2218  965.4827 1667.9196 1167.5154
  weight sum          1505       299       746       138       138       385       181       109       910       712      3236       551       218
  precision         1.0301    1.0301    1.0301    1.0301    1.0301    1.0301    1.0301    1.0301    1.0301    1.0301    1.0301    1.0301    1.0301

1Int(dB)
  mean             -4.7838  -12.4527   -5.6493   -8.6538  -13.9655   -9.5022  -24.7612  -10.6843  -12.8772   -8.6644  -50.8578  -20.5637   -5.9413
  std. dev.          9.917   10.4872    8.2505    7.2422    8.9902    8.6317    9.9219    7.8142   10.5331   12.1183   13.3657    7.2016    8.0011
  weight sum          1505       299       746       138       138       385       181       109       910       712      3236       551       218
  precision         0.1008    0.1008    0.1008    0.1008    0.1008    0.1008    0.1008    0.1008    0.1008    0.1008    0.1008    0.1008    0.1008

1Pitch(Hz)
  mean            215.4717  173.7208  192.4898  190.1568  152.2312  174.3019   79.8505  200.7202  164.8495  180.2959    8.6361   79.8818  232.3523
  std. dev.       105.3209  104.0157    85.636   91.3345   105.769   75.0715  106.1975  109.5024   97.9698  103.4062    41.214  103.1552   82.3117
  weight sum          1505       299       746       138       138       385       181       109       910       712      3236       551       218
  precision         0.2034    0.2034    0.2034    0.2034    0.2034    0.2034    0.2034    0.2034    0.2034    0.2034    0.2034    0.2034    0.2034

1RawPitch
  mean            205.1279  156.9007  188.8553  185.4439  123.0765  166.4766   59.9198  174.6103  152.8875  174.0908    6.9049   58.2601  222.5693
  std. dev.       110.0217  112.4322   89.4789   97.5665  101.8456   78.7839   100.207  114.6744  103.0187  108.0935   35.4988   93.3335   89.8429
  weight sum          1505       299       746       138       138       385       181       109       910       712      3236       551       218
  precision         0.2088    0.2088    0.2088    0.2088    0.2088    0.2088    0.2088    0.2088    0.2088    0.2088    0.2088    0.2088    0.2088

1SmPitch
  mean            213.4208  169.8194  191.6241  189.6336  141.6009  171.8543   66.4445  185.8292  161.3764   178.962     7.414   73.5048  232.3227
  std. dev.       106.8674  107.6346   86.4181   92.3532  100.3995   76.5988  103.0618  122.7866  100.3057  104.3249    36.468   100.704   82.2366
  weight sum          1505       299       746       138       138       385       181       109       910       712      3236       551       218
  precision         0.2051    0.2051    0.2051    0.2051    0.2051    0.2051    0.2051    0.2051    0.2051    0.2051    0.2051    0.2051    0.2051

1Melogram(st)
  mean             52.0827   45.7719   51.3162   50.8347   42.7509   49.4307   20.7305   42.0778   44.1426   47.7311    2.7463   22.3048   54.9086
  std. dev.        15.5643   21.2519   13.9659   14.5044   21.9334   14.5646    27.307   25.4087   21.7623   19.2227   12.0032   26.7953   12.8002
  weight sum          1505       299       746       138       138       385       181       109       910       712      3236       551       218
  precision         0.0352    0.0352    0.0352    0.0352    0.0352    0.0352    0.0352    0.0352    0.0352    0.0352    0.0352    0.0352    0.0352

1ZCross
  mean              6.7146    2.2092    4.8248    3.4862    2.0843    3.1868    1.7087    4.2269    2.3063    3.9665    0.0853    3.6611     3.573
  std. dev.          4.535     2.095    3.1533    2.2377    2.0439    2.9527    3.3908    3.1596    2.0088    3.0096     0.629    6.6276    2.8222
  weight sum          1505       299       746       138       138       385       181       109       910       712      3236       551       218
  precision         1.2727    1.2727    1.2727    1.2727    1.2727    1.2727    1.2727    1.2727    1.2727    1.2727    1.2727    1.2727    1.2727

1F1(Hz)
  mean            680.6071  402.1692  468.1216  495.2687  433.0067  362.9833  162.4503  519.3228  430.2971  487.9887   33.6314  256.1635  498.1345
  std. dev.       260.5161  226.7452  135.4424  176.0915  254.6457  139.6622  248.8959  242.1586  227.3074  219.6408  134.9805  292.2384  299.1257
  weight sum          1505       299       746       138       138       385       181       109       910       712      3236       551       218
  precision         0.5127    0.5127    0.5127    0.5127    0.5127    0.5127    0.5127    0.5127    0.5127    0.5127    0.5127    0.5127    0.5127

1F2(Hz)
  mean           1463.4676 1402.7174 1802.3085 1423.4659 1302.5905 1971.4305   523.537  1645.159 1381.1848 1165.7924  104.5868  833.4641 1080.7158
  std. dev.       432.0523  694.7863  487.8366   407.382  701.6256  644.7659  808.1478  658.8397  667.5419  525.3227  415.8315  908.4179  431.8771
  weight sum          1505       299       746       138       138       385       181       109       910       712      3236       551       218
  precision         0.6985    0.6985    0.6985    0.6985    0.6985    0.6985    0.6985    0.6985    0.6985    0.6985    0.6985    0.6985    0.6985

1F3(Hz)
  mean           2691.8093 2362.4099 2662.4498 2756.8647 2220.2677 2672.9489  906.3265 2640.4553 2381.1686 2534.4259  178.4164 1382.6766 2714.6841
  std. dev.       762.9907 1105.7815   729.876   698.638 1179.8092  890.7818 1352.6864  1037.927 1119.0959  989.9708    693.97 1487.3833  768.9985
  weight sum          1505       299       746       138       138       385       181       109       910       712      3236       551       218
  precision         1.0065    1.0065    1.0065    1.0065    1.0065    1.0065    1.0065    1.0065    1.0065    1.0065    1.0065    1.0065    1.0065

1F4(Hz)
  mean            3114.979 2816.8308 3199.5596 3224.9891 2671.4019 3176.0491 1051.9703 2895.8616 2744.1595 2913.9175  219.8428 1596.2033  3074.217
  std. dev.       871.0219 1281.9538  841.1377  787.9869 1380.3083 1017.7226 1576.1376 1120.2728  1271.138 1121.3472  852.9609 1714.5262  772.1011
  weight sum          1505       299       746       138       138       385       181       109       910       712      3236       551       218
  precision         1.0301    1.0301    1.0301    1.0301    1.0301    1.0301    1.0301    1.0301    1.0301    1.0301    1.0301    1.0301    1.0301





=== Stratified cross-validation ===

Correctly Classified Instances        4559               49.9452 %
Incorrectly Classified Instances      4569               50.0548 %
Kappa statistic                          0.3895
K&B Relative Info Score             343627.4903 %
K&B Information Score                10219.9345 bits      1.1196 bits/instance
Class complexity | order 0           27126.5299 bits      2.9718 bits/instance
Class complexity | scheme           102293.239  bits     11.2065 bits/instance
Complexity improvement     (Sf)     -75166.7091 bits     -8.2347 bits/instance
Mean absolute error                      0.0789
Root mean squared error                  0.2395
Relative absolute error                 62.806  %
Root relative squared error             95.5693 %
Coverage of cases (0.95 level)          67.649  %
Mean rel. region size (0.95 level)      19.0858 %
Total Number of Instances             9128     


=== Detailed Accuracy By Class ===

                 TP Rate  FP Rate  Precision  Recall   F-Measure  MCC      ROC Area  PRC Area  Class
                 0,498    0,068    0,592      0,498    0,541      0,462    0,855     0,581     a
                 0,000    0,000    0,000      0,000    0,000      -0,003   0,722     0,058     b
                 0,468    0,095    0,305      0,468    0,369      0,308    0,834     0,337     e
                 0,536    0,166    0,047      0,536    0,087      0,120    0,798     0,044     d
                 0,000    0,000    0,000      0,000    0,000      -0,001   0,728     0,034     f
                 0,294    0,030    0,300      0,294    0,297      0,266    0,849     0,270     i
                 0,227    0,037    0,111      0,227    0,149      0,134    0,811     0,085     k
                 0,046    0,001    0,294      0,046    0,079      0,112    0,799     0,095     j
                 0,059    0,037    0,150      0,059    0,085      0,034    0,730     0,173     l
                 0,011    0,004    0,178      0,011    0,021      0,026    0,760     0,186     o
                 0,919    0,084    0,858      0,919    0,887      0,823    0,970     0,963     0
                 0,256    0,027    0,376      0,256    0,305      0,274    0,797     0,316     s
                 0,234    0,010    0,375      0,234    0,288      0,283    0,846     0,218     u
Weighted Avg.    0,499    0,059    0,506      0,499    0,487      0,439    0,862     0,538     


=== Confusion Matrix ===

    a    b    c    d    e    f    g    h    i    j    k    l    m   <-- classified as
  750    0  196  301    0   29   57    1   49   20   48   31   23 |    a = a
   30    0   48   93    0   39   17    0   17    0   30   15   10 |    b = b
   99    0  349  145    0   50   27    2   17    8   20   20    9 |    c = e
   22    0   22   74    0    3    0    0    8    0    5    4    0 |    d = d
   13    0   18   58    0    3   12    0   14    0   11    9    0 |    e = f
   19    1  160   21    0  113   27    2   13    1   14   12    2 |    f = i
    3    0    9   12    0    6   41    0   11    2   78   18    1 |    g = k
   25    0   31   13    1    7    2    5   12    0    4    7    2 |    h = j
  106    0  133  370    0   47   57    1   54    3   86   45    8 |    i = l
  118    0  118  266    0   15   30    0   45    8   65   20   27 |    j = o
    8    1   20   63    0   25   40    0   54    1 2973   48    3 |    k = 0
   38    1   26   78    0   32   48    5   52    0  130  141    0 |    l = s
   35    0   16   72    0    8   12    1   13    2    3    5   51 |    m = u

=== Percent Confusion Matrix ===
a	b	c	d	e	f	g	h	i	j	k	l	m	
49.83	0.0	13.02	20.0	0.0	1.93	3.79	0.07	3.26	1.33	3.19	2.06	1.53	 a = a
10.03	0.0	16.05	31.1	0.0	13.04	5.69	0.0	5.69	0.0	10.03	5.02	3.34	 b = b
13.27	0.0	46.78	19.44	0.0	6.7	3.62	0.27	2.28	1.07	2.68	2.68	1.21	 c = e
15.94	0.0	15.94	53.62	0.0	2.17	0.0	0.0	5.8	0.0	3.62	2.9	0.0	 d = d
9.42	0.0	13.04	42.03	0.0	2.17	8.7	0.0	10.14	0.0	7.97	6.52	0.0	 e = f
4.94	0.26	41.56	5.45	0.0	29.35	7.01	0.52	3.38	0.26	3.64	3.12	0.52	 f = i
1.66	0.0	4.97	6.63	0.0	3.31	22.65	0.0	6.08	1.1	43.09	9.94	0.55	 g = k
22.94	0.0	28.44	11.93	0.92	6.42	1.83	4.59	11.01	0.0	3.67	6.42	1.83	 h = j
11.65	0.0	14.62	40.66	0.0	5.16	6.26	0.11	5.93	0.33	9.45	4.95	0.88	 i = l
16.57	0.0	16.57	37.36	0.0	2.11	4.21	0.0	6.32	1.12	9.13	2.81	3.79	 j = o
0.25	0.03	0.62	1.95	0.0	0.77	1.24	0.0	1.67	0.03	91.87	1.48	0.09	 k = 0
6.9	0.18	4.72	14.16	0.0	5.81	8.71	0.91	9.44	0.0	23.59	25.59	0.0	 l = s
16.06	0.0	7.34	33.03	0.0	3.67	5.5	0.46	5.96	0.92	1.38	2.29	23.39	 m = u
