Timestamp:2014-12-07-10:52:29
Inventario:I1
Intervalo:20ms
Ngramas:5
Clasificador:NaiveBayes
Relation Name:  I1-20ms-5gramas
Num Instances:  9125
Num Attributes: 51

     Name                      Type  Nom  Int Real     Missing      Unique  Dist
   1 0Int(dB)                   Num   0%  11%  89%     0 /  0%    14 /  0%   764 
   2 0Pitch(Hz)                 Num   0%  49%  51%     0 /  0%  1033 / 11%  2440 
   3 0RawPitch                  Num   0%  52%  48%     0 /  0%  1062 / 12%  2369 
   4 0SmPitch                   Num   0%  50%  50%     0 /  0%  1056 / 12%  2419 
   5 0Melogram(st)              Num   0%  45%  55%     0 /  0%   937 / 10%  2341 
   6 0ZCross                    Num   0% 100%   0%     0 /  0%     7 /  0%    34 
   7 0F1(Hz)                    Num   0%  49%  51%     0 /  0%  2180 / 24%  3398 
   8 0F2(Hz)                    Num   0%  49%  51%     0 /  0%  3463 / 38%  4259 
   9 0F3(Hz)                    Num   0%  49%  51%     0 /  0%  3209 / 35%  4087 
  10 0F4(Hz)                    Num   0%  49%  51%     0 /  0%  3134 / 34%  4027 
  11 1Int(dB)                   Num   0%  11%  89%     0 /  0%    14 /  0%   764 
  12 1Pitch(Hz)                 Num   0%  49%  51%     0 /  0%  1033 / 11%  2440 
  13 1RawPitch                  Num   0%  52%  48%     0 /  0%  1062 / 12%  2369 
  14 1SmPitch                   Num   0%  50%  50%     0 /  0%  1056 / 12%  2419 
  15 1Melogram(st)              Num   0%  45%  55%     0 /  0%   937 / 10%  2341 
  16 1ZCross                    Num   0% 100%   0%     0 /  0%     7 /  0%    34 
  17 1F1(Hz)                    Num   0%  49%  51%     0 /  0%  2180 / 24%  3398 
  18 1F2(Hz)                    Num   0%  49%  51%     0 /  0%  3463 / 38%  4259 
  19 1F3(Hz)                    Num   0%  49%  51%     0 /  0%  3209 / 35%  4087 
  20 1F4(Hz)                    Num   0%  49%  51%     0 /  0%  3134 / 34%  4027 
  21 2Int(dB)                   Num   0%  11%  89%     0 /  0%    14 /  0%   764 
  22 2Pitch(Hz)                 Num   0%  49%  51%     0 /  0%  1033 / 11%  2440 
  23 2RawPitch                  Num   0%  52%  48%     0 /  0%  1062 / 12%  2369 
  24 2SmPitch                   Num   0%  50%  50%     0 /  0%  1056 / 12%  2419 
  25 2Melogram(st)              Num   0%  45%  55%     0 /  0%   937 / 10%  2341 
  26 2ZCross                    Num   0% 100%   0%     0 /  0%     7 /  0%    34 
  27 2F1(Hz)                    Num   0%  49%  51%     0 /  0%  2180 / 24%  3398 
  28 2F2(Hz)                    Num   0%  49%  51%     0 /  0%  3463 / 38%  4259 
  29 2F3(Hz)                    Num   0%  49%  51%     0 /  0%  3209 / 35%  4087 
  30 2F4(Hz)                    Num   0%  49%  51%     0 /  0%  3134 / 34%  4027 
  31 3Int(dB)                   Num   0%  11%  89%     0 /  0%    14 /  0%   764 
  32 3Pitch(Hz)                 Num   0%  49%  51%     0 /  0%  1033 / 11%  2440 
  33 3RawPitch                  Num   0%  52%  48%     0 /  0%  1062 / 12%  2369 
  34 3SmPitch                   Num   0%  50%  50%     0 /  0%  1056 / 12%  2419 
  35 3Melogram(st)              Num   0%  45%  55%     0 /  0%   937 / 10%  2341 
  36 3ZCross                    Num   0% 100%   0%     0 /  0%     7 /  0%    34 
  37 3F1(Hz)                    Num   0%  49%  51%     0 /  0%  2180 / 24%  3398 
  38 3F2(Hz)                    Num   0%  49%  51%     0 /  0%  3463 / 38%  4259 
  39 3F3(Hz)                    Num   0%  49%  51%     0 /  0%  3209 / 35%  4087 
  40 3F4(Hz)                    Num   0%  49%  51%     0 /  0%  3134 / 34%  4027 
  41 4Int(dB)                   Num   0%  11%  89%     0 /  0%    14 /  0%   764 
  42 4Pitch(Hz)                 Num   0%  49%  51%     0 /  0%  1033 / 11%  2440 
  43 4RawPitch                  Num   0%  52%  48%     0 /  0%  1062 / 12%  2369 
  44 4SmPitch                   Num   0%  50%  50%     0 /  0%  1056 / 12%  2419 
  45 4Melogram(st)              Num   0%  45%  55%     0 /  0%   938 / 10%  2342 
  46 4ZCross                    Num   0% 100%   0%     0 /  0%     7 /  0%    34 
  47 4F1(Hz)                    Num   0%  49%  51%     0 /  0%  2180 / 24%  3398 
  48 4F2(Hz)                    Num   0%  49%  51%     0 /  0%  3463 / 38%  4259 
  49 4F3(Hz)                    Num   0%  49%  51%     0 /  0%  3209 / 35%  4087 
  50 4F4(Hz)                    Num   0%  49%  51%     0 /  0%  3134 / 34%  4027 
  51 class                      Nom 100%   0%   0%     0 /  0%     0 /  0%    13 


Naive Bayes Classifier

                    Class
Attribute               a         b         e         d         f         i         k         j         l         o         0         s         u
                   (0.16)    (0.03)    (0.08)    (0.02)    (0.02)    (0.04)    (0.02)    (0.01)     (0.1)    (0.08)    (0.35)    (0.06)    (0.02)
==================================================================================================================================================
0Int(dB)
  mean             -9.4436  -10.7538  -13.0643  -10.8207   -8.9269  -14.4823  -20.7976   -6.1748   -9.9904  -13.7939  -47.5634  -12.8941  -12.6792
  std. dev.        14.8533   12.8105   13.8924     9.073   12.5332   12.1648   18.8878    8.3471   10.4372   14.5422   17.5773   13.3193   14.5166
  weight sum          1505       299       746       138       138       385       181       109       910       712      3233       551       218
  precision         0.1008    0.1008    0.1008    0.1008    0.1008    0.1008    0.1008    0.1008    0.1008    0.1008    0.1008    0.1008    0.1008

0Pitch(Hz)
  mean            192.1654  168.3253  157.6241  163.3852  180.3011   129.399   128.454  207.9274  177.1712  154.4015   22.5345  157.0114  185.4643
  std. dev.       124.5559  106.7245  106.2543   93.2086   98.9453    97.295  104.6424   90.9518   94.9337  117.9146   64.1222  101.0402  129.6329
  weight sum          1505       299       746       138       138       385       181       109       910       712      3233       551       218
  precision         0.2034    0.2034    0.2034    0.2034    0.2034    0.2034    0.2034    0.2034    0.2034    0.2034    0.2034    0.2034    0.2034

0RawPitch
  mean            182.8778  165.1759  142.8621   150.173  172.2618  115.7703  119.4832  205.4375  162.8961  147.4316   19.0259   148.598  174.0768
  std. dev.       126.0813  108.0612  108.7738  100.3023  100.7608   98.4318  107.6605   93.6444  102.1176  119.9864   58.9951  104.8953   129.047
  weight sum          1505       299       746       138       138       385       181       109       910       712      3233       551       218
  precision         0.2088    0.2088    0.2088    0.2088    0.2088    0.2088    0.2088    0.2088    0.2088    0.2088    0.2088    0.2088    0.2088

0SmPitch
  mean            190.7737  169.0202  151.1828  159.0338    179.78  126.3893  124.7667  208.0132  172.5955  151.8381   20.5313  155.8323   182.135
  std. dev.       124.8295  106.3346  108.3387   95.7205  100.4294    98.528  103.9996   91.2358   98.0329  118.5922   60.8233  101.7157  130.2709
  weight sum          1505       299       746       138       138       385       181       109       910       712      3233       551       218
  precision         0.2051    0.2051    0.2051    0.2051    0.2051    0.2051    0.2051    0.2051    0.2051    0.2051    0.2051    0.2051    0.2051

0Melogram(st)
  mean             45.7878   44.6453   41.5957   46.4163   48.2008   37.5182   36.3279   52.8901   46.8509   40.1516    6.4706   42.6899   41.8132
  std. dev.        22.8954    22.068   23.8518   19.4202   18.1359   24.3982   25.2523   14.0464   19.7304   24.9935   17.6275    22.312    26.342
  weight sum          1505       299       746       138       138       385       181       109       910       712      3233       551       218
  precision         0.0353    0.0353    0.0353    0.0353    0.0353    0.0353    0.0353    0.0353    0.0353    0.0353    0.0353    0.0353    0.0353

0ZCross
  mean              5.5966    3.8139     3.564    3.1542    4.2701    3.6099    2.2572    5.1493    3.7734    3.1175    0.4181    3.1021    3.6956
  std. dev.         5.2608    3.5612    3.6901    2.7246    3.3526       4.9    2.6986     3.204    3.1018    3.4613    1.6417    2.8327    4.1241
  weight sum          1505       299       746       138       138       385       181       109       910       712      3233       551       218
  precision         1.2727    1.2727    1.2727    1.2727    1.2727    1.2727    1.2727    1.2727    1.2727    1.2727    1.2727    1.2727    1.2727

0F1(Hz)
  mean            539.6585  404.6554  396.6456   454.531  477.7009  362.3908  386.7992  497.8711  494.2651  381.2384   78.4894  460.3094  436.2298
  std. dev.       340.8503  239.4385  245.4891  233.8577  201.4736  263.2562  254.6165  148.8176  235.3169   266.009  203.5437  250.7143  361.4868
  weight sum          1505       299       746       138       138       385       181       109       910       712      3233       551       218
  precision         0.5127    0.5127    0.5127    0.5127    0.5127    0.5127    0.5127    0.5127    0.5127    0.5127    0.5127    0.5127    0.5127

0F2(Hz)
  mean           1296.0971 1394.3751 1340.1469  1213.765 1515.3183 1267.4653 1213.6481 1757.9246 1440.7413 1098.4424  231.6962 1430.1554 1020.6963
  std. dev.       679.3112  768.1069  797.5886  622.7755   626.684  859.7623  809.5173  457.1741  630.8798  749.9908  596.3489  701.3406   717.933
  weight sum          1505       299       746       138       138       385       181       109       910       712      3233       551       218
  precision         0.6985    0.6985    0.6985    0.6985    0.6985    0.6985    0.6985    0.6985    0.6985    0.6985    0.6985    0.6985    0.6985

0F3(Hz)
  mean           2328.8526 2282.2263 2162.9982 2336.8057 2526.1882 2022.7855 2061.7494  2838.922 2506.4022 2116.8449  398.5268 2419.0813  2161.149
  std. dev.      1165.6944  1194.601 1227.4642 1139.7693  968.8846  1338.969 1309.6708  762.9257 1026.9419 1300.7052  997.1309 1140.2989 1263.8627
  weight sum          1505       299       746       138       138       385       181       109       910       712      3233       551       218
  precision         1.0065    1.0065    1.0065    1.0065    1.0065    1.0065    1.0065    1.0065    1.0065    1.0065    1.0065    1.0065    1.0065

0F4(Hz)
  mean           2691.0845 2688.4461 2604.1079  2748.044 2969.9013 2433.8024 2420.5658 3091.8177 2886.9602  2442.601  479.4766 2778.7528 2510.8149
  std. dev.      1337.1531 1385.2271  1461.208 1311.5579 1128.5034 1591.4063  1538.859   796.232 1157.1011 1494.7339 1196.5525 1295.2801 1424.0654
  weight sum          1505       299       746       138       138       385       181       109       910       712      3233       551       218
  precision         1.0301    1.0301    1.0301    1.0301    1.0301    1.0301    1.0301    1.0301    1.0301    1.0301    1.0301    1.0301    1.0301

1Int(dB)
  mean             -8.6039  -10.1929  -11.7218   -9.0825   -8.8371  -14.1716  -23.8825   -5.7624   -9.5749  -13.1727  -48.3452  -14.1798  -12.1512
  std. dev.        13.8877   12.1121   12.7888    8.1938   12.1009   11.3435   17.6251    7.3432   10.4094   13.9303   16.8525    12.329   13.5815
  weight sum          1505       299       746       138       138       385       181       109       910       712      3233       551       218
  precision         0.1008    0.1008    0.1008    0.1008    0.1008    0.1008    0.1008    0.1008    0.1008    0.1008    0.1008    0.1008    0.1008

1Pitch(Hz)
  mean            194.5491  179.4782  160.6546  182.2168  181.9044  134.2538  109.9043  213.3268     179.8  156.7441   19.4371  147.5552  185.7432
  std. dev.        122.101  103.6256  102.2528   86.9581  100.9774   96.8851  106.9809   91.8195   93.2702  116.9519   59.9023  103.3125  130.6923
  weight sum          1505       299       746       138       138       385       181       109       910       712      3233       551       218
  precision         0.2034    0.2034    0.2034    0.2034    0.2034    0.2034    0.2034    0.2034    0.2034    0.2034    0.2034    0.2034    0.2034

1RawPitch
  mean             184.365  175.1905  148.5522  168.9379  170.1709  121.7318  100.7168  205.7057  166.9213  148.9971   16.1157  137.7761  173.5625
  std. dev.       124.2233  105.5177  106.1316   95.6179  103.5921   96.3139  111.8666   95.9295    99.585  120.0464   54.3952  107.5458  129.6098
  weight sum          1505       299       746       138       138       385       181       109       910       712      3233       551       218
  precision         0.2088    0.2088    0.2088    0.2088    0.2088    0.2088    0.2088    0.2088    0.2088    0.2088    0.2088    0.2088    0.2088

1SmPitch
  mean            192.5256   179.977  155.5873  181.0673  177.1758  131.2192  103.3268  210.7062  176.3514  153.6272   17.6206  145.6827  182.8643
  std. dev.       122.8826  103.1028  104.7161   88.3662  100.5075   96.9443  108.4388   94.3453   95.6501  117.9631   56.4298  104.7204  131.0566
  weight sum          1505       299       746       138       138       385       181       109       910       712      3233       551       218
  precision         0.2051    0.2051    0.2051    0.2051    0.2051    0.2051    0.2051    0.2051    0.2051    0.2051    0.2051    0.2051    0.2051

1Melogram(st)
  mean             46.3494   47.4023   43.0353    50.224   48.8131   38.5277    30.362   52.4378   48.0085     40.72     5.628   40.2994    41.677
  std. dev.        22.3412   19.9946   22.8173   15.3337    17.183   23.9713   26.9111   15.0716    18.447   24.6779    16.586   23.8057    26.535
  weight sum          1505       299       746       138       138       385       181       109       910       712      3233       551       218
  precision         0.0353    0.0353    0.0353    0.0353    0.0353    0.0353    0.0353    0.0353    0.0353    0.0353    0.0353    0.0353    0.0353

1ZCross
  mean              5.7987    3.5458    3.7875    3.3939    4.3439    3.3025    1.6735    5.2894    3.7958    3.2283    0.3547    2.9427    3.5496
  std. dev.         5.2067    3.2035    3.6027    2.4483    3.5198    4.4292    2.6371    3.1468    3.0761    3.6497    1.5381    3.2732    3.8879
  weight sum          1505       299       746       138       138       385       181       109       910       712      3233       551       218
  precision         1.2727    1.2727    1.2727    1.2727    1.2727    1.2727    1.2727    1.2727    1.2727    1.2727    1.2727    1.2727    1.2727

1F1(Hz)
  mean            548.2115  434.0106  393.9778  488.8531   516.388  337.2878   338.074   530.479  512.2346   387.934   69.4789  452.4828  424.8479
  std. dev.       340.6042  222.5728  237.3761  188.7732  185.7463  247.3025  264.4715  153.6654  212.7884  267.0661  193.2584  259.6331  365.8257
  weight sum          1505       299       746       138       138       385       181       109       910       712      3233       551       218
  precision         0.5127    0.5127    0.5127    0.5127    0.5127    0.5127    0.5127    0.5127    0.5127    0.5127    0.5127    0.5127    0.5127

1F2(Hz)
  mean           1291.1129 1481.8017 1373.2113 1374.5813 1567.5638 1314.2846 1106.6816 1801.7889 1504.2308 1075.1192  205.7068 1395.5576  955.3932
  std. dev.       669.3906  698.0192  794.2677  507.4621  551.4753  896.4634  875.1936   410.288  566.3969  722.9702   567.627  729.8999  693.4125
  weight sum          1505       299       746       138       138       385       181       109       910       712      3233       551       218
  precision         0.6985    0.6985    0.6985    0.6985    0.6985    0.6985    0.6985    0.6985    0.6985    0.6985    0.6985    0.6985    0.6985

1F3(Hz)
  mean           2332.9922 2459.9895 2174.5401   2628.57 2627.5782 2014.1352 1840.8729 2891.0087  2611.761 2131.1022  351.5345 2362.4144 2126.7769
  std. dev.      1159.2763 1073.6058 1212.1208  876.1679  842.6607 1344.3758 1391.9567  666.0545  903.6125 1290.7244  944.5845 1190.2358 1291.5323
  weight sum          1505       299       746       138       138       385       181       109       910       712      3233       551       218
  precision         1.0065    1.0065    1.0065    1.0065    1.0065    1.0065    1.0065    1.0065    1.0065    1.0065    1.0065    1.0065    1.0065

1F4(Hz)
  mean           2700.5548 2871.1033 2634.0278 3050.5218 3085.9541 2430.7791 2169.5853 3147.4217 3002.7587 2461.9478  424.4618 2710.8346 2454.4832
  std. dev.      1332.9429 1226.0673 1448.9271  980.6928   967.976 1598.0911 1642.8246  687.8361 1011.4409 1484.5906 1137.6364 1355.2259  1445.419
  weight sum          1505       299       746       138       138       385       181       109       910       712      3233       551       218
  precision         1.0301    1.0301    1.0301    1.0301    1.0301    1.0301    1.0301    1.0301    1.0301    1.0301    1.0301    1.0301    1.0301

2Int(dB)
  mean             -7.2233  -10.9675   -9.6448   -7.7642  -10.0976  -12.8075  -27.4623   -7.1771  -10.2454  -11.6424  -49.2213  -16.2603  -10.4698
  std. dev.        12.4964   11.7268   11.2836    7.1778   11.5475   10.4841   15.6779    7.6755   11.0114   13.0523   15.8212   10.9593   12.0458
  weight sum          1505       299       746       138       138       385       181       109       910       712      3233       551       218
  precision         0.1008    0.1008    0.1008    0.1008    0.1008    0.1008    0.1008    0.1008    0.1008    0.1008    0.1008    0.1008    0.1008

2Pitch(Hz)
  mean            201.6038  181.5295  168.4113  193.3442  174.9356  145.3172   82.5133   215.269  175.5305  164.5924   15.8317  129.1345   199.501
  std. dev.       116.7827  103.9694   97.9387   84.8869   105.317    93.238  103.2317   95.8046   94.7833  113.2428     54.56  106.9308   120.686
  weight sum          1505       299       746       138       138       385       181       109       910       712      3233       551       218
  precision         0.2034    0.2034    0.2034    0.2034    0.2034    0.2034    0.2034    0.2034    0.2034    0.2034    0.2034    0.2034    0.2034

2RawPitch
  mean            192.0371  174.3366  160.8464  183.2789  150.5271  134.7046   73.8818  200.4822  163.0567  155.7527   12.9523  113.3806  187.6775
  std. dev.       119.1688  107.6802  102.2888   94.8983  108.0909   92.9403  104.6935  103.8441  101.0671  117.0548   48.8078  109.6822   120.986
  weight sum          1505       299       746       138       138       385       181       109       910       712      3233       551       218
  precision         0.2088    0.2088    0.2088    0.2088    0.2088    0.2088    0.2088    0.2088    0.2088    0.2088    0.2088    0.2088    0.2088

2SmPitch
  mean            199.8945  180.2617  165.6273  191.6804  164.0951  143.4528   75.6617  207.7478  171.3549  162.0426   14.3648   124.843  195.9784
  std. dev.       117.6128  105.3606  100.1622   87.4261  102.8422   93.1972  102.6966  102.2663     97.62  114.4287   51.0357  108.1255  122.4742
  weight sum          1505       299       746       138       138       385       181       109       910       712      3233       551       218
  precision         0.2051    0.2051    0.2051    0.2051    0.2051    0.2051    0.2051    0.2051    0.2051    0.2051    0.2051    0.2051    0.2051

2Melogram(st)
  mean             48.2092   47.4768   45.4706   51.5728   47.4754   41.3427   23.4032   50.0233   46.9569   43.3948    4.6675   35.5033   44.4291
  std. dev.        20.5746   19.8068   20.8835   13.5777   18.4939   22.4649    26.938    18.717   19.4897   23.1016   15.2484   25.9216    24.856
  weight sum          1505       299       746       138       138       385       181       109       910       712      3233       551       218
  precision         0.0353    0.0353    0.0353    0.0353    0.0353    0.0353    0.0353    0.0353    0.0353    0.0353    0.0353    0.0353    0.0353

2ZCross
  mean               6.115    3.0435    4.2003    3.6061    3.7167    3.1471    1.1251    5.1026    3.5399    3.4785    0.2555    2.9427    3.4504
  std. dev.         5.0271    2.9836    3.4667    2.2704    3.2864    4.1866    2.3299    3.3318    2.9592    3.6204    1.3164    4.1768    3.5108
  weight sum          1505       299       746       138       138       385       181       109       910       712      3233       551       218
  precision         1.2727    1.2727    1.2727    1.2727    1.2727    1.2727    1.2727    1.2727    1.2727    1.2727    1.2727    1.2727    1.2727

2F1(Hz)
  mean            581.7148  443.7803  408.4223  506.5249  522.7777  325.1292  258.5242  550.4444  498.6305  411.5688   58.3154  418.1886   424.862
  std. dev.       326.0741  220.7378  216.3841   153.482  201.8334  214.6223  266.5524  172.4149  216.0985  260.2244  178.1822  278.6723  361.7064
  weight sum          1505       299       746       138       138       385       181       109       910       712      3233       551       218
  precision         0.5127    0.5127    0.5127    0.5127    0.5127    0.5127    0.5127    0.5127    0.5127    0.5127    0.5127    0.5127    0.5127

2F2(Hz)
  mean           1332.7377 1499.8925 1477.3725 1468.4886 1525.1731 1473.7397  877.1925 1811.5999 1486.9795 1085.7909  173.8413 1294.0638  924.4511
  std. dev.       619.6166  665.9892  754.7082   378.177  570.7008  898.7946  909.5676  424.2808   586.206  674.5578  526.5742  801.3453  644.9976
  weight sum          1505       299       746       138       138       385       181       109       910       712      3233       551       218
  precision         0.6985    0.6985    0.6985    0.6985    0.6985    0.6985    0.6985    0.6985    0.6985    0.6985    0.6985    0.6985    0.6985

2F3(Hz)
  mean           2424.4511 2515.1665 2285.1335  2812.592 2573.9367 2142.5805 1448.7813 2891.4888  2575.263 2224.7554  296.3217 2182.5081 2177.1877
  std. dev.      1080.1353 1019.8055 1133.2536   582.935  901.2684 1286.7452 1447.7398  676.1863  945.6497 1238.7361  875.1932 1314.6943 1282.0773
  weight sum          1505       299       746       138       138       385       181       109       910       712      3233       551       218
  precision         1.0065    1.0065    1.0065    1.0065    1.0065    1.0065    1.0065    1.0065    1.0065    1.0065    1.0065    1.0065    1.0065

2F4(Hz)
  mean           2808.6736 2942.8455 2766.3747 3255.1145 3029.4131 2588.6317 1716.1336 3147.3839 2959.0244 2567.4184  360.3981 2502.3486 2475.9112
  std. dev.      1242.9542 1160.3327 1350.6568  630.9667 1028.6692 1525.8539 1718.8041  698.3907 1060.7642 1421.7151 1061.7969 1499.5845 1409.4738
  weight sum          1505       299       746       138       138       385       181       109       910       712      3233       551       218
  precision         1.0301    1.0301    1.0301    1.0301    1.0301    1.0301    1.0301    1.0301    1.0301    1.0301    1.0301    1.0301    1.0301

3Int(dB)
  mean              -5.641   -12.305   -7.2226   -7.9351  -12.3449  -10.9862  -28.7486   -9.1161  -11.7615   -9.7163  -50.1395  -18.5798   -8.0296
  std. dev.        10.8727   11.5328    9.4909    6.9104   10.3558    9.3463   12.6169    7.7729   11.2693   12.1824   14.5069    9.0258    9.9998
  weight sum          1505       299       746       138       138       385       181       109       910       712      3233       551       218
  precision         0.1008    0.1008    0.1008    0.1008    0.1008    0.1008    0.1008    0.1008    0.1008    0.1008    0.1008    0.1008    0.1008

3Pitch(Hz)
  mean            211.1547  174.4724   183.146  192.6531  161.6772  163.4233   56.7335  210.1234  165.2806  177.1418    12.238  100.5273  221.0527
  std. dev.       109.0219  105.6613   90.4096    88.609  107.4647   84.1925    92.985  103.3667   99.1761  106.6856   48.3823  107.4323   98.5341
  weight sum          1505       299       746       138       138       385       181       109       910       712      3233       551       218
  precision         0.2034    0.2034    0.2034    0.2034    0.2034    0.2034    0.2034    0.2034    0.2034    0.2034    0.2034    0.2034    0.2034

3RawPitch
  mean            200.9312  163.2284  176.8718  186.1671  134.4189  153.6209   48.3156  186.2007  153.2796  168.1349   10.0589   82.9122  210.2912
  std. dev.       113.0094  110.9161   96.4397   96.0987  106.6169   86.0466   91.5248  109.9068  104.4253   111.735   42.5778  104.8341  103.8231
  weight sum          1505       299       746       138       138       385       181       109       910       712      3233       551       218
  precision         0.2088    0.2088    0.2088    0.2088    0.2088    0.2088    0.2088    0.2088    0.2088    0.2088    0.2088    0.2088    0.2088

3SmPitch
  mean            209.2749  171.9345  181.1568  191.2271   150.738  161.2553   53.6257  196.1026  161.3762  174.8902      10.7   95.1754  219.9482
  std. dev.       110.3154  107.9136   92.1927   90.5485  103.6325   84.9278   91.9518  116.7296  101.5417  108.2193   43.9127  106.8153    99.473
  weight sum          1505       299       746       138       138       385       181       109       910       712      3233       551       218
  precision         0.2051    0.2051    0.2051    0.2051    0.2051    0.2051    0.2051    0.2051    0.2051    0.2051    0.2051    0.2051    0.2051

3Melogram(st)
  mean             50.6224   45.7201   49.1776   51.4088   45.2162   45.9084   17.6956   44.9302   44.5707   46.5218    3.7068   28.2267   50.6374
  std. dev.        17.7748    21.266   17.1261   13.7531   20.2304   18.9795   25.7255   23.4066   21.4543   20.6378    13.744   27.1257    19.473
  weight sum          1505       299       746       138       138       385       181       109       910       712      3233       551       218
  precision         0.0353    0.0353    0.0353    0.0353    0.0353    0.0353    0.0353    0.0353    0.0353    0.0353    0.0353    0.0353    0.0353

3ZCross
  mean              6.4973    2.4688    4.6951    3.5415    2.7115    3.0678    0.7805    4.6239    2.9119    3.8039    0.1472    3.3285    3.4387
  std. dev.         4.7305    2.5057    3.4013    2.2242    2.5858     3.289    1.9729    3.3012    2.5955    3.4966    0.8717    5.6883    3.0618
  weight sum          1505       299       746       138       138       385       181       109       910       712      3233       551       218
  precision         1.2727    1.2727    1.2727    1.2727    1.2727    1.2727    1.2727    1.2727    1.2727    1.2727    1.2727    1.2727    1.2727

3F1(Hz)
  mean            632.5964  423.0991  435.3843  494.4923  487.8092  340.7633  180.4755  545.9528  465.8644  450.1528   45.7977  343.9397  462.9492
  std. dev.       296.8673  227.7907  182.9634  163.5032    232.81  174.3406  253.1663  207.7542  226.3615  244.2194  157.8643  296.8921  332.7223
  weight sum          1505       299       746       138       138       385       181       109       910       712      3233       551       218
  precision         0.5127    0.5127    0.5127    0.5127    0.5127    0.5127    0.5127    0.5127    0.5127    0.5127    0.5127    0.5127    0.5127

3F2(Hz)
  mean           1400.8405 1449.4723 1633.7862 1449.0269 1414.8511 1740.6907  608.7768 1763.2818 1434.7296 1123.9385  138.8639 1079.6747  1000.033
  std. dev.       532.4998  686.1573  662.2232  382.0215  640.3559  805.0767  860.5114  523.8526  636.7728  603.6465  474.1163  883.7643   546.594
  weight sum          1505       299       746       138       138       385       181       109       910       712      3233       551       218
  precision         0.6985    0.6985    0.6985    0.6985    0.6985    0.6985    0.6985    0.6985    0.6985    0.6985    0.6985    0.6985    0.6985

3F3(Hz)
  mean           2566.7052 2437.2044 2466.1143 2791.3469 2406.0546 2427.5868 1006.1386 2807.0384 2469.2129 2381.9061  236.9897 1809.7759  2460.271
  std. dev.       934.1062 1070.9844  983.2863   620.118 1054.0979 1119.2236 1375.3267  825.3591 1046.1641 1133.1835  790.4255 1453.8806 1089.2339
  weight sum          1505       299       746       138       138       385       181       109       910       712      3233       551       218
  precision         1.0065    1.0065    1.0065    1.0065    1.0065    1.0065    1.0065    1.0065    1.0065    1.0065    1.0065    1.0065    1.0065

3F4(Hz)
  mean           2970.9678  2883.526  2968.206 3255.5773 2858.1926 2906.6724 1195.7113 3067.0397 2846.2368 2739.0875  290.2613 2081.6844  2778.374
  std. dev.      1072.0689 1232.2639 1156.9806  686.1677 1217.3342 1305.1093 1640.9175  874.5893 1183.2487 1292.2218  965.8901 1667.9196 1167.5154
  weight sum          1505       299       746       138       138       385       181       109       910       712      3233       551       218
  precision         1.0301    1.0301    1.0301    1.0301    1.0301    1.0301    1.0301    1.0301    1.0301    1.0301    1.0301    1.0301    1.0301

4Int(dB)
  mean             -4.7838  -12.4527   -5.6493   -8.6538  -13.9655   -9.5022  -24.7612  -10.6843  -12.8772   -8.6644  -50.8619  -20.5637   -5.9413
  std. dev.          9.917   10.4872    8.2505    7.2422    8.9902    8.6317    9.9219    7.8142   10.5331   12.1183   13.3712    7.2016    8.0011
  weight sum          1505       299       746       138       138       385       181       109       910       712      3233       551       218
  precision         0.1008    0.1008    0.1008    0.1008    0.1008    0.1008    0.1008    0.1008    0.1008    0.1008    0.1008    0.1008    0.1008

4Pitch(Hz)
  mean            215.4717  173.7208  192.4898  190.1568  152.2312  174.3019   79.8505  200.7202  164.8495  180.2959    8.6441   79.8818  232.3523
  std. dev.       105.3209  104.0157    85.636   91.3345   105.769   75.0715  106.1975  109.5024   97.9698  103.4062   41.2323  103.1552   82.3117
  weight sum          1505       299       746       138       138       385       181       109       910       712      3233       551       218
  precision         0.2034    0.2034    0.2034    0.2034    0.2034    0.2034    0.2034    0.2034    0.2034    0.2034    0.2034    0.2034    0.2034

4RawPitch
  mean            205.1279  156.9007  188.8553  185.4439  123.0765  166.4766   59.9198  174.6103  152.8875  174.0908    6.9113   58.2601  222.5693
  std. dev.       110.0217  112.4322   89.4789   97.5665  101.8456   78.7839   100.207  114.6744  103.0187  108.0935   35.5147   93.3335   89.8429
  weight sum          1505       299       746       138       138       385       181       109       910       712      3233       551       218
  precision         0.2088    0.2088    0.2088    0.2088    0.2088    0.2088    0.2088    0.2088    0.2088    0.2088    0.2088    0.2088    0.2088

4SmPitch
  mean            213.4208  169.8194  191.6241  189.6336  141.6009  171.8543   66.4445  185.8292  161.3764   178.962    7.4208   73.5048  232.3227
  std. dev.       106.8674  107.6346   86.4181   92.3532  100.3995   76.5988  103.0618  122.7866  100.3057  104.3249   36.4842   100.704   82.2366
  weight sum          1505       299       746       138       138       385       181       109       910       712      3233       551       218
  precision         0.2051    0.2051    0.2051    0.2051    0.2051    0.2051    0.2051    0.2051    0.2051    0.2051    0.2051    0.2051    0.2051

4Melogram(st)
  mean             52.0827   45.7719   51.3162   50.8347   42.7509   49.4307   20.7305   42.0778   44.1426   47.7311    2.7489   22.3048   54.9086
  std. dev.        15.5643   21.2519   13.9659   14.5044   21.9334   14.5646    27.307   25.4087   21.7623   19.2227   12.0084   26.7953   12.8002
  weight sum          1505       299       746       138       138       385       181       109       910       712      3233       551       218
  precision         0.0352    0.0352    0.0352    0.0352    0.0352    0.0352    0.0352    0.0352    0.0352    0.0352    0.0352    0.0352    0.0352

4ZCross
  mean              6.7146    2.2092    4.8248    3.4862    2.0843    3.1868    1.7087    4.2269    2.3063    3.9665    0.0854    3.6611     3.573
  std. dev.          4.535     2.095    3.1533    2.2377    2.0439    2.9527    3.3908    3.1596    2.0088    3.0096    0.6293    6.6276    2.8222
  weight sum          1505       299       746       138       138       385       181       109       910       712      3233       551       218
  precision         1.2727    1.2727    1.2727    1.2727    1.2727    1.2727    1.2727    1.2727    1.2727    1.2727    1.2727    1.2727    1.2727

4F1(Hz)
  mean            680.6071  402.1692  468.1216  495.2687  433.0067  362.9833  162.4503  519.3228  430.2971  487.9887   33.6626  256.1635  498.1345
  std. dev.       260.5161  226.7452  135.4424  176.0915  254.6457  139.6622  248.8959  242.1586  227.3074  219.6408  135.0393  292.2384  299.1257
  weight sum          1505       299       746       138       138       385       181       109       910       712      3233       551       218
  precision         0.5127    0.5127    0.5127    0.5127    0.5127    0.5127    0.5127    0.5127    0.5127    0.5127    0.5127    0.5127    0.5127

4F2(Hz)
  mean           1463.4676 1402.7174 1802.3085 1423.4659 1302.5905 1971.4305   523.537  1645.159 1381.1848 1165.7924  104.6838  833.4641 1080.7158
  std. dev.       432.0523  694.7863  487.8366   407.382  701.6256  644.7659  808.1478  658.8397  667.5419  525.3227  416.0122  908.4179  431.8771
  weight sum          1505       299       746       138       138       385       181       109       910       712      3233       551       218
  precision         0.6985    0.6985    0.6985    0.6985    0.6985    0.6985    0.6985    0.6985    0.6985    0.6985    0.6985    0.6985    0.6985

4F3(Hz)
  mean           2691.8093 2362.4099 2662.4498 2756.8647 2220.2677 2672.9489  906.3265 2640.4553 2381.1686 2534.4259  178.5819 1382.6766 2714.6841
  std. dev.       762.9907 1105.7815   729.876   698.638 1179.8092  890.7818 1352.6864  1037.927 1119.0959  989.9708  694.2706 1487.3833  768.9985
  weight sum          1505       299       746       138       138       385       181       109       910       712      3233       551       218
  precision         1.0065    1.0065    1.0065    1.0065    1.0065    1.0065    1.0065    1.0065    1.0065    1.0065    1.0065    1.0065    1.0065

4F4(Hz)
  mean            3114.979 2816.8308 3199.5596 3224.9891 2671.4019 3176.0491 1051.9703 2895.8616 2744.1595 2913.9175  220.0468 1596.2033  3074.217
  std. dev.       871.0219 1281.9538  841.1377  787.9869 1380.3083 1017.7226 1576.1376 1120.2728  1271.138 1121.3472  853.3303 1714.5262  772.1011
  weight sum          1505       299       746       138       138       385       181       109       910       712      3233       551       218
  precision         1.0301    1.0301    1.0301    1.0301    1.0301    1.0301    1.0301    1.0301    1.0301    1.0301    1.0301    1.0301    1.0301





=== Stratified cross-validation ===

Correctly Classified Instances        3775               41.3699 %
Incorrectly Classified Instances      5350               58.6301 %
Kappa statistic                          0.311 
K&B Relative Info Score             251965.2561 %
K&B Information Score                 7494.582  bits      0.8213 bits/instance
Class complexity | order 0           27122.0401 bits      2.9723 bits/instance
Class complexity | scheme           207878.8368 bits     22.7812 bits/instance
Complexity improvement     (Sf)    -180756.7967 bits    -19.809  bits/instance
Mean absolute error                      0.0901
Root mean squared error                  0.2831
Relative absolute error                 71.7332 %
Root relative squared error            112.9683 %
Coverage of cases (0.95 level)          47.2    %
Mean rel. region size (0.95 level)      11.436  %
Total Number of Instances             9125     


=== Detailed Accuracy By Class ===

                 TP Rate  FP Rate  Precision  Recall   F-Measure  MCC      ROC Area  PRC Area  Class
                 0,253    0,027    0,648      0,253    0,364      0,342    0,826     0,512     a
                 0,000    0,000    0,000      0,000    0,000      -0,003   0,722     0,064     b
                 0,059    0,013    0,284      0,059    0,098      0,097    0,781     0,204     e
                 0,601    0,213    0,042      0,601    0,078      0,115    0,804     0,055     d
                 0,000    0,004    0,000      0,000    0,000      -0,008   0,743     0,032     f
                 0,221    0,033    0,227      0,221    0,224      0,190    0,816     0,196     i
                 0,337    0,063    0,098      0,337    0,152      0,152    0,784     0,094     k
                 0,532    0,140    0,044      0,532    0,081      0,121    0,822     0,053     j
                 0,043    0,026    0,157      0,043    0,067      0,032    0,739     0,180     l
                 0,015    0,007    0,151      0,015    0,028      0,024    0,719     0,150     o
                 0,884    0,050    0,906      0,884    0,895      0,839    0,952     0,908     0
                 0,241    0,031    0,332      0,241    0,279      0,244    0,786     0,287     s
                 0,096    0,014    0,146      0,096    0,116      0,101    0,827     0,105     u
Weighted Avg.    0,414    0,036    0,515      0,414    0,428      0,398    0,841     0,486     


=== Confusion Matrix ===

    a    b    c    d    e    f    g    h    i    j    k    l    m   <-- classified as
  381    0   42  393    4   61   92  340   33   38   36   34   51 |    a = a
   13    0    4   99    2   21   25   79   17    1   14   16    8 |    b = b
   23    0   44  274    0   74   48  205   15   12   18   17   16 |    c = e
    5    0    5   83    0    4    6   24    5    0    2    1    3 |    d = d
    4    0    1   57    0    1   13   36    9    0    5   12    0 |    e = f
   11    1   23  108    1   85   39   77   18    3    8   11    0 |    f = i
    0    0    0   12    5    2   61   26    7    0   44   23    1 |    g = k
   12    0    1   20    1    1    3   58    5    0    1    5    2 |    h = j
   40    0   13  400    8   30   77  198   39    0   35   61    9 |    i = l
   56    0   16  317    1   55   49   73   26   11   60   20   28 |    j = o
    5    1    3   74    6    7  113   64   35    0 2859   64    2 |    k = 0
   12    0    2   90   11    7   79  116   27    2   69  133    3 |    l = s
   26    0    1   71    0   26   18   28   13    6    4    4   21 |    m = u

=== Percent Confusion Matrix ===
a	b	c	d	e	f	g	h	i	j	k	l	m	
25.32	0.0	2.79	26.11	0.27	4.05	6.11	22.59	2.19	2.52	2.39	2.26	3.39	 a = a
4.35	0.0	1.34	33.11	0.67	7.02	8.36	26.42	5.69	0.33	4.68	5.35	2.68	 b = b
3.08	0.0	5.9	36.73	0.0	9.92	6.43	27.48	2.01	1.61	2.41	2.28	2.14	 c = e
3.62	0.0	3.62	60.14	0.0	2.9	4.35	17.39	3.62	0.0	1.45	0.72	2.17	 d = d
2.9	0.0	0.72	41.3	0.0	0.72	9.42	26.09	6.52	0.0	3.62	8.7	0.0	 e = f
2.86	0.26	5.97	28.05	0.26	22.08	10.13	20.0	4.68	0.78	2.08	2.86	0.0	 f = i
0.0	0.0	0.0	6.63	2.76	1.1	33.7	14.36	3.87	0.0	24.31	12.71	0.55	 g = k
11.01	0.0	0.92	18.35	0.92	0.92	2.75	53.21	4.59	0.0	0.92	4.59	1.83	 h = j
4.4	0.0	1.43	43.96	0.88	3.3	8.46	21.76	4.29	0.0	3.85	6.7	0.99	 i = l
7.87	0.0	2.25	44.52	0.14	7.72	6.88	10.25	3.65	1.54	8.43	2.81	3.93	 j = o
0.15	0.03	0.09	2.29	0.19	0.22	3.5	1.98	1.08	0.0	88.43	1.98	0.06	 k = 0
2.18	0.0	0.36	16.33	2.0	1.27	14.34	21.05	4.9	0.36	12.52	24.14	0.54	 l = s
11.93	0.0	0.46	32.57	0.0	11.93	8.26	12.84	5.96	2.75	1.83	1.83	9.63	 m = u
