Timestamp:2014-12-07-10:52:25
Inventario:I1
Intervalo:20ms
Ngramas:4
Clasificador:NaiveBayes
Relation Name:  I1-20ms-4gramas
Num Instances:  9126
Num Attributes: 41

     Name                      Type  Nom  Int Real     Missing      Unique  Dist
   1 0Int(dB)                   Num   0%  11%  89%     0 /  0%    14 /  0%   764 
   2 0Pitch(Hz)                 Num   0%  49%  51%     0 /  0%  1033 / 11%  2440 
   3 0RawPitch                  Num   0%  52%  48%     0 /  0%  1062 / 12%  2369 
   4 0SmPitch                   Num   0%  50%  50%     0 /  0%  1056 / 12%  2419 
   5 0Melogram(st)              Num   0%  45%  55%     0 /  0%   937 / 10%  2341 
   6 0ZCross                    Num   0% 100%   0%     0 /  0%     7 /  0%    34 
   7 0F1(Hz)                    Num   0%  49%  51%     0 /  0%  2180 / 24%  3398 
   8 0F2(Hz)                    Num   0%  49%  51%     0 /  0%  3463 / 38%  4259 
   9 0F3(Hz)                    Num   0%  49%  51%     0 /  0%  3209 / 35%  4087 
  10 0F4(Hz)                    Num   0%  49%  51%     0 /  0%  3134 / 34%  4027 
  11 1Int(dB)                   Num   0%  11%  89%     0 /  0%    14 /  0%   764 
  12 1Pitch(Hz)                 Num   0%  49%  51%     0 /  0%  1033 / 11%  2440 
  13 1RawPitch                  Num   0%  52%  48%     0 /  0%  1062 / 12%  2369 
  14 1SmPitch                   Num   0%  50%  50%     0 /  0%  1056 / 12%  2419 
  15 1Melogram(st)              Num   0%  45%  55%     0 /  0%   937 / 10%  2341 
  16 1ZCross                    Num   0% 100%   0%     0 /  0%     7 /  0%    34 
  17 1F1(Hz)                    Num   0%  49%  51%     0 /  0%  2180 / 24%  3398 
  18 1F2(Hz)                    Num   0%  49%  51%     0 /  0%  3463 / 38%  4259 
  19 1F3(Hz)                    Num   0%  49%  51%     0 /  0%  3209 / 35%  4087 
  20 1F4(Hz)                    Num   0%  49%  51%     0 /  0%  3134 / 34%  4027 
  21 2Int(dB)                   Num   0%  11%  89%     0 /  0%    14 /  0%   764 
  22 2Pitch(Hz)                 Num   0%  49%  51%     0 /  0%  1033 / 11%  2440 
  23 2RawPitch                  Num   0%  52%  48%     0 /  0%  1062 / 12%  2369 
  24 2SmPitch                   Num   0%  50%  50%     0 /  0%  1056 / 12%  2419 
  25 2Melogram(st)              Num   0%  45%  55%     0 /  0%   937 / 10%  2341 
  26 2ZCross                    Num   0% 100%   0%     0 /  0%     7 /  0%    34 
  27 2F1(Hz)                    Num   0%  49%  51%     0 /  0%  2180 / 24%  3398 
  28 2F2(Hz)                    Num   0%  49%  51%     0 /  0%  3463 / 38%  4259 
  29 2F3(Hz)                    Num   0%  49%  51%     0 /  0%  3209 / 35%  4087 
  30 2F4(Hz)                    Num   0%  49%  51%     0 /  0%  3134 / 34%  4027 
  31 3Int(dB)                   Num   0%  11%  89%     0 /  0%    14 /  0%   764 
  32 3Pitch(Hz)                 Num   0%  49%  51%     0 /  0%  1033 / 11%  2440 
  33 3RawPitch                  Num   0%  52%  48%     0 /  0%  1062 / 12%  2369 
  34 3SmPitch                   Num   0%  50%  50%     0 /  0%  1056 / 12%  2419 
  35 3Melogram(st)              Num   0%  45%  55%     0 /  0%   938 / 10%  2342 
  36 3ZCross                    Num   0% 100%   0%     0 /  0%     7 /  0%    34 
  37 3F1(Hz)                    Num   0%  49%  51%     0 /  0%  2180 / 24%  3398 
  38 3F2(Hz)                    Num   0%  49%  51%     0 /  0%  3463 / 38%  4259 
  39 3F3(Hz)                    Num   0%  49%  51%     0 /  0%  3209 / 35%  4087 
  40 3F4(Hz)                    Num   0%  49%  51%     0 /  0%  3134 / 34%  4027 
  41 class                      Nom 100%   0%   0%     0 /  0%     0 /  0%    13 


Naive Bayes Classifier

                    Class
Attribute               a         b         e         d         f         i         k         j         l         o         0         s         u
                   (0.16)    (0.03)    (0.08)    (0.02)    (0.02)    (0.04)    (0.02)    (0.01)     (0.1)    (0.08)    (0.35)    (0.06)    (0.02)
==================================================================================================================================================
0Int(dB)
  mean             -8.6039  -10.1929  -11.7218   -9.0825   -8.8371  -14.1716  -23.8825   -5.7624   -9.5749  -13.1727  -48.3445  -14.1798  -12.1512
  std. dev.        13.8877   12.1121   12.7888    8.1938   12.1009   11.3435   17.6251    7.3432   10.4094   13.9303   16.8499    12.329   13.5815
  weight sum          1505       299       746       138       138       385       181       109       910       712      3234       551       218
  precision         0.1008    0.1008    0.1008    0.1008    0.1008    0.1008    0.1008    0.1008    0.1008    0.1008    0.1008    0.1008    0.1008

0Pitch(Hz)
  mean            194.5491  179.4782  160.6546  182.2168  181.9044  134.2538  109.9043  213.3268     179.8  156.7441   19.4311  147.5552  185.7432
  std. dev.        122.101  103.6256  102.2528   86.9581  100.9774   96.8851  106.9809   91.8195   93.2702  116.9519    59.894  103.3125  130.6923
  weight sum          1505       299       746       138       138       385       181       109       910       712      3234       551       218
  precision         0.2034    0.2034    0.2034    0.2034    0.2034    0.2034    0.2034    0.2034    0.2034    0.2034    0.2034    0.2034    0.2034

0RawPitch
  mean             184.365  175.1905  148.5522  168.9379  170.1709  121.7318  100.7168  205.7057  166.9213  148.9971   16.1107  137.7761  173.5625
  std. dev.       124.2233  105.5177  106.1316   95.6179  103.5921   96.3139  111.8666   95.9295    99.585  120.0464   54.3875  107.5458  129.6098
  weight sum          1505       299       746       138       138       385       181       109       910       712      3234       551       218
  precision         0.2088    0.2088    0.2088    0.2088    0.2088    0.2088    0.2088    0.2088    0.2088    0.2088    0.2088    0.2088    0.2088

0SmPitch
  mean            192.5256   179.977  155.5873  181.0673  177.1758  131.2192  103.3268  210.7062  176.3514  153.6272   17.6151  145.6827  182.8643
  std. dev.       122.8826  103.1028  104.7161   88.3662  100.5075   96.9443  108.4388   94.3453   95.6501  117.9631   56.4219  104.7204  131.0566
  weight sum          1505       299       746       138       138       385       181       109       910       712      3234       551       218
  precision         0.2051    0.2051    0.2051    0.2051    0.2051    0.2051    0.2051    0.2051    0.2051    0.2051    0.2051    0.2051    0.2051

0Melogram(st)
  mean             46.3494   47.4023   43.0353    50.224   48.8131   38.5277    30.362   52.4378   48.0085     40.72    5.6263   40.2994    41.677
  std. dev.        22.3412   19.9946   22.8173   15.3337    17.183   23.9713   26.9111   15.0716    18.447   24.6779   16.5837   23.8057    26.535
  weight sum          1505       299       746       138       138       385       181       109       910       712      3234       551       218
  precision         0.0353    0.0353    0.0353    0.0353    0.0353    0.0353    0.0353    0.0353    0.0353    0.0353    0.0353    0.0353    0.0353

0ZCross
  mean              5.7987    3.5458    3.7875    3.3939    4.3439    3.3025    1.6735    5.2894    3.7958    3.2283    0.3546    2.9427    3.5496
  std. dev.         5.2067    3.2035    3.6027    2.4483    3.5198    4.4292    2.6371    3.1468    3.0761    3.6497    1.5379    3.2732    3.8879
  weight sum          1505       299       746       138       138       385       181       109       910       712      3234       551       218
  precision         1.2727    1.2727    1.2727    1.2727    1.2727    1.2727    1.2727    1.2727    1.2727    1.2727    1.2727    1.2727    1.2727

0F1(Hz)
  mean            548.2115  434.0106  393.9778  488.8531   516.388  337.2878   338.074   530.479  512.2346   387.934   69.4574  452.4828  424.8479
  std. dev.       340.6042  222.5728  237.3761  188.7732  185.7463  247.3025  264.4715  153.6654  212.7884  267.0661  193.2324  259.6331  365.8257
  weight sum          1505       299       746       138       138       385       181       109       910       712      3234       551       218
  precision         0.5127    0.5127    0.5127    0.5127    0.5127    0.5127    0.5127    0.5127    0.5127    0.5127    0.5127    0.5127    0.5127

0F2(Hz)
  mean           1291.1129 1481.8017 1373.2113 1374.5813 1567.5638 1314.2846 1106.6816 1801.7889 1504.2308 1075.1192  205.6432 1395.5576  955.3932
  std. dev.       669.3906  698.0192  794.2677  507.4621  551.4753  896.4634  875.1936   410.288  566.3969  722.9702  567.5507  729.8999  693.4125
  weight sum          1505       299       746       138       138       385       181       109       910       712      3234       551       218
  precision         0.6985    0.6985    0.6985    0.6985    0.6985    0.6985    0.6985    0.6985    0.6985    0.6985    0.6985    0.6985    0.6985

0F3(Hz)
  mean           2332.9922 2459.9895 2174.5401   2628.57 2627.5782 2014.1352 1840.8729 2891.0087  2611.761 2131.1022  351.4258 2362.4144 2126.7769
  std. dev.      1159.2763 1073.6058 1212.1208  876.1679  842.6607 1344.3758 1391.9567  666.0545  903.6125 1290.7244  944.4587 1190.2358 1291.5323
  weight sum          1505       299       746       138       138       385       181       109       910       712      3234       551       218
  precision         1.0065    1.0065    1.0065    1.0065    1.0065    1.0065    1.0065    1.0065    1.0065    1.0065    1.0065    1.0065    1.0065

0F4(Hz)
  mean           2700.5548 2871.1033 2634.0278 3050.5218 3085.9541 2430.7791 2169.5853 3147.4217 3002.7587 2461.9478  424.3306 2710.8346 2454.4832
  std. dev.      1332.9429 1226.0673 1448.9271  980.6928   967.976 1598.0911 1642.8246  687.8361 1011.4409 1484.5906  1137.485 1355.2259  1445.419
  weight sum          1505       299       746       138       138       385       181       109       910       712      3234       551       218
  precision         1.0301    1.0301    1.0301    1.0301    1.0301    1.0301    1.0301    1.0301    1.0301    1.0301    1.0301    1.0301    1.0301

1Int(dB)
  mean             -7.2233  -10.9675   -9.6448   -7.7642  -10.0976  -12.8075  -27.4623   -7.1771  -10.2454  -11.6424  -49.2205  -16.2603  -10.4698
  std. dev.        12.4964   11.7268   11.2836    7.1778   11.5475   10.4841   15.6779    7.6755   11.0114   13.0523   15.8188   10.9593   12.0458
  weight sum          1505       299       746       138       138       385       181       109       910       712      3234       551       218
  precision         0.1008    0.1008    0.1008    0.1008    0.1008    0.1008    0.1008    0.1008    0.1008    0.1008    0.1008    0.1008    0.1008

1Pitch(Hz)
  mean            201.6038  181.5295  168.4113  193.3442  174.9356  145.3172   82.5133   215.269  175.5305  164.5924   15.8268  129.1345   199.501
  std. dev.       116.7827  103.9694   97.9387   84.8869   105.317    93.238  103.2317   95.8046   94.7833  113.2428   54.5523  106.9308   120.686
  weight sum          1505       299       746       138       138       385       181       109       910       712      3234       551       218
  precision         0.2034    0.2034    0.2034    0.2034    0.2034    0.2034    0.2034    0.2034    0.2034    0.2034    0.2034    0.2034    0.2034

1RawPitch
  mean            192.0371  174.3366  160.8464  183.2789  150.5271  134.7046   73.8818  200.4822  163.0567  155.7527   12.9483  113.3806  187.6775
  std. dev.       119.1688  107.6802  102.2888   94.8983  108.0909   92.9403  104.6935  103.8441  101.0671  117.0548   48.8007  109.6822   120.986
  weight sum          1505       299       746       138       138       385       181       109       910       712      3234       551       218
  precision         0.2088    0.2088    0.2088    0.2088    0.2088    0.2088    0.2088    0.2088    0.2088    0.2088    0.2088    0.2088    0.2088

1SmPitch
  mean            199.8945  180.2617  165.6273  191.6804  164.0951  143.4528   75.6617  207.7478  171.3549  162.0426   14.3604   124.843  195.9784
  std. dev.       117.6128  105.3606  100.1622   87.4261  102.8422   93.1972  102.6966  102.2663     97.62  114.4287   51.0284  108.1255  122.4742
  weight sum          1505       299       746       138       138       385       181       109       910       712      3234       551       218
  precision         0.2051    0.2051    0.2051    0.2051    0.2051    0.2051    0.2051    0.2051    0.2051    0.2051    0.2051    0.2051    0.2051

1Melogram(st)
  mean             48.2092   47.4768   45.4706   51.5728   47.4754   41.3427   23.4032   50.0233   46.9569   43.3948    4.6661   35.5033   44.4291
  std. dev.        20.5746   19.8068   20.8835   13.5777   18.4939   22.4649    26.938    18.717   19.4897   23.1016   15.2463   25.9216    24.856
  weight sum          1505       299       746       138       138       385       181       109       910       712      3234       551       218
  precision         0.0353    0.0353    0.0353    0.0353    0.0353    0.0353    0.0353    0.0353    0.0353    0.0353    0.0353    0.0353    0.0353

1ZCross
  mean               6.115    3.0435    4.2003    3.6061    3.7167    3.1471    1.1251    5.1026    3.5399    3.4785    0.2554    2.9427    3.4504
  std. dev.         5.0271    2.9836    3.4667    2.2704    3.2864    4.1866    2.3299    3.3318    2.9592    3.6204    1.3162    4.1768    3.5108
  weight sum          1505       299       746       138       138       385       181       109       910       712      3234       551       218
  precision         1.2727    1.2727    1.2727    1.2727    1.2727    1.2727    1.2727    1.2727    1.2727    1.2727    1.2727    1.2727    1.2727

1F1(Hz)
  mean            581.7148  443.7803  408.4223  506.5249  522.7777  325.1292  258.5242  550.4444  498.6305  411.5688   58.2974  418.1886   424.862
  std. dev.       326.0741  220.7378  216.3841   153.482  201.8334  214.6223  266.5524  172.4149  216.0985  260.2244  178.1576  278.6723  361.7064
  weight sum          1505       299       746       138       138       385       181       109       910       712      3234       551       218
  precision         0.5127    0.5127    0.5127    0.5127    0.5127    0.5127    0.5127    0.5127    0.5127    0.5127    0.5127    0.5127    0.5127

1F2(Hz)
  mean           1332.7377 1499.8925 1477.3725 1468.4886 1525.1731 1473.7397  877.1925 1811.5999 1486.9795 1085.7909  173.7875 1294.0638  924.4511
  std. dev.       619.6166  665.9892  754.7082   378.177  570.7008  898.7946  909.5676  424.2808   586.206  674.5578  526.5016  801.3453  644.9976
  weight sum          1505       299       746       138       138       385       181       109       910       712      3234       551       218
  precision         0.6985    0.6985    0.6985    0.6985    0.6985    0.6985    0.6985    0.6985    0.6985    0.6985    0.6985    0.6985    0.6985

1F3(Hz)
  mean           2424.4511 2515.1665 2285.1335  2812.592 2573.9367 2142.5805 1448.7813 2891.4888  2575.263 2224.7554  296.2301 2182.5081 2177.1877
  std. dev.      1080.1353 1019.8055 1133.2536   582.935  901.2684 1286.7452 1447.7398  676.1863  945.6497 1238.7361  875.0734 1314.6943 1282.0773
  weight sum          1505       299       746       138       138       385       181       109       910       712      3234       551       218
  precision         1.0065    1.0065    1.0065    1.0065    1.0065    1.0065    1.0065    1.0065    1.0065    1.0065    1.0065    1.0065    1.0065

1F4(Hz)
  mean           2808.6736 2942.8455 2766.3747 3255.1145 3029.4131 2588.6317 1716.1336 3147.3839 2959.0244 2567.4184  360.2866 2502.3486 2475.9112
  std. dev.      1242.9542 1160.3327 1350.6568  630.9667 1028.6692 1525.8539 1718.8041  698.3907 1060.7642 1421.7151 1061.6517 1499.5845 1409.4738
  weight sum          1505       299       746       138       138       385       181       109       910       712      3234       551       218
  precision         1.0301    1.0301    1.0301    1.0301    1.0301    1.0301    1.0301    1.0301    1.0301    1.0301    1.0301    1.0301    1.0301

2Int(dB)
  mean              -5.641   -12.305   -7.2226   -7.9351  -12.3449  -10.9862  -28.7486   -9.1161  -11.7615   -9.7163  -50.1381  -18.5798   -8.0296
  std. dev.        10.8727   11.5328    9.4909    6.9104   10.3558    9.3463   12.6169    7.7729   11.2693   12.1824   14.5049    9.0258    9.9998
  weight sum          1505       299       746       138       138       385       181       109       910       712      3234       551       218
  precision         0.1008    0.1008    0.1008    0.1008    0.1008    0.1008    0.1008    0.1008    0.1008    0.1008    0.1008    0.1008    0.1008

2Pitch(Hz)
  mean            211.1547  174.4724   183.146  192.6531  161.6772  163.4233   56.7335  210.1234  165.2806  177.1418   12.2342  100.5273  221.0527
  std. dev.       109.0219  105.6613   90.4096    88.609  107.4647   84.1925    92.985  103.3667   99.1761  106.6856   48.3753  107.4323   98.5341
  weight sum          1505       299       746       138       138       385       181       109       910       712      3234       551       218
  precision         0.2034    0.2034    0.2034    0.2034    0.2034    0.2034    0.2034    0.2034    0.2034    0.2034    0.2034    0.2034    0.2034

2RawPitch
  mean            200.9312  163.2284  176.8718  186.1671  134.4189  153.6209   48.3156  186.2007  153.2796  168.1349   10.0558   82.9122  210.2912
  std. dev.       113.0094  110.9161   96.4397   96.0987  106.6169   86.0466   91.5248  109.9068  104.4253   111.735   42.5716  104.8341  103.8231
  weight sum          1505       299       746       138       138       385       181       109       910       712      3234       551       218
  precision         0.2088    0.2088    0.2088    0.2088    0.2088    0.2088    0.2088    0.2088    0.2088    0.2088    0.2088    0.2088    0.2088

2SmPitch
  mean            209.2749  171.9345  181.1568  191.2271   150.738  161.2553   53.6257  196.1026  161.3762  174.8902   10.6967   95.1754  219.9482
  std. dev.       110.3154  107.9136   92.1927   90.5485  103.6325   84.9278   91.9518  116.7296  101.5417  108.2193   43.9063  106.8153    99.473
  weight sum          1505       299       746       138       138       385       181       109       910       712      3234       551       218
  precision         0.2051    0.2051    0.2051    0.2051    0.2051    0.2051    0.2051    0.2051    0.2051    0.2051    0.2051    0.2051    0.2051

2Melogram(st)
  mean             50.6224   45.7201   49.1776   51.4088   45.2162   45.9084   17.6956   44.9302   44.5707   46.5218    3.7056   28.2267   50.6374
  std. dev.        17.7748    21.266   17.1261   13.7531   20.2304   18.9795   25.7255   23.4066   21.4543   20.6378    13.742   27.1257    19.473
  weight sum          1505       299       746       138       138       385       181       109       910       712      3234       551       218
  precision         0.0353    0.0353    0.0353    0.0353    0.0353    0.0353    0.0353    0.0353    0.0353    0.0353    0.0353    0.0353    0.0353

2ZCross
  mean              6.4973    2.4688    4.6951    3.5415    2.7115    3.0678    0.7805    4.6239    2.9119    3.8039    0.1472    3.3285    3.4387
  std. dev.         4.7305    2.5057    3.4013    2.2242    2.5858     3.289    1.9729    3.3012    2.5955    3.4966    0.8716    5.6883    3.0618
  weight sum          1505       299       746       138       138       385       181       109       910       712      3234       551       218
  precision         1.2727    1.2727    1.2727    1.2727    1.2727    1.2727    1.2727    1.2727    1.2727    1.2727    1.2727    1.2727    1.2727

2F1(Hz)
  mean            632.5964  423.0991  435.3843  494.4923  487.8092  340.7633  180.4755  545.9528  465.8644  450.1528   45.7835  343.9397  462.9492
  std. dev.       296.8673  227.7907  182.9634  163.5032    232.81  174.3406  253.1663  207.7542  226.3615  244.2194   157.842  296.8921  332.7223
  weight sum          1505       299       746       138       138       385       181       109       910       712      3234       551       218
  precision         0.5127    0.5127    0.5127    0.5127    0.5127    0.5127    0.5127    0.5127    0.5127    0.5127    0.5127    0.5127    0.5127

2F2(Hz)
  mean           1400.8405 1449.4723 1633.7862 1449.0269 1414.8511 1740.6907  608.7768 1763.2818 1434.7296 1123.9385   138.821 1079.6747  1000.033
  std. dev.       532.4998  686.1573  662.2232  382.0215  640.3559  805.0767  860.5114  523.8526  636.7728  603.6465  474.0493  883.7643   546.594
  weight sum          1505       299       746       138       138       385       181       109       910       712      3234       551       218
  precision         0.6985    0.6985    0.6985    0.6985    0.6985    0.6985    0.6985    0.6985    0.6985    0.6985    0.6985    0.6985    0.6985

2F3(Hz)
  mean           2566.7052 2437.2044 2466.1143 2791.3469 2406.0546 2427.5868 1006.1386 2807.0384 2469.2129 2381.9061  236.9164 1809.7759  2460.271
  std. dev.       934.1062 1070.9844  983.2863   620.118 1054.0979 1119.2236 1375.3267  825.3591 1046.1641 1133.1835  790.3143 1453.8806 1089.2339
  weight sum          1505       299       746       138       138       385       181       109       910       712      3234       551       218
  precision         1.0065    1.0065    1.0065    1.0065    1.0065    1.0065    1.0065    1.0065    1.0065    1.0065    1.0065    1.0065    1.0065

2F4(Hz)
  mean           2970.9678  2883.526  2968.206 3255.5773 2858.1926 2906.6724 1195.7113 3067.0397 2846.2368 2739.0875  290.1716 2081.6844  2778.374
  std. dev.      1072.0689 1232.2639 1156.9806  686.1677 1217.3342 1305.1093 1640.9175  874.5893 1183.2487 1292.2218  965.7542 1667.9196 1167.5154
  weight sum          1505       299       746       138       138       385       181       109       910       712      3234       551       218
  precision         1.0301    1.0301    1.0301    1.0301    1.0301    1.0301    1.0301    1.0301    1.0301    1.0301    1.0301    1.0301    1.0301

3Int(dB)
  mean             -4.7838  -12.4527   -5.6493   -8.6538  -13.9655   -9.5022  -24.7612  -10.6843  -12.8772   -8.6644  -50.8607  -20.5637   -5.9413
  std. dev.          9.917   10.4872    8.2505    7.2422    8.9902    8.6317    9.9219    7.8142   10.5331   12.1183   13.3693    7.2016    8.0011
  weight sum          1505       299       746       138       138       385       181       109       910       712      3234       551       218
  precision         0.1008    0.1008    0.1008    0.1008    0.1008    0.1008    0.1008    0.1008    0.1008    0.1008    0.1008    0.1008    0.1008

3Pitch(Hz)
  mean            215.4717  173.7208  192.4898  190.1568  152.2312  174.3019   79.8505  200.7202  164.8495  180.2959    8.6414   79.8818  232.3523
  std. dev.       105.3209  104.0157    85.636   91.3345   105.769   75.0715  106.1975  109.5024   97.9698  103.4062   41.2262  103.1552   82.3117
  weight sum          1505       299       746       138       138       385       181       109       910       712      3234       551       218
  precision         0.2034    0.2034    0.2034    0.2034    0.2034    0.2034    0.2034    0.2034    0.2034    0.2034    0.2034    0.2034    0.2034

3RawPitch
  mean            205.1279  156.9007  188.8553  185.4439  123.0765  166.4766   59.9198  174.6103  152.8875  174.0908    6.9092   58.2601  222.5693
  std. dev.       110.0217  112.4322   89.4789   97.5665  101.8456   78.7839   100.207  114.6744  103.0187  108.0935   35.5094   93.3335   89.8429
  weight sum          1505       299       746       138       138       385       181       109       910       712      3234       551       218
  precision         0.2088    0.2088    0.2088    0.2088    0.2088    0.2088    0.2088    0.2088    0.2088    0.2088    0.2088    0.2088    0.2088

3SmPitch
  mean            213.4208  169.8194  191.6241  189.6336  141.6009  171.8543   66.4445  185.8292  161.3764   178.962    7.4185   73.5048  232.3227
  std. dev.       106.8674  107.6346   86.4181   92.3532  100.3995   76.5988  103.0618  122.7866  100.3057  104.3249   36.4788   100.704   82.2366
  weight sum          1505       299       746       138       138       385       181       109       910       712      3234       551       218
  precision         0.2051    0.2051    0.2051    0.2051    0.2051    0.2051    0.2051    0.2051    0.2051    0.2051    0.2051    0.2051    0.2051

3Melogram(st)
  mean             52.0827   45.7719   51.3162   50.8347   42.7509   49.4307   20.7305   42.0778   44.1426   47.7311     2.748   22.3048   54.9086
  std. dev.        15.5643   21.2519   13.9659   14.5044   21.9334   14.5646    27.307   25.4087   21.7623   19.2227   12.0067   26.7953   12.8002
  weight sum          1505       299       746       138       138       385       181       109       910       712      3234       551       218
  precision         0.0352    0.0352    0.0352    0.0352    0.0352    0.0352    0.0352    0.0352    0.0352    0.0352    0.0352    0.0352    0.0352

3ZCross
  mean              6.7146    2.2092    4.8248    3.4862    2.0843    3.1868    1.7087    4.2269    2.3063    3.9665    0.0854    3.6611     3.573
  std. dev.          4.535     2.095    3.1533    2.2377    2.0439    2.9527    3.3908    3.1596    2.0088    3.0096    0.6292    6.6276    2.8222
  weight sum          1505       299       746       138       138       385       181       109       910       712      3234       551       218
  precision         1.2727    1.2727    1.2727    1.2727    1.2727    1.2727    1.2727    1.2727    1.2727    1.2727    1.2727    1.2727    1.2727

3F1(Hz)
  mean            680.6071  402.1692  468.1216  495.2687  433.0067  362.9833  162.4503  519.3228  430.2971  487.9887   33.6522  256.1635  498.1345
  std. dev.       260.5161  226.7452  135.4424  176.0915  254.6457  139.6622  248.8959  242.1586  227.3074  219.6408  135.0197  292.2384  299.1257
  weight sum          1505       299       746       138       138       385       181       109       910       712      3234       551       218
  precision         0.5127    0.5127    0.5127    0.5127    0.5127    0.5127    0.5127    0.5127    0.5127    0.5127    0.5127    0.5127    0.5127

3F2(Hz)
  mean           1463.4676 1402.7174 1802.3085 1423.4659 1302.5905 1971.4305   523.537  1645.159 1381.1848 1165.7924  104.6514  833.4641 1080.7158
  std. dev.       432.0523  694.7863  487.8366   407.382  701.6256  644.7659  808.1478  658.8397  667.5419  525.3227   415.952  908.4179  431.8771
  weight sum          1505       299       746       138       138       385       181       109       910       712      3234       551       218
  precision         0.6985    0.6985    0.6985    0.6985    0.6985    0.6985    0.6985    0.6985    0.6985    0.6985    0.6985    0.6985    0.6985

3F3(Hz)
  mean           2691.8093 2362.4099 2662.4498 2756.8647 2220.2677 2672.9489  906.3265 2640.4553 2381.1686 2534.4259  178.5267 1382.6766 2714.6841
  std. dev.       762.9907 1105.7815   729.876   698.638 1179.8092  890.7818 1352.6864  1037.927 1119.0959  989.9708  694.1704 1487.3833  768.9985
  weight sum          1505       299       746       138       138       385       181       109       910       712      3234       551       218
  precision         1.0065    1.0065    1.0065    1.0065    1.0065    1.0065    1.0065    1.0065    1.0065    1.0065    1.0065    1.0065    1.0065

3F4(Hz)
  mean            3114.979 2816.8308 3199.5596 3224.9891 2671.4019 3176.0491 1051.9703 2895.8616 2744.1595 2913.9175  219.9788 1596.2033  3074.217
  std. dev.       871.0219 1281.9538  841.1377  787.9869 1380.3083 1017.7226 1576.1376 1120.2728  1271.138 1121.3472  853.2071 1714.5262  772.1011
  weight sum          1505       299       746       138       138       385       181       109       910       712      3234       551       218
  precision         1.0301    1.0301    1.0301    1.0301    1.0301    1.0301    1.0301    1.0301    1.0301    1.0301    1.0301    1.0301    1.0301





=== Stratified cross-validation ===

Correctly Classified Instances        3919               42.9432 %
Incorrectly Classified Instances      5207               57.0568 %
Kappa statistic                          0.3247
K&B Relative Info Score             265501.6648 %
K&B Information Score                 7897.7514 bits      0.8654 bits/instance
Class complexity | order 0           27123.537  bits      2.9721 bits/instance
Class complexity | scheme           176183.2868 bits     19.3056 bits/instance
Complexity improvement     (Sf)    -149059.7498 bits    -16.3335 bits/instance
Mean absolute error                      0.0879
Root mean squared error                  0.2779
Relative absolute error                 69.9498 %
Root relative squared error            110.9044 %
Coverage of cases (0.95 level)          50.2411 %
Mean rel. region size (0.95 level)      12.0257 %
Total Number of Instances             9126     


=== Detailed Accuracy By Class ===

                 TP Rate  FP Rate  Precision  Recall   F-Measure  MCC      ROC Area  PRC Area  Class
                 0,320    0,036    0,638      0,320    0,427      0,383    0,831     0,525     a
                 0,000    0,000    0,000      0,000    0,000      -0,003   0,725     0,062     b
                 0,082    0,019    0,276      0,082    0,126      0,112    0,796     0,217     e
                 0,667    0,272    0,036      0,667    0,069      0,107    0,800     0,061     d
                 0,014    0,005    0,045      0,014    0,022      0,017    0,741     0,033     f
                 0,197    0,027    0,243      0,197    0,218      0,188    0,827     0,210     i
                 0,309    0,059    0,097      0,309    0,147      0,143    0,791     0,085     k
                 0,330    0,059    0,063      0,330    0,106      0,122    0,833     0,055     j
                 0,053    0,028    0,171      0,053    0,081      0,042    0,738     0,176     l
                 0,006    0,005    0,080      0,006    0,010      0,001    0,715     0,151     o
                 0,895    0,056    0,897      0,895    0,896      0,839    0,960     0,931     0
                 0,241    0,028    0,353      0,241    0,287      0,255    0,787     0,295     s
                 0,151    0,015    0,199      0,151    0,172      0,156    0,828     0,121     u
Weighted Avg.    0,429    0,040    0,509      0,429    0,443      0,407    0,847     0,499     


=== Confusion Matrix ===

    a    b    c    d    e    f    g    h    i    j    k    l    m   <-- classified as
  482    0   58  544    3   46   85  104   34   32   39   27   51 |    a = a
   17    0    4  153    3   22   28   24   12    0   14   15    7 |    b = b
   47    1   61  345    2   56   47  108   15    7   17   20   20 |    c = e
    6    0    6   92    0    1    4   16    6    0    3    2    2 |    d = d
    6    0    0   73    2    2   13   16   10    0    5   11    0 |    e = f
   16    1   38  133    1   76   42   40   19    0    9    8    2 |    f = i
    2    0    1   22    4    2   56   10    9    0   55   19    1 |    g = k
   13    0    3   32    4    2    3   36    8    0    1    5    2 |    h = j
   50    0   20  485    6   23   72   96   48    2   47   54    7 |    i = l
   67    0   24  359    1   45   49   18   31    4   59   18   37 |    j = o
    6    0    3   97    8   10   84   25   44    0 2896   60    1 |    k = 0
   17    0    1  115   10    8   78   70   34    2   80  133    3 |    l = s
   26    0    2   90    0   20   19    6   11    3    3    5   33 |    m = u

=== Percent Confusion Matrix ===
a	b	c	d	e	f	g	h	i	j	k	l	m	
32.03	0.0	3.85	36.15	0.2	3.06	5.65	6.91	2.26	2.13	2.59	1.79	3.39	 a = a
5.69	0.0	1.34	51.17	1.0	7.36	9.36	8.03	4.01	0.0	4.68	5.02	2.34	 b = b
6.3	0.13	8.18	46.25	0.27	7.51	6.3	14.48	2.01	0.94	2.28	2.68	2.68	 c = e
4.35	0.0	4.35	66.67	0.0	0.72	2.9	11.59	4.35	0.0	2.17	1.45	1.45	 d = d
4.35	0.0	0.0	52.9	1.45	1.45	9.42	11.59	7.25	0.0	3.62	7.97	0.0	 e = f
4.16	0.26	9.87	34.55	0.26	19.74	10.91	10.39	4.94	0.0	2.34	2.08	0.52	 f = i
1.1	0.0	0.55	12.15	2.21	1.1	30.94	5.52	4.97	0.0	30.39	10.5	0.55	 g = k
11.93	0.0	2.75	29.36	3.67	1.83	2.75	33.03	7.34	0.0	0.92	4.59	1.83	 h = j
5.49	0.0	2.2	53.3	0.66	2.53	7.91	10.55	5.27	0.22	5.16	5.93	0.77	 i = l
9.41	0.0	3.37	50.42	0.14	6.32	6.88	2.53	4.35	0.56	8.29	2.53	5.2	 j = o
0.19	0.0	0.09	3.0	0.25	0.31	2.6	0.77	1.36	0.0	89.55	1.86	0.03	 k = 0
3.09	0.0	0.18	20.87	1.81	1.45	14.16	12.7	6.17	0.36	14.52	24.14	0.54	 l = s
11.93	0.0	0.92	41.28	0.0	9.17	8.72	2.75	5.05	1.38	1.38	2.29	15.14	 m = u
