Timestamp:2014-12-07-10:47:38
Inventario:I1
Intervalo:2ms
Ngramas:3
Clasificador:NaiveBayes
Relation Name:  I1-2ms-3gramas
Num Instances:  91701
Num Attributes: 31

     Name                      Type  Nom  Int Real     Missing      Unique  Dist
   1 0Int(dB)                   Num   0%   9%  91%     0 /  0%     4 /  0%   779 
   2 0Pitch(Hz)                 Num   0%  52%  48%     0 /  0%   471 /  1%  4016 
   3 0RawPitch                  Num   0%  55%  45%     0 /  0%   550 /  1%  4014 
   4 0SmPitch                   Num   0%  53%  47%     0 /  0%   491 /  1%  3998 
   5 0Melogram(st)              Num   0%  49%  51%     0 /  0%   212 /  0%  3363 
   6 0ZCross                    Num   0% 100%   0%     0 /  0%     6 /  0%    54 
   7 0F1(Hz)                    Num   0%  52%  48%     0 /  0%  1126 /  1%  4776 
   8 0F2(Hz)                    Num   0%  52%  48%     0 /  0%  2304 /  3%  6727 
   9 0F3(Hz)                    Num   0%  52%  48%     0 /  0%  1967 /  2%  6224 
  10 0F4(Hz)                    Num   0%  52%  48%     0 /  0%  1884 /  2%  6074 
  11 1Int(dB)                   Num   0%   9%  91%     0 /  0%     5 /  0%   780 
  12 1Pitch(Hz)                 Num   0%  52%  48%     0 /  0%   471 /  1%  4016 
  13 1RawPitch                  Num   0%  55%  45%     0 /  0%   550 /  1%  4014 
  14 1SmPitch                   Num   0%  53%  47%     0 /  0%   491 /  1%  3998 
  15 1Melogram(st)              Num   0%  49%  51%     0 /  0%   212 /  0%  3363 
  16 1ZCross                    Num   0% 100%   0%     0 /  0%     6 /  0%    54 
  17 1F1(Hz)                    Num   0%  52%  48%     0 /  0%  1126 /  1%  4776 
  18 1F2(Hz)                    Num   0%  52%  48%     0 /  0%  2304 /  3%  6727 
  19 1F3(Hz)                    Num   0%  52%  48%     0 /  0%  1967 /  2%  6224 
  20 1F4(Hz)                    Num   0%  52%  48%     0 /  0%  1884 /  2%  6074 
  21 2Int(dB)                   Num   0%   9%  91%     0 /  0%     6 /  0%   781 
  22 2Pitch(Hz)                 Num   0%  52%  48%     0 /  0%   471 /  1%  4016 
  23 2RawPitch                  Num   0%  55%  45%     0 /  0%   550 /  1%  4014 
  24 2SmPitch                   Num   0%  53%  47%     0 /  0%   491 /  1%  3998 
  25 2Melogram(st)              Num   0%  49%  51%     0 /  0%   212 /  0%  3363 
  26 2ZCross                    Num   0% 100%   0%     0 /  0%     6 /  0%    54 
  27 2F1(Hz)                    Num   0%  52%  48%     0 /  0%  1126 /  1%  4776 
  28 2F2(Hz)                    Num   0%  52%  48%     0 /  0%  2304 /  3%  6727 
  29 2F3(Hz)                    Num   0%  52%  48%     0 /  0%  1967 /  2%  6224 
  30 2F4(Hz)                    Num   0%  52%  48%     0 /  0%  1884 /  2%  6074 
  31 class                      Nom 100%   0%   0%     0 /  0%     0 /  0%    13 


Naive Bayes Classifier

                    Class
Attribute               a         b         e         d         f         i         k         j         l         o         0         s         u
                   (0.16)    (0.03)    (0.08)    (0.01)    (0.01)    (0.04)    (0.02)    (0.01)    (0.09)    (0.07)    (0.39)    (0.06)    (0.02)
==================================================================================================================================================
0Int(dB)
  mean             -4.2251  -12.6603    -5.205   -8.3397  -15.0221   -8.7895  -24.7291   -11.474  -13.0346   -8.1324  -48.1799  -20.9474   -5.3672
  std. dev.         9.6253   10.8312    8.1176    6.7392    8.9257    8.3703   10.4027    8.2298   10.5604   12.1307   16.3014    6.8315     8.007
  weight sum         14333      2915      6910      1346      1286      3561      1780      1035      8680      6646     35831      5298      2080
  precision          0.104     0.104     0.104     0.104     0.104     0.104     0.104     0.104     0.104     0.104     0.104     0.104     0.104

0Pitch(Hz)
  mean            215.3388  158.9952  189.4672  197.4113   131.712  172.4288    53.654  184.0771  156.6579  178.9677   17.0609   53.0607  228.8154
  std. dev.       108.3673   111.641   88.3909   88.9567  107.4401   77.1572   97.5829  120.1609  102.8061  105.4237    56.853   90.9487   85.6072
  weight sum         14333      2915      6910      1346      1286      3561      1780      1035      8680      6646     35831      5298      2080
  precision         0.1242    0.1242    0.1242    0.1242    0.1242    0.1242    0.1242    0.1242    0.1242    0.1242    0.1242    0.1242    0.1242

0RawPitch
  mean            204.8262  146.6041  185.2835  191.2629  106.7449  164.8572   33.1289  151.0749  142.3233  173.0225   13.9619   31.6136  219.9054
  std. dev.       114.8351  116.7477   95.4466   98.1667  103.7582   83.8605    79.591  124.7538  109.5843  112.8916   51.2541   73.9452   93.8544
  weight sum         14333      2915      6910      1346      1286      3561      1780      1035      8680      6646     35831      5298      2080
  precision         0.1243    0.1243    0.1243    0.1243    0.1243    0.1243    0.1243    0.1243    0.1243    0.1243    0.1243    0.1243    0.1243

0SmPitch
  mean            213.2942  154.5794  187.8876     196.8  121.4041  170.0743   44.1435   163.036  152.4881  176.8295   15.4228   46.3038  228.2489
  std. dev.       110.0116  114.1868   89.6855   90.0544  104.6191   79.5741   90.9798  130.4219  104.5892  107.6308    53.067    86.487   85.8949
  weight sum         14333      2915      6910      1346      1286      3561      1780      1035      8680      6646     35831      5298      2080
  precision         0.1248    0.1248    0.1248    0.1248    0.1248    0.1248    0.1248    0.1248    0.1248    0.1248    0.1248    0.1248    0.1248

0Melogram(st)
  mean             51.2738   41.2827    50.296   51.7238   37.1801   48.3177     14.05   34.2928   41.8099   46.5862    5.0216   15.2118   53.7993
  std. dev.        17.0546   24.4294   15.6299   13.8823   24.9375   16.4721   24.4951   28.3283   23.4135   20.4797   15.7545   24.3073     14.79
  weight sum         14333      2915      6910      1346      1286      3561      1780      1035      8680      6646     35831      5298      2080
  precision         0.0246    0.0246    0.0246    0.0246    0.0246    0.0246    0.0246    0.0246    0.0246    0.0246    0.0246    0.0246    0.0246

0ZCross
  mean              7.1301    2.4852    5.2767    3.9831     2.069    3.7235    2.1715    4.2572    2.5131    4.4336    0.2613    3.8829    4.0842
  std. dev.         4.5874    2.2611     3.209    2.3602    2.2383    3.2289    4.8592    3.3478    2.2301    3.0623    1.1465    7.5644    2.9396
  weight sum         14333      2915      6910      1346      1286      3561      1780      1035      8680      6646     35831      5298      2080
  precision         1.0755    1.0755    1.0755    1.0755    1.0755    1.0755    1.0755    1.0755    1.0755    1.0755    1.0755    1.0755    1.0755

0F1(Hz)
  mean            677.0705  372.2266  461.0472  504.3029  388.0168  359.1654  111.5377  472.2792  404.4839  481.7752    54.983  192.7192  494.6223
  std. dev.       274.1678  238.0257  149.9473  171.2959   278.164  147.6819  218.3818  276.1588  237.1858  227.7162  168.4324  278.5354   311.451
  weight sum         14333      2915      6910      1346      1286      3561      1780      1035      8680      6646     35831      5298      2080
  precision         0.3648    0.3648    0.3648    0.3648    0.3648    0.3648    0.3648    0.3648    0.3648    0.3648    0.3648    0.3648    0.3648

0F2(Hz)
  mean           1438.0676 1309.0897 1772.0574 1447.6359 1173.9193 1952.7441  372.6766 1490.0244 1315.4675 1139.4043  171.9857  622.7896 1043.9884
  std. dev.       463.2855  752.5784  544.5249   390.147  775.1169  688.7429  736.2927  788.4768   714.103  541.1664  521.2356  863.0411  438.5623
  weight sum         14333      2915      6910      1346      1286      3561      1780      1035      8680      6646     35831      5298      2080
  precision         0.4429    0.4429    0.4429    0.4429    0.4429    0.4429    0.4429    0.4429    0.4429    0.4429    0.4429    0.4429    0.4429

0F3(Hz)
  mean           2645.3531 2203.0948 2603.6899 2799.2032 2003.0171 2631.3817  623.6913 2407.9268 2268.7893 2490.7242  293.4267 1042.7123 2648.1475
  std. dev.       826.9081 1210.0929  809.0505   661.974 1310.3914  948.5385  1190.513  1249.606 1205.4995 1033.2776  874.0473 1431.3732  826.0863
  weight sum         14333      2915      6910      1346      1286      3561      1780      1035      8680      6646     35831      5298      2080
  precision          0.662     0.662     0.662     0.662     0.662     0.662     0.662     0.662     0.662     0.662     0.662     0.662     0.662

0F4(Hz)
  mean           3069.6694 2641.4508 3139.0513 3242.0836 2393.9651 3132.5813  736.1449 2645.5451 2610.6993 2866.8671  352.5404 1185.4441 3035.0863
  std. dev.        945.882 1419.3848  942.3082  743.0753 1531.3561 1087.3648 1410.2767 1359.1957 1369.9796 1172.3377 1047.8436 1624.3261  857.2082
  weight sum         14333      2915      6910      1346      1286      3561      1780      1035      8680      6646     35831      5298      2080
  precision         0.6829    0.6829    0.6829    0.6829    0.6829    0.6829    0.6829    0.6829    0.6829    0.6829    0.6829    0.6829    0.6829

1Int(dB)
  mean             -4.2367  -12.4737   -5.1801   -8.2684  -15.0289   -8.7172  -24.0199  -11.5265  -12.9586    -8.146  -48.2527   -21.048   -5.2139
  std. dev.         9.6141   10.7103     8.069    6.7651    8.8787    8.3524   10.3586     8.226   10.4732   12.1698   16.2023    6.7669    7.7793
  weight sum         14333      2915      6910      1346      1286      3561      1780      1035      8680      6646     35831      5298      2080
  precision         0.1039    0.1039    0.1039    0.1039    0.1039    0.1039    0.1039    0.1039    0.1039    0.1039    0.1039    0.1039    0.1039

1Pitch(Hz)
  mean            215.3054  159.5378  190.0868  197.3134  131.0502  173.0539   59.3235  183.6561  157.4696  178.5997   16.6926   51.3878  229.3808
  std. dev.       108.4186  111.1102   87.9634   89.1466  107.2576   76.5412  101.7345  120.3605  102.5312   105.265   56.2804   89.9464    84.526
  weight sum         14333      2915      6910      1346      1286      3561      1780      1035      8680      6646     35831      5298      2080
  precision         0.1242    0.1242    0.1242    0.1242    0.1242    0.1242    0.1242    0.1242    0.1242    0.1242    0.1242    0.1242    0.1242

1RawPitch
  mean            204.9204   147.555  185.5725  191.1584  106.2993  165.7052   37.3796  150.6697  142.8594  172.7286   13.6787   29.8532  220.4839
  std. dev.        114.845  116.3293   95.2181   98.1058  103.3674   83.3185   84.2379   124.789  109.5103  112.6688   50.8131   71.8517   93.0053
  weight sum         14333      2915      6910      1346      1286      3561      1780      1035      8680      6646     35831      5298      2080
  precision         0.1243    0.1243    0.1243    0.1243    0.1243    0.1243    0.1243    0.1243    0.1243    0.1243    0.1243    0.1243    0.1243

1SmPitch
  mean            213.3064  154.9178  188.5362  196.7689  120.8089  170.6841   49.2876  162.6175  153.3042  176.5062   15.0751   44.5105  228.8712
  std. dev.       109.9963  113.8128   89.2414   90.1148  104.3726   79.0929   95.6451  130.5354  104.3657  107.4391   52.4896   85.1249   84.8121
  weight sum         14333      2915      6910      1346      1286      3561      1780      1035      8680      6646     35831      5298      2080
  precision         0.1248    0.1248    0.1248    0.1248    0.1248    0.1248    0.1248    0.1248    0.1248    0.1248    0.1248    0.1248    0.1248

1Melogram(st)
  mean             51.3027    41.476   50.4037   51.7167   37.0227   48.4912   15.1757   34.1019   41.9766   46.5516    4.9295   14.7561   54.0704
  std. dev.        16.9973   24.3018   15.4597   13.8885   25.0004   16.2162   25.1733   28.3884   23.3222    20.484   15.6282   24.0962   14.2652
  weight sum         14333      2915      6910      1346      1286      3561      1780      1035      8680      6646     35831      5298      2080
  precision         0.0246    0.0246    0.0246    0.0246    0.0246    0.0246    0.0246    0.0246    0.0246    0.0246    0.0246    0.0246    0.0246

1ZCross
  mean              7.1259     2.518    5.2659    4.0278    2.0682    3.7314    2.2621    4.2416    2.5183    4.4315    0.2535    3.8872    4.0992
  std. dev.         4.5903    2.2548    3.2124    2.3586    2.2445    3.2172    4.8595    3.3434    2.2176    3.0586    1.1335    7.5791    2.9273
  weight sum         14333      2915      6910      1346      1286      3561      1780      1035      8680      6646     35831      5298      2080
  precision         1.0755    1.0755    1.0755    1.0755    1.0755    1.0755    1.0755    1.0755    1.0755    1.0755    1.0755    1.0755    1.0755

1F1(Hz)
  mean            680.5164  371.8273   463.877  504.9305  383.2741  361.6146  115.9159  470.2915  402.9693  484.2054   53.8376   184.019  498.0573
  std. dev.       271.5055   237.112   146.053  171.3464  277.9272  144.1442  221.5121  278.2264  235.9193  226.2125  166.7243  274.5144   307.944
  weight sum         14333      2915      6910      1346      1286      3561      1780      1035      8680      6646     35831      5298      2080
  precision         0.3648    0.3648    0.3648    0.3648    0.3648    0.3648    0.3648    0.3648    0.3648    0.3648    0.3648    0.3648    0.3648

1F2(Hz)
  mean           1442.0523 1308.1584  1785.616 1447.6544 1168.3225 1974.0792  384.4433 1477.8094 1316.1198 1140.4987   168.567  597.2088  1053.554
  std. dev.       456.0769   749.768  528.1297  391.6426  778.4294  669.1502  741.8543  793.7485  712.9958  535.6978   516.644  854.2978  426.6176
  weight sum         14333      2915      6910      1346      1286      3561      1780      1035      8680      6646     35831      5298      2080
  precision         0.4429    0.4429    0.4429    0.4429    0.4429    0.4429    0.4429    0.4429    0.4429    0.4429    0.4429    0.4429    0.4429

1F3(Hz)
  mean           2653.6177 2202.5227 2619.8245 2798.5752 1990.5358 2655.6632  646.9029  2393.029 2270.2248  2499.568  287.4269  998.6452  2673.852
  std. dev.       815.2889 1206.5921  786.5019   666.643 1314.6764  922.4738 1205.5934 1259.4562 1204.7969 1024.8703  866.0225 1415.7644  787.5699
  weight sum         14333      2915      6910      1346      1286      3561      1780      1035      8680      6646     35831      5298      2080
  precision          0.662     0.662     0.662     0.662     0.662     0.662     0.662     0.662     0.662     0.662     0.662     0.662     0.662

1F4(Hz)
  mean           3078.5421 2644.3886 3157.1809 3240.4226 2382.1202 3159.0187   764.337 2631.1945 2612.2739 2876.1426  345.4959 1137.1455  3063.919
  std. dev.       932.0325 1416.7903  913.7543  748.1848 1537.9929 1054.7924 1428.9578  1371.408 1369.5541 1161.7476 1038.6519 1609.2368  806.6532
  weight sum         14333      2915      6910      1346      1286      3561      1780      1035      8680      6646     35831      5298      2080
  precision         0.6829    0.6829    0.6829    0.6829    0.6829    0.6829    0.6829    0.6829    0.6829    0.6829    0.6829    0.6829    0.6829

2Int(dB)
  mean             -4.2733  -12.2641    -5.199   -8.1726  -15.0003    -8.676  -23.2564   -11.554  -12.8516   -8.1936   -48.307  -21.1143   -5.0927
  std. dev.         9.6287   10.5968    8.0531    6.8019    8.8607    8.3577   10.3629    8.2241   10.4051   12.2208   16.1116    6.7509    7.5769
  weight sum         14333      2915      6910      1346      1286      3561      1780      1035      8680      6646     35831      5298      2080
  precision         0.1037    0.1037    0.1037    0.1037    0.1037    0.1037    0.1037    0.1037    0.1037    0.1037    0.1037    0.1037    0.1037

2Pitch(Hz)
  mean            215.1446  160.3717  190.3791  197.2842  130.8258  173.4856   65.3555  183.2384  158.3241  178.0537   16.3387    50.307  229.8416
  std. dev.       108.5552  110.4325   87.7367   89.2015  107.1381   76.0683  105.6161   120.562  102.2966  105.2226   55.7285   89.3603   83.5753
  weight sum         14333      2915      6910      1346      1286      3561      1780      1035      8680      6646     35831      5298      2080
  precision         0.1242    0.1242    0.1242    0.1242    0.1242    0.1242    0.1242    0.1242    0.1242    0.1242    0.1242    0.1242    0.1242

2RawPitch
  mean            204.7828  148.5095   185.837  191.0311  105.9763  166.2787   42.6116  150.3037    143.61  172.2852   13.3731    28.613  220.9278
  std. dev.       114.9802  115.8451   95.0002   97.9614  102.9581   83.0617   89.3617  124.7589  109.4308  112.5036   50.3492   70.3623   92.1417
  weight sum         14333      2915      6910      1346      1286      3561      1780      1035      8680      6646     35831      5298      2080
  precision         0.1243    0.1243    0.1243    0.1243    0.1243    0.1243    0.1243    0.1243    0.1243    0.1243    0.1243    0.1243    0.1243

2SmPitch
  mean            213.2239  155.6124  188.9642  196.8148  120.6473  171.0525    54.999  162.3877   154.026  175.9682   14.7411   43.2996  229.2536
  std. dev.       110.0447  113.2741   88.9263   90.0345  104.2291   78.7886  100.1478  130.5579  104.2198  107.3853   51.9302    84.242   84.0032
  weight sum         14333      2915      6910      1346      1286      3561      1780      1035      8680      6646     35831      5298      2080
  precision         0.1248    0.1248    0.1248    0.1248    0.1248    0.1248    0.1248    0.1248    0.1248    0.1248    0.1248    0.1248    0.1248

2Melogram(st)
  mean             51.2983   41.6893   50.4842   51.7752   37.0069   48.6341   16.3925   34.0839   42.1689   46.4749    4.8255   14.4243   54.3072
  std. dev.        16.9875   24.1614   15.3213   13.7541   25.0249   15.9951   25.8227   28.4273   23.2142   20.5262   15.4833   23.9438   13.7628
  weight sum         14333      2915      6910      1346      1286      3561      1780      1035      8680      6646     35831      5298      2080
  precision         0.0246    0.0246    0.0246    0.0246    0.0246    0.0246    0.0246    0.0246    0.0246    0.0246    0.0246    0.0246    0.0246

2ZCross
  mean               7.111    2.5583    5.2438    4.0886    2.0698    3.7483    2.3479    4.2323    2.5396    4.4237    0.2484    3.8841    4.1111
  std. dev.         4.6004    2.2519    3.2168    2.3648    2.2498    3.2275    4.8445    3.3374    2.2159    3.0692    1.1311    7.5827    2.9164
  weight sum         14333      2915      6910      1346      1286      3561      1780      1035      8680      6646     35831      5298      2080
  precision         1.0755    1.0755    1.0755    1.0755    1.0755    1.0755    1.0755    1.0755    1.0755    1.0755    1.0755    1.0755    1.0755

2F1(Hz)
  mean            683.4195   372.086  466.4894  505.7205  378.5922    363.75  121.7702  468.7201  402.1582  486.2046   52.7343  175.7275  500.6341
  std. dev.        269.455  236.0116  142.2388  171.4004  277.5826  140.8431  225.3955  279.8473  234.3223  225.0865   165.102  270.2225  305.2064
  weight sum         14333      2915      6910      1346      1286      3561      1780      1035      8680      6646     35831      5298      2080
  precision         0.3648    0.3648    0.3648    0.3648    0.3648    0.3648    0.3648    0.3648    0.3648    0.3648    0.3648    0.3648    0.3648

2F2(Hz)
  mean           1444.7727 1309.1173 1798.4442 1447.7215 1163.3139  1993.047   399.694 1467.5106 1318.9754 1140.7371  165.1204  573.2276 1061.2779
  std. dev.       450.4532    746.06  511.8666  393.3743   782.141  650.7685    748.44  797.6954  710.8251  531.1147   511.871  845.2547  416.4942
  weight sum         14333      2915      6910      1346      1286      3561      1780      1035      8680      6646     35831      5298      2080
  precision         0.4429    0.4429    0.4429    0.4429    0.4429    0.4429    0.4429    0.4429    0.4429    0.4429    0.4429    0.4429    0.4429

2F3(Hz)
  mean           2659.8447 2204.7048 2634.9785 2797.9736 1978.2255 2677.3565  676.8886 2381.1662 2274.8969 2506.4348  281.5324  957.2863 2694.0925
  std. dev.       806.7783 1201.2074  764.1593  671.2133 1318.9077  898.3116 1222.9021 1267.0719 1201.7873 1018.6433  858.0649 1399.5559  755.1652
  weight sum         14333      2915      6910      1346      1286      3561      1780      1035      8680      6646     35831      5298      2080
  precision          0.662     0.662     0.662     0.662     0.662     0.662     0.662     0.662     0.662     0.662     0.662     0.662     0.662

2F4(Hz)
  mean           3084.7647 2650.5175   3174.33 3238.3887 2370.2376 3182.3609  803.0259 2619.6189 2618.0618 2882.7851  338.5265 1092.0781 3086.3027
  std. dev.       921.7526 1411.8243  885.5429  753.1084 1544.5093 1024.5862 1454.3715 1380.9381 1366.6706 1153.5603 1029.4118 1593.8261   763.546
  weight sum         14333      2915      6910      1346      1286      3561      1780      1035      8680      6646     35831      5298      2080
  precision         0.6829    0.6829    0.6829    0.6829    0.6829    0.6829    0.6829    0.6829    0.6829    0.6829    0.6829    0.6829    0.6829





=== Stratified cross-validation ===

Correctly Classified Instances       47596               51.9035 %
Incorrectly Classified Instances     44105               48.0965 %
Kappa statistic                          0.3952
K&B Relative Info Score            3447734.0503 %
K&B Information Score                99528.3914 bits      1.0854 bits/instance
Class complexity | order 0          264696.1546 bits      2.8865 bits/instance
Class complexity | scheme          1559228.1954 bits     17.0034 bits/instance
Complexity improvement     (Sf)    -1294532.0408 bits    -14.1169 bits/instance
Mean absolute error                      0.0755
Root mean squared error                  0.2462
Relative absolute error                 61.6842 %
Root relative squared error             99.5079 %
Coverage of cases (0.95 level)          60.9688 %
Mean rel. region size (0.95 level)      13.7746 %
Total Number of Instances            91701     


=== Detailed Accuracy By Class ===

                 TP Rate  FP Rate  Precision  Recall   F-Measure  MCC      ROC Area  PRC Area  Class
                 0,451    0,040    0,678      0,451    0,542      0,490    0,883     0,611     a
                 0,003    0,003    0,033      0,003    0,005      0,000    0,722     0,057     b
                 0,593    0,087    0,356      0,593    0,445      0,403    0,867     0,409     e
                 0,533    0,157    0,048      0,533    0,088      0,123    0,812     0,046     d
                 0,046    0,016    0,039      0,046    0,042      0,028    0,730     0,030     f
                 0,384    0,039    0,286      0,384    0,328      0,300    0,863     0,273     i
                 0,116    0,012    0,157      0,116    0,133      0,120    0,837     0,092     k
                 0,092    0,002    0,298      0,092    0,140      0,160    0,747     0,077     j
                 0,059    0,026    0,193      0,059    0,090      0,058    0,747     0,181     l
                 0,004    0,001    0,185      0,004    0,007      0,017    0,780     0,188     o
                 0,893    0,137    0,807      0,893    0,848      0,744    0,951     0,949     0
                 0,225    0,015    0,484      0,225    0,307      0,304    0,885     0,362     s
                 0,413    0,021    0,317      0,413    0,359      0,345    0,870     0,350     u
Weighted Avg.    0,519    0,075    0,535      0,519    0,503      0,448    0,876     0,573     


=== Confusion Matrix ===

     a     b     c     d     e     f     g     h     i     j     k     l     m   <-- classified as
  6469    36  1986  3530   189   291   122    83   320    48   745   123   391 |     a = a
   188     8   345   857    98   471    64    13   117     6   522    65   161 |     b = b
   615    46  4100   949   121   445    85    29   129     8   265    56    62 |     c = e
   146     0   212   718     0    67     0     0    72     0    49    21    61 |     d = d
    86     0   137   390    59   139    41     2    84     0   310    32     6 |     e = f
   178    33  1398   109    83  1368    69     1    88     2   183    47     2 |     f = i
    18    22    47    80    55    62   206    15    70     3   965   220    17 |     g = k
   128     1   226   107    36    95    21    95    67     5   163    23    68 |     h = j
   515    26   960  3538   249   813   266     7   510    11  1368   234   183 |     i = l
   725    35  1326  2368   127    62    40    18   323    25   715   110   772 |     j = o
   109    16   475  1333   263   569   137    15   485    11 31988   321   109 |     k = 0
   158     6    96   389   203   345   230    40   279    10  2335  1192    15 |     l = s
   201    11   193   533    29    63    30     1   103     6    34    18   858 |     m = u

=== Percent Confusion Matrix ===
a	b	c	d	e	f	g	h	i	j	k	l	m	
45.13	0.25	13.86	24.63	1.32	2.03	0.85	0.58	2.23	0.33	5.2	0.86	2.73	 a = a
6.45	0.27	11.84	29.4	3.36	16.16	2.2	0.45	4.01	0.21	17.91	2.23	5.52	 b = b
8.9	0.67	59.33	13.73	1.75	6.44	1.23	0.42	1.87	0.12	3.84	0.81	0.9	 c = e
10.85	0.0	15.75	53.34	0.0	4.98	0.0	0.0	5.35	0.0	3.64	1.56	4.53	 d = d
6.69	0.0	10.65	30.33	4.59	10.81	3.19	0.16	6.53	0.0	24.11	2.49	0.47	 e = f
5.0	0.93	39.26	3.06	2.33	38.42	1.94	0.03	2.47	0.06	5.14	1.32	0.06	 f = i
1.01	1.24	2.64	4.49	3.09	3.48	11.57	0.84	3.93	0.17	54.21	12.36	0.96	 g = k
12.37	0.1	21.84	10.34	3.48	9.18	2.03	9.18	6.47	0.48	15.75	2.22	6.57	 h = j
5.93	0.3	11.06	40.76	2.87	9.37	3.06	0.08	5.88	0.13	15.76	2.7	2.11	 i = l
10.91	0.53	19.95	35.63	1.91	0.93	0.6	0.27	4.86	0.38	10.76	1.66	11.62	 j = o
0.3	0.04	1.33	3.72	0.73	1.59	0.38	0.04	1.35	0.03	89.27	0.9	0.3	 k = 0
2.98	0.11	1.81	7.34	3.83	6.51	4.34	0.76	5.27	0.19	44.07	22.5	0.28	 l = s
9.66	0.53	9.28	25.63	1.39	3.03	1.44	0.05	4.95	0.29	1.63	0.87	41.25	 m = u
