Timestamp:2014-12-07-10:49:21
Inventario:I1
Intervalo:3ms
Ngramas:2
Clasificador:NaiveBayes
Relation Name:  I1-3ms-2gramas
Num Instances:  61134
Num Attributes: 21

     Name                      Type  Nom  Int Real     Missing      Unique  Dist
   1 0Int(dB)                   Num   0%  10%  90%     0 /  0%     2 /  0%   776 
   2 0Pitch(Hz)                 Num   0%  52%  48%     0 /  0%   559 /  1%  3828 
   3 0RawPitch                  Num   0%  55%  45%     0 /  0%   613 /  1%  3808 
   4 0SmPitch                   Num   0%  53%  47%     0 /  0%   575 /  1%  3802 
   5 0Melogram(st)              Num   0%  49%  51%     0 /  0%   269 /  0%  3285 
   6 0ZCross                    Num   0% 100%   0%     0 /  0%     3 /  0%    50 
   7 0F1(Hz)                    Num   0%  52%  48%     0 /  0%  1075 /  2%  4783 
   8 0F2(Hz)                    Num   0%  52%  48%     0 /  0%  2270 /  4%  6724 
   9 0F3(Hz)                    Num   0%  52%  48%     0 /  0%  1945 /  3%  6241 
  10 0F4(Hz)                    Num   0%  52%  48%     0 /  0%  1922 /  3%  6122 
  11 1Int(dB)                   Num   0%  10%  90%     0 /  0%     3 /  0%   777 
  12 1Pitch(Hz)                 Num   0%  52%  48%     0 /  0%   559 /  1%  3828 
  13 1RawPitch                  Num   0%  55%  45%     0 /  0%   613 /  1%  3808 
  14 1SmPitch                   Num   0%  53%  47%     0 /  0%   575 /  1%  3802 
  15 1Melogram(st)              Num   0%  49%  51%     0 /  0%   269 /  0%  3285 
  16 1ZCross                    Num   0% 100%   0%     0 /  0%     3 /  0%    50 
  17 1F1(Hz)                    Num   0%  52%  48%     0 /  0%  1075 /  2%  4783 
  18 1F2(Hz)                    Num   0%  52%  48%     0 /  0%  2270 /  4%  6724 
  19 1F3(Hz)                    Num   0%  52%  48%     0 /  0%  1945 /  3%  6241 
  20 1F4(Hz)                    Num   0%  52%  48%     0 /  0%  1922 /  3%  6122 
  21 class                      Nom 100%   0%   0%     0 /  0%     0 /  0%    13 


Naive Bayes Classifier

                    Class
Attribute               a         b         e         d         f         i         k         j         l         o         0         s         u
                   (0.16)    (0.03)    (0.08)    (0.01)    (0.01)    (0.04)    (0.02)    (0.01)     (0.1)    (0.07)    (0.39)    (0.06)    (0.02)
==================================================================================================================================================
0Int(dB)
  mean             -4.2584  -12.5947   -5.2147   -8.3385  -14.9846    -8.825   -24.479  -11.5177  -12.9937   -8.1561  -48.4233   -20.983   -5.2953
  std. dev.         9.6363   10.7736    8.1108    6.7894    8.8593    8.4293    10.404    8.2254    10.541   12.1343   16.0579    6.8383    7.8625
  weight sum          9585      1948      4621       904       864      2382      1192       693      5819      4463     23725      3552      1386
  precision         0.1044    0.1044    0.1044    0.1044    0.1044    0.1044    0.1044    0.1044    0.1044    0.1044    0.1044    0.1044    0.1044

0Pitch(Hz)
  mean             215.424  159.7556  190.0809  196.8632  133.2458  173.0172   58.7123   185.037  157.5416    179.07   16.2537   53.6713   229.415
  std. dev.       108.1379  110.8403   87.8538    89.247  107.2688   76.7882  101.4217  119.2891  102.3964  105.2101   55.6472   91.2431   85.2349
  weight sum          9585      1948      4621       904       864      2382      1192       693      5819      4463     23725      3552      1386
  precision         0.1303    0.1303    0.1303    0.1303    0.1303    0.1303    0.1303    0.1303    0.1303    0.1303    0.1303    0.1303    0.1303

0RawPitch
  mean             205.191  147.2848  185.5537  190.9996  108.1776  165.5748   37.2257  151.0428   143.142  172.9408   13.3293   31.8253  220.5485
  std. dev.       114.0304  115.9925   94.6689   97.8483  103.4633   83.1744   84.0645  123.0714  108.7681  112.1655   50.0209   73.8019   93.0837
  weight sum          9585      1948      4621       904       864      2382      1192       693      5819      4463     23725      3552      1386
  precision          0.131     0.131     0.131     0.131     0.131     0.131     0.131     0.131     0.131     0.131     0.131     0.131     0.131

0SmPitch
  mean            213.3805   155.285  188.4788  196.2119  123.2631  170.4827   48.3636  163.2458   153.488   176.912   14.6597   46.7546  229.0404
  std. dev.        109.759  113.4942   89.1689   90.4104  104.6396   79.2893   94.8268  130.0156  104.1178  107.4207   51.7894   86.7873   85.2781
  weight sum          9585      1948      4621       904       864      2382      1192       693      5819      4463     23725      3552      1386
  precision         0.1312    0.1312    0.1312    0.1312    0.1312    0.1312    0.1312    0.1312    0.1312    0.1312    0.1312    0.1312    0.1312

0Melogram(st)
  mean             51.3557   41.4703   50.4808   51.6291   37.3343    48.407   15.0388   34.6088   42.0679    46.671    4.8136   15.4216   54.1306
  std. dev.        16.9062   24.3086   15.3557    13.988   24.8638   16.3656   25.0771   28.2357   23.2509   20.3864   15.4722   24.4196   14.2012
  weight sum          9585      1948      4621       904       864      2382      1192       693      5819      4463     23725      3552      1386
  precision         0.0252    0.0252    0.0252    0.0252    0.0252    0.0252    0.0252    0.0252    0.0252    0.0252    0.0252    0.0252    0.0252

0ZCross
  mean              7.0158    2.3719    4.9388    3.6365    1.9347    3.5777    2.1723    4.0706    2.3943    4.0484    0.2298    3.8297    3.8272
  std. dev.         4.5915    2.0915    3.1975    2.1699    2.0238    3.1538    4.7912    3.2995    2.0665    2.8985    1.0464    7.5217    2.8121
  weight sum          9585      1948      4621       904       864      2382      1192       693      5819      4463     23725      3552      1386
  precision         1.1633    1.1633    1.1633    1.1633    1.1633    1.1633    1.1633    1.1633    1.1633    1.1633    1.1633    1.1633    1.1633

0F1(Hz)
  mean            678.6538  372.4682  462.8688   503.296  388.2589  360.2165  114.5536  474.0815  405.3603   483.672   52.7198  193.5011  496.5514
  std. dev.       272.3175  237.0685  146.9719  171.4896  277.0199    146.32  220.5966  276.5481  235.9014  226.1449  165.2455  278.8593  309.2602
  weight sum          9585      1948      4621       904       864      2382      1192       693      5819      4463     23725      3552      1386
  precision         0.3642    0.3642    0.3642    0.3642    0.3642    0.3642    0.3642    0.3642    0.3642    0.3642    0.3642    0.3642    0.3642

0F2(Hz)
  mean           1441.2512  1312.066 1781.0424 1445.0356 1180.6948 1961.8033  380.8278 1491.8278 1319.6705 1142.8991  165.0381  625.4346 1050.0402
  std. dev.       459.1186  750.4882  532.5896  392.4853  774.0059  680.1225  739.8962  786.7483  710.5727  536.7971  511.9376  864.0821  432.2873
  weight sum          9585      1948      4621       904       864      2382      1192       693      5819      4463     23725      3552      1386
  precision         0.4431    0.4431    0.4431    0.4431    0.4431    0.4431    0.4431    0.4431    0.4431    0.4431    0.4431    0.4431    0.4431

0F3(Hz)
  mean           2651.2499  2207.248 2615.4812 2794.3463 2012.5832 2642.4014  642.0776 2408.5833 2275.5116 2498.5172  281.5612 1046.7402 2665.1247
  std. dev.       819.3519 1206.6787  792.6591  668.5359  1307.812   937.499 1204.7274 1244.9881 1199.2132 1024.1918  858.2468 1432.8357  803.6971
  weight sum          9585      1948      4621       904       864      2382      1192       693      5819      4463     23725      3552      1386
  precision         0.6602    0.6602    0.6602    0.6602    0.6602    0.6602    0.6602    0.6602    0.6602    0.6602    0.6602    0.6602    0.6602

0F4(Hz)
  mean           3075.9587 2646.3634 3152.5297 3240.3794 2403.3745 3143.1187  755.2455 2653.2823   2620.19 2876.7808  338.5649 1189.8662 3052.6473
  std. dev.       936.7556 1415.4829  921.2174  751.3128 1526.7311 1073.3319 1422.1462 1357.6845 1363.8191 1161.8705 1029.6698 1625.7443  827.1813
  weight sum          9585      1948      4621       904       864      2382      1192       693      5819      4463     23725      3552      1386
  precision         0.6775    0.6775    0.6775    0.6775    0.6775    0.6775    0.6775    0.6775    0.6775    0.6775    0.6775    0.6775    0.6775

1Int(dB)
  mean             -4.2995  -12.2908   -5.2154   -8.2151  -14.9663    -8.745  -23.3866  -11.5623  -12.8596    -8.205  -48.5185  -21.1024   -5.0964
  std. dev.         9.6425   10.5869     8.061    6.8402    8.8198    8.4284   10.3657    8.2124   10.4236   12.2015   15.9242    6.7883    7.5403
  weight sum          9585      1948      4621       904       864      2382      1192       693      5819      4463     23725      3552      1386
  precision         0.1043    0.1043    0.1043    0.1043    0.1043    0.1043    0.1043    0.1043    0.1043    0.1043    0.1043    0.1043    0.1043

1Pitch(Hz)
  mean            215.2171  161.0025  190.6854  196.7149  132.7243  173.6379   67.3642  184.4111  158.7698  178.3171   15.7163   51.9214   230.256
  std. dev.       108.2936  109.8138   87.4198   89.5099  107.1636   76.0641  106.8951  119.6061  102.0568  105.1185   54.8001   90.3009   83.5916
  weight sum          9585      1948      4621       904       864      2382      1192       693      5819      4463     23725      3552      1386
  precision         0.1303    0.1303    0.1303    0.1303    0.1303    0.1303    0.1303    0.1303    0.1303    0.1303    0.1303    0.1303    0.1303

1RawPitch
  mean             205.011  148.5952  186.0468   190.776  107.6938  166.4491   44.7917  150.5995  144.2556  172.3446   12.8466   29.9128   221.377
  std. dev.       114.2273  115.2511   94.2836   97.6689  102.8608   82.7406   91.3213  123.0117  108.6284   111.886   49.2575   71.5219   91.8259
  weight sum          9585      1948      4621       904       864      2382      1192       693      5819      4463     23725      3552      1386
  precision          0.131     0.131     0.131     0.131     0.131     0.131     0.131     0.131     0.131     0.131     0.131     0.131     0.131

1SmPitch
  mean             213.279  156.3345  189.2421   196.165  123.0119  171.0176    56.486   162.621   154.549  176.2127   14.1431   44.8005   229.966
  std. dev.       109.7994  112.6809   88.6477   90.4791  104.4081   78.8205  101.1877   130.198  103.8887  107.2818   50.9143   85.3576   83.6261
  weight sum          9585      1948      4621       904       864      2382      1192       693      5819      4463     23725      3552      1386
  precision         0.1312    0.1312    0.1312    0.1312    0.1312    0.1312    0.1312    0.1312    0.1312    0.1312    0.1312    0.1312    0.1312

1Melogram(st)
  mean             51.3572   41.7583   50.6147   51.6188   37.2513   48.6212   16.7622   34.5176   42.3474   46.5702     4.671   14.8861   54.4863
  std. dev.        16.8758   24.1126   15.1287   13.9964    24.928   16.0378   25.9926   28.3225    23.094    20.439   15.2683   24.1901   13.4335
  weight sum          9585      1948      4621       904       864      2382      1192       693      5819      4463     23725      3552      1386
  precision         0.0252    0.0252    0.0252    0.0252    0.0252    0.0252    0.0252    0.0252    0.0252    0.0252    0.0252    0.0252    0.0252

1ZCross
  mean              6.9994    2.4227    4.9156     3.706    1.9401    3.5967    2.2894    4.0504    2.4113    4.0424    0.2221    3.8307    3.8515
  std. dev.         4.6018    2.0849    3.2034    2.1752    2.0364    3.1513    4.7776    3.2828     2.055    2.9091    1.0405    7.5333    2.7932
  weight sum          9585      1948      4621       904       864      2382      1192       693      5819      4463     23725      3552      1386
  precision         1.1633    1.1633    1.1633    1.1633    1.1633    1.1633    1.1633    1.1633    1.1633    1.1633    1.1633    1.1633    1.1633

1F1(Hz)
  mean             683.313  372.4935  466.9426  504.4024  381.3156  363.5983  121.9541   471.637  403.8074  486.8876   50.9727   181.017  501.4313
  std. dev.       268.9093  235.5015  141.0764  171.5549  276.5899  141.2908  225.5703  278.9021  233.6728  224.2029  162.6135  272.8673  304.2361
  weight sum          9585      1948      4621       904       864      2382      1192       693      5819      4463     23725      3552      1386
  precision         0.3642    0.3642    0.3642    0.3642    0.3642    0.3642    0.3642    0.3642    0.3642    0.3642    0.3642    0.3642    0.3642

1F2(Hz)
  mean           1445.9618 1312.5688 1800.7234 1445.0542 1172.6362 1991.3969   401.452 1476.3315 1323.0179 1143.6165  159.6945   589.123 1063.4653
  std. dev.       449.7706  745.4148  507.5736   394.779  779.2046  651.9928  750.1028   792.788  707.8157  529.3781  504.4835  851.3754  414.3404
  weight sum          9585      1948      4621       904       864      2382      1192       693      5819      4463     23725      3552      1386
  precision         0.4431    0.4431    0.4431    0.4431    0.4431    0.4431    0.4431    0.4431    0.4431    0.4431    0.4431    0.4431    0.4431

1F3(Hz)
  mean           2661.7097 2208.9124  2638.722 2793.5531 1994.0357 2676.1136  681.1953 2390.8763 2281.1469 2509.8227  272.2945  984.2536  2701.015
  std. dev.       804.8708 1199.4463  758.2975  675.3818 1314.2962  900.3451 1228.6209 1256.7222  1195.795 1013.4676  845.4957 1410.2971  745.1651
  weight sum          9585      1948      4621       904       864      2382      1192       693      5819      4463     23725      3552      1386
  precision         0.6602    0.6602    0.6602    0.6602    0.6602    0.6602    0.6602    0.6602    0.6602    0.6602    0.6602    0.6602    0.6602

1F4(Hz)
  mean           3086.6146 2654.3032  3179.034 3237.6627 2385.6763 3179.5458  803.4404 2636.0681 2626.9368  2888.156  327.6245 1121.6815 3093.8479
  std. dev.       919.3099 1409.2849  877.8457  758.6904 1536.6667  1026.953  1453.181 1372.4355 1360.5901 1148.0627 1014.9155 1604.3298  750.1771
  weight sum          9585      1948      4621       904       864      2382      1192       693      5819      4463     23725      3552      1386
  precision         0.6775    0.6775    0.6775    0.6775    0.6775    0.6775    0.6775    0.6775    0.6775    0.6775    0.6775    0.6775    0.6775





=== Stratified cross-validation ===

Correctly Classified Instances       32353               52.9215 %
Incorrectly Classified Instances     28781               47.0785 %
Kappa statistic                          0.4053
K&B Relative Info Score            2383752.6672 %
K&B Information Score                68977.5203 bits      1.1283 bits/instance
Class complexity | order 0          176878.6521 bits      2.8933 bits/instance
Class complexity | scheme           710953.3457 bits     11.6294 bits/instance
Complexity improvement     (Sf)    -534074.6936 bits     -8.7361 bits/instance
Mean absolute error                      0.075 
Root mean squared error                  0.2351
Relative absolute error                 61.1512 %
Root relative squared error             94.9284 %
Coverage of cases (0.95 level)          66.0942 %
Mean rel. region size (0.95 level)      16.9549 %
Total Number of Instances            61134     


=== Detailed Accuracy By Class ===

                 TP Rate  FP Rate  Precision  Recall   F-Measure  MCC      ROC Area  PRC Area  Class
                 0,502    0,045    0,673      0,502    0,575      0,517    0,885     0,622     a
                 0,003    0,002    0,038      0,003    0,005      0,002    0,724     0,058     b
                 0,659    0,121    0,308      0,659    0,420      0,386    0,866     0,402     e
                 0,396    0,115    0,049      0,396    0,088      0,105    0,813     0,046     d
                 0,017    0,007    0,035      0,017    0,023      0,015    0,734     0,030     f
                 0,326    0,034    0,281      0,326    0,302      0,272    0,861     0,280     i
                 0,092    0,010    0,150      0,092    0,114      0,104    0,835     0,091     k
                 0,068    0,001    0,373      0,068    0,115      0,155    0,745     0,075     j
                 0,077    0,037    0,180      0,077    0,108      0,060    0,749     0,181     l
                 0,003    0,002    0,131      0,003    0,006      0,009    0,781     0,194     o
                 0,896    0,136    0,806      0,896    0,849      0,748    0,953     0,950     0
                 0,244    0,018    0,459      0,244    0,319      0,306    0,883     0,363     s
                 0,423    0,020    0,324      0,423    0,367      0,354    0,873     0,356     u
Weighted Avg.    0,529    0,078    0,523      0,529    0,506      0,449    0,877     0,574     


=== Confusion Matrix ===

     a     b     c     d     e     f     g     h     i     j     k     l     m   <-- classified as
  4814    25  1579  1671    55   156    75    37   316    41   490    95   231 |     a = a
   136     5   426   400    22   265    40     1   135     3   341    57   117 |     b = b
   469    29  3047   328    18   249    59    10   140     6   173    48    45 |     c = e
   114     0   259   358     0    48     0     0    53     0    34    15    23 |     d = d
    61     0   146   208    15    94    28     1    73     0   204    31     3 |     e = f
   120    16  1112    31    14   777    44     0    97     0   123    45     3 |     f = i
    15    14    37    49    21    37   110     5    68     5   644   172    15 |     g = k
   100     3   193    39     9    55    16    47    64     7   105    22    33 |     h = j
   405    14  1177  1814    78   482   166     1   446     3   905   190   138 |     i = l
   539    11  1182  1214    45    31    26     7   288    13   480    89   538 |     j = o
    99     4   450   651    75   334    82     7   432    10 21267   246    68 |     k = 0
   124     5   107   221    66   209    66    10   276     8  1584   868     8 |     l = s
   153     6   179   279    11    30    19     0    87     3    21    12   586 |     m = u

=== Percent Confusion Matrix ===
a	b	c	d	e	f	g	h	i	j	k	l	m	
50.22	0.26	16.47	17.43	0.57	1.63	0.78	0.39	3.3	0.43	5.11	0.99	2.41	 a = a
6.98	0.26	21.87	20.53	1.13	13.6	2.05	0.05	6.93	0.15	17.51	2.93	6.01	 b = b
10.15	0.63	65.94	7.1	0.39	5.39	1.28	0.22	3.03	0.13	3.74	1.04	0.97	 c = e
12.61	0.0	28.65	39.6	0.0	5.31	0.0	0.0	5.86	0.0	3.76	1.66	2.54	 d = d
7.06	0.0	16.9	24.07	1.74	10.88	3.24	0.12	8.45	0.0	23.61	3.59	0.35	 e = f
5.04	0.67	46.68	1.3	0.59	32.62	1.85	0.0	4.07	0.0	5.16	1.89	0.13	 f = i
1.26	1.17	3.1	4.11	1.76	3.1	9.23	0.42	5.7	0.42	54.03	14.43	1.26	 g = k
14.43	0.43	27.85	5.63	1.3	7.94	2.31	6.78	9.24	1.01	15.15	3.17	4.76	 h = j
6.96	0.24	20.23	31.17	1.34	8.28	2.85	0.02	7.66	0.05	15.55	3.27	2.37	 i = l
12.08	0.25	26.48	27.2	1.01	0.69	0.58	0.16	6.45	0.29	10.76	1.99	12.05	 j = o
0.42	0.02	1.9	2.74	0.32	1.41	0.35	0.03	1.82	0.04	89.64	1.04	0.29	 k = 0
3.49	0.14	3.01	6.22	1.86	5.88	1.86	0.28	7.77	0.23	44.59	24.44	0.23	 l = s
11.04	0.43	12.91	20.13	0.79	2.16	1.37	0.0	6.28	0.22	1.52	0.87	42.28	 m = u
