Timestamp:2014-12-07-10:49:33
Inventario:I1
Intervalo:3ms
Ngramas:3
Clasificador:NaiveBayes
Relation Name:  I1-3ms-3gramas
Num Instances:  61133
Num Attributes: 31

     Name                      Type  Nom  Int Real     Missing      Unique  Dist
   1 0Int(dB)                   Num   0%  10%  90%     0 /  0%     2 /  0%   776 
   2 0Pitch(Hz)                 Num   0%  52%  48%     0 /  0%   559 /  1%  3828 
   3 0RawPitch                  Num   0%  55%  45%     0 /  0%   613 /  1%  3808 
   4 0SmPitch                   Num   0%  53%  47%     0 /  0%   575 /  1%  3802 
   5 0Melogram(st)              Num   0%  49%  51%     0 /  0%   269 /  0%  3285 
   6 0ZCross                    Num   0% 100%   0%     0 /  0%     3 /  0%    50 
   7 0F1(Hz)                    Num   0%  52%  48%     0 /  0%  1075 /  2%  4783 
   8 0F2(Hz)                    Num   0%  52%  48%     0 /  0%  2270 /  4%  6724 
   9 0F3(Hz)                    Num   0%  52%  48%     0 /  0%  1945 /  3%  6241 
  10 0F4(Hz)                    Num   0%  52%  48%     0 /  0%  1922 /  3%  6122 
  11 1Int(dB)                   Num   0%  10%  90%     0 /  0%     2 /  0%   776 
  12 1Pitch(Hz)                 Num   0%  52%  48%     0 /  0%   559 /  1%  3828 
  13 1RawPitch                  Num   0%  55%  45%     0 /  0%   613 /  1%  3808 
  14 1SmPitch                   Num   0%  53%  47%     0 /  0%   575 /  1%  3802 
  15 1Melogram(st)              Num   0%  49%  51%     0 /  0%   269 /  0%  3285 
  16 1ZCross                    Num   0% 100%   0%     0 /  0%     3 /  0%    50 
  17 1F1(Hz)                    Num   0%  52%  48%     0 /  0%  1075 /  2%  4783 
  18 1F2(Hz)                    Num   0%  52%  48%     0 /  0%  2270 /  4%  6724 
  19 1F3(Hz)                    Num   0%  52%  48%     0 /  0%  1945 /  3%  6241 
  20 1F4(Hz)                    Num   0%  52%  48%     0 /  0%  1922 /  3%  6122 
  21 2Int(dB)                   Num   0%  10%  90%     0 /  0%     3 /  0%   777 
  22 2Pitch(Hz)                 Num   0%  52%  48%     0 /  0%   559 /  1%  3828 
  23 2RawPitch                  Num   0%  55%  45%     0 /  0%   613 /  1%  3808 
  24 2SmPitch                   Num   0%  53%  47%     0 /  0%   575 /  1%  3802 
  25 2Melogram(st)              Num   0%  49%  51%     0 /  0%   269 /  0%  3285 
  26 2ZCross                    Num   0% 100%   0%     0 /  0%     3 /  0%    50 
  27 2F1(Hz)                    Num   0%  52%  48%     0 /  0%  1075 /  2%  4783 
  28 2F2(Hz)                    Num   0%  52%  48%     0 /  0%  2270 /  4%  6724 
  29 2F3(Hz)                    Num   0%  52%  48%     0 /  0%  1945 /  3%  6241 
  30 2F4(Hz)                    Num   0%  52%  48%     0 /  0%  1922 /  3%  6122 
  31 class                      Nom 100%   0%   0%     0 /  0%     0 /  0%    13 


Naive Bayes Classifier

                    Class
Attribute               a         b         e         d         f         i         k         j         l         o         0         s         u
                   (0.16)    (0.03)    (0.08)    (0.01)    (0.01)    (0.04)    (0.02)    (0.01)     (0.1)    (0.07)    (0.39)    (0.06)    (0.02)
==================================================================================================================================================
0Int(dB)
  mean              -4.275  -12.8391   -5.3093   -8.4011   -14.929   -8.9731  -25.4502   -11.402  -13.0541    -8.186  -48.3096  -20.7935   -5.5524
  std. dev.         9.6881   10.9656    8.2373    6.7519    8.9669    8.4929   10.5314    8.2337    10.691   12.1008   16.2241    6.9906    8.2298
  weight sum          9585      1948      4621       904       864      2382      1192       693      5819      4463     23724      3552      1386
  precision         0.1044    0.1044    0.1044    0.1044    0.1044    0.1044    0.1044    0.1044    0.1044    0.1044    0.1044    0.1044    0.1044

0Pitch(Hz)
  mean            215.2871  158.9902  188.9058  197.0294  134.5242  172.0827     51.36  185.6769  156.5736  179.2936   16.8261   56.5889  228.1408
  std. dev.       108.2446  111.5792   88.6428   88.9348  107.5224   77.7161   96.0148  118.9825  102.7287  105.6064   56.5383   92.9618   87.2319
  weight sum          9585      1948      4621       904       864      2382      1192       693      5819      4463     23724      3552      1386
  precision         0.1303    0.1303    0.1303    0.1303    0.1303    0.1303    0.1303    0.1303    0.1303    0.1303    0.1303    0.1303    0.1303

0RawPitch
  mean            204.9344  146.3863  184.5166  191.0868  108.9501   164.127   31.9836  151.9769  142.6072  173.0126    13.799   34.8724  219.2103
  std. dev.       114.2089  116.5641   95.0659   97.7905  104.2181    83.993   78.6824  122.9582  108.9671  112.4306   50.8222   77.1131   94.8961
  weight sum          9585      1948      4621       904       864      2382      1192       693      5819      4463     23724      3552      1386
  precision          0.131     0.131     0.131     0.131     0.131     0.131     0.131     0.131     0.131     0.131     0.131     0.131     0.131

0SmPitch
  mean              213.21  154.8208  187.1933   196.273  124.4425  169.4288   42.1318  163.8793  152.5557  177.1572    15.183   49.7439  227.7542
  std. dev.       109.9155  113.9964   90.0322   90.2956  105.0137   80.1407   89.0487  129.8443  104.3727  107.7873    52.654   89.0111   87.2767
  weight sum          9585      1948      4621       904       864      2382      1192       693      5819      4463     23724      3552      1386
  precision         0.1312    0.1312    0.1312    0.1312    0.1312    0.1312    0.1312    0.1312    0.1312    0.1312    0.1312    0.1312    0.1312

0Melogram(st)
  mean             51.2709   41.2774   50.2427    51.643   37.5734   48.1463    13.506   34.8946   41.8762   46.6963     4.955   16.2018   53.5545
  std. dev.        17.0469   24.4581   15.7114   13.9783   24.7697    16.741   24.1242   28.1404   23.3545    20.402   15.6686   24.7638    15.256
  weight sum          9585      1948      4621       904       864      2382      1192       693      5819      4463     23724      3552      1386
  precision         0.0252    0.0252    0.0252    0.0252    0.0252    0.0252    0.0252    0.0252    0.0252    0.0252    0.0252    0.0252    0.0252

0ZCross
  mean              7.0076    2.3403    4.9486     3.585    1.9576    3.5738    2.0279    4.0941    2.4091    4.0411    0.2433    3.8176    3.7945
  std. dev.         4.5938    2.1047    3.2071    2.1652    2.0438    3.2163    4.7522    3.3053    2.1077    2.9298    1.0804    7.4725    2.8295
  weight sum          9585      1948      4621       904       864      2382      1192       693      5819      4463     23724      3552      1386
  precision         1.1633    1.1633    1.1633    1.1633    1.1633    1.1633    1.1633    1.1633    1.1633    1.1633    1.1633    1.1633    1.1633

0F1(Hz)
  mean            673.1337  373.5242  458.5411   502.481  395.5357  356.2706  110.0192  477.1461  408.5365  479.3315   54.3872  206.6688  491.2079
  std. dev.       276.5723  238.3426  152.8966  171.3175  277.2043   151.878  216.6226  273.4354  237.3416  229.0643  167.8352  284.1523  314.7115
  weight sum          9585      1948      4621       904       864      2382      1192       693      5819      4463     23724      3552      1386
  precision         0.3642    0.3642    0.3642    0.3642    0.3642    0.3642    0.3642    0.3642    0.3642    0.3642    0.3642    0.3642    0.3642

0F2(Hz)
  mean           1434.8492 1314.2158 1759.9732 1445.3781 1189.2807 1927.6297  371.9164  1509.944 1321.5062  1139.398  169.8219  664.4778 1035.0423
  std. dev.       470.4865  754.2105  557.1365  390.7301  769.1361  710.1468  737.6699  778.3131  710.6789  546.4539  518.3697  875.5811  450.7523
  weight sum          9585      1948      4621       904       864      2382      1192       693      5819      4463     23724      3552      1386
  precision         0.4431    0.4431    0.4431    0.4431    0.4431    0.4431    0.4431    0.4431    0.4431    0.4431    0.4431    0.4431    0.4431

0F3(Hz)
  mean           2637.8989 2210.1004 2590.6505 2794.8203 2031.3736 2603.7866   622.673 2430.7822 2277.9163 2481.3348  290.0514 1113.7652 2624.5033
  std. dev.       837.7663 1211.2692   826.473  661.6762 1301.0849   977.692 1194.0327 1229.6967 1197.2995 1040.3144  869.7551 1453.1058  861.9955
  weight sum          9585      1948      4621       904       864      2382      1192       693      5819      4463     23724      3552      1386
  precision         0.6602    0.6602    0.6602    0.6602    0.6602    0.6602    0.6602    0.6602    0.6602    0.6602    0.6602    0.6602    0.6602

0F4(Hz)
  mean           3061.8157 2643.1324 3124.7953 3242.3872 2420.8547 3100.6951  728.6433 2674.6916 2623.2676 2858.4583  348.5104 1263.7912 3006.9754
  std. dev.       958.7356 1417.9475  964.1286  743.4558 1516.4414 1123.6536 1402.9622 1338.8897 1361.0793 1181.9837  1042.791 1645.6403  902.9144
  weight sum          9585      1948      4621       904       864      2382      1192       693      5819      4463     23724      3552      1386
  precision         0.6775    0.6775    0.6775    0.6775    0.6775    0.6775    0.6775    0.6775    0.6775    0.6775    0.6775    0.6775    0.6775

1Int(dB)
  mean             -4.2584  -12.5947   -5.2147   -8.3385  -14.9846    -8.825   -24.479  -11.5177  -12.9937   -8.1561  -48.4234   -20.983   -5.2953
  std. dev.         9.6363   10.7736    8.1108    6.7894    8.8593    8.4293    10.404    8.2254    10.541   12.1343   16.0582    6.8383    7.8625
  weight sum          9585      1948      4621       904       864      2382      1192       693      5819      4463     23724      3552      1386
  precision         0.1044    0.1044    0.1044    0.1044    0.1044    0.1044    0.1044    0.1044    0.1044    0.1044    0.1044    0.1044    0.1044

1Pitch(Hz)
  mean             215.424  159.7556  190.0809  196.8632  133.2458  173.0172   58.7123   185.037  157.5416    179.07   16.2544   53.6713   229.415
  std. dev.       108.1379  110.8403   87.8538    89.247  107.2688   76.7882  101.4217  119.2891  102.3964  105.2101   55.6483   91.2431   85.2349
  weight sum          9585      1948      4621       904       864      2382      1192       693      5819      4463     23724      3552      1386
  precision         0.1303    0.1303    0.1303    0.1303    0.1303    0.1303    0.1303    0.1303    0.1303    0.1303    0.1303    0.1303    0.1303

1RawPitch
  mean             205.191  147.2848  185.5537  190.9996  108.1776  165.5748   37.2257  151.0428   143.142  172.9408   13.3299   31.8253  220.5485
  std. dev.       114.0304  115.9925   94.6689   97.8483  103.4633   83.1744   84.0645  123.0714  108.7681  112.1655   50.0219   73.8019   93.0837
  weight sum          9585      1948      4621       904       864      2382      1192       693      5819      4463     23724      3552      1386
  precision          0.131     0.131     0.131     0.131     0.131     0.131     0.131     0.131     0.131     0.131     0.131     0.131     0.131

1SmPitch
  mean            213.3805   155.285  188.4788  196.2119  123.2631  170.4827   48.3636  163.2458   153.488   176.912   14.6603   46.7546  229.0404
  std. dev.        109.759  113.4942   89.1689   90.4104  104.6396   79.2893   94.8268  130.0156  104.1178  107.4207   51.7904   86.7873   85.2781
  weight sum          9585      1948      4621       904       864      2382      1192       693      5819      4463     23724      3552      1386
  precision         0.1312    0.1312    0.1312    0.1312    0.1312    0.1312    0.1312    0.1312    0.1312    0.1312    0.1312    0.1312    0.1312

1Melogram(st)
  mean             51.3557   41.4703   50.4808   51.6291   37.3343    48.407   15.0388   34.6088   42.0679    46.671    4.8138   15.4216   54.1306
  std. dev.        16.9062   24.3086   15.3557    13.988   24.8638   16.3656   25.0771   28.2357   23.2509   20.3864   15.4725   24.4196   14.2012
  weight sum          9585      1948      4621       904       864      2382      1192       693      5819      4463     23724      3552      1386
  precision         0.0252    0.0252    0.0252    0.0252    0.0252    0.0252    0.0252    0.0252    0.0252    0.0252    0.0252    0.0252    0.0252

1ZCross
  mean              7.0158    2.3719    4.9388    3.6365    1.9347    3.5777    2.1723    4.0706    2.3943    4.0484    0.2298    3.8297    3.8272
  std. dev.         4.5915    2.0915    3.1975    2.1699    2.0238    3.1538    4.7912    3.2995    2.0665    2.8985    1.0464    7.5217    2.8121
  weight sum          9585      1948      4621       904       864      2382      1192       693      5819      4463     23724      3552      1386
  precision         1.1633    1.1633    1.1633    1.1633    1.1633    1.1633    1.1633    1.1633    1.1633    1.1633    1.1633    1.1633    1.1633

1F1(Hz)
  mean            678.6538  372.4682  462.8688   503.296  388.2589  360.2165  114.5536  474.0815  405.3603   483.672    52.722  193.5011  496.5514
  std. dev.       272.3175  237.0685  146.9719  171.4896  277.0199    146.32  220.5966  276.5481  235.9014  226.1449  165.2486  278.8593  309.2602
  weight sum          9585      1948      4621       904       864      2382      1192       693      5819      4463     23724      3552      1386
  precision         0.3642    0.3642    0.3642    0.3642    0.3642    0.3642    0.3642    0.3642    0.3642    0.3642    0.3642    0.3642    0.3642

1F2(Hz)
  mean           1441.2512  1312.066 1781.0424 1445.0356 1180.6948 1961.8033  380.8278 1491.8278 1319.6705 1142.8991   165.045  625.4346 1050.0402
  std. dev.       459.1186  750.4882  532.5896  392.4853  774.0059  680.1225  739.8962  786.7483  710.5727  536.7971  511.9472  864.0821  432.2873
  weight sum          9585      1948      4621       904       864      2382      1192       693      5819      4463     23724      3552      1386
  precision         0.4431    0.4431    0.4431    0.4431    0.4431    0.4431    0.4431    0.4431    0.4431    0.4431    0.4431    0.4431    0.4431

1F3(Hz)
  mean           2651.2499  2207.248 2615.4812 2794.3463 2012.5832 2642.4014  642.0776 2408.5833 2275.5116 2498.5172  281.5731 1046.7402 2665.1247
  std. dev.       819.3519 1206.6787  792.6591  668.5359  1307.812   937.499 1204.7274 1244.9881 1199.2132 1024.1918  858.2629 1432.8357  803.6971
  weight sum          9585      1948      4621       904       864      2382      1192       693      5819      4463     23724      3552      1386
  precision         0.6602    0.6602    0.6602    0.6602    0.6602    0.6602    0.6602    0.6602    0.6602    0.6602    0.6602    0.6602    0.6602

1F4(Hz)
  mean           3075.9587 2646.3634 3152.5297 3240.3794 2403.3745 3143.1187  755.2455 2653.2823   2620.19 2876.7808  338.5791 1189.8662 3052.6473
  std. dev.       936.7556 1415.4829  921.2174  751.3128 1526.7311 1073.3319 1422.1462 1357.6845 1363.8191 1161.8705 1029.6891 1625.7443  827.1813
  weight sum          9585      1948      4621       904       864      2382      1192       693      5819      4463     23724      3552      1386
  precision         0.6775    0.6775    0.6775    0.6775    0.6775    0.6775    0.6775    0.6775    0.6775    0.6775    0.6775    0.6775    0.6775

2Int(dB)
  mean             -4.2995  -12.2908   -5.2154   -8.2151  -14.9663    -8.745  -23.3866  -11.5623  -12.8596    -8.205  -48.5187  -21.1024   -5.0964
  std. dev.         9.6425   10.5869     8.061    6.8402    8.8198    8.4284   10.3657    8.2124   10.4236   12.2015   15.9245    6.7883    7.5403
  weight sum          9585      1948      4621       904       864      2382      1192       693      5819      4463     23724      3552      1386
  precision         0.1043    0.1043    0.1043    0.1043    0.1043    0.1043    0.1043    0.1043    0.1043    0.1043    0.1043    0.1043    0.1043

2Pitch(Hz)
  mean            215.2171  161.0025  190.6854  196.7149  132.7243  173.6379   67.3642  184.4111  158.7698  178.3171   15.7169   51.9214   230.256
  std. dev.       108.2936  109.8138   87.4198   89.5099  107.1636   76.0641  106.8951  119.6061  102.0568  105.1185   54.8012   90.3009   83.5916
  weight sum          9585      1948      4621       904       864      2382      1192       693      5819      4463     23724      3552      1386
  precision         0.1303    0.1303    0.1303    0.1303    0.1303    0.1303    0.1303    0.1303    0.1303    0.1303    0.1303    0.1303    0.1303

2RawPitch
  mean             205.011  148.5952  186.0468   190.776  107.6938  166.4491   44.7917  150.5995  144.2556  172.3446   12.8471   29.9128   221.377
  std. dev.       114.2273  115.2511   94.2836   97.6689  102.8608   82.7406   91.3213  123.0117  108.6284   111.886   49.2585   71.5219   91.8259
  weight sum          9585      1948      4621       904       864      2382      1192       693      5819      4463     23724      3552      1386
  precision          0.131     0.131     0.131     0.131     0.131     0.131     0.131     0.131     0.131     0.131     0.131     0.131     0.131

2SmPitch
  mean             213.279  156.3345  189.2421   196.165  123.0119  171.0176    56.486   162.621   154.549  176.2127   14.1437   44.8005   229.966
  std. dev.       109.7994  112.6809   88.6477   90.4791  104.4081   78.8205  101.1877   130.198  103.8887  107.2818   50.9153   85.3576   83.6261
  weight sum          9585      1948      4621       904       864      2382      1192       693      5819      4463     23724      3552      1386
  precision         0.1312    0.1312    0.1312    0.1312    0.1312    0.1312    0.1312    0.1312    0.1312    0.1312    0.1312    0.1312    0.1312

2Melogram(st)
  mean             51.3572   41.7583   50.6147   51.6188   37.2513   48.6212   16.7622   34.5176   42.3474   46.5702    4.6712   14.8861   54.4863
  std. dev.        16.8758   24.1126   15.1287   13.9964    24.928   16.0378   25.9926   28.3225    23.094    20.439   15.2685   24.1901   13.4335
  weight sum          9585      1948      4621       904       864      2382      1192       693      5819      4463     23724      3552      1386
  precision         0.0252    0.0252    0.0252    0.0252    0.0252    0.0252    0.0252    0.0252    0.0252    0.0252    0.0252    0.0252    0.0252

2ZCross
  mean              6.9994    2.4227    4.9156     3.706    1.9401    3.5967    2.2894    4.0504    2.4113    4.0424    0.2221    3.8307    3.8515
  std. dev.         4.6018    2.0849    3.2034    2.1752    2.0364    3.1513    4.7776    3.2828     2.055    2.9091    1.0405    7.5333    2.7932
  weight sum          9585      1948      4621       904       864      2382      1192       693      5819      4463     23724      3552      1386
  precision         1.1633    1.1633    1.1633    1.1633    1.1633    1.1633    1.1633    1.1633    1.1633    1.1633    1.1633    1.1633    1.1633

2F1(Hz)
  mean             683.313  372.4935  466.9426  504.4024  381.3156  363.5983  121.9541   471.637  403.8074  486.8876   50.9748   181.017  501.4313
  std. dev.       268.9093  235.5015  141.0764  171.5549  276.5899  141.2908  225.5703  278.9021  233.6728  224.2029  162.6166  272.8673  304.2361
  weight sum          9585      1948      4621       904       864      2382      1192       693      5819      4463     23724      3552      1386
  precision         0.3642    0.3642    0.3642    0.3642    0.3642    0.3642    0.3642    0.3642    0.3642    0.3642    0.3642    0.3642    0.3642

2F2(Hz)
  mean           1445.9618 1312.5688 1800.7234 1445.0542 1172.6362 1991.3969   401.452 1476.3315 1323.0179 1143.6165  159.7012   589.123 1063.4653
  std. dev.       449.7706  745.4148  507.5736   394.779  779.2046  651.9928  750.1028   792.788  707.8157  529.3781  504.4931  851.3754  414.3404
  weight sum          9585      1948      4621       904       864      2382      1192       693      5819      4463     23724      3552      1386
  precision         0.4431    0.4431    0.4431    0.4431    0.4431    0.4431    0.4431    0.4431    0.4431    0.4431    0.4431    0.4431    0.4431

2F3(Hz)
  mean           2661.7097 2208.9124  2638.722 2793.5531 1994.0357 2676.1136  681.1953 2390.8763 2281.1469 2509.8227   272.306  984.2536  2701.015
  std. dev.       804.8708 1199.4463  758.2975  675.3818 1314.2962  900.3451 1228.6209 1256.7222  1195.795 1013.4676  845.5117 1410.2971  745.1651
  weight sum          9585      1948      4621       904       864      2382      1192       693      5819      4463     23724      3552      1386
  precision         0.6602    0.6602    0.6602    0.6602    0.6602    0.6602    0.6602    0.6602    0.6602    0.6602    0.6602    0.6602    0.6602

2F4(Hz)
  mean           3086.6146 2654.3032  3179.034 3237.6627 2385.6763 3179.5458  803.4404 2636.0681 2626.9368  2888.156  327.6383 1121.6815 3093.8479
  std. dev.       919.3099 1409.2849  877.8457  758.6904 1536.6667  1026.953  1453.181 1372.4355 1360.5901 1148.0627 1014.9346 1604.3298  750.1771
  weight sum          9585      1948      4621       904       864      2382      1192       693      5819      4463     23724      3552      1386
  precision         0.6775    0.6775    0.6775    0.6775    0.6775    0.6775    0.6775    0.6775    0.6775    0.6775    0.6775    0.6775    0.6775





=== Stratified cross-validation ===

Correctly Classified Instances       31630               51.7396 %
Incorrectly Classified Instances     29503               48.2604 %
Kappa statistic                          0.3948
K&B Relative Info Score            2302511.5311 %
K&B Information Score                66627.2278 bits      1.0899 bits/instance
Class complexity | order 0          176877.2865 bits      2.8933 bits/instance
Class complexity | scheme          1036189.6221 bits     16.9498 bits/instance
Complexity improvement     (Sf)    -859312.3355 bits    -14.0564 bits/instance
Mean absolute error                      0.0755
Root mean squared error                  0.2468
Relative absolute error                 61.5066 %
Root relative squared error             99.6334 %
Coverage of cases (0.95 level)          60.7871 %
Mean rel. region size (0.95 level)      13.6546 %
Total Number of Instances            61133     


=== Detailed Accuracy By Class ===

                 TP Rate  FP Rate  Precision  Recall   F-Measure  MCC      ROC Area  PRC Area  Class
                 0,466    0,040    0,685      0,466    0,555      0,502    0,882     0,619     a
                 0,003    0,003    0,028      0,003    0,005      -0,001   0,723     0,058     b
                 0,576    0,087    0,352      0,576    0,437      0,393    0,864     0,396     e
                 0,558    0,163    0,049      0,558    0,090      0,127    0,815     0,048     d
                 0,043    0,015    0,038      0,043    0,040      0,026    0,735     0,030     f
                 0,360    0,034    0,301      0,360    0,328      0,299    0,861     0,271     i
                 0,140    0,015    0,160      0,140    0,150      0,134    0,839     0,094     k
                 0,091    0,002    0,339      0,091    0,143      0,171    0,751     0,080     j
                 0,058    0,027    0,183      0,058    0,088      0,053    0,746     0,180     l
                 0,002    0,001    0,118      0,002    0,004      0,006    0,780     0,187     o
                 0,895    0,133    0,810      0,895    0,850      0,749    0,952     0,949     0
                 0,204    0,015    0,449      0,204    0,280      0,275    0,881     0,351     s
                 0,414    0,020    0,328      0,414    0,366      0,352    0,870     0,350     u
Weighted Avg.    0,517    0,073    0,529      0,517    0,502      0,447    0,876     0,571     


=== Confusion Matrix ===

     a     b     c     d     e     f     g     h     i     j     k     l     m   <-- classified as
  4469    29  1321  2246   125   170    91    54   233    28   481    88   250 |     a = a
   123     5   224   618    67   281    49     6    91     1   338    47    98 |     b = b
   434    35  2660   717    75   261    68    14   103     4   171    38    41 |     c = e
    94     0   137   504     1    33     0     0    46     0    33    16    40 |     d = d
    58     0    84   282    37    86    30     3    55     0   200    24     5 |     e = f
   120    25   962    86    54   857    51     1    66     0   121    36     3 |     f = i
    16    16    28    52    29    41   167     6    53     2   641   131    10 |     g = k
    92     3   155    74    20    64    14    63    44     2   103    21    38 |     h = j
   341    15   614  2527   165   451   185     1   339     8   896   161   116 |     i = l
   478    29   858  1674    84    30    30     7   213     8   472    82   498 |     j = o
    62    10   309   885   166   337    86    10   329     8 21223   231    68 |     k = 0
   112     4    75   296   128   213   246    21   207     4  1513   724     9 |     l = s
   127     7   122   375    19    27    25     0    72     3    23    12   574 |     m = u

=== Percent Confusion Matrix ===
a	b	c	d	e	f	g	h	i	j	k	l	m	
46.62	0.3	13.78	23.43	1.3	1.77	0.95	0.56	2.43	0.29	5.02	0.92	2.61	 a = a
6.31	0.26	11.5	31.72	3.44	14.43	2.52	0.31	4.67	0.05	17.35	2.41	5.03	 b = b
9.39	0.76	57.56	15.52	1.62	5.65	1.47	0.3	2.23	0.09	3.7	0.82	0.89	 c = e
10.4	0.0	15.15	55.75	0.11	3.65	0.0	0.0	5.09	0.0	3.65	1.77	4.42	 d = d
6.71	0.0	9.72	32.64	4.28	9.95	3.47	0.35	6.37	0.0	23.15	2.78	0.58	 e = f
5.04	1.05	40.39	3.61	2.27	35.98	2.14	0.04	2.77	0.0	5.08	1.51	0.13	 f = i
1.34	1.34	2.35	4.36	2.43	3.44	14.01	0.5	4.45	0.17	53.78	10.99	0.84	 g = k
13.28	0.43	22.37	10.68	2.89	9.24	2.02	9.09	6.35	0.29	14.86	3.03	5.48	 h = j
5.86	0.26	10.55	43.43	2.84	7.75	3.18	0.02	5.83	0.14	15.4	2.77	1.99	 i = l
10.71	0.65	19.22	37.51	1.88	0.67	0.67	0.16	4.77	0.18	10.58	1.84	11.16	 j = o
0.26	0.04	1.3	3.73	0.7	1.42	0.36	0.04	1.39	0.03	89.46	0.97	0.29	 k = 0
3.15	0.11	2.11	8.33	3.6	6.0	6.93	0.59	5.83	0.11	42.6	20.38	0.25	 l = s
9.16	0.51	8.8	27.06	1.37	1.95	1.8	0.0	5.19	0.22	1.66	0.87	41.41	 m = u
