Timestamp:2014-12-07-10:50:12
Inventario:I1
Intervalo:3ms
Ngramas:5
Clasificador:NaiveBayes
Relation Name:  I1-3ms-5gramas
Num Instances:  61131
Num Attributes: 51

     Name                      Type  Nom  Int Real     Missing      Unique  Dist
   1 0Int(dB)                   Num   0%  10%  90%     0 /  0%     2 /  0%   776 
   2 0Pitch(Hz)                 Num   0%  52%  48%     0 /  0%   559 /  1%  3828 
   3 0RawPitch                  Num   0%  55%  45%     0 /  0%   613 /  1%  3808 
   4 0SmPitch                   Num   0%  53%  47%     0 /  0%   575 /  1%  3802 
   5 0Melogram(st)              Num   0%  49%  51%     0 /  0%   269 /  0%  3285 
   6 0ZCross                    Num   0% 100%   0%     0 /  0%     3 /  0%    50 
   7 0F1(Hz)                    Num   0%  52%  48%     0 /  0%  1075 /  2%  4783 
   8 0F2(Hz)                    Num   0%  52%  48%     0 /  0%  2270 /  4%  6724 
   9 0F3(Hz)                    Num   0%  52%  48%     0 /  0%  1945 /  3%  6241 
  10 0F4(Hz)                    Num   0%  52%  48%     0 /  0%  1922 /  3%  6122 
  11 1Int(dB)                   Num   0%  10%  90%     0 /  0%     2 /  0%   776 
  12 1Pitch(Hz)                 Num   0%  52%  48%     0 /  0%   559 /  1%  3828 
  13 1RawPitch                  Num   0%  55%  45%     0 /  0%   613 /  1%  3808 
  14 1SmPitch                   Num   0%  53%  47%     0 /  0%   575 /  1%  3802 
  15 1Melogram(st)              Num   0%  49%  51%     0 /  0%   269 /  0%  3285 
  16 1ZCross                    Num   0% 100%   0%     0 /  0%     3 /  0%    50 
  17 1F1(Hz)                    Num   0%  52%  48%     0 /  0%  1075 /  2%  4783 
  18 1F2(Hz)                    Num   0%  52%  48%     0 /  0%  2270 /  4%  6724 
  19 1F3(Hz)                    Num   0%  52%  48%     0 /  0%  1945 /  3%  6241 
  20 1F4(Hz)                    Num   0%  52%  48%     0 /  0%  1922 /  3%  6122 
  21 2Int(dB)                   Num   0%  10%  90%     0 /  0%     2 /  0%   776 
  22 2Pitch(Hz)                 Num   0%  52%  48%     0 /  0%   559 /  1%  3828 
  23 2RawPitch                  Num   0%  55%  45%     0 /  0%   613 /  1%  3808 
  24 2SmPitch                   Num   0%  53%  47%     0 /  0%   575 /  1%  3802 
  25 2Melogram(st)              Num   0%  49%  51%     0 /  0%   269 /  0%  3285 
  26 2ZCross                    Num   0% 100%   0%     0 /  0%     3 /  0%    50 
  27 2F1(Hz)                    Num   0%  52%  48%     0 /  0%  1075 /  2%  4783 
  28 2F2(Hz)                    Num   0%  52%  48%     0 /  0%  2270 /  4%  6724 
  29 2F3(Hz)                    Num   0%  52%  48%     0 /  0%  1945 /  3%  6241 
  30 2F4(Hz)                    Num   0%  52%  48%     0 /  0%  1922 /  3%  6122 
  31 3Int(dB)                   Num   0%  10%  90%     0 /  0%     2 /  0%   776 
  32 3Pitch(Hz)                 Num   0%  52%  48%     0 /  0%   559 /  1%  3828 
  33 3RawPitch                  Num   0%  55%  45%     0 /  0%   613 /  1%  3808 
  34 3SmPitch                   Num   0%  53%  47%     0 /  0%   575 /  1%  3802 
  35 3Melogram(st)              Num   0%  49%  51%     0 /  0%   269 /  0%  3285 
  36 3ZCross                    Num   0% 100%   0%     0 /  0%     3 /  0%    50 
  37 3F1(Hz)                    Num   0%  52%  48%     0 /  0%  1075 /  2%  4783 
  38 3F2(Hz)                    Num   0%  52%  48%     0 /  0%  2270 /  4%  6724 
  39 3F3(Hz)                    Num   0%  52%  48%     0 /  0%  1945 /  3%  6241 
  40 3F4(Hz)                    Num   0%  52%  48%     0 /  0%  1922 /  3%  6122 
  41 4Int(dB)                   Num   0%  10%  90%     0 /  0%     3 /  0%   777 
  42 4Pitch(Hz)                 Num   0%  52%  48%     0 /  0%   559 /  1%  3828 
  43 4RawPitch                  Num   0%  55%  45%     0 /  0%   613 /  1%  3808 
  44 4SmPitch                   Num   0%  53%  47%     0 /  0%   575 /  1%  3802 
  45 4Melogram(st)              Num   0%  49%  51%     0 /  0%   269 /  0%  3285 
  46 4ZCross                    Num   0% 100%   0%     0 /  0%     3 /  0%    50 
  47 4F1(Hz)                    Num   0%  52%  48%     0 /  0%  1075 /  2%  4783 
  48 4F2(Hz)                    Num   0%  52%  48%     0 /  0%  2270 /  4%  6724 
  49 4F3(Hz)                    Num   0%  52%  48%     0 /  0%  1945 /  3%  6241 
  50 4F4(Hz)                    Num   0%  52%  48%     0 /  0%  1922 /  3%  6122 
  51 class                      Nom 100%   0%   0%     0 /  0%     0 /  0%    13 


Naive Bayes Classifier

                    Class
Attribute               a         b         e         d         f         i         k         j         l         o         0         s         u
                   (0.16)    (0.03)    (0.08)    (0.01)    (0.01)    (0.04)    (0.02)    (0.01)     (0.1)    (0.07)    (0.39)    (0.06)    (0.02)
==================================================================================================================================================
0Int(dB)
  mean             -4.4631  -13.1152   -5.7241   -8.3407  -14.6126   -9.4261  -27.1218  -11.0174  -12.9739   -8.4226    -48.04  -20.2672   -6.2108
  std. dev.         9.9613   11.3516    8.6737    6.6698    9.2915    8.7661   10.9324    8.2268   11.0364   12.1005    16.606    7.4879    9.0317
  weight sum          9585      1948      4621       904       864      2382      1192       693      5819      4463     23722      3552      1386
  precision         0.1044    0.1044    0.1044    0.1044    0.1044    0.1044    0.1044    0.1044    0.1044    0.1044    0.1044    0.1044    0.1044

0Pitch(Hz)
  mean            214.0682  158.8832  185.9586   197.432  137.4946  168.4152   42.2602  187.6908  155.8782  178.4602   17.8444   65.0495  224.0701
  std. dev.       109.2702  112.4924   90.1831   88.2021  108.1126   80.7025   87.6165  118.0451  103.2599  106.9431   58.0865   97.4559   92.7797
  weight sum          9585      1948      4621       904       864      2382      1192       693      5819      4463     23722      3552      1386
  precision         0.1303    0.1303    0.1303    0.1303    0.1303    0.1303    0.1303    0.1303    0.1303    0.1303    0.1303    0.1303    0.1303

0RawPitch
  mean            203.5855  146.1472  181.3123  191.6227  111.9267   159.707   25.9277  156.2556  142.6531  171.3618   14.7579   43.2736  215.2186
  std. dev.       115.1157  116.9224    96.693   97.2825  105.4368   86.3426   71.3668  122.0407  109.1977  113.5595   52.6837   84.7573   99.6003
  weight sum          9585      1948      4621       904       864      2382      1192       693      5819      4463     23722      3552      1386
  precision          0.131     0.131     0.131     0.131     0.131     0.131     0.131     0.131     0.131     0.131     0.131     0.131     0.131

0SmPitch
  mean            211.8753  155.5195  183.6469  196.4308  127.3698  165.7532    35.077  166.9509  152.0674  176.0047   16.2046   58.0526  223.7517
  std. dev.        111.039   114.372   92.0569   89.9928  105.9307   82.6657   81.1863  129.0112  104.7156  109.2519    54.355   94.2902   92.6385
  weight sum          9585      1948      4621       904       864      2382      1192       693      5819      4463     23722      3552      1386
  precision         0.1312    0.1312    0.1312    0.1312    0.1312    0.1312    0.1312    0.1312    0.1312    0.1312    0.1312    0.1312    0.1312

0Melogram(st)
  mean             50.8757   41.4956   49.4669   51.5903   38.0803   47.1058   11.6527   35.7185   41.8537   46.3882    5.1991   18.5061   52.2659
  std. dev.        17.6121   24.3973   16.7812   14.1577     24.59   17.9805   22.7555   27.8826   23.3556   20.7426   15.9975   25.6623   17.2831
  weight sum          9585      1948      4621       904       864      2382      1192       693      5819      4463     23722      3552      1386
  precision         0.0252    0.0252    0.0252    0.0252    0.0252    0.0252    0.0252    0.0252    0.0252    0.0252    0.0252    0.0252    0.0252

0ZCross
  mean              6.9462    2.3289    4.9169     3.558    2.0505    3.5381    1.6444    4.1847    2.5224    4.0022    0.2872    3.7521     3.713
  std. dev.         4.6226    2.1747    3.3248    2.1597    2.1188    3.3145    4.3449    3.3475    2.2613     3.118    1.2752    7.2244    2.8833
  weight sum          9585      1948      4621       904       864      2382      1192       693      5819      4463     23722      3552      1386
  precision         1.1633    1.1633    1.1633    1.1633    1.1633    1.1633    1.1633    1.1633    1.1633    1.1633    1.1633    1.1633    1.1633

0F1(Hz)
  mean            659.2239  378.8006  448.4125  501.9113  411.1787  346.5478  108.7093  485.7113  418.4815  467.7058   58.0026  235.2239  478.6311
  std. dev.       287.4054  239.9247   166.292  169.2907  274.3057  164.1875  214.7137  265.1719  239.0569  236.8053  173.4388  292.9934    325.23
  weight sum          9585      1948      4621       904       864      2382      1192       693      5819      4463     23722      3552      1386
  precision         0.3642    0.3642    0.3642    0.3642    0.3642    0.3642    0.3642    0.3642    0.3642    0.3642    0.3642    0.3642    0.3642

0F2(Hz)
  mean           1416.0808 1326.7322  1711.214 1449.8901  1217.474 1845.7313  375.5341 1553.4088 1333.6755 1125.8145  180.0747  749.1604 1005.5905
  std. dev.       499.3086  756.1536  608.9906  381.5427  757.4226   773.683  745.7135  752.9486  705.2879  570.3838  532.2925  893.2727   487.338
  weight sum          9585      1948      4621       904       864      2382      1192       693      5819      4463     23722      3552      1386
  precision         0.4431    0.4431    0.4431    0.4431    0.4431    0.4431    0.4431    0.4431    0.4431    0.4431    0.4431    0.4431    0.4431

0F3(Hz)
  mean           2601.1736 2230.2399 2531.3885 2802.8452  2080.908 2511.4671  620.8059 2485.9257 2298.0407 2433.4936  307.8348 1259.3629 2536.8144
  std. dev.       886.6702 1210.9903   899.016   635.283 1279.4794 1065.3826 1193.0419 1185.9761  1183.382 1084.1339  893.0846  1484.729  969.7241
  weight sum          9585      1948      4621       904       864      2382      1192       693      5819      4463     23722      3552      1386
  precision         0.6602    0.6602    0.6602    0.6602    0.6602    0.6602    0.6602    0.6602    0.6602    0.6602    0.6602    0.6602    0.6602

0F4(Hz)
  mean           3020.7731 2653.8723 3059.3156  3254.251 2472.1615 2996.5825  726.2743 2733.0381 2646.2895 2805.3088  369.3315 1426.2551 2908.3713
  std. dev.      1016.6813 1411.1213 1056.7202  711.3877 1487.4598  1233.239 1402.0475 1288.0752 1343.4341 1235.5521 1069.3144 1677.8219 1040.3379
  weight sum          9585      1948      4621       904       864      2382      1192       693      5819      4463     23722      3552      1386
  precision         0.6775    0.6775    0.6775    0.6775    0.6775    0.6775    0.6775    0.6775    0.6775    0.6775    0.6775    0.6775    0.6775

1Int(dB)
  mean             -4.3451  -13.0129   -5.4866   -8.3969   -14.804   -9.1799  -26.3229  -11.2288   -13.043   -8.2804  -48.1807  -20.5501   -5.8577
  std. dev.         9.7988   11.1545    8.4392    6.7078    9.1123    8.6146   10.7261    8.2321   10.8593   12.0927   16.4087    7.2176    8.6173
  weight sum          9585      1948      4621       904       864      2382      1192       693      5819      4463     23722      3552      1386
  precision         0.1044    0.1044    0.1044    0.1044    0.1044    0.1044    0.1044    0.1044    0.1044    0.1044    0.1044    0.1044    0.1044

1Pitch(Hz)
  mean            214.8348  158.7755  187.5772  197.2212  135.8817  170.3677   46.1671  186.3495  155.9642  179.1099   17.3506   60.5299  226.2021
  std. dev.       108.6313  112.1053   89.3537   88.5836  107.8471   79.1235   91.4862  118.6921  103.0515  106.1835   57.3369   95.1604   89.9667
  weight sum          9585      1948      4621       904       864      2382      1192       693      5819      4463     23722      3552      1386
  precision         0.1303    0.1303    0.1303    0.1303    0.1303    0.1303    0.1303    0.1303    0.1303    0.1303    0.1303    0.1303    0.1303

1RawPitch
  mean            204.4046  146.1731  183.2465  191.5814  109.9703  162.0978   28.2157  153.8897   142.346  172.4006   14.2573   38.7006  217.6541
  std. dev.       114.5571  116.9415   95.6687   97.8039  104.6772   85.0721   74.5081  122.5506  109.0869  112.8726   51.6702   80.9013   96.8389
  weight sum          9585      1948      4621       904       864      2382      1192       693      5819      4463     23722      3552      1386
  precision          0.131     0.131     0.131     0.131     0.131     0.131     0.131     0.131     0.131     0.131     0.131     0.131     0.131

1SmPitch
  mean            212.6964  154.8711  185.6219  196.3462  125.7035  167.7906   37.8026  165.1943  152.1434  176.7887   15.6887   53.6056  225.9095
  std. dev.       110.3732  114.2773    90.965   90.1545  105.4709   81.2541    84.399  129.4635  104.5849  108.4257   53.4945   91.5804   89.8265
  weight sum          9585      1948      4621       904       864      2382      1192       693      5819      4463     23722      3552      1386
  precision         0.1312    0.1312    0.1312    0.1312    0.1312    0.1312    0.1312    0.1312    0.1312    0.1312    0.1312    0.1312    0.1312

1Melogram(st)
  mean             51.1094   41.3347   49.8961   51.6148   37.8284   47.7099   12.4642   35.2607   41.7529   46.6075    5.0779   17.3109   52.9335
  std. dev.        17.2871   24.4629   16.2028   14.0688   24.6828   17.2872   23.3944    28.021   23.4181   20.5184   15.8345   25.2216   16.2835
  weight sum          9585      1948      4621       904       864      2382      1192       693      5819      4463     23722      3552      1386
  precision         0.0252    0.0252    0.0252    0.0252    0.0252    0.0252    0.0252    0.0252    0.0252    0.0252    0.0252    0.0252    0.0252

1ZCross
  mean              6.9827    2.3235    4.9388    3.5606    2.0007    3.5626    1.8581    4.1344    2.4575    4.0249    0.2622    3.7895     3.755
  std. dev.         4.6044     2.129    3.2469    2.1658    2.0822    3.2866    4.6194    3.3219    2.1792    3.0126    1.1593    7.3653    2.8542
  weight sum          9585      1948      4621       904       864      2382      1192       693      5819      4463     23722      3552      1386
  precision         1.1633    1.1633    1.1633    1.1633    1.1633    1.1633    1.1633    1.1633    1.1633    1.1633    1.1633    1.1633    1.1633

1F1(Hz)
  mean            666.7136  374.9867  453.7041  502.2114  403.0001  351.6224  108.2919  480.8986  413.1177  473.8855   56.1656  220.6973  484.7897
  std. dev.       281.5906  239.5169  159.4091  170.2917  276.2591  157.9743  214.8467  269.6597  238.3081  232.8436  170.5763  288.8784  320.1911
  weight sum          9585      1948      4621       904       864      2382      1192       693      5819      4463     23722      3552      1386
  precision         0.3642    0.3642    0.3642    0.3642    0.3642    0.3642    0.3642    0.3642    0.3642    0.3642    0.3642    0.3642    0.3642

1F2(Hz)
  mean           1426.5335 1317.4527 1736.7393 1447.3023 1201.2387 1888.1428   370.498 1530.8306 1326.6223 1133.1742  174.9481  706.2015 1019.5348
  std. dev.       483.8135  757.5471  582.7337  385.9422  764.2508  742.2294  739.7954  767.2464  708.5679  558.0272   525.318  885.4441  469.8361
  weight sum          9585      1948      4621       904       864      2382      1192       693      5819      4463     23722      3552      1386
  precision         0.4431    0.4431    0.4431    0.4431    0.4431    0.4431    0.4431    0.4431    0.4431    0.4431    0.4431    0.4431    0.4431

1F3(Hz)
  mean            2621.437 2214.3535 2562.5981 2798.6217 2053.3107 2559.2594  616.3698 2456.5081 2286.3241  2458.752  299.0333 1185.4024 2579.3441
  std. dev.       860.1173 1214.8583   862.118  648.4218 1292.4335 1021.4692 1190.5484 1210.1475 1191.3406 1061.5374  881.6893  1470.653  919.5861
  weight sum          9585      1948      4621       904       864      2382      1192       693      5819      4463     23722      3552      1386
  precision         0.6602    0.6602    0.6602    0.6602    0.6602    0.6602    0.6602    0.6602    0.6602    0.6602    0.6602    0.6602    0.6602

1F4(Hz)
  mean           3043.6864 2641.6647 3093.8052  3248.514  2442.436 3050.9117  720.1296 2701.3528 2632.9816 2833.3702  358.9847 1343.5081 2956.7717
  std. dev.       985.2717 1419.2169 1009.5134  727.6066 1504.0848 1178.4462 1397.1423 1315.9051 1353.4586 1207.9571 1056.2377 1663.3726   976.944
  weight sum          9585      1948      4621       904       864      2382      1192       693      5819      4463     23722      3552      1386
  precision         0.6775    0.6775    0.6775    0.6775    0.6775    0.6775    0.6775    0.6775    0.6775    0.6775    0.6775    0.6775    0.6775

2Int(dB)
  mean              -4.275  -12.8391   -5.3093   -8.4011   -14.929   -8.9731  -25.4502   -11.402  -13.0541    -8.186  -48.3098  -20.7935   -5.5524
  std. dev.         9.6881   10.9656    8.2373    6.7519    8.9669    8.4929   10.5314    8.2337    10.691   12.1008   16.2247    6.9906    8.2298
  weight sum          9585      1948      4621       904       864      2382      1192       693      5819      4463     23722      3552      1386
  precision         0.1044    0.1044    0.1044    0.1044    0.1044    0.1044    0.1044    0.1044    0.1044    0.1044    0.1044    0.1044    0.1044

2Pitch(Hz)
  mean            215.2871  158.9902  188.9058  197.0294  134.5242  172.0827     51.36  185.6769  156.5736  179.2936   16.8275   56.5889  228.1408
  std. dev.       108.2446  111.5792   88.6428   88.9348  107.5224   77.7161   96.0148  118.9825  102.7287  105.6064   56.5405   92.9618   87.2319
  weight sum          9585      1948      4621       904       864      2382      1192       693      5819      4463     23722      3552      1386
  precision         0.1303    0.1303    0.1303    0.1303    0.1303    0.1303    0.1303    0.1303    0.1303    0.1303    0.1303    0.1303    0.1303

2RawPitch
  mean            204.9344  146.3863  184.5166  191.0868  108.9501   164.127   31.9836  151.9769  142.6072  173.0126   13.8002   34.8724  219.2103
  std. dev.       114.2089  116.5641   95.0659   97.7905  104.2181    83.993   78.6824  122.9582  108.9671  112.4306   50.8241   77.1131   94.8961
  weight sum          9585      1948      4621       904       864      2382      1192       693      5819      4463     23722      3552      1386
  precision          0.131     0.131     0.131     0.131     0.131     0.131     0.131     0.131     0.131     0.131     0.131     0.131     0.131

2SmPitch
  mean              213.21  154.8208  187.1933   196.273  124.4425  169.4288   42.1318  163.8793  152.5557  177.1572   15.1843   49.7439  227.7542
  std. dev.       109.9155  113.9964   90.0322   90.2956  105.0137   80.1407   89.0487  129.8443  104.3727  107.7873    52.656   89.0111   87.2767
  weight sum          9585      1948      4621       904       864      2382      1192       693      5819      4463     23722      3552      1386
  precision         0.1312    0.1312    0.1312    0.1312    0.1312    0.1312    0.1312    0.1312    0.1312    0.1312    0.1312    0.1312    0.1312

2Melogram(st)
  mean             51.2709   41.2774   50.2427    51.643   37.5734   48.1463    13.506   34.8946   41.8762   46.6963    4.9554   16.2018   53.5545
  std. dev.        17.0469   24.4581   15.7114   13.9783   24.7697    16.741   24.1242   28.1404   23.3545    20.402   15.6692   24.7638    15.256
  weight sum          9585      1948      4621       904       864      2382      1192       693      5819      4463     23722      3552      1386
  precision         0.0252    0.0252    0.0252    0.0252    0.0252    0.0252    0.0252    0.0252    0.0252    0.0252    0.0252    0.0252    0.0252

2ZCross
  mean              7.0076    2.3403    4.9486     3.585    1.9576    3.5738    2.0279    4.0941    2.4091    4.0411    0.2433    3.8176    3.7945
  std. dev.         4.5938    2.1047    3.2071    2.1652    2.0438    3.2163    4.7522    3.3053    2.1077    2.9298    1.0804    7.4725    2.8295
  weight sum          9585      1948      4621       904       864      2382      1192       693      5819      4463     23722      3552      1386
  precision         1.1633    1.1633    1.1633    1.1633    1.1633    1.1633    1.1633    1.1633    1.1633    1.1633    1.1633    1.1633    1.1633

2F1(Hz)
  mean            673.1337  373.5242  458.5411   502.481  395.5357  356.2706  110.0192  477.1461  408.5365  479.3315   54.3918  206.6688  491.2079
  std. dev.       276.5723  238.3426  152.8966  171.3175  277.2043   151.878  216.6226  273.4354  237.3416  229.0643  167.8415  284.1523  314.7115
  weight sum          9585      1948      4621       904       864      2382      1192       693      5819      4463     23722      3552      1386
  precision         0.3642    0.3642    0.3642    0.3642    0.3642    0.3642    0.3642    0.3642    0.3642    0.3642    0.3642    0.3642    0.3642

2F2(Hz)
  mean           1434.8492 1314.2158 1759.9732 1445.3781 1189.2807 1927.6297  371.9164  1509.944 1321.5062  1139.398  169.8362  664.4778 1035.0423
  std. dev.       470.4865  754.2105  557.1365  390.7301  769.1361  710.1468  737.6699  778.3131  710.6789  546.4539  518.3893  875.5811  450.7523
  weight sum          9585      1948      4621       904       864      2382      1192       693      5819      4463     23722      3552      1386
  precision         0.4431    0.4431    0.4431    0.4431    0.4431    0.4431    0.4431    0.4431    0.4431    0.4431    0.4431    0.4431    0.4431

2F3(Hz)
  mean           2637.8989 2210.1004 2590.6505 2794.8203 2031.3736 2603.7866   622.673 2430.7822 2277.9163 2481.3348  290.0758 1113.7652 2624.5033
  std. dev.       837.7663 1211.2692   826.473  661.6762 1301.0849   977.692 1194.0327 1229.6967 1197.2995 1040.3144  869.7877 1453.1058  861.9955
  weight sum          9585      1948      4621       904       864      2382      1192       693      5819      4463     23722      3552      1386
  precision         0.6602    0.6602    0.6602    0.6602    0.6602    0.6602    0.6602    0.6602    0.6602    0.6602    0.6602    0.6602    0.6602

2F4(Hz)
  mean           3061.8157 2643.1324 3124.7953 3242.3872 2420.8547 3100.6951  728.6433 2674.6916 2623.2676 2858.4583  348.5398 1263.7912 3006.9754
  std. dev.       958.7356 1417.9475  964.1286  743.4558 1516.4414 1123.6536 1402.9622 1338.8897 1361.0793 1181.9837 1042.8301 1645.6403  902.9144
  weight sum          9585      1948      4621       904       864      2382      1192       693      5819      4463     23722      3552      1386
  precision         0.6775    0.6775    0.6775    0.6775    0.6775    0.6775    0.6775    0.6775    0.6775    0.6775    0.6775    0.6775    0.6775

3Int(dB)
  mean             -4.2584  -12.5947   -5.2147   -8.3385  -14.9846    -8.825   -24.479  -11.5177  -12.9937   -8.1561  -48.4237   -20.983   -5.2953
  std. dev.         9.6363   10.7736    8.1108    6.7894    8.8593    8.4293    10.404    8.2254    10.541   12.1343   16.0588    6.8383    7.8625
  weight sum          9585      1948      4621       904       864      2382      1192       693      5819      4463     23722      3552      1386
  precision         0.1044    0.1044    0.1044    0.1044    0.1044    0.1044    0.1044    0.1044    0.1044    0.1044    0.1044    0.1044    0.1044

3Pitch(Hz)
  mean             215.424  159.7556  190.0809  196.8632  133.2458  173.0172   58.7123   185.037  157.5416    179.07   16.2557   53.6713   229.415
  std. dev.       108.1379  110.8403   87.8538    89.247  107.2688   76.7882  101.4217  119.2891  102.3964  105.2101   55.6504   91.2431   85.2349
  weight sum          9585      1948      4621       904       864      2382      1192       693      5819      4463     23722      3552      1386
  precision         0.1303    0.1303    0.1303    0.1303    0.1303    0.1303    0.1303    0.1303    0.1303    0.1303    0.1303    0.1303    0.1303

3RawPitch
  mean             205.191  147.2848  185.5537  190.9996  108.1776  165.5748   37.2257  151.0428   143.142  172.9408    13.331   31.8253  220.5485
  std. dev.       114.0304  115.9925   94.6689   97.8483  103.4633   83.1744   84.0645  123.0714  108.7681  112.1655   50.0238   73.8019   93.0837
  weight sum          9585      1948      4621       904       864      2382      1192       693      5819      4463     23722      3552      1386
  precision          0.131     0.131     0.131     0.131     0.131     0.131     0.131     0.131     0.131     0.131     0.131     0.131     0.131

3SmPitch
  mean            213.3805   155.285  188.4788  196.2119  123.2631  170.4827   48.3636  163.2458   153.488   176.912   14.6616   46.7546  229.0404
  std. dev.        109.759  113.4942   89.1689   90.4104  104.6396   79.2893   94.8268  130.0156  104.1178  107.4207   51.7924   86.7873   85.2781
  weight sum          9585      1948      4621       904       864      2382      1192       693      5819      4463     23722      3552      1386
  precision         0.1312    0.1312    0.1312    0.1312    0.1312    0.1312    0.1312    0.1312    0.1312    0.1312    0.1312    0.1312    0.1312

3Melogram(st)
  mean             51.3557   41.4703   50.4808   51.6291   37.3343    48.407   15.0388   34.6088   42.0679    46.671    4.8142   15.4216   54.1306
  std. dev.        16.9062   24.3086   15.3557    13.988   24.8638   16.3656   25.0771   28.2357   23.2509   20.3864   15.4731   24.4196   14.2012
  weight sum          9585      1948      4621       904       864      2382      1192       693      5819      4463     23722      3552      1386
  precision         0.0252    0.0252    0.0252    0.0252    0.0252    0.0252    0.0252    0.0252    0.0252    0.0252    0.0252    0.0252    0.0252

3ZCross
  mean              7.0158    2.3719    4.9388    3.6365    1.9347    3.5777    2.1723    4.0706    2.3943    4.0484    0.2298    3.8297    3.8272
  std. dev.         4.5915    2.0915    3.1975    2.1699    2.0238    3.1538    4.7912    3.2995    2.0665    2.8985    1.0465    7.5217    2.8121
  weight sum          9585      1948      4621       904       864      2382      1192       693      5819      4463     23722      3552      1386
  precision         1.1633    1.1633    1.1633    1.1633    1.1633    1.1633    1.1633    1.1633    1.1633    1.1633    1.1633    1.1633    1.1633

3F1(Hz)
  mean            678.6538  372.4682  462.8688   503.296  388.2589  360.2165  114.5536  474.0815  405.3603   483.672   52.7265  193.5011  496.5514
  std. dev.       272.3175  237.0685  146.9719  171.4896  277.0199    146.32  220.5966  276.5481  235.9014  226.1449  165.2548  278.8593  309.2602
  weight sum          9585      1948      4621       904       864      2382      1192       693      5819      4463     23722      3552      1386
  precision         0.3642    0.3642    0.3642    0.3642    0.3642    0.3642    0.3642    0.3642    0.3642    0.3642    0.3642    0.3642    0.3642

3F2(Hz)
  mean           1441.2512  1312.066 1781.0424 1445.0356 1180.6948 1961.8033  380.8278 1491.8278 1319.6705 1142.8991  165.0589  625.4346 1050.0402
  std. dev.       459.1186  750.4882  532.5896  392.4853  774.0059  680.1225  739.8962  786.7483  710.5727  536.7971  511.9666  864.0821  432.2873
  weight sum          9585      1948      4621       904       864      2382      1192       693      5819      4463     23722      3552      1386
  precision         0.4431    0.4431    0.4431    0.4431    0.4431    0.4431    0.4431    0.4431    0.4431    0.4431    0.4431    0.4431    0.4431

3F3(Hz)
  mean           2651.2499  2207.248 2615.4812 2794.3463 2012.5832 2642.4014  642.0776 2408.5833 2275.5116 2498.5172  281.5968 1046.7402 2665.1247
  std. dev.       819.3519 1206.6787  792.6591  668.5359  1307.812   937.499 1204.7274 1244.9881 1199.2132 1024.1918  858.2952 1432.8357  803.6971
  weight sum          9585      1948      4621       904       864      2382      1192       693      5819      4463     23722      3552      1386
  precision         0.6602    0.6602    0.6602    0.6602    0.6602    0.6602    0.6602    0.6602    0.6602    0.6602    0.6602    0.6602    0.6602

3F4(Hz)
  mean           3075.9587 2646.3634 3152.5297 3240.3794 2403.3745 3143.1187  755.2455 2653.2823   2620.19 2876.7808  338.6077 1189.8662 3052.6473
  std. dev.       936.7556 1415.4829  921.2174  751.3128 1526.7311 1073.3319 1422.1462 1357.6845 1363.8191 1161.8705 1029.7278 1625.7443  827.1813
  weight sum          9585      1948      4621       904       864      2382      1192       693      5819      4463     23722      3552      1386
  precision         0.6775    0.6775    0.6775    0.6775    0.6775    0.6775    0.6775    0.6775    0.6775    0.6775    0.6775    0.6775    0.6775

4Int(dB)
  mean             -4.2995  -12.2908   -5.2154   -8.2151  -14.9663    -8.745  -23.3866  -11.5623  -12.8596    -8.205  -48.5189  -21.1024   -5.0964
  std. dev.         9.6425   10.5869     8.061    6.8402    8.8198    8.4284   10.3657    8.2124   10.4236   12.2015   15.9252    6.7883    7.5403
  weight sum          9585      1948      4621       904       864      2382      1192       693      5819      4463     23722      3552      1386
  precision         0.1043    0.1043    0.1043    0.1043    0.1043    0.1043    0.1043    0.1043    0.1043    0.1043    0.1043    0.1043    0.1043

4Pitch(Hz)
  mean            215.2171  161.0025  190.6854  196.7149  132.7243  173.6379   67.3642  184.4111  158.7698  178.3171   15.7183   51.9214   230.256
  std. dev.       108.2936  109.8138   87.4198   89.5099  107.1636   76.0641  106.8951  119.6061  102.0568  105.1185   54.8033   90.3009   83.5916
  weight sum          9585      1948      4621       904       864      2382      1192       693      5819      4463     23722      3552      1386
  precision         0.1303    0.1303    0.1303    0.1303    0.1303    0.1303    0.1303    0.1303    0.1303    0.1303    0.1303    0.1303    0.1303

4RawPitch
  mean             205.011  148.5952  186.0468   190.776  107.6938  166.4491   44.7917  150.5995  144.2556  172.3446   12.8482   29.9128   221.377
  std. dev.       114.2273  115.2511   94.2836   97.6689  102.8608   82.7406   91.3213  123.0117  108.6284   111.886   49.2604   71.5219   91.8259
  weight sum          9585      1948      4621       904       864      2382      1192       693      5819      4463     23722      3552      1386
  precision          0.131     0.131     0.131     0.131     0.131     0.131     0.131     0.131     0.131     0.131     0.131     0.131     0.131

4SmPitch
  mean             213.279  156.3345  189.2421   196.165  123.0119  171.0176    56.486   162.621   154.549  176.2127   14.1449   44.8005   229.966
  std. dev.       109.7994  112.6809   88.6477   90.4791  104.4081   78.8205  101.1877   130.198  103.8887  107.2818   50.9173   85.3576   83.6261
  weight sum          9585      1948      4621       904       864      2382      1192       693      5819      4463     23722      3552      1386
  precision         0.1312    0.1312    0.1312    0.1312    0.1312    0.1312    0.1312    0.1312    0.1312    0.1312    0.1312    0.1312    0.1312

4Melogram(st)
  mean             51.3572   41.7583   50.6147   51.6188   37.2513   48.6212   16.7622   34.5176   42.3474   46.5702    4.6716   14.8861   54.4863
  std. dev.        16.8758   24.1126   15.1287   13.9964    24.928   16.0378   25.9926   28.3225    23.094    20.439   15.2691   24.1901   13.4335
  weight sum          9585      1948      4621       904       864      2382      1192       693      5819      4463     23722      3552      1386
  precision         0.0252    0.0252    0.0252    0.0252    0.0252    0.0252    0.0252    0.0252    0.0252    0.0252    0.0252    0.0252    0.0252

4ZCross
  mean              6.9994    2.4227    4.9156     3.706    1.9401    3.5967    2.2894    4.0504    2.4113    4.0424    0.2221    3.8307    3.8515
  std. dev.         4.6018    2.0849    3.2034    2.1752    2.0364    3.1513    4.7776    3.2828     2.055    2.9091    1.0405    7.5333    2.7932
  weight sum          9585      1948      4621       904       864      2382      1192       693      5819      4463     23722      3552      1386
  precision         1.1633    1.1633    1.1633    1.1633    1.1633    1.1633    1.1633    1.1633    1.1633    1.1633    1.1633    1.1633    1.1633

4F1(Hz)
  mean             683.313  372.4935  466.9426  504.4024  381.3156  363.5983  121.9541   471.637  403.8074  486.8876   50.9791   181.017  501.4313
  std. dev.       268.9093  235.5015  141.0764  171.5549  276.5899  141.2908  225.5703  278.9021  233.6728  224.2029  162.6227  272.8673  304.2361
  weight sum          9585      1948      4621       904       864      2382      1192       693      5819      4463     23722      3552      1386
  precision         0.3642    0.3642    0.3642    0.3642    0.3642    0.3642    0.3642    0.3642    0.3642    0.3642    0.3642    0.3642    0.3642

4F2(Hz)
  mean           1445.9618 1312.5688 1800.7234 1445.0542 1172.6362 1991.3969   401.452 1476.3315 1323.0179 1143.6165  159.7147   589.123 1063.4653
  std. dev.       449.7706  745.4148  507.5736   394.779  779.2046  651.9928  750.1028   792.788  707.8157  529.3781  504.5122  851.3754  414.3404
  weight sum          9585      1948      4621       904       864      2382      1192       693      5819      4463     23722      3552      1386
  precision         0.4431    0.4431    0.4431    0.4431    0.4431    0.4431    0.4431    0.4431    0.4431    0.4431    0.4431    0.4431    0.4431

4F3(Hz)
  mean           2661.7097 2208.9124  2638.722 2793.5531 1994.0357 2676.1136  681.1953 2390.8763 2281.1469 2509.8227  272.3289  984.2536  2701.015
  std. dev.       804.8708 1199.4463  758.2975  675.3818 1314.2962  900.3451 1228.6209 1256.7222  1195.795 1013.4676  845.5437 1410.2971  745.1651
  weight sum          9585      1948      4621       904       864      2382      1192       693      5819      4463     23722      3552      1386
  precision         0.6602    0.6602    0.6602    0.6602    0.6602    0.6602    0.6602    0.6602    0.6602    0.6602    0.6602    0.6602    0.6602

4F4(Hz)
  mean           3086.6146 2654.3032  3179.034 3237.6627 2385.6763 3179.5458  803.4404 2636.0681 2626.9368  2888.156   327.666 1121.6815 3093.8479
  std. dev.       919.3099 1409.2849  877.8457  758.6904 1536.6667  1026.953  1453.181 1372.4355 1360.5901 1148.0627  1014.973 1604.3298  750.1771
  weight sum          9585      1948      4621       904       864      2382      1192       693      5819      4463     23722      3552      1386
  precision         0.6775    0.6775    0.6775    0.6775    0.6775    0.6775    0.6775    0.6775    0.6775    0.6775    0.6775    0.6775    0.6775





=== Stratified cross-validation ===

Correctly Classified Instances       30532               49.9452 %
Incorrectly Classified Instances     30599               50.0548 %
Kappa statistic                          0.3774
K&B Relative Info Score            2130274.0181 %
K&B Information Score                61643.5389 bits      1.0084 bits/instance
Class complexity | order 0          176874.5552 bits      2.8934 bits/instance
Class complexity | scheme          1691113.754  bits     27.6638 bits/instance
Complexity improvement     (Sf)    -1514239.1987 bits    -24.7704 bits/instance
Mean absolute error                      0.0773
Root mean squared error                  0.2629
Relative absolute error                 63.0139 %
Root relative squared error            106.1684 %
Coverage of cases (0.95 level)          55.5839 %
Mean rel. region size (0.95 level)      10.6124 %
Total Number of Instances            61131     


=== Detailed Accuracy By Class ===

                 TP Rate  FP Rate  Precision  Recall   F-Measure  MCC      ROC Area  PRC Area  Class
                 0,443    0,038    0,683      0,443    0,537      0,487    0,876     0,605     a
                 0,004    0,004    0,032      0,004    0,007      0,000    0,719     0,056     b
                 0,431    0,056    0,388      0,431    0,409      0,358    0,856     0,378     e
                 0,688    0,221    0,045      0,688    0,084      0,134    0,819     0,051     d
                 0,065    0,024    0,037      0,065    0,047      0,030    0,733     0,032     f
                 0,339    0,028    0,326      0,339    0,332      0,304    0,861     0,270     i
                 0,174    0,019    0,151      0,174    0,162      0,144    0,843     0,101     k
                 0,114    0,003    0,325      0,114    0,169      0,187    0,763     0,096     j
                 0,038    0,016    0,197      0,038    0,064      0,048    0,735     0,173     l
                 0,002    0,001    0,145      0,002    0,005      0,010    0,775     0,178     o
                 0,890    0,126    0,817      0,890    0,852      0,753    0,950     0,944     0
                 0,189    0,016    0,415      0,189    0,260      0,252    0,874     0,335     s
                 0,360    0,013    0,384      0,360    0,372      0,358    0,864     0,313     u
Weighted Avg.    0,499    0,067    0,537      0,499    0,496      0,443    0,872     0,562     


=== Confusion Matrix ===

     a     b     c     d     e     f     g     h     i     j     k     l     m   <-- classified as
  4246    45   988  2905   214   151   129    50   136    40   453    99   129 |     a = a
   115     8    61   869    89   239    60    12    52     0   327    57    59 |     b = b
   428    59  1993  1362   112   246    93    20    54     3   166    33    52 |     c = e
    90     0    43   622     3    17     1     0    44     0    30    17    37 |     d = d
    55     1    49   365    56    50    30     4    29     0   187    32     6 |     e = f
   122    35   783   281    81   807    70     3    40     0   120    34     6 |     f = i
    15     9     7    65    48    45   207     6    31     3   623   125     8 |     g = k
    88     2   109   148    32    57    12    79    22     0    89    30    25 |     h = j
   305    23   301  3075   248   333   195     4   224     5   877   156    73 |     i = l
   468    40   525  2140   147    44    53    12   130    11   456    83   354 |     j = o
    56     7   194  1154   273   291   103    16   198     7 21107   274    42 |     k = 0
   110     5    57   415   198   176   381    35   129     5  1359   673     9 |     l = s
   121    17    24   551    29    23    35     2    47     2    27     9   499 |     m = u

=== Percent Confusion Matrix ===
a	b	c	d	e	f	g	h	i	j	k	l	m	
44.3	0.47	10.31	30.31	2.23	1.58	1.35	0.52	1.42	0.42	4.73	1.03	1.35	 a = a
5.9	0.41	3.13	44.61	4.57	12.27	3.08	0.62	2.67	0.0	16.79	2.93	3.03	 b = b
9.26	1.28	43.13	29.47	2.42	5.32	2.01	0.43	1.17	0.06	3.59	0.71	1.13	 c = e
9.96	0.0	4.76	68.81	0.33	1.88	0.11	0.0	4.87	0.0	3.32	1.88	4.09	 d = d
6.37	0.12	5.67	42.25	6.48	5.79	3.47	0.46	3.36	0.0	21.64	3.7	0.69	 e = f
5.12	1.47	32.87	11.8	3.4	33.88	2.94	0.13	1.68	0.0	5.04	1.43	0.25	 f = i
1.26	0.76	0.59	5.45	4.03	3.78	17.37	0.5	2.6	0.25	52.27	10.49	0.67	 g = k
12.7	0.29	15.73	21.36	4.62	8.23	1.73	11.4	3.17	0.0	12.84	4.33	3.61	 h = j
5.24	0.4	5.17	52.84	4.26	5.72	3.35	0.07	3.85	0.09	15.07	2.68	1.25	 i = l
10.49	0.9	11.76	47.95	3.29	0.99	1.19	0.27	2.91	0.25	10.22	1.86	7.93	 j = o
0.24	0.03	0.82	4.86	1.15	1.23	0.43	0.07	0.83	0.03	88.98	1.16	0.18	 k = 0
3.1	0.14	1.6	11.68	5.57	4.95	10.73	0.99	3.63	0.14	38.26	18.95	0.25	 l = s
8.73	1.23	1.73	39.75	2.09	1.66	2.53	0.14	3.39	0.14	1.95	0.65	36.0	 m = u
