Timestamp:2014-12-07-10:51:09
Inventario:I1
Intervalo:6ms
Ngramas:5
Clasificador:NaiveBayes
Relation Name:  I1-6ms-5gramas
Num Instances:  30449
Num Attributes: 51

     Name                      Type  Nom  Int Real     Missing      Unique  Dist
   1 0Int(dB)                   Num   0%  10%  90%     0 /  0%     2 /  0%   776 
   2 0Pitch(Hz)                 Num   0%  51%  49%     0 /  0%   750 /  2%  3423 
   3 0RawPitch                  Num   0%  55%  45%     0 /  0%   699 /  2%  3337 
   4 0SmPitch                   Num   0%  53%  47%     0 /  0%   748 /  2%  3382 
   5 0Melogram(st)              Num   0%  48%  52%     0 /  0%   413 /  1%  3048 
   6 0ZCross                    Num   0% 100%   0%     0 /  0%     8 /  0%    47 
   7 0F1(Hz)                    Num   0%  52%  48%     0 /  0%  1130 /  4%  4802 
   8 0F2(Hz)                    Num   0%  51%  49%     0 /  0%  2251 /  7%  6691 
   9 0F3(Hz)                    Num   0%  52%  48%     0 /  0%  1969 /  6%  6255 
  10 0F4(Hz)                    Num   0%  52%  48%     0 /  0%  1938 /  6%  6099 
  11 1Int(dB)                   Num   0%  10%  90%     0 /  0%     2 /  0%   776 
  12 1Pitch(Hz)                 Num   0%  51%  49%     0 /  0%   750 /  2%  3423 
  13 1RawPitch                  Num   0%  55%  45%     0 /  0%   699 /  2%  3337 
  14 1SmPitch                   Num   0%  53%  47%     0 /  0%   748 /  2%  3382 
  15 1Melogram(st)              Num   0%  48%  52%     0 /  0%   413 /  1%  3048 
  16 1ZCross                    Num   0% 100%   0%     0 /  0%     8 /  0%    47 
  17 1F1(Hz)                    Num   0%  52%  48%     0 /  0%  1130 /  4%  4802 
  18 1F2(Hz)                    Num   0%  51%  49%     0 /  0%  2251 /  7%  6691 
  19 1F3(Hz)                    Num   0%  52%  48%     0 /  0%  1969 /  6%  6255 
  20 1F4(Hz)                    Num   0%  52%  48%     0 /  0%  1938 /  6%  6099 
  21 2Int(dB)                   Num   0%  10%  90%     0 /  0%     2 /  0%   776 
  22 2Pitch(Hz)                 Num   0%  51%  49%     0 /  0%   750 /  2%  3423 
  23 2RawPitch                  Num   0%  55%  45%     0 /  0%   699 /  2%  3337 
  24 2SmPitch                   Num   0%  53%  47%     0 /  0%   748 /  2%  3382 
  25 2Melogram(st)              Num   0%  48%  52%     0 /  0%   413 /  1%  3048 
  26 2ZCross                    Num   0% 100%   0%     0 /  0%     8 /  0%    47 
  27 2F1(Hz)                    Num   0%  52%  48%     0 /  0%  1130 /  4%  4802 
  28 2F2(Hz)                    Num   0%  51%  49%     0 /  0%  2251 /  7%  6691 
  29 2F3(Hz)                    Num   0%  52%  48%     0 /  0%  1969 /  6%  6255 
  30 2F4(Hz)                    Num   0%  52%  48%     0 /  0%  1938 /  6%  6099 
  31 3Int(dB)                   Num   0%  10%  90%     0 /  0%     2 /  0%   776 
  32 3Pitch(Hz)                 Num   0%  51%  49%     0 /  0%   750 /  2%  3423 
  33 3RawPitch                  Num   0%  55%  45%     0 /  0%   699 /  2%  3337 
  34 3SmPitch                   Num   0%  53%  47%     0 /  0%   748 /  2%  3382 
  35 3Melogram(st)              Num   0%  48%  52%     0 /  0%   413 /  1%  3048 
  36 3ZCross                    Num   0% 100%   0%     0 /  0%     8 /  0%    47 
  37 3F1(Hz)                    Num   0%  52%  48%     0 /  0%  1130 /  4%  4802 
  38 3F2(Hz)                    Num   0%  51%  49%     0 /  0%  2251 /  7%  6691 
  39 3F3(Hz)                    Num   0%  52%  48%     0 /  0%  1969 /  6%  6255 
  40 3F4(Hz)                    Num   0%  52%  48%     0 /  0%  1938 /  6%  6099 
  41 4Int(dB)                   Num   0%  10%  90%     0 /  0%     3 /  0%   777 
  42 4Pitch(Hz)                 Num   0%  51%  49%     0 /  0%   750 /  2%  3423 
  43 4RawPitch                  Num   0%  55%  45%     0 /  0%   699 /  2%  3337 
  44 4SmPitch                   Num   0%  53%  47%     0 /  0%   748 /  2%  3382 
  45 4Melogram(st)              Num   0%  48%  52%     0 /  0%   413 /  1%  3048 
  46 4ZCross                    Num   0% 100%   0%     0 /  0%     8 /  0%    47 
  47 4F1(Hz)                    Num   0%  52%  48%     0 /  0%  1130 /  4%  4802 
  48 4F2(Hz)                    Num   0%  51%  49%     0 /  0%  2251 /  7%  6691 
  49 4F3(Hz)                    Num   0%  52%  48%     0 /  0%  1969 /  6%  6255 
  50 4F4(Hz)                    Num   0%  52%  48%     0 /  0%  1938 /  6%  6099 
  51 class                      Nom 100%   0%   0%     0 /  0%     0 /  0%    13 


Naive Bayes Classifier

                    Class
Attribute               a         b         e         d         f         i         k         j         l         o         0         s         u
                   (0.16)    (0.03)    (0.08)    (0.01)    (0.01)    (0.04)    (0.02)    (0.01)     (0.1)    (0.07)    (0.38)    (0.06)    (0.02)
==================================================================================================================================================
0Int(dB)
  mean             -5.4118  -12.6386   -7.2577   -7.6936  -13.3109   -10.716  -29.7025   -9.8706  -12.1013   -9.5072  -47.9711  -18.8374   -8.0314
  std. dev.        11.0068   11.8743    9.8253    6.5466    10.453    9.4418   12.1137    8.3161   11.5147   12.3595   16.8891    8.9768   10.7199
  weight sum          4825       980      2347       453       430      1206       593       351      2927      2251     11607      1782       697
  precision         0.1001    0.1001    0.1001    0.1001    0.1001    0.1001    0.1001    0.1001    0.1001    0.1001    0.1001    0.1001    0.1001

0Pitch(Hz)
  mean            209.0402  166.0364   177.001   199.245   146.571  157.8868   45.9477  194.4758   160.307  172.4379   18.4166   89.8535  213.6025
  std. dev.       112.8416   110.778   95.1194   85.6459  108.6374   87.2331   87.9971  114.2122    102.02  110.9435   58.7916   106.009  105.4867
  weight sum          4825       980      2347       453       430      1206       593       351      2927      2251     11607      1782       697
  precision         0.1457    0.1457    0.1457    0.1457    0.1457    0.1457    0.1457    0.1457    0.1457    0.1457    0.1457    0.1457    0.1457

0RawPitch
  mean            198.7329  153.2783  171.0375   193.425  124.7505  148.2543   34.4065  168.3368  147.6277  163.5133   15.6513   68.6333  202.7883
  std. dev.       117.5529   115.415  100.5737   94.0949  107.8857   90.5894   80.0398  117.8436  107.2319  116.7271    54.151   99.8926  111.3103
  weight sum          4825       980      2347       453       430      1206       593       351      2927      2251     11607      1782       697
  precision         0.1486    0.1486    0.1486    0.1486    0.1486    0.1486    0.1486    0.1486    0.1486    0.1486    0.1486    0.1486    0.1486

0SmPitch
  mean            206.6612  163.4877  173.7645   197.374  136.7277  155.3294   41.7194    177.17  156.1861  169.3568    16.968   83.7491  210.7198
  std. dev.       114.6666  112.7218   97.6867   88.7078  107.2216   88.5745   84.9213  123.1502  103.6914  112.9699   55.5321  104.7516  107.1445
  weight sum          4825       980      2347       453       430      1206       593       351      2927      2251     11607      1782       697
  precision         0.1475    0.1475    0.1475    0.1475    0.1475    0.1475    0.1475    0.1475    0.1475    0.1475    0.1475    0.1475    0.1475

0Melogram(st)
  mean             49.6051   43.4903   47.0369   52.3915   41.3271    44.285   13.1745   39.8192   43.3585   44.7923     5.373   25.0839   49.1013
  std. dev.        19.1651   23.1301   19.4744   12.5877   23.0186   20.6362   23.4814   26.3163   22.4184   22.1672   16.2254   27.0488   21.0803
  weight sum          4825       980      2347       453       430      1206       593       351      2927      2251     11607      1782       697
  precision         0.0271    0.0271    0.0271    0.0271    0.0271    0.0271    0.0271    0.0271    0.0271    0.0271    0.0271    0.0271    0.0271

0ZCross
  mean              6.6693    2.6114    4.7142    3.6254    2.4161     3.439    0.7384    4.4181    2.9326    3.8153    0.3431    3.4368    3.5554
  std. dev.         4.7465    2.5157    3.6571    2.1222    2.3921    3.6778    2.2229    3.3599    2.5947    3.4988    1.6017    6.2474     3.083
  weight sum          4825       980      2347       453       430      1206       593       351      2927      2251     11607      1782       697
  precision         1.1739    1.1739    1.1739    1.1739    1.1739    1.1739    1.1739    1.1739    1.1739    1.1739    1.1739    1.1739    1.1739

0F1(Hz)
  mean            624.4955  404.5692   424.749  502.2986  455.8423  328.6897  143.0149  513.9043  446.0942  439.0009   62.8556  306.1963  448.2668
  std. dev.       309.4436  237.8241  194.8652  160.3655  260.5602  186.0771  235.1407   242.019  237.2762  251.6708  181.6101  302.7675  344.2631
  weight sum          4825       980      2347       453       430      1206       593       351      2927      2251     11607      1782       697
  precision         0.3628    0.3628    0.3628    0.3628    0.3628    0.3628    0.3628    0.3628    0.3628    0.3628    0.3628    0.3628    0.3628

0F2(Hz)
  mean           1371.8281 1389.0091 1589.4535 1466.0281 1316.0818 1672.1769  500.2635 1652.5792 1378.2537 1089.9744  192.4366  957.0924  946.1299
  std. dev.       560.4474  730.9012  707.3303  360.7816  718.3454  865.5474  825.6777  666.3311  678.7337   620.861  549.1729  901.0667  558.2464
  weight sum          4825       980      2347       453       430      1206       593       351      2927      2251     11607      1782       697
  precision         0.4452    0.4452    0.4452    0.4452    0.4452    0.4452    0.4452    0.4452    0.4452    0.4452    0.4452    0.4452    0.4452

0F3(Hz)
  mean           2512.8034 2338.8226 2387.6492 2821.6202 2237.6313  2323.906  819.8716 2630.1135 2375.4044 2319.4528  328.4058 1614.4222  2338.906
  std. dev.       989.7196 1159.0283 1045.4602  571.6295 1197.6039  1204.488 1311.5522 1049.1397 1127.1781 1176.4849  918.0696 1497.0012 1145.7887
  weight sum          4825       980      2347       453       430      1206       593       351      2927      2251     11607      1782       697
  precision         0.6587    0.6587    0.6587    0.6587    0.6587    0.6587    0.6587    0.6587    0.6587    0.6587    0.6587    0.6587    0.6587

0F4(Hz)
  mean           2919.6988 2753.4563 2894.6517 3279.4353 2637.6754 2785.0724  957.0541 2884.1226 2733.1131 2674.6565  394.5822 1830.7243  2695.275
  std. dev.      1138.3963 1335.5172 1242.3286  632.5802 1381.4899 1408.5564 1536.8712 1129.9045 1275.0434 1346.3444 1100.9601  1692.571 1265.2932
  weight sum          4825       980      2347       453       430      1206       593       351      2927      2251     11607      1782       697
  precision         0.6801    0.6801    0.6801    0.6801    0.6801    0.6801    0.6801    0.6801    0.6801    0.6801    0.6801    0.6801    0.6801

1Int(dB)
  mean             -4.9579  -12.9282   -6.5177   -8.0066  -13.9952  -10.1042  -28.7566  -10.3917  -12.6081   -8.9796  -48.2639  -19.5176   -7.2074
  std. dev.        10.4863   11.6685    9.2729    6.6028    9.9098    9.0807     11.39    8.2211   11.3972   12.1898   16.5014     8.311    10.005
  weight sum          4825       980      2347       453       430      1206       593       351      2927      2251     11607      1782       697
  precision         0.1001    0.1001    0.1001    0.1001    0.1001    0.1001    0.1001    0.1001    0.1001    0.1001    0.1001    0.1001    0.1001

1Pitch(Hz)
  mean            211.8007  163.7762  181.8248  198.2064  141.9695  163.9943   43.4798  191.1312  158.1249  175.9605   17.3103   79.7067  220.3105
  std. dev.       110.5354  111.3227   92.6133   87.0365  108.6529   83.5367   87.0859  116.1701  102.5588  108.5713   57.1184  103.4088   97.9407
  weight sum          4825       980      2347       453       430      1206       593       351      2927      2251     11607      1782       697
  precision         0.1457    0.1457    0.1457    0.1457    0.1457    0.1457    0.1457    0.1457    0.1457    0.1457    0.1457    0.1457    0.1457

1RawPitch
  mean            201.4532  150.2849  176.4078  192.8254   119.205  154.7055   28.8788   164.313  145.4634  167.3967   14.6449   58.2375  209.3446
  std. dev.       115.6497  115.4886   98.3173   95.2246  106.8748   87.7211   74.2632  118.8106  107.8192  114.5172   52.4106   94.5632  105.1448
  weight sum          4825       980      2347       453       430      1206       593       351      2927      2251     11607      1782       697
  precision         0.1486    0.1486    0.1486    0.1486    0.1486    0.1486    0.1486    0.1486    0.1486    0.1486    0.1486    0.1486    0.1486

1SmPitch
  mean            209.3893  160.7347  178.7991  196.7754  132.2744  161.4192   37.2791  173.2673  154.3549  173.1852   15.8556   73.2333  217.8306
  std. dev.       112.5358  113.5476   95.0401   89.4547  106.6852    85.075   81.8377  125.7421  104.1361  110.6103   53.6517  101.2116   99.6499
  weight sum          4825       980      2347       453       430      1206       593       351      2927      2251     11607      1782       697
  precision         0.1475    0.1475    0.1475    0.1475    0.1475    0.1475    0.1475    0.1475    0.1475    0.1475    0.1475    0.1475    0.1475

1Melogram(st)
  mean             50.3727   42.8393   48.4575   52.1022   40.1595   45.9796   12.0883   38.2466   42.6493   45.7682    5.0779   22.4489   51.0893
  std. dev.        18.2348   23.5694   17.9973   13.0915   23.6269   19.1192   22.9067   26.9663   22.8514   21.3497   15.8217   26.6946   18.8712
  weight sum          4825       980      2347       453       430      1206       593       351      2927      2251     11607      1782       697
  precision         0.0271    0.0271    0.0271    0.0271    0.0271    0.0271    0.0271    0.0271    0.0271    0.0271    0.0271    0.0271    0.0271

1ZCross
  mean              6.7846    2.4616    4.8042     3.558     2.184     3.476    1.0433    4.2809    2.7292    3.8899    0.2937    3.6047    3.6026
  std. dev.         4.6549     2.346    3.4983    2.1216     2.217    3.4985    3.1013    3.3003    2.4514    3.3516    1.3781     6.739    2.9524
  weight sum          4825       980      2347       453       430      1206       593       351      2927      2251     11607      1782       697
  precision         1.1739    1.1739    1.1739    1.1739    1.1739    1.1739    1.1739    1.1739    1.1739    1.1739    1.1739    1.1739    1.1739

1F1(Hz)
  mean             641.598  395.6915  436.6695  500.8635  439.5501   338.547  127.5402  501.8778  434.3483  453.8732   58.3302  278.1189   463.808
  std. dev.       298.3129  237.6905  181.6351  164.1639  266.9062  174.0301   226.089  251.4763  237.6845  244.1481  175.0393  301.1137  334.8008
  weight sum          4825       980      2347       453       430      1206       593       351      2927      2251     11607      1782       697
  precision         0.3628    0.3628    0.3628    0.3628    0.3628    0.3628    0.3628    0.3628    0.3628    0.3628    0.3628    0.3628    0.3628

1F2(Hz)
  mean            1395.894 1369.4578 1648.9094 1456.8096 1279.0165 1765.1714   446.496 1613.0398 1361.1724 1110.1712  179.1355  875.0608  978.1609
  std. dev.       530.2954  735.8848  663.0113  368.4906  732.7963   818.714  795.9677  704.2867  689.2088   595.382  531.0655  904.1844  525.2413
  weight sum          4825       980      2347       453       430      1206       593       351      2927      2251     11607      1782       697
  precision         0.4452    0.4452    0.4452    0.4452    0.4452    0.4452    0.4452    0.4452    0.4452    0.4452    0.4452    0.4452    0.4452

1F3(Hz)
  mean           2559.4613 2305.6138 2459.3827 2811.4308 2180.6268 2427.5668  733.1081  2572.583 2344.3088 2381.0703  306.6629 1474.1676 2438.5289
  std. dev.       937.7438 1172.8483   978.513   599.856  1230.956 1132.3873 1265.4768  1109.573 1149.0111 1130.0518  891.1097  1502.905 1064.3754
  weight sum          4825       980      2347       453       430      1206       593       351      2927      2251     11607      1782       697
  precision         0.6587    0.6587    0.6587    0.6587    0.6587    0.6587    0.6587    0.6587    0.6587    0.6587    0.6587    0.6587    0.6587

1F4(Hz)
  mean           2973.1331 2726.3768 2976.4834 3270.9669 2575.9403 2903.1799  855.5693 2821.3944 2700.0154 2744.0896  368.3769 1671.2535 2803.9205
  std. dev.      1076.9898 1356.7863 1157.0182  668.3634 1422.3377 1317.4154 1483.4377 1199.0692 1302.7157 1290.3365 1068.4378 1699.5505 1162.6311
  weight sum          4825       980      2347       453       430      1206       593       351      2927      2251     11607      1782       697
  precision         0.6801    0.6801    0.6801    0.6801    0.6801    0.6801    0.6801    0.6801    0.6801    0.6801    0.6801    0.6801    0.6801

2Int(dB)
  mean             -4.5987  -12.9966   -5.8995   -8.2731  -14.5611   -9.5588  -27.3842  -10.8827  -12.9363   -8.5713  -48.5576  -20.1718    -6.419
  std. dev.        10.0572   11.3571     8.786    6.6541    9.4214    8.7617   10.8851    8.1769   11.0827   12.1108   16.0892    7.6914    9.2206
  weight sum          4825       980      2347       453       430      1206       593       351      2927      2251     11607      1782       697
  precision         0.1001    0.1001    0.1001    0.1001    0.1001    0.1001    0.1001    0.1001    0.1001    0.1001    0.1001    0.1001    0.1001

2Pitch(Hz)
  mean            213.9858  162.1914  185.9675  197.3077  138.3865   168.922   45.4981   187.856  157.0364  178.5044   16.3327   69.9297  225.2933
  std. dev.       108.6894  111.4338   90.3606    88.379  108.2488   80.1793   89.7523  117.9773  102.5375  106.4846    55.605   99.8467   91.5415
  weight sum          4825       980      2347       453       430      1206       593       351      2927      2251     11607      1782       697
  precision         0.1457    0.1457    0.1457    0.1457    0.1457    0.1457    0.1457    0.1457    0.1457    0.1457    0.1457    0.1457    0.1457

2RawPitch
  mean            203.4289  148.0422  181.6948  192.1779  114.6567   160.411     28.08  160.2113  143.9763  171.1249   13.5156   48.3896  215.3066
  std. dev.       114.2033  115.6256   96.2139   96.4293  105.4998   84.8193   73.6872  120.1699  107.8515  112.4932   50.0964   88.2157   98.6174
  weight sum          4825       980      2347       453       430      1206       593       351      2927      2251     11607      1782       697
  precision         0.1486    0.1486    0.1486    0.1486    0.1486    0.1486    0.1486    0.1486    0.1486    0.1486    0.1486    0.1486    0.1486

2SmPitch
  mean            211.6839  158.6549  183.5596  196.3238  128.8353  166.5988   37.4495  169.3515    153.06  175.9059   14.8087   63.2287  223.7844
  std. dev.       110.6731   113.938   92.3488   90.1643  105.8213   81.8868   83.3549  128.1426  104.1339  108.6981   51.7844   96.7439   92.4136
  weight sum          4825       980      2347       453       430      1206       593       351      2927      2251     11607      1782       697
  precision         0.1475    0.1475    0.1475    0.1475    0.1475    0.1475    0.1475    0.1475    0.1475    0.1475    0.1475    0.1475    0.1475

2Melogram(st)
  mean             51.0457   42.2976   49.6417   51.8281   39.2686   47.3894    11.749   36.5248   42.2638   46.4994    4.8253   19.7929   52.9038
  std. dev.        17.3442   23.9194   16.5413    13.567   24.0506   17.6115   22.8164   27.5673   23.0808   20.6431   15.4719   26.0731    16.369
  weight sum          4825       980      2347       453       430      1206       593       351      2927      2251     11607      1782       697
  precision         0.0271    0.0271    0.0271    0.0271    0.0271    0.0271    0.0271    0.0271    0.0271    0.0271    0.0271    0.0271    0.0271

2ZCross
  mean              6.8934    2.3634    4.8687     3.514    2.0038    3.5256    1.4808     4.204    2.5451    3.9353    0.2426    3.7227    3.6666
  std. dev.         4.5993    2.1945    3.3612    2.1397    2.0839    3.3498    3.8921    3.2723    2.2775     3.141    1.1446    7.0686    2.8883
  weight sum          4825       980      2347       453       430      1206       593       351      2927      2251     11607      1782       697
  precision         1.1739    1.1739    1.1739    1.1739    1.1739    1.1739    1.1739    1.1739    1.1739    1.1739    1.1739    1.1739    1.1739

2F1(Hz)
  mean            658.1625  387.5882  448.1303  500.2076  421.3901  348.8664  117.9324  492.7629   423.242  467.9136   53.9414  248.7061  478.0605
  std. dev.       286.2026  237.6824  167.3815  169.1352  272.3544  162.2662  220.7516  259.6754  236.8156  235.6843  168.2233  296.4808   324.529
  weight sum          4825       980      2347       453       430      1206       593       351      2927      2251     11607      1782       697
  precision         0.3628    0.3628    0.3628    0.3628    0.3628    0.3628    0.3628    0.3628    0.3628    0.3628    0.3628    0.3628    0.3628

2F2(Hz)
  mean           1419.2622 1348.6957 1706.5198 1446.9631 1239.1028 1853.8785  411.5536 1575.7063 1346.3767 1129.6245  166.3602  789.2014 1009.2259
  std. dev.       497.7941  740.2835  612.0386  383.2018  748.4208  761.7664  773.8313  733.0165   696.808  569.4748  512.7699    899.54  490.7397
  weight sum          4825       980      2347       453       430      1206       593       351      2927      2251     11607      1782       697
  precision         0.4452    0.4452    0.4452    0.4452    0.4452    0.4452    0.4452    0.4452    0.4452    0.4452    0.4452    0.4452    0.4452

2F3(Hz)
  mean           2605.2622  2271.328 2528.8267 2795.3227 2115.5779 2527.1222  674.1653 2522.2799 2319.1175  2440.143  285.4685 1326.8202 2534.3382
  std. dev.       881.9027 1184.8692   904.012  639.5707 1263.4416 1049.8927 1228.4134 1156.1143 1166.4253 1080.4541  863.1988 1494.5506  971.1663
  weight sum          4825       980      2347       453       430      1206       593       351      2927      2251     11607      1782       697
  precision         0.6587    0.6587    0.6587    0.6587    0.6587    0.6587    0.6587    0.6587    0.6587    0.6587    0.6587    0.6587    0.6587

2F4(Hz)
  mean           3024.9811 2699.0169  3055.702 3253.5631 2508.5338 3015.9411  789.1861 2768.4021 2672.3544 2810.7638  343.1326 1503.4365 2907.9441
  std. dev.      1010.9519 1377.3282 1062.5316  718.6748 1464.9089 1214.2293 1444.1977 1253.1897 1324.7044 1230.5926 1035.5503  1689.808 1043.9573
  weight sum          4825       980      2347       453       430      1206       593       351      2927      2251     11607      1782       697
  precision         0.6801    0.6801    0.6801    0.6801    0.6801    0.6801    0.6801    0.6801    0.6801    0.6801    0.6801    0.6801    0.6801

3Int(dB)
  mean             -4.3897   -12.808   -5.4538   -8.3777  -14.9101   -9.0975  -25.7744  -11.3149   -13.066     -8.32  -48.8227  -20.7398   -5.7217
  std. dev.         9.7701   10.9801    8.3541    6.7523     9.056    8.4757   10.4481    8.1955     10.73   12.1084   15.7047    7.1707    8.3788
  weight sum          4825       980      2347       453       430      1206       593       351      2927      2251     11607      1782       697
  precision         0.1001    0.1001    0.1001    0.1001    0.1001    0.1001    0.1001    0.1001    0.1001    0.1001    0.1001    0.1001    0.1001

3Pitch(Hz)
  mean            215.1858  162.0524  188.9309  196.8696  135.5009  172.4627   54.2622  185.6231  157.6979  179.6002   15.2665   61.7681  229.1165
  std. dev.       107.7136  110.5525   88.8484   89.1614  107.5102   77.3033   96.9574  118.8168  101.9598  105.0982   53.8964   96.0371    86.113
  weight sum          4825       980      2347       453       430      1206       593       351      2927      2251     11607      1782       697
  precision         0.1457    0.1457    0.1457    0.1457    0.1457    0.1457    0.1457    0.1457    0.1457    0.1457    0.1457    0.1457    0.1457

3RawPitch
  mean            204.8304  147.7901  185.2813  192.0542   111.142  164.6635   32.6865  156.6646  143.9502  173.0353   12.5274   39.7576  219.1052
  std. dev.       113.2593  115.4056   94.3657   96.8511   103.983   82.3462   78.5019  120.7929  107.6194  111.2194   48.0554   81.4164   94.0431
  weight sum          4825       980      2347       453       430      1206       593       351      2927      2251     11607      1782       697
  precision         0.1486    0.1486    0.1486    0.1486    0.1486    0.1486    0.1486    0.1486    0.1486    0.1486    0.1486    0.1486    0.1486

3SmPitch
  mean            213.0105  157.4726  187.4191   196.136  126.3464   169.864   44.2898   166.358  153.5615  177.2873   13.7665    54.653  227.6752
  std. dev.       109.5872  113.6823   90.1622   90.5134  104.6501   79.4786   90.5866  128.7779  103.7584  107.1683    49.939   91.9017   87.0875
  weight sum          4825       980      2347       453       430      1206       593       351      2927      2251     11607      1782       697
  precision         0.1475    0.1475    0.1475    0.1475    0.1475    0.1475    0.1475    0.1475    0.1475    0.1475    0.1475    0.1475    0.1475

3Melogram(st)
  mean             51.4062   42.0662    50.443   51.7615    38.768   48.4372   13.6569   35.7695   42.2662   46.7991    4.5879   17.5104   54.1423
  std. dev.        16.8175   23.9804   15.4134      13.6   24.2654   16.3134   24.2043   27.8101   23.0811   20.2997    15.144   25.3148    14.241
  weight sum          4825       980      2347       453       430      1206       593       351      2927      2251     11607      1782       697
  precision         0.0271    0.0271    0.0271    0.0271    0.0271    0.0271    0.0271    0.0271    0.0271    0.0271    0.0271    0.0271    0.0271

3ZCross
  mean              6.9598    2.3311    4.9057    3.5269    1.9165    3.5597    1.9024    4.1104     2.412    3.9697    0.2049    3.7754    3.7441
  std. dev.         4.5644    2.0986    3.2087    2.1532    2.0253    3.2377    4.4782    3.2412     2.109    2.9459    0.9759    7.3098    2.8259
  weight sum          4825       980      2347       453       430      1206       593       351      2927      2251     11607      1782       697
  precision         1.1739    1.1739    1.1739    1.1739    1.1739    1.1739    1.1739    1.1739    1.1739    1.1739    1.1739    1.1739    1.1739

3F1(Hz)
  mean            671.8022  382.1121  458.4701  501.7228  405.4793  358.3341   115.987  484.8531  413.0902  479.3066   50.4118  220.6803  490.8774
  std. dev.       275.7695  236.5551  153.5049  169.8665  275.9084  149.9822  220.0229  267.4305  235.1209  228.1739  162.5836  289.1985  313.8193
  weight sum          4825       980      2347       453       430      1206       593       351      2927      2251     11607      1782       697
  precision         0.3628    0.3628    0.3628    0.3628    0.3628    0.3628    0.3628    0.3628    0.3628    0.3628    0.3628    0.3628    0.3628

3F2(Hz)
  mean           1436.7855 1334.4278 1756.5682  1445.933  1210.404 1934.2548  396.5698 1535.9461 1334.2057 1142.3274  156.3977  706.1854 1039.7614
  std. dev.       469.7671  740.0834  558.7593  387.8544  760.5497    698.11  757.6701  758.0401  702.3833  545.8877  498.6702  886.1904  453.9752
  weight sum          4825       980      2347       453       430      1206       593       351      2927      2251     11607      1782       697
  precision         0.4452    0.4452    0.4452    0.4452    0.4452    0.4452    0.4452    0.4452    0.4452    0.4452    0.4452    0.4452    0.4452

3F3(Hz)
  mean           2640.8558 2248.5273 2589.9599 2792.7197 2065.6755  2617.135  657.8933 2471.2355 2298.6833   2486.42  267.8992 1184.1514 2624.1187
  std. dev.       835.2949 1187.9068  828.9033  652.3593 1286.9009  961.8845  1215.998 1198.3641 1180.6446 1037.8263  838.7997 1470.3629   862.036
  weight sum          4825       980      2347       453       430      1206       593       351      2927      2251     11607      1782       697
  precision         0.6587    0.6587    0.6587    0.6587    0.6587    0.6587    0.6587    0.6587    0.6587    0.6587    0.6587    0.6587    0.6587

3F4(Hz)
  mean           3063.4806 2685.0292 3123.7667 3250.4045 2456.6943 3116.8532  773.4427 2715.1754 2649.7983 2862.0839  322.5881 1344.6878 3008.5041
  std. dev.       955.4282 1387.1463   967.012  735.0539 1495.5033 1104.1679 1434.6975 1302.3565 1342.9862 1178.6146 1007.9294 1666.5517  904.6428
  weight sum          4825       980      2347       453       430      1206       593       351      2927      2251     11607      1782       697
  precision         0.6801    0.6801    0.6801    0.6801    0.6801    0.6801    0.6801    0.6801    0.6801    0.6801    0.6801    0.6801    0.6801

4Int(dB)
  mean             -4.3746  -12.3369   -5.3083   -8.2512  -14.9621   -8.8383  -23.7951  -11.5274   -12.918   -8.2927  -49.0439  -21.0967   -5.2124
  std. dev.         9.6808    10.602    8.1563    6.8533    8.8347    8.4087   10.1938    8.1782   10.4398   12.1905   15.4157    6.8726    7.6533
  weight sum          4825       980      2347       453       430      1206       593       351      2927      2251     11607      1782       697
  precision         0.1027    0.1027    0.1027    0.1027    0.1027    0.1027    0.1027    0.1027    0.1027    0.1027    0.1027    0.1027    0.1027

4Pitch(Hz)
  mean            215.2971  163.7124  191.0581  196.5351  133.3692  173.8339   70.4936  184.2752  159.6373  178.5747   14.1348    57.114  230.7901
  std. dev.       107.7031  108.8774   87.4612   89.7942  106.8281   75.6506  107.3611  119.3834  101.2045  104.7438   52.0172   93.5936   82.8574
  weight sum          4825       980      2347       453       430      1206       593       351      2927      2251     11607      1782       697
  precision         0.1457    0.1457    0.1457    0.1457    0.1457    0.1457    0.1457    0.1457    0.1457    0.1457    0.1457    0.1457    0.1457

4RawPitch
  mean            204.9722  150.0446  186.7023  191.2433  109.9149  166.6698   45.5819  153.7664  145.5773  172.5426   11.6322   34.5786  221.3767
  std. dev.       113.3158   114.114   93.4491   96.8178  102.8897   81.1132    91.035   121.208  107.1106  110.6448   46.5665   76.1887   91.1707
  weight sum          4825       980      2347       453       430      1206       593       351      2927      2251     11607      1782       697
  precision         0.1486    0.1486    0.1486    0.1486    0.1486    0.1486    0.1486    0.1486    0.1486    0.1486    0.1486    0.1486    0.1486

4SmPitch
  mean            213.2402  158.6198  189.6338  196.0253   124.407  171.4037   59.1024  165.0181  155.3557  176.5059   12.7092   49.3791  229.7721
  std. dev.       109.3851  112.4568   88.7774   90.7394   103.769   78.1033  102.5179  129.1041  103.2024   106.636   48.0626    88.297   83.4441
  weight sum          4825       980      2347       453       430      1206       593       351      2927      2251     11607      1782       697
  precision         0.1475    0.1475    0.1475    0.1475    0.1475    0.1475    0.1475    0.1475    0.1475    0.1475    0.1475    0.1475    0.1475

4Melogram(st)
  mean              51.533    42.399   50.8127   51.7323   38.4205   48.9436   17.1281   35.5775   42.7041   46.6912    4.2927   16.1904   54.8522
  std. dev.        16.5965   23.6994   14.8245   13.6209   24.4262   15.5254   26.1516   27.9822   22.8272   20.3122    14.704   24.8304   12.6632
  weight sum          4825       980      2347       453       430      1206       593       351      2927      2251     11607      1782       697
  precision         0.0271    0.0271    0.0271    0.0271    0.0271    0.0271    0.0271    0.0271    0.0271    0.0271    0.0271    0.0271    0.0271

4ZCross
  mean              6.9593    2.4041    4.8852    3.6047    1.9001    3.5568    2.2013    4.0502    2.3851    3.9781    0.1869    3.7866    3.8114
  std. dev.         4.5717    2.0753    3.1792    2.1402    2.0075    3.1167    4.5948    3.2261    2.0336    2.8849    0.9421    7.4034    2.7838
  weight sum          4825       980      2347       453       430      1206       593       351      2927      2251     11607      1782       697
  precision         1.1739    1.1739    1.1739    1.1739    1.1739    1.1739    1.1739    1.1739    1.1739    1.1739    1.1739    1.1739    1.1739

4F1(Hz)
  mean            682.1071  381.3506   466.462  503.7105  391.2913  366.1781  129.8821  480.2878  408.0652  486.7294   46.8725    194.93  499.9719
  std. dev.       268.0102   233.551  141.9729  170.1733  276.1702  138.5016  229.9643  272.6783  231.5097  223.3891   156.957  279.2751  304.4022
  weight sum          4825       980      2347       453       430      1206       593       351      2927      2251     11607      1782       697
  precision         0.3628    0.3628    0.3628    0.3628    0.3628    0.3628    0.3628    0.3628    0.3628    0.3628    0.3628    0.3628    0.3628

4F2(Hz)
  mean           1448.2374 1332.6509 1796.4609 1445.2293 1193.1191 2002.2125  429.6705 1506.3848 1335.1042  1145.619  145.6977  631.5714 1063.4579
  std. dev.       448.6029  730.2324  511.4411    391.85  771.0706  633.8216  768.4185  772.5649  699.6339   528.768  482.7575  866.7506  420.6329
  weight sum          4825       980      2347       453       430      1206       593       351      2927      2251     11607      1782       697
  precision         0.4452    0.4452    0.4452    0.4452    0.4452    0.4452    0.4452    0.4452    0.4452    0.4452    0.4452    0.4452    0.4452

4F3(Hz)
  mean           2665.0519 2248.6819 2636.0758 2791.4444 2027.9477 2693.6179  725.7508   2434.89 2300.8076  2513.778  249.4435 1055.6629 2692.0225
  std. dev.       801.5039 1174.9913  763.9923  665.7853 1301.1049  876.6153 1253.0723 1223.3469 1179.8492 1011.4708  812.1745 1435.3364   759.659
  weight sum          4825       980      2347       453       430      1206       593       351      2927      2251     11607      1782       697
  precision         0.6587    0.6587    0.6587    0.6587    0.6587    0.6587    0.6587    0.6587    0.6587    0.6587    0.6587    0.6587    0.6587

4F4(Hz)
  mean            3089.112 2697.4569 3175.4825 3246.0224 2421.4135 3200.0296  860.9421 2683.0906 2652.0267 2890.9482  300.7336 1202.9722 3085.5469
  std. dev.       915.0775 1376.7352  884.6328  750.8035 1516.9857  997.3182 1490.2289 1334.4584 1343.1647 1145.4649  976.9899 1632.8451  770.8999
  weight sum          4825       980      2347       453       430      1206       593       351      2927      2251     11607      1782       697
  precision         0.6801    0.6801    0.6801    0.6801    0.6801    0.6801    0.6801    0.6801    0.6801    0.6801    0.6801    0.6801    0.6801





=== Stratified cross-validation ===

Correctly Classified Instances       14458               47.4827 %
Incorrectly Classified Instances     15991               52.5173 %
Kappa statistic                          0.3555
K&B Relative Info Score             976689.1007 %
K&B Information Score                28425.3175 bits      0.9335 bits/instance
Class complexity | order 0           88594.0019 bits      2.9096 bits/instance
Class complexity | scheme           828434.149  bits     27.2073 bits/instance
Complexity improvement     (Sf)    -739840.1471 bits    -24.2977 bits/instance
Mean absolute error                      0.0809
Root mean squared error                  0.2722
Relative absolute error                 65.568  %
Root relative squared error            109.6301 %
Coverage of cases (0.95 level)          52.5502 %
Mean rel. region size (0.95 level)      10.1951 %
Total Number of Instances            30449     


=== Detailed Accuracy By Class ===

                 TP Rate  FP Rate  Precision  Recall   F-Measure  MCC      ROC Area  PRC Area  Class
                 0,421    0,043    0,649      0,421    0,511      0,455    0,863     0,586     a
                 0,002    0,004    0,018      0,002    0,004      -0,005   0,712     0,055     b
                 0,232    0,025    0,434      0,232    0,302      0,277    0,835     0,324     e
                 0,764    0,278    0,040      0,764    0,076      0,130    0,826     0,054     d
                 0,060    0,021    0,039      0,060    0,047      0,031    0,730     0,029     f
                 0,300    0,024    0,345      0,300    0,321      0,296    0,858     0,270     i
                 0,209    0,029    0,126      0,209    0,157      0,141    0,835     0,099     k
                 0,117    0,002    0,366      0,117    0,177      0,202    0,783     0,116     j
                 0,030    0,016    0,167      0,030    0,051      0,032    0,719     0,160     l
                 0,006    0,002    0,157      0,006    0,011      0,017    0,750     0,161     o
                 0,888    0,109    0,834      0,888    0,860      0,771    0,951     0,945     0
                 0,230    0,022    0,391      0,230    0,289      0,267    0,848     0,317     s
                 0,237    0,009    0,376      0,237    0,290      0,285    0,851     0,221     u
Weighted Avg.    0,475    0,060    0,535      0,475    0,481      0,433    0,862     0,546     


=== Confusion Matrix ===

     a     b     c     d     e     f     g     h     i     j     k     l     m   <-- classified as
  2030     8   205  1788    96    86   139    15    62    47   204    69    76 |     a = a
    60     2    11   513    34    87    44     2    28     3   136    43    17 |     b = b
   246    35   544  1070    52   143    87     3    20     8    77    26    36 |     c = e
    51     0     7   346     1     4     1     0    20     0    12    11     0 |     d = d
    25     1    13   216    26     9    20     2    16     0    73    27     2 |     e = f
    65    12   217   341    35   362    59     1    18     0    57    30     9 |     f = i
     6     2     2    40    26    16   124     1    14     4   293    65     0 |     g = k
    46     4    29   120    11    24     9    41     9     0    31    22     5 |     h = j
   175    12    89  1723   100    91   133     8    88     1   383   107    17 |     i = l
   275    19    63  1266    86    47    68     4    52    13   217    48    93 |     j = o
    25     4    41   622   103    98    96     7   102     4 10308   183    14 |     k = 0
    53     5    21   308    90    61   166    26    80     0   558   409     5 |     l = s
    70     6    11   334     9    22    40     2    17     3    12     6   165 |     m = u

=== Percent Confusion Matrix ===
a	b	c	d	e	f	g	h	i	j	k	l	m	
42.07	0.17	4.25	37.06	1.99	1.78	2.88	0.31	1.28	0.97	4.23	1.43	1.58	 a = a
6.12	0.2	1.12	52.35	3.47	8.88	4.49	0.2	2.86	0.31	13.88	4.39	1.73	 b = b
10.48	1.49	23.18	45.59	2.22	6.09	3.71	0.13	0.85	0.34	3.28	1.11	1.53	 c = e
11.26	0.0	1.55	76.38	0.22	0.88	0.22	0.0	4.42	0.0	2.65	2.43	0.0	 d = d
5.81	0.23	3.02	50.23	6.05	2.09	4.65	0.47	3.72	0.0	16.98	6.28	0.47	 e = f
5.39	1.0	17.99	28.28	2.9	30.02	4.89	0.08	1.49	0.0	4.73	2.49	0.75	 f = i
1.01	0.34	0.34	6.75	4.38	2.7	20.91	0.17	2.36	0.67	49.41	10.96	0.0	 g = k
13.11	1.14	8.26	34.19	3.13	6.84	2.56	11.68	2.56	0.0	8.83	6.27	1.42	 h = j
5.98	0.41	3.04	58.87	3.42	3.11	4.54	0.27	3.01	0.03	13.09	3.66	0.58	 i = l
12.22	0.84	2.8	56.24	3.82	2.09	3.02	0.18	2.31	0.58	9.64	2.13	4.13	 j = o
0.22	0.03	0.35	5.36	0.89	0.84	0.83	0.06	0.88	0.03	88.81	1.58	0.12	 k = 0
2.97	0.28	1.18	17.28	5.05	3.42	9.32	1.46	4.49	0.0	31.31	22.95	0.28	 l = s
10.04	0.86	1.58	47.92	1.29	3.16	5.74	0.29	2.44	0.43	1.72	0.86	23.67	 m = u
