Timestamp:2014-12-07-10:50:42
Inventario:I1
Intervalo:6ms
Ngramas:2
Clasificador:NaiveBayes
Relation Name:  I1-6ms-2gramas
Num Instances:  30452
Num Attributes: 21

     Name                      Type  Nom  Int Real     Missing      Unique  Dist
   1 0Int(dB)                   Num   0%  10%  90%     0 /  0%     2 /  0%   776 
   2 0Pitch(Hz)                 Num   0%  51%  49%     0 /  0%   750 /  2%  3423 
   3 0RawPitch                  Num   0%  55%  45%     0 /  0%   699 /  2%  3337 
   4 0SmPitch                   Num   0%  53%  47%     0 /  0%   748 /  2%  3382 
   5 0Melogram(st)              Num   0%  48%  52%     0 /  0%   413 /  1%  3048 
   6 0ZCross                    Num   0% 100%   0%     0 /  0%     8 /  0%    47 
   7 0F1(Hz)                    Num   0%  52%  48%     0 /  0%  1130 /  4%  4802 
   8 0F2(Hz)                    Num   0%  51%  49%     0 /  0%  2251 /  7%  6691 
   9 0F3(Hz)                    Num   0%  52%  48%     0 /  0%  1969 /  6%  6255 
  10 0F4(Hz)                    Num   0%  52%  48%     0 /  0%  1938 /  6%  6099 
  11 1Int(dB)                   Num   0%  10%  90%     0 /  0%     3 /  0%   777 
  12 1Pitch(Hz)                 Num   0%  51%  49%     0 /  0%   750 /  2%  3423 
  13 1RawPitch                  Num   0%  55%  45%     0 /  0%   699 /  2%  3337 
  14 1SmPitch                   Num   0%  53%  47%     0 /  0%   748 /  2%  3382 
  15 1Melogram(st)              Num   0%  48%  52%     0 /  0%   413 /  1%  3048 
  16 1ZCross                    Num   0% 100%   0%     0 /  0%     8 /  0%    47 
  17 1F1(Hz)                    Num   0%  52%  48%     0 /  0%  1130 /  4%  4802 
  18 1F2(Hz)                    Num   0%  51%  49%     0 /  0%  2251 /  7%  6691 
  19 1F3(Hz)                    Num   0%  52%  48%     0 /  0%  1969 /  6%  6255 
  20 1F4(Hz)                    Num   0%  52%  48%     0 /  0%  1938 /  6%  6099 
  21 class                      Nom 100%   0%   0%     0 /  0%     0 /  0%    13 


Naive Bayes Classifier

                    Class
Attribute               a         b         e         d         f         i         k         j         l         o         0         s         u
                   (0.16)    (0.03)    (0.08)    (0.01)    (0.01)    (0.04)    (0.02)    (0.01)     (0.1)    (0.07)    (0.38)    (0.06)    (0.02)
==================================================================================================================================================
0Int(dB)
  mean             -4.3897   -12.808   -5.4538   -8.3777  -14.9101   -9.0975  -25.7744  -11.3149   -13.066     -8.32   -48.822  -20.7398   -5.7217
  std. dev.         9.7701   10.9801    8.3541    6.7523     9.056    8.4757   10.4481    8.1955     10.73   12.1084   15.7027    7.1707    8.3788
  weight sum          4825       980      2347       453       430      1206       593       351      2927      2251     11610      1782       697
  precision         0.1001    0.1001    0.1001    0.1001    0.1001    0.1001    0.1001    0.1001    0.1001    0.1001    0.1001    0.1001    0.1001

0Pitch(Hz)
  mean            215.1858  162.0524  188.9309  196.8696  135.5009  172.4627   54.2622  185.6231  157.6979  179.6002   15.2625   61.7681  229.1165
  std. dev.       107.7136  110.5525   88.8484   89.1614  107.5102   77.3033   96.9574  118.8168  101.9598  105.0982     53.89   96.0371    86.113
  weight sum          4825       980      2347       453       430      1206       593       351      2927      2251     11610      1782       697
  precision         0.1457    0.1457    0.1457    0.1457    0.1457    0.1457    0.1457    0.1457    0.1457    0.1457    0.1457    0.1457    0.1457

0RawPitch
  mean            204.8304  147.7901  185.2813  192.0542   111.142  164.6635   32.6865  156.6646  143.9502  173.0353   12.5242   39.7576  219.1052
  std. dev.       113.2593  115.4056   94.3657   96.8511   103.983   82.3462   78.5019  120.7929  107.6194  111.2194   48.0496   81.4164   94.0431
  weight sum          4825       980      2347       453       430      1206       593       351      2927      2251     11610      1782       697
  precision         0.1486    0.1486    0.1486    0.1486    0.1486    0.1486    0.1486    0.1486    0.1486    0.1486    0.1486    0.1486    0.1486

0SmPitch
  mean            213.0105  157.4726  187.4191   196.136  126.3464   169.864   44.2898   166.358  153.5615  177.2873    13.763    54.653  227.6752
  std. dev.       109.5872  113.6823   90.1622   90.5134  104.6501   79.4786   90.5866  128.7779  103.7584  107.1683   49.9331   91.9017   87.0875
  weight sum          4825       980      2347       453       430      1206       593       351      2927      2251     11610      1782       697
  precision         0.1475    0.1475    0.1475    0.1475    0.1475    0.1475    0.1475    0.1475    0.1475    0.1475    0.1475    0.1475    0.1475

0Melogram(st)
  mean             51.4062   42.0662    50.443   51.7615    38.768   48.4372   13.6569   35.7695   42.2662   46.7991    4.5867   17.5104   54.1423
  std. dev.        16.8175   23.9804   15.4134      13.6   24.2654   16.3134   24.2043   27.8101   23.0811   20.2997   15.1422   25.3148    14.241
  weight sum          4825       980      2347       453       430      1206       593       351      2927      2251     11610      1782       697
  precision         0.0271    0.0271    0.0271    0.0271    0.0271    0.0271    0.0271    0.0271    0.0271    0.0271    0.0271    0.0271    0.0271

0ZCross
  mean              6.9598    2.3311    4.9057    3.5269    1.9165    3.5597    1.9024    4.1104     2.412    3.9697    0.2049    3.7754    3.7441
  std. dev.         4.5644    2.0986    3.2087    2.1532    2.0253    3.2377    4.4782    3.2412     2.109    2.9459    0.9758    7.3098    2.8259
  weight sum          4825       980      2347       453       430      1206       593       351      2927      2251     11610      1782       697
  precision         1.1739    1.1739    1.1739    1.1739    1.1739    1.1739    1.1739    1.1739    1.1739    1.1739    1.1739    1.1739    1.1739

0F1(Hz)
  mean            671.8022  382.1121  458.4701  501.7228  405.4793  358.3341   115.987  484.8531  413.0902  479.3066   50.3988  220.6803  490.8774
  std. dev.       275.7695  236.5551  153.5049  169.8665  275.9084  149.9822  220.0229  267.4305  235.1209  228.1739  162.5646  289.1985  313.8193
  weight sum          4825       980      2347       453       430      1206       593       351      2927      2251     11610      1782       697
  precision         0.3628    0.3628    0.3628    0.3628    0.3628    0.3628    0.3628    0.3628    0.3628    0.3628    0.3628    0.3628    0.3628

0F2(Hz)
  mean           1436.7855 1334.4278 1756.5682  1445.933  1210.404 1934.2548  396.5698 1535.9461 1334.2057 1142.3274  156.3573  706.1854 1039.7614
  std. dev.       469.7671  740.0834  558.7593  387.8544  760.5497    698.11  757.6701  758.0401  702.3833  545.8877  498.6121  886.1904  453.9752
  weight sum          4825       980      2347       453       430      1206       593       351      2927      2251     11610      1782       697
  precision         0.4452    0.4452    0.4452    0.4452    0.4452    0.4452    0.4452    0.4452    0.4452    0.4452    0.4452    0.4452    0.4452

0F3(Hz)
  mean           2640.8558 2248.5273 2589.9599 2792.7197 2065.6755  2617.135  657.8933 2471.2355 2298.6833   2486.42    267.83 1184.1514 2624.1187
  std. dev.       835.2949 1187.9068  828.9033  652.3593 1286.9009  961.8845  1215.998 1198.3641 1180.6446 1037.8263  838.7023 1470.3629   862.036
  weight sum          4825       980      2347       453       430      1206       593       351      2927      2251     11610      1782       697
  precision         0.6587    0.6587    0.6587    0.6587    0.6587    0.6587    0.6587    0.6587    0.6587    0.6587    0.6587    0.6587    0.6587

0F4(Hz)
  mean           3063.4806 2685.0292 3123.7667 3250.4045 2456.6943 3116.8532  773.4427 2715.1754 2649.7983 2862.0839  322.5048 1344.6878 3008.5041
  std. dev.       955.4282 1387.1463   967.012  735.0539 1495.5033 1104.1679 1434.6975 1302.3565 1342.9862 1178.6146 1007.8125 1666.5517  904.6428
  weight sum          4825       980      2347       453       430      1206       593       351      2927      2251     11610      1782       697
  precision         0.6801    0.6801    0.6801    0.6801    0.6801    0.6801    0.6801    0.6801    0.6801    0.6801    0.6801    0.6801    0.6801

1Int(dB)
  mean             -4.3746  -12.3369   -5.3083   -8.2512  -14.9621   -8.8383  -23.7951  -11.5274   -12.918   -8.2927  -49.0432  -21.0967   -5.2124
  std. dev.         9.6808    10.602    8.1563    6.8533    8.8347    8.4087   10.1938    8.1782   10.4398   12.1905   15.4138    6.8726    7.6533
  weight sum          4825       980      2347       453       430      1206       593       351      2927      2251     11610      1782       697
  precision         0.1027    0.1027    0.1027    0.1027    0.1027    0.1027    0.1027    0.1027    0.1027    0.1027    0.1027    0.1027    0.1027

1Pitch(Hz)
  mean            215.2971  163.7124  191.0581  196.5351  133.3692  173.8339   70.4936  184.2752  159.6373  178.5747   14.1311    57.114  230.7901
  std. dev.       107.7031  108.8774   87.4612   89.7942  106.8281   75.6506  107.3611  119.3834  101.2045  104.7438   52.0109   93.5936   82.8574
  weight sum          4825       980      2347       453       430      1206       593       351      2927      2251     11610      1782       697
  precision         0.1457    0.1457    0.1457    0.1457    0.1457    0.1457    0.1457    0.1457    0.1457    0.1457    0.1457    0.1457    0.1457

1RawPitch
  mean            204.9722  150.0446  186.7023  191.2433  109.9149  166.6698   45.5819  153.7664  145.5773  172.5426   11.6292   34.5786  221.3767
  std. dev.       113.3158   114.114   93.4491   96.8178  102.8897   81.1132    91.035   121.208  107.1106  110.6448   46.5608   76.1887   91.1707
  weight sum          4825       980      2347       453       430      1206       593       351      2927      2251     11610      1782       697
  precision         0.1486    0.1486    0.1486    0.1486    0.1486    0.1486    0.1486    0.1486    0.1486    0.1486    0.1486    0.1486    0.1486

1SmPitch
  mean            213.2402  158.6198  189.6338  196.0253   124.407  171.4037   59.1024  165.0181  155.3557  176.5059   12.7059   49.3791  229.7721
  std. dev.       109.3851  112.4568   88.7774   90.7394   103.769   78.1033  102.5179  129.1041  103.2024   106.636   48.0568    88.297   83.4441
  weight sum          4825       980      2347       453       430      1206       593       351      2927      2251     11610      1782       697
  precision         0.1475    0.1475    0.1475    0.1475    0.1475    0.1475    0.1475    0.1475    0.1475    0.1475    0.1475    0.1475    0.1475

1Melogram(st)
  mean              51.533    42.399   50.8127   51.7323   38.4205   48.9436   17.1281   35.5775   42.7041   46.6912    4.2916   16.1904   54.8522
  std. dev.        16.5965   23.6994   14.8245   13.6209   24.4262   15.5254   26.1516   27.9822   22.8272   20.3122   14.7022   24.8304   12.6632
  weight sum          4825       980      2347       453       430      1206       593       351      2927      2251     11610      1782       697
  precision         0.0271    0.0271    0.0271    0.0271    0.0271    0.0271    0.0271    0.0271    0.0271    0.0271    0.0271    0.0271    0.0271

1ZCross
  mean              6.9593    2.4041    4.8852    3.6047    1.9001    3.5568    2.2013    4.0502    2.3851    3.9781    0.1869    3.7866    3.8114
  std. dev.         4.5717    2.0753    3.1792    2.1402    2.0075    3.1167    4.5948    3.2261    2.0336    2.8849     0.942    7.4034    2.7838
  weight sum          4825       980      2347       453       430      1206       593       351      2927      2251     11610      1782       697
  precision         1.1739    1.1739    1.1739    1.1739    1.1739    1.1739    1.1739    1.1739    1.1739    1.1739    1.1739    1.1739    1.1739

1F1(Hz)
  mean            682.1071  381.3506   466.462  503.7105  391.2913  366.1781  129.8821  480.2878  408.0652  486.7294   46.8603    194.93  499.9719
  std. dev.       268.0102   233.551  141.9729  170.1733  276.1702  138.5016  229.9643  272.6783  231.5097  223.3891  156.9386  279.2751  304.4022
  weight sum          4825       980      2347       453       430      1206       593       351      2927      2251     11610      1782       697
  precision         0.3628    0.3628    0.3628    0.3628    0.3628    0.3628    0.3628    0.3628    0.3628    0.3628    0.3628    0.3628    0.3628

1F2(Hz)
  mean           1448.2374 1332.6509 1796.4609 1445.2293 1193.1191 2002.2125  429.6705 1506.3848 1335.1042  1145.619  145.6601  631.5714 1063.4579
  std. dev.       448.6029  730.2324  511.4411    391.85  771.0706  633.8216  768.4185  772.5649  699.6339   528.768  482.7008  866.7506  420.6329
  weight sum          4825       980      2347       453       430      1206       593       351      2927      2251     11610      1782       697
  precision         0.4452    0.4452    0.4452    0.4452    0.4452    0.4452    0.4452    0.4452    0.4452    0.4452    0.4452    0.4452    0.4452

1F3(Hz)
  mean           2665.0519 2248.6819 2636.0758 2791.4444 2027.9477 2693.6179  725.7508   2434.89 2300.8076  2513.778  249.3791 1055.6629 2692.0225
  std. dev.       801.5039 1174.9913  763.9923  665.7853 1301.1049  876.6153 1253.0723 1223.3469 1179.8492 1011.4708  812.0795 1435.3364   759.659
  weight sum          4825       980      2347       453       430      1206       593       351      2927      2251     11610      1782       697
  precision         0.6587    0.6587    0.6587    0.6587    0.6587    0.6587    0.6587    0.6587    0.6587    0.6587    0.6587    0.6587    0.6587

1F4(Hz)
  mean            3089.112 2697.4569 3175.4825 3246.0224 2421.4135 3200.0296  860.9421 2683.0906 2652.0267 2890.9482  300.6559 1202.9722 3085.5469
  std. dev.       915.0775 1376.7352  884.6328  750.8035 1516.9857  997.3182 1490.2289 1334.4584 1343.1647 1145.4649  976.8757 1632.8451  770.8999
  weight sum          4825       980      2347       453       430      1206       593       351      2927      2251     11610      1782       697
  precision         0.6801    0.6801    0.6801    0.6801    0.6801    0.6801    0.6801    0.6801    0.6801    0.6801    0.6801    0.6801    0.6801





=== Stratified cross-validation ===

Correctly Classified Instances       16060               52.7387 %
Incorrectly Classified Instances     14392               47.2613 %
Kappa statistic                          0.4073
K&B Relative Info Score            1186464.7201 %
K&B Information Score                34527.9605 bits      1.1338 bits/instance
Class complexity | order 0           88598.1754 bits      2.9094 bits/instance
Class complexity | scheme           352406.5287 bits     11.5725 bits/instance
Complexity improvement     (Sf)    -263808.3533 bits     -8.6631 bits/instance
Mean absolute error                      0.0755
Root mean squared error                  0.2356
Relative absolute error                 61.2445 %
Root relative squared error             94.8737 %
Coverage of cases (0.95 level)          66.1139 %
Mean rel. region size (0.95 level)      17.1273 %
Total Number of Instances            30452     


=== Detailed Accuracy By Class ===

                 TP Rate  FP Rate  Precision  Recall   F-Measure  MCC      ROC Area  PRC Area  Class
                 0,515    0,049    0,663      0,515    0,580      0,518    0,881     0,618     a
                 0,000    0,002    0,000      0,000    0,000      -0,008   0,726     0,058     b
                 0,611    0,101    0,335      0,611    0,433      0,391    0,861     0,395     e
                 0,464    0,133    0,050      0,464    0,090      0,116    0,814     0,048     d
                 0,016    0,005    0,042      0,016    0,023      0,017    0,739     0,031     f
                 0,373    0,037    0,293      0,373    0,328      0,300    0,862     0,287     i
                 0,133    0,014    0,161      0,133    0,146      0,131    0,839     0,093     k
                 0,074    0,001    0,433      0,074    0,127      0,176    0,750     0,088     j
                 0,078    0,040    0,170      0,078    0,106      0,053    0,748     0,181     l
                 0,003    0,001    0,143      0,003    0,006      0,011    0,780     0,194     o
                 0,902    0,127    0,815      0,902    0,856      0,763    0,957     0,953     0
                 0,215    0,020    0,401      0,215    0,280      0,263    0,871     0,338     s
                 0,393    0,015    0,381      0,393    0,387      0,372    0,867     0,353     u
Weighted Avg.    0,527    0,073    0,522      0,527    0,507      0,451    0,876     0,568     


=== Confusion Matrix ===

     a     b     c     d     e     f     g     h     i     j     k     l     m   <-- classified as
  2487     7   708   905    22    88    48    17   178    24   231    62    48 |     a = a
    75     0   164   245     8   146    22     1    76     1   157    37    48 |     b = b
   257    13  1433   238    10   138    37     4    82     7    87    23    18 |     c = e
    64     0    98   210     0    27     0     0    25     0    16     7     6 |     d = d
    31     0    54   124     7    44    19     0    40     0    88    22     1 |     e = f
    66     8   483    26     7   450    26     0    57     0    56    25     2 |     f = i
    10     3    16    25     8    19    79     2    43     0   308    77     3 |     g = k
    51     1    95    24     3    34     3    26    32     3    49    16    14 |     h = j
   213     7   429  1076    23   269    88     0   227     1   427   114    53 |     i = l
   301     9   505   710    14    21    14     1   157     7   234    54   224 |     j = o
    40     1   161   317    36   164    35     3   216     4 10476   131    26 |     k = 0
    76     0    53   133    22   116   107     6   159     2   721   384     3 |     l = s
    82     5    76   159     8    19    12     0    46     0    10     6   274 |     m = u

=== Percent Confusion Matrix ===
a	b	c	d	e	f	g	h	i	j	k	l	m	
51.54	0.15	14.67	18.76	0.46	1.82	0.99	0.35	3.69	0.5	4.79	1.28	0.99	 a = a
7.65	0.0	16.73	25.0	0.82	14.9	2.24	0.1	7.76	0.1	16.02	3.78	4.9	 b = b
10.95	0.55	61.06	10.14	0.43	5.88	1.58	0.17	3.49	0.3	3.71	0.98	0.77	 c = e
14.13	0.0	21.63	46.36	0.0	5.96	0.0	0.0	5.52	0.0	3.53	1.55	1.32	 d = d
7.21	0.0	12.56	28.84	1.63	10.23	4.42	0.0	9.3	0.0	20.47	5.12	0.23	 e = f
5.47	0.66	40.05	2.16	0.58	37.31	2.16	0.0	4.73	0.0	4.64	2.07	0.17	 f = i
1.69	0.51	2.7	4.22	1.35	3.2	13.32	0.34	7.25	0.0	51.94	12.98	0.51	 g = k
14.53	0.28	27.07	6.84	0.85	9.69	0.85	7.41	9.12	0.85	13.96	4.56	3.99	 h = j
7.28	0.24	14.66	36.76	0.79	9.19	3.01	0.0	7.76	0.03	14.59	3.89	1.81	 i = l
13.37	0.4	22.43	31.54	0.62	0.93	0.62	0.04	6.97	0.31	10.4	2.4	9.95	 j = o
0.34	0.01	1.39	2.73	0.31	1.41	0.3	0.03	1.86	0.03	90.23	1.13	0.22	 k = 0
4.26	0.0	2.97	7.46	1.23	6.51	6.0	0.34	8.92	0.11	40.46	21.55	0.17	 l = s
11.76	0.72	10.9	22.81	1.15	2.73	1.72	0.0	6.6	0.0	1.43	0.86	39.31	 m = u
