Timestamp:2014-12-07-10:50:49
Inventario:I1
Intervalo:6ms
Ngramas:3
Clasificador:NaiveBayes
Relation Name:  I1-6ms-3gramas
Num Instances:  30451
Num Attributes: 31

     Name                      Type  Nom  Int Real     Missing      Unique  Dist
   1 0Int(dB)                   Num   0%  10%  90%     0 /  0%     2 /  0%   776 
   2 0Pitch(Hz)                 Num   0%  51%  49%     0 /  0%   750 /  2%  3423 
   3 0RawPitch                  Num   0%  55%  45%     0 /  0%   699 /  2%  3337 
   4 0SmPitch                   Num   0%  53%  47%     0 /  0%   748 /  2%  3382 
   5 0Melogram(st)              Num   0%  48%  52%     0 /  0%   413 /  1%  3048 
   6 0ZCross                    Num   0% 100%   0%     0 /  0%     8 /  0%    47 
   7 0F1(Hz)                    Num   0%  52%  48%     0 /  0%  1130 /  4%  4802 
   8 0F2(Hz)                    Num   0%  51%  49%     0 /  0%  2251 /  7%  6691 
   9 0F3(Hz)                    Num   0%  52%  48%     0 /  0%  1969 /  6%  6255 
  10 0F4(Hz)                    Num   0%  52%  48%     0 /  0%  1938 /  6%  6099 
  11 1Int(dB)                   Num   0%  10%  90%     0 /  0%     2 /  0%   776 
  12 1Pitch(Hz)                 Num   0%  51%  49%     0 /  0%   750 /  2%  3423 
  13 1RawPitch                  Num   0%  55%  45%     0 /  0%   699 /  2%  3337 
  14 1SmPitch                   Num   0%  53%  47%     0 /  0%   748 /  2%  3382 
  15 1Melogram(st)              Num   0%  48%  52%     0 /  0%   413 /  1%  3048 
  16 1ZCross                    Num   0% 100%   0%     0 /  0%     8 /  0%    47 
  17 1F1(Hz)                    Num   0%  52%  48%     0 /  0%  1130 /  4%  4802 
  18 1F2(Hz)                    Num   0%  51%  49%     0 /  0%  2251 /  7%  6691 
  19 1F3(Hz)                    Num   0%  52%  48%     0 /  0%  1969 /  6%  6255 
  20 1F4(Hz)                    Num   0%  52%  48%     0 /  0%  1938 /  6%  6099 
  21 2Int(dB)                   Num   0%  10%  90%     0 /  0%     3 /  0%   777 
  22 2Pitch(Hz)                 Num   0%  51%  49%     0 /  0%   750 /  2%  3423 
  23 2RawPitch                  Num   0%  55%  45%     0 /  0%   699 /  2%  3337 
  24 2SmPitch                   Num   0%  53%  47%     0 /  0%   748 /  2%  3382 
  25 2Melogram(st)              Num   0%  48%  52%     0 /  0%   413 /  1%  3048 
  26 2ZCross                    Num   0% 100%   0%     0 /  0%     8 /  0%    47 
  27 2F1(Hz)                    Num   0%  52%  48%     0 /  0%  1130 /  4%  4802 
  28 2F2(Hz)                    Num   0%  51%  49%     0 /  0%  2251 /  7%  6691 
  29 2F3(Hz)                    Num   0%  52%  48%     0 /  0%  1969 /  6%  6255 
  30 2F4(Hz)                    Num   0%  52%  48%     0 /  0%  1938 /  6%  6099 
  31 class                      Nom 100%   0%   0%     0 /  0%     0 /  0%    13 


Naive Bayes Classifier

                    Class
Attribute               a         b         e         d         f         i         k         j         l         o         0         s         u
                   (0.16)    (0.03)    (0.08)    (0.01)    (0.01)    (0.04)    (0.02)    (0.01)     (0.1)    (0.07)    (0.38)    (0.06)    (0.02)
==================================================================================================================================================
0Int(dB)
  mean             -4.5987  -12.9966   -5.8995   -8.2731  -14.5611   -9.5588  -27.3842  -10.8827  -12.9363   -8.5713   -48.557  -20.1718    -6.419
  std. dev.        10.0572   11.3571     8.786    6.6541    9.4214    8.7617   10.8851    8.1769   11.0827   12.1108   16.0879    7.6914    9.2206
  weight sum          4825       980      2347       453       430      1206       593       351      2927      2251     11609      1782       697
  precision         0.1001    0.1001    0.1001    0.1001    0.1001    0.1001    0.1001    0.1001    0.1001    0.1001    0.1001    0.1001    0.1001

0Pitch(Hz)
  mean            213.9858  162.1914  185.9675  197.3077  138.3865   168.922   45.4981   187.856  157.0364  178.5044   16.3299   69.9297  225.2933
  std. dev.       108.6894  111.4338   90.3606    88.379  108.2488   80.1793   89.7523  117.9773  102.5375  106.4846   55.6006   99.8467   91.5415
  weight sum          4825       980      2347       453       430      1206       593       351      2927      2251     11609      1782       697
  precision         0.1457    0.1457    0.1457    0.1457    0.1457    0.1457    0.1457    0.1457    0.1457    0.1457    0.1457    0.1457    0.1457

0RawPitch
  mean            203.4289  148.0422  181.6948  192.1779  114.6567   160.411     28.08  160.2113  143.9763  171.1249   13.5133   48.3896  215.3066
  std. dev.       114.2033  115.6256   96.2139   96.4293  105.4998   84.8193   73.6872  120.1699  107.8515  112.4932   50.0924   88.2157   98.6174
  weight sum          4825       980      2347       453       430      1206       593       351      2927      2251     11609      1782       697
  precision         0.1486    0.1486    0.1486    0.1486    0.1486    0.1486    0.1486    0.1486    0.1486    0.1486    0.1486    0.1486    0.1486

0SmPitch
  mean            211.6839  158.6549  183.5596  196.3238  128.8353  166.5988   37.4495  169.3515    153.06  175.9059   14.8061   63.2287  223.7844
  std. dev.       110.6731   113.938   92.3488   90.1643  105.8213   81.8868   83.3549  128.1426  104.1339  108.6981   51.7803   96.7439   92.4136
  weight sum          4825       980      2347       453       430      1206       593       351      2927      2251     11609      1782       697
  precision         0.1475    0.1475    0.1475    0.1475    0.1475    0.1475    0.1475    0.1475    0.1475    0.1475    0.1475    0.1475    0.1475

0Melogram(st)
  mean             51.0457   42.2976   49.6417   51.8281   39.2686   47.3894    11.749   36.5248   42.2638   46.4994    4.8244   19.7929   52.9038
  std. dev.        17.3442   23.9194   16.5413    13.567   24.0506   17.6115   22.8164   27.5673   23.0808   20.6431   15.4707   26.0731    16.369
  weight sum          4825       980      2347       453       430      1206       593       351      2927      2251     11609      1782       697
  precision         0.0271    0.0271    0.0271    0.0271    0.0271    0.0271    0.0271    0.0271    0.0271    0.0271    0.0271    0.0271    0.0271

0ZCross
  mean              6.8934    2.3634    4.8687     3.514    2.0038    3.5256    1.4808     4.204    2.5451    3.9353    0.2426    3.7227    3.6666
  std. dev.         4.5993    2.1945    3.3612    2.1397    2.0839    3.3498    3.8921    3.2723    2.2775     3.141    1.1445    7.0686    2.8883
  weight sum          4825       980      2347       453       430      1206       593       351      2927      2251     11609      1782       697
  precision         1.1739    1.1739    1.1739    1.1739    1.1739    1.1739    1.1739    1.1739    1.1739    1.1739    1.1739    1.1739    1.1739

0F1(Hz)
  mean            658.1625  387.5882  448.1303  500.2076  421.3901  348.8664  117.9324  492.7629   423.242  467.9136   53.9321  248.7061  478.0605
  std. dev.       286.2026  237.6824  167.3815  169.1352  272.3544  162.2662  220.7516  259.6754  236.8156  235.6843  168.2103  296.4808   324.529
  weight sum          4825       980      2347       453       430      1206       593       351      2927      2251     11609      1782       697
  precision         0.3628    0.3628    0.3628    0.3628    0.3628    0.3628    0.3628    0.3628    0.3628    0.3628    0.3628    0.3628    0.3628

0F2(Hz)
  mean           1419.2622 1348.6957 1706.5198 1446.9631 1239.1028 1853.8785  411.5536 1575.7063 1346.3767 1129.6245  166.3315  789.2014 1009.2259
  std. dev.       497.7941  740.2835  612.0386  383.2018  748.4208  761.7664  773.8313  733.0165   696.808  569.4748  512.7304    899.54  490.7397
  weight sum          4825       980      2347       453       430      1206       593       351      2927      2251     11609      1782       697
  precision         0.4452    0.4452    0.4452    0.4452    0.4452    0.4452    0.4452    0.4452    0.4452    0.4452    0.4452    0.4452    0.4452

0F3(Hz)
  mean           2605.2622  2271.328 2528.8267 2795.3227 2115.5779 2527.1222  674.1653 2522.2799 2319.1175  2440.143  285.4193 1326.8202 2534.3382
  std. dev.       881.9027 1184.8692   904.012  639.5707 1263.4416 1049.8927 1228.4134 1156.1143 1166.4253 1080.4541  863.1325 1494.5506  971.1663
  weight sum          4825       980      2347       453       430      1206       593       351      2927      2251     11609      1782       697
  precision         0.6587    0.6587    0.6587    0.6587    0.6587    0.6587    0.6587    0.6587    0.6587    0.6587    0.6587    0.6587    0.6587

0F4(Hz)
  mean           3024.9811 2699.0169  3055.702 3253.5631 2508.5338 3015.9411  789.1861 2768.4021 2672.3544 2810.7638  343.0735 1503.4365 2907.9441
  std. dev.      1010.9519 1377.3282 1062.5316  718.6748 1464.9089 1214.2293 1444.1977 1253.1897 1324.7044 1230.5926 1035.4709  1689.808 1043.9573
  weight sum          4825       980      2347       453       430      1206       593       351      2927      2251     11609      1782       697
  precision         0.6801    0.6801    0.6801    0.6801    0.6801    0.6801    0.6801    0.6801    0.6801    0.6801    0.6801    0.6801    0.6801

1Int(dB)
  mean             -4.3897   -12.808   -5.4538   -8.3777  -14.9101   -9.0975  -25.7744  -11.3149   -13.066     -8.32  -48.8223  -20.7398   -5.7217
  std. dev.         9.7701   10.9801    8.3541    6.7523     9.056    8.4757   10.4481    8.1955     10.73   12.1084   15.7034    7.1707    8.3788
  weight sum          4825       980      2347       453       430      1206       593       351      2927      2251     11609      1782       697
  precision         0.1001    0.1001    0.1001    0.1001    0.1001    0.1001    0.1001    0.1001    0.1001    0.1001    0.1001    0.1001    0.1001

1Pitch(Hz)
  mean            215.1858  162.0524  188.9309  196.8696  135.5009  172.4627   54.2622  185.6231  157.6979  179.6002   15.2638   61.7681  229.1165
  std. dev.       107.7136  110.5525   88.8484   89.1614  107.5102   77.3033   96.9574  118.8168  101.9598  105.0982   53.8922   96.0371    86.113
  weight sum          4825       980      2347       453       430      1206       593       351      2927      2251     11609      1782       697
  precision         0.1457    0.1457    0.1457    0.1457    0.1457    0.1457    0.1457    0.1457    0.1457    0.1457    0.1457    0.1457    0.1457

1RawPitch
  mean            204.8304  147.7901  185.2813  192.0542   111.142  164.6635   32.6865  156.6646  143.9502  173.0353   12.5253   39.7576  219.1052
  std. dev.       113.2593  115.4056   94.3657   96.8511   103.983   82.3462   78.5019  120.7929  107.6194  111.2194   48.0516   81.4164   94.0431
  weight sum          4825       980      2347       453       430      1206       593       351      2927      2251     11609      1782       697
  precision         0.1486    0.1486    0.1486    0.1486    0.1486    0.1486    0.1486    0.1486    0.1486    0.1486    0.1486    0.1486    0.1486

1SmPitch
  mean            213.0105  157.4726  187.4191   196.136  126.3464   169.864   44.2898   166.358  153.5615  177.2873   13.7642    54.653  227.6752
  std. dev.       109.5872  113.6823   90.1622   90.5134  104.6501   79.4786   90.5866  128.7779  103.7584  107.1683   49.9351   91.9017   87.0875
  weight sum          4825       980      2347       453       430      1206       593       351      2927      2251     11609      1782       697
  precision         0.1475    0.1475    0.1475    0.1475    0.1475    0.1475    0.1475    0.1475    0.1475    0.1475    0.1475    0.1475    0.1475

1Melogram(st)
  mean             51.4062   42.0662    50.443   51.7615    38.768   48.4372   13.6569   35.7695   42.2662   46.7991    4.5871   17.5104   54.1423
  std. dev.        16.8175   23.9804   15.4134      13.6   24.2654   16.3134   24.2043   27.8101   23.0811   20.2997   15.1428   25.3148    14.241
  weight sum          4825       980      2347       453       430      1206       593       351      2927      2251     11609      1782       697
  precision         0.0271    0.0271    0.0271    0.0271    0.0271    0.0271    0.0271    0.0271    0.0271    0.0271    0.0271    0.0271    0.0271

1ZCross
  mean              6.9598    2.3311    4.9057    3.5269    1.9165    3.5597    1.9024    4.1104     2.412    3.9697    0.2049    3.7754    3.7441
  std. dev.         4.5644    2.0986    3.2087    2.1532    2.0253    3.2377    4.4782    3.2412     2.109    2.9459    0.9759    7.3098    2.8259
  weight sum          4825       980      2347       453       430      1206       593       351      2927      2251     11609      1782       697
  precision         1.1739    1.1739    1.1739    1.1739    1.1739    1.1739    1.1739    1.1739    1.1739    1.1739    1.1739    1.1739    1.1739

1F1(Hz)
  mean            671.8022  382.1121  458.4701  501.7228  405.4793  358.3341   115.987  484.8531  413.0902  479.3066   50.4031  220.6803  490.8774
  std. dev.       275.7695  236.5551  153.5049  169.8665  275.9084  149.9822  220.0229  267.4305  235.1209  228.1739   162.571  289.1985  313.8193
  weight sum          4825       980      2347       453       430      1206       593       351      2927      2251     11609      1782       697
  precision         0.3628    0.3628    0.3628    0.3628    0.3628    0.3628    0.3628    0.3628    0.3628    0.3628    0.3628    0.3628    0.3628

1F2(Hz)
  mean           1436.7855 1334.4278 1756.5682  1445.933  1210.404 1934.2548  396.5698 1535.9461 1334.2057 1142.3274  156.3707  706.1854 1039.7614
  std. dev.       469.7671  740.0834  558.7593  387.8544  760.5497    698.11  757.6701  758.0401  702.3833  545.8877  498.6315  886.1904  453.9752
  weight sum          4825       980      2347       453       430      1206       593       351      2927      2251     11609      1782       697
  precision         0.4452    0.4452    0.4452    0.4452    0.4452    0.4452    0.4452    0.4452    0.4452    0.4452    0.4452    0.4452    0.4452

1F3(Hz)
  mean           2640.8558 2248.5273 2589.9599 2792.7197 2065.6755  2617.135  657.8933 2471.2355 2298.6833   2486.42  267.8531 1184.1514 2624.1187
  std. dev.       835.2949 1187.9068  828.9033  652.3593 1286.9009  961.8845  1215.998 1198.3641 1180.6446 1037.8263  838.7348 1470.3629   862.036
  weight sum          4825       980      2347       453       430      1206       593       351      2927      2251     11609      1782       697
  precision         0.6587    0.6587    0.6587    0.6587    0.6587    0.6587    0.6587    0.6587    0.6587    0.6587    0.6587    0.6587    0.6587

1F4(Hz)
  mean           3063.4806 2685.0292 3123.7667 3250.4045 2456.6943 3116.8532  773.4427 2715.1754 2649.7983 2862.0839  322.5326 1344.6878 3008.5041
  std. dev.       955.4282 1387.1463   967.012  735.0539 1495.5033 1104.1679 1434.6975 1302.3565 1342.9862 1178.6146 1007.8515 1666.5517  904.6428
  weight sum          4825       980      2347       453       430      1206       593       351      2927      2251     11609      1782       697
  precision         0.6801    0.6801    0.6801    0.6801    0.6801    0.6801    0.6801    0.6801    0.6801    0.6801    0.6801    0.6801    0.6801

2Int(dB)
  mean             -4.3746  -12.3369   -5.3083   -8.2512  -14.9621   -8.8383  -23.7951  -11.5274   -12.918   -8.2927  -49.0435  -21.0967   -5.2124
  std. dev.         9.6808    10.602    8.1563    6.8533    8.8347    8.4087   10.1938    8.1782   10.4398   12.1905   15.4144    6.8726    7.6533
  weight sum          4825       980      2347       453       430      1206       593       351      2927      2251     11609      1782       697
  precision         0.1027    0.1027    0.1027    0.1027    0.1027    0.1027    0.1027    0.1027    0.1027    0.1027    0.1027    0.1027    0.1027

2Pitch(Hz)
  mean            215.2971  163.7124  191.0581  196.5351  133.3692  173.8339   70.4936  184.2752  159.6373  178.5747   14.1324    57.114  230.7901
  std. dev.       107.7031  108.8774   87.4612   89.7942  106.8281   75.6506  107.3611  119.3834  101.2045  104.7438    52.013   93.5936   82.8574
  weight sum          4825       980      2347       453       430      1206       593       351      2927      2251     11609      1782       697
  precision         0.1457    0.1457    0.1457    0.1457    0.1457    0.1457    0.1457    0.1457    0.1457    0.1457    0.1457    0.1457    0.1457

2RawPitch
  mean            204.9722  150.0446  186.7023  191.2433  109.9149  166.6698   45.5819  153.7664  145.5773  172.5426   11.6302   34.5786  221.3767
  std. dev.       113.3158   114.114   93.4491   96.8178  102.8897   81.1132    91.035   121.208  107.1106  110.6448   46.5627   76.1887   91.1707
  weight sum          4825       980      2347       453       430      1206       593       351      2927      2251     11609      1782       697
  precision         0.1486    0.1486    0.1486    0.1486    0.1486    0.1486    0.1486    0.1486    0.1486    0.1486    0.1486    0.1486    0.1486

2SmPitch
  mean            213.2402  158.6198  189.6338  196.0253   124.407  171.4037   59.1024  165.0181  155.3557  176.5059    12.707   49.3791  229.7721
  std. dev.       109.3851  112.4568   88.7774   90.7394   103.769   78.1033  102.5179  129.1041  103.2024   106.636   48.0587    88.297   83.4441
  weight sum          4825       980      2347       453       430      1206       593       351      2927      2251     11609      1782       697
  precision         0.1475    0.1475    0.1475    0.1475    0.1475    0.1475    0.1475    0.1475    0.1475    0.1475    0.1475    0.1475    0.1475

2Melogram(st)
  mean              51.533    42.399   50.8127   51.7323   38.4205   48.9436   17.1281   35.5775   42.7041   46.6912     4.292   16.1904   54.8522
  std. dev.        16.5965   23.6994   14.8245   13.6209   24.4262   15.5254   26.1516   27.9822   22.8272   20.3122   14.7028   24.8304   12.6632
  weight sum          4825       980      2347       453       430      1206       593       351      2927      2251     11609      1782       697
  precision         0.0271    0.0271    0.0271    0.0271    0.0271    0.0271    0.0271    0.0271    0.0271    0.0271    0.0271    0.0271    0.0271

2ZCross
  mean              6.9593    2.4041    4.8852    3.6047    1.9001    3.5568    2.2013    4.0502    2.3851    3.9781    0.1869    3.7866    3.8114
  std. dev.         4.5717    2.0753    3.1792    2.1402    2.0075    3.1167    4.5948    3.2261    2.0336    2.8849     0.942    7.4034    2.7838
  weight sum          4825       980      2347       453       430      1206       593       351      2927      2251     11609      1782       697
  precision         1.1739    1.1739    1.1739    1.1739    1.1739    1.1739    1.1739    1.1739    1.1739    1.1739    1.1739    1.1739    1.1739

2F1(Hz)
  mean            682.1071  381.3506   466.462  503.7105  391.2913  366.1781  129.8821  480.2878  408.0652  486.7294   46.8644    194.93  499.9719
  std. dev.       268.0102   233.551  141.9729  170.1733  276.1702  138.5016  229.9643  272.6783  231.5097  223.3891  156.9447  279.2751  304.4022
  weight sum          4825       980      2347       453       430      1206       593       351      2927      2251     11609      1782       697
  precision         0.3628    0.3628    0.3628    0.3628    0.3628    0.3628    0.3628    0.3628    0.3628    0.3628    0.3628    0.3628    0.3628

2F2(Hz)
  mean           1448.2374 1332.6509 1796.4609 1445.2293 1193.1191 2002.2125  429.6705 1506.3848 1335.1042  1145.619  145.6726  631.5714 1063.4579
  std. dev.       448.6029  730.2324  511.4411    391.85  771.0706  633.8216  768.4185  772.5649  699.6339   528.768  482.7197  866.7506  420.6329
  weight sum          4825       980      2347       453       430      1206       593       351      2927      2251     11609      1782       697
  precision         0.4452    0.4452    0.4452    0.4452    0.4452    0.4452    0.4452    0.4452    0.4452    0.4452    0.4452    0.4452    0.4452

2F3(Hz)
  mean           2665.0519 2248.6819 2636.0758 2791.4444 2027.9477 2693.6179  725.7508   2434.89 2300.8076  2513.778  249.4006 1055.6629 2692.0225
  std. dev.       801.5039 1174.9913  763.9923  665.7853 1301.1049  876.6153 1253.0723 1223.3469 1179.8492 1011.4708  812.1111 1435.3364   759.659
  weight sum          4825       980      2347       453       430      1206       593       351      2927      2251     11609      1782       697
  precision         0.6587    0.6587    0.6587    0.6587    0.6587    0.6587    0.6587    0.6587    0.6587    0.6587    0.6587    0.6587    0.6587

2F4(Hz)
  mean            3089.112 2697.4569 3175.4825 3246.0224 2421.4135 3200.0296  860.9421 2683.0906 2652.0267 2890.9482  300.6818 1202.9722 3085.5469
  std. dev.       915.0775 1376.7352  884.6328  750.8035 1516.9857  997.3182 1490.2289 1334.4584 1343.1647 1145.4649  976.9137 1632.8451  770.8999
  weight sum          4825       980      2347       453       430      1206       593       351      2927      2251     11609      1782       697
  precision         0.6801    0.6801    0.6801    0.6801    0.6801    0.6801    0.6801    0.6801    0.6801    0.6801    0.6801    0.6801    0.6801





=== Stratified cross-validation ===

Correctly Classified Instances       15468               50.7964 %
Incorrectly Classified Instances     14983               49.2036 %
Kappa statistic                          0.3886
K&B Relative Info Score            1123215.7711 %
K&B Information Score                32687.3549 bits      1.0734 bits/instance
Class complexity | order 0           88596.7844 bits      2.9095 bits/instance
Class complexity | scheme           510309.0949 bits     16.7584 bits/instance
Complexity improvement     (Sf)    -421712.3106 bits    -13.8489 bits/instance
Mean absolute error                      0.0767
Root mean squared error                  0.2505
Relative absolute error                 62.2026 %
Root relative squared error            100.8989 %
Coverage of cases (0.95 level)          60.2509 %
Mean rel. region size (0.95 level)      13.5537 %
Total Number of Instances            30451     


=== Detailed Accuracy By Class ===

                 TP Rate  FP Rate  Precision  Recall   F-Measure  MCC      ROC Area  PRC Area  Class
                 0,474    0,046    0,662      0,474    0,553      0,494    0,875     0,610     a
                 0,000    0,003    0,000      0,000    0,000      -0,010   0,723     0,057     b
                 0,452    0,060    0,386      0,452    0,416      0,365    0,853     0,378     e
                 0,658    0,200    0,047      0,658    0,088      0,137    0,819     0,050     d
                 0,035    0,013    0,036      0,035    0,035      0,022    0,739     0,031     f
                 0,366    0,032    0,318      0,366    0,340      0,312    0,860     0,280     i
                 0,187    0,019    0,164      0,187    0,175      0,158    0,842     0,099     k
                 0,103    0,002    0,404      0,103    0,164      0,199    0,761     0,108     j
                 0,058    0,030    0,173      0,058    0,087      0,048    0,739     0,176     l
                 0,004    0,001    0,195      0,004    0,007      0,017    0,775     0,184     o
                 0,899    0,121    0,820      0,899    0,858      0,766    0,955     0,951     0
                 0,202    0,019    0,397      0,202    0,268      0,253    0,864     0,325     s
                 0,347    0,013    0,390      0,347    0,367      0,354    0,863     0,314     u
Weighted Avg.    0,508    0,067    0,532      0,508    0,500      0,447    0,872     0,562     


=== Confusion Matrix ===

     a     b     c     d     e     f     g     h     i     j     k     l     m   <-- classified as
  2288    16   505  1297    52    82    74    20   129    21   226    65    50 |     a = a
    71     0    52   392    28   138    32     2    50     0   153    33    29 |     b = b
   249    27  1061   583    41   144    44     6    50     3    85    23    31 |     c = e
    54     0    30   298     0    13     1     0    22     0    14     9    12 |     d = d
    29     1    30   165    15    33    17     1    30     0    85    21     3 |     e = f
    67    10   389   111    22   441    35     0    46     0    55    26     4 |     f = i
     9     3     6    33    13    20   111     3    24     1   302    64     4 |     g = k
    50     2    66    61    11    31     4    36    18     0    45    15    12 |     h = j
   184     6   182  1448    68   208    99     1   171     2   419   102    37 |     i = l
   288    16   275  1002    45    27    29     3   110     8   228    47   173 |     j = o
    24     1    90   463    66   145    44     4   173     4 10437   137    21 |     k = 0
    71     2    40   195    51    96   162    13   125     0   664   360     3 |     l = s
    71     8    22   259     7     9    24     0    38     2    10     5   242 |     m = u

=== Percent Confusion Matrix ===
a	b	c	d	e	f	g	h	i	j	k	l	m	
47.42	0.33	10.47	26.88	1.08	1.7	1.53	0.41	2.67	0.44	4.68	1.35	1.04	 a = a
7.24	0.0	5.31	40.0	2.86	14.08	3.27	0.2	5.1	0.0	15.61	3.37	2.96	 b = b
10.61	1.15	45.21	24.84	1.75	6.14	1.87	0.26	2.13	0.13	3.62	0.98	1.32	 c = e
11.92	0.0	6.62	65.78	0.0	2.87	0.22	0.0	4.86	0.0	3.09	1.99	2.65	 d = d
6.74	0.23	6.98	38.37	3.49	7.67	3.95	0.23	6.98	0.0	19.77	4.88	0.7	 e = f
5.56	0.83	32.26	9.2	1.82	36.57	2.9	0.0	3.81	0.0	4.56	2.16	0.33	 f = i
1.52	0.51	1.01	5.56	2.19	3.37	18.72	0.51	4.05	0.17	50.93	10.79	0.67	 g = k
14.25	0.57	18.8	17.38	3.13	8.83	1.14	10.26	5.13	0.0	12.82	4.27	3.42	 h = j
6.29	0.2	6.22	49.47	2.32	7.11	3.38	0.03	5.84	0.07	14.31	3.48	1.26	 i = l
12.79	0.71	12.22	44.51	2.0	1.2	1.29	0.13	4.89	0.36	10.13	2.09	7.69	 j = o
0.21	0.01	0.78	3.99	0.57	1.25	0.38	0.03	1.49	0.03	89.9	1.18	0.18	 k = 0
3.98	0.11	2.24	10.94	2.86	5.39	9.09	0.73	7.01	0.0	37.26	20.2	0.17	 l = s
10.19	1.15	3.16	37.16	1.0	1.29	3.44	0.0	5.45	0.29	1.43	0.72	34.72	 m = u
