Timestamp:2014-12-07-10:50:58
Inventario:I1
Intervalo:6ms
Ngramas:4
Clasificador:NaiveBayes
Relation Name:  I1-6ms-4gramas
Num Instances:  30450
Num Attributes: 41

     Name                      Type  Nom  Int Real     Missing      Unique  Dist
   1 0Int(dB)                   Num   0%  10%  90%     0 /  0%     2 /  0%   776 
   2 0Pitch(Hz)                 Num   0%  51%  49%     0 /  0%   750 /  2%  3423 
   3 0RawPitch                  Num   0%  55%  45%     0 /  0%   699 /  2%  3337 
   4 0SmPitch                   Num   0%  53%  47%     0 /  0%   748 /  2%  3382 
   5 0Melogram(st)              Num   0%  48%  52%     0 /  0%   413 /  1%  3048 
   6 0ZCross                    Num   0% 100%   0%     0 /  0%     8 /  0%    47 
   7 0F1(Hz)                    Num   0%  52%  48%     0 /  0%  1130 /  4%  4802 
   8 0F2(Hz)                    Num   0%  51%  49%     0 /  0%  2251 /  7%  6691 
   9 0F3(Hz)                    Num   0%  52%  48%     0 /  0%  1969 /  6%  6255 
  10 0F4(Hz)                    Num   0%  52%  48%     0 /  0%  1938 /  6%  6099 
  11 1Int(dB)                   Num   0%  10%  90%     0 /  0%     2 /  0%   776 
  12 1Pitch(Hz)                 Num   0%  51%  49%     0 /  0%   750 /  2%  3423 
  13 1RawPitch                  Num   0%  55%  45%     0 /  0%   699 /  2%  3337 
  14 1SmPitch                   Num   0%  53%  47%     0 /  0%   748 /  2%  3382 
  15 1Melogram(st)              Num   0%  48%  52%     0 /  0%   413 /  1%  3048 
  16 1ZCross                    Num   0% 100%   0%     0 /  0%     8 /  0%    47 
  17 1F1(Hz)                    Num   0%  52%  48%     0 /  0%  1130 /  4%  4802 
  18 1F2(Hz)                    Num   0%  51%  49%     0 /  0%  2251 /  7%  6691 
  19 1F3(Hz)                    Num   0%  52%  48%     0 /  0%  1969 /  6%  6255 
  20 1F4(Hz)                    Num   0%  52%  48%     0 /  0%  1938 /  6%  6099 
  21 2Int(dB)                   Num   0%  10%  90%     0 /  0%     2 /  0%   776 
  22 2Pitch(Hz)                 Num   0%  51%  49%     0 /  0%   750 /  2%  3423 
  23 2RawPitch                  Num   0%  55%  45%     0 /  0%   699 /  2%  3337 
  24 2SmPitch                   Num   0%  53%  47%     0 /  0%   748 /  2%  3382 
  25 2Melogram(st)              Num   0%  48%  52%     0 /  0%   413 /  1%  3048 
  26 2ZCross                    Num   0% 100%   0%     0 /  0%     8 /  0%    47 
  27 2F1(Hz)                    Num   0%  52%  48%     0 /  0%  1130 /  4%  4802 
  28 2F2(Hz)                    Num   0%  51%  49%     0 /  0%  2251 /  7%  6691 
  29 2F3(Hz)                    Num   0%  52%  48%     0 /  0%  1969 /  6%  6255 
  30 2F4(Hz)                    Num   0%  52%  48%     0 /  0%  1938 /  6%  6099 
  31 3Int(dB)                   Num   0%  10%  90%     0 /  0%     3 /  0%   777 
  32 3Pitch(Hz)                 Num   0%  51%  49%     0 /  0%   750 /  2%  3423 
  33 3RawPitch                  Num   0%  55%  45%     0 /  0%   699 /  2%  3337 
  34 3SmPitch                   Num   0%  53%  47%     0 /  0%   748 /  2%  3382 
  35 3Melogram(st)              Num   0%  48%  52%     0 /  0%   413 /  1%  3048 
  36 3ZCross                    Num   0% 100%   0%     0 /  0%     8 /  0%    47 
  37 3F1(Hz)                    Num   0%  52%  48%     0 /  0%  1130 /  4%  4802 
  38 3F2(Hz)                    Num   0%  51%  49%     0 /  0%  2251 /  7%  6691 
  39 3F3(Hz)                    Num   0%  52%  48%     0 /  0%  1969 /  6%  6255 
  40 3F4(Hz)                    Num   0%  52%  48%     0 /  0%  1938 /  6%  6099 
  41 class                      Nom 100%   0%   0%     0 /  0%     0 /  0%    13 


Naive Bayes Classifier

                    Class
Attribute               a         b         e         d         f         i         k         j         l         o         0         s         u
                   (0.16)    (0.03)    (0.08)    (0.01)    (0.01)    (0.04)    (0.02)    (0.01)     (0.1)    (0.07)    (0.38)    (0.06)    (0.02)
==================================================================================================================================================
0Int(dB)
  mean             -4.9579  -12.9282   -6.5177   -8.0066  -13.9952  -10.1042  -28.7566  -10.3917  -12.6081   -8.9796  -48.2636  -19.5176   -7.2074
  std. dev.        10.4863   11.6685    9.2729    6.6028    9.9098    9.0807     11.39    8.2211   11.3972   12.1898   16.5008     8.311    10.005
  weight sum          4825       980      2347       453       430      1206       593       351      2927      2251     11608      1782       697
  precision         0.1001    0.1001    0.1001    0.1001    0.1001    0.1001    0.1001    0.1001    0.1001    0.1001    0.1001    0.1001    0.1001

0Pitch(Hz)
  mean            211.8007  163.7762  181.8248  198.2064  141.9695  163.9943   43.4798  191.1312  158.1249  175.9605   17.3088   79.7067  220.3105
  std. dev.       110.5354  111.3227   92.6133   87.0365  108.6529   83.5367   87.0859  116.1701  102.5588  108.5713   57.1161  103.4088   97.9407
  weight sum          4825       980      2347       453       430      1206       593       351      2927      2251     11608      1782       697
  precision         0.1457    0.1457    0.1457    0.1457    0.1457    0.1457    0.1457    0.1457    0.1457    0.1457    0.1457    0.1457    0.1457

0RawPitch
  mean            201.4532  150.2849  176.4078  192.8254   119.205  154.7055   28.8788   164.313  145.4634  167.3967   14.6437   58.2375  209.3446
  std. dev.       115.6497  115.4886   98.3173   95.2246  106.8748   87.7211   74.2632  118.8106  107.8192  114.5172   52.4086   94.5632  105.1448
  weight sum          4825       980      2347       453       430      1206       593       351      2927      2251     11608      1782       697
  precision         0.1486    0.1486    0.1486    0.1486    0.1486    0.1486    0.1486    0.1486    0.1486    0.1486    0.1486    0.1486    0.1486

0SmPitch
  mean            209.3893  160.7347  178.7991  196.7754  132.2744  161.4192   37.2791  173.2673  154.3549  173.1852   15.8543   73.2333  217.8306
  std. dev.       112.5358  113.5476   95.0401   89.4547  106.6852    85.075   81.8377  125.7421  104.1361  110.6103   53.6496  101.2116   99.6499
  weight sum          4825       980      2347       453       430      1206       593       351      2927      2251     11608      1782       697
  precision         0.1475    0.1475    0.1475    0.1475    0.1475    0.1475    0.1475    0.1475    0.1475    0.1475    0.1475    0.1475    0.1475

0Melogram(st)
  mean             50.3727   42.8393   48.4575   52.1022   40.1595   45.9796   12.0883   38.2466   42.6493   45.7682    5.0775   22.4489   51.0893
  std. dev.        18.2348   23.5694   17.9973   13.0915   23.6269   19.1192   22.9067   26.9663   22.8514   21.3497   15.8211   26.6946   18.8712
  weight sum          4825       980      2347       453       430      1206       593       351      2927      2251     11608      1782       697
  precision         0.0271    0.0271    0.0271    0.0271    0.0271    0.0271    0.0271    0.0271    0.0271    0.0271    0.0271    0.0271    0.0271

0ZCross
  mean              6.7846    2.4616    4.8042     3.558     2.184     3.476    1.0433    4.2809    2.7292    3.8899    0.2937    3.6047    3.6026
  std. dev.         4.6549     2.346    3.4983    2.1216     2.217    3.4985    3.1013    3.3003    2.4514    3.3516     1.378     6.739    2.9524
  weight sum          4825       980      2347       453       430      1206       593       351      2927      2251     11608      1782       697
  precision         1.1739    1.1739    1.1739    1.1739    1.1739    1.1739    1.1739    1.1739    1.1739    1.1739    1.1739    1.1739    1.1739

0F1(Hz)
  mean             641.598  395.6915  436.6695  500.8635  439.5501   338.547  127.5402  501.8778  434.3483  453.8732   58.3252  278.1189   463.808
  std. dev.       298.3129  237.6905  181.6351  164.1639  266.9062  174.0301   226.089  251.4763  237.6845  244.1481  175.0326  301.1137  334.8008
  weight sum          4825       980      2347       453       430      1206       593       351      2927      2251     11608      1782       697
  precision         0.3628    0.3628    0.3628    0.3628    0.3628    0.3628    0.3628    0.3628    0.3628    0.3628    0.3628    0.3628    0.3628

0F2(Hz)
  mean            1395.894 1369.4578 1648.9094 1456.8096 1279.0165 1765.1714   446.496 1613.0398 1361.1724 1110.1712    179.12  875.0608  978.1609
  std. dev.       530.2954  735.8848  663.0113  368.4906  732.7963   818.714  795.9677  704.2867  689.2088   595.382  531.0452  904.1844  525.2413
  weight sum          4825       980      2347       453       430      1206       593       351      2927      2251     11608      1782       697
  precision         0.4452    0.4452    0.4452    0.4452    0.4452    0.4452    0.4452    0.4452    0.4452    0.4452    0.4452    0.4452    0.4452

0F3(Hz)
  mean           2559.4613 2305.6138 2459.3827 2811.4308 2180.6268 2427.5668  733.1081  2572.583 2344.3088 2381.0703  306.6365 1474.1676 2438.5289
  std. dev.       937.7438 1172.8483   978.513   599.856  1230.956 1132.3873 1265.4768  1109.573 1149.0111 1130.0518  891.0759  1502.905 1064.3754
  weight sum          4825       980      2347       453       430      1206       593       351      2927      2251     11608      1782       697
  precision         0.6587    0.6587    0.6587    0.6587    0.6587    0.6587    0.6587    0.6587    0.6587    0.6587    0.6587    0.6587    0.6587

0F4(Hz)
  mean           2973.1331 2726.3768 2976.4834 3270.9669 2575.9403 2903.1799  855.5693 2821.3944 2700.0154 2744.0896  368.3452 1671.2535 2803.9205
  std. dev.      1076.9898 1356.7863 1157.0182  668.3634 1422.3377 1317.4154 1483.4377 1199.0692 1302.7157 1290.3365 1068.3973 1699.5505 1162.6311
  weight sum          4825       980      2347       453       430      1206       593       351      2927      2251     11608      1782       697
  precision         0.6801    0.6801    0.6801    0.6801    0.6801    0.6801    0.6801    0.6801    0.6801    0.6801    0.6801    0.6801    0.6801

1Int(dB)
  mean             -4.5987  -12.9966   -5.8995   -8.2731  -14.5611   -9.5588  -27.3842  -10.8827  -12.9363   -8.5713  -48.5573  -20.1718    -6.419
  std. dev.        10.0572   11.3571     8.786    6.6541    9.4214    8.7617   10.8851    8.1769   11.0827   12.1108   16.0885    7.6914    9.2206
  weight sum          4825       980      2347       453       430      1206       593       351      2927      2251     11608      1782       697
  precision         0.1001    0.1001    0.1001    0.1001    0.1001    0.1001    0.1001    0.1001    0.1001    0.1001    0.1001    0.1001    0.1001

1Pitch(Hz)
  mean            213.9858  162.1914  185.9675  197.3077  138.3865   168.922   45.4981   187.856  157.0364  178.5044   16.3313   69.9297  225.2933
  std. dev.       108.6894  111.4338   90.3606    88.379  108.2488   80.1793   89.7523  117.9773  102.5375  106.4846   55.6028   99.8467   91.5415
  weight sum          4825       980      2347       453       430      1206       593       351      2927      2251     11608      1782       697
  precision         0.1457    0.1457    0.1457    0.1457    0.1457    0.1457    0.1457    0.1457    0.1457    0.1457    0.1457    0.1457    0.1457

1RawPitch
  mean            203.4289  148.0422  181.6948  192.1779  114.6567   160.411     28.08  160.2113  143.9763  171.1249   13.5144   48.3896  215.3066
  std. dev.       114.2033  115.6256   96.2139   96.4293  105.4998   84.8193   73.6872  120.1699  107.8515  112.4932   50.0944   88.2157   98.6174
  weight sum          4825       980      2347       453       430      1206       593       351      2927      2251     11608      1782       697
  precision         0.1486    0.1486    0.1486    0.1486    0.1486    0.1486    0.1486    0.1486    0.1486    0.1486    0.1486    0.1486    0.1486

1SmPitch
  mean            211.6839  158.6549  183.5596  196.3238  128.8353  166.5988   37.4495  169.3515    153.06  175.9059   14.8074   63.2287  223.7844
  std. dev.       110.6731   113.938   92.3488   90.1643  105.8213   81.8868   83.3549  128.1426  104.1339  108.6981   51.7824   96.7439   92.4136
  weight sum          4825       980      2347       453       430      1206       593       351      2927      2251     11608      1782       697
  precision         0.1475    0.1475    0.1475    0.1475    0.1475    0.1475    0.1475    0.1475    0.1475    0.1475    0.1475    0.1475    0.1475

1Melogram(st)
  mean             51.0457   42.2976   49.6417   51.8281   39.2686   47.3894    11.749   36.5248   42.2638   46.4994    4.8249   19.7929   52.9038
  std. dev.        17.3442   23.9194   16.5413    13.567   24.0506   17.6115   22.8164   27.5673   23.0808   20.6431   15.4713   26.0731    16.369
  weight sum          4825       980      2347       453       430      1206       593       351      2927      2251     11608      1782       697
  precision         0.0271    0.0271    0.0271    0.0271    0.0271    0.0271    0.0271    0.0271    0.0271    0.0271    0.0271    0.0271    0.0271

1ZCross
  mean              6.8934    2.3634    4.8687     3.514    2.0038    3.5256    1.4808     4.204    2.5451    3.9353    0.2426    3.7227    3.6666
  std. dev.         4.5993    2.1945    3.3612    2.1397    2.0839    3.3498    3.8921    3.2723    2.2775     3.141    1.1446    7.0686    2.8883
  weight sum          4825       980      2347       453       430      1206       593       351      2927      2251     11608      1782       697
  precision         1.1739    1.1739    1.1739    1.1739    1.1739    1.1739    1.1739    1.1739    1.1739    1.1739    1.1739    1.1739    1.1739

1F1(Hz)
  mean            658.1625  387.5882  448.1303  500.2076  421.3901  348.8664  117.9324  492.7629   423.242  467.9136   53.9368  248.7061  478.0605
  std. dev.       286.2026  237.6824  167.3815  169.1352  272.3544  162.2662  220.7516  259.6754  236.8156  235.6843  168.2168  296.4808   324.529
  weight sum          4825       980      2347       453       430      1206       593       351      2927      2251     11608      1782       697
  precision         0.3628    0.3628    0.3628    0.3628    0.3628    0.3628    0.3628    0.3628    0.3628    0.3628    0.3628    0.3628    0.3628

1F2(Hz)
  mean           1419.2622 1348.6957 1706.5198 1446.9631 1239.1028 1853.8785  411.5536 1575.7063 1346.3767 1129.6245  166.3459  789.2014 1009.2259
  std. dev.       497.7941  740.2835  612.0386  383.2018  748.4208  761.7664  773.8313  733.0165   696.808  569.4748  512.7501    899.54  490.7397
  weight sum          4825       980      2347       453       430      1206       593       351      2927      2251     11608      1782       697
  precision         0.4452    0.4452    0.4452    0.4452    0.4452    0.4452    0.4452    0.4452    0.4452    0.4452    0.4452    0.4452    0.4452

1F3(Hz)
  mean           2605.2622  2271.328 2528.8267 2795.3227 2115.5779 2527.1222  674.1653 2522.2799 2319.1175  2440.143  285.4439 1326.8202 2534.3382
  std. dev.       881.9027 1184.8692   904.012  639.5707 1263.4416 1049.8927 1228.4134 1156.1143 1166.4253 1080.4541  863.1657 1494.5506  971.1663
  weight sum          4825       980      2347       453       430      1206       593       351      2927      2251     11608      1782       697
  precision         0.6587    0.6587    0.6587    0.6587    0.6587    0.6587    0.6587    0.6587    0.6587    0.6587    0.6587    0.6587    0.6587

1F4(Hz)
  mean           3024.9811 2699.0169  3055.702 3253.5631 2508.5338 3015.9411  789.1861 2768.4021 2672.3544 2810.7638  343.1031 1503.4365 2907.9441
  std. dev.      1010.9519 1377.3282 1062.5316  718.6748 1464.9089 1214.2293 1444.1977 1253.1897 1324.7044 1230.5926 1035.5106  1689.808 1043.9573
  weight sum          4825       980      2347       453       430      1206       593       351      2927      2251     11608      1782       697
  precision         0.6801    0.6801    0.6801    0.6801    0.6801    0.6801    0.6801    0.6801    0.6801    0.6801    0.6801    0.6801    0.6801

2Int(dB)
  mean             -4.3897   -12.808   -5.4538   -8.3777  -14.9101   -9.0975  -25.7744  -11.3149   -13.066     -8.32  -48.8226  -20.7398   -5.7217
  std. dev.         9.7701   10.9801    8.3541    6.7523     9.056    8.4757   10.4481    8.1955     10.73   12.1084    15.704    7.1707    8.3788
  weight sum          4825       980      2347       453       430      1206       593       351      2927      2251     11608      1782       697
  precision         0.1001    0.1001    0.1001    0.1001    0.1001    0.1001    0.1001    0.1001    0.1001    0.1001    0.1001    0.1001    0.1001

2Pitch(Hz)
  mean            215.1858  162.0524  188.9309  196.8696  135.5009  172.4627   54.2622  185.6231  157.6979  179.6002   15.2651   61.7681  229.1165
  std. dev.       107.7136  110.5525   88.8484   89.1614  107.5102   77.3033   96.9574  118.8168  101.9598  105.0982   53.8943   96.0371    86.113
  weight sum          4825       980      2347       453       430      1206       593       351      2927      2251     11608      1782       697
  precision         0.1457    0.1457    0.1457    0.1457    0.1457    0.1457    0.1457    0.1457    0.1457    0.1457    0.1457    0.1457    0.1457

2RawPitch
  mean            204.8304  147.7901  185.2813  192.0542   111.142  164.6635   32.6865  156.6646  143.9502  173.0353   12.5263   39.7576  219.1052
  std. dev.       113.2593  115.4056   94.3657   96.8511   103.983   82.3462   78.5019  120.7929  107.6194  111.2194   48.0535   81.4164   94.0431
  weight sum          4825       980      2347       453       430      1206       593       351      2927      2251     11608      1782       697
  precision         0.1486    0.1486    0.1486    0.1486    0.1486    0.1486    0.1486    0.1486    0.1486    0.1486    0.1486    0.1486    0.1486

2SmPitch
  mean            213.0105  157.4726  187.4191   196.136  126.3464   169.864   44.2898   166.358  153.5615  177.2873   13.7654    54.653  227.6752
  std. dev.       109.5872  113.6823   90.1622   90.5134  104.6501   79.4786   90.5866  128.7779  103.7584  107.1683    49.937   91.9017   87.0875
  weight sum          4825       980      2347       453       430      1206       593       351      2927      2251     11608      1782       697
  precision         0.1475    0.1475    0.1475    0.1475    0.1475    0.1475    0.1475    0.1475    0.1475    0.1475    0.1475    0.1475    0.1475

2Melogram(st)
  mean             51.4062   42.0662    50.443   51.7615    38.768   48.4372   13.6569   35.7695   42.2662   46.7991    4.5875   17.5104   54.1423
  std. dev.        16.8175   23.9804   15.4134      13.6   24.2654   16.3134   24.2043   27.8101   23.0811   20.2997   15.1434   25.3148    14.241
  weight sum          4825       980      2347       453       430      1206       593       351      2927      2251     11608      1782       697
  precision         0.0271    0.0271    0.0271    0.0271    0.0271    0.0271    0.0271    0.0271    0.0271    0.0271    0.0271    0.0271    0.0271

2ZCross
  mean              6.9598    2.3311    4.9057    3.5269    1.9165    3.5597    1.9024    4.1104     2.412    3.9697    0.2049    3.7754    3.7441
  std. dev.         4.5644    2.0986    3.2087    2.1532    2.0253    3.2377    4.4782    3.2412     2.109    2.9459    0.9759    7.3098    2.8259
  weight sum          4825       980      2347       453       430      1206       593       351      2927      2251     11608      1782       697
  precision         1.1739    1.1739    1.1739    1.1739    1.1739    1.1739    1.1739    1.1739    1.1739    1.1739    1.1739    1.1739    1.1739

2F1(Hz)
  mean            671.8022  382.1121  458.4701  501.7228  405.4793  358.3341   115.987  484.8531  413.0902  479.3066   50.4075  220.6803  490.8774
  std. dev.       275.7695  236.5551  153.5049  169.8665  275.9084  149.9822  220.0229  267.4305  235.1209  228.1739  162.5773  289.1985  313.8193
  weight sum          4825       980      2347       453       430      1206       593       351      2927      2251     11608      1782       697
  precision         0.3628    0.3628    0.3628    0.3628    0.3628    0.3628    0.3628    0.3628    0.3628    0.3628    0.3628    0.3628    0.3628

2F2(Hz)
  mean           1436.7855 1334.4278 1756.5682  1445.933  1210.404 1934.2548  396.5698 1535.9461 1334.2057 1142.3274  156.3842  706.1854 1039.7614
  std. dev.       469.7671  740.0834  558.7593  387.8544  760.5497    698.11  757.6701  758.0401  702.3833  545.8877  498.6509  886.1904  453.9752
  weight sum          4825       980      2347       453       430      1206       593       351      2927      2251     11608      1782       697
  precision         0.4452    0.4452    0.4452    0.4452    0.4452    0.4452    0.4452    0.4452    0.4452    0.4452    0.4452    0.4452    0.4452

2F3(Hz)
  mean           2640.8558 2248.5273 2589.9599 2792.7197 2065.6755  2617.135  657.8933 2471.2355 2298.6833   2486.42  267.8761 1184.1514 2624.1187
  std. dev.       835.2949 1187.9068  828.9033  652.3593 1286.9009  961.8845  1215.998 1198.3641 1180.6446 1037.8263  838.7672 1470.3629   862.036
  weight sum          4825       980      2347       453       430      1206       593       351      2927      2251     11608      1782       697
  precision         0.6587    0.6587    0.6587    0.6587    0.6587    0.6587    0.6587    0.6587    0.6587    0.6587    0.6587    0.6587    0.6587

2F4(Hz)
  mean           3063.4806 2685.0292 3123.7667 3250.4045 2456.6943 3116.8532  773.4427 2715.1754 2649.7983 2862.0839  322.5604 1344.6878 3008.5041
  std. dev.       955.4282 1387.1463   967.012  735.0539 1495.5033 1104.1679 1434.6975 1302.3565 1342.9862 1178.6146 1007.8905 1666.5517  904.6428
  weight sum          4825       980      2347       453       430      1206       593       351      2927      2251     11608      1782       697
  precision         0.6801    0.6801    0.6801    0.6801    0.6801    0.6801    0.6801    0.6801    0.6801    0.6801    0.6801    0.6801    0.6801

3Int(dB)
  mean             -4.3746  -12.3369   -5.3083   -8.2512  -14.9621   -8.8383  -23.7951  -11.5274   -12.918   -8.2927  -49.0436  -21.0967   -5.2124
  std. dev.         9.6808    10.602    8.1563    6.8533    8.8347    8.4087   10.1938    8.1782   10.4398   12.1905   15.4151    6.8726    7.6533
  weight sum          4825       980      2347       453       430      1206       593       351      2927      2251     11608      1782       697
  precision         0.1027    0.1027    0.1027    0.1027    0.1027    0.1027    0.1027    0.1027    0.1027    0.1027    0.1027    0.1027    0.1027

3Pitch(Hz)
  mean            215.2971  163.7124  191.0581  196.5351  133.3692  173.8339   70.4936  184.2752  159.6373  178.5747   14.1336    57.114  230.7901
  std. dev.       107.7031  108.8774   87.4612   89.7942  106.8281   75.6506  107.3611  119.3834  101.2045  104.7438   52.0151   93.5936   82.8574
  weight sum          4825       980      2347       453       430      1206       593       351      2927      2251     11608      1782       697
  precision         0.1457    0.1457    0.1457    0.1457    0.1457    0.1457    0.1457    0.1457    0.1457    0.1457    0.1457    0.1457    0.1457

3RawPitch
  mean            204.9722  150.0446  186.7023  191.2433  109.9149  166.6698   45.5819  153.7664  145.5773  172.5426   11.6312   34.5786  221.3767
  std. dev.       113.3158   114.114   93.4491   96.8178  102.8897   81.1132    91.035   121.208  107.1106  110.6448   46.5646   76.1887   91.1707
  weight sum          4825       980      2347       453       430      1206       593       351      2927      2251     11608      1782       697
  precision         0.1486    0.1486    0.1486    0.1486    0.1486    0.1486    0.1486    0.1486    0.1486    0.1486    0.1486    0.1486    0.1486

3SmPitch
  mean            213.2402  158.6198  189.6338  196.0253   124.407  171.4037   59.1024  165.0181  155.3557  176.5059   12.7081   49.3791  229.7721
  std. dev.       109.3851  112.4568   88.7774   90.7394   103.769   78.1033  102.5179  129.1041  103.2024   106.636   48.0606    88.297   83.4441
  weight sum          4825       980      2347       453       430      1206       593       351      2927      2251     11608      1782       697
  precision         0.1475    0.1475    0.1475    0.1475    0.1475    0.1475    0.1475    0.1475    0.1475    0.1475    0.1475    0.1475    0.1475

3Melogram(st)
  mean              51.533    42.399   50.8127   51.7323   38.4205   48.9436   17.1281   35.5775   42.7041   46.6912    4.2923   16.1904   54.8522
  std. dev.        16.5965   23.6994   14.8245   13.6209   24.4262   15.5254   26.1516   27.9822   22.8272   20.3122   14.7034   24.8304   12.6632
  weight sum          4825       980      2347       453       430      1206       593       351      2927      2251     11608      1782       697
  precision         0.0271    0.0271    0.0271    0.0271    0.0271    0.0271    0.0271    0.0271    0.0271    0.0271    0.0271    0.0271    0.0271

3ZCross
  mean              6.9593    2.4041    4.8852    3.6047    1.9001    3.5568    2.2013    4.0502    2.3851    3.9781    0.1869    3.7866    3.8114
  std. dev.         4.5717    2.0753    3.1792    2.1402    2.0075    3.1167    4.5948    3.2261    2.0336    2.8849    0.9421    7.4034    2.7838
  weight sum          4825       980      2347       453       430      1206       593       351      2927      2251     11608      1782       697
  precision         1.1739    1.1739    1.1739    1.1739    1.1739    1.1739    1.1739    1.1739    1.1739    1.1739    1.1739    1.1739    1.1739

3F1(Hz)
  mean            682.1071  381.3506   466.462  503.7105  391.2913  366.1781  129.8821  480.2878  408.0652  486.7294   46.8684    194.93  499.9719
  std. dev.       268.0102   233.551  141.9729  170.1733  276.1702  138.5016  229.9643  272.6783  231.5097  223.3891  156.9509  279.2751  304.4022
  weight sum          4825       980      2347       453       430      1206       593       351      2927      2251     11608      1782       697
  precision         0.3628    0.3628    0.3628    0.3628    0.3628    0.3628    0.3628    0.3628    0.3628    0.3628    0.3628    0.3628    0.3628

3F2(Hz)
  mean           1448.2374 1332.6509 1796.4609 1445.2293 1193.1191 2002.2125  429.6705 1506.3848 1335.1042  1145.619  145.6852  631.5714 1063.4579
  std. dev.       448.6029  730.2324  511.4411    391.85  771.0706  633.8216  768.4185  772.5649  699.6339   528.768  482.7386  866.7506  420.6329
  weight sum          4825       980      2347       453       430      1206       593       351      2927      2251     11608      1782       697
  precision         0.4452    0.4452    0.4452    0.4452    0.4452    0.4452    0.4452    0.4452    0.4452    0.4452    0.4452    0.4452    0.4452

3F3(Hz)
  mean           2665.0519 2248.6819 2636.0758 2791.4444 2027.9477 2693.6179  725.7508   2434.89 2300.8076  2513.778  249.4221 1055.6629 2692.0225
  std. dev.       801.5039 1174.9913  763.9923  665.7853 1301.1049  876.6153 1253.0723 1223.3469 1179.8492 1011.4708  812.1428 1435.3364   759.659
  weight sum          4825       980      2347       453       430      1206       593       351      2927      2251     11608      1782       697
  precision         0.6587    0.6587    0.6587    0.6587    0.6587    0.6587    0.6587    0.6587    0.6587    0.6587    0.6587    0.6587    0.6587

3F4(Hz)
  mean            3089.112 2697.4569 3175.4825 3246.0224 2421.4135 3200.0296  860.9421 2683.0906 2652.0267 2890.9482  300.7077 1202.9722 3085.5469
  std. dev.       915.0775 1376.7352  884.6328  750.8035 1516.9857  997.3182 1490.2289 1334.4584 1343.1647 1145.4649  976.9518 1632.8451  770.8999
  weight sum          4825       980      2347       453       430      1206       593       351      2927      2251     11608      1782       697
  precision         0.6801    0.6801    0.6801    0.6801    0.6801    0.6801    0.6801    0.6801    0.6801    0.6801    0.6801    0.6801    0.6801





=== Stratified cross-validation ===

Correctly Classified Instances       14914               48.9787 %
Incorrectly Classified Instances     15536               51.0213 %
Kappa statistic                          0.3703
K&B Relative Info Score            1045774.0597 %
K&B Information Score                30433.2309 bits      0.9994 bits/instance
Class complexity | order 0           88595.3932 bits      2.9095 bits/instance
Class complexity | scheme           669745.6103 bits     21.9949 bits/instance
Complexity improvement     (Sf)    -581150.217  bits    -19.0854 bits/instance
Mean absolute error                      0.0787
Root mean squared error                  0.2631
Relative absolute error                 63.8438 %
Root relative squared error            105.9827 %
Coverage of cases (0.95 level)          56.0755 %
Mean rel. region size (0.95 level)      11.3551 %
Total Number of Instances            30450     


=== Detailed Accuracy By Class ===

                 TP Rate  FP Rate  Precision  Recall   F-Measure  MCC      ROC Area  PRC Area  Class
                 0,447    0,044    0,658      0,447    0,532      0,475    0,869     0,600     a
                 0,001    0,004    0,009      0,001    0,002      -0,008   0,718     0,056     b
                 0,323    0,039    0,408      0,323    0,361      0,316    0,844     0,354     e
                 0,724    0,246    0,043      0,724    0,080      0,133    0,821     0,053     d
                 0,040    0,020    0,028      0,040    0,033      0,017    0,734     0,029     f
                 0,340    0,026    0,348      0,340    0,344      0,317    0,861     0,281     i
                 0,194    0,023    0,144      0,194    0,165      0,148    0,840     0,099     k
                 0,100    0,002    0,389      0,100    0,159      0,192    0,772     0,106     j
                 0,045    0,022    0,177      0,045    0,071      0,043    0,729     0,167     l
                 0,004    0,002    0,127      0,004    0,007      0,009    0,764     0,173     o
                 0,894    0,115    0,828      0,894    0,860      0,769    0,953     0,949     0
                 0,210    0,021    0,384      0,210    0,271      0,252    0,856     0,320     s
                 0,290    0,010    0,400      0,290    0,336      0,327    0,858     0,260     u
Weighted Avg.    0,490    0,063    0,532      0,490    0,491      0,440    0,867     0,555     


=== Confusion Matrix ===

     a     b     c     d     e     f     g     h     i     j     k     l     m   <-- classified as
  2157    17   343  1561    97    78    98    14    90    38   209    64    59 |     a = a
    64     1    21   468    40   107    36     3    35     1   144    38    22 |     b = b
   243    33   759   885    52   131    66     2    37     9    81    23    26 |     c = e
    51     0    12   328     0     8     1     0    23     0    13    10     7 |     d = d
    27     1    20   198    17    16    20     4    19     0    78    27     3 |     e = f
    67    16   304   219    30   410    49     0    29     0    54    24     4 |     f = i
     7     4     4    37    21    18   115     2    17     0   296    70     2 |     g = k
    51     4    45    89    14    30     3    35    12     1    38    21     8 |     h = j
   177     7   122  1623    92   133   107     3   131     2   403   107    20 |     i = l
   281    18   140  1171    63    35    43     4    88     8   223    46   131 |     j = o
    23     3    56   552    91   124    57     4   137     2 10377   167    15 |     k = 0
    64     4    25   264    76    74   174    18    96     0   607   374     6 |     l = s
    68     8    10   309    14    13    28     1    26     2    12     4   202 |     m = u

=== Percent Confusion Matrix ===
a	b	c	d	e	f	g	h	i	j	k	l	m	
44.7	0.35	7.11	32.35	2.01	1.62	2.03	0.29	1.87	0.79	4.33	1.33	1.22	 a = a
6.53	0.1	2.14	47.76	4.08	10.92	3.67	0.31	3.57	0.1	14.69	3.88	2.24	 b = b
10.35	1.41	32.34	37.71	2.22	5.58	2.81	0.09	1.58	0.38	3.45	0.98	1.11	 c = e
11.26	0.0	2.65	72.41	0.0	1.77	0.22	0.0	5.08	0.0	2.87	2.21	1.55	 d = d
6.28	0.23	4.65	46.05	3.95	3.72	4.65	0.93	4.42	0.0	18.14	6.28	0.7	 e = f
5.56	1.33	25.21	18.16	2.49	34.0	4.06	0.0	2.4	0.0	4.48	1.99	0.33	 f = i
1.18	0.67	0.67	6.24	3.54	3.04	19.39	0.34	2.87	0.0	49.92	11.8	0.34	 g = k
14.53	1.14	12.82	25.36	3.99	8.55	0.85	9.97	3.42	0.28	10.83	5.98	2.28	 h = j
6.05	0.24	4.17	55.45	3.14	4.54	3.66	0.1	4.48	0.07	13.77	3.66	0.68	 i = l
12.48	0.8	6.22	52.02	2.8	1.55	1.91	0.18	3.91	0.36	9.91	2.04	5.82	 j = o
0.2	0.03	0.48	4.76	0.78	1.07	0.49	0.03	1.18	0.02	89.4	1.44	0.13	 k = 0
3.59	0.22	1.4	14.81	4.26	4.15	9.76	1.01	5.39	0.0	34.06	20.99	0.34	 l = s
9.76	1.15	1.43	44.33	2.01	1.87	4.02	0.14	3.73	0.29	1.72	0.57	28.98	 m = u
