Timestamp:2014-12-07-11:01:02
Inventario:I2
Intervalo:15ms
Ngramas:3
Clasificador:NaiveBayes
Relation Name:  I2-15ms-3gramas
Num Instances:  12187
Num Attributes: 31

     Name                      Type  Nom  Int Real     Missing      Unique  Dist
   1 0Int(dB)                   Num   0%  10%  90%     0 /  0%    10 /  0%   768 
   2 0Pitch(Hz)                 Num   0%  50%  50%     0 /  0%   940 /  8%  2714 
   3 0RawPitch                  Num   0%  53%  47%     0 /  0%   980 /  8%  2609 
   4 0SmPitch                   Num   0%  51%  49%     0 /  0%   957 /  8%  2691 
   5 0Melogram(st)              Num   0%  46%  54%     0 /  0%   837 /  7%  2573 
   6 0ZCross                    Num   0% 100%   0%     0 /  0%    10 /  0%    40 
   7 0F1(Hz)                    Num   0%  50%  50%     0 /  0%  2281 / 19%  3977 
   8 0F2(Hz)                    Num   0%  50%  50%     0 /  0%  3848 / 32%  5158 
   9 0F3(Hz)                    Num   0%  50%  50%     0 /  0%  3419 / 28%  4850 
  10 0F4(Hz)                    Num   0%  50%  50%     0 /  0%  3319 / 27%  4764 
  11 1Int(dB)                   Num   0%  10%  90%     0 /  0%    10 /  0%   768 
  12 1Pitch(Hz)                 Num   0%  50%  50%     0 /  0%   940 /  8%  2714 
  13 1RawPitch                  Num   0%  53%  47%     0 /  0%   980 /  8%  2609 
  14 1SmPitch                   Num   0%  51%  49%     0 /  0%   957 /  8%  2691 
  15 1Melogram(st)              Num   0%  46%  54%     0 /  0%   837 /  7%  2573 
  16 1ZCross                    Num   0% 100%   0%     0 /  0%    10 /  0%    40 
  17 1F1(Hz)                    Num   0%  50%  50%     0 /  0%  2281 / 19%  3977 
  18 1F2(Hz)                    Num   0%  50%  50%     0 /  0%  3848 / 32%  5158 
  19 1F3(Hz)                    Num   0%  50%  50%     0 /  0%  3419 / 28%  4850 
  20 1F4(Hz)                    Num   0%  50%  50%     0 /  0%  3319 / 27%  4764 
  21 2Int(dB)                   Num   0%  10%  90%     0 /  0%    10 /  0%   768 
  22 2Pitch(Hz)                 Num   0%  50%  50%     0 /  0%   941 /  8%  2715 
  23 2RawPitch                  Num   0%  53%  47%     0 /  0%   979 /  8%  2609 
  24 2SmPitch                   Num   0%  51%  49%     0 /  0%   957 /  8%  2691 
  25 2Melogram(st)              Num   0%  46%  54%     0 /  0%   838 /  7%  2574 
  26 2ZCross                    Num   0% 100%   0%     0 /  0%    10 /  0%    40 
  27 2F1(Hz)                    Num   0%  50%  50%     0 /  0%  2281 / 19%  3977 
  28 2F2(Hz)                    Num   0%  50%  50%     0 /  0%  3848 / 32%  5158 
  29 2F3(Hz)                    Num   0%  50%  50%     0 /  0%  3419 / 28%  4850 
  30 2F4(Hz)                    Num   0%  50%  50%     0 /  0%  3319 / 27%  4764 
  31 class                      Nom 100%   0%   0%     0 /  0%     0 /  0%    12 


Naive Bayes Classifier

                    Class
Attribute               A     LGJKC         E        FV         I         O     SNRTY         0       BMP        DZ         U    SNRTXY
                   (0.16)    (0.05)    (0.08)    (0.01)    (0.04)    (0.08)     (0.1)    (0.36)    (0.03)    (0.02)    (0.02)    (0.04)
========================================================================================================================================
0Int(dB)
  mean             -6.2827  -16.3181   -8.2853  -11.8337  -11.4664  -10.3306  -16.9149  -49.3157  -11.7003   -7.3441        -9   -8.6881
  std. dev.        11.7372   14.4796   10.4618   10.8769    9.6852   12.5524   11.6271   15.6452   11.7463    6.5773   11.0737    8.5512
  weight sum          1989       598       971       177       503       940      1218      4416       399       182       285       509
  precision         0.1005    0.1005    0.1005    0.1005    0.1005    0.1005    0.1005    0.1005    0.1005    0.1005    0.1005    0.1005

0Pitch(Hz)
  mean            205.2843   136.696   171.376  161.8432  155.6275  170.5933  122.8116   15.1236  176.1634  197.3539  208.3385  190.0947
  std. dev.       113.8386  109.1156   96.7489  106.9302   89.3289  111.0794   109.382   53.6597  105.3804   83.7783  113.7908   93.9255
  weight sum          1989       598       971       177       503       940      1218      4416       399       182       285       509
  precision         0.1828    0.1828    0.1828    0.1828    0.1828    0.1828    0.1828    0.1828    0.1828    0.1828    0.1828    0.1828

0RawPitch
  mean            195.8224  124.6903  166.4294  138.8672  144.7636  160.9027  104.2532   12.3493   166.948  190.1855  197.8707   180.025
  std. dev.       117.0434  109.4376   99.7164  107.0856    91.976  115.9139  109.6156   47.9354  110.5987   92.9929  115.5032  101.5013
  weight sum          1989       598       971       177       503       940      1218      4416       399       182       285       509
  precision           0.19      0.19      0.19      0.19      0.19      0.19      0.19      0.19      0.19      0.19      0.19      0.19

0SmPitch
  mean            203.4414  132.0246  169.6121  150.9116  152.7216  167.6951  115.1483   13.4413  174.3874   195.611  204.0613  188.1182
  std. dev.       114.9465  110.1035     98.43  106.0938   90.5569  112.6857  109.7003   49.2449  107.0721   86.4955  114.8803   96.0801
  weight sum          1989       598       971       177       503       940      1218      4416       399       182       285       509
  precision         0.1841    0.1841    0.1841    0.1841    0.1841    0.1841    0.1841    0.1841    0.1841    0.1841    0.1841    0.1841

0Melogram(st)
  mean             49.1246   36.4058    46.364   44.3633   43.7828   44.5801   33.5564    4.5593   46.2526   52.3734   46.8237     49.51
  std. dev.        19.5383   25.7996   19.9773   21.0748   21.0046   22.3034   26.5879   15.1232   20.8639   12.3578     23.28   17.6598
  weight sum          1989       598       971       177       503       940      1218      4416       399       182       285       509
  precision         0.0321    0.0321    0.0321    0.0321    0.0321    0.0321    0.0321    0.0321    0.0321    0.0321    0.0321    0.0321

0ZCross
  mean              6.2828    2.8043    4.5363    3.0523    3.4129    3.8308    2.9175    0.2319    2.9291    3.7923    3.6211    3.6521
  std. dev.         4.8016    2.9484    3.4214     2.753    3.6124    3.7224    4.3304    1.1941    2.7939    2.1009    3.3263    3.2635
  weight sum          1989       598       971       177       503       940      1218      4416       399       182       285       509
  precision         1.1026    1.1026    1.1026    1.1026    1.1026    1.1026    1.1026    1.1026    1.1026    1.1026    1.1026    1.1026

0F1(Hz)
  mean            606.1779  385.3403  421.4711  494.2517  328.6039  427.7699  381.4887    54.094  434.8028  501.7492  447.6356  512.6289
  std. dev.       314.3985   269.358  199.8827  234.8699  197.0056  253.7566  289.1504  172.0438  221.0826  156.3981  351.3336  186.4211
  weight sum          1989       598       971       177       503       940      1218      4416       399       182       285       509
  precision          0.438     0.438     0.438     0.438     0.438     0.438     0.438     0.438     0.438     0.438     0.438     0.438

0F2(Hz)
  mean           1360.0457 1265.2322 1557.4028 1421.4392 1600.4272 1095.9014 1146.3125  161.1049 1481.8564  1468.899  941.4183 1596.4035
  std. dev.       582.3985  841.2703  715.8668  646.1569  875.8818   642.731  821.5079  507.0628    667.81  366.0398  583.0066  515.1935
  weight sum          1989       598       971       177       503       940      1218      4416       399       182       285       509
  precision         0.5776    0.5776    0.5776    0.5776    0.5776    0.5776    0.5776    0.5776    0.5776    0.5776    0.5776    0.5776

0F3(Hz)
  mean             2479.17 2072.8619 2361.5599 2423.2784 2260.1467   2286.61 1986.2426  277.6514 2496.4215 2807.4597 2306.2699 2720.9137
  std. dev.      1020.8902 1348.1575  1058.658 1066.6564 1230.4607 1195.8853  1392.779  854.2277 1031.3795  570.2892 1189.9252  773.3485
  weight sum          1989       598       971       177       503       940      1218      4416       399       182       285       509
  precision         0.8494    0.8494    0.8494    0.8494    0.8494    0.8494    0.8494    0.8494    0.8494    0.8494    0.8494    0.8494

0F4(Hz)
  mean           2885.4543 2353.1015 2879.2008  2839.318 2723.7025 2646.7638 2256.7553  332.5609 2926.4759 3271.3215 2634.9155 3119.4848
  std. dev.      1177.5077 1519.5588 1266.1181 1221.6089 1450.2143 1374.1393  1567.501 1021.1349 1176.9755   629.099 1307.4223  872.3667
  weight sum          1989       598       971       177       503       940      1218      4416       399       182       285       509
  precision         0.8707    0.8707    0.8707    0.8707    0.8707    0.8707    0.8707    0.8707    0.8707    0.8707    0.8707    0.8707

1Int(dB)
  mean             -5.1539  -16.3687   -6.5035  -13.4875  -10.0663   -8.9829  -18.6519   -50.013  -12.6599   -8.0119   -7.1056   -9.6252
  std. dev.        10.4855   12.8506    9.1484    9.7297    8.7445   12.0392   10.6653   14.6127   11.4853    6.7561    9.4113    8.4319
  weight sum          1989       598       971       177       503       940      1218      4416       399       182       285       509
  precision         0.1005    0.1005    0.1005    0.1005    0.1005    0.1005    0.1005    0.1005    0.1005    0.1005    0.1005    0.1005

1Pitch(Hz)
  mean            211.6164  133.1982  183.4717   151.416  170.1872  178.6603  106.2716   12.1273   169.157  194.5985   222.874  184.6391
  std. dev.       108.5356  110.1644   90.6248  107.3372    80.118  105.9497  108.9904   48.3511  107.9278   87.0546   96.7144   98.2327
  weight sum          1989       598       971       177       503       940      1218      4416       399       182       285       509
  precision         0.1828    0.1828    0.1828    0.1828    0.1828    0.1828    0.1828    0.1828    0.1828    0.1828    0.1828    0.1828

1RawPitch
  mean            201.8512  115.9751  179.2232  126.9095  160.6735  170.2865   87.7632    9.8346  156.3794  189.0935  214.8787  173.8333
  std. dev.       112.7474  107.6868   94.3626  104.8815   84.5436  111.2599  106.7843   42.7207  112.6669   94.4871  100.3251  106.3527
  weight sum          1989       598       971       177       503       940      1218      4416       399       182       285       509
  precision           0.19      0.19      0.19      0.19      0.19      0.19      0.19      0.19      0.19      0.19      0.19      0.19

1SmPitch
  mean            209.8362  125.1499  181.7709  140.8054  167.6412  176.3381   98.1938   10.5826  166.7235    193.94  222.2202  182.6302
  std. dev.       109.8749  110.6016   92.0323    105.09   82.3894  107.6496  107.9403   43.6632  110.0496   88.2607    96.345  100.1783
  weight sum          1989       598       971       177       503       940      1218      4416       399       182       285       509
  precision         0.1841    0.1841    0.1841    0.1841    0.1841    0.1841    0.1841    0.1841    0.1841    0.1841    0.1841    0.1841

1Melogram(st)
  mean              50.884   34.5765    49.433   42.1057   47.5936    46.689   29.0344    3.8391   44.1038   51.8812   51.8876   48.1479
  std. dev.        17.3482   26.3479   16.6562   22.5058    17.453   20.4728   27.2332   13.9988   22.6152   13.0394   18.0236   19.1438
  weight sum          1989       598       971       177       503       940      1218      4416       399       182       285       509
  precision         0.0321    0.0321    0.0321    0.0321    0.0321    0.0321    0.0321    0.0321    0.0321    0.0321    0.0321    0.0321

1ZCross
  mean              6.5278    2.7306      4.81     2.392    3.4699    4.0255    2.8152    0.1446    2.5119    3.7075    3.6946    3.3922
  std. dev.         4.5495     2.959    3.2495    2.3218    3.3736    3.4165    4.7216    0.8059    2.4124    2.1562    3.0049    3.9865
  weight sum          1989       598       971       177       503       940      1218      4416       399       182       285       509
  precision         1.1026    1.1026    1.1026    1.1026    1.1026    1.1026    1.1026    1.1026    1.1026    1.1026    1.1026    1.1026

1F1(Hz)
  mean            646.5551  360.7653  448.7867   455.282  347.8788  460.8448  328.7398   44.5047  407.9579  496.8996  479.4518  479.4162
  std. dev.       288.6109  273.6661  167.2097   257.875  165.9413  237.0895  295.0373  156.5715  229.4716  161.9561  324.8579   195.601
  weight sum          1989       598       971       177       503       940      1218      4416       399       182       285       509
  precision          0.438     0.438     0.438     0.438     0.438     0.438     0.438     0.438     0.438     0.438     0.438     0.438

1F2(Hz)
  mean           1415.1431 1203.2683 1697.5367 1319.8463  1816.924 1136.7816  997.5417  133.6364 1414.0003 1453.6687 1012.0156 1545.8774
  std. dev.       509.9497  863.2321  606.8332  697.8781  769.2522   583.467  855.3307  464.4079  704.2441  367.5538  498.3854  564.6387
  weight sum          1989       598       971       177       503       940      1218      4416       399       182       285       509
  precision         0.5776    0.5776    0.5776    0.5776    0.5776    0.5776    0.5776    0.5776    0.5776    0.5776    0.5776    0.5776

1F3(Hz)
  mean           2589.7585 1973.4712 2529.5236  2267.597 2497.6197 2424.0221 1723.3061  231.1637 2386.6296 2793.2433 2541.1097 2642.9828
  std. dev.       897.5737  1390.456  892.9521 1184.2012 1063.4499 1093.5808 1456.2652   786.435 1113.8644  599.9523  990.0091  879.1693
  weight sum          1989       598       971       177       503       940      1218      4416       399       182       285       509
  precision         0.8494    0.8494    0.8494    0.8494    0.8494    0.8494    0.8494    0.8494    0.8494    0.8494    0.8494    0.8494

1F4(Hz)
  mean           3011.8957 2241.2335 3071.5364  2669.134 2991.7043 2797.3211 1962.6476  277.5098 2816.2806 3271.8573 2890.5441  3030.656
  std. dev.      1031.5735 1568.3325 1053.8859 1361.3599 1236.9689  1248.566 1644.5911   942.466 1281.9024  673.6241 1057.0684 1002.2946
  weight sum          1989       598       971       177       503       940      1218      4416       399       182       285       509
  precision         0.8707    0.8707    0.8707    0.8707    0.8707    0.8707    0.8707    0.8707    0.8707    0.8707    0.8707    0.8707

2Int(dB)
  mean             -4.6544  -15.2722   -5.5049  -14.3263   -9.1576   -8.3852  -19.5269  -50.5594  -12.4692   -8.3797   -5.5692  -10.5719
  std. dev.         9.8223   10.8417    8.2833    8.9225    8.3719   12.0282    9.5303   13.7511    10.584    6.9795    7.6498     8.469
  weight sum          1989       598       971       177       503       940      1218      4416       399       182       285       509
  precision         0.1005    0.1005    0.1005    0.1005    0.1005    0.1005    0.1005    0.1005    0.1005    0.1005    0.1005    0.1005

2Pitch(Hz)
  mean             214.311  141.8343  189.9846   145.764  175.8084  180.3637  100.3715    9.3592  169.0755  193.7345  231.3108  179.1918
  std. dev.       106.3793  108.8526   87.3032  105.9069   73.8088  102.9621   108.791   43.0337  105.9927   88.2964   84.4017  100.8774
  weight sum          1989       598       971       177       503       940      1218      4416       399       182       285       509
  precision         0.1828    0.1828    0.1828    0.1828    0.1828    0.1828    0.1828    0.1828    0.1828    0.1828    0.1828    0.1828

2RawPitch
  mean            204.6048  118.7519  186.8578  119.8712  168.3408  174.1912   81.0403    7.3688   155.219  188.6822  222.5963  167.7543
  std. dev.       110.9966  106.4895   91.2535  101.1981   79.5481  108.1025  104.5276   36.8772  111.9695   95.9007   90.9444  108.5032
  weight sum          1989       598       971       177       503       940      1218      4416       399       182       285       509
  precision           0.19      0.19      0.19      0.19      0.19      0.19      0.19      0.19      0.19      0.19      0.19      0.19

2SmPitch
  mean            212.5582  132.6194  188.6266  135.2172  174.1996  178.2642   91.6506    8.0645  164.9116  192.9144  230.9021  177.0924
  std. dev.       107.6671  110.4481   88.6539  102.9917   75.9109  104.6347  107.0346   38.1459  109.5012   89.8451   84.0603  102.5537
  weight sum          1989       598       971       177       503       940      1218      4416       399       182       285       509
  precision         0.1841    0.1841    0.1841    0.1841    0.1841    0.1841    0.1841    0.1841    0.1841    0.1841    0.1841    0.1841

2Melogram(st)
  mean             51.7631   36.0946   50.9897   40.8426    49.433   47.3663   27.1236    3.0766   44.2448   51.2049   54.7393    47.114
  std. dev.         15.996   26.0448   14.4101   23.1702   14.7392   19.6193     27.43   12.6727   22.4965    14.175   13.2895    20.104
  weight sum          1989       598       971       177       503       940      1218      4416       399       182       285       509
  precision         0.0321    0.0321    0.0321    0.0321    0.0321    0.0321    0.0321    0.0321    0.0321    0.0321    0.0321    0.0321

2ZCross
  mean              6.6459    2.9371    4.8701    2.1179    3.5072    4.0889    2.7356    0.1006    2.3765    3.7378    3.8532    3.0932
  std. dev.         4.4895    3.1501    2.9907    2.1208    3.0758     2.998    4.8597    0.6801    2.1579    2.1488    2.8492     4.505
  weight sum          1989       598       971       177       503       940      1218      4416       399       182       285       509
  precision         1.1026    1.1026    1.1026    1.1026    1.1026    1.1026    1.1026    1.1026    1.1026    1.1026    1.1026    1.1026

2F1(Hz)
  mean            680.2157   353.978  469.1052  420.1259  370.0223  487.7924  286.1586   34.4895  391.9946  501.1355  504.5577  443.3981
  std. dev.       263.0262  268.8341  136.7924  268.8685  133.9826   218.941  291.2238  138.1474  227.7233  166.0339   299.786  197.6356
  weight sum          1989       598       971       177       503       940      1218      4416       399       182       285       509
  precision          0.438     0.438     0.438     0.438     0.438     0.438     0.438     0.438     0.438     0.438     0.438     0.438

2F2(Hz)
  mean           1457.3331 1190.2085 1803.6497 1256.0162 2010.9745 1164.8777  884.3737  104.1934 1374.8709 1443.3798 1075.9553 1497.2713
  std. dev.       439.9568  854.4143  490.0179  726.8151  600.2718   526.346  864.3204  413.0188  707.8796  376.3503   411.661   601.804
  weight sum          1989       598       971       177       503       940      1218      4416       399       182       285       509
  precision         0.5776    0.5776    0.5776    0.5776    0.5776    0.5776    0.5776    0.5776    0.5776    0.5776    0.5776    0.5776

2F3(Hz)
  mean            2676.475 1973.0067 2651.8402 2156.9356 2714.2403 2529.7403 1519.7428  181.0252 2325.0319 2787.5447 2728.7599  2567.869
  std. dev.       781.3816 1390.4637  731.0473 1243.2456  831.8369  990.6689 1471.0412   703.345 1133.6314  632.9234   731.591  958.5106
  weight sum          1989       598       971       177       503       940      1218      4416       399       182       285       509
  precision         0.8494    0.8494    0.8494    0.8494    0.8494    0.8494    0.8494    0.8494    0.8494    0.8494    0.8494    0.8494

2F4(Hz)
  mean            3105.401 2251.4792 3206.8695 2560.0986 3233.1412 2916.3463  1738.325  217.3015 2772.6162 3262.7057 3100.5588 2953.6299
  std. dev.       892.4908 1573.9832  845.6004 1438.2149  946.7373 1123.3047 1671.1582  842.6819 1317.5612  714.9786  725.9921 1103.4238
  weight sum          1989       598       971       177       503       940      1218      4416       399       182       285       509
  precision         0.8707    0.8707    0.8707    0.8707    0.8707    0.8707    0.8707    0.8707    0.8707    0.8707    0.8707    0.8707





=== Stratified cross-validation ===

Correctly Classified Instances        5652               46.3773 %
Incorrectly Classified Instances      6535               53.6227 %
Kappa statistic                          0.3481
K&B Relative Info Score             393733.1948 %
K&B Information Score                11532.1705 bits      0.9463 bits/instance
Class complexity | order 0           35677.675  bits      2.9275 bits/instance
Class complexity | scheme           203976.9058 bits     16.7373 bits/instance
Complexity improvement     (Sf)    -168299.2308 bits    -13.8097 bits/instance
Mean absolute error                      0.0892
Root mean squared error                  0.2767
Relative absolute error                 65.8866 %
Root relative squared error            106.3659 %
Coverage of cases (0.95 level)          56.4208 %
Mean rel. region size (0.95 level)      13.9705 %
Total Number of Instances            12187     


=== Detailed Accuracy By Class ===

                 TP Rate  FP Rate  Precision  Recall   F-Measure  MCC      ROC Area  PRC Area  Class
                 0,384    0,050    0,600      0,384    0,468      0,404    0,847     0,546     A
                 0,025    0,015    0,081      0,025    0,038      0,018    0,681     0,078     LGJKC
                 0,198    0,027    0,389      0,198    0,262      0,235    0,829     0,305     E
                 0,034    0,012    0,040      0,034    0,037      0,024    0,724     0,033     FV
                 0,260    0,024    0,316      0,260    0,285      0,259    0,859     0,264     I
                 0,004    0,002    0,154      0,004    0,008      0,013    0,735     0,164     O
                 0,250    0,053    0,342      0,250    0,288      0,226    0,744     0,280     SNRTY
                 0,914    0,094    0,847      0,914    0,879      0,808    0,953     0,908     0
                 0,000    0,003    0,000      0,000    0,000      -0,010   0,716     0,058     BMP
                 0,758    0,287    0,039      0,758    0,073      0,126    0,819     0,055     DZ
                 0,179    0,008    0,338      0,179    0,234      0,233    0,848     0,193     U
                 0,020    0,018    0,046      0,020    0,028      0,003    0,703     0,067     SNRTXY
Weighted Avg.    0,464    0,057    0,510      0,464    0,467      0,420    0,845     0,508     


=== Confusion Matrix ===

    a    b    c    d    e    f    g    h    i    j    k    l   <-- classified as
  764   56   70   20   42    9   91   76    3  793   38   27 |    a = A
   38   15   30   10   23    2   94  118    3  241    0   24 |    b = LGJKC
  108   32  192    6   65    6   48   33    1  456   11   13 |    c = E
   11    2    7    6    0    0   26   20    0   94    1   10 |    d = FV
   28   19  106    4  131    1   37   21    6  144    3    3 |    e = I
  105   30   24   22   28    4   56   85    3  535   33   15 |    f = O
   69   13   21   38   33    1  304  306    9  349    6   69 |    g = SNRTY
    8    3    4   24   23    2  117 4037    3  162    2   31 |    h = 0
   29    1    8    8   36    0   43   42    0  214    5   13 |    i = BMP
   21    0    5    3    1    0    6    4    2  138    0    2 |    j = DZ
   40   13    3    1   15    1   18    6    4  133   51    0 |    k = U
   53    1   23    7   18    0   50   21    5  320    1   10 |    l = SNRTXY

=== Percent Confusion Matrix ===
a	b	c	d	e	f	g	h	i	j	k	l	
38.41	2.82	3.52	1.01	2.11	0.45	4.58	3.82	0.15	39.87	1.91	1.36	 a = A
6.35	2.51	5.02	1.67	3.85	0.33	15.72	19.73	0.5	40.3	0.0	4.01	 b = LGJKC
11.12	3.3	19.77	0.62	6.69	0.62	4.94	3.4	0.1	46.96	1.13	1.34	 c = E
6.21	1.13	3.95	3.39	0.0	0.0	14.69	11.3	0.0	53.11	0.56	5.65	 d = FV
5.57	3.78	21.07	0.8	26.04	0.2	7.36	4.17	1.19	28.63	0.6	0.6	 e = I
11.17	3.19	2.55	2.34	2.98	0.43	5.96	9.04	0.32	56.91	3.51	1.6	 f = O
5.67	1.07	1.72	3.12	2.71	0.08	24.96	25.12	0.74	28.65	0.49	5.67	 g = SNRTY
0.18	0.07	0.09	0.54	0.52	0.05	2.65	91.42	0.07	3.67	0.05	0.7	 h = 0
7.27	0.25	2.01	2.01	9.02	0.0	10.78	10.53	0.0	53.63	1.25	3.26	 i = BMP
11.54	0.0	2.75	1.65	0.55	0.0	3.3	2.2	1.1	75.82	0.0	1.1	 j = DZ
14.04	4.56	1.05	0.35	5.26	0.35	6.32	2.11	1.4	46.67	17.89	0.0	 k = U
10.41	0.2	4.52	1.38	3.54	0.0	9.82	4.13	0.98	62.87	0.2	1.96	 l = SNRTXY
