Timestamp:2014-12-07-11:00:48
Inventario:I2
Intervalo:10ms
Ngramas:5
Clasificador:NaiveBayes
Relation Name:  I2-10ms-5gramas
Num Instances:  18292
Num Attributes: 51

     Name                      Type  Nom  Int Real     Missing      Unique  Dist
   1 0Int(dB)                   Num   0%  10%  90%     0 /  0%     7 /  0%   772 
   2 0Pitch(Hz)                 Num   0%  51%  49%     0 /  0%   816 /  4%  3063 
   3 0RawPitch                  Num   0%  54%  46%     0 /  0%   853 /  5%  2955 
   4 0SmPitch                   Num   0%  52%  48%     0 /  0%   827 /  5%  3024 
   5 0Melogram(st)              Num   0%  47%  53%     0 /  0%   581 /  3%  2807 
   6 0ZCross                    Num   0% 100%   0%     0 /  0%    10 /  0%    42 
   7 0F1(Hz)                    Num   0%  51%  49%     0 /  0%  2131 / 12%  4724 
   8 0F2(Hz)                    Num   0%  51%  49%     0 /  0%  4210 / 23%  6615 
   9 0F3(Hz)                    Num   0%  51%  49%     0 /  0%  3688 / 20%  6145 
  10 0F4(Hz)                    Num   0%  51%  49%     0 /  0%  3689 / 20%  6054 
  11 1Int(dB)                   Num   0%  10%  90%     0 /  0%     7 /  0%   772 
  12 1Pitch(Hz)                 Num   0%  51%  49%     0 /  0%   816 /  4%  3063 
  13 1RawPitch                  Num   0%  54%  46%     0 /  0%   853 /  5%  2955 
  14 1SmPitch                   Num   0%  52%  48%     0 /  0%   827 /  5%  3024 
  15 1Melogram(st)              Num   0%  47%  53%     0 /  0%   581 /  3%  2807 
  16 1ZCross                    Num   0% 100%   0%     0 /  0%    10 /  0%    42 
  17 1F1(Hz)                    Num   0%  51%  49%     0 /  0%  2131 / 12%  4724 
  18 1F2(Hz)                    Num   0%  51%  49%     0 /  0%  4210 / 23%  6615 
  19 1F3(Hz)                    Num   0%  51%  49%     0 /  0%  3688 / 20%  6145 
  20 1F4(Hz)                    Num   0%  51%  49%     0 /  0%  3689 / 20%  6054 
  21 2Int(dB)                   Num   0%  10%  90%     0 /  0%     7 /  0%   772 
  22 2Pitch(Hz)                 Num   0%  51%  49%     0 /  0%   816 /  4%  3063 
  23 2RawPitch                  Num   0%  54%  46%     0 /  0%   853 /  5%  2955 
  24 2SmPitch                   Num   0%  52%  48%     0 /  0%   827 /  5%  3024 
  25 2Melogram(st)              Num   0%  47%  53%     0 /  0%   581 /  3%  2807 
  26 2ZCross                    Num   0% 100%   0%     0 /  0%    10 /  0%    42 
  27 2F1(Hz)                    Num   0%  51%  49%     0 /  0%  2131 / 12%  4724 
  28 2F2(Hz)                    Num   0%  51%  49%     0 /  0%  4210 / 23%  6615 
  29 2F3(Hz)                    Num   0%  51%  49%     0 /  0%  3688 / 20%  6145 
  30 2F4(Hz)                    Num   0%  51%  49%     0 /  0%  3689 / 20%  6054 
  31 3Int(dB)                   Num   0%  10%  90%     0 /  0%     7 /  0%   772 
  32 3Pitch(Hz)                 Num   0%  51%  49%     0 /  0%   816 /  4%  3063 
  33 3RawPitch                  Num   0%  54%  46%     0 /  0%   853 /  5%  2955 
  34 3SmPitch                   Num   0%  52%  48%     0 /  0%   827 /  5%  3024 
  35 3Melogram(st)              Num   0%  47%  53%     0 /  0%   581 /  3%  2807 
  36 3ZCross                    Num   0% 100%   0%     0 /  0%    10 /  0%    42 
  37 3F1(Hz)                    Num   0%  51%  49%     0 /  0%  2131 / 12%  4724 
  38 3F2(Hz)                    Num   0%  51%  49%     0 /  0%  4210 / 23%  6615 
  39 3F3(Hz)                    Num   0%  51%  49%     0 /  0%  3688 / 20%  6145 
  40 3F4(Hz)                    Num   0%  51%  49%     0 /  0%  3689 / 20%  6054 
  41 4Int(dB)                   Num   0%  10%  90%     0 /  0%     7 /  0%   772 
  42 4Pitch(Hz)                 Num   0%  51%  49%     0 /  0%   817 /  4%  3064 
  43 4RawPitch                  Num   0%  54%  46%     0 /  0%   854 /  5%  2956 
  44 4SmPitch                   Num   0%  52%  48%     0 /  0%   828 /  5%  3025 
  45 4Melogram(st)              Num   0%  47%  53%     0 /  0%   582 /  3%  2808 
  46 4ZCross                    Num   0% 100%   0%     0 /  0%    10 /  0%    42 
  47 4F1(Hz)                    Num   0%  51%  49%     0 /  0%  2131 / 12%  4724 
  48 4F2(Hz)                    Num   0%  51%  49%     0 /  0%  4210 / 23%  6615 
  49 4F3(Hz)                    Num   0%  51%  49%     0 /  0%  3688 / 20%  6145 
  50 4F4(Hz)                    Num   0%  51%  49%     0 /  0%  3689 / 20%  6054 
  51 class                      Nom 100%   0%   0%     0 /  0%     0 /  0%    12 


Naive Bayes Classifier

                    Class
Attribute               A     LGJKC         E        FV         I         O     SNRTY         0       BMP        DZ         U    SNRTXY
                   (0.16)    (0.05)    (0.08)    (0.01)    (0.04)    (0.08)     (0.1)    (0.37)    (0.03)    (0.02)    (0.02)    (0.04)
========================================================================================================================================
0Int(dB)
  mean             -6.9299   -16.039   -9.6111   -10.982  -12.4993  -11.2977   -15.955  -48.0267  -11.3972   -7.3375  -10.2969   -8.1949
  std. dev.        12.4228   15.2156   11.4443   11.4347    10.575     13.03   12.1192   17.1401   11.9964    6.7656   12.4298    8.5631
  weight sum          2940       894      1438       261       748      1377      1790      6794       594       274       423       759
  precision         0.1005    0.1005    0.1005    0.1005    0.1005    0.1005    0.1005    0.1005    0.1005    0.1005    0.1005    0.1005

0Pitch(Hz)
  mean            201.0034  137.7771  162.8814  162.8376  141.7256  162.3445  128.6876   19.6403  176.5923  198.8408  196.4288  192.8896
  std. dev.       118.0639  111.0164  100.9376  106.0306   94.1851  115.4514  109.3796   60.4023  106.6658   83.7207  121.8438   91.7603
  weight sum          2940       894      1438       261       748      1377      1790      6794       594       274       423       759
  precision         0.1626    0.1626    0.1626    0.1626    0.1626    0.1626    0.1626    0.1626    0.1626    0.1626    0.1626    0.1626

0RawPitch
  mean            190.7861  128.0842  157.1635  143.5452  130.5727   154.051  109.7093    16.296  167.2471  187.8956  185.1858  181.6738
  std. dev.       121.3283  111.6201   104.273  109.1897   95.3267  119.4964   110.572   54.9452  111.4688   95.0589   124.139  100.7861
  weight sum          2940       894      1438       261       748      1377      1790      6794       594       274       423       759
  precision         0.1679    0.1679    0.1679    0.1679    0.1679    0.1679    0.1679    0.1679    0.1679    0.1679    0.1679    0.1679

0SmPitch
  mean            198.9282   133.741  160.1278  154.4791  139.4948  160.0958   122.263   17.9599  173.7853  195.3865  191.6402  191.0535
  std. dev.        119.099   111.836  103.2014   106.176    94.338  116.5286  109.9964   56.9887  108.2015   87.7561  124.0826   93.9599
  weight sum          2940       894      1438       261       748      1377      1790      6794       594       274       423       759
  precision         0.1647    0.1647    0.1647    0.1647    0.1647    0.1647    0.1647    0.1647    0.1647    0.1647    0.1647    0.1647

0Melogram(st)
  mean             47.8679   36.7139   43.9709   45.1576   40.3717   42.2639   35.4442    5.6482   45.9865   52.5997    43.858   49.9803
  std. dev.        20.9198   25.7739    21.953   20.6297   23.2088   23.8573    26.131    16.628   21.1991   12.1434   25.2949   17.2151
  weight sum          2940       894      1438       261       748      1377      1790      6794       594       274       423       759
  precision         0.0294    0.0294    0.0294    0.0294    0.0294    0.0294    0.0294    0.0294    0.0294    0.0294    0.0294    0.0294

0ZCross
  mean              6.1908    2.9541    4.2718    3.4224    3.2887     3.572    2.9363    0.3724    3.0467    3.7176    3.5052    3.7929
  std. dev.         5.0845    3.1141    3.6952    3.1109    4.3028    3.7147    4.0417    1.6643    3.0136    2.3058    3.5492    3.0985
  weight sum          2940       894      1438       261       748      1377      1790      6794       594       274       423       759
  precision         1.2927    1.2927    1.2927    1.2927    1.2927    1.2927    1.2927    1.2927    1.2927    1.2927    1.2927    1.2927

0F1(Hz)
  mean            581.8893  389.3203  397.3557  499.4316  314.4877  404.7558  404.4682   67.3207   435.447  502.3049  421.2912  522.0328
  std. dev.       329.6543  269.1043  220.5354  230.5154  214.7262  263.5378  284.3682  189.0983  227.9619   161.099  363.4485  190.1501
  weight sum          2940       894      1438       261       748      1377      1790      6794       594       274       423       759
  precision         0.3688    0.3688    0.3688    0.3688    0.3688    0.3688    0.3688    0.3688    0.3688    0.3688    0.3688    0.3688

0F2(Hz)
  mean           1322.2779 1262.0694 1452.2339 1440.7522 1458.8644 1058.6386  1204.217   201.594 1470.3392 1458.0465  898.5293 1587.4033
  std. dev.       623.3526   836.532  782.1386  648.3082  923.3942  680.2641  798.3124  559.6456  691.4076  396.8566  631.6566  517.2112
  weight sum          2940       894      1438       261       748      1377      1790      6794       594       274       423       759
  precision         0.4504    0.4504    0.4504    0.4504    0.4504    0.4504    0.4504    0.4504    0.4504    0.4504    0.4504    0.4504

0F3(Hz)
  mean           2408.7717 2075.8662 2228.1348 2441.7175 2099.7998 2179.4174 2083.8203  344.8935 2460.7556 2796.2121 2149.9078 2721.2207
  std. dev.      1092.4253 1340.3226 1168.5798 1052.2514 1316.2452 1259.3843 1344.7953   936.734 1067.6148  625.8303 1279.6717  781.4562
  weight sum          2940       894      1438       261       748      1377      1790      6794       594       274       423       759
  precision         0.6705    0.6705    0.6705    0.6705    0.6705    0.6705    0.6705    0.6705    0.6705    0.6705    0.6705    0.6705

0F4(Hz)
  mean           2796.1617 2368.9293 2704.2382 2859.7375 2531.2629 2526.1338 2384.9168  415.0202 2886.9193 3234.7921 2470.7103  3110.387
  std. dev.      1258.5259 1518.1391 1397.5563 1204.9182 1557.2602 1451.9381 1523.7495  1124.632 1222.9136  688.6875 1423.5708  875.0948
  weight sum          2940       894      1438       261       748      1377      1790      6794       594       274       423       759
  precision         0.6851    0.6851    0.6851    0.6851    0.6851    0.6851    0.6851    0.6851    0.6851    0.6851    0.6851    0.6851

1Int(dB)
  mean             -6.0715  -16.6826   -8.2832   -12.229  -11.5529  -10.1884  -17.1926  -48.5012  -12.0773   -7.4101    -9.141   -8.7222
  std. dev.         11.593   14.6529   10.5574   10.7764   10.0097   12.4847   11.6585   16.5463   11.9572    6.5796    11.517    8.4654
  weight sum          2940       894      1438       261       748      1377      1790      6794       594       274       423       759
  precision         0.1005    0.1005    0.1005    0.1005    0.1005    0.1005    0.1005    0.1005    0.1005    0.1005    0.1005    0.1005

1Pitch(Hz)
  mean            206.0621  132.0696  171.3761  155.4117  151.1778  169.4942  116.4845   17.6176  171.2937  198.7927  206.5505  189.5987
  std. dev.       114.2169  111.5091   97.3583  107.1208   90.4554  112.1681  109.8057     57.63  108.4803   85.1445  112.6088    94.753
  weight sum          2940       894      1438       261       748      1377      1790      6794       594       274       423       759
  precision         0.1626    0.1626    0.1626    0.1626    0.1626    0.1626    0.1626    0.1626    0.1626    0.1626    0.1626    0.1626

1RawPitch
  mean            195.4446  120.2578  165.9268  134.3425  140.1369  160.7417     97.49   14.7182  160.9589  191.4984  196.9115  177.8714
  std. dev.       118.3762     111.1  101.4248  108.4897   92.6731  117.1537  109.1458   52.3175  112.6321   94.4455  116.0658  103.6291
  weight sum          2940       894      1438       261       748      1377      1790      6794       594       274       423       759
  precision         0.1679    0.1679    0.1679    0.1679    0.1679    0.1679    0.1679    0.1679    0.1679    0.1679    0.1679    0.1679

1SmPitch
  mean            203.8807  127.2498  168.9406  147.5141  148.7333  166.8657  109.8903   15.9871  168.8457  196.8992  203.2317  187.5263
  std. dev.       115.5779  112.0926   99.8036  106.2865   91.0219  113.6276   109.625   53.9948  109.5157    88.053  114.3476   97.0591
  weight sum          2940       894      1438       261       748      1377      1790      6794       594       274       423       759
  precision         0.1647    0.1647    0.1647    0.1647    0.1647    0.1647    0.1647    0.1647    0.1647    0.1647    0.1647    0.1647

1Melogram(st)
  mean               49.16   35.0354   46.0304   43.7744   42.8057   44.1418   32.2427    5.1053   45.0143    52.515   46.9326   49.2082
  std. dev.         19.561   26.2204   20.3297   21.5454   21.7211   22.6348   26.8949   15.8999   21.9175   12.2196   23.1329   18.1102
  weight sum          2940       894      1438       261       748      1377      1790      6794       594       274       423       759
  precision         0.0294    0.0294    0.0294    0.0294    0.0294    0.0294    0.0294    0.0294    0.0294    0.0294    0.0294    0.0294

1ZCross
  mean                6.39    2.7213    4.5442    2.8924    3.2766    3.7485    2.8865    0.3145    2.7268    3.6516    3.4685    3.5834
  std. dev.         4.8474    3.0153    3.6764    2.7663    3.9228    3.6397    4.3991    1.5734    2.7447    2.2302    3.3113    3.5739
  weight sum          2940       894      1438       261       748      1377      1790      6794       594       274       423       759
  precision         1.2927    1.2927    1.2927    1.2927    1.2927    1.2927    1.2927    1.2927    1.2927    1.2927    1.2927    1.2927

1F1(Hz)
  mean            608.9814  373.0078  414.4876  481.1684  324.4815  427.1986   368.167   60.6401  420.5783  501.4785  438.9512  507.0658
  std. dev.       314.7754  274.1382  204.0813  244.4663  196.3871  255.5101  294.0055  179.8321   233.997  158.0796  351.0171  192.1114
  weight sum          2940       894      1438       261       748      1377      1790      6794       594       274       423       759
  precision         0.3688    0.3688    0.3688    0.3688    0.3688    0.3688    0.3688    0.3688    0.3688    0.3688    0.3688    0.3688

1F2(Hz)
  mean           1361.1691 1222.3866 1540.0099 1382.0687 1594.9962   1087.12  1098.941  182.9445 1431.5618 1468.7056  933.7491 1573.6343
  std. dev.       579.0188  856.2291  736.2298  677.1876  886.9887  643.6083  834.1697  536.0273  712.6322  370.6571  589.8158  532.5925
  weight sum          2940       894      1438       261       748      1377      1790      6794       594       274       423       759
  precision         0.4504    0.4504    0.4504    0.4504    0.4504    0.4504    0.4504    0.4504    0.4504    0.4504    0.4504    0.4504

1F3(Hz)
  mean            2487.049 2002.6131 2334.9624 2354.9866 2246.1444 2276.2654 1898.1173  313.3268 2400.4431 2822.3852 2280.9865 2697.0132
  std. dev.       1017.274 1372.0526 1092.4038 1117.9617 1243.3357 1203.3602 1411.3673  898.7423 1114.3931     574.1 1204.2554   815.087
  weight sum          2940       894      1438       261       748      1377      1790      6794       594       274       423       759
  precision         0.6705    0.6705    0.6705    0.6705    0.6705    0.6705    0.6705    0.6705    0.6705    0.6705    0.6705    0.6705

1F4(Hz)
  mean           2887.8182 2286.6841 2827.1616 2769.7197 2704.0163 2631.6643 2174.4741  377.1315 2825.1944 3269.4529 2611.7192 3081.2457
  std. dev.      1170.9939 1555.1945 1299.7201 1285.7643 1464.2027 1382.1236 1602.2761 1079.4377 1281.0444  631.6893 1326.9291  918.4857
  weight sum          2940       894      1438       261       748      1377      1790      6794       594       274       423       759
  precision         0.6851    0.6851    0.6851    0.6851    0.6851    0.6851    0.6851    0.6851    0.6851    0.6851    0.6851    0.6851

2Int(dB)
  mean             -5.2562  -16.7872   -6.9781   -13.453  -10.5648   -9.2289   -18.453  -48.9843  -12.6892   -7.9197    -7.821   -9.3157
  std. dev.        10.6845   13.6225     9.587    9.9848    9.3802   12.1503    11.019   15.8913   11.7406    6.6725   10.4376    8.3827
  weight sum          2940       894      1438       261       748      1377      1790      6794       594       274       423       759
  precision         0.1005    0.1005    0.1005    0.1005    0.1005    0.1005    0.1005    0.1005    0.1005    0.1005    0.1005    0.1005

2Pitch(Hz)
  mean            210.9077   127.861  179.7817  147.5196  161.7269  175.9738  103.8371    15.546  166.9471  197.2304  217.8099  186.4846
  std. dev.       110.2129  111.3138   93.2543  107.4902   84.8365  108.3955  109.1799   54.3414  109.8658   86.8545   101.251    97.581
  weight sum          2940       894      1438       261       748      1377      1790      6794       594       274       423       759
  precision         0.1626    0.1626    0.1626    0.1626    0.1626    0.1626    0.1626    0.1626    0.1626    0.1626    0.1626    0.1626

2RawPitch
  mean            200.2188  112.5077  175.0704  125.4184  151.7646  167.5572   85.4064   12.9606  153.9342  191.0767  208.6619  173.7598
  std. dev.       115.2026  109.6756    97.669  107.1313   87.9735  114.1306   106.321   49.1247  113.8843   95.3647  106.1879   106.756
  weight sum          2940       894      1438       261       748      1377      1790      6794       594       274       423       759
  precision         0.1679    0.1679    0.1679    0.1679    0.1679    0.1679    0.1679    0.1679    0.1679    0.1679    0.1679    0.1679

2SmPitch
  mean            208.5725   122.414  177.2466  139.8605  159.4793  173.3248   97.7238   13.9244  163.7838  195.7809  215.6213  184.2524
  std. dev.       111.9157  112.2582   95.7152  105.8427   85.9419   110.039  108.3165   50.3099  111.3474    89.259  102.5619   99.6578
  weight sum          2940       894      1438       261       748      1377      1790      6794       594       274       423       759
  precision         0.1647    0.1647    0.1647    0.1647    0.1647    0.1647    0.1647    0.1647    0.1647    0.1647    0.1647    0.1647

2Melogram(st)
  mean             50.4189   33.7316   48.2348   41.8303   45.5707   45.7502   28.8911    4.6149   43.8398   52.1878   50.2186   48.2165
  std. dev.        18.0558   26.5337   18.1696   22.7672   19.4988   21.3432   27.2764   15.1945   22.8015   12.6868   19.9908   19.1612
  weight sum          2940       894      1438       261       748      1377      1790      6794       594       274       423       759
  precision         0.0294    0.0294    0.0294    0.0294    0.0294    0.0294    0.0294    0.0294    0.0294    0.0294    0.0294    0.0294

2ZCross
  mean              6.5747    2.6172     4.777    2.4071    3.3008    3.9062    2.8352    0.2453    2.4526    3.5572    3.5022    3.3773
  std. dev.         4.6892    3.0428    3.5473    2.4072    3.5385    3.5254    4.7753    1.2668    2.4563    2.1965    3.0347    4.0625
  weight sum          2940       894      1438       261       748      1377      1790      6794       594       274       423       759
  precision         1.2927    1.2927    1.2927    1.2927    1.2927    1.2927    1.2927    1.2927    1.2927    1.2927    1.2927    1.2927

2F1(Hz)
  mean            637.5745  357.2365  432.7945  457.1842    337.77   450.362  331.0012    53.593  403.2101  496.7666  460.9396  487.1003
  std. dev.       296.9353  275.3498  184.6991   256.028  176.2367  244.3368  297.4485  169.3736  236.5419  165.6401  335.9081  196.4015
  weight sum          2940       894      1438       261       748      1377      1790      6794       594       274       423       759
  precision         0.3688    0.3688    0.3688    0.3688    0.3688    0.3688    0.3688    0.3688    0.3688    0.3688    0.3688    0.3688

2F2(Hz)
  mean           1400.9882 1186.7313 1632.6744 1322.7123 1742.2077 1117.1452  993.8968  162.6833  1390.089 1453.0514  979.7948 1548.2318
  std. dev.       529.3561   868.972   673.554  699.8891  822.2232  603.6027  854.6129  507.4891    729.41  382.9596  538.5145  557.6152
  weight sum          2940       894      1438       261       748      1377      1790      6794       594       274       423       759
  precision         0.4504    0.4504    0.4504    0.4504    0.4504    0.4504    0.4504    0.4504    0.4504    0.4504    0.4504    0.4504

2F3(Hz)
  mean           2565.6797 1943.5027 2447.1049 2268.6436 2408.7343 2373.7752 1712.7279   279.465 2335.5553 2804.1068 2430.7754 2656.3699
  std. dev.       931.4867 1396.0253  996.0136  1175.068 1138.7559 1134.1201 1449.6521  854.4639  1153.522  617.0332  1089.578  867.9656
  weight sum          2940       894      1438       261       748      1377      1790      6794       594       274       423       759
  precision         0.6705    0.6705    0.6705    0.6705    0.6705    0.6705    0.6705    0.6705    0.6705    0.6705    0.6705    0.6705

2F4(Hz)
  mean           2978.0599 2219.1628  2953.752 2681.0905 2889.2593 2740.1433 1966.8349  336.5585  2763.331 3256.2582 2777.4425 3036.1861
  std. dev.      1069.8428 1582.3661 1176.1247 1356.4028 1330.8507 1297.7013 1651.1451 1026.8796  1333.663  689.7267 1184.8746   984.873
  weight sum          2940       894      1438       261       748      1377      1790      6794       594       274       423       759
  precision         0.6851    0.6851    0.6851    0.6851    0.6851    0.6851    0.6851    0.6851    0.6851    0.6851    0.6851    0.6851

3Int(dB)
  mean             -4.6583  -16.2401   -5.9386   -14.457   -9.6878    -8.538  -19.4109  -49.4538  -12.9285   -8.3922    -6.523   -9.9414
  std. dev.         9.9884   12.2596    8.7524    9.1174    8.9009   12.0283    10.127   15.1932   11.2858    6.7514    9.2325    8.3293
  weight sum          2940       894      1438       261       748      1377      1790      6794       594       274       423       759
  precision         0.1005    0.1005    0.1005    0.1005    0.1005    0.1005    0.1005    0.1005    0.1005    0.1005    0.1005    0.1005

3Pitch(Hz)
  mean            214.2999  128.6817  187.1289  141.0758   169.624   180.298   94.3626   13.6938  164.0251  195.7221  226.0414  182.2135
  std. dev.       107.3554  111.0053   89.1848  107.2369   79.3475  104.9788  107.8024   51.1571  110.3131   89.0024   90.8899  100.0054
  weight sum          2940       894      1438       261       748      1377      1790      6794       594       274       423       759
  precision         0.1626    0.1626    0.1626    0.1626    0.1626    0.1626    0.1626    0.1626    0.1626    0.1626    0.1626    0.1626

3RawPitch
  mean            203.4999  110.9701  182.7671  118.1042  160.2257  173.1119   75.5633    11.117  151.3042  190.1364  217.7899  169.4048
  std. dev.        112.824  109.0129   93.8486  105.1012   83.7348   111.182   102.955   45.2445  114.0339   97.1465   96.3272  108.9815
  weight sum          2940       894      1438       261       748      1377      1790      6794       594       274       423       759
  precision         0.1679    0.1679    0.1679    0.1679    0.1679    0.1679    0.1679    0.1679    0.1679    0.1679    0.1679    0.1679

3SmPitch
  mean            212.0791  121.6063  185.0532  133.6333  167.3233  177.9648   87.8612   12.1462  160.0578  194.9849  225.0495  179.9486
  std. dev.       109.1565  112.5705    91.154  104.9032   80.6951  106.8233  106.1184   46.8965  112.2555   90.4121   91.3186  101.9152
  weight sum          2940       894      1438       261       748      1377      1790      6794       594       274       423       759
  precision         0.1647    0.1647    0.1647    0.1647    0.1647    0.1647    0.1647    0.1647    0.1647    0.1647    0.1647    0.1647

3Melogram(st)
  mean             51.3965     33.39   50.1673   40.1599   47.7876   46.7989   26.1691    4.1839   42.9332   51.7352   52.9506   47.2852
  std. dev.        16.7239    26.631    15.729   23.6891   17.1488   20.3195   27.3031   14.5516   23.4206   13.4859   16.4082   20.0308
  weight sum          2940       894      1438       261       748      1377      1790      6794       594       274       423       759
  precision         0.0294    0.0294    0.0294    0.0294    0.0294    0.0294    0.0294    0.0294    0.0294    0.0294    0.0294    0.0294

3ZCross
  mean              6.7426    2.7459    4.8777    2.0356    3.3458    4.0104    2.7652     0.176    2.2633    3.4959    3.6091    3.1747
  std. dev.         4.6066    3.3195    3.2885    2.1197    3.3619    3.2415    4.9851    0.9114    2.1902    2.1909     2.929     4.441
  weight sum          2940       894      1438       261       748      1377      1790      6794       594       274       423       759
  precision         1.2927    1.2927    1.2927    1.2927    1.2927    1.2927    1.2927    1.2927    1.2927    1.2927    1.2927    1.2927

3F1(Hz)
  mean            664.8149  343.0599  452.4055  427.4933  353.4925  474.0843  295.3809     46.37  387.8062   498.733  482.6221  460.7272
  std. dev.       276.6469  275.0916  159.6131  266.6231  155.8578  229.5879  296.5686  157.5981  236.7462  169.3003  319.3509  200.6921
  weight sum          2940       894      1438       261       748      1377      1790      6794       594       274       423       759
  precision         0.3688    0.3688    0.3688    0.3688    0.3688    0.3688    0.3688    0.3688    0.3688    0.3688    0.3688    0.3688

3F2(Hz)
  mean           1438.6375 1150.3033 1730.4304 1255.6134 1886.1841 1149.4791  894.1643  141.7401 1355.9289 1445.7075 1027.4385 1508.1246
  std. dev.       474.1145   873.282  583.9406  728.5852  727.5947  557.6755  862.1798  475.9872   740.105  386.9614  482.4236    590.94
  weight sum          2940       894      1438       261       748      1377      1790      6794       594       274       423       759
  precision         0.4504    0.4504    0.4504    0.4504    0.4504    0.4504    0.4504    0.4504    0.4504    0.4504    0.4504    0.4504

3F3(Hz)
  mean           2639.6428  1897.303 2566.2209 2161.8658 2569.2982 2474.5963 1537.2883  243.9108 2275.3297 2794.9126 2578.9648 2594.0512
  std. dev.       836.6339 1417.1772  864.4824 1236.4745 1001.9819 1047.0894 1464.7026  803.9046 1178.2882  636.9647   937.242  937.3283
  weight sum          2940       894      1438       261       748      1377      1790      6794       594       274       423       759
  precision         0.6705    0.6705    0.6705    0.6705    0.6705    0.6705    0.6705    0.6705    0.6705    0.6705    0.6705    0.6705

3F4(Hz)
  mean           3062.2428 2159.8942 3090.2109 2569.1202 3069.7504 2853.8724 1768.7383  294.0316  2712.388 3253.5853 2942.8419 2972.1824
  std. dev.        957.834  1601.298 1010.4123  1435.181 1158.3793 1192.6404 1673.0189  966.9098 1372.7244  716.7462  994.8814 1071.9421
  weight sum          2940       894      1438       261       748      1377      1790      6794       594       274       423       759
  precision         0.6851    0.6851    0.6851    0.6851    0.6851    0.6851    0.6851    0.6851    0.6851    0.6851    0.6851    0.6851

4Int(dB)
  mean             -4.4871  -15.2573   -5.4216  -14.8768   -9.1229   -8.3525  -19.6701  -49.8229  -12.4295   -8.4296   -5.5461  -10.5318
  std. dev.         9.7495    10.927    8.2134    8.5952    8.6417   12.1594    9.5288   14.6176   10.5978    6.9616    7.9501     8.325
  weight sum          2940       894      1438       261       748      1377      1790      6794       594       274       423       759
  precision         0.1005    0.1005    0.1005    0.1005    0.1005    0.1005    0.1005    0.1005    0.1005    0.1005    0.1005    0.1005

4Pitch(Hz)
  mean            215.0265  137.3922  190.3918  138.4937  173.2212  179.1301   92.2528   11.8171  166.0775  195.1331  230.9859  180.0702
  std. dev.       106.7631  110.1699   87.4257  106.1938   75.5653   103.979  107.9322   47.9085  107.8218   90.1576   83.0165  101.0521
  weight sum          2940       894      1438       261       748      1377      1790      6794       594       274       423       759
  precision         0.1626    0.1626    0.1626    0.1626    0.1626    0.1626    0.1626    0.1626    0.1626    0.1626    0.1626    0.1626

4RawPitch
  mean            204.5729  116.3073  186.9416  114.3432  164.8509  172.8881   72.9898    9.4639  152.1597  189.7645  221.8351  166.2729
  std. dev.       112.2304  108.9258   92.1579  102.4081   80.9322  110.0663  101.5246   41.8811   112.921   97.5291   90.5835  110.4658
  weight sum          2940       894      1438       261       748      1377      1790      6794       594       274       423       759
  precision         0.1679    0.1679    0.1679    0.1679    0.1679    0.1679    0.1679    0.1679    0.1679    0.1679    0.1679    0.1679

4SmPitch
  mean            213.0261   128.625  188.8901  131.3637   170.918  177.1958   85.9766    10.227   161.354  194.7762  230.1655  177.2448
  std. dev.       108.3889  112.6617   88.8533  103.6517   77.6434  105.5718  106.0894   43.0626   110.475   90.8856   83.5323  103.3036
  weight sum          2940       894      1438       261       748      1377      1790      6794       594       274       423       759
  precision         0.1647    0.1647    0.1647    0.1647    0.1647    0.1647    0.1647    0.1647    0.1647    0.1647    0.1647    0.1647

4Melogram(st)
  mean             51.7443    35.144    50.757   39.8199   48.7629   46.9889   25.4753    3.6614   43.3262   51.4874   54.7081   46.6828
  std. dev.        16.1385   26.3517   14.7786   23.9008   15.7624   20.0024   27.3689   13.7186   23.0622    13.878      13.2   20.5693
  weight sum          2940       894      1438       261       748      1377      1790      6794       594       274       423       759
  precision         0.0294    0.0294    0.0294    0.0294    0.0294    0.0294    0.0294    0.0294    0.0294    0.0294    0.0294    0.0294

4ZCross
  mean              6.8081    2.9064    4.8831     1.892    3.3285    4.0329    2.7507    0.1408    2.2589    3.6374     3.713    2.9907
  std. dev.         4.5857    3.4356    3.1607    1.9842    3.1155    2.9611    5.0596    0.7915    2.0707    2.2054    2.8728    4.7609
  weight sum          2940       894      1438       261       748      1377      1790      6794       594       274       423       759
  precision         1.2927    1.2927    1.2927    1.2927    1.2927    1.2927    1.2927    1.2927    1.2927    1.2927    1.2927    1.2927

4F1(Hz)
  mean            684.8624  343.2191  467.7497  399.7197  366.3373  488.3137  268.2924   40.0819  383.8168  501.2874  499.4556  437.8799
  std. dev.       260.7635  271.7997  137.6849  273.4014  136.8258  220.1308  291.6443  146.5535  232.2972  170.6693   302.477  199.7748
  weight sum          2940       894      1438       261       748      1377      1790      6794       594       274       423       759
  precision         0.3688    0.3688    0.3688    0.3688    0.3688    0.3688    0.3688    0.3688    0.3688    0.3688    0.3688    0.3688

4F2(Hz)
  mean             1462.31 1149.6364 1804.3312 1203.5318 1998.9223 1157.6298  822.9576   123.524 1349.6905 1443.6267 1072.0404 1480.9848
  std. dev.       430.5852  861.6155  496.1344  754.0967  624.7892  525.4581  861.1325  447.0477  728.3086  393.2262  424.8655  609.8719
  weight sum          2940       894      1438       261       748      1377      1790      6794       594       274       423       759
  precision         0.4504    0.4504    0.4504    0.4504    0.4504    0.4504    0.4504    0.4504    0.4504    0.4504    0.4504    0.4504

4F3(Hz)
  mean           2687.7356 1918.2772 2653.2835 2069.2644 2693.2397 2526.8298  1411.417  212.1309 2268.8241 2791.7189 2703.6172 2551.1384
  std. dev.       764.2898 1413.3864  742.6344 1282.9054  863.6174  995.0347 1463.9451  754.3882 1165.0514  658.6982  758.4179  977.5902
  weight sum          2940       894      1438       261       748      1377      1790      6794       594       274       423       759
  precision         0.6705    0.6705    0.6705    0.6705    0.6705    0.6705    0.6705    0.6705    0.6705    0.6705    0.6705    0.6705

4F4(Hz)
  mean           3116.7672 2186.2274 3189.0151 2471.0333 3209.5559 2910.5036 1625.0449   256.116 2720.5333 3246.4091 3086.4504 2930.4338
  std. dev.       872.2076  1597.389  856.4692 1495.7988  985.3806 1127.9374 1675.2068  908.5444 1363.5495  742.7362  766.0819 1124.8723
  weight sum          2940       894      1438       261       748      1377      1790      6794       594       274       423       759
  precision         0.6851    0.6851    0.6851    0.6851    0.6851    0.6851    0.6851    0.6851    0.6851    0.6851    0.6851    0.6851





=== Stratified cross-validation ===

Correctly Classified Instances        8209               44.8775 %
Incorrectly Classified Instances     10083               55.1225 %
Kappa statistic                          0.329 
K&B Relative Info Score             527704.6879 %
K&B Information Score                15353.0071 bits      0.8393 bits/instance
Class complexity | order 0           53202.6243 bits      2.9085 bits/instance
Class complexity | scheme           483129.9627 bits     26.4121 bits/instance
Complexity improvement     (Sf)    -429927.3383 bits    -23.5036 bits/instance
Mean absolute error                      0.0918
Root mean squared error                  0.292 
Relative absolute error                 68.2472 %
Root relative squared error            112.6026 %
Coverage of cases (0.95 level)          49.672  %
Mean rel. region size (0.95 level)      10.8485 %
Total Number of Instances            18292     


=== Detailed Accuracy By Class ===

                 TP Rate  FP Rate  Precision  Recall   F-Measure  MCC      ROC Area  PRC Area  Class
                 0,354    0,042    0,615      0,354    0,449      0,395    0,845     0,537     A
                 0,020    0,015    0,065      0,020    0,031      0,009    0,671     0,074     LGJKC
                 0,113    0,015    0,388      0,113    0,175      0,176    0,822     0,269     E
                 0,065    0,022    0,042      0,065    0,051      0,035    0,729     0,030     FV
                 0,221    0,023    0,292      0,221    0,251      0,226    0,846     0,231     I
                 0,004    0,002    0,167      0,004    0,008      0,015    0,727     0,155     O
                 0,234    0,051    0,330      0,234    0,274      0,214    0,746     0,276     SNRTY
                 0,895    0,100    0,841      0,895    0,867      0,786    0,930     0,860     0
                 0,005    0,002    0,086      0,005    0,010      0,013    0,709     0,058     BMP
                 0,788    0,311    0,037      0,788    0,071      0,124    0,824     0,059     DZ
                 0,151    0,010    0,274      0,151    0,195      0,190    0,840     0,160     U
                 0,024    0,016    0,059      0,024    0,034      0,012    0,700     0,067     SNRTXY
Weighted Avg.    0,449    0,058    0,514      0,449    0,455      0,409    0,835     0,488     


=== Confusion Matrix ===

    a    b    c    d    e    f    g    h    i    j    k    l   <-- classified as
 1041   98   74   48   61   17  122  109    0 1274   66   30 |    a = A
   45   18   22   35   27    1  128  193    2  383    3   37 |    b = LGJKC
  159   52  162   21   96    4   69   52    6  773   27   17 |    c = E
   16    3    4   17    7    0   27   37    1  142    0    7 |    d = FV
   38   25   75   14  165    0   60   40    1  315    4   11 |    e = I
  125   43   33   45   59    6   76  126    3  795   55   11 |    f = O
   76   13   14  110   31    3  419  475    8  529    6  106 |    g = SNRTY
   16    4    8   63   26    2  198 6080    5  336    5   51 |    h = 0
   39    6    6   19   44    0   59   71    3  334    1   12 |    i = BMP
   24    0    8    6    0    0   10    6    0  216    1    3 |    j = DZ
   51   16    2    4   32    3   27   11    4  209   64    0 |    k = U
   63    1   10   27   17    0   73   28    2  518    2   18 |    l = SNRTXY

=== Percent Confusion Matrix ===
a	b	c	d	e	f	g	h	i	j	k	l	
35.41	3.33	2.52	1.63	2.07	0.58	4.15	3.71	0.0	43.33	2.24	1.02	 a = A
5.03	2.01	2.46	3.91	3.02	0.11	14.32	21.59	0.22	42.84	0.34	4.14	 b = LGJKC
11.06	3.62	11.27	1.46	6.68	0.28	4.8	3.62	0.42	53.76	1.88	1.18	 c = E
6.13	1.15	1.53	6.51	2.68	0.0	10.34	14.18	0.38	54.41	0.0	2.68	 d = FV
5.08	3.34	10.03	1.87	22.06	0.0	8.02	5.35	0.13	42.11	0.53	1.47	 e = I
9.08	3.12	2.4	3.27	4.28	0.44	5.52	9.15	0.22	57.73	3.99	0.8	 f = O
4.25	0.73	0.78	6.15	1.73	0.17	23.41	26.54	0.45	29.55	0.34	5.92	 g = SNRTY
0.24	0.06	0.12	0.93	0.38	0.03	2.91	89.49	0.07	4.95	0.07	0.75	 h = 0
6.57	1.01	1.01	3.2	7.41	0.0	9.93	11.95	0.51	56.23	0.17	2.02	 i = BMP
8.76	0.0	2.92	2.19	0.0	0.0	3.65	2.19	0.0	78.83	0.36	1.09	 j = DZ
12.06	3.78	0.47	0.95	7.57	0.71	6.38	2.6	0.95	49.41	15.13	0.0	 k = U
8.3	0.13	1.32	3.56	2.24	0.0	9.62	3.69	0.26	68.25	0.26	2.37	 l = SNRTXY
