Timestamp:2014-12-07-10:54:14
Inventario:I2
Intervalo:1ms
Ngramas:4
Clasificador:NaiveBayes
Relation Name:  I2-1ms-4gramas
Num Instances:  183401
Num Attributes: 41

     Name                      Type  Nom  Int Real     Missing      Unique  Dist
   1 0Int(dB)                   Num   0%   9%  91%     0 /  0%     2 /  0%   779 
   2 0Pitch(Hz)                 Num   0%  51%  49%     0 /  0%   256 /  0%  4213 
   3 0RawPitch                  Num   0%  55%  45%     0 /  0%   417 /  0%  4119 
   4 0SmPitch                   Num   0%  53%  47%     0 /  0%   263 /  0%  4193 
   5 0Melogram(st)              Num   0%  49%  51%     0 /  0%   133 /  0%  3454 
   6 0ZCross                    Num   0% 100%   0%     0 /  0%     4 /  0%    58 
   7 0F1(Hz)                    Num   0%  52%  48%     0 /  0%  1154 /  1%  4824 
   8 0F2(Hz)                    Num   0%  52%  48%     0 /  0%  2223 /  1%  6697 
   9 0F3(Hz)                    Num   0%  53%  47%     0 /  0%  1930 /  1%  6200 
  10 0F4(Hz)                    Num   0%  52%  48%     0 /  0%  1933 /  1%  6096 
  11 1Int(dB)                   Num   0%   9%  91%     0 /  0%     3 /  0%   780 
  12 1Pitch(Hz)                 Num   0%  51%  49%     0 /  0%   256 /  0%  4213 
  13 1RawPitch                  Num   0%  55%  45%     0 /  0%   417 /  0%  4119 
  14 1SmPitch                   Num   0%  53%  47%     0 /  0%   263 /  0%  4193 
  15 1Melogram(st)              Num   0%  49%  51%     0 /  0%   133 /  0%  3454 
  16 1ZCross                    Num   0% 100%   0%     0 /  0%     4 /  0%    58 
  17 1F1(Hz)                    Num   0%  52%  48%     0 /  0%  1154 /  1%  4824 
  18 1F2(Hz)                    Num   0%  52%  48%     0 /  0%  2223 /  1%  6697 
  19 1F3(Hz)                    Num   0%  53%  47%     0 /  0%  1930 /  1%  6200 
  20 1F4(Hz)                    Num   0%  52%  48%     0 /  0%  1933 /  1%  6096 
  21 2Int(dB)                   Num   0%   9%  91%     0 /  0%     4 /  0%   781 
  22 2Pitch(Hz)                 Num   0%  51%  49%     0 /  0%   256 /  0%  4213 
  23 2RawPitch                  Num   0%  55%  45%     0 /  0%   417 /  0%  4119 
  24 2SmPitch                   Num   0%  53%  47%     0 /  0%   263 /  0%  4193 
  25 2Melogram(st)              Num   0%  49%  51%     0 /  0%   133 /  0%  3454 
  26 2ZCross                    Num   0% 100%   0%     0 /  0%     4 /  0%    58 
  27 2F1(Hz)                    Num   0%  52%  48%     0 /  0%  1154 /  1%  4824 
  28 2F2(Hz)                    Num   0%  52%  48%     0 /  0%  2223 /  1%  6697 
  29 2F3(Hz)                    Num   0%  53%  47%     0 /  0%  1930 /  1%  6200 
  30 2F4(Hz)                    Num   0%  52%  48%     0 /  0%  1933 /  1%  6096 
  31 3Int(dB)                   Num   0%   9%  91%     0 /  0%     3 /  0%   781 
  32 3Pitch(Hz)                 Num   0%  51%  49%     0 /  0%   256 /  0%  4213 
  33 3RawPitch                  Num   0%  55%  45%     0 /  0%   417 /  0%  4119 
  34 3SmPitch                   Num   0%  53%  47%     0 /  0%   263 /  0%  4193 
  35 3Melogram(st)              Num   0%  49%  51%     0 /  0%   133 /  0%  3454 
  36 3ZCross                    Num   0% 100%   0%     0 /  0%     4 /  0%    58 
  37 3F1(Hz)                    Num   0%  52%  48%     0 /  0%  1154 /  1%  4824 
  38 3F2(Hz)                    Num   0%  52%  48%     0 /  0%  2223 /  1%  6697 
  39 3F3(Hz)                    Num   0%  53%  47%     0 /  0%  1930 /  1%  6200 
  40 3F4(Hz)                    Num   0%  52%  48%     0 /  0%  1933 /  1%  6096 
  41 class                      Nom 100%   0%   0%     0 /  0%     0 /  0%    12 


Naive Bayes Classifier

                    Class
Attribute               A     LGJKC         E        FV         I         O     SNRTY         0       BMP        DZ         U    SNRTXY
                   (0.16)    (0.05)    (0.07)    (0.01)    (0.04)    (0.07)    (0.09)    (0.39)    (0.03)    (0.01)    (0.02)    (0.04)
========================================================================================================================================
0Int(dB)
  mean             -4.2013  -15.4272    -5.156  -15.0484   -8.7128   -8.1103   -19.816  -48.0284  -12.5205   -8.2838   -5.2051  -10.4817
  std. dev.         9.5927   11.1347    8.0597    8.8828    8.3473   12.1522    9.4061   16.4115   10.7402    6.7464    7.7835    8.3254
  weight sum         28557      8827     13740      2561      7083     13234     17273     72114      5814      2682      4137      7379
  precision          0.104     0.104     0.104     0.104     0.104     0.104     0.104     0.104     0.104     0.104     0.104     0.104

0Pitch(Hz)
  mean            215.3234  129.0865  189.7736  130.5895  172.5882   178.609   80.4601   17.3157  158.7298  197.3296   228.829  175.3814
  std. dev.       108.5781  111.8651   88.2344  107.4498   76.9615  105.4051  104.9992   57.2256  111.7609   89.0154   85.2298  103.3038
  weight sum         28557      8827     13740      2561      7083     13234     17273     72114      5814      2682      4137      7379
  precision         0.1184    0.1184    0.1184    0.1184    0.1184    0.1184    0.1184    0.1184    0.1184    0.1184    0.1184    0.1184

0RawPitch
  mean            204.8522  106.2751  185.2743  105.4364  164.8645  172.7411   61.7311    14.197  146.8224  190.7191  220.0766  161.4893
  std. dev.       115.4214  110.1717   95.9379   103.892   84.3754  113.3437   98.6787   51.8738  117.0312   99.1513   93.8332   113.172
  weight sum         28557      8827     13740      2561      7083     13234     17273     72114      5814      2682      4137      7379
  precision         0.1214    0.1214    0.1214    0.1214    0.1214    0.1214    0.1214    0.1214    0.1214    0.1214    0.1214    0.1214

0SmPitch
  mean            213.3152  119.4762  188.2045  120.3297  170.1487  176.3386   73.7146   15.6943  154.2915  196.6643  228.2692    172.61
  std. dev.       110.1882  112.8417   89.4937  104.7626   79.4942  107.7071  102.8015   53.5408  114.2373   90.1903    85.559  105.1598
  weight sum         28557      8827     13740      2561      7083     13234     17273     72114      5814      2682      4137      7379
  precision          0.119     0.119     0.119     0.119     0.119     0.119     0.119     0.119     0.119     0.119     0.119     0.119

0Melogram(st)
  mean             51.2057    32.351   50.2797    36.619   48.3201   46.5103   21.6653     5.085   41.1472   51.6924   53.9044    45.863
  std. dev.        17.1608   26.9782   15.6601   25.1611   16.4677    20.538   26.7855   15.8399   24.5066   13.9316   14.5585   21.1758
  weight sum         28557      8827     13740      2561      7083     13234     17273     72114      5814      2682      4137      7379
  precision         0.0239    0.0239    0.0239    0.0239    0.0239    0.0239    0.0239    0.0239    0.0239    0.0239    0.0239    0.0239

0ZCross
  mean              7.3216    3.1196    5.2602    2.0498    3.7242    4.3728    2.9147    0.2697    2.4709    3.9408    4.0672    3.2398
  std. dev.         4.7305    3.8608    3.3214     2.208    3.2959    3.0812    5.4499    1.1656    2.2406     2.323    2.9913    5.0616
  weight sum         28557      8827     13740      2561      7083     13234     17273     72114      5814      2682      4137      7379
  precision         1.0175    1.0175    1.0175    1.0175    1.0175    1.0175    1.0175    1.0175    1.0175    1.0175    1.0175    1.0175

0F1(Hz)
  mean            679.0141  325.7932  462.5388  383.0549  360.2928  482.8394  244.0198   55.8179  370.2911   504.234  496.8631  430.0219
  std. dev.       273.4573  274.7187  148.1545  278.9196  146.3199  227.5019  289.3472  169.4373  238.1729  171.1321  309.9663  204.0574
  weight sum         28557      8827     13740      2561      7083     13234     17273     72114      5814      2682      4137      7379
  precision         0.3611    0.3611    0.3611    0.3611    0.3611    0.3611    0.3611    0.3611    0.3611    0.3611    0.3611    0.3611

0F2(Hz)
  mean           1438.9064 1101.9775 1779.4393 1164.2707 1963.5585 1137.9104  746.6889  174.7293 1302.6268 1448.1183 1047.9548 1456.5206
  std. dev.       460.8432  878.9155  536.6813  779.7988  681.2366  538.8449  854.6638  524.8427  753.7966  391.2488   431.069  625.7172
  weight sum         28557      8827     13740      2561      7083     13234     17273     72114      5814      2682      4137      7379
  precision         0.4448    0.4448    0.4448    0.4448    0.4448    0.4448    0.4448    0.4448    0.4448    0.4448    0.4448    0.4448

0F3(Hz)
  mean           2647.8865 1831.3501 2611.7843 1985.3528 2643.1271 2492.6874 1280.5154  298.0229 2193.0228 2798.6728 2662.0438 2513.6734
  std. dev.       823.8379 1440.3856  798.7858 1318.4833  938.7899 1031.3021 1454.7215  879.9877 1213.2906  665.1255  804.1633 1014.4448
  weight sum         28557      8827     13740      2561      7083     13234     17273     72114      5814      2682      4137      7379
  precision         0.6646    0.6646    0.6646    0.6646    0.6646    0.6646    0.6646    0.6646    0.6646    0.6646    0.6646    0.6646

0F4(Hz)
  mean           3071.9596  2086.591 3147.1235 2373.2424 3143.0541 2868.4799 1469.2299  358.0734 2632.6489 3241.8211 3051.8664  2887.174
  std. dev.       942.0101 1628.1151  928.5918 1541.2239 1074.2428 1169.7236 1658.2582  1054.913 1425.2945  746.6094  828.8457 1166.7083
  weight sum         28557      8827     13740      2561      7083     13234     17273     72114      5814      2682      4137      7379
  precision         0.6804    0.6804    0.6804    0.6804    0.6804    0.6804    0.6804    0.6804    0.6804    0.6804    0.6804    0.6804

1Int(dB)
  mean             -4.2125  -15.2817   -5.1527  -15.0454   -8.6835   -8.1232  -19.7743  -48.0653  -12.4222   -8.2397   -5.1335  -10.5362
  std. dev.         9.5923   11.0228    8.0415    8.8688     8.344   12.1734    9.4019   16.3663   10.6829    6.7613    7.6759    8.3375
  weight sum         28557      8827     13740      2561      7083     13234     17273     72114      5814      2682      4137      7379
  precision         0.1039    0.1039    0.1039    0.1039    0.1039    0.1039    0.1039    0.1039    0.1039    0.1039    0.1039    0.1039

1Pitch(Hz)
  mean            215.2862  130.2057  190.0442  130.2645  172.8092  178.3926   80.5427    17.139  159.0019  197.3124  229.1151  175.1361
  std. dev.       108.6186  111.8446   88.0362  107.3679   76.7258  105.3465  105.1349   56.9508  111.4961   89.0479   84.6861  103.4439
  weight sum         28557      8827     13740      2561      7083     13234     17273     72114      5814      2682      4137      7379
  precision         0.1184    0.1184    0.1184    0.1184    0.1184    0.1184    0.1184    0.1184    0.1184    0.1184    0.1184    0.1184

1RawPitch
  mean            204.8389  107.1298  185.3904  105.2473  165.1915  172.5714   61.8293   14.0526  147.2724  190.7376  220.3812  161.0075
  std. dev.       115.4661   110.328   95.8388  103.6816   84.2064  113.2081   98.8094   51.6501  116.8386    99.018   93.3578  113.3286
  weight sum         28557      8827     13740      2561      7083     13234     17273     72114      5814      2682      4137      7379
  precision         0.1214    0.1214    0.1214    0.1214    0.1214    0.1214    0.1214    0.1214    0.1214    0.1214    0.1214    0.1214

1SmPitch
  mean            213.3047  120.4751  188.5286  120.0376  170.4162  176.1475   73.7749   15.5185  154.4932  196.6822  228.5834   172.275
  std. dev.       110.1891   112.932   89.2681  104.6493   79.2706  107.6301  102.9106   53.2523  114.0328    90.157   85.0153  105.3435
  weight sum         28557      8827     13740      2561      7083     13234     17273     72114      5814      2682      4137      7379
  precision          0.119     0.119     0.119     0.119     0.119     0.119     0.119     0.119     0.119     0.119     0.119     0.119

1Melogram(st)
  mean             51.2207   32.5429   50.3338   36.5638   48.3994   46.4929   21.6531    5.0369   41.2442   51.7211   54.0407   45.7847
  std. dev.        17.1322   26.9619    15.575    25.185   16.3496   20.5401   26.7947   15.7744   24.4436   13.8647   14.2925   21.2462
  weight sum         28557      8827     13740      2561      7083     13234     17273     72114      5814      2682      4137      7379
  precision         0.0239    0.0239    0.0239    0.0239    0.0239    0.0239    0.0239    0.0239    0.0239    0.0239    0.0239    0.0239

1ZCross
  mean              7.3168    3.1362    5.2522    2.0494    3.7306    4.3707     2.927    0.2663    2.4891    3.9674    4.0724    3.2287
  std. dev.          4.734    3.8509    3.3232    2.2106    3.2938    3.0828    5.4507     1.162    2.2391     2.323    2.9865    5.0675
  weight sum         28557      8827     13740      2561      7083     13234     17273     72114      5814      2682      4137      7379
  precision         1.0175    1.0175    1.0175    1.0175    1.0175    1.0175    1.0175    1.0175    1.0175    1.0175    1.0175    1.0175

1F1(Hz)
  mean              680.68  326.2827  463.9738   380.668  361.4648  484.0118  241.6386   55.2559  370.2872  504.5848  498.5025  427.9406
  std. dev.       272.1801  274.3902  146.1336  278.7586  144.5804  226.7963  288.5204  168.6112  237.6445  171.1324  308.2875  203.9722
  weight sum         28557      8827     13740      2561      7083     13234     17273     72114      5814      2682      4137      7379
  precision         0.3611    0.3611    0.3611    0.3611    0.3611    0.3611    0.3611    0.3611    0.3611    0.3611    0.3611    0.3611

1F2(Hz)
  mean           1440.7973 1103.0941 1786.3109 1161.6312 1973.7484 1138.3786  740.3879  173.0699 1302.7636 1448.0724 1052.4199 1453.7384
  std. dev.       457.3774  877.4428  528.1199  781.5797  671.6296  536.2083  853.6484  522.6817  752.0998   392.072  425.1574  627.3309
  weight sum         28557      8827     13740      2561      7083     13234     17273     72114      5814      2682      4137      7379
  precision         0.4448    0.4448    0.4448    0.4448    0.4448    0.4448    0.4448    0.4448    0.4448    0.4448    0.4448    0.4448

1F3(Hz)
  mean            2651.859 1835.3062 2620.1056 1979.1395 2654.8736 2496.9201 1269.3092  295.0903 2193.5767 2798.3149 2674.1003 2509.1896
  std. dev.        818.296 1439.5195  787.0306 1320.5796  926.0878 1027.3116 1452.9179  876.1347 1210.8731  667.4265  785.3599 1018.0469
  weight sum         28557      8827     13740      2561      7083     13234     17273     72114      5814      2682      4137      7379
  precision         0.6646    0.6646    0.6646    0.6646    0.6646    0.6646    0.6646    0.6646    0.6646    0.6646    0.6646    0.6646

1F4(Hz)
  mean           3076.1686 2091.6564  3156.326 2367.2839 3155.7849 2872.8522 1456.8854  354.6277 2635.3487 3240.8949 3065.6415 2882.7536
  std. dev.       935.4026 1627.3765  913.7122 1544.4726 1058.3659 1164.6509  1656.947 1050.4946 1423.2744  749.1185  804.1571 1171.4868
  weight sum         28557      8827     13740      2561      7083     13234     17273     72114      5814      2682      4137      7379
  precision         0.6804    0.6804    0.6804    0.6804    0.6804    0.6804    0.6804    0.6804    0.6804    0.6804    0.6804    0.6804

2Int(dB)
  mean             -4.2297  -15.1279   -5.1597   -15.033   -8.6607   -8.1449   -19.719  -48.0905  -12.3149   -8.1898   -5.0726  -10.5889
  std. dev.         9.5985   10.9181    8.0314    8.8639    8.3453   12.1979    9.4101   16.3156   10.6245     6.778    7.5754    8.3522
  weight sum         28557      8827     13740      2561      7083     13234     17273     72114      5814      2682      4137      7379
  precision         0.1037    0.1037    0.1037    0.1037    0.1037    0.1037    0.1037    0.1037    0.1037    0.1037    0.1037    0.1037

2Pitch(Hz)
  mean            215.2062  131.3222   190.258  129.9494  173.0302  178.1206    80.726   16.9612  159.4679  197.2987  229.3502  174.9119
  std. dev.       108.6869  111.8114   87.8928  107.2999   76.4927   105.326  105.3113   56.6737  111.1515   89.0771   84.2123  103.5626
  weight sum         28557      8827     13740      2561      7083     13234     17273     72114      5814      2682      4137      7379
  precision         0.1184    0.1184    0.1184    0.1184    0.1184    0.1184    0.1184    0.1184    0.1184    0.1184    0.1184    0.1184

2RawPitch
  mean            204.7785  108.1262  185.5139  104.9895  165.4701   172.363   61.9657   13.9204  147.7852  190.6234  220.5579  160.5262
  std. dev.       115.5309  110.5989   95.7233   103.475   84.0796  113.1234   98.9134   51.4525  116.6168   98.9787   92.9298   113.497
  weight sum         28557      8827     13740      2561      7083     13234     17273     72114      5814      2682      4137      7379
  precision         0.1214    0.1214    0.1214    0.1214    0.1214    0.1214    0.1214    0.1214    0.1214    0.1214    0.1214    0.1214

2SmPitch
  mean             213.264   121.491  188.8112  119.7549  170.6319  175.8934    73.927   15.3491  154.8892  196.7053  228.8462  171.8701
  std. dev.       110.2131  113.0073   89.0812  104.5511   79.0959   107.593  103.0654   52.9681  113.7583   90.1193   84.5411  105.5581
  weight sum         28557      8827     13740      2561      7083     13234     17273     72114      5814      2682      4137      7379
  precision          0.119     0.119     0.119     0.119     0.119     0.119     0.119     0.119     0.119     0.119     0.119     0.119

2Melogram(st)
  mean             51.2183   32.7653    50.379   36.5095   48.4716   46.4586   21.6786     4.986   41.3724   51.7505     54.16   45.7142
  std. dev.        17.1271   26.9386   15.5007   25.2094   16.2405   20.5573    26.812   15.7047   24.3658   13.7974   14.0434     21.31
  weight sum         28557      8827     13740      2561      7083     13234     17273     72114      5814      2682      4137      7379
  precision         0.0239    0.0239    0.0239    0.0239    0.0239    0.0239    0.0239    0.0239    0.0239    0.0239    0.0239    0.0239

2ZCross
  mean              7.3101    3.1551    5.2408    2.0498    3.7393    4.3663    2.9398    0.2635     2.508    3.9977    4.0771    3.2216
  std. dev.         4.7386    3.8413    3.3253    2.2131    3.2999     3.087    5.4505    1.1594     2.237    2.3251    2.9819    5.0733
  weight sum         28557      8827     13740      2561      7083     13234     17273     72114      5814      2682      4137      7379
  precision         1.0175    1.0175    1.0175    1.0175    1.0175    1.0175    1.0175    1.0175    1.0175    1.0175    1.0175    1.0175

2F1(Hz)
  mean            682.1503  326.9586  465.3474  378.3582  362.5437  485.0896  239.6286    54.696  370.4332  505.0486  499.8715  425.8434
  std. dev.        271.133  274.0281  144.1266  278.5939  142.9356  226.1543  287.7014  167.7982  237.1009  171.1736  306.7882  203.9356
  weight sum         28557      8827     13740      2561      7083     13234     17273     72114      5814      2682      4137      7379
  precision         0.3611    0.3611    0.3611    0.3611    0.3611    0.3611    0.3611    0.3611    0.3611    0.3611    0.3611    0.3611

2F2(Hz)
  mean           1442.2136  1104.763 1793.0334 1159.1061 1983.2786  1138.672  735.4168  171.3484 1303.2526 1448.0931 1056.4734 1450.7411
  std. dev.       454.4964  875.8232  519.5885  783.4471  662.5587  533.7441  852.8372   520.371  750.2659  392.9271  419.7581  629.1582
  weight sum         28557      8827     13740      2561      7083     13234     17273     72114      5814      2682      4137      7379
  precision         0.4448    0.4448    0.4448    0.4448    0.4448    0.4448    0.4448    0.4448    0.4448    0.4448    0.4448    0.4448

2F3(Hz)
  mean           2655.0761 1840.1201 2628.2257 1972.9814 2665.7831 2500.7441 1260.1713  292.1142 2194.6698 2798.0476 2684.8467  2504.354
  std. dev.       813.9125 1438.2967  775.3306  1322.667  914.1503 1023.7463 1451.1961  872.1883 1208.1856  669.7534  768.1272 1022.0293
  weight sum         28557      8827     13740      2561      7083     13234     17273     72114      5814      2682      4137      7379
  precision         0.6646    0.6646    0.6646    0.6646    0.6646    0.6646    0.6646    0.6646    0.6646    0.6646    0.6646    0.6646

2F4(Hz)
  mean           3079.4149  2097.926  3165.364 2361.3224 3167.5238 2876.6923 1447.1659  351.1341 2638.4197 3239.8651 3077.7233 2877.8508
  std. dev.       930.1153  1626.376  898.8907 1547.6942 1043.4405 1160.0433 1656.0288 1045.9839 1420.8135  751.6295  781.3188 1176.6795
  weight sum         28557      8827     13740      2561      7083     13234     17273     72114      5814      2682      4137      7379
  precision         0.6804    0.6804    0.6804    0.6804    0.6804    0.6804    0.6804    0.6804    0.6804    0.6804    0.6804    0.6804

3Int(dB)
  mean              -4.254  -14.9678   -5.1788  -15.0107    -8.647   -8.1757  -19.6536  -48.1181  -12.2049   -8.1344   -5.0188  -10.6411
  std. dev.         9.6114   10.8189    8.0296     8.868    8.3528   12.2243    9.4301   16.2754   10.5691    6.7971    7.4803    8.3704
  weight sum         28557      8827     13740      2561      7083     13234     17273     72114      5814      2682      4137      7379
  precision         0.1037    0.1037    0.1037    0.1037    0.1037    0.1037    0.1037    0.1037    0.1037    0.1037    0.1037    0.1037

3Pitch(Hz)
  mean            215.1081  132.4771  190.4015  129.6994  173.2101  177.8211   80.9904   16.7882  159.9332  197.2811  229.5826  174.6755
  std. dev.       108.7696  111.7771   87.7758  107.2959   76.2773  105.3227  105.5148   56.4058  110.8047   89.0991   83.7347  103.6934
  weight sum         28557      8827     13740      2561      7083     13234     17273     72114      5814      2682      4137      7379
  precision         0.1184    0.1184    0.1184    0.1184    0.1184    0.1184    0.1184    0.1184    0.1184    0.1184    0.1184    0.1184

3RawPitch
  mean            204.7122   109.152  185.6605    104.69  165.7379  172.1393   62.1577   13.7659  148.2899  190.4432  220.7885  160.1302
  std. dev.       115.5921   110.843   95.6276  103.2429   83.9735  113.0491   99.0319   51.2118  116.3341   98.9727   92.5273  113.6492
  weight sum         28557      8827     13740      2561      7083     13234     17273     72114      5814      2682      4137      7379
  precision         0.1214    0.1214    0.1214    0.1214    0.1214    0.1214    0.1214    0.1214    0.1214    0.1214    0.1214    0.1214

3SmPitch
  mean            213.2106  122.5657  189.0092  119.5928  170.7795  175.6214   74.1645   15.1797  155.3207  196.7284  229.0387  171.4678
  std. dev.       110.2529  113.0809   88.9353  104.4955    78.963  107.5646  103.2478   52.6867  113.4664   90.0706   84.1352  105.7741
  weight sum         28557      8827     13740      2561      7083     13234     17273     72114      5814      2682      4137      7379
  precision          0.119     0.119     0.119     0.119     0.119     0.119     0.119     0.119     0.119     0.119     0.119     0.119

3Melogram(st)
  mean             51.2091   33.0011   50.4242   36.4608   48.5268   46.3993     21.73    4.9364    41.496   51.7797   54.2789   45.6436
  std. dev.        17.1327   26.9118   15.4261   25.2383   16.1496   20.5969   26.8358    15.636   24.2847   13.7295   13.7888   21.3732
  weight sum         28557      8827     13740      2561      7083     13234     17273     72114      5814      2682      4137      7379
  precision         0.0239    0.0239    0.0239    0.0239    0.0239    0.0239    0.0239    0.0239    0.0239    0.0239    0.0239    0.0239

3ZCross
  mean              7.3004    3.1718    5.2275    2.0522    3.7468    4.3624    2.9555    0.2613    2.5306    4.0262    4.0827    3.2165
  std. dev.         4.7448    3.8289     3.329    2.2158    3.3104    3.0942    5.4506     1.158    2.2366    2.3277    2.9766    5.0775
  weight sum         28557      8827     13740      2561      7083     13234     17273     72114      5814      2682      4137      7379
  precision         1.0175    1.0175    1.0175    1.0175    1.0175    1.0175    1.0175    1.0175    1.0175    1.0175    1.0175    1.0175

3F1(Hz)
  mean            683.5492   327.868   466.604  376.1761  363.6076   485.985   237.758    54.146  370.5749  505.4969  501.0702  423.9395
  std. dev.       270.1486  273.5809  142.2478  278.4193  141.3453  225.6523  286.8682   167.002   236.559  171.2455  305.5336  203.7829
  weight sum         28557      8827     13740      2561      7083     13234     17273     72114      5814      2682      4137      7379
  precision         0.3611    0.3611    0.3611    0.3611    0.3611    0.3611    0.3611    0.3611    0.3611    0.3611    0.3611    0.3611

3F2(Hz)
  mean           1443.5164 1107.0558 1799.2434 1156.6522 1992.3968  1138.609  730.9378  169.6379 1303.9361  1448.146 1060.1575 1448.1831
  std. dev.       451.7609  873.9897  511.5475  785.3266  653.6523   531.629  852.0875  518.0423  748.5317  393.8005  414.9703  630.5403
  weight sum         28557      8827     13740      2561      7083     13234     17273     72114      5814      2682      4137      7379
  precision         0.4448    0.4448    0.4448    0.4448    0.4448    0.4448    0.4448    0.4448    0.4448    0.4448    0.4448    0.4448

3F3(Hz)
  mean           2658.1212 1846.1724 2635.6414 1966.8613 2676.2267 2503.6829 1251.9866  289.1672 2195.7732 2797.7777 2694.2989 2500.2386
  std. dev.       809.8058 1436.6578   764.297 1324.7402   902.456 1021.0061 1449.7111   868.226 1205.5074  672.0457   752.613 1025.1734
  weight sum         28557      8827     13740      2561      7083     13234     17273     72114      5814      2682      4137      7379
  precision         0.6646    0.6646    0.6646    0.6646    0.6646    0.6646    0.6646    0.6646    0.6646    0.6646    0.6646    0.6646

3F4(Hz)
  mean           3082.4058 2105.6195 3173.7603 2355.3511 3178.8998 2879.5448 1438.3759  347.6794 2641.4866 3238.8126 3088.1777 2873.9184
  std. dev.       925.1344 1624.8954  884.9534 1550.8738 1028.8621 1156.4562 1655.1492 1041.4841 1418.3454    754.11  760.6201 1180.9413
  weight sum         28557      8827     13740      2561      7083     13234     17273     72114      5814      2682      4137      7379
  precision         0.6804    0.6804    0.6804    0.6804    0.6804    0.6804    0.6804    0.6804    0.6804    0.6804    0.6804    0.6804





=== Stratified cross-validation ===

Correctly Classified Instances       94190               51.3574 %
Incorrectly Classified Instances     89211               48.6426 %
Kappa statistic                          0.3874
K&B Relative Info Score            6646155.7246 %
K&B Information Score               189883.8306 bits      1.0353 bits/instance
Class complexity | order 0          523967.6938 bits      2.857  bits/instance
Class complexity | scheme          4249671.8812 bits     23.1715 bits/instance
Complexity improvement     (Sf)    -3725704.1874 bits    -20.3145 bits/instance
Mean absolute error                      0.0818
Root mean squared error                  0.2644
Relative absolute error                 61.8354 %
Root relative squared error            102.7731 %
Coverage of cases (0.95 level)          57.9495 %
Mean rel. region size (0.95 level)      12.9779 %
Total Number of Instances           183401     


=== Detailed Accuracy By Class ===

                 TP Rate  FP Rate  Precision  Recall   F-Measure  MCC      ROC Area  PRC Area  Class
                 0,439    0,036    0,693      0,439    0,538      0,490    0,885     0,618     A
                 0,023    0,007    0,135      0,023    0,039      0,037    0,692     0,085     LGJKC
                 0,564    0,076    0,376      0,564    0,451      0,407    0,869     0,409     E
                 0,070    0,029    0,033      0,070    0,045      0,029    0,730     0,029     FV
                 0,407    0,041    0,288      0,407    0,337      0,311    0,864     0,270     I
                 0,004    0,003    0,103      0,004    0,007      0,006    0,779     0,181     O
                 0,163    0,023    0,426      0,163    0,235      0,219    0,805     0,308     SNRTY
                 0,891    0,143    0,801      0,891    0,844      0,736    0,940     0,912     0
                 0,006    0,004    0,053      0,006    0,011      0,007    0,724     0,057     BMP
                 0,574    0,172    0,047      0,574    0,087      0,126    0,814     0,049     DZ
                 0,447    0,025    0,294      0,447    0,355      0,345    0,874     0,357     U
                 0,012    0,004    0,099      0,012    0,021      0,021    0,732     0,074     SNRTXY
Weighted Avg.    0,514    0,076    0,530      0,514    0,498      0,442    0,865     0,556     


=== Confusion Matrix ===

     a     b     c     d     e     f     g     h     i     j     k     l   <-- classified as
 12536   252  3644   730   595   139   430  1523    72  7404  1179    53 |     a = A
   385   202   946   359   805    96   856  2359    76  2312   290   141 |     b = LGJKC
  1173   177  7751   325   961    17   223   538    88  2307   135    45 |     c = E
   163    28   232   180   277     1   137   647     5   860    15    16 |     d = FV
   312   143  2626   219  2884     0   187   380    43   280     2     7 |     e = I
  1315   153  2265   587   156    51   249  1446    54  5190  1695    73 |     f = O
   537   287   706  1128   976    70  2807  7184   153  2954   210   261 |     g = SNRTY
   203   119   874   997  1203    64   896 64265    98  3005   246   144 |     h = 0
   353    58   530   267   965    37   219  1076    36  1901   345    27 |     i = BMP
   249     0   352    78   136     0    37   101    15  1540   152    22 |     j = DZ
   355    70   262   106   145    18    86    68    27  1149  1851     0 |     k = U
   502    10   437   432   923     3   469   619    12  3719   166    87 |     l = SNRTXY

=== Percent Confusion Matrix ===
a	b	c	d	e	f	g	h	i	j	k	l	
43.9	0.88	12.76	2.56	2.08	0.49	1.51	5.33	0.25	25.93	4.13	0.19	 a = A
4.36	2.29	10.72	4.07	9.12	1.09	9.7	26.72	0.86	26.19	3.29	1.6	 b = LGJKC
8.54	1.29	56.41	2.37	6.99	0.12	1.62	3.92	0.64	16.79	0.98	0.33	 c = E
6.36	1.09	9.06	7.03	10.82	0.04	5.35	25.26	0.2	33.58	0.59	0.62	 d = FV
4.4	2.02	37.07	3.09	40.72	0.0	2.64	5.36	0.61	3.95	0.03	0.1	 e = I
9.94	1.16	17.12	4.44	1.18	0.39	1.88	10.93	0.41	39.22	12.81	0.55	 f = O
3.11	1.66	4.09	6.53	5.65	0.41	16.25	41.59	0.89	17.1	1.22	1.51	 g = SNRTY
0.28	0.17	1.21	1.38	1.67	0.09	1.24	89.12	0.14	4.17	0.34	0.2	 h = 0
6.07	1.0	9.12	4.59	16.6	0.64	3.77	18.51	0.62	32.7	5.93	0.46	 i = BMP
9.28	0.0	13.12	2.91	5.07	0.0	1.38	3.77	0.56	57.42	5.67	0.82	 j = DZ
8.58	1.69	6.33	2.56	3.5	0.44	2.08	1.64	0.65	27.77	44.74	0.0	 k = U
6.8	0.14	5.92	5.85	12.51	0.04	6.36	8.39	0.16	50.4	2.25	1.18	 l = SNRTXY
