Timestamp:2014-12-07-10:55:14
Inventario:I2
Intervalo:1ms
Ngramas:5
Clasificador:NaiveBayes
Relation Name:  I2-1ms-5gramas
Num Instances:  183400
Num Attributes: 51

     Name                      Type  Nom  Int Real     Missing      Unique  Dist
   1 0Int(dB)                   Num   0%   9%  91%     0 /  0%     2 /  0%   779 
   2 0Pitch(Hz)                 Num   0%  51%  49%     0 /  0%   256 /  0%  4213 
   3 0RawPitch                  Num   0%  55%  45%     0 /  0%   417 /  0%  4119 
   4 0SmPitch                   Num   0%  53%  47%     0 /  0%   263 /  0%  4193 
   5 0Melogram(st)              Num   0%  49%  51%     0 /  0%   133 /  0%  3454 
   6 0ZCross                    Num   0% 100%   0%     0 /  0%     4 /  0%    58 
   7 0F1(Hz)                    Num   0%  52%  48%     0 /  0%  1154 /  1%  4824 
   8 0F2(Hz)                    Num   0%  52%  48%     0 /  0%  2223 /  1%  6697 
   9 0F3(Hz)                    Num   0%  53%  47%     0 /  0%  1930 /  1%  6200 
  10 0F4(Hz)                    Num   0%  52%  48%     0 /  0%  1933 /  1%  6096 
  11 1Int(dB)                   Num   0%   9%  91%     0 /  0%     2 /  0%   779 
  12 1Pitch(Hz)                 Num   0%  51%  49%     0 /  0%   256 /  0%  4213 
  13 1RawPitch                  Num   0%  55%  45%     0 /  0%   417 /  0%  4119 
  14 1SmPitch                   Num   0%  53%  47%     0 /  0%   263 /  0%  4193 
  15 1Melogram(st)              Num   0%  49%  51%     0 /  0%   133 /  0%  3454 
  16 1ZCross                    Num   0% 100%   0%     0 /  0%     4 /  0%    58 
  17 1F1(Hz)                    Num   0%  52%  48%     0 /  0%  1154 /  1%  4824 
  18 1F2(Hz)                    Num   0%  52%  48%     0 /  0%  2223 /  1%  6697 
  19 1F3(Hz)                    Num   0%  53%  47%     0 /  0%  1930 /  1%  6200 
  20 1F4(Hz)                    Num   0%  52%  48%     0 /  0%  1933 /  1%  6096 
  21 2Int(dB)                   Num   0%   9%  91%     0 /  0%     3 /  0%   780 
  22 2Pitch(Hz)                 Num   0%  51%  49%     0 /  0%   256 /  0%  4213 
  23 2RawPitch                  Num   0%  55%  45%     0 /  0%   417 /  0%  4119 
  24 2SmPitch                   Num   0%  53%  47%     0 /  0%   263 /  0%  4193 
  25 2Melogram(st)              Num   0%  49%  51%     0 /  0%   133 /  0%  3454 
  26 2ZCross                    Num   0% 100%   0%     0 /  0%     4 /  0%    58 
  27 2F1(Hz)                    Num   0%  52%  48%     0 /  0%  1154 /  1%  4824 
  28 2F2(Hz)                    Num   0%  52%  48%     0 /  0%  2223 /  1%  6697 
  29 2F3(Hz)                    Num   0%  53%  47%     0 /  0%  1930 /  1%  6200 
  30 2F4(Hz)                    Num   0%  52%  48%     0 /  0%  1933 /  1%  6096 
  31 3Int(dB)                   Num   0%   9%  91%     0 /  0%     4 /  0%   781 
  32 3Pitch(Hz)                 Num   0%  51%  49%     0 /  0%   256 /  0%  4213 
  33 3RawPitch                  Num   0%  55%  45%     0 /  0%   417 /  0%  4119 
  34 3SmPitch                   Num   0%  53%  47%     0 /  0%   263 /  0%  4193 
  35 3Melogram(st)              Num   0%  49%  51%     0 /  0%   133 /  0%  3454 
  36 3ZCross                    Num   0% 100%   0%     0 /  0%     4 /  0%    58 
  37 3F1(Hz)                    Num   0%  52%  48%     0 /  0%  1154 /  1%  4824 
  38 3F2(Hz)                    Num   0%  52%  48%     0 /  0%  2223 /  1%  6697 
  39 3F3(Hz)                    Num   0%  53%  47%     0 /  0%  1930 /  1%  6200 
  40 3F4(Hz)                    Num   0%  52%  48%     0 /  0%  1933 /  1%  6096 
  41 4Int(dB)                   Num   0%   9%  91%     0 /  0%     3 /  0%   781 
  42 4Pitch(Hz)                 Num   0%  51%  49%     0 /  0%   256 /  0%  4213 
  43 4RawPitch                  Num   0%  55%  45%     0 /  0%   417 /  0%  4119 
  44 4SmPitch                   Num   0%  53%  47%     0 /  0%   263 /  0%  4193 
  45 4Melogram(st)              Num   0%  49%  51%     0 /  0%   133 /  0%  3454 
  46 4ZCross                    Num   0% 100%   0%     0 /  0%     4 /  0%    58 
  47 4F1(Hz)                    Num   0%  52%  48%     0 /  0%  1154 /  1%  4824 
  48 4F2(Hz)                    Num   0%  52%  48%     0 /  0%  2223 /  1%  6697 
  49 4F3(Hz)                    Num   0%  53%  47%     0 /  0%  1930 /  1%  6200 
  50 4F4(Hz)                    Num   0%  52%  48%     0 /  0%  1933 /  1%  6096 
  51 class                      Nom 100%   0%   0%     0 /  0%     0 /  0%    12 


Naive Bayes Classifier

                    Class
Attribute               A     LGJKC         E        FV         I         O     SNRTY         0       BMP        DZ         U    SNRTXY
                   (0.16)    (0.05)    (0.07)    (0.01)    (0.04)    (0.07)    (0.09)    (0.39)    (0.03)    (0.01)    (0.02)    (0.04)
========================================================================================================================================
0Int(dB)
  mean             -4.1964  -15.5628   -5.1696  -15.0461   -8.7511   -8.1054  -19.8491  -47.9923   -12.615     -8.32   -5.2821  -10.4278
  std. dev.         9.5998   11.2524    8.0853    8.9042    8.3577   12.1344    9.4226   16.4641   10.8018    6.7333    7.8999    8.3182
  weight sum         28557      8827     13740      2561      7083     13234     17273     72113      5814      2682      4137      7379
  precision          0.104     0.104     0.104     0.104     0.104     0.104     0.104     0.104     0.104     0.104     0.104     0.104

0Pitch(Hz)
  mean            215.3149  128.0431  189.4232  130.9209  172.2716  178.7508   80.5276   17.5051  158.4318  197.3791  228.4759  175.6576
  std. dev.       108.5757  111.8682   88.4732  107.5421   77.2679  105.5185  104.9424   57.5163  112.0361   88.9199   85.8386   103.141
  weight sum         28557      8827     13740      2561      7083     13234     17273     72113      5814      2682      4137      7379
  precision         0.1184    0.1184    0.1184    0.1184    0.1184    0.1184    0.1184    0.1184    0.1184    0.1184    0.1184    0.1184

0RawPitch
  mean            204.7929  105.6332  185.0572  105.6463  164.3931  172.8748   61.7401   14.3612  146.4328    190.74  219.6843  161.9262
  std. dev.       115.4318  110.0918   96.0935  104.0715   84.6206  113.4727   98.6133    52.147  117.2396   99.1565   94.3317  113.0106
  weight sum         28557      8827     13740      2561      7083     13234     17273     72113      5814      2682      4137      7379
  precision         0.1214    0.1214    0.1214    0.1214    0.1214    0.1214    0.1214    0.1214    0.1214    0.1214    0.1214    0.1214

0SmPitch
  mean            213.2799  118.5851  187.8291   120.628  169.8395  176.4732   73.7644   15.8666  154.1239  196.6807  227.9537  172.9678
  std. dev.       110.2237  112.7293   89.7533  104.8865   79.7321  107.8241  102.7501   53.8209  114.4166   90.1595   86.0974  104.9829
  weight sum         28557      8827     13740      2561      7083     13234     17273     72113      5814      2682      4137      7379
  precision          0.119     0.119     0.119     0.119     0.119     0.119     0.119     0.119     0.119     0.119     0.119     0.119

0Melogram(st)
  mean             51.1872   32.1592   50.2123   36.6979   48.2326   46.5275   21.7029    5.1312   41.0599   51.6959   53.7531   45.9297
  std. dev.        17.1944   26.9932    15.761   25.1311   16.5942   20.5358   26.7824   15.9025   24.5639   13.9284   14.8416   21.1183
  weight sum         28557      8827     13740      2561      7083     13234     17273     72113      5814      2682      4137      7379
  precision         0.0239    0.0239    0.0239    0.0239    0.0239    0.0239    0.0239    0.0239    0.0239    0.0239    0.0239    0.0239

0ZCross
  mean              7.3236    3.1035    5.2651    2.0478    3.7202    4.3731    2.9052     0.274    2.4543    3.9188    4.0594    3.2523
  std. dev.         4.7289    3.8691    3.3205    2.2007    3.3047    3.0841    5.4474    1.1727    2.2427    2.3249    2.9973    5.0531
  weight sum         28557      8827     13740      2561      7083     13234     17273     72113      5814      2682      4137      7379
  precision         1.0175    1.0175    1.0175    1.0175    1.0175    1.0175    1.0175    1.0175    1.0175    1.0175    1.0175    1.0175

0F1(Hz)
  mean            677.2424  325.3938   461.132  385.4377  359.0082  481.5603   246.525   56.3888  370.5251  503.8882  495.1306   432.153
  std. dev.       274.8373  275.0511  150.0958  279.0513  148.1386  228.3327  290.1332   170.272  238.6588  171.1258  311.7224   204.148
  weight sum         28557      8827     13740      2561      7083     13234     17273     72113      5814      2682      4137      7379
  precision         0.3611    0.3611    0.3611    0.3611    0.3611    0.3611    0.3611    0.3611    0.3611    0.3611    0.3611    0.3611

0F2(Hz)
  mean           1436.7932 1100.8795 1772.6527 1167.0887 1952.5461 1137.1547  753.5136   176.431 1303.0755 1448.0868 1043.1641 1459.3583
  std. dev.       464.5841  880.2254  544.8328  778.1683  691.2957  541.7451  855.7405  527.0815  755.1579  390.4165  437.0492  624.1213
  weight sum         28557      8827     13740      2561      7083     13234     17273     72113      5814      2682      4137      7379
  precision         0.4448    0.4448    0.4448    0.4448    0.4448    0.4448    0.4448    0.4448    0.4448    0.4448    0.4448    0.4448

0F3(Hz)
  mean           2643.5312 1827.6144 2603.6609 1991.6318 2630.5237 2487.8665 1292.5801  301.0086 2193.4003  2798.929 2649.1074 2518.1721
  std. dev.        829.899 1441.0931  809.9853 1316.3866  952.1802 1035.9314 1456.5575  883.8958 1215.1125  662.7702  823.2671 1010.8241
  weight sum         28557      8827     13740      2561      7083     13234     17273     72113      5814      2682      4137      7379
  precision         0.6646    0.6646    0.6646    0.6646    0.6646    0.6646    0.6646    0.6646    0.6646    0.6646    0.6646    0.6646

0F4(Hz)
  mean           3067.2935 2082.1148 3138.0613 2379.2068 3129.2381 2863.2558 1482.5904  361.5801 2631.0005 3242.6334 3037.3732 2891.6543
  std. dev.       949.2343 1628.8981  942.7734 1537.9516 1090.9517  1175.482  1659.649  1059.394 1426.5211  744.0154  853.8923 1161.9082
  weight sum         28557      8827     13740      2561      7083     13234     17273     72113      5814      2682      4137      7379
  precision         0.6804    0.6804    0.6804    0.6804    0.6804    0.6804    0.6804    0.6804    0.6804    0.6804    0.6804    0.6804

1Int(dB)
  mean             -4.2013  -15.4272    -5.156  -15.0484   -8.7128   -8.1103   -19.816  -48.0284  -12.5205   -8.2838   -5.2051  -10.4817
  std. dev.         9.5927   11.1347    8.0597    8.8828    8.3473   12.1522    9.4061   16.4116   10.7402    6.7464    7.7835    8.3254
  weight sum         28557      8827     13740      2561      7083     13234     17273     72113      5814      2682      4137      7379
  precision          0.104     0.104     0.104     0.104     0.104     0.104     0.104     0.104     0.104     0.104     0.104     0.104

1Pitch(Hz)
  mean            215.3234  129.0865  189.7736  130.5895  172.5882   178.609   80.4601   17.3159  158.7298  197.3296   228.829  175.3814
  std. dev.       108.5781  111.8651   88.2344  107.4498   76.9615  105.4051  104.9992   57.2259  111.7609   89.0154   85.2298  103.3038
  weight sum         28557      8827     13740      2561      7083     13234     17273     72113      5814      2682      4137      7379
  precision         0.1184    0.1184    0.1184    0.1184    0.1184    0.1184    0.1184    0.1184    0.1184    0.1184    0.1184    0.1184

1RawPitch
  mean            204.8522  106.2751  185.2743  105.4364  164.8645  172.7411   61.7311   14.1972  146.8224  190.7191  220.0766  161.4893
  std. dev.       115.4214  110.1717   95.9379   103.892   84.3754  113.3437   98.6787   51.8741  117.0312   99.1513   93.8332   113.172
  weight sum         28557      8827     13740      2561      7083     13234     17273     72113      5814      2682      4137      7379
  precision         0.1214    0.1214    0.1214    0.1214    0.1214    0.1214    0.1214    0.1214    0.1214    0.1214    0.1214    0.1214

1SmPitch
  mean            213.3152  119.4762  188.2045  120.3297  170.1487  176.3386   73.7146   15.6945  154.2915  196.6643  228.2692    172.61
  std. dev.       110.1882  112.8417   89.4937  104.7626   79.4942  107.7071  102.8015   53.5412  114.2373   90.1903    85.559  105.1598
  weight sum         28557      8827     13740      2561      7083     13234     17273     72113      5814      2682      4137      7379
  precision          0.119     0.119     0.119     0.119     0.119     0.119     0.119     0.119     0.119     0.119     0.119     0.119

1Melogram(st)
  mean             51.2057    32.351   50.2797    36.619   48.3201   46.5103   21.6653    5.0851   41.1472   51.6924   53.9044    45.863
  std. dev.        17.1608   26.9782   15.6601   25.1611   16.4677    20.538   26.7855     15.84   24.5066   13.9316   14.5585   21.1758
  weight sum         28557      8827     13740      2561      7083     13234     17273     72113      5814      2682      4137      7379
  precision         0.0239    0.0239    0.0239    0.0239    0.0239    0.0239    0.0239    0.0239    0.0239    0.0239    0.0239    0.0239

1ZCross
  mean              7.3216    3.1196    5.2602    2.0498    3.7242    4.3728    2.9147    0.2697    2.4709    3.9408    4.0672    3.2398
  std. dev.         4.7305    3.8608    3.3214     2.208    3.2959    3.0812    5.4499    1.1656    2.2406     2.323    2.9913    5.0616
  weight sum         28557      8827     13740      2561      7083     13234     17273     72113      5814      2682      4137      7379
  precision         1.0175    1.0175    1.0175    1.0175    1.0175    1.0175    1.0175    1.0175    1.0175    1.0175    1.0175    1.0175

1F1(Hz)
  mean            679.0141  325.7932  462.5388  383.0549  360.2928  482.8394  244.0198   55.8187  370.2911   504.234  496.8631  430.0219
  std. dev.       273.4573  274.7187  148.1545  278.9196  146.3199  227.5019  289.3472  169.4384  238.1729  171.1321  309.9663  204.0574
  weight sum         28557      8827     13740      2561      7083     13234     17273     72113      5814      2682      4137      7379
  precision         0.3611    0.3611    0.3611    0.3611    0.3611    0.3611    0.3611    0.3611    0.3611    0.3611    0.3611    0.3611

1F2(Hz)
  mean           1438.9064 1101.9775 1779.4393 1164.2707 1963.5585 1137.9104  746.6889  174.7317 1302.6268 1448.1183 1047.9548 1456.5206
  std. dev.       460.8432  878.9155  536.6813  779.7988  681.2366  538.8449  854.6638  524.8459  753.7966  391.2488   431.069  625.7172
  weight sum         28557      8827     13740      2561      7083     13234     17273     72113      5814      2682      4137      7379
  precision         0.4448    0.4448    0.4448    0.4448    0.4448    0.4448    0.4448    0.4448    0.4448    0.4448    0.4448    0.4448

1F3(Hz)
  mean           2647.8865 1831.3501 2611.7843 1985.3528 2643.1271 2492.6874 1280.5154  298.0271 2193.0228 2798.6728 2662.0438 2513.6734
  std. dev.       823.8379 1440.3856  798.7858 1318.4833  938.7899 1031.3021 1454.7215  879.9931 1213.2906  665.1255  804.1633 1014.4448
  weight sum         28557      8827     13740      2561      7083     13234     17273     72113      5814      2682      4137      7379
  precision         0.6646    0.6646    0.6646    0.6646    0.6646    0.6646    0.6646    0.6646    0.6646    0.6646    0.6646    0.6646

1F4(Hz)
  mean           3071.9596  2086.591 3147.1235 2373.2424 3143.0541 2868.4799 1469.2299  358.0783 2632.6489 3241.8211 3051.8664  2887.174
  std. dev.       942.0101 1628.1151  928.5918 1541.2239 1074.2428 1169.7236 1658.2582 1054.9195 1425.2945  746.6094  828.8457 1166.7083
  weight sum         28557      8827     13740      2561      7083     13234     17273     72113      5814      2682      4137      7379
  precision         0.6804    0.6804    0.6804    0.6804    0.6804    0.6804    0.6804    0.6804    0.6804    0.6804    0.6804    0.6804

2Int(dB)
  mean             -4.2125  -15.2817   -5.1527  -15.0454   -8.6835   -8.1232  -19.7743  -48.0653  -12.4222   -8.2397   -5.1335  -10.5362
  std. dev.         9.5923   11.0228    8.0415    8.8688     8.344   12.1734    9.4019   16.3664   10.6829    6.7613    7.6759    8.3375
  weight sum         28557      8827     13740      2561      7083     13234     17273     72113      5814      2682      4137      7379
  precision         0.1039    0.1039    0.1039    0.1039    0.1039    0.1039    0.1039    0.1039    0.1039    0.1039    0.1039    0.1039

2Pitch(Hz)
  mean            215.2862  130.2057  190.0442  130.2645  172.8092  178.3926   80.5427   17.1392  159.0019  197.3124  229.1151  175.1361
  std. dev.       108.6186  111.8446   88.0362  107.3679   76.7258  105.3465  105.1349   56.9512  111.4961   89.0479   84.6861  103.4439
  weight sum         28557      8827     13740      2561      7083     13234     17273     72113      5814      2682      4137      7379
  precision         0.1184    0.1184    0.1184    0.1184    0.1184    0.1184    0.1184    0.1184    0.1184    0.1184    0.1184    0.1184

2RawPitch
  mean            204.8389  107.1298  185.3904  105.2473  165.1915  172.5714   61.8293   14.0528  147.2724  190.7376  220.3812  161.0075
  std. dev.       115.4661   110.328   95.8388  103.6816   84.2064  113.2081   98.8094   51.6504  116.8386    99.018   93.3578  113.3286
  weight sum         28557      8827     13740      2561      7083     13234     17273     72113      5814      2682      4137      7379
  precision         0.1214    0.1214    0.1214    0.1214    0.1214    0.1214    0.1214    0.1214    0.1214    0.1214    0.1214    0.1214

2SmPitch
  mean            213.3047  120.4751  188.5286  120.0376  170.4162  176.1475   73.7749   15.5187  154.4932  196.6822  228.5834   172.275
  std. dev.       110.1891   112.932   89.2681  104.6493   79.2706  107.6301  102.9106   53.2527  114.0328    90.157   85.0153  105.3435
  weight sum         28557      8827     13740      2561      7083     13234     17273     72113      5814      2682      4137      7379
  precision          0.119     0.119     0.119     0.119     0.119     0.119     0.119     0.119     0.119     0.119     0.119     0.119

2Melogram(st)
  mean             51.2207   32.5429   50.3338   36.5638   48.3994   46.4929   21.6531     5.037   41.2442   51.7211   54.0407   45.7847
  std. dev.        17.1322   26.9619    15.575    25.185   16.3496   20.5401   26.7947   15.7745   24.4436   13.8647   14.2925   21.2462
  weight sum         28557      8827     13740      2561      7083     13234     17273     72113      5814      2682      4137      7379
  precision         0.0239    0.0239    0.0239    0.0239    0.0239    0.0239    0.0239    0.0239    0.0239    0.0239    0.0239    0.0239

2ZCross
  mean              7.3168    3.1362    5.2522    2.0494    3.7306    4.3707     2.927    0.2663    2.4891    3.9674    4.0724    3.2287
  std. dev.          4.734    3.8509    3.3232    2.2106    3.2938    3.0828    5.4507     1.162    2.2391     2.323    2.9865    5.0675
  weight sum         28557      8827     13740      2561      7083     13234     17273     72113      5814      2682      4137      7379
  precision         1.0175    1.0175    1.0175    1.0175    1.0175    1.0175    1.0175    1.0175    1.0175    1.0175    1.0175    1.0175

2F1(Hz)
  mean              680.68  326.2827  463.9738   380.668  361.4648  484.0118  241.6386   55.2567  370.2872  504.5848  498.5025  427.9406
  std. dev.       272.1801  274.3902  146.1336  278.7586  144.5804  226.7963  288.5204  168.6123  237.6445  171.1324  308.2875  203.9722
  weight sum         28557      8827     13740      2561      7083     13234     17273     72113      5814      2682      4137      7379
  precision         0.3611    0.3611    0.3611    0.3611    0.3611    0.3611    0.3611    0.3611    0.3611    0.3611    0.3611    0.3611

2F2(Hz)
  mean           1440.7973 1103.0941 1786.3109 1161.6312 1973.7484 1138.3786  740.3879  173.0723 1302.7636 1448.0724 1052.4199 1453.7384
  std. dev.       457.3774  877.4428  528.1199  781.5797  671.6296  536.2083  853.6484   522.685  752.0998   392.072  425.1574  627.3309
  weight sum         28557      8827     13740      2561      7083     13234     17273     72113      5814      2682      4137      7379
  precision         0.4448    0.4448    0.4448    0.4448    0.4448    0.4448    0.4448    0.4448    0.4448    0.4448    0.4448    0.4448

2F3(Hz)
  mean            2651.859 1835.3062 2620.1056 1979.1395 2654.8736 2496.9201 1269.3092  295.0943 2193.5767 2798.3149 2674.1003 2509.1896
  std. dev.        818.296 1439.5195  787.0306 1320.5796  926.0878 1027.3116 1452.9179    876.14 1210.8731  667.4265  785.3599 1018.0469
  weight sum         28557      8827     13740      2561      7083     13234     17273     72113      5814      2682      4137      7379
  precision         0.6646    0.6646    0.6646    0.6646    0.6646    0.6646    0.6646    0.6646    0.6646    0.6646    0.6646    0.6646

2F4(Hz)
  mean           3076.1686 2091.6564  3156.326 2367.2839 3155.7849 2872.8522 1456.8854  354.6326 2635.3487 3240.8949 3065.6415 2882.7536
  std. dev.       935.4026 1627.3765  913.7122 1544.4726 1058.3659 1164.6509  1656.947 1050.5011 1423.2744  749.1185  804.1571 1171.4868
  weight sum         28557      8827     13740      2561      7083     13234     17273     72113      5814      2682      4137      7379
  precision         0.6804    0.6804    0.6804    0.6804    0.6804    0.6804    0.6804    0.6804    0.6804    0.6804    0.6804    0.6804

3Int(dB)
  mean             -4.2297  -15.1279   -5.1597   -15.033   -8.6607   -8.1449   -19.719  -48.0906  -12.3149   -8.1898   -5.0726  -10.5889
  std. dev.         9.5985   10.9181    8.0314    8.8639    8.3453   12.1979    9.4101   16.3157   10.6245     6.778    7.5754    8.3522
  weight sum         28557      8827     13740      2561      7083     13234     17273     72113      5814      2682      4137      7379
  precision         0.1037    0.1037    0.1037    0.1037    0.1037    0.1037    0.1037    0.1037    0.1037    0.1037    0.1037    0.1037

3Pitch(Hz)
  mean            215.2062  131.3222   190.258  129.9494  173.0302  178.1206    80.726   16.9614  159.4679  197.2987  229.3502  174.9119
  std. dev.       108.6869  111.8114   87.8928  107.2999   76.4927   105.326  105.3113   56.6741  111.1515   89.0771   84.2123  103.5626
  weight sum         28557      8827     13740      2561      7083     13234     17273     72113      5814      2682      4137      7379
  precision         0.1184    0.1184    0.1184    0.1184    0.1184    0.1184    0.1184    0.1184    0.1184    0.1184    0.1184    0.1184

3RawPitch
  mean            204.7785  108.1262  185.5139  104.9895  165.4701   172.363   61.9657   13.9206  147.7852  190.6234  220.5579  160.5262
  std. dev.       115.5309  110.5989   95.7233   103.475   84.0796  113.1234   98.9134   51.4529  116.6168   98.9787   92.9298   113.497
  weight sum         28557      8827     13740      2561      7083     13234     17273     72113      5814      2682      4137      7379
  precision         0.1214    0.1214    0.1214    0.1214    0.1214    0.1214    0.1214    0.1214    0.1214    0.1214    0.1214    0.1214

3SmPitch
  mean             213.264   121.491  188.8112  119.7549  170.6319  175.8934    73.927   15.3493  154.8892  196.7053  228.8462  171.8701
  std. dev.       110.2131  113.0073   89.0812  104.5511   79.0959   107.593  103.0654   52.9684  113.7583   90.1193   84.5411  105.5581
  weight sum         28557      8827     13740      2561      7083     13234     17273     72113      5814      2682      4137      7379
  precision          0.119     0.119     0.119     0.119     0.119     0.119     0.119     0.119     0.119     0.119     0.119     0.119

3Melogram(st)
  mean             51.2183   32.7653    50.379   36.5095   48.4716   46.4586   21.6786    4.9861   41.3724   51.7505     54.16   45.7142
  std. dev.        17.1271   26.9386   15.5007   25.2094   16.2405   20.5573    26.812   15.7047   24.3658   13.7974   14.0434     21.31
  weight sum         28557      8827     13740      2561      7083     13234     17273     72113      5814      2682      4137      7379
  precision         0.0239    0.0239    0.0239    0.0239    0.0239    0.0239    0.0239    0.0239    0.0239    0.0239    0.0239    0.0239

3ZCross
  mean              7.3101    3.1551    5.2408    2.0498    3.7393    4.3663    2.9398    0.2635     2.508    3.9977    4.0771    3.2216
  std. dev.         4.7386    3.8413    3.3253    2.2131    3.2999     3.087    5.4505    1.1594     2.237    2.3251    2.9819    5.0733
  weight sum         28557      8827     13740      2561      7083     13234     17273     72113      5814      2682      4137      7379
  precision         1.0175    1.0175    1.0175    1.0175    1.0175    1.0175    1.0175    1.0175    1.0175    1.0175    1.0175    1.0175

3F1(Hz)
  mean            682.1503  326.9586  465.3474  378.3582  362.5437  485.0896  239.6286   54.6968  370.4332  505.0486  499.8715  425.8434
  std. dev.        271.133  274.0281  144.1266  278.5939  142.9356  226.1543  287.7014  167.7993  237.1009  171.1736  306.7882  203.9356
  weight sum         28557      8827     13740      2561      7083     13234     17273     72113      5814      2682      4137      7379
  precision         0.3611    0.3611    0.3611    0.3611    0.3611    0.3611    0.3611    0.3611    0.3611    0.3611    0.3611    0.3611

3F2(Hz)
  mean           1442.2136  1104.763 1793.0334 1159.1061 1983.2786  1138.672  735.4168  171.3507 1303.2526 1448.0931 1056.4734 1450.7411
  std. dev.       454.4964  875.8232  519.5885  783.4471  662.5587  533.7441  852.8372  520.3742  750.2659  392.9271  419.7581  629.1582
  weight sum         28557      8827     13740      2561      7083     13234     17273     72113      5814      2682      4137      7379
  precision         0.4448    0.4448    0.4448    0.4448    0.4448    0.4448    0.4448    0.4448    0.4448    0.4448    0.4448    0.4448

3F3(Hz)
  mean           2655.0761 1840.1201 2628.2257 1972.9814 2665.7831 2500.7441 1260.1713  292.1183 2194.6698 2798.0476 2684.8467  2504.354
  std. dev.       813.9125 1438.2967  775.3306  1322.667  914.1503 1023.7463 1451.1961  872.1937 1208.1856  669.7534  768.1272 1022.0293
  weight sum         28557      8827     13740      2561      7083     13234     17273     72113      5814      2682      4137      7379
  precision         0.6646    0.6646    0.6646    0.6646    0.6646    0.6646    0.6646    0.6646    0.6646    0.6646    0.6646    0.6646

3F4(Hz)
  mean           3079.4149  2097.926  3165.364 2361.3224 3167.5238 2876.6923 1447.1659  351.1389 2638.4197 3239.8651 3077.7233 2877.8508
  std. dev.       930.1153  1626.376  898.8907 1547.6942 1043.4405 1160.0433 1656.0288 1045.9904 1420.8135  751.6295  781.3188 1176.6795
  weight sum         28557      8827     13740      2561      7083     13234     17273     72113      5814      2682      4137      7379
  precision         0.6804    0.6804    0.6804    0.6804    0.6804    0.6804    0.6804    0.6804    0.6804    0.6804    0.6804    0.6804

4Int(dB)
  mean              -4.254  -14.9678   -5.1788  -15.0107    -8.647   -8.1757  -19.6536  -48.1181  -12.2049   -8.1344   -5.0188  -10.6411
  std. dev.         9.6114   10.8189    8.0296     8.868    8.3528   12.2243    9.4301   16.2755   10.5691    6.7971    7.4803    8.3704
  weight sum         28557      8827     13740      2561      7083     13234     17273     72113      5814      2682      4137      7379
  precision         0.1037    0.1037    0.1037    0.1037    0.1037    0.1037    0.1037    0.1037    0.1037    0.1037    0.1037    0.1037

4Pitch(Hz)
  mean            215.1081  132.4771  190.4015  129.6994  173.2101  177.8211   80.9904   16.7884  159.9332  197.2811  229.5826  174.6755
  std. dev.       108.7696  111.7771   87.7758  107.2959   76.2773  105.3227  105.5148   56.4061  110.8047   89.0991   83.7347  103.6934
  weight sum         28557      8827     13740      2561      7083     13234     17273     72113      5814      2682      4137      7379
  precision         0.1184    0.1184    0.1184    0.1184    0.1184    0.1184    0.1184    0.1184    0.1184    0.1184    0.1184    0.1184

4RawPitch
  mean            204.7122   109.152  185.6605    104.69  165.7379  172.1393   62.1577   13.7661  148.2899  190.4432  220.7885  160.1302
  std. dev.       115.5921   110.843   95.6276  103.2429   83.9735  113.0491   99.0319   51.2121  116.3341   98.9727   92.5273  113.6492
  weight sum         28557      8827     13740      2561      7083     13234     17273     72113      5814      2682      4137      7379
  precision         0.1214    0.1214    0.1214    0.1214    0.1214    0.1214    0.1214    0.1214    0.1214    0.1214    0.1214    0.1214

4SmPitch
  mean            213.2106  122.5657  189.0092  119.5928  170.7795  175.6214   74.1645   15.1799  155.3207  196.7284  229.0387  171.4678
  std. dev.       110.2529  113.0809   88.9353  104.4955    78.963  107.5646  103.2478   52.6871  113.4664   90.0706   84.1352  105.7741
  weight sum         28557      8827     13740      2561      7083     13234     17273     72113      5814      2682      4137      7379
  precision          0.119     0.119     0.119     0.119     0.119     0.119     0.119     0.119     0.119     0.119     0.119     0.119

4Melogram(st)
  mean             51.2091   33.0011   50.4242   36.4608   48.5268   46.3993     21.73    4.9364    41.496   51.7797   54.2789   45.6436
  std. dev.        17.1327   26.9118   15.4261   25.2383   16.1496   20.5969   26.8358   15.6361   24.2847   13.7295   13.7888   21.3732
  weight sum         28557      8827     13740      2561      7083     13234     17273     72113      5814      2682      4137      7379
  precision         0.0239    0.0239    0.0239    0.0239    0.0239    0.0239    0.0239    0.0239    0.0239    0.0239    0.0239    0.0239

4ZCross
  mean              7.3004    3.1718    5.2275    2.0522    3.7468    4.3624    2.9555    0.2613    2.5306    4.0262    4.0827    3.2165
  std. dev.         4.7448    3.8289     3.329    2.2158    3.3104    3.0942    5.4506    1.1581    2.2366    2.3277    2.9766    5.0775
  weight sum         28557      8827     13740      2561      7083     13234     17273     72113      5814      2682      4137      7379
  precision         1.0175    1.0175    1.0175    1.0175    1.0175    1.0175    1.0175    1.0175    1.0175    1.0175    1.0175    1.0175

4F1(Hz)
  mean            683.5492   327.868   466.604  376.1761  363.6076   485.985   237.758   54.1467  370.5749  505.4969  501.0702  423.9395
  std. dev.       270.1486  273.5809  142.2478  278.4193  141.3453  225.6523  286.8682   167.003   236.559  171.2455  305.5336  203.7829
  weight sum         28557      8827     13740      2561      7083     13234     17273     72113      5814      2682      4137      7379
  precision         0.3611    0.3611    0.3611    0.3611    0.3611    0.3611    0.3611    0.3611    0.3611    0.3611    0.3611    0.3611

4F2(Hz)
  mean           1443.5164 1107.0558 1799.2434 1156.6522 1992.3968  1138.609  730.9378  169.6403 1303.9361  1448.146 1060.1575 1448.1831
  std. dev.       451.7609  873.9897  511.5475  785.3266  653.6523   531.629  852.0875  518.0455  748.5317  393.8005  414.9703  630.5403
  weight sum         28557      8827     13740      2561      7083     13234     17273     72113      5814      2682      4137      7379
  precision         0.4448    0.4448    0.4448    0.4448    0.4448    0.4448    0.4448    0.4448    0.4448    0.4448    0.4448    0.4448

4F3(Hz)
  mean           2658.1212 1846.1724 2635.6414 1966.8613 2676.2267 2503.6829 1251.9866  289.1712 2195.7732 2797.7777 2694.2989 2500.2386
  std. dev.       809.8058 1436.6578   764.297 1324.7402   902.456 1021.0061 1449.7111  868.2313 1205.5074  672.0457   752.613 1025.1734
  weight sum         28557      8827     13740      2561      7083     13234     17273     72113      5814      2682      4137      7379
  precision         0.6646    0.6646    0.6646    0.6646    0.6646    0.6646    0.6646    0.6646    0.6646    0.6646    0.6646    0.6646

4F4(Hz)
  mean           3082.4058 2105.6195 3173.7603 2355.3511 3178.8998 2879.5448 1438.3759  347.6842 2641.4866 3238.8126 3088.1777 2873.9184
  std. dev.       925.1344 1624.8954  884.9534 1550.8738 1028.8621 1156.4562 1655.1492 1041.4905 1418.3454    754.11  760.6201 1180.9413
  weight sum         28557      8827     13740      2561      7083     13234     17273     72113      5814      2682      4137      7379
  precision         0.6804    0.6804    0.6804    0.6804    0.6804    0.6804    0.6804    0.6804    0.6804    0.6804    0.6804    0.6804





=== Stratified cross-validation ===

Correctly Classified Instances       93610               51.0414 %
Incorrectly Classified Instances     89790               48.9586 %
Kappa statistic                          0.3845
K&B Relative Info Score            6510547.8624 %
K&B Information Score               186010.5722 bits      1.0142 bits/instance
Class complexity | order 0          523966.3471 bits      2.857  bits/instance
Class complexity | scheme          5277473.8637 bits     28.7758 bits/instance
Complexity improvement     (Sf)    -4753507.5166 bits    -25.9188 bits/instance
Mean absolute error                      0.0822
Root mean squared error                  0.2698
Relative absolute error                 62.0801 %
Root relative squared error            104.8993 %
Coverage of cases (0.95 level)          56.2399 %
Mean rel. region size (0.95 level)      11.7407 %
Total Number of Instances           183400     


=== Detailed Accuracy By Class ===

                 TP Rate  FP Rate  Precision  Recall   F-Measure  MCC      ROC Area  PRC Area  Class
                 0,431    0,035    0,696      0,431    0,532      0,486    0,883     0,613     A
                 0,022    0,007    0,134      0,022    0,038      0,036    0,693     0,085     LGJKC
                 0,535    0,067    0,394      0,535    0,454      0,408    0,868     0,406     E
                 0,077    0,031    0,033      0,077    0,047      0,030    0,731     0,029     FV
                 0,414    0,039    0,299      0,414    0,347      0,321    0,864     0,271     I
                 0,004    0,002    0,113      0,004    0,007      0,008    0,779     0,180     O
                 0,162    0,022    0,433      0,162    0,236      0,222    0,806     0,309     SNRTY
                 0,890    0,143    0,802      0,890    0,844      0,736    0,920     0,850     0
                 0,007    0,004    0,055      0,007    0,012      0,008    0,724     0,057     BMP
                 0,616    0,186    0,047      0,616    0,087      0,131    0,815     0,048     DZ
                 0,436    0,024    0,293      0,436    0,351      0,340    0,872     0,352     U
                 0,010    0,004    0,090      0,010    0,018      0,017    0,728     0,073     SNRTXY
Weighted Avg.    0,510    0,075    0,533      0,510    0,498      0,442    0,857     0,531     


=== Confusion Matrix ===

     a     b     c     d     e     f     g     h     i     j     k     l   <-- classified as
 12305   264  3346   796   574   129   407  1519    70  7936  1161    50 |     a = A
   367   198   738   374   776    93   866  2355    81  2554   294   131 |     b = LGJKC
  1149   177  7352   347   938    19   209   545   100  2732   126    46 |     c = E
   161    27   194   196   265     0   124   647     4   914    15    14 |     d = FV
   306   142  2464   230  2931     1   184   384    48   384     2     7 |     e = I
  1298   156  2026   619   144    50   243  1438    64  5503  1644    49 |     f = O
   507   261   611  1247   941    58  2797  7128   152  3092   216   263 |     g = SNRTY
   186   117   745  1088  1184    47   858 64215    97  3217   232   127 |     h = 0
   349    54   387   286   938    28   210  1082    39  2086   329    26 |     i = BMP
   233     0   271    93    97     0    38   100    16  1651   165    18 |     j = DZ
   343    74   161   110   118    19    81    75    31  1321  1804     0 |     k = U
   488     9   347   475   902     0   447   610    11  3854   164    72 |     l = SNRTXY

=== Percent Confusion Matrix ===
a	b	c	d	e	f	g	h	i	j	k	l	
43.09	0.92	11.72	2.79	2.01	0.45	1.43	5.32	0.25	27.79	4.07	0.18	 a = A
4.16	2.24	8.36	4.24	8.79	1.05	9.81	26.68	0.92	28.93	3.33	1.48	 b = LGJKC
8.36	1.29	53.51	2.53	6.83	0.14	1.52	3.97	0.73	19.88	0.92	0.33	 c = E
6.29	1.05	7.58	7.65	10.35	0.0	4.84	25.26	0.16	35.69	0.59	0.55	 d = FV
4.32	2.0	34.79	3.25	41.38	0.01	2.6	5.42	0.68	5.42	0.03	0.1	 e = I
9.81	1.18	15.31	4.68	1.09	0.38	1.84	10.87	0.48	41.58	12.42	0.37	 f = O
2.94	1.51	3.54	7.22	5.45	0.34	16.19	41.27	0.88	17.9	1.25	1.52	 g = SNRTY
0.26	0.16	1.03	1.51	1.64	0.07	1.19	89.05	0.13	4.46	0.32	0.18	 h = 0
6.0	0.93	6.66	4.92	16.13	0.48	3.61	18.61	0.67	35.88	5.66	0.45	 i = BMP
8.69	0.0	10.1	3.47	3.62	0.0	1.42	3.73	0.6	61.56	6.15	0.67	 j = DZ
8.29	1.79	3.89	2.66	2.85	0.46	1.96	1.81	0.75	31.93	43.61	0.0	 k = U
6.61	0.12	4.7	6.44	12.22	0.0	6.06	8.27	0.15	52.23	2.22	0.98	 l = SNRTXY
