Timestamp:2014-12-07-11:01:06
Inventario:I2
Intervalo:15ms
Ngramas:4
Clasificador:NaiveBayes
Relation Name:  I2-15ms-4gramas
Num Instances:  12186
Num Attributes: 41

     Name                      Type  Nom  Int Real     Missing      Unique  Dist
   1 0Int(dB)                   Num   0%  10%  90%     0 /  0%    10 /  0%   768 
   2 0Pitch(Hz)                 Num   0%  50%  50%     0 /  0%   940 /  8%  2714 
   3 0RawPitch                  Num   0%  53%  47%     0 /  0%   980 /  8%  2609 
   4 0SmPitch                   Num   0%  51%  49%     0 /  0%   957 /  8%  2691 
   5 0Melogram(st)              Num   0%  46%  54%     0 /  0%   837 /  7%  2573 
   6 0ZCross                    Num   0% 100%   0%     0 /  0%    10 /  0%    40 
   7 0F1(Hz)                    Num   0%  50%  50%     0 /  0%  2281 / 19%  3977 
   8 0F2(Hz)                    Num   0%  50%  50%     0 /  0%  3848 / 32%  5158 
   9 0F3(Hz)                    Num   0%  50%  50%     0 /  0%  3419 / 28%  4850 
  10 0F4(Hz)                    Num   0%  50%  50%     0 /  0%  3319 / 27%  4764 
  11 1Int(dB)                   Num   0%  10%  90%     0 /  0%    10 /  0%   768 
  12 1Pitch(Hz)                 Num   0%  50%  50%     0 /  0%   940 /  8%  2714 
  13 1RawPitch                  Num   0%  53%  47%     0 /  0%   980 /  8%  2609 
  14 1SmPitch                   Num   0%  51%  49%     0 /  0%   957 /  8%  2691 
  15 1Melogram(st)              Num   0%  46%  54%     0 /  0%   837 /  7%  2573 
  16 1ZCross                    Num   0% 100%   0%     0 /  0%    10 /  0%    40 
  17 1F1(Hz)                    Num   0%  50%  50%     0 /  0%  2281 / 19%  3977 
  18 1F2(Hz)                    Num   0%  50%  50%     0 /  0%  3848 / 32%  5158 
  19 1F3(Hz)                    Num   0%  50%  50%     0 /  0%  3419 / 28%  4850 
  20 1F4(Hz)                    Num   0%  50%  50%     0 /  0%  3319 / 27%  4764 
  21 2Int(dB)                   Num   0%  10%  90%     0 /  0%    10 /  0%   768 
  22 2Pitch(Hz)                 Num   0%  50%  50%     0 /  0%   940 /  8%  2714 
  23 2RawPitch                  Num   0%  53%  47%     0 /  0%   980 /  8%  2609 
  24 2SmPitch                   Num   0%  51%  49%     0 /  0%   957 /  8%  2691 
  25 2Melogram(st)              Num   0%  46%  54%     0 /  0%   837 /  7%  2573 
  26 2ZCross                    Num   0% 100%   0%     0 /  0%    10 /  0%    40 
  27 2F1(Hz)                    Num   0%  50%  50%     0 /  0%  2281 / 19%  3977 
  28 2F2(Hz)                    Num   0%  50%  50%     0 /  0%  3848 / 32%  5158 
  29 2F3(Hz)                    Num   0%  50%  50%     0 /  0%  3419 / 28%  4850 
  30 2F4(Hz)                    Num   0%  50%  50%     0 /  0%  3319 / 27%  4764 
  31 3Int(dB)                   Num   0%  10%  90%     0 /  0%    10 /  0%   768 
  32 3Pitch(Hz)                 Num   0%  50%  50%     0 /  0%   941 /  8%  2715 
  33 3RawPitch                  Num   0%  53%  47%     0 /  0%   979 /  8%  2609 
  34 3SmPitch                   Num   0%  51%  49%     0 /  0%   957 /  8%  2691 
  35 3Melogram(st)              Num   0%  46%  54%     0 /  0%   838 /  7%  2574 
  36 3ZCross                    Num   0% 100%   0%     0 /  0%    10 /  0%    40 
  37 3F1(Hz)                    Num   0%  50%  50%     0 /  0%  2281 / 19%  3977 
  38 3F2(Hz)                    Num   0%  50%  50%     0 /  0%  3848 / 32%  5158 
  39 3F3(Hz)                    Num   0%  50%  50%     0 /  0%  3419 / 28%  4850 
  40 3F4(Hz)                    Num   0%  50%  50%     0 /  0%  3319 / 27%  4764 
  41 class                      Nom 100%   0%   0%     0 /  0%     0 /  0%    12 


Naive Bayes Classifier

                    Class
Attribute               A     LGJKC         E        FV         I         O     SNRTY         0       BMP        DZ         U    SNRTXY
                   (0.16)    (0.05)    (0.08)    (0.01)    (0.04)    (0.08)     (0.1)    (0.36)    (0.03)    (0.02)    (0.02)    (0.04)
========================================================================================================================================
0Int(dB)
  mean             -7.5227  -15.0982  -10.1933  -10.0033  -12.9283  -11.9021  -15.1652  -48.6195  -10.7409   -7.6396   -10.704   -7.8371
  std. dev.        12.8902   15.0284   11.7847   11.6666   10.6057    13.325    12.151   16.5744    11.848    7.0858    12.611    8.5015
  weight sum          1989       598       971       177       503       940      1218      4415       399       182       285       509
  precision         0.1005    0.1005    0.1005    0.1005    0.1005    0.1005    0.1005    0.1005    0.1005    0.1005    0.1005    0.1005

0Pitch(Hz)
  mean            198.3964  145.1337  160.1808  172.3798  142.2505  161.5093  139.4835   17.8631   182.286   195.827  194.1405  194.8542
  std. dev.       119.0264  108.2039  100.9674  105.1479   94.8404  115.1424  107.1111   57.8356  103.6491   83.2188  126.5096    89.299
  weight sum          1989       598       971       177       503       940      1218      4415       399       182       285       509
  precision         0.1828    0.1828    0.1828    0.1828    0.1828    0.1828    0.1828    0.1828    0.1828    0.1828    0.1828    0.1828

0RawPitch
  mean            189.1921  136.2512  154.2988  153.4086  129.5623  151.8615  121.6356   14.8135  174.1149  183.2267   182.114  184.9029
  std. dev.       121.2248  110.0135  103.8965  106.4127   96.6501  118.7396  110.1475   52.5522  108.2118   94.7196   126.065   97.3892
  weight sum          1989       598       971       177       503       940      1218      4415       399       182       285       509
  precision           0.19      0.19      0.19      0.19      0.19      0.19      0.19      0.19      0.19      0.19      0.19      0.19

0SmPitch
  mean            196.3056   141.612  157.6884  163.5118  139.5184  158.3741  132.4247   16.1962   180.944  191.9464  187.9493  193.3461
  std. dev.       119.9266  109.4266  102.7097  103.8799   95.2859  116.4366  108.9151   54.1511  105.0311   87.1938  127.6747   91.1664
  weight sum          1989       598       971       177       503       940      1218      4415       399       182       285       509
  precision         0.1841    0.1841    0.1841    0.1841    0.1841    0.1841    0.1841    0.1841    0.1841    0.1841    0.1841    0.1841

0Melogram(st)
  mean             47.2817   38.7835   43.8321   46.4107   40.2909   42.1946   37.9298    5.2905   47.4283   51.8154   43.1507   50.4272
  std. dev.         21.441   24.9536   21.9994   19.5839   23.2502   23.8924    25.175   16.1528   19.8935   13.4505   25.8888   16.5272
  weight sum          1989       598       971       177       503       940      1218      4415       399       182       285       509
  precision         0.0321    0.0321    0.0321    0.0321    0.0321    0.0321    0.0321    0.0321    0.0321    0.0321    0.0321    0.0321

0ZCross
  mean              6.0089    3.1418    4.1877    3.8309    3.4173    3.5388    2.9628    0.3174    3.3547    3.7439    3.6946    4.0485
  std. dev.         5.0516    3.0455      3.51    3.1646    4.3415       3.7    3.6896    1.4495    3.0234    2.1983    3.7659    2.9526
  weight sum          1989       598       971       177       503       940      1218      4415       399       182       285       509
  precision         1.1026    1.1026    1.1026    1.1026    1.1026    1.1026    1.1026    1.1026    1.1026    1.1026    1.1026    1.1026

0F1(Hz)
  mean            569.5758  413.9212  399.5254   509.407  321.9794  400.7883   425.671   63.2893  448.4717  499.5952  423.1014  533.4641
  std. dev.       332.7507  258.0784  222.3308  214.6903  226.2374  262.7274  275.7631  185.2724  217.4863  164.2772  367.4317  182.6689
  weight sum          1989       598       971       177       503       940      1218      4415       399       182       285       509
  precision          0.438     0.438     0.438     0.438     0.438     0.438     0.438     0.438     0.438     0.438     0.438     0.438

0F2(Hz)
  mean           1311.4106 1332.3974 1442.8428 1487.4002 1417.0158 1071.2623 1268.3826  187.2285 1511.2562 1449.1907  901.2556 1618.0074
  std. dev.       638.9109  798.9948  776.7388  613.6935  915.8706   690.734  767.3095  542.7291  656.5641  420.1499  645.6145  490.7361
  weight sum          1989       598       971       177       503       940      1218      4415       399       182       285       509
  precision         0.5776    0.5776    0.5776    0.5776    0.5776    0.5776    0.5776    0.5776    0.5776    0.5776    0.5776    0.5776

0F3(Hz)
  mean           2380.1019 2199.9615 2225.9848 2511.3747  2074.489  2178.095  2202.525  321.8325 2536.1532 2754.2348 2131.2599 2756.2361
  std. dev.      1114.8824  1279.665 1160.7791  982.7376 1324.8705 1261.4257 1292.3331  911.0735 1002.0059  678.3251 1290.0635  716.9741
  weight sum          1989       598       971       177       503       940      1218      4415       399       182       285       509
  precision         0.8494    0.8494    0.8494    0.8494    0.8494    0.8494    0.8494    0.8494    0.8494    0.8494    0.8494    0.8494

0F4(Hz)
  mean           2767.4468 2505.1454   2718.69 2938.8695 2501.7838 2525.1794 2506.2579  385.4697 2957.3618 3208.0544 2447.5687 3165.4097
  std. dev.      1285.9068 1445.5817 1397.2836 1127.8105 1568.3926 1454.2085 1454.4316 1088.7585 1139.4412  754.8142 1436.0304   800.649
  weight sum          1989       598       971       177       503       940      1218      4415       399       182       285       509
  precision         0.8707    0.8707    0.8707    0.8707    0.8707    0.8707    0.8707    0.8707    0.8707    0.8707    0.8707    0.8707

1Int(dB)
  mean             -6.2827  -16.3181   -8.2853  -11.8337  -11.4664  -10.3306  -16.9149  -49.3169  -11.7003   -7.3441        -9   -8.6881
  std. dev.        11.7372   14.4796   10.4618   10.8769    9.6852   12.5524   11.6271   15.6468   11.7463    6.5773   11.0737    8.5512
  weight sum          1989       598       971       177       503       940      1218      4415       399       182       285       509
  precision         0.1005    0.1005    0.1005    0.1005    0.1005    0.1005    0.1005    0.1005    0.1005    0.1005    0.1005    0.1005

1Pitch(Hz)
  mean            205.2843   136.696   171.376  161.8432  155.6275  170.5933  122.8116   15.1271  176.1634  197.3539  208.3385  190.0947
  std. dev.       113.8386  109.1156   96.7489  106.9302   89.3289  111.0794   109.382   53.6652  105.3804   83.7783  113.7908   93.9255
  weight sum          1989       598       971       177       503       940      1218      4415       399       182       285       509
  precision         0.1828    0.1828    0.1828    0.1828    0.1828    0.1828    0.1828    0.1828    0.1828    0.1828    0.1828    0.1828

1RawPitch
  mean            195.8224  124.6903  166.4294  138.8672  144.7636  160.9027  104.2532   12.3521   166.948  190.1855  197.8707   180.025
  std. dev.       117.0434  109.4376   99.7164  107.0856    91.976  115.9139  109.6156   47.9404  110.5987   92.9929  115.5032  101.5013
  weight sum          1989       598       971       177       503       940      1218      4415       399       182       285       509
  precision           0.19      0.19      0.19      0.19      0.19      0.19      0.19      0.19      0.19      0.19      0.19      0.19

1SmPitch
  mean            203.4414  132.0246  169.6121  150.9116  152.7216  167.6951  115.1483   13.4443  174.3874   195.611  204.0613  188.1182
  std. dev.       114.9465  110.1035     98.43  106.0938   90.5569  112.6857  109.7003     49.25  107.0721   86.4955  114.8803   96.0801
  weight sum          1989       598       971       177       503       940      1218      4415       399       182       285       509
  precision         0.1841    0.1841    0.1841    0.1841    0.1841    0.1841    0.1841    0.1841    0.1841    0.1841    0.1841    0.1841

1Melogram(st)
  mean             49.1246   36.4058    46.364   44.3633   43.7828   44.5801   33.5564    4.5603   46.2526   52.3734   46.8237     49.51
  std. dev.        19.5383   25.7996   19.9773   21.0748   21.0046   22.3034   26.5879   15.1248   20.8639   12.3578     23.28   17.6598
  weight sum          1989       598       971       177       503       940      1218      4415       399       182       285       509
  precision         0.0321    0.0321    0.0321    0.0321    0.0321    0.0321    0.0321    0.0321    0.0321    0.0321    0.0321    0.0321

1ZCross
  mean              6.2828    2.8043    4.5363    3.0523    3.4129    3.8308    2.9175     0.232    2.9291    3.7923    3.6211    3.6521
  std. dev.         4.8016    2.9484    3.4214     2.753    3.6124    3.7224    4.3304    1.1942    2.7939    2.1009    3.3263    3.2635
  weight sum          1989       598       971       177       503       940      1218      4415       399       182       285       509
  precision         1.1026    1.1026    1.1026    1.1026    1.1026    1.1026    1.1026    1.1026    1.1026    1.1026    1.1026    1.1026

1F1(Hz)
  mean            606.1779  385.3403  421.4711  494.2517  328.6039  427.7699  381.4887   54.1063  434.8028  501.7492  447.6356  512.6289
  std. dev.       314.3985   269.358  199.8827  234.8699  197.0056  253.7566  289.1504  172.0613  221.0826  156.3981  351.3336  186.4211
  weight sum          1989       598       971       177       503       940      1218      4415       399       182       285       509
  precision          0.438     0.438     0.438     0.438     0.438     0.438     0.438     0.438     0.438     0.438     0.438     0.438

1F2(Hz)
  mean           1360.0457 1265.2322 1557.4028 1421.4392 1600.4272 1095.9014 1146.3125  161.1414 1481.8564  1468.899  941.4183 1596.4035
  std. dev.       582.3985  841.2703  715.8668  646.1569  875.8818   642.731  821.5079  507.1144    667.81  366.0398  583.0066  515.1935
  weight sum          1989       598       971       177       503       940      1218      4415       399       182       285       509
  precision         0.5776    0.5776    0.5776    0.5776    0.5776    0.5776    0.5776    0.5776    0.5776    0.5776    0.5776    0.5776

1F3(Hz)
  mean             2479.17 2072.8619 2361.5599 2423.2784 2260.1467   2286.61 1986.2426  277.7143 2496.4215 2807.4597 2306.2699 2720.9137
  std. dev.      1020.8902 1348.1575  1058.658 1066.6564 1230.4607 1195.8853  1392.779  854.3142 1031.3795  570.2892 1189.9252  773.3485
  weight sum          1989       598       971       177       503       940      1218      4415       399       182       285       509
  precision         0.8494    0.8494    0.8494    0.8494    0.8494    0.8494    0.8494    0.8494    0.8494    0.8494    0.8494    0.8494

1F4(Hz)
  mean           2885.4543 2353.1015 2879.2008  2839.318 2723.7025 2646.7638 2256.7553  332.6363 2926.4759 3271.3215 2634.9155 3119.4848
  std. dev.      1177.5077 1519.5588 1266.1181 1221.6089 1450.2143 1374.1393  1567.501 1021.2383 1176.9755   629.099 1307.4223  872.3667
  weight sum          1989       598       971       177       503       940      1218      4415       399       182       285       509
  precision         0.8707    0.8707    0.8707    0.8707    0.8707    0.8707    0.8707    0.8707    0.8707    0.8707    0.8707    0.8707

2Int(dB)
  mean             -5.1539  -16.3687   -6.5035  -13.4875  -10.0663   -8.9829  -18.6519  -50.0145  -12.6599   -8.0119   -7.1056   -9.6252
  std. dev.        10.4855   12.8506    9.1484    9.7297    8.7445   12.0392   10.6653    14.614   11.4853    6.7561    9.4113    8.4319
  weight sum          1989       598       971       177       503       940      1218      4415       399       182       285       509
  precision         0.1005    0.1005    0.1005    0.1005    0.1005    0.1005    0.1005    0.1005    0.1005    0.1005    0.1005    0.1005

2Pitch(Hz)
  mean            211.6164  133.1982  183.4717   151.416  170.1872  178.6603  106.2716     12.13   169.157  194.5985   222.874  184.6391
  std. dev.       108.5356  110.1644   90.6248  107.3372    80.118  105.9497  108.9904   48.3563  107.9278   87.0546   96.7144   98.2327
  weight sum          1989       598       971       177       503       940      1218      4415       399       182       285       509
  precision         0.1828    0.1828    0.1828    0.1828    0.1828    0.1828    0.1828    0.1828    0.1828    0.1828    0.1828    0.1828

2RawPitch
  mean            201.8512  115.9751  179.2232  126.9095  160.6735  170.2865   87.7632    9.8369  156.3794  189.0935  214.8787  173.8333
  std. dev.       112.7474  107.6868   94.3626  104.8815   84.5436  111.2599  106.7843   42.7253  112.6669   94.4871  100.3251  106.3527
  weight sum          1989       598       971       177       503       940      1218      4415       399       182       285       509
  precision           0.19      0.19      0.19      0.19      0.19      0.19      0.19      0.19      0.19      0.19      0.19      0.19

2SmPitch
  mean            209.8362  125.1499  181.7709  140.8054  167.6412  176.3381   98.1938    10.585  166.7235    193.94  222.2202  182.6302
  std. dev.       109.8749  110.6016   92.0323    105.09   82.3894  107.6496  107.9403   43.6679  110.0496   88.2607    96.345  100.1783
  weight sum          1989       598       971       177       503       940      1218      4415       399       182       285       509
  precision         0.1841    0.1841    0.1841    0.1841    0.1841    0.1841    0.1841    0.1841    0.1841    0.1841    0.1841    0.1841

2Melogram(st)
  mean              50.884   34.5765    49.433   42.1057   47.5936    46.689   29.0344      3.84   44.1038   51.8812   51.8876   48.1479
  std. dev.        17.3482   26.3479   16.6562   22.5058    17.453   20.4728   27.2332   14.0002   22.6152   13.0394   18.0236   19.1438
  weight sum          1989       598       971       177       503       940      1218      4415       399       182       285       509
  precision         0.0321    0.0321    0.0321    0.0321    0.0321    0.0321    0.0321    0.0321    0.0321    0.0321    0.0321    0.0321

2ZCross
  mean              6.5278    2.7306      4.81     2.392    3.4699    4.0255    2.8152    0.1446    2.5119    3.7075    3.6946    3.3922
  std. dev.         4.5495     2.959    3.2495    2.3218    3.3736    3.4165    4.7216     0.806    2.4124    2.1562    3.0049    3.9865
  weight sum          1989       598       971       177       503       940      1218      4415       399       182       285       509
  precision         1.1026    1.1026    1.1026    1.1026    1.1026    1.1026    1.1026    1.1026    1.1026    1.1026    1.1026    1.1026

2F1(Hz)
  mean            646.5551  360.7653  448.7867   455.282  347.8788  460.8448  328.7398   44.5148  407.9579  496.8996  479.4518  479.4162
  std. dev.       288.6109  273.6661  167.2097   257.875  165.9413  237.0895  295.0373  156.5878  229.4716  161.9561  324.8579   195.601
  weight sum          1989       598       971       177       503       940      1218      4415       399       182       285       509
  precision          0.438     0.438     0.438     0.438     0.438     0.438     0.438     0.438     0.438     0.438     0.438     0.438

2F2(Hz)
  mean           1415.1431 1203.2683 1697.5367 1319.8463  1816.924 1136.7816  997.5417  133.6667 1414.0003 1453.6687 1012.0156 1545.8774
  std. dev.       509.9497  863.2321  606.8332  697.8781  769.2522   583.467  855.3307  464.4562  704.2441  367.5538  498.3854  564.6387
  weight sum          1989       598       971       177       503       940      1218      4415       399       182       285       509
  precision         0.5776    0.5776    0.5776    0.5776    0.5776    0.5776    0.5776    0.5776    0.5776    0.5776    0.5776    0.5776

2F3(Hz)
  mean           2589.7585 1973.4712 2529.5236  2267.597 2497.6197 2424.0221 1723.3061   231.216 2386.6296 2793.2433 2541.1097 2642.9828
  std. dev.       897.5737  1390.456  892.9521 1184.2012 1063.4499 1093.5808 1456.2652  786.5164 1113.8644  599.9523  990.0091  879.1693
  weight sum          1989       598       971       177       503       940      1218      4415       399       182       285       509
  precision         0.8494    0.8494    0.8494    0.8494    0.8494    0.8494    0.8494    0.8494    0.8494    0.8494    0.8494    0.8494

2F4(Hz)
  mean           3011.8957 2241.2335 3071.5364  2669.134 2991.7043 2797.3211 1962.6476  277.5727 2816.2806 3271.8573 2890.5441  3030.656
  std. dev.      1031.5735 1568.3325 1053.8859 1361.3599 1236.9689  1248.566 1644.5911  942.5635 1281.9024  673.6241 1057.0684 1002.2946
  weight sum          1989       598       971       177       503       940      1218      4415       399       182       285       509
  precision         0.8707    0.8707    0.8707    0.8707    0.8707    0.8707    0.8707    0.8707    0.8707    0.8707    0.8707    0.8707

3Int(dB)
  mean             -4.6544  -15.2722   -5.5049  -14.3263   -9.1576   -8.3852  -19.5269  -50.5615  -12.4692   -8.3797   -5.5692  -10.5719
  std. dev.         9.8223   10.8417    8.2833    8.9225    8.3719   12.0282    9.5303    13.752    10.584    6.9795    7.6498     8.469
  weight sum          1989       598       971       177       503       940      1218      4415       399       182       285       509
  precision         0.1005    0.1005    0.1005    0.1005    0.1005    0.1005    0.1005    0.1005    0.1005    0.1005    0.1005    0.1005

3Pitch(Hz)
  mean             214.311  141.8343  189.9846   145.764  175.8084  180.3637  100.3715    9.3613  169.0755  193.7345  231.3108  179.1918
  std. dev.       106.3793  108.8526   87.3032  105.9069   73.8088  102.9621   108.791   43.0383  105.9927   88.2964   84.4017  100.8774
  weight sum          1989       598       971       177       503       940      1218      4415       399       182       285       509
  precision         0.1828    0.1828    0.1828    0.1828    0.1828    0.1828    0.1828    0.1828    0.1828    0.1828    0.1828    0.1828

3RawPitch
  mean            204.6048  118.7519  186.8578  119.8712  168.3408  174.1912   81.0403    7.3705   155.219  188.6822  222.5963  167.7543
  std. dev.       110.9966  106.4895   91.2535  101.1981   79.5481  108.1025  104.5276   36.8812  111.9695   95.9007   90.9444  108.5032
  weight sum          1989       598       971       177       503       940      1218      4415       399       182       285       509
  precision           0.19      0.19      0.19      0.19      0.19      0.19      0.19      0.19      0.19      0.19      0.19      0.19

3SmPitch
  mean            212.5582  132.6194  188.6266  135.2172  174.1996  178.2642   91.6506    8.0663  164.9116  192.9144  230.9021  177.0924
  std. dev.       107.6671  110.4481   88.6539  102.9917   75.9109  104.6347  107.0346     38.15  109.5012   89.8451   84.0603  102.5537
  weight sum          1989       598       971       177       503       940      1218      4415       399       182       285       509
  precision         0.1841    0.1841    0.1841    0.1841    0.1841    0.1841    0.1841    0.1841    0.1841    0.1841    0.1841    0.1841

3Melogram(st)
  mean             51.7631   36.0946   50.9897   40.8426    49.433   47.3663   27.1236    3.0773   44.2448   51.2049   54.7393    47.114
  std. dev.         15.996   26.0448   14.4101   23.1702   14.7392   19.6193     27.43    12.674   22.4965    14.175   13.2895    20.104
  weight sum          1989       598       971       177       503       940      1218      4415       399       182       285       509
  precision         0.0321    0.0321    0.0321    0.0321    0.0321    0.0321    0.0321    0.0321    0.0321    0.0321    0.0321    0.0321

3ZCross
  mean              6.6459    2.9371    4.8701    2.1179    3.5072    4.0889    2.7356    0.1006    2.3765    3.7378    3.8532    3.0932
  std. dev.         4.4895    3.1501    2.9907    2.1208    3.0758     2.998    4.8597    0.6802    2.1579    2.1488    2.8492     4.505
  weight sum          1989       598       971       177       503       940      1218      4415       399       182       285       509
  precision         1.1026    1.1026    1.1026    1.1026    1.1026    1.1026    1.1026    1.1026    1.1026    1.1026    1.1026    1.1026

3F1(Hz)
  mean            680.2157   353.978  469.1052  420.1259  370.0223  487.7924  286.1586   34.4973  391.9946  501.1355  504.5577  443.3981
  std. dev.       263.0262  268.8341  136.7924  268.8685  133.9826   218.941  291.2238  138.1621  227.7233  166.0339   299.786  197.6356
  weight sum          1989       598       971       177       503       940      1218      4415       399       182       285       509
  precision          0.438     0.438     0.438     0.438     0.438     0.438     0.438     0.438     0.438     0.438     0.438     0.438

3F2(Hz)
  mean           1457.3331 1190.2085 1803.6497 1256.0162 2010.9745 1164.8777  884.3737   104.217 1374.8709 1443.3798 1075.9553 1497.2713
  std. dev.       439.9568  854.4143  490.0179  726.8151  600.2718   526.346  864.3204  413.0626  707.8796  376.3503   411.661   601.804
  weight sum          1989       598       971       177       503       940      1218      4415       399       182       285       509
  precision         0.5776    0.5776    0.5776    0.5776    0.5776    0.5776    0.5776    0.5776    0.5776    0.5776    0.5776    0.5776

3F3(Hz)
  mean            2676.475 1973.0067 2651.8402 2156.9356 2714.2403 2529.7403 1519.7428  181.0662 2325.0319 2787.5447 2728.7599  2567.869
  std. dev.       781.3816 1390.4637  731.0473 1243.2456  831.8369  990.6689 1471.0412  703.4193 1133.6314  632.9234   731.591  958.5106
  weight sum          1989       598       971       177       503       940      1218      4415       399       182       285       509
  precision         0.8494    0.8494    0.8494    0.8494    0.8494    0.8494    0.8494    0.8494    0.8494    0.8494    0.8494    0.8494

3F4(Hz)
  mean            3105.401 2251.4792 3206.8695 2560.0986 3233.1412 2916.3463  1738.325  217.3507 2772.6162 3262.7057 3100.5588 2953.6299
  std. dev.       892.4908 1573.9832  845.6004 1438.2149  946.7373 1123.3047 1671.1582   842.771 1317.5612  714.9786  725.9921 1103.4238
  weight sum          1989       598       971       177       503       940      1218      4415       399       182       285       509
  precision         0.8707    0.8707    0.8707    0.8707    0.8707    0.8707    0.8707    0.8707    0.8707    0.8707    0.8707    0.8707





=== Stratified cross-validation ===

Correctly Classified Instances        5455               44.7645 %
Incorrectly Classified Instances      6731               55.2355 %
Kappa statistic                          0.3327
K&B Relative Info Score             360538.4142 %
K&B Information Score                10560.399  bits      0.8666 bits/instance
Class complexity | order 0           35676.2104 bits      2.9276 bits/instance
Class complexity | scheme           255794.9864 bits     20.9909 bits/instance
Complexity improvement     (Sf)    -220118.776  bits    -18.0633 bits/instance
Mean absolute error                      0.0921
Root mean squared error                  0.2882
Relative absolute error                 68.0855 %
Root relative squared error            110.7996 %
Coverage of cases (0.95 level)          51.2391 %
Mean rel. region size (0.95 level)      12.1013 %
Total Number of Instances            12186     


=== Detailed Accuracy By Class ===

                 TP Rate  FP Rate  Precision  Recall   F-Measure  MCC      ROC Area  PRC Area  Class
                 0,345    0,045    0,601      0,345    0,439      0,381    0,836     0,523     A
                 0,017    0,013    0,063      0,017    0,026      0,008    0,677     0,076     LGJKC
                 0,100    0,015    0,363      0,100    0,157      0,157    0,816     0,253     E
                 0,028    0,012    0,034      0,028    0,031      0,018    0,725     0,030     FV
                 0,225    0,025    0,277      0,225    0,248      0,221    0,849     0,239     I
                 0,005    0,003    0,128      0,005    0,010      0,011    0,715     0,154     O
                 0,270    0,059    0,336      0,270    0,299      0,233    0,746     0,276     SNRTY
                 0,904    0,085    0,858      0,904    0,881      0,811    0,944     0,882     0
                 0,003    0,004    0,023      0,003    0,005      -0,003   0,719     0,059     BMP
                 0,780    0,305    0,037      0,780    0,071      0,125    0,822     0,057     DZ
                 0,168    0,011    0,268      0,168    0,207      0,198    0,844     0,146     U
                 0,049    0,030    0,067      0,049    0,057      0,022    0,709     0,068     SNRTXY
Weighted Avg.    0,448    0,053    0,507      0,448    0,454      0,410    0,837     0,488     


=== Confusion Matrix ===

    a    b    c    d    e    f    g    h    i    j    k    l   <-- classified as
  687   54   56   19   50   19  102   67    2  840   51   42 |    a = A
   37   10   16   11   17    0  100  110    2  247    0   48 |    b = LGJKC
  103   27   97    8   76    7   47   35    3  520   18   30 |    c = E
   11    2    1    5    3    0   27   17    1   99    1   10 |    d = FV
   27   14   46    6  113    2   38   22    5  199    3   28 |    e = I
   87   21   23   22   45    5   62   84    3  529   40   19 |    f = O
   57   11   10   34   23    2  329  262   11  358   10  111 |    g = SNRTY
    9    4    2   23   15    3  150 3993    3  170    1   42 |    h = 0
   29    4    4    7   33    0   45   35    1  224    2   15 |    i = BMP
   15    0    3    3    1    0    6    4    2  142    2    4 |    j = DZ
   37   11    1    2   22    1   18    7    5  133   48    0 |    k = U
   44    0    8    5   10    0   55   16    5  338    3   25 |    l = SNRTXY

=== Percent Confusion Matrix ===
a	b	c	d	e	f	g	h	i	j	k	l	
34.54	2.71	2.82	0.96	2.51	0.96	5.13	3.37	0.1	42.23	2.56	2.11	 a = A
6.19	1.67	2.68	1.84	2.84	0.0	16.72	18.39	0.33	41.3	0.0	8.03	 b = LGJKC
10.61	2.78	9.99	0.82	7.83	0.72	4.84	3.6	0.31	53.55	1.85	3.09	 c = E
6.21	1.13	0.56	2.82	1.69	0.0	15.25	9.6	0.56	55.93	0.56	5.65	 d = FV
5.37	2.78	9.15	1.19	22.47	0.4	7.55	4.37	0.99	39.56	0.6	5.57	 e = I
9.26	2.23	2.45	2.34	4.79	0.53	6.6	8.94	0.32	56.28	4.26	2.02	 f = O
4.68	0.9	0.82	2.79	1.89	0.16	27.01	21.51	0.9	29.39	0.82	9.11	 g = SNRTY
0.2	0.09	0.05	0.52	0.34	0.07	3.4	90.44	0.07	3.85	0.02	0.95	 h = 0
7.27	1.0	1.0	1.75	8.27	0.0	11.28	8.77	0.25	56.14	0.5	3.76	 i = BMP
8.24	0.0	1.65	1.65	0.55	0.0	3.3	2.2	1.1	78.02	1.1	2.2	 j = DZ
12.98	3.86	0.35	0.7	7.72	0.35	6.32	2.46	1.75	46.67	16.84	0.0	 k = U
8.64	0.0	1.57	0.98	1.96	0.0	10.81	3.14	0.98	66.4	0.59	4.91	 l = SNRTXY
