Timestamp:2014-12-07-11:01:10
Inventario:I2
Intervalo:15ms
Ngramas:5
Clasificador:NaiveBayes
Relation Name:  I2-15ms-5gramas
Num Instances:  12185
Num Attributes: 51

     Name                      Type  Nom  Int Real     Missing      Unique  Dist
   1 0Int(dB)                   Num   0%  10%  90%     0 /  0%    10 /  0%   768 
   2 0Pitch(Hz)                 Num   0%  50%  50%     0 /  0%   940 /  8%  2714 
   3 0RawPitch                  Num   0%  53%  47%     0 /  0%   980 /  8%  2609 
   4 0SmPitch                   Num   0%  51%  49%     0 /  0%   957 /  8%  2691 
   5 0Melogram(st)              Num   0%  46%  54%     0 /  0%   837 /  7%  2573 
   6 0ZCross                    Num   0% 100%   0%     0 /  0%    10 /  0%    40 
   7 0F1(Hz)                    Num   0%  50%  50%     0 /  0%  2281 / 19%  3977 
   8 0F2(Hz)                    Num   0%  50%  50%     0 /  0%  3848 / 32%  5158 
   9 0F3(Hz)                    Num   0%  50%  50%     0 /  0%  3419 / 28%  4850 
  10 0F4(Hz)                    Num   0%  50%  50%     0 /  0%  3319 / 27%  4764 
  11 1Int(dB)                   Num   0%  10%  90%     0 /  0%    10 /  0%   768 
  12 1Pitch(Hz)                 Num   0%  50%  50%     0 /  0%   940 /  8%  2714 
  13 1RawPitch                  Num   0%  53%  47%     0 /  0%   980 /  8%  2609 
  14 1SmPitch                   Num   0%  51%  49%     0 /  0%   957 /  8%  2691 
  15 1Melogram(st)              Num   0%  46%  54%     0 /  0%   837 /  7%  2573 
  16 1ZCross                    Num   0% 100%   0%     0 /  0%    10 /  0%    40 
  17 1F1(Hz)                    Num   0%  50%  50%     0 /  0%  2281 / 19%  3977 
  18 1F2(Hz)                    Num   0%  50%  50%     0 /  0%  3848 / 32%  5158 
  19 1F3(Hz)                    Num   0%  50%  50%     0 /  0%  3419 / 28%  4850 
  20 1F4(Hz)                    Num   0%  50%  50%     0 /  0%  3319 / 27%  4764 
  21 2Int(dB)                   Num   0%  10%  90%     0 /  0%    10 /  0%   768 
  22 2Pitch(Hz)                 Num   0%  50%  50%     0 /  0%   940 /  8%  2714 
  23 2RawPitch                  Num   0%  53%  47%     0 /  0%   980 /  8%  2609 
  24 2SmPitch                   Num   0%  51%  49%     0 /  0%   957 /  8%  2691 
  25 2Melogram(st)              Num   0%  46%  54%     0 /  0%   837 /  7%  2573 
  26 2ZCross                    Num   0% 100%   0%     0 /  0%    10 /  0%    40 
  27 2F1(Hz)                    Num   0%  50%  50%     0 /  0%  2281 / 19%  3977 
  28 2F2(Hz)                    Num   0%  50%  50%     0 /  0%  3848 / 32%  5158 
  29 2F3(Hz)                    Num   0%  50%  50%     0 /  0%  3419 / 28%  4850 
  30 2F4(Hz)                    Num   0%  50%  50%     0 /  0%  3319 / 27%  4764 
  31 3Int(dB)                   Num   0%  10%  90%     0 /  0%    10 /  0%   768 
  32 3Pitch(Hz)                 Num   0%  50%  50%     0 /  0%   940 /  8%  2714 
  33 3RawPitch                  Num   0%  53%  47%     0 /  0%   980 /  8%  2609 
  34 3SmPitch                   Num   0%  51%  49%     0 /  0%   957 /  8%  2691 
  35 3Melogram(st)              Num   0%  46%  54%     0 /  0%   837 /  7%  2573 
  36 3ZCross                    Num   0% 100%   0%     0 /  0%    10 /  0%    40 
  37 3F1(Hz)                    Num   0%  50%  50%     0 /  0%  2281 / 19%  3977 
  38 3F2(Hz)                    Num   0%  50%  50%     0 /  0%  3848 / 32%  5158 
  39 3F3(Hz)                    Num   0%  50%  50%     0 /  0%  3419 / 28%  4850 
  40 3F4(Hz)                    Num   0%  50%  50%     0 /  0%  3319 / 27%  4764 
  41 4Int(dB)                   Num   0%  10%  90%     0 /  0%    10 /  0%   768 
  42 4Pitch(Hz)                 Num   0%  50%  50%     0 /  0%   941 /  8%  2715 
  43 4RawPitch                  Num   0%  53%  47%     0 /  0%   979 /  8%  2609 
  44 4SmPitch                   Num   0%  51%  49%     0 /  0%   957 /  8%  2691 
  45 4Melogram(st)              Num   0%  46%  54%     0 /  0%   838 /  7%  2574 
  46 4ZCross                    Num   0% 100%   0%     0 /  0%    10 /  0%    40 
  47 4F1(Hz)                    Num   0%  50%  50%     0 /  0%  2281 / 19%  3977 
  48 4F2(Hz)                    Num   0%  50%  50%     0 /  0%  3848 / 32%  5158 
  49 4F3(Hz)                    Num   0%  50%  50%     0 /  0%  3419 / 28%  4850 
  50 4F4(Hz)                    Num   0%  50%  50%     0 /  0%  3319 / 27%  4764 
  51 class                      Nom 100%   0%   0%     0 /  0%     0 /  0%    12 


Naive Bayes Classifier

                    Class
Attribute               A     LGJKC         E        FV         I         O     SNRTY         0       BMP        DZ         U    SNRTXY
                   (0.16)    (0.05)    (0.08)    (0.01)    (0.04)    (0.08)     (0.1)    (0.36)    (0.03)    (0.02)    (0.02)    (0.04)
========================================================================================================================================
0Int(dB)
  mean             -8.6178   -13.938   -11.785   -8.6687  -13.9957  -13.0905  -13.7652  -47.9666  -10.2759   -8.8476  -11.9663   -7.3272
  std. dev.        13.9467   15.0489   12.8986   12.0588   11.3129   14.0184   12.3769   17.2863   12.1022    8.0009   13.7701    8.3875
  weight sum          1989       598       971       177       503       940      1218      4414       399       182       285       509
  precision         0.1005    0.1005    0.1005    0.1005    0.1005    0.1005    0.1005    0.1005    0.1005    0.1005    0.1005    0.1005

0Pitch(Hz)
  mean            192.6576  153.6753  153.0375  179.6287  133.7228  155.9105  151.9296   20.3798  179.8992  186.1273  185.7384  195.5895
  std. dev.       123.2993  105.4315  103.8972   103.953   97.9308  117.3958  103.7103    61.369  105.1483   86.4563  132.3586   86.8246
  weight sum          1989       598       971       177       503       940      1218      4414       399       182       285       509
  precision         0.1828    0.1828    0.1828    0.1828    0.1828    0.1828    0.1828    0.1828    0.1828    0.1828    0.1828    0.1828

0RawPitch
  mean            183.1727  145.3775  144.5828  166.2658   118.792  146.8368  137.3811   17.1631  173.8506  167.6056  171.6991  185.2892
  std. dev.       124.9825  108.3535  106.5862  103.3211   99.1267  120.8184  108.5809   56.4371  106.7713    99.163   131.795   95.4414
  weight sum          1989       598       971       177       503       940      1218      4414       399       182       285       509
  precision           0.19      0.19      0.19      0.19      0.19      0.19      0.19      0.19      0.19      0.19      0.19      0.19

0SmPitch
  mean            190.2293  149.5066  149.0753  173.1916  130.2865  152.2588  146.9594   18.7257  180.2866   180.367   180.598  193.3837
  std. dev.       124.1476   107.123  106.3452  102.0399   98.3476  118.4966  105.9567   58.1994  104.7377   91.1566   131.965    89.052
  weight sum          1989       598       971       177       503       940      1218      4414       399       182       285       509
  precision         0.1841    0.1841    0.1841    0.1841    0.1841    0.1841    0.1841    0.1841    0.1841    0.1841    0.1841    0.1841

0Melogram(st)
  mean             45.8985   40.9963   41.6006   48.1518   37.8739   40.2674   41.0773    5.9899    47.725   49.8438   41.0172   50.9121
  std. dev.        22.6753   23.8588   23.5005   18.0734   24.4823   24.9104   23.5828   17.0581   19.8248   16.1694   27.0441   15.7405
  weight sum          1989       598       971       177       503       940      1218      4414       399       182       285       509
  precision         0.0321    0.0321    0.0321    0.0321    0.0321    0.0321    0.0321    0.0321    0.0321    0.0321    0.0321    0.0321

0ZCross
  mean              5.7795    3.3538    3.8959    4.4476    3.5159    3.3147    3.0289    0.3867    3.7028     3.544    3.6752    4.4059
  std. dev.         5.2032    3.0426     3.649    3.4388    4.6496    3.6649    3.1278    1.5809    3.2269     2.298      3.94    3.1307
  weight sum          1989       598       971       177       503       940      1218      4414       399       182       285       509
  precision         1.1026    1.1026    1.1026    1.1026    1.1026    1.1026    1.1026    1.1026    1.1026    1.1026    1.1026    1.1026

0F1(Hz)
  mean            544.9469  436.1347  388.8481  509.3179   327.902  385.1749  454.2205    70.658  431.6949  482.6709  419.7893  535.9529
  std. dev.       343.2522  244.9447   237.095  195.7216  249.1817   266.914  258.9686  194.4811  229.3067  193.7543  372.1684  193.4521
  weight sum          1989       598       971       177       503       940      1218      4414       399       182       285       509
  precision          0.438     0.438     0.438     0.438     0.438     0.438     0.438     0.438     0.438     0.438     0.438     0.438

0F2(Hz)
  mean            1278.689 1383.1174 1369.0863 1541.6786 1293.9645 1068.2508 1357.9059  208.2172 1458.7638 1373.5405   914.502  1600.188
  std. dev.       674.3769  754.0942  803.3837   580.665  912.4754  725.3498  712.5167  568.3554  713.6231   524.233  685.7093  518.1186
  weight sum          1989       598       971       177       503       940      1218      4414       399       182       285       509
  precision         0.5776    0.5776    0.5776    0.5776    0.5776    0.5776    0.5776    0.5776    0.5776    0.5776    0.5776    0.5776

0F3(Hz)
  mean           2312.3604 2300.6279 2150.7772 2580.8602  1972.427 2120.0995 2352.6759  358.7944 2423.0168 2598.4198 2080.2522 2723.7123
  std. dev.      1172.3148 1208.8374 1216.5845  904.0374 1368.1768 1296.1846 1186.8198  955.2144  1100.655  900.5549  1312.859  764.2171
  weight sum          1989       598       971       177       503       940      1218      4414       399       182       285       509
  precision         0.8494    0.8494    0.8494    0.8494    0.8494    0.8494    0.8494    0.8494    0.8494    0.8494    0.8494    0.8494

0F4(Hz)
  mean           2682.2288 2633.8197 2618.9863 3024.6427 2368.7133 2452.0691 2688.4109  429.1094 2836.6595 3041.7374 2397.0943 3142.9194
  std. dev.      1349.7388 1371.6608 1462.1662 1043.5972 1616.6699 1492.5677 1337.8972 1139.7345 1264.4821  1021.423 1469.4084  853.2572
  weight sum          1989       598       971       177       503       940      1218      4414       399       182       285       509
  precision         0.8707    0.8707    0.8707    0.8707    0.8707    0.8707    0.8707    0.8707    0.8707    0.8707    0.8707    0.8707

1Int(dB)
  mean             -7.5227  -15.0982  -10.1933  -10.0033  -12.9283  -11.9021  -15.1652  -48.6205  -10.7409   -7.6396   -10.704   -7.8371
  std. dev.        12.8902   15.0284   11.7847   11.6666   10.6057    13.325    12.151   16.5761    11.848    7.0858    12.611    8.5015
  weight sum          1989       598       971       177       503       940      1218      4414       399       182       285       509
  precision         0.1005    0.1005    0.1005    0.1005    0.1005    0.1005    0.1005    0.1005    0.1005    0.1005    0.1005    0.1005

1Pitch(Hz)
  mean            198.3964  145.1337  160.1808  172.3798  142.2505  161.5093  139.4835   17.8672   182.286   195.827  194.1405  194.8542
  std. dev.       119.0264  108.2039  100.9674  105.1479   94.8404  115.1424  107.1111   57.8415  103.6491   83.2188  126.5096    89.299
  weight sum          1989       598       971       177       503       940      1218      4414       399       182       285       509
  precision         0.1828    0.1828    0.1828    0.1828    0.1828    0.1828    0.1828    0.1828    0.1828    0.1828    0.1828    0.1828

1RawPitch
  mean            189.1921  136.2512  154.2988  153.4086  129.5623  151.8615  121.6356   14.8169  174.1149  183.2267   182.114  184.9029
  std. dev.       121.2248  110.0135  103.8965  106.4127   96.6501  118.7396  110.1475   52.5577  108.2118   94.7196   126.065   97.3892
  weight sum          1989       598       971       177       503       940      1218      4414       399       182       285       509
  precision           0.19      0.19      0.19      0.19      0.19      0.19      0.19      0.19      0.19      0.19      0.19      0.19

1SmPitch
  mean            196.3056   141.612  157.6884  163.5118  139.5184  158.3741  132.4247   16.1999   180.944  191.9464  187.9493  193.3461
  std. dev.       119.9266  109.4266  102.7097  103.8799   95.2859  116.4366  108.9151   54.1567  105.0311   87.1938  127.6747   91.1664
  weight sum          1989       598       971       177       503       940      1218      4414       399       182       285       509
  precision         0.1841    0.1841    0.1841    0.1841    0.1841    0.1841    0.1841    0.1841    0.1841    0.1841    0.1841    0.1841

1Melogram(st)
  mean             47.2817   38.7835   43.8321   46.4107   40.2909   42.1946   37.9298    5.2917   47.4283   51.8154   43.1507   50.4272
  std. dev.         21.441   24.9536   21.9994   19.5839   23.2502   23.8924    25.175   16.1544   19.8935   13.4505   25.8888   16.5272
  weight sum          1989       598       971       177       503       940      1218      4414       399       182       285       509
  precision         0.0321    0.0321    0.0321    0.0321    0.0321    0.0321    0.0321    0.0321    0.0321    0.0321    0.0321    0.0321

1ZCross
  mean              6.0089    3.1418    4.1877    3.8309    3.4173    3.5388    2.9628    0.3175    3.3547    3.7439    3.6946    4.0485
  std. dev.         5.0516    3.0455      3.51    3.1646    4.3415       3.7    3.6896    1.4497    3.0234    2.1983    3.7659    2.9526
  weight sum          1989       598       971       177       503       940      1218      4414       399       182       285       509
  precision         1.1026    1.1026    1.1026    1.1026    1.1026    1.1026    1.1026    1.1026    1.1026    1.1026    1.1026    1.1026

1F1(Hz)
  mean            569.5758  413.9212  399.5254   509.407  321.9794  400.7883   425.671   63.3036  448.4717  499.5952  423.1014  533.4641
  std. dev.       332.7507  258.0784  222.3308  214.6903  226.2374  262.7274  275.7631  185.2909  217.4863  164.2772  367.4317  182.6689
  weight sum          1989       598       971       177       503       940      1218      4414       399       182       285       509
  precision          0.438     0.438     0.438     0.438     0.438     0.438     0.438     0.438     0.438     0.438     0.438     0.438

1F2(Hz)
  mean           1311.4106 1332.3974 1442.8428 1487.4002 1417.0158 1071.2623 1268.3826  187.2709 1511.2562 1449.1907  901.2556 1618.0074
  std. dev.       638.9109  798.9948  776.7388  613.6935  915.8706   690.734  767.3095  542.7833  656.5641  420.1499  645.6145  490.7361
  weight sum          1989       598       971       177       503       940      1218      4414       399       182       285       509
  precision         0.5776    0.5776    0.5776    0.5776    0.5776    0.5776    0.5776    0.5776    0.5776    0.5776    0.5776    0.5776

1F3(Hz)
  mean           2380.1019 2199.9615 2225.9848 2511.3747  2074.489  2178.095  2202.525  321.9054 2536.1532 2754.2348 2131.2599 2756.2361
  std. dev.      1114.8824  1279.665 1160.7791  982.7376 1324.8705 1261.4257 1292.3331  911.1638 1002.0059  678.3251 1290.0635  716.9741
  weight sum          1989       598       971       177       503       940      1218      4414       399       182       285       509
  precision         0.8494    0.8494    0.8494    0.8494    0.8494    0.8494    0.8494    0.8494    0.8494    0.8494    0.8494    0.8494

1F4(Hz)
  mean           2767.4468 2505.1454   2718.69 2938.8695 2501.7838 2525.1794 2506.2579   385.557 2957.3618 3208.0544 2447.5687 3165.4097
  std. dev.      1285.9068 1445.5817 1397.2836 1127.8105 1568.3926 1454.2085 1454.4316 1088.8664 1139.4412  754.8142 1436.0304   800.649
  weight sum          1989       598       971       177       503       940      1218      4414       399       182       285       509
  precision         0.8707    0.8707    0.8707    0.8707    0.8707    0.8707    0.8707    0.8707    0.8707    0.8707    0.8707    0.8707

2Int(dB)
  mean             -6.2827  -16.3181   -8.2853  -11.8337  -11.4664  -10.3306  -16.9149  -49.3181  -11.7003   -7.3441        -9   -8.6881
  std. dev.        11.7372   14.4796   10.4618   10.8769    9.6852   12.5524   11.6271   15.6483   11.7463    6.5773   11.0737    8.5512
  weight sum          1989       598       971       177       503       940      1218      4414       399       182       285       509
  precision         0.1005    0.1005    0.1005    0.1005    0.1005    0.1005    0.1005    0.1005    0.1005    0.1005    0.1005    0.1005

2Pitch(Hz)
  mean            205.2843   136.696   171.376  161.8432  155.6275  170.5933  122.8116   15.1305  176.1634  197.3539  208.3385  190.0947
  std. dev.       113.8386  109.1156   96.7489  106.9302   89.3289  111.0794   109.382   53.6708  105.3804   83.7783  113.7908   93.9255
  weight sum          1989       598       971       177       503       940      1218      4414       399       182       285       509
  precision         0.1828    0.1828    0.1828    0.1828    0.1828    0.1828    0.1828    0.1828    0.1828    0.1828    0.1828    0.1828

2RawPitch
  mean            195.8224  124.6903  166.4294  138.8672  144.7636  160.9027  104.2532   12.3549   166.948  190.1855  197.8707   180.025
  std. dev.       117.0434  109.4376   99.7164  107.0856    91.976  115.9139  109.6156   47.9455  110.5987   92.9929  115.5032  101.5013
  weight sum          1989       598       971       177       503       940      1218      4414       399       182       285       509
  precision           0.19      0.19      0.19      0.19      0.19      0.19      0.19      0.19      0.19      0.19      0.19      0.19

2SmPitch
  mean            203.4414  132.0246  169.6121  150.9116  152.7216  167.6951  115.1483   13.4474  174.3874   195.611  204.0613  188.1182
  std. dev.       114.9465  110.1035     98.43  106.0938   90.5569  112.6857  109.7003   49.2552  107.0721   86.4955  114.8803   96.0801
  weight sum          1989       598       971       177       503       940      1218      4414       399       182       285       509
  precision         0.1841    0.1841    0.1841    0.1841    0.1841    0.1841    0.1841    0.1841    0.1841    0.1841    0.1841    0.1841

2Melogram(st)
  mean             49.1246   36.4058    46.364   44.3633   43.7828   44.5801   33.5564    4.5613   46.2526   52.3734   46.8237     49.51
  std. dev.        19.5383   25.7996   19.9773   21.0748   21.0046   22.3034   26.5879   15.1263   20.8639   12.3578     23.28   17.6598
  weight sum          1989       598       971       177       503       940      1218      4414       399       182       285       509
  precision         0.0321    0.0321    0.0321    0.0321    0.0321    0.0321    0.0321    0.0321    0.0321    0.0321    0.0321    0.0321

2ZCross
  mean              6.2828    2.8043    4.5363    3.0523    3.4129    3.8308    2.9175    0.2321    2.9291    3.7923    3.6211    3.6521
  std. dev.         4.8016    2.9484    3.4214     2.753    3.6124    3.7224    4.3304    1.1943    2.7939    2.1009    3.3263    3.2635
  weight sum          1989       598       971       177       503       940      1218      4414       399       182       285       509
  precision         1.1026    1.1026    1.1026    1.1026    1.1026    1.1026    1.1026    1.1026    1.1026    1.1026    1.1026    1.1026

2F1(Hz)
  mean            606.1779  385.3403  421.4711  494.2517  328.6039  427.7699  381.4887   54.1185  434.8028  501.7492  447.6356  512.6289
  std. dev.       314.3985   269.358  199.8827  234.8699  197.0056  253.7566  289.1504  172.0789  221.0826  156.3981  351.3336  186.4211
  weight sum          1989       598       971       177       503       940      1218      4414       399       182       285       509
  precision          0.438     0.438     0.438     0.438     0.438     0.438     0.438     0.438     0.438     0.438     0.438     0.438

2F2(Hz)
  mean           1360.0457 1265.2322 1557.4028 1421.4392 1600.4272 1095.9014 1146.3125  161.1779 1481.8564  1468.899  941.4183 1596.4035
  std. dev.       582.3985  841.2703  715.8668  646.1569  875.8818   642.731  821.5079   507.166    667.81  366.0398  583.0066  515.1935
  weight sum          1989       598       971       177       503       940      1218      4414       399       182       285       509
  precision         0.5776    0.5776    0.5776    0.5776    0.5776    0.5776    0.5776    0.5776    0.5776    0.5776    0.5776    0.5776

2F3(Hz)
  mean             2479.17 2072.8619 2361.5599 2423.2784 2260.1467   2286.61 1986.2426  277.7773 2496.4215 2807.4597 2306.2699 2720.9137
  std. dev.      1020.8902 1348.1575  1058.658 1066.6564 1230.4607 1195.8853  1392.779  854.4008 1031.3795  570.2892 1189.9252  773.3485
  weight sum          1989       598       971       177       503       940      1218      4414       399       182       285       509
  precision         0.8494    0.8494    0.8494    0.8494    0.8494    0.8494    0.8494    0.8494    0.8494    0.8494    0.8494    0.8494

2F4(Hz)
  mean           2885.4543 2353.1015 2879.2008  2839.318 2723.7025 2646.7638 2256.7553  332.7116 2926.4759 3271.3215 2634.9155 3119.4848
  std. dev.      1177.5077 1519.5588 1266.1181 1221.6089 1450.2143 1374.1393  1567.501 1021.3417 1176.9755   629.099 1307.4223  872.3667
  weight sum          1989       598       971       177       503       940      1218      4414       399       182       285       509
  precision         0.8707    0.8707    0.8707    0.8707    0.8707    0.8707    0.8707    0.8707    0.8707    0.8707    0.8707    0.8707

3Int(dB)
  mean             -5.1539  -16.3687   -6.5035  -13.4875  -10.0663   -8.9829  -18.6519  -50.0164  -12.6599   -8.0119   -7.1056   -9.6252
  std. dev.        10.4855   12.8506    9.1484    9.7297    8.7445   12.0392   10.6653   14.6151   11.4853    6.7561    9.4113    8.4319
  weight sum          1989       598       971       177       503       940      1218      4414       399       182       285       509
  precision         0.1005    0.1005    0.1005    0.1005    0.1005    0.1005    0.1005    0.1005    0.1005    0.1005    0.1005    0.1005

3Pitch(Hz)
  mean            211.6164  133.1982  183.4717   151.416  170.1872  178.6603  106.2716   12.1328   169.157  194.5985   222.874  184.6391
  std. dev.       108.5356  110.1644   90.6248  107.3372    80.118  105.9497  108.9904   48.3614  107.9278   87.0546   96.7144   98.2327
  weight sum          1989       598       971       177       503       940      1218      4414       399       182       285       509
  precision         0.1828    0.1828    0.1828    0.1828    0.1828    0.1828    0.1828    0.1828    0.1828    0.1828    0.1828    0.1828

3RawPitch
  mean            201.8512  115.9751  179.2232  126.9095  160.6735  170.2865   87.7632    9.8391  156.3794  189.0935  214.8787  173.8333
  std. dev.       112.7474  107.6868   94.3626  104.8815   84.5436  111.2599  106.7843   42.7299  112.6669   94.4871  100.3251  106.3527
  weight sum          1989       598       971       177       503       940      1218      4414       399       182       285       509
  precision           0.19      0.19      0.19      0.19      0.19      0.19      0.19      0.19      0.19      0.19      0.19      0.19

3SmPitch
  mean            209.8362  125.1499  181.7709  140.8054  167.6412  176.3381   98.1938   10.5874  166.7235    193.94  222.2202  182.6302
  std. dev.       109.8749  110.6016   92.0323    105.09   82.3894  107.6496  107.9403   43.6726  110.0496   88.2607    96.345  100.1783
  weight sum          1989       598       971       177       503       940      1218      4414       399       182       285       509
  precision         0.1841    0.1841    0.1841    0.1841    0.1841    0.1841    0.1841    0.1841    0.1841    0.1841    0.1841    0.1841

3Melogram(st)
  mean              50.884   34.5765    49.433   42.1057   47.5936    46.689   29.0344    3.8408   44.1038   51.8812   51.8876   48.1479
  std. dev.        17.3482   26.3479   16.6562   22.5058    17.453   20.4728   27.2332   14.0017   22.6152   13.0394   18.0236   19.1438
  weight sum          1989       598       971       177       503       940      1218      4414       399       182       285       509
  precision         0.0321    0.0321    0.0321    0.0321    0.0321    0.0321    0.0321    0.0321    0.0321    0.0321    0.0321    0.0321

3ZCross
  mean              6.5278    2.7306      4.81     2.392    3.4699    4.0255    2.8152    0.1446    2.5119    3.7075    3.6946    3.3922
  std. dev.         4.5495     2.959    3.2495    2.3218    3.3736    3.4165    4.7216     0.806    2.4124    2.1562    3.0049    3.9865
  weight sum          1989       598       971       177       503       940      1218      4414       399       182       285       509
  precision         1.1026    1.1026    1.1026    1.1026    1.1026    1.1026    1.1026    1.1026    1.1026    1.1026    1.1026    1.1026

3F1(Hz)
  mean            646.5551  360.7653  448.7867   455.282  347.8788  460.8448  328.7398   44.5249  407.9579  496.8996  479.4518  479.4162
  std. dev.       288.6109  273.6661  167.2097   257.875  165.9413  237.0895  295.0373  156.6041  229.4716  161.9561  324.8579   195.601
  weight sum          1989       598       971       177       503       940      1218      4414       399       182       285       509
  precision          0.438     0.438     0.438     0.438     0.438     0.438     0.438     0.438     0.438     0.438     0.438     0.438

3F2(Hz)
  mean           1415.1431 1203.2683 1697.5367 1319.8463  1816.924 1136.7816  997.5417   133.697 1414.0003 1453.6687 1012.0156 1545.8774
  std. dev.       509.9497  863.2321  606.8332  697.8781  769.2522   583.467  855.3307  464.5044  704.2441  367.5538  498.3854  564.6387
  weight sum          1989       598       971       177       503       940      1218      4414       399       182       285       509
  precision         0.5776    0.5776    0.5776    0.5776    0.5776    0.5776    0.5776    0.5776    0.5776    0.5776    0.5776    0.5776

3F3(Hz)
  mean           2589.7585 1973.4712 2529.5236  2267.597 2497.6197 2424.0221 1723.3061  231.2684 2386.6296 2793.2433 2541.1097 2642.9828
  std. dev.       897.5737  1390.456  892.9521 1184.2012 1063.4499 1093.5808 1456.2652  786.5978 1113.8644  599.9523  990.0091  879.1693
  weight sum          1989       598       971       177       503       940      1218      4414       399       182       285       509
  precision         0.8494    0.8494    0.8494    0.8494    0.8494    0.8494    0.8494    0.8494    0.8494    0.8494    0.8494    0.8494

3F4(Hz)
  mean           3011.8957 2241.2335 3071.5364  2669.134 2991.7043 2797.3211 1962.6476  277.6356 2816.2806 3271.8573 2890.5441  3030.656
  std. dev.      1031.5735 1568.3325 1053.8859 1361.3599 1236.9689  1248.566 1644.5911   942.661 1281.9024  673.6241 1057.0684 1002.2946
  weight sum          1989       598       971       177       503       940      1218      4414       399       182       285       509
  precision         0.8707    0.8707    0.8707    0.8707    0.8707    0.8707    0.8707    0.8707    0.8707    0.8707    0.8707    0.8707

4Int(dB)
  mean             -4.6544  -15.2722   -5.5049  -14.3263   -9.1576   -8.3852  -19.5269  -50.5629  -12.4692   -8.3797   -5.5692  -10.5719
  std. dev.         9.8223   10.8417    8.2833    8.9225    8.3719   12.0282    9.5303   13.7532    10.584    6.9795    7.6498     8.469
  weight sum          1989       598       971       177       503       940      1218      4414       399       182       285       509
  precision         0.1005    0.1005    0.1005    0.1005    0.1005    0.1005    0.1005    0.1005    0.1005    0.1005    0.1005    0.1005

4Pitch(Hz)
  mean             214.311  141.8343  189.9846   145.764  175.8084  180.3637  100.3715    9.3634  169.0755  193.7345  231.3108  179.1918
  std. dev.       106.3793  108.8526   87.3032  105.9069   73.8088  102.9621   108.791    43.043  105.9927   88.2964   84.4017  100.8774
  weight sum          1989       598       971       177       503       940      1218      4414       399       182       285       509
  precision         0.1828    0.1828    0.1828    0.1828    0.1828    0.1828    0.1828    0.1828    0.1828    0.1828    0.1828    0.1828

4RawPitch
  mean            204.6048  118.7519  186.8578  119.8712  168.3408  174.1912   81.0403    7.3722   155.219  188.6822  222.5963  167.7543
  std. dev.       110.9966  106.4895   91.2535  101.1981   79.5481  108.1025  104.5276   36.8853  111.9695   95.9007   90.9444  108.5032
  weight sum          1989       598       971       177       503       940      1218      4414       399       182       285       509
  precision           0.19      0.19      0.19      0.19      0.19      0.19      0.19      0.19      0.19      0.19      0.19      0.19

4SmPitch
  mean            212.5582  132.6194  188.6266  135.2172  174.1996  178.2642   91.6506    8.0681  164.9116  192.9144  230.9021  177.0924
  std. dev.       107.6671  110.4481   88.6539  102.9917   75.9109  104.6347  107.0346   38.1541  109.5012   89.8451   84.0603  102.5537
  weight sum          1989       598       971       177       503       940      1218      4414       399       182       285       509
  precision         0.1841    0.1841    0.1841    0.1841    0.1841    0.1841    0.1841    0.1841    0.1841    0.1841    0.1841    0.1841

4Melogram(st)
  mean             51.7631   36.0946   50.9897   40.8426    49.433   47.3663   27.1236     3.078   44.2448   51.2049   54.7393    47.114
  std. dev.         15.996   26.0448   14.4101   23.1702   14.7392   19.6193     27.43   12.6754   22.4965    14.175   13.2895    20.104
  weight sum          1989       598       971       177       503       940      1218      4414       399       182       285       509
  precision         0.0321    0.0321    0.0321    0.0321    0.0321    0.0321    0.0321    0.0321    0.0321    0.0321    0.0321    0.0321

4ZCross
  mean              6.6459    2.9371    4.8701    2.1179    3.5072    4.0889    2.7356    0.1007    2.3765    3.7378    3.8532    3.0932
  std. dev.         4.4895    3.1501    2.9907    2.1208    3.0758     2.998    4.8597    0.6803    2.1579    2.1488    2.8492     4.505
  weight sum          1989       598       971       177       503       940      1218      4414       399       182       285       509
  precision         1.1026    1.1026    1.1026    1.1026    1.1026    1.1026    1.1026    1.1026    1.1026    1.1026    1.1026    1.1026

4F1(Hz)
  mean            680.2157   353.978  469.1052  420.1259  370.0223  487.7924  286.1586   34.5051  391.9946  501.1355  504.5577  443.3981
  std. dev.       263.0262  268.8341  136.7924  268.8685  133.9826   218.941  291.2238  138.1768  227.7233  166.0339   299.786  197.6356
  weight sum          1989       598       971       177       503       940      1218      4414       399       182       285       509
  precision          0.438     0.438     0.438     0.438     0.438     0.438     0.438     0.438     0.438     0.438     0.438     0.438

4F2(Hz)
  mean           1457.3331 1190.2085 1803.6497 1256.0162 2010.9745 1164.8777  884.3737  104.2406 1374.8709 1443.3798 1075.9553 1497.2713
  std. dev.       439.9568  854.4143  490.0179  726.8151  600.2718   526.346  864.3204  413.1064  707.8796  376.3503   411.661   601.804
  weight sum          1989       598       971       177       503       940      1218      4414       399       182       285       509
  precision         0.5776    0.5776    0.5776    0.5776    0.5776    0.5776    0.5776    0.5776    0.5776    0.5776    0.5776    0.5776

4F3(Hz)
  mean            2676.475 1973.0067 2651.8402 2156.9356 2714.2403 2529.7403 1519.7428  181.1072 2325.0319 2787.5447 2728.7599  2567.869
  std. dev.       781.3816 1390.4637  731.0473 1243.2456  831.8369  990.6689 1471.0412  703.4937 1133.6314  632.9234   731.591  958.5106
  weight sum          1989       598       971       177       503       940      1218      4414       399       182       285       509
  precision         0.8494    0.8494    0.8494    0.8494    0.8494    0.8494    0.8494    0.8494    0.8494    0.8494    0.8494    0.8494

4F4(Hz)
  mean            3105.401 2251.4792 3206.8695 2560.0986 3233.1412 2916.3463  1738.325     217.4 2772.6162 3262.7057 3100.5588 2953.6299
  std. dev.       892.4908 1573.9832  845.6004 1438.2149  946.7373 1123.3047 1671.1582  842.8601 1317.5612  714.9786  725.9921 1103.4238
  weight sum          1989       598       971       177       503       940      1218      4414       399       182       285       509
  precision         0.8707    0.8707    0.8707    0.8707    0.8707    0.8707    0.8707    0.8707    0.8707    0.8707    0.8707    0.8707





=== Stratified cross-validation ===

Correctly Classified Instances        5354               43.9393 %
Incorrectly Classified Instances      6831               56.0607 %
Kappa statistic                          0.3253
K&B Relative Info Score             347192.8275 %
K&B Information Score                10169.961  bits      0.8346 bits/instance
Class complexity | order 0           35674.7455 bits      2.9278 bits/instance
Class complexity | scheme           298191.333  bits     24.472  bits/instance
Complexity improvement     (Sf)    -262516.5875 bits    -21.5442 bits/instance
Mean absolute error                      0.0935
Root mean squared error                  0.2915
Relative absolute error                 69.0666 %
Root relative squared error            112.0794 %
Coverage of cases (0.95 level)          49.0029 %
Mean rel. region size (0.95 level)      11.5374 %
Total Number of Instances            12185     


=== Detailed Accuracy By Class ===

                 TP Rate  FP Rate  Precision  Recall   F-Measure  MCC      ROC Area  PRC Area  Class
                 0,321    0,040    0,610      0,321    0,420      0,370    0,829     0,510     A
                 0,017    0,012    0,068      0,017    0,027      0,010    0,677     0,076     LGJKC
                 0,059    0,014    0,264      0,059    0,096      0,091    0,808     0,226     E
                 0,028    0,015    0,027      0,028    0,028      0,013    0,738     0,031     FV
                 0,235    0,031    0,245      0,235    0,240      0,208    0,841     0,219     I
                 0,006    0,005    0,091      0,006    0,012      0,004    0,711     0,150     O
                 0,278    0,059    0,342      0,278    0,307      0,240    0,753     0,284     SNRTY
                 0,897    0,077    0,868      0,897    0,883      0,814    0,942     0,881     0
                 0,000    0,002    0,000      0,000    0,000      -0,009   0,722     0,060     BMP
                 0,753    0,289    0,038      0,753    0,072      0,123    0,817     0,065     DZ
                 0,140    0,013    0,203      0,140    0,166      0,152    0,840     0,120     U
                 0,086    0,053    0,066      0,086    0,075      0,029    0,721     0,072     SNRTXY
Weighted Avg.    0,439    0,051    0,498      0,439    0,447      0,403    0,835     0,482     


=== Confusion Matrix ===

    a    b    c    d    e    f    g    h    i    j    k    l   <-- classified as
  638   46   55   20   77   34   88   73    1  803   68   86 |    a = A
   35   10    7   20   19    0  100   98    0  239    1   69 |    b = LGJKC
   78   23   57    7  102   15   44   31    3  478   18  115 |    c = E
   11    3    0    5    2    0   26   14    1   93    1   21 |    d = FV
   21   14   26    5  118    0   35   23    3  186    2   70 |    e = I
   81   25   28   19   62    6   61   83    3  511   42   19 |    f = O
   51   12   14   49   23    3  339  227    4  341    7  148 |    g = SNRTY
   11    2    4   35   13    4  167 3960    4  156    2   56 |    h = 0
   27    2   10    6   27    0   50   30    0  209    6   32 |    i = BMP
   12    0    8    4    2    0    7    3    1  137    3    5 |    j = DZ
   39    9    2    2   29    3   17    7    6  131   40    0 |    k = U
   42    0    5   13    8    1   56   11    2  320    7   44 |    l = SNRTXY

=== Percent Confusion Matrix ===
a	b	c	d	e	f	g	h	i	j	k	l	
32.08	2.31	2.77	1.01	3.87	1.71	4.42	3.67	0.05	40.37	3.42	4.32	 a = A
5.85	1.67	1.17	3.34	3.18	0.0	16.72	16.39	0.0	39.97	0.17	11.54	 b = LGJKC
8.03	2.37	5.87	0.72	10.5	1.54	4.53	3.19	0.31	49.23	1.85	11.84	 c = E
6.21	1.69	0.0	2.82	1.13	0.0	14.69	7.91	0.56	52.54	0.56	11.86	 d = FV
4.17	2.78	5.17	0.99	23.46	0.0	6.96	4.57	0.6	36.98	0.4	13.92	 e = I
8.62	2.66	2.98	2.02	6.6	0.64	6.49	8.83	0.32	54.36	4.47	2.02	 f = O
4.19	0.99	1.15	4.02	1.89	0.25	27.83	18.64	0.33	28.0	0.57	12.15	 g = SNRTY
0.25	0.05	0.09	0.79	0.29	0.09	3.78	89.71	0.09	3.53	0.05	1.27	 h = 0
6.77	0.5	2.51	1.5	6.77	0.0	12.53	7.52	0.0	52.38	1.5	8.02	 i = BMP
6.59	0.0	4.4	2.2	1.1	0.0	3.85	1.65	0.55	75.27	1.65	2.75	 j = DZ
13.68	3.16	0.7	0.7	10.18	1.05	5.96	2.46	2.11	45.96	14.04	0.0	 k = U
8.25	0.0	0.98	2.55	1.57	0.2	11.0	2.16	0.39	62.87	1.38	8.64	 l = SNRTXY
