Timestamp:2014-12-07-11:00:36
Inventario:I2
Intervalo:10ms
Ngramas:3
Clasificador:NaiveBayes
Relation Name:  I2-10ms-3gramas
Num Instances:  18294
Num Attributes: 31

     Name                      Type  Nom  Int Real     Missing      Unique  Dist
   1 0Int(dB)                   Num   0%  10%  90%     0 /  0%     7 /  0%   772 
   2 0Pitch(Hz)                 Num   0%  51%  49%     0 /  0%   816 /  4%  3063 
   3 0RawPitch                  Num   0%  54%  46%     0 /  0%   853 /  5%  2955 
   4 0SmPitch                   Num   0%  52%  48%     0 /  0%   827 /  5%  3024 
   5 0Melogram(st)              Num   0%  47%  53%     0 /  0%   581 /  3%  2807 
   6 0ZCross                    Num   0% 100%   0%     0 /  0%    10 /  0%    42 
   7 0F1(Hz)                    Num   0%  51%  49%     0 /  0%  2131 / 12%  4724 
   8 0F2(Hz)                    Num   0%  51%  49%     0 /  0%  4210 / 23%  6615 
   9 0F3(Hz)                    Num   0%  51%  49%     0 /  0%  3688 / 20%  6145 
  10 0F4(Hz)                    Num   0%  51%  49%     0 /  0%  3689 / 20%  6054 
  11 1Int(dB)                   Num   0%  10%  90%     0 /  0%     7 /  0%   772 
  12 1Pitch(Hz)                 Num   0%  51%  49%     0 /  0%   816 /  4%  3063 
  13 1RawPitch                  Num   0%  54%  46%     0 /  0%   853 /  5%  2955 
  14 1SmPitch                   Num   0%  52%  48%     0 /  0%   827 /  5%  3024 
  15 1Melogram(st)              Num   0%  47%  53%     0 /  0%   581 /  3%  2807 
  16 1ZCross                    Num   0% 100%   0%     0 /  0%    10 /  0%    42 
  17 1F1(Hz)                    Num   0%  51%  49%     0 /  0%  2131 / 12%  4724 
  18 1F2(Hz)                    Num   0%  51%  49%     0 /  0%  4210 / 23%  6615 
  19 1F3(Hz)                    Num   0%  51%  49%     0 /  0%  3688 / 20%  6145 
  20 1F4(Hz)                    Num   0%  51%  49%     0 /  0%  3689 / 20%  6054 
  21 2Int(dB)                   Num   0%  10%  90%     0 /  0%     7 /  0%   772 
  22 2Pitch(Hz)                 Num   0%  51%  49%     0 /  0%   817 /  4%  3064 
  23 2RawPitch                  Num   0%  54%  46%     0 /  0%   854 /  5%  2956 
  24 2SmPitch                   Num   0%  52%  48%     0 /  0%   828 /  5%  3025 
  25 2Melogram(st)              Num   0%  47%  53%     0 /  0%   582 /  3%  2808 
  26 2ZCross                    Num   0% 100%   0%     0 /  0%    10 /  0%    42 
  27 2F1(Hz)                    Num   0%  51%  49%     0 /  0%  2131 / 12%  4724 
  28 2F2(Hz)                    Num   0%  51%  49%     0 /  0%  4210 / 23%  6615 
  29 2F3(Hz)                    Num   0%  51%  49%     0 /  0%  3688 / 20%  6145 
  30 2F4(Hz)                    Num   0%  51%  49%     0 /  0%  3689 / 20%  6054 
  31 class                      Nom 100%   0%   0%     0 /  0%     0 /  0%    12 


Naive Bayes Classifier

                    Class
Attribute               A     LGJKC         E        FV         I         O     SNRTY         0       BMP        DZ         U    SNRTXY
                   (0.16)    (0.05)    (0.08)    (0.01)    (0.04)    (0.08)     (0.1)    (0.37)    (0.03)    (0.02)    (0.02)    (0.04)
========================================================================================================================================
0Int(dB)
  mean             -5.2562  -16.7872   -6.9781   -13.453  -10.5648   -9.2289   -18.453  -48.9829  -12.6892   -7.9197    -7.821   -9.3157
  std. dev.        10.6845   13.6225     9.587    9.9848    9.3802   12.1503    11.019   15.8892   11.7406    6.6725   10.4376    8.3827
  weight sum          2940       894      1438       261       748      1377      1790      6796       594       274       423       759
  precision         0.1005    0.1005    0.1005    0.1005    0.1005    0.1005    0.1005    0.1005    0.1005    0.1005    0.1005    0.1005

0Pitch(Hz)
  mean            210.9077   127.861  179.7817  147.5196  161.7269  175.9738  103.8371   15.5414  166.9471  197.2304  217.8099  186.4846
  std. dev.       110.2129  111.3138   93.2543  107.4902   84.8365  108.3955  109.1799   54.3341  109.8658   86.8545   101.251    97.581
  weight sum          2940       894      1438       261       748      1377      1790      6796       594       274       423       759
  precision         0.1626    0.1626    0.1626    0.1626    0.1626    0.1626    0.1626    0.1626    0.1626    0.1626    0.1626    0.1626

0RawPitch
  mean            200.2188  112.5077  175.0704  125.4184  151.7646  167.5572   85.4064   12.9568  153.9342  191.0767  208.6619  173.7598
  std. dev.       115.2026  109.6756    97.669  107.1313   87.9735  114.1306   106.321   49.1179  113.8843   95.3647  106.1879   106.756
  weight sum          2940       894      1438       261       748      1377      1790      6796       594       274       423       759
  precision         0.1679    0.1679    0.1679    0.1679    0.1679    0.1679    0.1679    0.1679    0.1679    0.1679    0.1679    0.1679

0SmPitch
  mean            208.5725   122.414  177.2466  139.8605  159.4793  173.3248   97.7238   13.9203  163.7838  195.7809  215.6213  184.2524
  std. dev.       111.9157  112.2582   95.7152  105.8427   85.9419   110.039  108.3165   50.3031  111.3474    89.259  102.5619   99.6578
  weight sum          2940       894      1438       261       748      1377      1790      6796       594       274       423       759
  precision         0.1647    0.1647    0.1647    0.1647    0.1647    0.1647    0.1647    0.1647    0.1647    0.1647    0.1647    0.1647

0Melogram(st)
  mean             50.4189   33.7316   48.2348   41.8303   45.5707   45.7502   28.8911    4.6135   43.8398   52.1878   50.2186   48.2165
  std. dev.        18.0558   26.5337   18.1696   22.7672   19.4988   21.3432   27.2764   15.1924   22.8015   12.6868   19.9908   19.1612
  weight sum          2940       894      1438       261       748      1377      1790      6796       594       274       423       759
  precision         0.0294    0.0294    0.0294    0.0294    0.0294    0.0294    0.0294    0.0294    0.0294    0.0294    0.0294    0.0294

0ZCross
  mean              6.5747    2.6172     4.777    2.4071    3.3008    3.9062    2.8352    0.2452    2.4526    3.5572    3.5022    3.3773
  std. dev.         4.6892    3.0428    3.5473    2.4072    3.5385    3.5254    4.7753    1.2666    2.4563    2.1965    3.0347    4.0625
  weight sum          2940       894      1438       261       748      1377      1790      6796       594       274       423       759
  precision         1.2927    1.2927    1.2927    1.2927    1.2927    1.2927    1.2927    1.2927    1.2927    1.2927    1.2927    1.2927

0F1(Hz)
  mean            637.5745  357.2365  432.7945  457.1842    337.77   450.362  331.0012   53.5772  403.2101  496.7666  460.9396  487.1003
  std. dev.       296.9353  275.3498  184.6991   256.028  176.2367  244.3368  297.4485  169.3511  236.5419  165.6401  335.9081  196.4015
  weight sum          2940       894      1438       261       748      1377      1790      6796       594       274       423       759
  precision         0.3688    0.3688    0.3688    0.3688    0.3688    0.3688    0.3688    0.3688    0.3688    0.3688    0.3688    0.3688

0F2(Hz)
  mean           1400.9882 1186.7313 1632.6744 1322.7123 1742.2077 1117.1452  993.8968  162.6355  1390.089 1453.0514  979.7948 1548.2318
  std. dev.       529.3561   868.972   673.554  699.8891  822.2232  603.6027  854.6129  507.4221    729.41  382.9596  538.5145  557.6152
  weight sum          2940       894      1438       261       748      1377      1790      6796       594       274       423       759
  precision         0.4504    0.4504    0.4504    0.4504    0.4504    0.4504    0.4504    0.4504    0.4504    0.4504    0.4504    0.4504

0F3(Hz)
  mean           2565.6797 1943.5027 2447.1049 2268.6436 2408.7343 2373.7752 1712.7279  279.3828 2335.5553 2804.1068 2430.7754 2656.3699
  std. dev.       931.4867 1396.0253  996.0136  1175.068 1138.7559 1134.1201 1449.6521  854.3516  1153.522  617.0332  1089.578  867.9656
  weight sum          2940       894      1438       261       748      1377      1790      6796       594       274       423       759
  precision         0.6705    0.6705    0.6705    0.6705    0.6705    0.6705    0.6705    0.6705    0.6705    0.6705    0.6705    0.6705

0F4(Hz)
  mean           2978.0599 2219.1628  2953.752 2681.0905 2889.2593 2740.1433 1966.8349  336.4594  2763.331 3256.2582 2777.4425 3036.1861
  std. dev.      1069.8428 1582.3661 1176.1247 1356.4028 1330.8507 1297.7013 1651.1451 1026.7447  1333.663  689.7267 1184.8746   984.873
  weight sum          2940       894      1438       261       748      1377      1790      6796       594       274       423       759
  precision         0.6851    0.6851    0.6851    0.6851    0.6851    0.6851    0.6851    0.6851    0.6851    0.6851    0.6851    0.6851

1Int(dB)
  mean             -4.6583  -16.2401   -5.9386   -14.457   -9.6878    -8.538  -19.4109  -49.4521  -12.9285   -8.3922    -6.523   -9.9414
  std. dev.         9.9884   12.2596    8.7524    9.1174    8.9009   12.0283    10.127   15.1913   11.2858    6.7514    9.2325    8.3293
  weight sum          2940       894      1438       261       748      1377      1790      6796       594       274       423       759
  precision         0.1005    0.1005    0.1005    0.1005    0.1005    0.1005    0.1005    0.1005    0.1005    0.1005    0.1005    0.1005

1Pitch(Hz)
  mean            214.2999  128.6817  187.1289  141.0758   169.624   180.298   94.3626   13.6898  164.0251  195.7221  226.0414  182.2135
  std. dev.       107.3554  111.0053   89.1848  107.2369   79.3475  104.9788  107.8024   51.1501  110.3131   89.0024   90.8899  100.0054
  weight sum          2940       894      1438       261       748      1377      1790      6796       594       274       423       759
  precision         0.1626    0.1626    0.1626    0.1626    0.1626    0.1626    0.1626    0.1626    0.1626    0.1626    0.1626    0.1626

1RawPitch
  mean            203.4999  110.9701  182.7671  118.1042  160.2257  173.1119   75.5633   11.1138  151.3042  190.1364  217.7899  169.4048
  std. dev.        112.824  109.0129   93.8486  105.1012   83.7348   111.182   102.955   45.2383  114.0339   97.1465   96.3272  108.9815
  weight sum          2940       894      1438       261       748      1377      1790      6796       594       274       423       759
  precision         0.1679    0.1679    0.1679    0.1679    0.1679    0.1679    0.1679    0.1679    0.1679    0.1679    0.1679    0.1679

1SmPitch
  mean            212.0791  121.6063  185.0532  133.6333  167.3233  177.9648   87.8612   12.1427  160.0578  194.9849  225.0495  179.9486
  std. dev.       109.1565  112.5705    91.154  104.9032   80.6951  106.8233  106.1184     46.89  112.2555   90.4121   91.3186  101.9152
  weight sum          2940       894      1438       261       748      1377      1790      6796       594       274       423       759
  precision         0.1647    0.1647    0.1647    0.1647    0.1647    0.1647    0.1647    0.1647    0.1647    0.1647    0.1647    0.1647

1Melogram(st)
  mean             51.3965     33.39   50.1673   40.1599   47.7876   46.7989   26.1691    4.1827   42.9332   51.7352   52.9506   47.2852
  std. dev.        16.7239    26.631    15.729   23.6891   17.1488   20.3195   27.3031   14.5496   23.4206   13.4859   16.4082   20.0308
  weight sum          2940       894      1438       261       748      1377      1790      6796       594       274       423       759
  precision         0.0294    0.0294    0.0294    0.0294    0.0294    0.0294    0.0294    0.0294    0.0294    0.0294    0.0294    0.0294

1ZCross
  mean              6.7426    2.7459    4.8777    2.0356    3.3458    4.0104    2.7652    0.1759    2.2633    3.4959    3.6091    3.1747
  std. dev.         4.6066    3.3195    3.2885    2.1197    3.3619    3.2415    4.9851    0.9112    2.1902    2.1909     2.929     4.441
  weight sum          2940       894      1438       261       748      1377      1790      6796       594       274       423       759
  precision         1.2927    1.2927    1.2927    1.2927    1.2927    1.2927    1.2927    1.2927    1.2927    1.2927    1.2927    1.2927

1F1(Hz)
  mean            664.8149  343.0599  452.4055  427.4933  353.4925  474.0843  295.3809   46.3563  387.8062   498.733  482.6221  460.7272
  std. dev.       276.6469  275.0916  159.6131  266.6231  155.8578  229.5879  296.5686  157.5769  236.7462  169.3003  319.3509  200.6921
  weight sum          2940       894      1438       261       748      1377      1790      6796       594       274       423       759
  precision         0.3688    0.3688    0.3688    0.3688    0.3688    0.3688    0.3688    0.3688    0.3688    0.3688    0.3688    0.3688

1F2(Hz)
  mean           1438.6375 1150.3033 1730.4304 1255.6134 1886.1841 1149.4791  894.1643  141.6984 1355.9289 1445.7075 1027.4385 1508.1246
  std. dev.       474.1145   873.282  583.9406  728.5852  727.5947  557.6755  862.1798  475.9233   740.105  386.9614  482.4236    590.94
  weight sum          2940       894      1438       261       748      1377      1790      6796       594       274       423       759
  precision         0.4504    0.4504    0.4504    0.4504    0.4504    0.4504    0.4504    0.4504    0.4504    0.4504    0.4504    0.4504

1F3(Hz)
  mean           2639.6428  1897.303 2566.2209 2161.8658 2569.2982 2474.5963 1537.2883   243.839 2275.3297 2794.9126 2578.9648 2594.0512
  std. dev.       836.6339 1417.1772  864.4824 1236.4745 1001.9819 1047.0894 1464.7026  803.7972 1178.2882  636.9647   937.242  937.3283
  weight sum          2940       894      1438       261       748      1377      1790      6796       594       274       423       759
  precision         0.6705    0.6705    0.6705    0.6705    0.6705    0.6705    0.6705    0.6705    0.6705    0.6705    0.6705    0.6705

1F4(Hz)
  mean           3062.2428 2159.8942 3090.2109 2569.1202 3069.7504 2853.8724 1768.7383  293.9451  2712.388 3253.5853 2942.8419 2972.1824
  std. dev.        957.834  1601.298 1010.4123  1435.181 1158.3793 1192.6404 1673.0189  966.7807 1372.7244  716.7462  994.8814 1071.9421
  weight sum          2940       894      1438       261       748      1377      1790      6796       594       274       423       759
  precision         0.6851    0.6851    0.6851    0.6851    0.6851    0.6851    0.6851    0.6851    0.6851    0.6851    0.6851    0.6851

2Int(dB)
  mean             -4.4871  -15.2573   -5.4216  -14.8768   -9.1229   -8.3525  -19.6701  -49.8209  -12.4295   -8.4296   -5.5461  -10.5318
  std. dev.         9.7495    10.927    8.2134    8.5952    8.6417   12.1594    9.5288    14.616   10.5978    6.9616    7.9501     8.325
  weight sum          2940       894      1438       261       748      1377      1790      6796       594       274       423       759
  precision         0.1005    0.1005    0.1005    0.1005    0.1005    0.1005    0.1005    0.1005    0.1005    0.1005    0.1005    0.1005

2Pitch(Hz)
  mean            215.0265  137.3922  190.3918  138.4937  173.2212  179.1301   92.2528   11.8136  166.0775  195.1331  230.9859  180.0702
  std. dev.       106.7631  110.1699   87.4257  106.1938   75.5653   103.979  107.9322   47.9018  107.8218   90.1576   83.0165  101.0521
  weight sum          2940       894      1438       261       748      1377      1790      6796       594       274       423       759
  precision         0.1626    0.1626    0.1626    0.1626    0.1626    0.1626    0.1626    0.1626    0.1626    0.1626    0.1626    0.1626

2RawPitch
  mean            204.5729  116.3073  186.9416  114.3432  164.8509  172.8881   72.9898    9.4611  152.1597  189.7645  221.8351  166.2729
  std. dev.       112.2304  108.9258   92.1579  102.4081   80.9322  110.0663  101.5246   41.8753   112.921   97.5291   90.5835  110.4658
  weight sum          2940       894      1438       261       748      1377      1790      6796       594       274       423       759
  precision         0.1679    0.1679    0.1679    0.1679    0.1679    0.1679    0.1679    0.1679    0.1679    0.1679    0.1679    0.1679

2SmPitch
  mean            213.0261   128.625  188.8901  131.3637   170.918  177.1958   85.9766    10.224   161.354  194.7762  230.1655  177.2448
  std. dev.       108.3889  112.6617   88.8533  103.6517   77.6434  105.5718  106.0894   43.0567   110.475   90.8856   83.5323  103.3036
  weight sum          2940       894      1438       261       748      1377      1790      6796       594       274       423       759
  precision         0.1647    0.1647    0.1647    0.1647    0.1647    0.1647    0.1647    0.1647    0.1647    0.1647    0.1647    0.1647

2Melogram(st)
  mean             51.7443    35.144    50.757   39.8199   48.7629   46.9889   25.4753    3.6603   43.3262   51.4874   54.7081   46.6828
  std. dev.        16.1385   26.3517   14.7786   23.9008   15.7624   20.0024   27.3689   13.7168   23.0622    13.878      13.2   20.5693
  weight sum          2940       894      1438       261       748      1377      1790      6796       594       274       423       759
  precision         0.0294    0.0294    0.0294    0.0294    0.0294    0.0294    0.0294    0.0294    0.0294    0.0294    0.0294    0.0294

2ZCross
  mean              6.8081    2.9064    4.8831     1.892    3.3285    4.0329    2.7507    0.1408    2.2589    3.6374     3.713    2.9907
  std. dev.         4.5857    3.4356    3.1607    1.9842    3.1155    2.9611    5.0596    0.7914    2.0707    2.2054    2.8728    4.7609
  weight sum          2940       894      1438       261       748      1377      1790      6796       594       274       423       759
  precision         1.2927    1.2927    1.2927    1.2927    1.2927    1.2927    1.2927    1.2927    1.2927    1.2927    1.2927    1.2927

2F1(Hz)
  mean            684.8624  343.2191  467.7497  399.7197  366.3373  488.3137  268.2924   40.0701  383.8168  501.2874  499.4556  437.8799
  std. dev.       260.7635  271.7997  137.6849  273.4014  136.8258  220.1308  291.6443  146.5336  232.2972  170.6693   302.477  199.7748
  weight sum          2940       894      1438       261       748      1377      1790      6796       594       274       423       759
  precision         0.3688    0.3688    0.3688    0.3688    0.3688    0.3688    0.3688    0.3688    0.3688    0.3688    0.3688    0.3688

2F2(Hz)
  mean             1462.31 1149.6364 1804.3312 1203.5318 1998.9223 1157.6298  822.9576  123.4876 1349.6905 1443.6267 1072.0404 1480.9848
  std. dev.       430.5852  861.6155  496.1344  754.0967  624.7892  525.4581  861.1325   446.987  728.3086  393.2262  424.8655  609.8719
  weight sum          2940       894      1438       261       748      1377      1790      6796       594       274       423       759
  precision         0.4504    0.4504    0.4504    0.4504    0.4504    0.4504    0.4504    0.4504    0.4504    0.4504    0.4504    0.4504

2F3(Hz)
  mean           2687.7356 1918.2772 2653.2835 2069.2644 2693.2397 2526.8298  1411.417  212.0685 2268.8241 2791.7189 2703.6172 2551.1384
  std. dev.       764.2898 1413.3864  742.6344 1282.9054  863.6174  995.0347 1463.9451   754.286 1165.0514  658.6982  758.4179  977.5902
  weight sum          2940       894      1438       261       748      1377      1790      6796       594       274       423       759
  precision         0.6705    0.6705    0.6705    0.6705    0.6705    0.6705    0.6705    0.6705    0.6705    0.6705    0.6705    0.6705

2F4(Hz)
  mean           3116.7672 2186.2274 3189.0151 2471.0333 3209.5559 2910.5036 1625.0449  256.0406 2720.5333 3246.4091 3086.4504 2930.4338
  std. dev.       872.2076  1597.389  856.4692 1495.7988  985.3806 1127.9374 1675.2068  908.4214 1363.5495  742.7362  766.0819 1124.8723
  weight sum          2940       894      1438       261       748      1377      1790      6796       594       274       423       759
  precision         0.6851    0.6851    0.6851    0.6851    0.6851    0.6851    0.6851    0.6851    0.6851    0.6851    0.6851    0.6851





=== Stratified cross-validation ===

Correctly Classified Instances        8936               48.8466 %
Incorrectly Classified Instances      9358               51.1534 %
Kappa statistic                          0.3696
K&B Relative Info Score             637104.7969 %
K&B Information Score                18535.4245 bits      1.0132 bits/instance
Class complexity | order 0           53205.4817 bits      2.9084 bits/instance
Class complexity | scheme           306104.6577 bits     16.7325 bits/instance
Complexity improvement     (Sf)    -252899.1759 bits    -13.8242 bits/instance
Mean absolute error                      0.0854
Root mean squared error                  0.2669
Relative absolute error                 63.481  %
Root relative squared error            102.9144 %
Coverage of cases (0.95 level)          59.1451 %
Mean rel. region size (0.95 level)      14.5389 %
Total Number of Instances            18294     


=== Detailed Accuracy By Class ===

                 TP Rate  FP Rate  Precision  Recall   F-Measure  MCC      ROC Area  PRC Area  Class
                 0,446    0,053    0,617      0,446    0,518      0,450    0,864     0,584     A
                 0,020    0,013    0,076      0,020    0,032      0,014    0,686     0,081     LGJKC
                 0,337    0,043    0,400      0,337    0,366      0,318    0,842     0,351     E
                 0,042    0,020    0,030      0,042    0,035      0,019    0,730     0,030     FV
                 0,295    0,029    0,300      0,295    0,298      0,268    0,854     0,259     I
                 0,006    0,002    0,195      0,006    0,011      0,022    0,764     0,180     O
                 0,226    0,043    0,362      0,226    0,278      0,227    0,753     0,288     SNRTY
                 0,909    0,111    0,828      0,909    0,867      0,785    0,955     0,934     0
                 0,005    0,002    0,070      0,005    0,009      0,010    0,718     0,058     BMP
                 0,697    0,243    0,042      0,697    0,079      0,127    0,816     0,051     DZ
                 0,229    0,007    0,422      0,229    0,297      0,299    0,852     0,249     U
                 0,008    0,008    0,041      0,008    0,013      -0,000   0,708     0,068     SNRTXY
Weighted Avg.    0,488    0,064    0,519      0,488    0,485      0,434    0,855     0,536     


=== Confusion Matrix ===

    a    b    c    d    e    f    g    h    i    j    k    l   <-- classified as
 1312   65  181   51   59   16  103  119    0  986   34   14 |    a = A
   60   18   65   25   40    4  127  206    5  320    5   19 |    b = LGJKC
  164   44  485   16   87    4   59   52    9  496   14    8 |    c = E
   22    3   14   11   10    0   29   44    1  123    0    4 |    d = FV
   43   26  219   11  221    1   53   36    3  129    2    4 |    e = I
  192   36   93   49   30    8   65  130    2  710   53    9 |    f = O
  103   16   52   85   75    2  405  555   12  432    7   46 |    g = SNRTY
   19    3   26   57   68    3  135 6179    5  272    4   25 |    h = 0
   46    6   18   22   71    0   49   82    3  275   12   10 |    i = BMP
   40    0   12    3   10    0    9    7    0  191    0    2 |    j = DZ
   54   19    9    7   15    3   18   10    2  189   97    0 |    k = U
   73    1   37   30   51    0   67   39    1  452    2    6 |    l = SNRTXY

=== Percent Confusion Matrix ===
a	b	c	d	e	f	g	h	i	j	k	l	
44.63	2.21	6.16	1.73	2.01	0.54	3.5	4.05	0.0	33.54	1.16	0.48	 a = A
6.71	2.01	7.27	2.8	4.47	0.45	14.21	23.04	0.56	35.79	0.56	2.13	 b = LGJKC
11.4	3.06	33.73	1.11	6.05	0.28	4.1	3.62	0.63	34.49	0.97	0.56	 c = E
8.43	1.15	5.36	4.21	3.83	0.0	11.11	16.86	0.38	47.13	0.0	1.53	 d = FV
5.75	3.48	29.28	1.47	29.55	0.13	7.09	4.81	0.4	17.25	0.27	0.53	 e = I
13.94	2.61	6.75	3.56	2.18	0.58	4.72	9.44	0.15	51.56	3.85	0.65	 f = O
5.75	0.89	2.91	4.75	4.19	0.11	22.63	31.01	0.67	24.13	0.39	2.57	 g = SNRTY
0.28	0.04	0.38	0.84	1.0	0.04	1.99	90.92	0.07	4.0	0.06	0.37	 h = 0
7.74	1.01	3.03	3.7	11.95	0.0	8.25	13.8	0.51	46.3	2.02	1.68	 i = BMP
14.6	0.0	4.38	1.09	3.65	0.0	3.28	2.55	0.0	69.71	0.0	0.73	 j = DZ
12.77	4.49	2.13	1.65	3.55	0.71	4.26	2.36	0.47	44.68	22.93	0.0	 k = U
9.62	0.13	4.87	3.95	6.72	0.0	8.83	5.14	0.13	59.55	0.26	0.79	 l = SNRTXY
