Timestamp:2014-12-07-10:53:26
Inventario:I2
Intervalo:1ms
Ngramas:3
Clasificador:NaiveBayes
Relation Name:  I2-1ms-3gramas
Num Instances:  183402
Num Attributes: 31

     Name                      Type  Nom  Int Real     Missing      Unique  Dist
   1 0Int(dB)                   Num   0%   9%  91%     0 /  0%     3 /  0%   780 
   2 0Pitch(Hz)                 Num   0%  51%  49%     0 /  0%   256 /  0%  4213 
   3 0RawPitch                  Num   0%  55%  45%     0 /  0%   417 /  0%  4119 
   4 0SmPitch                   Num   0%  53%  47%     0 /  0%   263 /  0%  4193 
   5 0Melogram(st)              Num   0%  49%  51%     0 /  0%   133 /  0%  3454 
   6 0ZCross                    Num   0% 100%   0%     0 /  0%     4 /  0%    58 
   7 0F1(Hz)                    Num   0%  52%  48%     0 /  0%  1154 /  1%  4824 
   8 0F2(Hz)                    Num   0%  52%  48%     0 /  0%  2223 /  1%  6697 
   9 0F3(Hz)                    Num   0%  53%  47%     0 /  0%  1930 /  1%  6200 
  10 0F4(Hz)                    Num   0%  52%  48%     0 /  0%  1933 /  1%  6096 
  11 1Int(dB)                   Num   0%   9%  91%     0 /  0%     4 /  0%   781 
  12 1Pitch(Hz)                 Num   0%  51%  49%     0 /  0%   256 /  0%  4213 
  13 1RawPitch                  Num   0%  55%  45%     0 /  0%   417 /  0%  4119 
  14 1SmPitch                   Num   0%  53%  47%     0 /  0%   263 /  0%  4193 
  15 1Melogram(st)              Num   0%  49%  51%     0 /  0%   133 /  0%  3454 
  16 1ZCross                    Num   0% 100%   0%     0 /  0%     4 /  0%    58 
  17 1F1(Hz)                    Num   0%  52%  48%     0 /  0%  1154 /  1%  4824 
  18 1F2(Hz)                    Num   0%  52%  48%     0 /  0%  2223 /  1%  6697 
  19 1F3(Hz)                    Num   0%  53%  47%     0 /  0%  1930 /  1%  6200 
  20 1F4(Hz)                    Num   0%  52%  48%     0 /  0%  1933 /  1%  6096 
  21 2Int(dB)                   Num   0%   9%  91%     0 /  0%     3 /  0%   781 
  22 2Pitch(Hz)                 Num   0%  51%  49%     0 /  0%   256 /  0%  4213 
  23 2RawPitch                  Num   0%  55%  45%     0 /  0%   417 /  0%  4119 
  24 2SmPitch                   Num   0%  53%  47%     0 /  0%   263 /  0%  4193 
  25 2Melogram(st)              Num   0%  49%  51%     0 /  0%   133 /  0%  3454 
  26 2ZCross                    Num   0% 100%   0%     0 /  0%     4 /  0%    58 
  27 2F1(Hz)                    Num   0%  52%  48%     0 /  0%  1154 /  1%  4824 
  28 2F2(Hz)                    Num   0%  52%  48%     0 /  0%  2223 /  1%  6697 
  29 2F3(Hz)                    Num   0%  53%  47%     0 /  0%  1930 /  1%  6200 
  30 2F4(Hz)                    Num   0%  52%  48%     0 /  0%  1933 /  1%  6096 
  31 class                      Nom 100%   0%   0%     0 /  0%     0 /  0%    12 


Naive Bayes Classifier

                    Class
Attribute               A     LGJKC         E        FV         I         O     SNRTY         0       BMP        DZ         U    SNRTXY
                   (0.16)    (0.05)    (0.07)    (0.01)    (0.04)    (0.07)    (0.09)    (0.39)    (0.03)    (0.01)    (0.02)    (0.04)
========================================================================================================================================
0Int(dB)
  mean             -4.2125  -15.2817   -5.1527  -15.0454   -8.6835   -8.1232  -19.7743  -48.0652  -12.4222   -8.2397   -5.1335  -10.5362
  std. dev.         9.5923   11.0228    8.0415    8.8688     8.344   12.1734    9.4019   16.3662   10.6829    6.7613    7.6759    8.3375
  weight sum         28557      8827     13740      2561      7083     13234     17273     72115      5814      2682      4137      7379
  precision         0.1039    0.1039    0.1039    0.1039    0.1039    0.1039    0.1039    0.1039    0.1039    0.1039    0.1039    0.1039

0Pitch(Hz)
  mean            215.2862  130.2057  190.0442  130.2645  172.8092  178.3926   80.5427   17.1388  159.0019  197.3124  229.1151  175.1361
  std. dev.       108.6186  111.8446   88.0362  107.3679   76.7258  105.3465  105.1349   56.9505  111.4961   89.0479   84.6861  103.4439
  weight sum         28557      8827     13740      2561      7083     13234     17273     72115      5814      2682      4137      7379
  precision         0.1184    0.1184    0.1184    0.1184    0.1184    0.1184    0.1184    0.1184    0.1184    0.1184    0.1184    0.1184

0RawPitch
  mean            204.8389  107.1298  185.3904  105.2473  165.1915  172.5714   61.8293   14.0524  147.2724  190.7376  220.3812  161.0075
  std. dev.       115.4661   110.328   95.8388  103.6816   84.2064  113.2081   98.8094   51.6498  116.8386    99.018   93.3578  113.3286
  weight sum         28557      8827     13740      2561      7083     13234     17273     72115      5814      2682      4137      7379
  precision         0.1214    0.1214    0.1214    0.1214    0.1214    0.1214    0.1214    0.1214    0.1214    0.1214    0.1214    0.1214

0SmPitch
  mean            213.3047  120.4751  188.5286  120.0376  170.4162  176.1475   73.7749   15.5182  154.4932  196.6822  228.5834   172.275
  std. dev.       110.1891   112.932   89.2681  104.6493   79.2706  107.6301  102.9106    53.252  114.0328    90.157   85.0153  105.3435
  weight sum         28557      8827     13740      2561      7083     13234     17273     72115      5814      2682      4137      7379
  precision          0.119     0.119     0.119     0.119     0.119     0.119     0.119     0.119     0.119     0.119     0.119     0.119

0Melogram(st)
  mean             51.2207   32.5429   50.3338   36.5638   48.3994   46.4929   21.6531    5.0368   41.2442   51.7211   54.0407   45.7847
  std. dev.        17.1322   26.9619    15.575    25.185   16.3496   20.5401   26.7947   15.7743   24.4436   13.8647   14.2925   21.2462
  weight sum         28557      8827     13740      2561      7083     13234     17273     72115      5814      2682      4137      7379
  precision         0.0239    0.0239    0.0239    0.0239    0.0239    0.0239    0.0239    0.0239    0.0239    0.0239    0.0239    0.0239

0ZCross
  mean              7.3168    3.1362    5.2522    2.0494    3.7306    4.3707     2.927    0.2663    2.4891    3.9674    4.0724    3.2287
  std. dev.          4.734    3.8509    3.3232    2.2106    3.2938    3.0828    5.4507     1.162    2.2391     2.323    2.9865    5.0675
  weight sum         28557      8827     13740      2561      7083     13234     17273     72115      5814      2682      4137      7379
  precision         1.0175    1.0175    1.0175    1.0175    1.0175    1.0175    1.0175    1.0175    1.0175    1.0175    1.0175    1.0175

0F1(Hz)
  mean              680.68  326.2827  463.9738   380.668  361.4648  484.0118  241.6386   55.2552  370.2872  504.5848  498.5025  427.9406
  std. dev.       272.1801  274.3902  146.1336  278.7586  144.5804  226.7963  288.5204  168.6102  237.6445  171.1324  308.2875  203.9722
  weight sum         28557      8827     13740      2561      7083     13234     17273     72115      5814      2682      4137      7379
  precision         0.3611    0.3611    0.3611    0.3611    0.3611    0.3611    0.3611    0.3611    0.3611    0.3611    0.3611    0.3611

0F2(Hz)
  mean           1440.7973 1103.0941 1786.3109 1161.6312 1973.7484 1138.3786  740.3879  173.0675 1302.7636 1448.0724 1052.4199 1453.7384
  std. dev.       457.3774  877.4428  528.1199  781.5797  671.6296  536.2083  853.6484  522.6785  752.0998   392.072  425.1574  627.3309
  weight sum         28557      8827     13740      2561      7083     13234     17273     72115      5814      2682      4137      7379
  precision         0.4448    0.4448    0.4448    0.4448    0.4448    0.4448    0.4448    0.4448    0.4448    0.4448    0.4448    0.4448

0F3(Hz)
  mean            2651.859 1835.3062 2620.1056 1979.1395 2654.8736 2496.9201 1269.3092  295.0862 2193.5767 2798.3149 2674.1003 2509.1896
  std. dev.        818.296 1439.5195  787.0306 1320.5796  926.0878 1027.3116 1452.9179  876.1293 1210.8731  667.4265  785.3599 1018.0469
  weight sum         28557      8827     13740      2561      7083     13234     17273     72115      5814      2682      4137      7379
  precision         0.6646    0.6646    0.6646    0.6646    0.6646    0.6646    0.6646    0.6646    0.6646    0.6646    0.6646    0.6646

0F4(Hz)
  mean           3076.1686 2091.6564  3156.326 2367.2839 3155.7849 2872.8522 1456.8854  354.6228 2635.3487 3240.8949 3065.6415 2882.7536
  std. dev.       935.4026 1627.3765  913.7122 1544.4726 1058.3659 1164.6509  1656.947 1050.4882 1423.2744  749.1185  804.1571 1171.4868
  weight sum         28557      8827     13740      2561      7083     13234     17273     72115      5814      2682      4137      7379
  precision         0.6804    0.6804    0.6804    0.6804    0.6804    0.6804    0.6804    0.6804    0.6804    0.6804    0.6804    0.6804

1Int(dB)
  mean             -4.2297  -15.1279   -5.1597   -15.033   -8.6607   -8.1449   -19.719  -48.0905  -12.3149   -8.1898   -5.0726  -10.5889
  std. dev.         9.5985   10.9181    8.0314    8.8639    8.3453   12.1979    9.4101   16.3155   10.6245     6.778    7.5754    8.3522
  weight sum         28557      8827     13740      2561      7083     13234     17273     72115      5814      2682      4137      7379
  precision         0.1037    0.1037    0.1037    0.1037    0.1037    0.1037    0.1037    0.1037    0.1037    0.1037    0.1037    0.1037

1Pitch(Hz)
  mean            215.2062  131.3222   190.258  129.9494  173.0302  178.1206    80.726    16.961  159.4679  197.2987  229.3502  174.9119
  std. dev.       108.6869  111.8114   87.8928  107.2999   76.4927   105.326  105.3113   56.6733  111.1515   89.0771   84.2123  103.5626
  weight sum         28557      8827     13740      2561      7083     13234     17273     72115      5814      2682      4137      7379
  precision         0.1184    0.1184    0.1184    0.1184    0.1184    0.1184    0.1184    0.1184    0.1184    0.1184    0.1184    0.1184

1RawPitch
  mean            204.7785  108.1262  185.5139  104.9895  165.4701   172.363   61.9657   13.9203  147.7852  190.6234  220.5579  160.5262
  std. dev.       115.5309  110.5989   95.7233   103.475   84.0796  113.1234   98.9134   51.4522  116.6168   98.9787   92.9298   113.497
  weight sum         28557      8827     13740      2561      7083     13234     17273     72115      5814      2682      4137      7379
  precision         0.1214    0.1214    0.1214    0.1214    0.1214    0.1214    0.1214    0.1214    0.1214    0.1214    0.1214    0.1214

1SmPitch
  mean             213.264   121.491  188.8112  119.7549  170.6319  175.8934    73.927   15.3489  154.8892  196.7053  228.8462  171.8701
  std. dev.       110.2131  113.0073   89.0812  104.5511   79.0959   107.593  103.0654   52.9677  113.7583   90.1193   84.5411  105.5581
  weight sum         28557      8827     13740      2561      7083     13234     17273     72115      5814      2682      4137      7379
  precision          0.119     0.119     0.119     0.119     0.119     0.119     0.119     0.119     0.119     0.119     0.119     0.119

1Melogram(st)
  mean             51.2183   32.7653    50.379   36.5095   48.4716   46.4586   21.6786    4.9859   41.3724   51.7505     54.16   45.7142
  std. dev.        17.1271   26.9386   15.5007   25.2094   16.2405   20.5573    26.812   15.7046   24.3658   13.7974   14.0434     21.31
  weight sum         28557      8827     13740      2561      7083     13234     17273     72115      5814      2682      4137      7379
  precision         0.0239    0.0239    0.0239    0.0239    0.0239    0.0239    0.0239    0.0239    0.0239    0.0239    0.0239    0.0239

1ZCross
  mean              7.3101    3.1551    5.2408    2.0498    3.7393    4.3663    2.9398    0.2635     2.508    3.9977    4.0771    3.2216
  std. dev.         4.7386    3.8413    3.3253    2.2131    3.2999     3.087    5.4505    1.1594     2.237    2.3251    2.9819    5.0733
  weight sum         28557      8827     13740      2561      7083     13234     17273     72115      5814      2682      4137      7379
  precision         1.0175    1.0175    1.0175    1.0175    1.0175    1.0175    1.0175    1.0175    1.0175    1.0175    1.0175    1.0175

1F1(Hz)
  mean            682.1503  326.9586  465.3474  378.3582  362.5437  485.0896  239.6286   54.6953  370.4332  505.0486  499.8715  425.8434
  std. dev.        271.133  274.0281  144.1266  278.5939  142.9356  226.1543  287.7014  167.7972  237.1009  171.1736  306.7882  203.9356
  weight sum         28557      8827     13740      2561      7083     13234     17273     72115      5814      2682      4137      7379
  precision         0.3611    0.3611    0.3611    0.3611    0.3611    0.3611    0.3611    0.3611    0.3611    0.3611    0.3611    0.3611

1F2(Hz)
  mean           1442.2136  1104.763 1793.0334 1159.1061 1983.2786  1138.672  735.4168   171.346 1303.2526 1448.0931 1056.4734 1450.7411
  std. dev.       454.4964  875.8232  519.5885  783.4471  662.5587  533.7441  852.8372  520.3678  750.2659  392.9271  419.7581  629.1582
  weight sum         28557      8827     13740      2561      7083     13234     17273     72115      5814      2682      4137      7379
  precision         0.4448    0.4448    0.4448    0.4448    0.4448    0.4448    0.4448    0.4448    0.4448    0.4448    0.4448    0.4448

1F3(Hz)
  mean           2655.0761 1840.1201 2628.2257 1972.9814 2665.7831 2500.7441 1260.1713  292.1102 2194.6698 2798.0476 2684.8467  2504.354
  std. dev.       813.9125 1438.2967  775.3306  1322.667  914.1503 1023.7463 1451.1961   872.183 1208.1856  669.7534  768.1272 1022.0293
  weight sum         28557      8827     13740      2561      7083     13234     17273     72115      5814      2682      4137      7379
  precision         0.6646    0.6646    0.6646    0.6646    0.6646    0.6646    0.6646    0.6646    0.6646    0.6646    0.6646    0.6646

1F4(Hz)
  mean           3079.4149  2097.926  3165.364 2361.3224 3167.5238 2876.6923 1447.1659  351.1292 2638.4197 3239.8651 3077.7233 2877.8508
  std. dev.       930.1153  1626.376  898.8907 1547.6942 1043.4405 1160.0433 1656.0288 1045.9775 1420.8135  751.6295  781.3188 1176.6795
  weight sum         28557      8827     13740      2561      7083     13234     17273     72115      5814      2682      4137      7379
  precision         0.6804    0.6804    0.6804    0.6804    0.6804    0.6804    0.6804    0.6804    0.6804    0.6804    0.6804    0.6804

2Int(dB)
  mean              -4.254  -14.9678   -5.1788  -15.0107    -8.647   -8.1757  -19.6536   -48.118  -12.2049   -8.1344   -5.0188  -10.6411
  std. dev.         9.6114   10.8189    8.0296     8.868    8.3528   12.2243    9.4301   16.2753   10.5691    6.7971    7.4803    8.3704
  weight sum         28557      8827     13740      2561      7083     13234     17273     72115      5814      2682      4137      7379
  precision         0.1037    0.1037    0.1037    0.1037    0.1037    0.1037    0.1037    0.1037    0.1037    0.1037    0.1037    0.1037

2Pitch(Hz)
  mean            215.1081  132.4771  190.4015  129.6994  173.2101  177.8211   80.9904   16.7879  159.9332  197.2811  229.5826  174.6755
  std. dev.       108.7696  111.7771   87.7758  107.2959   76.2773  105.3227  105.5148   56.4054  110.8047   89.0991   83.7347  103.6934
  weight sum         28557      8827     13740      2561      7083     13234     17273     72115      5814      2682      4137      7379
  precision         0.1184    0.1184    0.1184    0.1184    0.1184    0.1184    0.1184    0.1184    0.1184    0.1184    0.1184    0.1184

2RawPitch
  mean            204.7122   109.152  185.6605    104.69  165.7379  172.1393   62.1577   13.7657  148.2899  190.4432  220.7885  160.1302
  std. dev.       115.5921   110.843   95.6276  103.2429   83.9735  113.0491   99.0319   51.2115  116.3341   98.9727   92.5273  113.6492
  weight sum         28557      8827     13740      2561      7083     13234     17273     72115      5814      2682      4137      7379
  precision         0.1214    0.1214    0.1214    0.1214    0.1214    0.1214    0.1214    0.1214    0.1214    0.1214    0.1214    0.1214

2SmPitch
  mean            213.2106  122.5657  189.0092  119.5928  170.7795  175.6214   74.1645   15.1795  155.3207  196.7284  229.0387  171.4678
  std. dev.       110.2529  113.0809   88.9353  104.4955    78.963  107.5646  103.2478   52.6864  113.4664   90.0706   84.1352  105.7741
  weight sum         28557      8827     13740      2561      7083     13234     17273     72115      5814      2682      4137      7379
  precision          0.119     0.119     0.119     0.119     0.119     0.119     0.119     0.119     0.119     0.119     0.119     0.119

2Melogram(st)
  mean             51.2091   33.0011   50.4242   36.4608   48.5268   46.3993     21.73    4.9363    41.496   51.7797   54.2789   45.6436
  std. dev.        17.1327   26.9118   15.4261   25.2383   16.1496   20.5969   26.8358   15.6359   24.2847   13.7295   13.7888   21.3732
  weight sum         28557      8827     13740      2561      7083     13234     17273     72115      5814      2682      4137      7379
  precision         0.0239    0.0239    0.0239    0.0239    0.0239    0.0239    0.0239    0.0239    0.0239    0.0239    0.0239    0.0239

2ZCross
  mean              7.3004    3.1718    5.2275    2.0522    3.7468    4.3624    2.9555    0.2613    2.5306    4.0262    4.0827    3.2165
  std. dev.         4.7448    3.8289     3.329    2.2158    3.3104    3.0942    5.4506     1.158    2.2366    2.3277    2.9766    5.0775
  weight sum         28557      8827     13740      2561      7083     13234     17273     72115      5814      2682      4137      7379
  precision         1.0175    1.0175    1.0175    1.0175    1.0175    1.0175    1.0175    1.0175    1.0175    1.0175    1.0175    1.0175

2F1(Hz)
  mean            683.5492   327.868   466.604  376.1761  363.6076   485.985   237.758   54.1452  370.5749  505.4969  501.0702  423.9395
  std. dev.       270.1486  273.5809  142.2478  278.4193  141.3453  225.6523  286.8682   167.001   236.559  171.2455  305.5336  203.7829
  weight sum         28557      8827     13740      2561      7083     13234     17273     72115      5814      2682      4137      7379
  precision         0.3611    0.3611    0.3611    0.3611    0.3611    0.3611    0.3611    0.3611    0.3611    0.3611    0.3611    0.3611

2F2(Hz)
  mean           1443.5164 1107.0558 1799.2434 1156.6522 1992.3968  1138.609  730.9378  169.6356 1303.9361  1448.146 1060.1575 1448.1831
  std. dev.       451.7609  873.9897  511.5475  785.3266  653.6523   531.629  852.0875  518.0391  748.5317  393.8005  414.9703  630.5403
  weight sum         28557      8827     13740      2561      7083     13234     17273     72115      5814      2682      4137      7379
  precision         0.4448    0.4448    0.4448    0.4448    0.4448    0.4448    0.4448    0.4448    0.4448    0.4448    0.4448    0.4448

2F3(Hz)
  mean           2658.1212 1846.1724 2635.6414 1966.8613 2676.2267 2503.6829 1251.9866  289.1632 2195.7732 2797.7777 2694.2989 2500.2386
  std. dev.       809.8058 1436.6578   764.297 1324.7402   902.456 1021.0061 1449.7111  868.2206 1205.5074  672.0457   752.613 1025.1734
  weight sum         28557      8827     13740      2561      7083     13234     17273     72115      5814      2682      4137      7379
  precision         0.6646    0.6646    0.6646    0.6646    0.6646    0.6646    0.6646    0.6646    0.6646    0.6646    0.6646    0.6646

2F4(Hz)
  mean           3082.4058 2105.6195 3173.7603 2355.3511 3178.8998 2879.5448 1438.3759  347.6746 2641.4866 3238.8126 3088.1777 2873.9184
  std. dev.       925.1344 1624.8954  884.9534 1550.8738 1028.8621 1156.4562 1655.1492 1041.4777 1418.3454    754.11  760.6201 1180.9413
  weight sum         28557      8827     13740      2561      7083     13234     17273     72115      5814      2682      4137      7379
  precision         0.6804    0.6804    0.6804    0.6804    0.6804    0.6804    0.6804    0.6804    0.6804    0.6804    0.6804    0.6804





=== Stratified cross-validation ===

Correctly Classified Instances       95056               51.8293 %
Incorrectly Classified Instances     88346               48.1707 %
Kappa statistic                          0.3917
K&B Relative Info Score            6825614.2339 %
K&B Information Score               195010.1625 bits      1.0633 bits/instance
Class complexity | order 0          523969.0404 bits      2.8569 bits/instance
Class complexity | scheme          3220147.3304 bits     17.5579 bits/instance
Complexity improvement     (Sf)    -2696178.2899 bits    -14.7009 bits/instance
Mean absolute error                      0.0815
Root mean squared error                  0.2563
Relative absolute error                 61.5699 %
Root relative squared error             99.6461 %
Coverage of cases (0.95 level)          60.4912 %
Mean rel. region size (0.95 level)      14.9429 %
Total Number of Instances           183402     


=== Detailed Accuracy By Class ===

                 TP Rate  FP Rate  Precision  Recall   F-Measure  MCC      ROC Area  PRC Area  Class
                 0,457    0,038    0,687      0,457    0,548      0,498    0,886     0,620     A
                 0,023    0,008    0,134      0,023    0,040      0,037    0,692     0,085     LGJKC
                 0,602    0,091    0,350      0,602    0,442      0,401    0,869     0,410     E
                 0,061    0,025    0,033      0,061    0,043      0,027    0,730     0,029     FV
                 0,396    0,042    0,276      0,396    0,325      0,299    0,863     0,270     I
                 0,004    0,003    0,096      0,004    0,008      0,005    0,779     0,183     O
                 0,165    0,024    0,419      0,165    0,237      0,218    0,804     0,306     SNRTY
                 0,892    0,144    0,800      0,892    0,844      0,736    0,949     0,946     0
                 0,006    0,004    0,051      0,006    0,010      0,007    0,724     0,058     BMP
                 0,507    0,151    0,048      0,507    0,087      0,118    0,814     0,047     DZ
                 0,451    0,025    0,298      0,451    0,359      0,349    0,875     0,362     U
                 0,014    0,005    0,102      0,014    0,025      0,024    0,737     0,075     SNRTXY
Weighted Avg.    0,518    0,077    0,525      0,518    0,499      0,442    0,869     0,570     


=== Confusion Matrix ===

     a     b     c     d     e     f     g     h     i     j     k     l   <-- classified as
 13037   246  4018   656   612   149   454  1532    76  6573  1146    58 |     a = A
   456   206  1309   319   808   100   848  2372    86  1927   243   153 |     b = LGJKC
  1227   182  8267   294   957    22   229   538    86  1750   139    49 |     c = E
   172    26   284   157   294     3   141   655     6   790    12    21 |     d = FV
   314   143  2814   188  2803     2   209   379    35   183     5     8 |     e = I
  1378   156  2767   514   139    56   281  1451    45  4607  1720   120 |     f = O
   615   311   847   962  1016    98  2853  7249   151  2713   186   272 |     g = SNRTY
   241   120  1067   872  1242    97   954 64311    94  2693   248   176 |     h = 0
   361    63   764   234  1013    37   232  1079    34  1597   366    34 |     i = BMP
   272     0   506    62   150     0    37   100    15  1361   134    45 |     j = DZ
   382    77   368    93   164    18    83    67    24   996  1865     0 |     k = U
   527    11   631   381   943     4   488   630    18  3444   196   106 |     l = SNRTXY

=== Percent Confusion Matrix ===
a	b	c	d	e	f	g	h	i	j	k	l	
45.65	0.86	14.07	2.3	2.14	0.52	1.59	5.36	0.27	23.02	4.01	0.2	 a = A
5.17	2.33	14.83	3.61	9.15	1.13	9.61	26.87	0.97	21.83	2.75	1.73	 b = LGJKC
8.93	1.32	60.17	2.14	6.97	0.16	1.67	3.92	0.63	12.74	1.01	0.36	 c = E
6.72	1.02	11.09	6.13	11.48	0.12	5.51	25.58	0.23	30.85	0.47	0.82	 d = FV
4.43	2.02	39.73	2.65	39.57	0.03	2.95	5.35	0.49	2.58	0.07	0.11	 e = I
10.41	1.18	20.91	3.88	1.05	0.42	2.12	10.96	0.34	34.81	13.0	0.91	 f = O
3.56	1.8	4.9	5.57	5.88	0.57	16.52	41.97	0.87	15.71	1.08	1.57	 g = SNRTY
0.33	0.17	1.48	1.21	1.72	0.13	1.32	89.18	0.13	3.73	0.34	0.24	 h = 0
6.21	1.08	13.14	4.02	17.42	0.64	3.99	18.56	0.58	27.47	6.3	0.58	 i = BMP
10.14	0.0	18.87	2.31	5.59	0.0	1.38	3.73	0.56	50.75	5.0	1.68	 j = DZ
9.23	1.86	8.9	2.25	3.96	0.44	2.01	1.62	0.58	24.08	45.08	0.0	 k = U
7.14	0.15	8.55	5.16	12.78	0.05	6.61	8.54	0.24	46.67	2.66	1.44	 l = SNRTXY
