Timestamp:2014-12-07-11:01:25
Inventario:I2
Intervalo:20ms
Ngramas:4
Clasificador:NaiveBayes
Relation Name:  I2-20ms-4gramas
Num Instances:  9126
Num Attributes: 41

     Name                      Type  Nom  Int Real     Missing      Unique  Dist
   1 0Int(dB)                   Num   0%  11%  89%     0 /  0%    14 /  0%   764 
   2 0Pitch(Hz)                 Num   0%  49%  51%     0 /  0%  1033 / 11%  2440 
   3 0RawPitch                  Num   0%  52%  48%     0 /  0%  1062 / 12%  2369 
   4 0SmPitch                   Num   0%  50%  50%     0 /  0%  1056 / 12%  2419 
   5 0Melogram(st)              Num   0%  45%  55%     0 /  0%   937 / 10%  2341 
   6 0ZCross                    Num   0% 100%   0%     0 /  0%     7 /  0%    34 
   7 0F1(Hz)                    Num   0%  49%  51%     0 /  0%  2180 / 24%  3398 
   8 0F2(Hz)                    Num   0%  49%  51%     0 /  0%  3463 / 38%  4259 
   9 0F3(Hz)                    Num   0%  49%  51%     0 /  0%  3209 / 35%  4087 
  10 0F4(Hz)                    Num   0%  49%  51%     0 /  0%  3134 / 34%  4027 
  11 1Int(dB)                   Num   0%  11%  89%     0 /  0%    14 /  0%   764 
  12 1Pitch(Hz)                 Num   0%  49%  51%     0 /  0%  1033 / 11%  2440 
  13 1RawPitch                  Num   0%  52%  48%     0 /  0%  1062 / 12%  2369 
  14 1SmPitch                   Num   0%  50%  50%     0 /  0%  1056 / 12%  2419 
  15 1Melogram(st)              Num   0%  45%  55%     0 /  0%   937 / 10%  2341 
  16 1ZCross                    Num   0% 100%   0%     0 /  0%     7 /  0%    34 
  17 1F1(Hz)                    Num   0%  49%  51%     0 /  0%  2180 / 24%  3398 
  18 1F2(Hz)                    Num   0%  49%  51%     0 /  0%  3463 / 38%  4259 
  19 1F3(Hz)                    Num   0%  49%  51%     0 /  0%  3209 / 35%  4087 
  20 1F4(Hz)                    Num   0%  49%  51%     0 /  0%  3134 / 34%  4027 
  21 2Int(dB)                   Num   0%  11%  89%     0 /  0%    14 /  0%   764 
  22 2Pitch(Hz)                 Num   0%  49%  51%     0 /  0%  1033 / 11%  2440 
  23 2RawPitch                  Num   0%  52%  48%     0 /  0%  1062 / 12%  2369 
  24 2SmPitch                   Num   0%  50%  50%     0 /  0%  1056 / 12%  2419 
  25 2Melogram(st)              Num   0%  45%  55%     0 /  0%   937 / 10%  2341 
  26 2ZCross                    Num   0% 100%   0%     0 /  0%     7 /  0%    34 
  27 2F1(Hz)                    Num   0%  49%  51%     0 /  0%  2180 / 24%  3398 
  28 2F2(Hz)                    Num   0%  49%  51%     0 /  0%  3463 / 38%  4259 
  29 2F3(Hz)                    Num   0%  49%  51%     0 /  0%  3209 / 35%  4087 
  30 2F4(Hz)                    Num   0%  49%  51%     0 /  0%  3134 / 34%  4027 
  31 3Int(dB)                   Num   0%  11%  89%     0 /  0%    14 /  0%   764 
  32 3Pitch(Hz)                 Num   0%  49%  51%     0 /  0%  1033 / 11%  2440 
  33 3RawPitch                  Num   0%  52%  48%     0 /  0%  1062 / 12%  2369 
  34 3SmPitch                   Num   0%  50%  50%     0 /  0%  1056 / 12%  2419 
  35 3Melogram(st)              Num   0%  45%  55%     0 /  0%   938 / 10%  2342 
  36 3ZCross                    Num   0% 100%   0%     0 /  0%     7 /  0%    34 
  37 3F1(Hz)                    Num   0%  49%  51%     0 /  0%  2180 / 24%  3398 
  38 3F2(Hz)                    Num   0%  49%  51%     0 /  0%  3463 / 38%  4259 
  39 3F3(Hz)                    Num   0%  49%  51%     0 /  0%  3209 / 35%  4087 
  40 3F4(Hz)                    Num   0%  49%  51%     0 /  0%  3134 / 34%  4027 
  41 class                      Nom 100%   0%   0%     0 /  0%     0 /  0%    12 


Naive Bayes Classifier

                    Class
Attribute               A     LGJKC         E        FV         I         O     SNRTY         0       BMP        DZ         U    SNRTXY
                   (0.16)    (0.05)    (0.08)    (0.02)    (0.04)    (0.08)     (0.1)    (0.35)    (0.03)    (0.02)    (0.02)    (0.04)
========================================================================================================================================
0Int(dB)
  mean             -8.6039  -13.8469  -11.7218   -8.8371  -14.1716  -13.1727  -13.6553  -48.3445  -10.1929   -9.0825  -12.1512   -7.1446
  std. dev.        13.8877   15.1912   12.7888   12.1009   11.3435   13.9303   12.3442   16.8499   12.1121    8.1938   13.5815    8.1877
  weight sum          1505       450       746       138       385       712       914      3234       299       138       218       387
  precision         0.1008    0.1008    0.1008    0.1008    0.1008    0.1008    0.1008    0.1008    0.1008    0.1008    0.1008    0.1008

0Pitch(Hz)
  mean            194.5491  157.1857  160.6546  181.9044  134.2538  156.7441   153.709   19.4311  179.4782  182.2168  185.7432  198.5596
  std. dev.        122.101  104.2772  102.2528  100.9774   96.8851  116.9519  102.6533    59.894  103.6256   86.9581  130.6923    85.883
  weight sum          1505       450       746       138       385       712       914      3234       299       138       218       387
  precision         0.2034    0.2034    0.2034    0.2034    0.2034    0.2034    0.2034    0.2034    0.2034    0.2034    0.2034    0.2034

0RawPitch
  mean             184.365  149.9541  148.5522  170.1709  121.7318  148.9971   140.363   16.1107  175.1905  168.9379  173.5625  187.8385
  std. dev.       124.2233  107.5161  106.1316  103.5921   96.3139  120.0464  107.7139   54.3875  105.5177   95.6179  129.6098   92.9156
  weight sum          1505       450       746       138       385       712       914      3234       299       138       218       387
  precision         0.2088    0.2088    0.2088    0.2088    0.2088    0.2088    0.2088    0.2088    0.2088    0.2088    0.2088    0.2088

0SmPitch
  mean            192.5256  153.3014  155.5873  177.1758  131.2192  153.6272  150.3572   17.6151   179.977  181.0673  182.8643  196.4031
  std. dev.       122.8826   106.453  104.7161  100.5075   96.9443  117.9631  104.4532   56.4219  103.1028   88.3662  131.0566   87.9678
  weight sum          1505       450       746       138       385       712       914      3234       299       138       218       387
  precision         0.2051    0.2051    0.2051    0.2051    0.2051    0.2051    0.2051    0.2051    0.2051    0.2051    0.2051    0.2051

0Melogram(st)
  mean             46.3494   41.9912   43.0353   48.8131   38.5277     40.72   41.8826    5.6263   47.4023    50.224    41.677   51.4916
  std. dev.        22.3412   23.3035   22.8173    17.183   23.9713   24.6779    22.989   16.5837   19.9946   15.3337    26.535   14.9337
  weight sum          1505       450       746       138       385       712       914      3234       299       138       218       387
  precision         0.0353    0.0353    0.0353    0.0353    0.0353    0.0353    0.0353    0.0353    0.0353    0.0353    0.0353    0.0353

0ZCross
  mean              5.7987    3.4053    3.7875    4.3439    3.3025    3.2283    2.9729    0.3546    3.5458    3.3939    3.5496    4.4069
  std. dev.         5.2067     3.111    3.6027    3.5198    4.4292    3.6497    3.1469    1.5379    3.2035    2.4483    3.8879     3.244
  weight sum          1505       450       746       138       385       712       914      3234       299       138       218       387
  precision         1.2727    1.2727    1.2727    1.2727    1.2727    1.2727    1.2727    1.2727    1.2727    1.2727    1.2727    1.2727

0F1(Hz)
  mean            548.2115  440.4349  393.9778   516.388  337.2878   387.934  463.9905   69.4574  434.0106  488.8531  424.8479  548.2741
  std. dev.       340.6042   238.484  237.3761  185.7463  247.3025  267.0661  251.6192  193.2324  222.5728  188.7732  365.8257  180.8894
  weight sum          1505       450       746       138       385       712       914      3234       299       138       218       387
  precision         0.5127    0.5127    0.5127    0.5127    0.5127    0.5127    0.5127    0.5127    0.5127    0.5127    0.5127    0.5127

0F2(Hz)
  mean           1291.1129 1403.0537 1373.2113 1567.5638 1314.2846 1075.1192 1394.5407  205.6432 1481.8017 1374.5813  955.3932 1624.0884
  std. dev.       669.3906  735.6073  794.2677  551.4753  896.4634  722.9702  692.6927  567.5507  698.0192  507.4621  693.4125  465.9132
  weight sum          1505       450       746       138       385       712       914      3234       299       138       218       387
  precision         0.6985    0.6985    0.6985    0.6985    0.6985    0.6985    0.6985    0.6985    0.6985    0.6985    0.6985    0.6985

0F3(Hz)
  mean           2332.9922 2334.8533 2174.5401 2627.5782 2014.1352 2131.1022 2401.2675  351.4258 2459.9895   2628.57 2126.7769  2793.975
  std. dev.      1159.2763 1176.5406 1212.1208  842.6607 1344.3758 1290.7244 1139.3262  944.4587 1073.6058  876.1679 1291.5323  673.9655
  weight sum          1505       450       746       138       385       712       914      3234       299       138       218       387
  precision         1.0065    1.0065    1.0065    1.0065    1.0065    1.0065    1.0065    1.0065    1.0065    1.0065    1.0065    1.0065

0F4(Hz)
  mean           2700.5548 2683.7364 2634.0278 3085.9541 2430.7791 2461.9478 2759.7362  424.3306 2871.1033 3050.5218 2454.4832 3183.1111
  std. dev.      1332.9429 1340.2982 1448.9271   967.976 1598.0911 1484.5906 1291.2466  1137.485 1226.0673  980.6928  1445.419  742.2332
  weight sum          1505       450       746       138       385       712       914      3234       299       138       218       387
  precision         1.0301    1.0301    1.0301    1.0301    1.0301    1.0301    1.0301    1.0301    1.0301    1.0301    1.0301    1.0301

1Int(dB)
  mean             -7.2233  -15.2855   -9.6448  -10.0976  -12.8075  -11.6424  -15.5272  -49.2205  -10.9675   -7.7642  -10.4698   -7.6626
  std. dev.        12.4964   15.1641   11.2836   11.5475   10.4841   13.0523   12.0659   15.8188   11.7268    7.1778   12.0458    8.1941
  weight sum          1505       450       746       138       385       712       914      3234       299       138       218       387
  precision         0.1008    0.1008    0.1008    0.1008    0.1008    0.1008    0.1008    0.1008    0.1008    0.1008    0.1008    0.1008

1Pitch(Hz)
  mean            201.6038  147.4176  168.4113  174.9356  145.3172  164.5924  138.7944   15.8268  181.5295  193.3442   199.501  196.6127
  std. dev.       116.7827  107.6644   97.9387   105.317    93.238  113.2428  106.3067   54.5523  103.9694   84.8869   120.686   88.3756
  weight sum          1505       450       746       138       385       712       914      3234       299       138       218       387
  precision         0.2034    0.2034    0.2034    0.2034    0.2034    0.2034    0.2034    0.2034    0.2034    0.2034    0.2034    0.2034

1RawPitch
  mean            192.0371   138.882  160.8464  150.5271  134.7046  155.7527  121.1476   12.9483  174.3366  183.2789  187.6775  188.2523
  std. dev.       119.1688  109.3642  102.2888  108.0909   92.9403  117.0548  109.7441   48.8007  107.6802   94.8983   120.986   95.5155
  weight sum          1505       450       746       138       385       712       914      3234       299       138       218       387
  precision         0.2088    0.2088    0.2088    0.2088    0.2088    0.2088    0.2088    0.2088    0.2088    0.2088    0.2088    0.2088

1SmPitch
  mean            199.8945  142.8303  165.6273  164.0951  143.4528  162.0426  132.6773   14.3604  180.2617  191.6804  195.9784  195.1421
  std. dev.       117.6128  109.4491  100.1622  102.8422   93.1972  114.4287  107.9719   51.0284  105.3606   87.4261  122.4742   90.3362
  weight sum          1505       450       746       138       385       712       914      3234       299       138       218       387
  precision         0.2051    0.2051    0.2051    0.2051    0.2051    0.2051    0.2051    0.2051    0.2051    0.2051    0.2051    0.2051

1Melogram(st)
  mean             48.2092   39.4769   45.4706   47.4754   41.3427   43.3948   37.7346    4.6661   47.4768   51.5728   44.4291   50.9757
  std. dev.        20.5746   24.5961   20.8835   18.4939   22.4649   23.1016   25.2148   15.2463   19.8068   13.5777    24.856   15.8021
  weight sum          1505       450       746       138       385       712       914      3234       299       138       218       387
  precision         0.0353    0.0353    0.0353    0.0353    0.0353    0.0353    0.0353    0.0353    0.0353    0.0353    0.0353    0.0353

1ZCross
  mean               6.115    3.1196    4.2003    3.7167    3.1471    3.4785    2.9312    0.2554    3.0435    3.6061    3.4504    3.9267
  std. dev.         5.0271    3.0707    3.4667    3.2864    4.1866    3.6204    3.7872    1.3162    2.9836    2.2704    3.5108    2.9916
  weight sum          1505       450       746       138       385       712       914      3234       299       138       218       387
  precision         1.2727    1.2727    1.2727    1.2727    1.2727    1.2727    1.2727    1.2727    1.2727    1.2727    1.2727    1.2727

1F1(Hz)
  mean            581.7148  418.0762  408.4223  522.7777  325.1292  411.5688   432.494   58.2974  443.7803  506.5249   424.862  536.2617
  std. dev.       326.0741  254.9219  216.3841  201.8334  214.6223  260.2244  270.9083  178.1576  220.7378   153.482  361.7064  175.2787
  weight sum          1505       450       746       138       385       712       914      3234       299       138       218       387
  precision         0.5127    0.5127    0.5127    0.5127    0.5127    0.5127    0.5127    0.5127    0.5127    0.5127    0.5127    0.5127

1F2(Hz)
  mean           1332.7377 1348.2605 1477.3725 1525.1731 1473.7397 1085.7909 1297.0966  173.7875 1499.8925 1468.4886  924.4511 1628.3029
  std. dev.       619.6166  787.5839  754.7082  570.7008  898.7946  674.5578  757.3229  526.5016  665.9892   378.177  644.9976  461.7432
  weight sum          1505       450       746       138       385       712       914      3234       299       138       218       387
  precision         0.6985    0.6985    0.6985    0.6985    0.6985    0.6985    0.6985    0.6985    0.6985    0.6985    0.6985    0.6985

1F3(Hz)
  mean           2424.4511 2225.4376 2285.1335 2573.9367 2142.5805 2224.7554 2233.6157  296.2301 2515.1665  2812.592 2177.1877 2791.9413
  std. dev.      1080.1353 1258.0629 1133.2536  901.2684 1286.7452 1238.7361 1260.9202  875.0734 1019.8055   582.935 1282.0773  673.5628
  weight sum          1505       450       746       138       385       712       914      3234       299       138       218       387
  precision         1.0065    1.0065    1.0065    1.0065    1.0065    1.0065    1.0065    1.0065    1.0065    1.0065    1.0065    1.0065

1F4(Hz)
  mean           2808.6736 2548.7191 2766.3747 3029.4131 2588.6317 2567.4184 2568.2902  360.2866 2942.8455 3255.1145 2475.9112  3180.492
  std. dev.      1242.9542 1429.5533 1350.6568 1028.6692 1525.8539 1421.7151 1434.1325 1061.6517 1160.3327  630.9667 1409.4738   746.257
  weight sum          1505       450       746       138       385       712       914      3234       299       138       218       387
  precision         1.0301    1.0301    1.0301    1.0301    1.0301    1.0301    1.0301    1.0301    1.0301    1.0301    1.0301    1.0301

2Int(dB)
  mean              -5.641  -16.4002   -7.2226  -12.3449  -10.9862   -9.7163   -17.898  -50.1381   -12.305   -7.9351   -8.0296   -8.7825
  std. dev.        10.8727   13.9486    9.4909   10.3558    9.3463   12.1824   11.1541   14.5049   11.5328    6.9104    9.9998    8.1424
  weight sum          1505       450       746       138       385       712       914      3234       299       138       218       387
  precision         0.1008    0.1008    0.1008    0.1008    0.1008    0.1008    0.1008    0.1008    0.1008    0.1008    0.1008    0.1008

2Pitch(Hz)
  mean            211.1547  135.0979   183.146  161.6772  163.4233  177.1418  114.1164   12.2342  174.4724  192.6531  221.0527  190.8829
  std. dev.       109.0219  110.0777   90.4096  107.4647   84.1925  106.6856  108.7689   48.3753  105.6613    88.609   98.5341    93.451
  weight sum          1505       450       746       138       385       712       914      3234       299       138       218       387
  precision         0.2034    0.2034    0.2034    0.2034    0.2034    0.2034    0.2034    0.2034    0.2034    0.2034    0.2034    0.2034

2RawPitch
  mean            200.9312  123.3527  176.8718  134.4189  153.6209  168.1349   97.1459   10.0558  163.2284  186.1671  210.2912   180.646
  std. dev.       113.0094   109.512   96.4397  106.6169   86.0466   111.735  108.0956   42.5716  110.9161   96.0987  103.8231   101.702
  weight sum          1505       450       746       138       385       712       914      3234       299       138       218       387
  precision         0.2088    0.2088    0.2088    0.2088    0.2088    0.2088    0.2088    0.2088    0.2088    0.2088    0.2088    0.2088

2SmPitch
  mean            209.2749  130.4583  181.1568   150.738  161.2553  174.8902  107.9675   10.6967  171.9345  191.2271  219.9482  188.5966
  std. dev.       110.3154  111.6593   92.1927  103.6325   84.9278  108.2193  108.8075   43.9063  107.9136   90.5485    99.473   96.1418
  weight sum          1505       450       746       138       385       712       914      3234       299       138       218       387
  precision         0.2051    0.2051    0.2051    0.2051    0.2051    0.2051    0.2051    0.2051    0.2051    0.2051    0.2051    0.2051

2Melogram(st)
  mean             50.6224    36.376   49.1776   45.2162   45.9084   46.5218   31.3986    3.7056   45.7201   51.4088   50.6374   49.4702
  std. dev.        17.7748   25.8023   17.1261   20.2304   18.9795   20.6378   26.9257    13.742    21.266   13.7531    19.473   17.7115
  weight sum          1505       450       746       138       385       712       914      3234       299       138       218       387
  precision         0.0353    0.0353    0.0353    0.0353    0.0353    0.0353    0.0353    0.0353    0.0353    0.0353    0.0353    0.0353

2ZCross
  mean              6.4973    2.7095    4.6951    2.7115    3.0678    3.8039    2.8588    0.1472    2.4688    3.5415    3.4387    3.3512
  std. dev.         4.7305    2.8951    3.4013    2.5858     3.289    3.4966    4.5876    0.8716    2.5057    2.2242    3.0618    3.2088
  weight sum          1505       450       746       138       385       712       914      3234       299       138       218       387
  precision         1.2727    1.2727    1.2727    1.2727    1.2727    1.2727    1.2727    1.2727    1.2727    1.2727    1.2727    1.2727

2F1(Hz)
  mean            632.5964  383.0878  435.3843  487.8092  340.7633  450.1528  369.5509   45.7835  423.0991  494.4923  462.9492   505.073
  std. dev.       296.8673  271.1426  182.9634    232.81  174.3406  244.2194  290.4831   157.842  227.7907  163.5032  332.7223  181.6483
  weight sum          1505       450       746       138       385       712       914      3234       299       138       218       387
  precision         0.5127    0.5127    0.5127    0.5127    0.5127    0.5127    0.5127    0.5127    0.5127    0.5127    0.5127    0.5127

2F2(Hz)
  mean           1400.8405 1254.1885 1633.7862 1414.8511 1740.6907 1123.9385 1116.0376   138.821 1449.4723 1449.0269  1000.033 1598.0563
  std. dev.       532.4998  842.5197  662.2232  640.3559  805.0767  603.6465  831.8752  474.0493  686.1573  382.0215   546.594  503.8129
  weight sum          1505       450       746       138       385       712       914      3234       299       138       218       387
  precision         0.6985    0.6985    0.6985    0.6985    0.6985    0.6985    0.6985    0.6985    0.6985    0.6985    0.6985    0.6985

2F3(Hz)
  mean           2566.7052 2055.7862 2466.1143 2406.0546 2427.5868 2381.9061 1913.4664  236.9164 2437.2044 2791.3469  2460.271 2734.4611
  std. dev.       934.1062 1349.7339  983.2863 1054.0979 1119.2236 1133.1835 1397.5103  790.3143 1070.9844   620.118 1089.2339  763.2448
  weight sum          1505       450       746       138       385       712       914      3234       299       138       218       387
  precision         1.0065    1.0065    1.0065    1.0065    1.0065    1.0065    1.0065    1.0065    1.0065    1.0065    1.0065    1.0065

2F4(Hz)
  mean           2970.9678 2352.0886  2968.206 2858.1926 2906.6724 2739.0875 2212.7873  290.1716  2883.526 3255.5773  2778.374 3118.5716
  std. dev.      1072.0689 1533.4925 1156.9806 1217.3342 1305.1093 1292.2218 1602.7043  965.7542 1232.2639  686.1677 1167.5154  860.9192
  weight sum          1505       450       746       138       385       712       914      3234       299       138       218       387
  precision         1.0301    1.0301    1.0301    1.0301    1.0301    1.0301    1.0301    1.0301    1.0301    1.0301    1.0301    1.0301

3Int(dB)
  mean             -4.7838  -15.4416   -5.6493  -13.9655   -9.5022   -8.6644  -19.5414  -50.8607  -12.4527   -8.6538   -5.9413  -10.0404
  std. dev.          9.917   11.1773    8.2505    8.9902    8.6317   12.1183    9.6185   13.3693   10.4872    7.2422    8.0011    8.0706
  weight sum          1505       450       746       138       385       712       914      3234       299       138       218       387
  precision         0.1008    0.1008    0.1008    0.1008    0.1008    0.1008    0.1008    0.1008    0.1008    0.1008    0.1008    0.1008

3Pitch(Hz)
  mean            215.4717  142.0778  192.4898  152.2312  174.3019  180.2959  104.1051    8.6414  173.7208  190.1568  232.3523  184.1661
  std. dev.       105.3209  107.9314    85.636   105.769   75.0715  103.4062  108.2551   41.2262  104.0157   91.3345   82.3117   97.3536
  weight sum          1505       450       746       138       385       712       914      3234       299       138       218       387
  precision         0.2034    0.2034    0.2034    0.2034    0.2034    0.2034    0.2034    0.2034    0.2034    0.2034    0.2034    0.2034

3RawPitch
  mean            205.1279  123.5759  188.8553  123.0765  166.4766  174.0908   86.1062    6.9092  156.9007  185.4439  222.5693  172.6016
  std. dev.       110.0217  108.7094   89.4789  101.8456   78.7839  108.0935  104.5404   35.5094  112.4322   97.5665   89.8429  105.8742
  weight sum          1505       450       746       138       385       712       914      3234       299       138       218       387
  precision         0.2088    0.2088    0.2088    0.2088    0.2088    0.2088    0.2088    0.2088    0.2088    0.2088    0.2088    0.2088

3SmPitch
  mean            213.4208  133.1159  191.6241  141.6009  171.8543   178.962   97.7719    7.4185  169.8194  189.6336  232.3227  181.8342
  std. dev.       106.8674  111.4709   86.4181  100.3995   76.5988  104.3249  107.7057   36.4788  107.6346   92.3532   82.2366   99.7005
  weight sum          1505       450       746       138       385       712       914      3234       299       138       218       387
  precision         0.2051    0.2051    0.2051    0.2051    0.2051    0.2051    0.2051    0.2051    0.2051    0.2051    0.2051    0.2051

3Melogram(st)
  mean             52.0827   36.7952   51.3162   42.7509   49.4307   47.7311   28.1101     2.748   45.7719   50.8347   54.9086   47.9275
  std. dev.        15.5643   25.8402   13.9659   21.9334   14.5646   19.2227    27.377   12.0067   21.2519   14.5044   12.8002   19.2949
  weight sum          1505       450       746       138       385       712       914      3234       299       138       218       387
  precision         0.0352    0.0352    0.0352    0.0352    0.0352    0.0352    0.0352    0.0352    0.0352    0.0352    0.0352    0.0352

3ZCross
  mean              6.7146    2.7972    4.8248    2.0843    3.1868    3.9665    2.6986    0.0854    2.2092    3.4862     3.573    2.9993
  std. dev.          4.535    3.0186    3.1533    2.0439    2.9527    3.0096    4.7727    0.6292     2.095    2.2377    2.8222    4.3035
  weight sum          1505       450       746       138       385       712       914      3234       299       138       218       387
  precision         1.2727    1.2727    1.2727    1.2727    1.2727    1.2727    1.2727    1.2727    1.2727    1.2727    1.2727    1.2727

3F1(Hz)
  mean            680.6071  362.7342  468.1216  433.0067  362.9833  487.9887  305.0821   33.6522  402.1692  495.2687  498.1345  456.4619
  std. dev.       260.5161  271.2321  135.4424  254.6457  139.6622  219.6408  293.2229  135.0197  226.7452  176.0915  299.1257  189.4997
  weight sum          1505       450       746       138       385       712       914      3234       299       138       218       387
  precision         0.5127    0.5127    0.5127    0.5127    0.5127    0.5127    0.5127    0.5127    0.5127    0.5127    0.5127    0.5127

3F2(Hz)
  mean           1463.4676 1203.8626 1802.3085 1302.5905 1971.4305 1165.7924  937.3286  104.6514 1402.7174 1423.4659 1080.7158 1529.0513
  std. dev.       432.0523  847.9838  487.8366  701.6256  644.7659  525.3227  863.0234   415.952  694.7863   407.382  431.8771  567.7466
  weight sum          1505       450       746       138       385       712       914      3234       299       138       218       387
  precision         0.6985    0.6985    0.6985    0.6985    0.6985    0.6985    0.6985    0.6985    0.6985    0.6985    0.6985    0.6985

3F3(Hz)
  mean           2691.8093 2000.3705 2662.4498 2220.2677 2672.9489 2534.4259 1601.4051  178.5267 2362.4099 2756.8647 2714.6841 2627.1885
  std. dev.       762.9907 1383.7036   729.876 1179.8092  890.7818  989.9708 1456.9288  694.1704 1105.7815   698.638  768.9985  897.2101
  weight sum          1505       450       746       138       385       712       914      3234       299       138       218       387
  precision         1.0065    1.0065    1.0065    1.0065    1.0065    1.0065    1.0065    1.0065    1.0065    1.0065    1.0065    1.0065

3F4(Hz)
  mean            3114.979 2277.7553 3199.5596 2671.4019 3176.0491 2913.9175 1852.0608  219.9788 2816.8308 3224.9891  3074.217 3010.2722
  std. dev.       871.0219 1563.2483  841.1377 1380.3083 1017.7226 1121.3472 1674.0085  853.2071 1281.9538  787.9869  772.1011   1028.98
  weight sum          1505       450       746       138       385       712       914      3234       299       138       218       387
  precision         1.0301    1.0301    1.0301    1.0301    1.0301    1.0301    1.0301    1.0301    1.0301    1.0301    1.0301    1.0301





=== Stratified cross-validation ===

Correctly Classified Instances        4010               43.9404 %
Incorrectly Classified Instances      5116               56.0596 %
Kappa statistic                          0.3284
K&B Relative Info Score             275977.605  %
K&B Information Score                 8140.32   bits      0.892  bits/instance
Class complexity | order 0           26898.0483 bits      2.9474 bits/instance
Class complexity | scheme           176008.6176 bits     19.2865 bits/instance
Complexity improvement     (Sf)    -149110.5693 bits    -16.3391 bits/instance
Mean absolute error                      0.0932
Root mean squared error                  0.2813
Relative absolute error                 68.5087 %
Root relative squared error            107.8621 %
Coverage of cases (0.95 level)          51.7204 %
Mean rel. region size (0.95 level)      13.6305 %
Total Number of Instances             9126     


=== Detailed Accuracy By Class ===

                 TP Rate  FP Rate  Precision  Recall   F-Measure  MCC      ROC Area  PRC Area  Class
                 0,308    0,043    0,587      0,308    0,404      0,350    0,829     0,506     A
                 0,018    0,009    0,090      0,018    0,030      0,019    0,676     0,078     LGJKC
                 0,059    0,016    0,244      0,059    0,095      0,084    0,804     0,219     E
                 0,029    0,012    0,036      0,029    0,032      0,019    0,747     0,035     FV
                 0,223    0,031    0,238      0,223    0,231      0,198    0,832     0,221     I
                 0,013    0,007    0,127      0,013    0,023      0,016    0,723     0,156     O
                 0,299    0,062    0,348      0,299    0,321      0,253    0,756     0,292     SNRTY
                 0,900    0,067    0,881      0,900    0,890      0,829    0,949     0,890     0
                 0,000    0,001    0,000      0,000    0,000      -0,005   0,719     0,060     BMP
                 0,630    0,221    0,042      0,630    0,079      0,119    0,804     0,050     DZ
                 0,128    0,014    0,185      0,128    0,152      0,137    0,839     0,126     U
                 0,248    0,127    0,080      0,248    0,121      0,072    0,742     0,081     SNRTXY
Weighted Avg.    0,439    0,050    0,497      0,439    0,445      0,403    0,838     0,481     


=== Confusion Matrix ===

    a    b    c    d    e    f    g    h    i    j    k    l   <-- classified as
  464   29   54   15   48   41   70   45    0  429   51  259 |    a = A
   29    8    5   10   13    2   79   62    0  126    3  113 |    b = LGJKC
   58   13   44    3   76    9   38   20    2  271   17  195 |    c = E
   10    2    0    4    3    0   20    7    0   61    0   31 |    d = FV
   15    3   24    2   86    2   35   16    1  104    2   95 |    e = I
   69   14   24   10   52    9   47   65    0  328   32   62 |    f = O
   41    9    9   26   21    2  273  143    1  205    5  179 |    g = SNRTY
    7    1    4   21    8    1  135 2911    0   68    1   77 |    h = 0
   22    3    4    6   22    0   33   21    0  112    6   70 |    i = BMP
   12    0    6    3    1    0    7    3    0   87    1   18 |    j = DZ
   34    7    3    0   26    5   11    5    4   86   28    9 |    k = U
   30    0    3   10    5    0   37    8    0  193    5   96 |    l = SNRTXY

=== Percent Confusion Matrix ===
a	b	c	d	e	f	g	h	i	j	k	l	
30.83	1.93	3.59	1.0	3.19	2.72	4.65	2.99	0.0	28.5	3.39	17.21	 a = A
6.44	1.78	1.11	2.22	2.89	0.44	17.56	13.78	0.0	28.0	0.67	25.11	 b = LGJKC
7.77	1.74	5.9	0.4	10.19	1.21	5.09	2.68	0.27	36.33	2.28	26.14	 c = E
7.25	1.45	0.0	2.9	2.17	0.0	14.49	5.07	0.0	44.2	0.0	22.46	 d = FV
3.9	0.78	6.23	0.52	22.34	0.52	9.09	4.16	0.26	27.01	0.52	24.68	 e = I
9.69	1.97	3.37	1.4	7.3	1.26	6.6	9.13	0.0	46.07	4.49	8.71	 f = O
4.49	0.98	0.98	2.84	2.3	0.22	29.87	15.65	0.11	22.43	0.55	19.58	 g = SNRTY
0.22	0.03	0.12	0.65	0.25	0.03	4.17	90.01	0.0	2.1	0.03	2.38	 h = 0
7.36	1.0	1.34	2.01	7.36	0.0	11.04	7.02	0.0	37.46	2.01	23.41	 i = BMP
8.7	0.0	4.35	2.17	0.72	0.0	5.07	2.17	0.0	63.04	0.72	13.04	 j = DZ
15.6	3.21	1.38	0.0	11.93	2.29	5.05	2.29	1.83	39.45	12.84	4.13	 k = U
7.75	0.0	0.78	2.58	1.29	0.0	9.56	2.07	0.0	49.87	1.29	24.81	 l = SNRTXY
