Timestamp:2014-12-07-11:01:21
Inventario:I2
Intervalo:20ms
Ngramas:3
Clasificador:NaiveBayes
Relation Name:  I2-20ms-3gramas
Num Instances:  9127
Num Attributes: 31

     Name                      Type  Nom  Int Real     Missing      Unique  Dist
   1 0Int(dB)                   Num   0%  11%  89%     0 /  0%    14 /  0%   764 
   2 0Pitch(Hz)                 Num   0%  49%  51%     0 /  0%  1033 / 11%  2440 
   3 0RawPitch                  Num   0%  52%  48%     0 /  0%  1062 / 12%  2369 
   4 0SmPitch                   Num   0%  50%  50%     0 /  0%  1056 / 12%  2419 
   5 0Melogram(st)              Num   0%  45%  55%     0 /  0%   937 / 10%  2341 
   6 0ZCross                    Num   0% 100%   0%     0 /  0%     7 /  0%    34 
   7 0F1(Hz)                    Num   0%  49%  51%     0 /  0%  2180 / 24%  3398 
   8 0F2(Hz)                    Num   0%  49%  51%     0 /  0%  3463 / 38%  4259 
   9 0F3(Hz)                    Num   0%  49%  51%     0 /  0%  3209 / 35%  4087 
  10 0F4(Hz)                    Num   0%  49%  51%     0 /  0%  3134 / 34%  4027 
  11 1Int(dB)                   Num   0%  11%  89%     0 /  0%    14 /  0%   764 
  12 1Pitch(Hz)                 Num   0%  49%  51%     0 /  0%  1033 / 11%  2440 
  13 1RawPitch                  Num   0%  52%  48%     0 /  0%  1062 / 12%  2369 
  14 1SmPitch                   Num   0%  50%  50%     0 /  0%  1056 / 12%  2419 
  15 1Melogram(st)              Num   0%  45%  55%     0 /  0%   937 / 10%  2341 
  16 1ZCross                    Num   0% 100%   0%     0 /  0%     7 /  0%    34 
  17 1F1(Hz)                    Num   0%  49%  51%     0 /  0%  2180 / 24%  3398 
  18 1F2(Hz)                    Num   0%  49%  51%     0 /  0%  3463 / 38%  4259 
  19 1F3(Hz)                    Num   0%  49%  51%     0 /  0%  3209 / 35%  4087 
  20 1F4(Hz)                    Num   0%  49%  51%     0 /  0%  3134 / 34%  4027 
  21 2Int(dB)                   Num   0%  11%  89%     0 /  0%    14 /  0%   764 
  22 2Pitch(Hz)                 Num   0%  49%  51%     0 /  0%  1033 / 11%  2440 
  23 2RawPitch                  Num   0%  52%  48%     0 /  0%  1062 / 12%  2369 
  24 2SmPitch                   Num   0%  50%  50%     0 /  0%  1056 / 12%  2419 
  25 2Melogram(st)              Num   0%  45%  55%     0 /  0%   938 / 10%  2342 
  26 2ZCross                    Num   0% 100%   0%     0 /  0%     7 /  0%    34 
  27 2F1(Hz)                    Num   0%  49%  51%     0 /  0%  2180 / 24%  3398 
  28 2F2(Hz)                    Num   0%  49%  51%     0 /  0%  3463 / 38%  4259 
  29 2F3(Hz)                    Num   0%  49%  51%     0 /  0%  3209 / 35%  4087 
  30 2F4(Hz)                    Num   0%  49%  51%     0 /  0%  3134 / 34%  4027 
  31 class                      Nom 100%   0%   0%     0 /  0%     0 /  0%    12 


Naive Bayes Classifier

                    Class
Attribute               A     LGJKC         E        FV         I         O     SNRTY         0       BMP        DZ         U    SNRTXY
                   (0.16)    (0.05)    (0.08)    (0.02)    (0.04)    (0.08)     (0.1)    (0.35)    (0.03)    (0.02)    (0.02)    (0.04)
========================================================================================================================================
0Int(dB)
  mean             -7.2233  -15.2855   -9.6448  -10.0976  -12.8075  -11.6424  -15.5272  -49.2195  -10.9675   -7.7642  -10.4698   -7.6626
  std. dev.        12.4964   15.1641   11.2836   11.5475   10.4841   13.0523   12.0659   15.8165   11.7268    7.1778   12.0458    8.1941
  weight sum          1505       450       746       138       385       712       914      3235       299       138       218       387
  precision         0.1008    0.1008    0.1008    0.1008    0.1008    0.1008    0.1008    0.1008    0.1008    0.1008    0.1008    0.1008

0Pitch(Hz)
  mean            201.6038  147.4176  168.4113  174.9356  145.3172  164.5924  138.7944   15.8219  181.5295  193.3442   199.501  196.6127
  std. dev.       116.7827  107.6644   97.9387   105.317    93.238  113.2428  106.3067   54.5445  103.9694   84.8869   120.686   88.3756
  weight sum          1505       450       746       138       385       712       914      3235       299       138       218       387
  precision         0.2034    0.2034    0.2034    0.2034    0.2034    0.2034    0.2034    0.2034    0.2034    0.2034    0.2034    0.2034

0RawPitch
  mean            192.0371   138.882  160.8464  150.5271  134.7046  155.7527  121.1476   12.9443  174.3366  183.2789  187.6775  188.2523
  std. dev.       119.1688  109.3642  102.2888  108.0909   92.9403  117.0548  109.7441   48.7937  107.6802   94.8983   120.986   95.5155
  weight sum          1505       450       746       138       385       712       914      3235       299       138       218       387
  precision         0.2088    0.2088    0.2088    0.2088    0.2088    0.2088    0.2088    0.2088    0.2088    0.2088    0.2088    0.2088

0SmPitch
  mean            199.8945  142.8303  165.6273  164.0951  143.4528  162.0426  132.6773   14.3559  180.2617  191.6804  195.9784  195.1421
  std. dev.       117.6128  109.4491  100.1622  102.8422   93.1972  114.4287  107.9719   51.0212  105.3606   87.4261  122.4742   90.3362
  weight sum          1505       450       746       138       385       712       914      3235       299       138       218       387
  precision         0.2051    0.2051    0.2051    0.2051    0.2051    0.2051    0.2051    0.2051    0.2051    0.2051    0.2051    0.2051

0Melogram(st)
  mean             48.2092   39.4769   45.4706   47.4754   41.3427   43.3948   37.7346    4.6646   47.4768   51.5728   44.4291   50.9757
  std. dev.        20.5746   24.5961   20.8835   18.4939   22.4649   23.1016   25.2148   15.2441   19.8068   13.5777    24.856   15.8021
  weight sum          1505       450       746       138       385       712       914      3235       299       138       218       387
  precision         0.0353    0.0353    0.0353    0.0353    0.0353    0.0353    0.0353    0.0353    0.0353    0.0353    0.0353    0.0353

0ZCross
  mean               6.115    3.1196    4.2003    3.7167    3.1471    3.4785    2.9312    0.2553    3.0435    3.6061    3.4504    3.9267
  std. dev.         5.0271    3.0707    3.4667    3.2864    4.1866    3.6204    3.7872     1.316    2.9836    2.2704    3.5108    2.9916
  weight sum          1505       450       746       138       385       712       914      3235       299       138       218       387
  precision         1.2727    1.2727    1.2727    1.2727    1.2727    1.2727    1.2727    1.2727    1.2727    1.2727    1.2727    1.2727

0F1(Hz)
  mean            581.7148  418.0762  408.4223  522.7777  325.1292  411.5688   432.494   58.2793  443.7803  506.5249   424.862  536.2617
  std. dev.       326.0741  254.9219  216.3841  201.8334  214.6223  260.2244  270.9083   178.133  220.7378   153.482  361.7064  175.2787
  weight sum          1505       450       746       138       385       712       914      3235       299       138       218       387
  precision         0.5127    0.5127    0.5127    0.5127    0.5127    0.5127    0.5127    0.5127    0.5127    0.5127    0.5127    0.5127

0F2(Hz)
  mean           1332.7377 1348.2605 1477.3725 1525.1731 1473.7397 1085.7909 1297.0966  173.7338 1499.8925 1468.4886  924.4511 1628.3029
  std. dev.       619.6166  787.5839  754.7082  570.7008  898.7946  674.5578  757.3229  526.4291  665.9892   378.177  644.9976  461.7432
  weight sum          1505       450       746       138       385       712       914      3235       299       138       218       387
  precision         0.6985    0.6985    0.6985    0.6985    0.6985    0.6985    0.6985    0.6985    0.6985    0.6985    0.6985    0.6985

0F3(Hz)
  mean           2424.4511 2225.4376 2285.1335 2573.9367 2142.5805 2224.7554 2233.6157  296.1385 2515.1665  2812.592 2177.1877 2791.9413
  std. dev.      1080.1353 1258.0629 1133.2536  901.2684 1286.7452 1238.7361 1260.9202  874.9536 1019.8055   582.935 1282.0773  673.5628
  weight sum          1505       450       746       138       385       712       914      3235       299       138       218       387
  precision         1.0065    1.0065    1.0065    1.0065    1.0065    1.0065    1.0065    1.0065    1.0065    1.0065    1.0065    1.0065

0F4(Hz)
  mean           2808.6736 2548.7191 2766.3747 3029.4131 2588.6317 2567.4184 2568.2902  360.1752 2942.8455 3255.1145 2475.9112  3180.492
  std. dev.      1242.9542 1429.5533 1350.6568 1028.6692 1525.8539 1421.7151 1434.1325 1061.5064 1160.3327  630.9667 1409.4738   746.257
  weight sum          1505       450       746       138       385       712       914      3235       299       138       218       387
  precision         1.0301    1.0301    1.0301    1.0301    1.0301    1.0301    1.0301    1.0301    1.0301    1.0301    1.0301    1.0301

1Int(dB)
  mean              -5.641  -16.4002   -7.2226  -12.3449  -10.9862   -9.7163   -17.898   -50.137   -12.305   -7.9351   -8.0296   -8.7825
  std. dev.        10.8727   13.9486    9.4909   10.3558    9.3463   12.1824   11.1541   14.5028   11.5328    6.9104    9.9998    8.1424
  weight sum          1505       450       746       138       385       712       914      3235       299       138       218       387
  precision         0.1008    0.1008    0.1008    0.1008    0.1008    0.1008    0.1008    0.1008    0.1008    0.1008    0.1008    0.1008

1Pitch(Hz)
  mean            211.1547  135.0979   183.146  161.6772  163.4233  177.1418  114.1164   12.2305  174.4724  192.6531  221.0527  190.8829
  std. dev.       109.0219  110.0777   90.4096  107.4647   84.1925  106.6856  108.7689   48.3683  105.6613    88.609   98.5341    93.451
  weight sum          1505       450       746       138       385       712       914      3235       299       138       218       387
  precision         0.2034    0.2034    0.2034    0.2034    0.2034    0.2034    0.2034    0.2034    0.2034    0.2034    0.2034    0.2034

1RawPitch
  mean            200.9312  123.3527  176.8718  134.4189  153.6209  168.1349   97.1459   10.0527  163.2284  186.1671  210.2912   180.646
  std. dev.       113.0094   109.512   96.4397  106.6169   86.0466   111.735  108.0956   42.5654  110.9161   96.0987  103.8231   101.702
  weight sum          1505       450       746       138       385       712       914      3235       299       138       218       387
  precision         0.2088    0.2088    0.2088    0.2088    0.2088    0.2088    0.2088    0.2088    0.2088    0.2088    0.2088    0.2088

1SmPitch
  mean            209.2749  130.4583  181.1568   150.738  161.2553  174.8902  107.9675   10.6934  171.9345  191.2271  219.9482  188.5966
  std. dev.       110.3154  111.6593   92.1927  103.6325   84.9278  108.2193  108.8075   43.8999  107.9136   90.5485    99.473   96.1418
  weight sum          1505       450       746       138       385       712       914      3235       299       138       218       387
  precision         0.2051    0.2051    0.2051    0.2051    0.2051    0.2051    0.2051    0.2051    0.2051    0.2051    0.2051    0.2051

1Melogram(st)
  mean             50.6224    36.376   49.1776   45.2162   45.9084   46.5218   31.3986    3.7045   45.7201   51.4088   50.6374   49.4702
  std. dev.        17.7748   25.8023   17.1261   20.2304   18.9795   20.6378   26.9257   13.7401    21.266   13.7531    19.473   17.7115
  weight sum          1505       450       746       138       385       712       914      3235       299       138       218       387
  precision         0.0353    0.0353    0.0353    0.0353    0.0353    0.0353    0.0353    0.0353    0.0353    0.0353    0.0353    0.0353

1ZCross
  mean              6.4973    2.7095    4.6951    2.7115    3.0678    3.8039    2.8588    0.1471    2.4688    3.5415    3.4387    3.3512
  std. dev.         4.7305    2.8951    3.4013    2.5858     3.289    3.4966    4.5876    0.8715    2.5057    2.2242    3.0618    3.2088
  weight sum          1505       450       746       138       385       712       914      3235       299       138       218       387
  precision         1.2727    1.2727    1.2727    1.2727    1.2727    1.2727    1.2727    1.2727    1.2727    1.2727    1.2727    1.2727

1F1(Hz)
  mean            632.5964  383.0878  435.3843  487.8092  340.7633  450.1528  369.5509   45.7694  423.0991  494.4923  462.9492   505.073
  std. dev.       296.8673  271.1426  182.9634    232.81  174.3406  244.2194  290.4831  157.8196  227.7907  163.5032  332.7223  181.6483
  weight sum          1505       450       746       138       385       712       914      3235       299       138       218       387
  precision         0.5127    0.5127    0.5127    0.5127    0.5127    0.5127    0.5127    0.5127    0.5127    0.5127    0.5127    0.5127

1F2(Hz)
  mean           1400.8405 1254.1885 1633.7862 1414.8511 1740.6907 1123.9385 1116.0376  138.7781 1449.4723 1449.0269  1000.033 1598.0563
  std. dev.       532.4998  842.5197  662.2232  640.3559  805.0767  603.6465  831.8752  473.9823  686.1573  382.0215   546.594  503.8129
  weight sum          1505       450       746       138       385       712       914      3235       299       138       218       387
  precision         0.6985    0.6985    0.6985    0.6985    0.6985    0.6985    0.6985    0.6985    0.6985    0.6985    0.6985    0.6985

1F3(Hz)
  mean           2566.7052 2055.7862 2466.1143 2406.0546 2427.5868 2381.9061 1913.4664  236.8432 2437.2044 2791.3469  2460.271 2734.4611
  std. dev.       934.1062 1349.7339  983.2863 1054.0979 1119.2236 1133.1835 1397.5103  790.2031 1070.9844   620.118 1089.2339  763.2448
  weight sum          1505       450       746       138       385       712       914      3235       299       138       218       387
  precision         1.0065    1.0065    1.0065    1.0065    1.0065    1.0065    1.0065    1.0065    1.0065    1.0065    1.0065    1.0065

1F4(Hz)
  mean           2970.9678 2352.0886  2968.206 2858.1926 2906.6724 2739.0875 2212.7873  290.0819  2883.526 3255.5773  2778.374 3118.5716
  std. dev.      1072.0689 1533.4925 1156.9806 1217.3342 1305.1093 1292.2218 1602.7043  965.6184 1232.2639  686.1677 1167.5154  860.9192
  weight sum          1505       450       746       138       385       712       914      3235       299       138       218       387
  precision         1.0301    1.0301    1.0301    1.0301    1.0301    1.0301    1.0301    1.0301    1.0301    1.0301    1.0301    1.0301

2Int(dB)
  mean             -4.7838  -15.4416   -5.6493  -13.9655   -9.5022   -8.6644  -19.5414  -50.8591  -12.4527   -8.6538   -5.9413  -10.0404
  std. dev.          9.917   11.1773    8.2505    8.9902    8.6317   12.1183    9.6185   13.3675   10.4872    7.2422    8.0011    8.0706
  weight sum          1505       450       746       138       385       712       914      3235       299       138       218       387
  precision         0.1008    0.1008    0.1008    0.1008    0.1008    0.1008    0.1008    0.1008    0.1008    0.1008    0.1008    0.1008

2Pitch(Hz)
  mean            215.4717  142.0778  192.4898  152.2312  174.3019  180.2959  104.1051    8.6388  173.7208  190.1568  232.3523  184.1661
  std. dev.       105.3209  107.9314    85.636   105.769   75.0715  103.4062  108.2551   41.2201  104.0157   91.3345   82.3117   97.3536
  weight sum          1505       450       746       138       385       712       914      3235       299       138       218       387
  precision         0.2034    0.2034    0.2034    0.2034    0.2034    0.2034    0.2034    0.2034    0.2034    0.2034    0.2034    0.2034

2RawPitch
  mean            205.1279  123.5759  188.8553  123.0765  166.4766  174.0908   86.1062     6.907  156.9007  185.4439  222.5693  172.6016
  std. dev.       110.0217  108.7094   89.4789  101.8456   78.7839  108.0935  104.5404   35.5041  112.4322   97.5665   89.8429  105.8742
  weight sum          1505       450       746       138       385       712       914      3235       299       138       218       387
  precision         0.2088    0.2088    0.2088    0.2088    0.2088    0.2088    0.2088    0.2088    0.2088    0.2088    0.2088    0.2088

2SmPitch
  mean            213.4208  133.1159  191.6241  141.6009  171.8543   178.962   97.7719    7.4163  169.8194  189.6336  232.3227  181.8342
  std. dev.       106.8674  111.4709   86.4181  100.3995   76.5988  104.3249  107.7057   36.4734  107.6346   92.3532   82.2366   99.7005
  weight sum          1505       450       746       138       385       712       914      3235       299       138       218       387
  precision         0.2051    0.2051    0.2051    0.2051    0.2051    0.2051    0.2051    0.2051    0.2051    0.2051    0.2051    0.2051

2Melogram(st)
  mean             52.0827   36.7952   51.3162   42.7509   49.4307   47.7311   28.1101    2.7472   45.7719   50.8347   54.9086   47.9275
  std. dev.        15.5643   25.8402   13.9659   21.9334   14.5646   19.2227    27.377   12.0049   21.2519   14.5044   12.8002   19.2949
  weight sum          1505       450       746       138       385       712       914      3235       299       138       218       387
  precision         0.0352    0.0352    0.0352    0.0352    0.0352    0.0352    0.0352    0.0352    0.0352    0.0352    0.0352    0.0352

2ZCross
  mean              6.7146    2.7972    4.8248    2.0843    3.1868    3.9665    2.6986    0.0854    2.2092    3.4862     3.573    2.9993
  std. dev.          4.535    3.0186    3.1533    2.0439    2.9527    3.0096    4.7727    0.6291     2.095    2.2377    2.8222    4.3035
  weight sum          1505       450       746       138       385       712       914      3235       299       138       218       387
  precision         1.2727    1.2727    1.2727    1.2727    1.2727    1.2727    1.2727    1.2727    1.2727    1.2727    1.2727    1.2727

2F1(Hz)
  mean            680.6071  362.7342  468.1216  433.0067  362.9833  487.9887  305.0821   33.6418  402.1692  495.2687  498.1345  456.4619
  std. dev.       260.5161  271.2321  135.4424  254.6457  139.6622  219.6408  293.2229  135.0001  226.7452  176.0915  299.1257  189.4997
  weight sum          1505       450       746       138       385       712       914      3235       299       138       218       387
  precision         0.5127    0.5127    0.5127    0.5127    0.5127    0.5127    0.5127    0.5127    0.5127    0.5127    0.5127    0.5127

2F2(Hz)
  mean           1463.4676 1203.8626 1802.3085 1302.5905 1971.4305 1165.7924  937.3286  104.6191 1402.7174 1423.4659 1080.7158 1529.0513
  std. dev.       432.0523  847.9838  487.8366  701.6256  644.7659  525.3227  863.0234  415.8917  694.7863   407.382  431.8771  567.7466
  weight sum          1505       450       746       138       385       712       914      3235       299       138       218       387
  precision         0.6985    0.6985    0.6985    0.6985    0.6985    0.6985    0.6985    0.6985    0.6985    0.6985    0.6985    0.6985

2F3(Hz)
  mean           2691.8093 2000.3705 2662.4498 2220.2677 2672.9489 2534.4259 1601.4051  178.4715 2362.4099 2756.8647 2714.6841 2627.1885
  std. dev.       762.9907 1383.7036   729.876 1179.8092  890.7818  989.9708 1456.9288  694.0702 1105.7815   698.638  768.9985  897.2101
  weight sum          1505       450       746       138       385       712       914      3235       299       138       218       387
  precision         1.0065    1.0065    1.0065    1.0065    1.0065    1.0065    1.0065    1.0065    1.0065    1.0065    1.0065    1.0065

2F4(Hz)
  mean            3114.979 2277.7553 3199.5596 2671.4019 3176.0491 2913.9175 1852.0608  219.9108 2816.8308 3224.9891  3074.217 3010.2722
  std. dev.       871.0219 1563.2483  841.1377 1380.3083 1017.7226 1121.3472 1674.0085   853.084 1281.9538  787.9869  772.1011   1028.98
  weight sum          1505       450       746       138       385       712       914      3235       299       138       218       387
  precision         1.0301    1.0301    1.0301    1.0301    1.0301    1.0301    1.0301    1.0301    1.0301    1.0301    1.0301    1.0301





=== Stratified cross-validation ===

Correctly Classified Instances        4157               45.5462 %
Incorrectly Classified Instances      4970               54.4538 %
Kappa statistic                          0.3439
K&B Relative Info Score             293981.5981 %
K&B Information Score                 8670.0872 bits      0.9499 bits/instance
Class complexity | order 0           26899.5449 bits      2.9472 bits/instance
Class complexity | scheme           143366.1232 bits     15.7079 bits/instance
Complexity improvement     (Sf)    -116466.5783 bits    -12.7607 bits/instance
Mean absolute error                      0.0908
Root mean squared error                  0.2729
Relative absolute error                 66.6953 %
Root relative squared error            104.6383 %
Coverage of cases (0.95 level)          57.4669 %
Mean rel. region size (0.95 level)      15.8632 %
Total Number of Instances             9127     


=== Detailed Accuracy By Class ===

                 TP Rate  FP Rate  Precision  Recall   F-Measure  MCC      ROC Area  PRC Area  Class
                 0,377    0,055    0,577      0,377    0,456      0,386    0,839     0,529     A
                 0,016    0,011    0,069      0,016    0,025      0,010    0,670     0,074     LGJKC
                 0,145    0,022    0,366      0,145    0,207      0,190    0,817     0,274     E
                 0,029    0,011    0,038      0,029    0,033      0,020    0,736     0,032     FV
                 0,234    0,025    0,295      0,234    0,261      0,234    0,845     0,239     I
                 0,008    0,003    0,188      0,008    0,016      0,024    0,734     0,165     O
                 0,290    0,062    0,342      0,290    0,314      0,246    0,750     0,293     SNRTY
                 0,912    0,077    0,867      0,912    0,889      0,826    0,951     0,894     0
                 0,000    0,001    0,000      0,000    0,000      -0,006   0,728     0,061     BMP
                 0,732    0,272    0,040      0,732    0,075      0,125    0,810     0,049     DZ
                 0,170    0,010    0,287      0,170    0,213      0,206    0,847     0,170     U
                 0,057    0,048    0,050      0,057    0,053      0,008    0,725     0,073     SNRTXY
Weighted Avg.    0,455    0,053    0,507      0,455    0,461      0,416    0,841     0,493     


=== Confusion Matrix ===

    a    b    c    d    e    f    g    h    i    j    k    l   <-- classified as
  568   32   65   15   33   19   81   47    1  555   35   54 |    a = A
   32    7   21    5   11    1   71   81    0  171    1   49 |    b = LGJKC
   91   17  108    2   54    3   46   22    0  323   15   65 |    c = E
   11    2    3    4    2    0   21    9    0   76    0   10 |    d = FV
   18    8   52    2   90    1   34   17    1  114    3   45 |    e = I
   86   16   19   11   29    6   52   62    1  386   27   17 |    f = O
   58    6   10   26   18    0  265  175    2  239    6  109 |    g = SNRTY
    6    1    1   20   13    0  109 2949    2   93    2   39 |    h = 0
   25    5    3    4   27    0   37   21    0  152    2   23 |    i = BMP
   15    0    1    4    1    0    5    4    0  101    0    7 |    j = DZ
   31    7    2    1   19    2   18    3    2   94   37    2 |    k = U
   44    0   10   12    8    0   35   11    0  244    1   22 |    l = SNRTXY

=== Percent Confusion Matrix ===
a	b	c	d	e	f	g	h	i	j	k	l	
37.74	2.13	4.32	1.0	2.19	1.26	5.38	3.12	0.07	36.88	2.33	3.59	 a = A
7.11	1.56	4.67	1.11	2.44	0.22	15.78	18.0	0.0	38.0	0.22	10.89	 b = LGJKC
12.2	2.28	14.48	0.27	7.24	0.4	6.17	2.95	0.0	43.3	2.01	8.71	 c = E
7.97	1.45	2.17	2.9	1.45	0.0	15.22	6.52	0.0	55.07	0.0	7.25	 d = FV
4.68	2.08	13.51	0.52	23.38	0.26	8.83	4.42	0.26	29.61	0.78	11.69	 e = I
12.08	2.25	2.67	1.54	4.07	0.84	7.3	8.71	0.14	54.21	3.79	2.39	 f = O
6.35	0.66	1.09	2.84	1.97	0.0	28.99	19.15	0.22	26.15	0.66	11.93	 g = SNRTY
0.19	0.03	0.03	0.62	0.4	0.0	3.37	91.16	0.06	2.87	0.06	1.21	 h = 0
8.36	1.67	1.0	1.34	9.03	0.0	12.37	7.02	0.0	50.84	0.67	7.69	 i = BMP
10.87	0.0	0.72	2.9	0.72	0.0	3.62	2.9	0.0	73.19	0.0	5.07	 j = DZ
14.22	3.21	0.92	0.46	8.72	0.92	8.26	1.38	0.92	43.12	16.97	0.92	 k = U
11.37	0.0	2.58	3.1	2.07	0.0	9.04	2.84	0.0	63.05	0.26	5.68	 l = SNRTXY
