Timestamp:2014-12-07-10:56:56
Inventario:I2
Intervalo:2ms
Ngramas:3
Clasificador:NaiveBayes
Relation Name:  I2-2ms-3gramas
Num Instances:  91701
Num Attributes: 31

     Name                      Type  Nom  Int Real     Missing      Unique  Dist
   1 0Int(dB)                   Num   0%   9%  91%     0 /  0%     4 /  0%   779 
   2 0Pitch(Hz)                 Num   0%  52%  48%     0 /  0%   471 /  1%  4016 
   3 0RawPitch                  Num   0%  55%  45%     0 /  0%   550 /  1%  4014 
   4 0SmPitch                   Num   0%  53%  47%     0 /  0%   491 /  1%  3998 
   5 0Melogram(st)              Num   0%  49%  51%     0 /  0%   212 /  0%  3363 
   6 0ZCross                    Num   0% 100%   0%     0 /  0%     6 /  0%    54 
   7 0F1(Hz)                    Num   0%  52%  48%     0 /  0%  1126 /  1%  4776 
   8 0F2(Hz)                    Num   0%  52%  48%     0 /  0%  2304 /  3%  6727 
   9 0F3(Hz)                    Num   0%  52%  48%     0 /  0%  1967 /  2%  6224 
  10 0F4(Hz)                    Num   0%  52%  48%     0 /  0%  1884 /  2%  6074 
  11 1Int(dB)                   Num   0%   9%  91%     0 /  0%     5 /  0%   780 
  12 1Pitch(Hz)                 Num   0%  52%  48%     0 /  0%   471 /  1%  4016 
  13 1RawPitch                  Num   0%  55%  45%     0 /  0%   550 /  1%  4014 
  14 1SmPitch                   Num   0%  53%  47%     0 /  0%   491 /  1%  3998 
  15 1Melogram(st)              Num   0%  49%  51%     0 /  0%   212 /  0%  3363 
  16 1ZCross                    Num   0% 100%   0%     0 /  0%     6 /  0%    54 
  17 1F1(Hz)                    Num   0%  52%  48%     0 /  0%  1126 /  1%  4776 
  18 1F2(Hz)                    Num   0%  52%  48%     0 /  0%  2304 /  3%  6727 
  19 1F3(Hz)                    Num   0%  52%  48%     0 /  0%  1967 /  2%  6224 
  20 1F4(Hz)                    Num   0%  52%  48%     0 /  0%  1884 /  2%  6074 
  21 2Int(dB)                   Num   0%   9%  91%     0 /  0%     6 /  0%   781 
  22 2Pitch(Hz)                 Num   0%  52%  48%     0 /  0%   471 /  1%  4016 
  23 2RawPitch                  Num   0%  55%  45%     0 /  0%   550 /  1%  4014 
  24 2SmPitch                   Num   0%  53%  47%     0 /  0%   491 /  1%  3998 
  25 2Melogram(st)              Num   0%  49%  51%     0 /  0%   212 /  0%  3363 
  26 2ZCross                    Num   0% 100%   0%     0 /  0%     6 /  0%    54 
  27 2F1(Hz)                    Num   0%  52%  48%     0 /  0%  1126 /  1%  4776 
  28 2F2(Hz)                    Num   0%  52%  48%     0 /  0%  2304 /  3%  6727 
  29 2F3(Hz)                    Num   0%  52%  48%     0 /  0%  1967 /  2%  6224 
  30 2F4(Hz)                    Num   0%  52%  48%     0 /  0%  1884 /  2%  6074 
  31 class                      Nom 100%   0%   0%     0 /  0%     0 /  0%    12 


Naive Bayes Classifier

                    Class
Attribute               A     LGJKC         E        FV         I         O     SNRTY         0       BMP        DZ         U    SNRTXY
                   (0.16)    (0.05)    (0.08)    (0.01)    (0.04)    (0.07)    (0.09)    (0.39)    (0.03)    (0.01)    (0.02)    (0.04)
========================================================================================================================================
0Int(dB)
  mean             -4.2251  -15.6275    -5.205  -15.0221   -8.7895   -8.1324  -19.8784  -48.1799  -12.6603   -8.3397   -5.3672  -10.4288
  std. dev.         9.6253   11.3142    8.1176    8.9257    8.3703   12.1307    9.4356   16.3014   10.8312    6.7392     8.007    8.3305
  weight sum         14333      4428      6910      1286      3561      6646      8663     35831      2915      1346      2080      3702
  precision          0.104     0.104     0.104     0.104     0.104     0.104     0.104     0.104     0.104     0.104     0.104     0.104

0Pitch(Hz)
  mean            215.3388  128.2048  189.4672   131.712  172.4288  178.9677    81.633   17.0609  158.9952  197.4113  228.8154  176.1354
  std. dev.       108.3673  111.6359   88.3909  107.4401   77.1572  105.4237  105.1726    56.853   111.641   88.9567   85.6072  102.9305
  weight sum         14333      4428      6910      1286      3561      6646      8663     35831      2915      1346      2080      3702
  precision         0.1242    0.1242    0.1242    0.1242    0.1242    0.1242    0.1242    0.1242    0.1242    0.1242    0.1242    0.1242

0RawPitch
  mean            204.8262  106.3841  185.2835  106.7449  164.8572  173.0225   62.9326   13.9619  146.6041  191.2629  219.9054  162.5968
  std. dev.       114.8351  109.7058   95.4466  103.7582   83.8605  112.8916   98.9149   51.2541  116.7477   98.1667   93.8544   112.594
  weight sum         14333      4428      6910      1286      3561      6646      8663     35831      2915      1346      2080      3702
  precision         0.1243    0.1243    0.1243    0.1243    0.1243    0.1243    0.1243    0.1243    0.1243    0.1243    0.1243    0.1243

0SmPitch
  mean            213.2942  118.9468  187.8876  121.4041  170.0743  176.8295   74.7279   15.4228  154.5794     196.8  228.2489   173.465
  std. dev.       110.0116  112.5748   89.6855  104.6191   79.5741  107.6308  103.0179    53.067  114.1868   90.0544   85.8949  104.7442
  weight sum         14333      4428      6910      1286      3561      6646      8663     35831      2915      1346      2080      3702
  precision         0.1248    0.1248    0.1248    0.1248    0.1248    0.1248    0.1248    0.1248    0.1248    0.1248    0.1248    0.1248

0Melogram(st)
  mean             51.2738   32.2995    50.296   37.1801   48.3177   46.5862   22.0058    5.0216   41.2827   51.7238   53.7993   46.0144
  std. dev.        17.0546   26.9642   15.6299   24.9375   16.4721   20.4797   26.8403   15.7545   24.4294   13.8823     14.79   21.0579
  weight sum         14333      4428      6910      1286      3561      6646      8663     35831      2915      1346      2080      3702
  precision         0.0246    0.0246    0.0246    0.0246    0.0246    0.0246    0.0246    0.0246    0.0246    0.0246    0.0246    0.0246

0ZCross
  mean              7.1301    3.0824    5.2767     2.069    3.7235    4.4336    2.8724    0.2613    2.4852    3.9831    4.0842    3.2752
  std. dev.         4.5874     3.788     3.209    2.2383    3.2289    3.0623    5.3818    1.1465    2.2611    2.3602    2.9396    5.0415
  weight sum         14333      4428      6910      1286      3561      6646      8663     35831      2915      1346      2080      3702
  precision         1.0755    1.0755    1.0755    1.0755    1.0755    1.0755    1.0755    1.0755    1.0755    1.0755    1.0755    1.0755

0F1(Hz)
  mean            677.0705  327.0989  461.0472  388.0168  359.1654  481.7752  249.8542    54.983  372.2266  504.3029  494.6223  433.9309
  std. dev.       274.1678  274.8933  149.9473   278.164  147.6819  227.7162  290.9205  168.4324  238.0257  171.2959   311.451  203.6934
  weight sum         14333      4428      6910      1286      3561      6646      8663     35831      2915      1346      2080      3702
  precision         0.3648    0.3648    0.3648    0.3648    0.3648    0.3648    0.3648    0.3648    0.3648    0.3648    0.3648    0.3648

0F2(Hz)
  mean           1438.0676 1105.6876 1772.0574 1173.9193 1952.7441 1139.4043   762.998  171.9857 1309.0897 1447.6359 1043.9884 1463.3985
  std. dev.       463.2855  879.1633  544.5249  775.1169  688.7429  541.1664  857.0263  521.2356  752.5784   390.147  438.5623   621.758
  weight sum         14333      4428      6910      1286      3561      6646      8663     35831      2915      1346      2080      3702
  precision         0.4429    0.4429    0.4429    0.4429    0.4429    0.4429    0.4429    0.4429    0.4429    0.4429    0.4429    0.4429

0F3(Hz)
  mean           2645.3531 1835.4256 2603.6899 2003.0171 2631.3817 2490.7242 1309.7685  293.4267 2203.0948 2799.2032 2648.1475 2524.5723
  std. dev.       826.9081 1438.8383  809.0505 1310.3914  948.5385 1033.2776 1459.6458  874.0473 1210.0929   661.974  826.0863 1005.6339
  weight sum         14333      4428      6910      1286      3561      6646      8663     35831      2915      1346      2080      3702
  precision          0.662     0.662     0.662     0.662     0.662     0.662     0.662     0.662     0.662     0.662     0.662     0.662

0F4(Hz)
  mean           3069.6694 2091.4756 3139.0513 2393.9651 3132.5813 2866.8671 1500.9276  352.5404 2641.4508 3242.0836 3035.0863 2897.4177
  std. dev.        945.882 1626.6128  942.3082 1531.3561 1087.3648 1172.3377 1661.5435 1047.8436 1419.3848  743.0753  857.2082 1155.2209
  weight sum         14333      4428      6910      1286      3561      6646      8663     35831      2915      1346      2080      3702
  precision         0.6829    0.6829    0.6829    0.6829    0.6829    0.6829    0.6829    0.6829    0.6829    0.6829    0.6829    0.6829

1Int(dB)
  mean             -4.2367  -15.3568   -5.1801  -15.0289   -8.7172    -8.146  -19.8155  -48.2527  -12.4737   -8.2684   -5.2139  -10.5395
  std. dev.         9.6141    11.078     8.069    8.8787    8.3524   12.1698    9.4065   16.2023   10.7103    6.7651    7.7793    8.3476
  weight sum         14333      4428      6910      1286      3561      6646      8663     35831      2915      1346      2080      3702
  precision         0.1039    0.1039    0.1039    0.1039    0.1039    0.1039    0.1039    0.1039    0.1039    0.1039    0.1039    0.1039

1Pitch(Hz)
  mean            215.3054  130.3957  190.0868  131.0502  173.0539  178.5997    81.633   16.6926  159.5378  197.3134  229.3808  175.6318
  std. dev.       108.4186  111.6066   87.9634  107.2576   76.5412   105.265  105.3344   56.2804  111.1102   89.1466    84.526   103.219
  weight sum         14333      4428      6910      1286      3561      6646      8663     35831      2915      1346      2080      3702
  precision         0.1242    0.1242    0.1242    0.1242    0.1242    0.1242    0.1242    0.1242    0.1242    0.1242    0.1242    0.1242

1RawPitch
  mean            204.9204  107.8573  185.5725  106.2993  165.7052  172.7286   62.8262   13.6787   147.555  191.1584  220.4839  161.7517
  std. dev.        114.845  109.9635   95.2181  103.3674   83.3185  112.6688   98.9135   50.8131  116.3293   98.1058   93.0053  112.8954
  weight sum         14333      4428      6910      1286      3561      6646      8663     35831      2915      1346      2080      3702
  precision         0.1243    0.1243    0.1243    0.1243    0.1243    0.1243    0.1243    0.1243    0.1243    0.1243    0.1243    0.1243

1SmPitch
  mean            213.3064  120.8501  188.5362  120.8089  170.6841  176.5062   74.7538   15.0751  154.9178  196.7689  228.8712  172.8312
  std. dev.       109.9963  112.7685   89.2414  104.3726   79.0929  107.4391  103.1617   52.4896  113.8128   90.1148   84.8121   105.082
  weight sum         14333      4428      6910      1286      3561      6646      8663     35831      2915      1346      2080      3702
  precision         0.1248    0.1248    0.1248    0.1248    0.1248    0.1248    0.1248    0.1248    0.1248    0.1248    0.1248    0.1248

1Melogram(st)
  mean             51.3027   32.6817   50.4037   37.0227   48.4912   46.5516    21.964    4.9295    41.476   51.7167   54.0704   45.8817
  std. dev.        16.9973    26.931   15.4597   25.0004   16.2162    20.484    26.856   15.6282   24.3018   13.8885   14.2652    21.173
  weight sum         14333      4428      6910      1286      3561      6646      8663     35831      2915      1346      2080      3702
  precision         0.0246    0.0246    0.0246    0.0246    0.0246    0.0246    0.0246    0.0246    0.0246    0.0246    0.0246    0.0246

1ZCross
  mean              7.1259    3.1149    5.2659    2.0682    3.7314    4.4315    2.8907    0.2535     2.518    4.0278    4.0992    3.2508
  std. dev.         4.5903    3.7729    3.2124    2.2445    3.2172    3.0586    5.3852    1.1335    2.2548    2.3586    2.9273    5.0581
  weight sum         14333      4428      6910      1286      3561      6646      8663     35831      2915      1346      2080      3702
  precision         1.0755    1.0755    1.0755    1.0755    1.0755    1.0755    1.0755    1.0755    1.0755    1.0755    1.0755    1.0755

1F1(Hz)
  mean            680.5164  327.9873   463.877  383.2741  361.6146  484.2054  245.0498   53.8376  371.8273  504.9305  498.0573  429.6581
  std. dev.       271.5055  274.1854   146.053  277.9272  144.1442  226.2125  289.3656  166.7243   237.112  171.3464   307.944  203.5119
  weight sum         14333      4428      6910      1286      3561      6646      8663     35831      2915      1346      2080      3702
  precision         0.3648    0.3648    0.3648    0.3648    0.3648    0.3648    0.3648    0.3648    0.3648    0.3648    0.3648    0.3648

1F2(Hz)
  mean           1442.0523 1108.1493  1785.616 1168.3225 1974.0792 1140.4987  750.1326   168.567 1308.1584 1447.6544  1053.554 1457.7227
  std. dev.       456.0769  876.3799  528.1297  778.4294  669.1502  535.6978  855.0401   516.644   749.768  391.6426  426.6176  624.9813
  weight sum         14333      4428      6910      1286      3561      6646      8663     35831      2915      1346      2080      3702
  precision         0.4429    0.4429    0.4429    0.4429    0.4429    0.4429    0.4429    0.4429    0.4429    0.4429    0.4429    0.4429

1F3(Hz)
  mean           2653.6177 1843.3859 2619.8245 1990.5358 2655.6632  2499.568 1287.0206  287.4269 2202.5227 2798.5752  2673.852 2515.5789
  std. dev.       815.2889 1437.1292  786.5019 1314.6764  922.4738 1024.8703 1456.2998  866.0225 1206.5921   666.643  787.5699 1012.9065
  weight sum         14333      4428      6910      1286      3561      6646      8663     35831      2915      1346      2080      3702
  precision          0.662     0.662     0.662     0.662     0.662     0.662     0.662     0.662     0.662     0.662     0.662     0.662

1F4(Hz)
  mean           3078.5421  2101.281 3157.1809 2382.1202 3159.0187 2876.1426 1475.8212  345.4959 2644.3886 3240.4226  3063.919 2888.5546
  std. dev.       932.0325 1624.8999  913.7543 1537.9929 1054.7924 1161.7476 1659.1561 1038.6519 1416.7903  748.1848  806.6532 1164.8692
  weight sum         14333      4428      6910      1286      3561      6646      8663     35831      2915      1346      2080      3702
  precision         0.6829    0.6829    0.6829    0.6829    0.6829    0.6829    0.6829    0.6829    0.6829    0.6829    0.6829    0.6829

2Int(dB)
  mean             -4.2733  -15.0488    -5.199  -15.0003    -8.676   -8.1936  -19.7065   -48.307  -12.2641   -8.1726   -5.0927  -10.6476
  std. dev.         9.6287   10.8635    8.0531    8.8607    8.3577   12.2208    9.4263   16.1116   10.5968    6.8019    7.5769    8.3765
  weight sum         14333      4428      6910      1286      3561      6646      8663     35831      2915      1346      2080      3702
  precision         0.1037    0.1037    0.1037    0.1037    0.1037    0.1037    0.1037    0.1037    0.1037    0.1037    0.1037    0.1037

2Pitch(Hz)
  mean            215.1446  132.6941  190.3791  130.8258  173.4856  178.0537   82.0048   16.3387  160.3717  197.2842  229.8416  175.2531
  std. dev.       108.5552   111.541   87.7367  107.1381   76.0683  105.2226  105.6854   55.7285  110.4325   89.2015   83.5753  103.4275
  weight sum         14333      4428      6910      1286      3561      6646      8663     35831      2915      1346      2080      3702
  precision         0.1242    0.1242    0.1242    0.1242    0.1242    0.1242    0.1242    0.1242    0.1242    0.1242    0.1242    0.1242

2RawPitch
  mean            204.7828  109.8718   185.837  105.9763  166.2787  172.2852   63.1905   13.3731  148.5095  191.0311  220.9278  160.8881
  std. dev.       114.9802    110.33   95.0002  102.9581   83.0617  112.5036   99.2114   50.3492  115.8451   97.9614   92.1417  113.1803
  weight sum         14333      4428      6910      1286      3561      6646      8663     35831      2915      1346      2080      3702
  precision         0.1243    0.1243    0.1243    0.1243    0.1243    0.1243    0.1243    0.1243    0.1243    0.1243    0.1243    0.1243

2SmPitch
  mean            213.2239  122.9872  188.9642  120.6473  171.0525  175.9682   75.1339   14.7411  155.6124  196.8148  229.2536   172.027
  std. dev.       110.0447  112.9121   88.9263  104.2291   78.7886  107.3853  103.5009   51.9302  113.2741   90.0345   84.0032  105.5167
  weight sum         14333      4428      6910      1286      3561      6646      8663     35831      2915      1346      2080      3702
  precision         0.1248    0.1248    0.1248    0.1248    0.1248    0.1248    0.1248    0.1248    0.1248    0.1248    0.1248    0.1248

2Melogram(st)
  mean             51.2983   33.1517   50.4842   37.0069   48.6341   46.4749   22.0146    4.8255   41.6893   51.7752   54.3072   45.7574
  std. dev.        16.9875   26.8769   15.3213   25.0249   15.9951   20.5262   26.8897   15.4833   24.1614   13.7541   13.7628   21.2886
  weight sum         14333      4428      6910      1286      3561      6646      8663     35831      2915      1346      2080      3702
  precision         0.0246    0.0246    0.0246    0.0246    0.0246    0.0246    0.0246    0.0246    0.0246    0.0246    0.0246    0.0246

2ZCross
  mean               7.111    3.1506    5.2438    2.0698    3.7483    4.4237    2.9147    0.2484    2.5583    4.0886    4.1111    3.2363
  std. dev.         4.6004    3.7529    3.2168    2.2498    3.2275    3.0692     5.384    1.1311    2.2519    2.3648    2.9164     5.066
  weight sum         14333      4428      6910      1286      3561      6646      8663     35831      2915      1346      2080      3702
  precision         1.0755    1.0755    1.0755    1.0755    1.0755    1.0755    1.0755    1.0755    1.0755    1.0755    1.0755    1.0755

2F1(Hz)
  mean            683.4195   329.635  466.4894  378.5922    363.75  486.2046  241.1127   52.7343   372.086  505.7205  500.6341   425.508
  std. dev.        269.455  273.3007  142.2388  277.5826  140.8431  225.0865  287.7183   165.102  236.0116  171.4004  305.2064  203.4459
  weight sum         14333      4428      6910      1286      3561      6646      8663     35831      2915      1346      2080      3702
  precision         0.3648    0.3648    0.3648    0.3648    0.3648    0.3648    0.3648    0.3648    0.3648    0.3648    0.3648    0.3648

2F2(Hz)
  mean           1444.7727 1112.3184 1798.4442 1163.3139  1993.047 1140.7371  740.6528  165.1204 1309.1173 1447.7215 1061.2779 1451.7489
  std. dev.       450.4532  872.7631  511.8666   782.141  650.7685  531.1147   853.618   511.871    746.06  393.3743  416.4942  628.6578
  weight sum         14333      4428      6910      1286      3561      6646      8663     35831      2915      1346      2080      3702
  precision         0.4429    0.4429    0.4429    0.4429    0.4429    0.4429    0.4429    0.4429    0.4429    0.4429    0.4429    0.4429

2F3(Hz)
  mean           2659.8447 1854.8343 2634.9785 1978.2255 2677.3565 2506.4348 1269.4081  281.5324 2204.7048 2797.9736 2694.0925 2505.9666
  std. dev.       806.7783 1434.0175  764.1593 1318.9077  898.3116 1018.6433 1453.0535  858.0649 1201.2074  671.2133  755.1652 1020.9464
  weight sum         14333      4428      6910      1286      3561      6646      8663     35831      2915      1346      2080      3702
  precision          0.662     0.662     0.662     0.662     0.662     0.662     0.662     0.662     0.662     0.662     0.662     0.662

2F4(Hz)
  mean           3084.7647 2115.9384   3174.33 2370.2376 3182.3609 2882.7851 1457.3159  338.5265 2650.5175 3238.3887 3086.3027 2878.7668
  std. dev.       921.7526 1622.1375  885.5429 1544.5093 1024.5862 1153.5603 1657.6969 1029.4118 1411.8243  753.1084   763.546 1175.2848
  weight sum         14333      4428      6910      1286      3561      6646      8663     35831      2915      1346      2080      3702
  precision         0.6829    0.6829    0.6829    0.6829    0.6829    0.6829    0.6829    0.6829    0.6829    0.6829    0.6829    0.6829





=== Stratified cross-validation ===

Correctly Classified Instances       47393               51.6821 %
Incorrectly Classified Instances     44308               48.3179 %
Kappa statistic                          0.3914
K&B Relative Info Score            3397511.6141 %
K&B Information Score                97282.656  bits      1.0609 bits/instance
Class complexity | order 0          262553.9315 bits      2.8632 bits/instance
Class complexity | scheme          1596182.3952 bits     17.4064 bits/instance
Complexity improvement     (Sf)    -1333628.4637 bits    -14.5432 bits/instance
Mean absolute error                      0.0819
Root mean squared error                  0.2569
Relative absolute error                 61.7692 %
Root relative squared error             99.77   %
Coverage of cases (0.95 level)          60.4901 %
Mean rel. region size (0.95 level)      15.0297 %
Total Number of Instances            91701     


=== Detailed Accuracy By Class ===

                 TP Rate  FP Rate  Precision  Recall   F-Measure  MCC      ROC Area  PRC Area  Class
                 0,454    0,040    0,679      0,454    0,544      0,492    0,884     0,613     A
                 0,022    0,007    0,129      0,022    0,037      0,034    0,691     0,084     LGJKC
                 0,595    0,088    0,356      0,595    0,445      0,404    0,867     0,410     E
                 0,059    0,025    0,032      0,059    0,042      0,025    0,730     0,030     FV
                 0,387    0,041    0,276      0,387    0,322      0,295    0,862     0,266     I
                 0,005    0,003    0,107      0,005    0,009      0,008    0,778     0,182     O
                 0,177    0,025    0,423      0,177    0,249      0,228    0,802     0,307     SNRTY
                 0,894    0,141    0,802      0,894    0,846      0,741    0,950     0,945     0
                 0,006    0,004    0,048      0,006    0,011      0,006    0,722     0,057     BMP
                 0,514    0,158    0,046      0,514    0,085      0,116    0,813     0,046     DZ
                 0,422    0,021    0,322      0,422    0,365      0,352    0,871     0,355     U
                 0,015    0,006    0,093      0,015    0,025      0,021    0,733     0,074     SNRTXY
Weighted Avg.    0,517    0,076    0,525      0,517    0,499      0,443    0,868     0,567     


=== Confusion Matrix ===

     a     b     c     d     e     f     g     h     i     j     k     l   <-- classified as
  6512   131  1996   331   314    80   239   755    44  3487   414    30 |     a = A
   238    96   616   156   392    53   451  1176    39  1017   113    81 |     b = LGJKC
   612    91  4111   145   455    10   132   269    54   943    61    27 |     c = E
    88    12   139    76   150     0    80   318     3   396     6    18 |     d = FV
   171    74  1403    97  1377     2   108   189    24   109     3     4 |     e = I
   721    77  1327   257    76    32   158   718    31  2406   780    63 |     f = O
   318   130   407   472   505    51  1530  3531    78  1401    78   162 |     g = SNRTY
   114    64   482   425   595    44   479 32017    47  1359   105   100 |     h = 0
   193    26   346   127   498    15   122   535    18   858   155    22 |     i = BMP
   145     0   242    32    81     0    20    50     7   692    57    20 |     j = DZ
   202    35   193    51    84    10    47    37    20   523   878     0 |     k = U
   278     6   286   190   461     1   249   305    10  1782    80    54 |     l = SNRTXY

=== Percent Confusion Matrix ===
a	b	c	d	e	f	g	h	i	j	k	l	
45.43	0.91	13.93	2.31	2.19	0.56	1.67	5.27	0.31	24.33	2.89	0.21	 a = A
5.37	2.17	13.91	3.52	8.85	1.2	10.19	26.56	0.88	22.97	2.55	1.83	 b = LGJKC
8.86	1.32	59.49	2.1	6.58	0.14	1.91	3.89	0.78	13.65	0.88	0.39	 c = E
6.84	0.93	10.81	5.91	11.66	0.0	6.22	24.73	0.23	30.79	0.47	1.4	 d = FV
4.8	2.08	39.4	2.72	38.67	0.06	3.03	5.31	0.67	3.06	0.08	0.11	 e = I
10.85	1.16	19.97	3.87	1.14	0.48	2.38	10.8	0.47	36.2	11.74	0.95	 f = O
3.67	1.5	4.7	5.45	5.83	0.59	17.66	40.76	0.9	16.17	0.9	1.87	 g = SNRTY
0.32	0.18	1.35	1.19	1.66	0.12	1.34	89.36	0.13	3.79	0.29	0.28	 h = 0
6.62	0.89	11.87	4.36	17.08	0.51	4.19	18.35	0.62	29.43	5.32	0.75	 i = BMP
10.77	0.0	17.98	2.38	6.02	0.0	1.49	3.71	0.52	51.41	4.23	1.49	 j = DZ
9.71	1.68	9.28	2.45	4.04	0.48	2.26	1.78	0.96	25.14	42.21	0.0	 k = U
7.51	0.16	7.73	5.13	12.45	0.03	6.73	8.24	0.27	48.14	2.16	1.46	 l = SNRTXY
