Timestamp:2014-12-07-10:57:52
Inventario:I2
Intervalo:2ms
Ngramas:5
Clasificador:NaiveBayes
Relation Name:  I2-2ms-5gramas
Num Instances:  91699
Num Attributes: 51

     Name                      Type  Nom  Int Real     Missing      Unique  Dist
   1 0Int(dB)                   Num   0%   9%  91%     0 /  0%     4 /  0%   779 
   2 0Pitch(Hz)                 Num   0%  52%  48%     0 /  0%   471 /  1%  4016 
   3 0RawPitch                  Num   0%  55%  45%     0 /  0%   550 /  1%  4014 
   4 0SmPitch                   Num   0%  53%  47%     0 /  0%   491 /  1%  3998 
   5 0Melogram(st)              Num   0%  49%  51%     0 /  0%   212 /  0%  3363 
   6 0ZCross                    Num   0% 100%   0%     0 /  0%     6 /  0%    54 
   7 0F1(Hz)                    Num   0%  52%  48%     0 /  0%  1126 /  1%  4776 
   8 0F2(Hz)                    Num   0%  52%  48%     0 /  0%  2304 /  3%  6727 
   9 0F3(Hz)                    Num   0%  52%  48%     0 /  0%  1967 /  2%  6224 
  10 0F4(Hz)                    Num   0%  52%  48%     0 /  0%  1884 /  2%  6074 
  11 1Int(dB)                   Num   0%   9%  91%     0 /  0%     4 /  0%   779 
  12 1Pitch(Hz)                 Num   0%  52%  48%     0 /  0%   471 /  1%  4016 
  13 1RawPitch                  Num   0%  55%  45%     0 /  0%   550 /  1%  4014 
  14 1SmPitch                   Num   0%  53%  47%     0 /  0%   491 /  1%  3998 
  15 1Melogram(st)              Num   0%  49%  51%     0 /  0%   212 /  0%  3363 
  16 1ZCross                    Num   0% 100%   0%     0 /  0%     6 /  0%    54 
  17 1F1(Hz)                    Num   0%  52%  48%     0 /  0%  1126 /  1%  4776 
  18 1F2(Hz)                    Num   0%  52%  48%     0 /  0%  2304 /  3%  6727 
  19 1F3(Hz)                    Num   0%  52%  48%     0 /  0%  1967 /  2%  6224 
  20 1F4(Hz)                    Num   0%  52%  48%     0 /  0%  1884 /  2%  6074 
  21 2Int(dB)                   Num   0%   9%  91%     0 /  0%     4 /  0%   779 
  22 2Pitch(Hz)                 Num   0%  52%  48%     0 /  0%   471 /  1%  4016 
  23 2RawPitch                  Num   0%  55%  45%     0 /  0%   550 /  1%  4014 
  24 2SmPitch                   Num   0%  53%  47%     0 /  0%   491 /  1%  3998 
  25 2Melogram(st)              Num   0%  49%  51%     0 /  0%   212 /  0%  3363 
  26 2ZCross                    Num   0% 100%   0%     0 /  0%     6 /  0%    54 
  27 2F1(Hz)                    Num   0%  52%  48%     0 /  0%  1126 /  1%  4776 
  28 2F2(Hz)                    Num   0%  52%  48%     0 /  0%  2304 /  3%  6727 
  29 2F3(Hz)                    Num   0%  52%  48%     0 /  0%  1967 /  2%  6224 
  30 2F4(Hz)                    Num   0%  52%  48%     0 /  0%  1884 /  2%  6074 
  31 3Int(dB)                   Num   0%   9%  91%     0 /  0%     5 /  0%   780 
  32 3Pitch(Hz)                 Num   0%  52%  48%     0 /  0%   471 /  1%  4016 
  33 3RawPitch                  Num   0%  55%  45%     0 /  0%   550 /  1%  4014 
  34 3SmPitch                   Num   0%  53%  47%     0 /  0%   491 /  1%  3998 
  35 3Melogram(st)              Num   0%  49%  51%     0 /  0%   212 /  0%  3363 
  36 3ZCross                    Num   0% 100%   0%     0 /  0%     6 /  0%    54 
  37 3F1(Hz)                    Num   0%  52%  48%     0 /  0%  1126 /  1%  4776 
  38 3F2(Hz)                    Num   0%  52%  48%     0 /  0%  2304 /  3%  6727 
  39 3F3(Hz)                    Num   0%  52%  48%     0 /  0%  1967 /  2%  6224 
  40 3F4(Hz)                    Num   0%  52%  48%     0 /  0%  1884 /  2%  6074 
  41 4Int(dB)                   Num   0%   9%  91%     0 /  0%     6 /  0%   781 
  42 4Pitch(Hz)                 Num   0%  52%  48%     0 /  0%   471 /  1%  4016 
  43 4RawPitch                  Num   0%  55%  45%     0 /  0%   550 /  1%  4014 
  44 4SmPitch                   Num   0%  53%  47%     0 /  0%   491 /  1%  3998 
  45 4Melogram(st)              Num   0%  49%  51%     0 /  0%   212 /  0%  3363 
  46 4ZCross                    Num   0% 100%   0%     0 /  0%     6 /  0%    54 
  47 4F1(Hz)                    Num   0%  52%  48%     0 /  0%  1126 /  1%  4776 
  48 4F2(Hz)                    Num   0%  52%  48%     0 /  0%  2304 /  3%  6727 
  49 4F3(Hz)                    Num   0%  52%  48%     0 /  0%  1967 /  2%  6224 
  50 4F4(Hz)                    Num   0%  52%  48%     0 /  0%  1884 /  2%  6074 
  51 class                      Nom 100%   0%   0%     0 /  0%     0 /  0%    12 


Naive Bayes Classifier

                    Class
Attribute               A     LGJKC         E        FV         I         O     SNRTY         0       BMP        DZ         U    SNRTXY
                   (0.16)    (0.05)    (0.08)    (0.01)    (0.04)    (0.07)    (0.09)    (0.39)    (0.03)    (0.01)    (0.02)    (0.04)
========================================================================================================================================
0Int(dB)
  mean             -4.2757  -16.0637   -5.3785  -14.9211   -9.0207   -8.2069  -19.8731  -48.0155  -12.9517    -8.394   -5.7377   -10.204
  std. dev.         9.7262    11.838    8.3213    9.0933    8.4876   12.0984    9.6259   16.5374   11.0857    6.6861    8.5115    8.3281
  weight sum         14333      4428      6910      1286      3561      6646      8663     35829      2915      1346      2080      3702
  precision          0.104     0.104     0.104     0.104     0.104     0.104     0.104     0.104     0.104     0.104     0.104     0.104

0Pitch(Hz)
  mean            214.9988  125.1666  187.8311  133.4787  170.7104  179.0057   82.6794   17.7734  158.3167   197.636  226.5988  177.4735
  std. dev.       108.6273  111.6669    89.376  107.8479   78.6629  106.0757  105.2611   57.9278  112.5154   88.5158   88.9001  102.2799
  weight sum         14333      4428      6910      1286      3561      6646      8663     35829      2915      1346      2080      3702
  precision         0.1242    0.1242    0.1242    0.1242    0.1242    0.1242    0.1242    0.1242    0.1242    0.1242    0.1242    0.1242

0RawPitch
  mean            204.3494   104.694  183.7354  107.8293  162.6083  172.8374   64.0502   14.6304  145.7471  191.3539  217.8451  164.1944
  std. dev.       115.1861  109.7134   96.0886  104.5889    85.103  113.3864   99.4167   52.4273  117.4623   98.1177   96.4573  111.7947
  weight sum         14333      4428      6910      1286      3561      6646      8663     35829      2915      1346      2080      3702
  precision         0.1243    0.1243    0.1243    0.1243    0.1243    0.1243    0.1243    0.1243    0.1243    0.1243    0.1243    0.1243

0SmPitch
  mean            212.8412  116.5315  186.0241  123.0395   168.338  176.7654   75.8107   16.1104  154.2954  196.8874  226.1601  174.9881
  std. dev.       110.3986   112.361   90.8509  105.2004   80.7898   108.303  103.2264   54.1814  114.7394   89.8762   88.9264  104.1018
  weight sum         14333      4428      6910      1286      3561      6646      8663     35829      2915      1346      2080      3702
  precision         0.1248    0.1248    0.1248    0.1248    0.1248    0.1248    0.1248    0.1248    0.1248    0.1248    0.1248    0.1248

0Melogram(st)
  mean             51.1357   31.7004    49.922   37.5097   47.8174   46.5449   22.4039    5.1965   41.1754   51.7123   53.0541   46.2893
  std. dev.        17.2713   27.0078   16.1676   24.8181   17.1258   20.5679   26.8783   15.9896   24.5419   13.9368   16.0665   20.8254
  weight sum         14333      4428      6910      1286      3561      6646      8663     35829      2915      1346      2080      3702
  precision         0.0246    0.0246    0.0246    0.0246    0.0246    0.0246    0.0246    0.0246    0.0246    0.0246    0.0246    0.0246

0ZCross
  mean              7.1116    3.0168    5.2787    2.1049    3.7163    4.4166    2.8568    0.2856     2.445    3.9088    4.0361    3.3327
  std. dev.         4.5959    3.7735    3.2387    2.2616    3.3178    3.1384    5.3382    1.2294    2.2805    2.3525    2.9674    4.9497
  weight sum         14333      4428      6910      1286      3561      6646      8663     35829      2915      1346      2080      3702
  precision         1.0755    1.0755    1.0755    1.0755    1.0755    1.0755    1.0755    1.0755    1.0755    1.0755    1.0755    1.0755

0F1(Hz)
  mean             668.919   327.302  454.8987   398.033  353.0997  475.4813  261.6059   57.3408  373.9524  503.1734   486.782  443.5453
  std. dev.       280.6559  276.0559  158.1126  277.6832  155.6609  232.0738  293.6134  171.9957  239.5318   171.087  318.7346  203.6217
  weight sum         14333      4428      6910      1286      3561      6646      8663     35829      2915      1346      2080      3702
  precision         0.3648    0.3648    0.3648    0.3648    0.3648    0.3648    0.3648    0.3648    0.3648    0.3648    0.3648    0.3648

0F2(Hz)
  mean           1427.4626 1106.8787 1742.5255 1188.8427 1902.4024 1133.1289  796.2505  178.8136 1313.2845 1448.3414 1023.5726 1476.7704
  std. dev.       480.6073  883.2978  577.7434  768.0241   731.953  555.0163   860.984  530.2888  756.9492  387.8491  463.4328  613.3542
  weight sum         14333      4428      6910      1286      3561      6646      8663     35829      2915      1346      2080      3702
  precision         0.4429    0.4429    0.4429    0.4429    0.4429    0.4429    0.4429    0.4429    0.4429    0.4429    0.4429    0.4429

0F3(Hz)
  mean           2624.3686 1829.9389  2568.342 2032.1489 2574.2129 2464.8989  1367.722  305.4176 2208.7712 2800.0123 2590.9737 2545.4446
  std. dev.       855.8265  1439.682   855.128 1299.1963 1006.8574 1057.4006 1465.5789  889.8408 1214.9412  652.8176  902.8727  987.2479
  weight sum         14333      4428      6910      1286      3561      6646      8663     35829      2915      1346      2080      3702
  precision          0.662     0.662     0.662     0.662     0.662     0.662     0.662     0.662     0.662     0.662     0.662     0.662

0F4(Hz)
  mean           3046.6768 2083.4786 3099.7413 2423.0307  3068.994 2838.7661 1566.6624  366.4808 2639.4751 3244.7952 2971.2354 2918.7857
  std. dev.       980.2169 1626.7281 1000.8098  1515.383 1160.3846 1202.1915 1666.8925 1065.5405 1421.1017  732.3706  956.3763 1131.5219
  weight sum         14333      4428      6910      1286      3561      6646      8663     35829      2915      1346      2080      3702
  precision         0.6829    0.6829    0.6829    0.6829    0.6829    0.6829    0.6829    0.6829    0.6829    0.6829    0.6829    0.6829

1Int(dB)
  mean             -4.2384  -15.8612   -5.2725  -14.9878   -8.8919    -8.154  -19.8978  -48.1014   -12.821    -8.381    -5.542  -10.3171
  std. dev.         9.6628   11.5711    8.2012    9.0002    8.4155   12.1079    9.5102   16.4155   10.9576    6.7147    8.2546    8.3237
  weight sum         14333      4428      6910      1286      3561      6646      8663     35829      2915      1346      2080      3702
  precision          0.104     0.104     0.104     0.104     0.104     0.104     0.104     0.104     0.104     0.104     0.104     0.104

1Pitch(Hz)
  mean            215.2523  126.4973  188.7056   132.578  171.6528   179.115   81.9615   17.4133  158.5726  197.5174   227.888  176.7605
  std. dev.       108.4244  111.6292   88.8894  107.6288    77.843  105.6864  105.1373   57.3927  112.1031   88.7453   87.0635  102.6172
  weight sum         14333      4428      6910      1286      3561      6646      8663     35829      2915      1346      2080      3702
  precision         0.1242    0.1242    0.1242    0.1242    0.1242    0.1242    0.1242    0.1242    0.1242    0.1242    0.1242    0.1242

1RawPitch
  mean            204.6555  105.2817  184.6007  107.2731   163.826  173.0518   63.3161   14.2992  146.0307  191.2896  218.9774  163.4155
  std. dev.       114.9714  109.6548   95.7338  104.2544   84.4289  113.1417   99.0234   51.8254  117.1223   98.1559   95.0579  112.2385
  weight sum         14333      4428      6910      1286      3561      6646      8663     35829      2915      1346      2080      3702
  precision         0.1243    0.1243    0.1243    0.1243    0.1243    0.1243    0.1243    0.1243    0.1243    0.1243    0.1243    0.1243

1SmPitch
  mean            213.1285  117.5444  187.0281  122.2039   169.294  176.9741   75.0565   15.7548  154.4121  196.8406  227.3868   174.229
  std. dev.       110.1559   112.418   90.2619   104.892   80.1089  107.8927  103.0137   53.6105  114.4599   89.9719   87.2185  104.4284
  weight sum         14333      4428      6910      1286      3561      6646      8663     35829      2915      1346      2080      3702
  precision         0.1248    0.1248    0.1248    0.1248    0.1248    0.1248    0.1248    0.1248    0.1248    0.1248    0.1248    0.1248

1Melogram(st)
  mean             51.2208   31.9336   50.1378   37.3403   48.1087   46.5873   22.1391    5.1111   41.2076   51.7327   53.4674   46.1621
  std. dev.        17.1425   26.9937    15.863   24.8755   16.7578   20.5055    26.847   15.8764    24.495   13.8754   15.3794   20.9281
  weight sum         14333      4428      6910      1286      3561      6646      8663     35829      2915      1346      2080      3702
  precision         0.0246    0.0246    0.0246    0.0246    0.0246    0.0246    0.0246    0.0246    0.0246    0.0246    0.0246    0.0246

1ZCross
  mean              7.1251    3.0503    5.2821    2.0824    3.7217    4.4284    2.8606    0.2716     2.462    3.9431    4.0615    3.3022
  std. dev.         4.5896    3.7907    3.2153    2.2428    3.2672    3.0869    5.3689    1.1738    2.2685    2.3589    2.9528    5.0082
  weight sum         14333      4428      6910      1286      3561      6646      8663     35829      2915      1346      2080      3702
  precision         1.0755    1.0755    1.0755    1.0755    1.0755    1.0755    1.0755    1.0755    1.0755    1.0755    1.0755    1.0755

1F1(Hz)
  mean            673.2103  326.9727  458.0799  393.0414  356.2436  478.8171  255.4544   56.1168  372.9024   503.768  491.0591  438.5572
  std. dev.       277.2349  275.5248   153.926  278.0738  151.5566  229.7252  292.3091  170.1221  238.8814  171.2052  315.0618  203.8174
  weight sum         14333      4428      6910      1286      3561      6646      8663     35829      2915      1346      2080      3702
  precision         0.3648    0.3648    0.3648    0.3648    0.3648    0.3648    0.3648    0.3648    0.3648    0.3648    0.3648    0.3648

1F2(Hz)
  mean           1433.1553 1105.6275 1757.7095 1181.0302 1928.7407 1136.7974  778.8339   175.327  1310.527  1447.887 1034.0495 1469.6275
  std. dev.       471.5399  881.4683  560.9633  771.3771  710.0757  547.7396  859.1392  525.6626  755.0799  388.9673  450.6215  618.0947
  weight sum         14333      4428      6910      1286      3561      6646      8663     35829      2915      1346      2080      3702
  precision         0.4429    0.4429    0.4429    0.4429    0.4429    0.4429    0.4429    0.4429    0.4429    0.4429    0.4429    0.4429

1F3(Hz)
  mean           2635.5247 1831.5394 2586.6864   2017.54 2604.0226 2478.8191 1337.3049  299.2748 2205.0132  2799.579 2621.0935 2534.3307
  std. dev.       840.5679 1439.7354  831.7891  1304.859  977.1249 1044.4223  1462.839  881.7348 1213.1591  657.3075  864.0366   997.422
  weight sum         14333      4428      6910      1286      3561      6646      8663     35829      2915      1346      2080      3702
  precision          0.662     0.662     0.662     0.662     0.662     0.662     0.662     0.662     0.662     0.662     0.662     0.662

1F4(Hz)
  mean           3059.0113 2085.8951 3119.9567 2408.5536 3102.2711 2854.0576 1532.0584  359.4106 2639.3069 3243.4772 3004.6925 2907.1921
  std. dev.       962.1251 1626.9902  971.1133 1523.4941 1123.1453 1186.1932 1664.3677 1056.6689 1421.0299   737.781  906.3874 1144.4515
  weight sum         14333      4428      6910      1286      3561      6646      8663     35829      2915      1346      2080      3702
  precision         0.6829    0.6829    0.6829    0.6829    0.6829    0.6829    0.6829    0.6829    0.6829    0.6829    0.6829    0.6829

2Int(dB)
  mean             -4.2251  -15.6275    -5.205  -15.0221   -8.7895   -8.1324  -19.8784  -48.1801  -12.6603   -8.3397   -5.3672  -10.4288
  std. dev.         9.6253   11.3142    8.1176    8.9257    8.3703   12.1307    9.4356   16.3018   10.8312    6.7392     8.007    8.3305
  weight sum         14333      4428      6910      1286      3561      6646      8663     35829      2915      1346      2080      3702
  precision          0.104     0.104     0.104     0.104     0.104     0.104     0.104     0.104     0.104     0.104     0.104     0.104

2Pitch(Hz)
  mean            215.3388  128.2048  189.4672   131.712  172.4288  178.9677    81.633   17.0619  158.9952  197.4113  228.8154  176.1354
  std. dev.       108.3673  111.6359   88.3909  107.4401   77.1572  105.4237  105.1726   56.8545   111.641   88.9567   85.6072  102.9305
  weight sum         14333      4428      6910      1286      3561      6646      8663     35829      2915      1346      2080      3702
  precision         0.1242    0.1242    0.1242    0.1242    0.1242    0.1242    0.1242    0.1242    0.1242    0.1242    0.1242    0.1242

2RawPitch
  mean            204.8262  106.3841  185.2835  106.7449  164.8572  173.0225   62.9326   13.9627  146.6041  191.2629  219.9054  162.5968
  std. dev.       114.8351  109.7058   95.4466  103.7582   83.8605  112.8916   98.9149   51.2554  116.7477   98.1667   93.8544   112.594
  weight sum         14333      4428      6910      1286      3561      6646      8663     35829      2915      1346      2080      3702
  precision         0.1243    0.1243    0.1243    0.1243    0.1243    0.1243    0.1243    0.1243    0.1243    0.1243    0.1243    0.1243

2SmPitch
  mean            213.2942  118.9468  187.8876  121.4041  170.0743  176.8295   74.7279   15.4236  154.5794     196.8  228.2489   173.465
  std. dev.       110.0116  112.5748   89.6855  104.6191   79.5741  107.6308  103.0179   53.0684  114.1868   90.0544   85.8949  104.7442
  weight sum         14333      4428      6910      1286      3561      6646      8663     35829      2915      1346      2080      3702
  precision         0.1248    0.1248    0.1248    0.1248    0.1248    0.1248    0.1248    0.1248    0.1248    0.1248    0.1248    0.1248

2Melogram(st)
  mean             51.2738   32.2995    50.296   37.1801   48.3177   46.5862   22.0058    5.0218   41.2827   51.7238   53.7993   46.0144
  std. dev.        17.0546   26.9642   15.6299   24.9375   16.4721   20.4797   26.8403   15.7549   24.4294   13.8823     14.79   21.0579
  weight sum         14333      4428      6910      1286      3561      6646      8663     35829      2915      1346      2080      3702
  precision         0.0246    0.0246    0.0246    0.0246    0.0246    0.0246    0.0246    0.0246    0.0246    0.0246    0.0246    0.0246

2ZCross
  mean              7.1301    3.0824    5.2767     2.069    3.7235    4.4336    2.8724    0.2613    2.4852    3.9831    4.0842    3.2752
  std. dev.         4.5874     3.788     3.209    2.2383    3.2289    3.0623    5.3818    1.1466    2.2611    2.3602    2.9396    5.0415
  weight sum         14333      4428      6910      1286      3561      6646      8663     35829      2915      1346      2080      3702
  precision         1.0755    1.0755    1.0755    1.0755    1.0755    1.0755    1.0755    1.0755    1.0755    1.0755    1.0755    1.0755

2F1(Hz)
  mean            677.0705  327.0989  461.0472  388.0168  359.1654  481.7752  249.8542    54.986  372.2266  504.3029  494.6223  433.9309
  std. dev.       274.1678  274.8933  149.9473   278.164  147.6819  227.7162  290.9205  168.4366  238.0257  171.2959   311.451  203.6934
  weight sum         14333      4428      6910      1286      3561      6646      8663     35829      2915      1346      2080      3702
  precision         0.3648    0.3648    0.3648    0.3648    0.3648    0.3648    0.3648    0.3648    0.3648    0.3648    0.3648    0.3648

2F2(Hz)
  mean           1438.0676 1105.6876 1772.0574 1173.9193 1952.7441 1139.4043   762.998  171.9953 1309.0897 1447.6359 1043.9884 1463.3985
  std. dev.       463.2855  879.1633  544.5249  775.1169  688.7429  541.1664  857.0263  521.2486  752.5784   390.147  438.5623   621.758
  weight sum         14333      4428      6910      1286      3561      6646      8663     35829      2915      1346      2080      3702
  precision         0.4429    0.4429    0.4429    0.4429    0.4429    0.4429    0.4429    0.4429    0.4429    0.4429    0.4429    0.4429

2F3(Hz)
  mean           2645.3531 1835.4256 2603.6899 2003.0171 2631.3817 2490.7242 1309.7685  293.4431 2203.0948 2799.2032 2648.1475 2524.5723
  std. dev.       826.9081 1438.8383  809.0505 1310.3914  948.5385 1033.2776 1459.6458  874.0689 1210.0929   661.974  826.0863 1005.6339
  weight sum         14333      4428      6910      1286      3561      6646      8663     35829      2915      1346      2080      3702
  precision          0.662     0.662     0.662     0.662     0.662     0.662     0.662     0.662     0.662     0.662     0.662     0.662

2F4(Hz)
  mean           3069.6694 2091.4756 3139.0513 2393.9651 3132.5813 2866.8671 1500.9276  352.5601 2641.4508 3242.0836 3035.0863 2897.4177
  std. dev.        945.882 1626.6128  942.3082 1531.3561 1087.3648 1172.3377 1661.5435 1047.8695 1419.3848  743.0753  857.2082 1155.2209
  weight sum         14333      4428      6910      1286      3561      6646      8663     35829      2915      1346      2080      3702
  precision         0.6829    0.6829    0.6829    0.6829    0.6829    0.6829    0.6829    0.6829    0.6829    0.6829    0.6829    0.6829

3Int(dB)
  mean             -4.2367  -15.3568   -5.1801  -15.0289   -8.7172    -8.146  -19.8155  -48.2529  -12.4737   -8.2684   -5.2139  -10.5395
  std. dev.         9.6141    11.078     8.069    8.8787    8.3524   12.1698    9.4065   16.2028   10.7103    6.7651    7.7793    8.3476
  weight sum         14333      4428      6910      1286      3561      6646      8663     35829      2915      1346      2080      3702
  precision         0.1039    0.1039    0.1039    0.1039    0.1039    0.1039    0.1039    0.1039    0.1039    0.1039    0.1039    0.1039

3Pitch(Hz)
  mean            215.3054  130.3957  190.0868  131.0502  173.0539  178.5997    81.633   16.6936  159.5378  197.3134  229.3808  175.6318
  std. dev.       108.4186  111.6066   87.9634  107.2576   76.5412   105.265  105.3344   56.2818  111.1102   89.1466    84.526   103.219
  weight sum         14333      4428      6910      1286      3561      6646      8663     35829      2915      1346      2080      3702
  precision         0.1242    0.1242    0.1242    0.1242    0.1242    0.1242    0.1242    0.1242    0.1242    0.1242    0.1242    0.1242

3RawPitch
  mean            204.9204  107.8573  185.5725  106.2993  165.7052  172.7286   62.8262   13.6795   147.555  191.1584  220.4839  161.7517
  std. dev.        114.845  109.9635   95.2181  103.3674   83.3185  112.6688   98.9135   50.8144  116.3293   98.1058   93.0053  112.8954
  weight sum         14333      4428      6910      1286      3561      6646      8663     35829      2915      1346      2080      3702
  precision         0.1243    0.1243    0.1243    0.1243    0.1243    0.1243    0.1243    0.1243    0.1243    0.1243    0.1243    0.1243

3SmPitch
  mean            213.3064  120.8501  188.5362  120.8089  170.6841  176.5062   74.7538   15.0759  154.9178  196.7689  228.8712  172.8312
  std. dev.       109.9963  112.7685   89.2414  104.3726   79.0929  107.4391  103.1617    52.491  113.8128   90.1148   84.8121   105.082
  weight sum         14333      4428      6910      1286      3561      6646      8663     35829      2915      1346      2080      3702
  precision         0.1248    0.1248    0.1248    0.1248    0.1248    0.1248    0.1248    0.1248    0.1248    0.1248    0.1248    0.1248

3Melogram(st)
  mean             51.3027   32.6817   50.4037   37.0227   48.4912   46.5516    21.964    4.9297    41.476   51.7167   54.0704   45.8817
  std. dev.        16.9973    26.931   15.4597   25.0004   16.2162    20.484    26.856   15.6286   24.3018   13.8885   14.2652    21.173
  weight sum         14333      4428      6910      1286      3561      6646      8663     35829      2915      1346      2080      3702
  precision         0.0246    0.0246    0.0246    0.0246    0.0246    0.0246    0.0246    0.0246    0.0246    0.0246    0.0246    0.0246

3ZCross
  mean              7.1259    3.1149    5.2659    2.0682    3.7314    4.4315    2.8907    0.2535     2.518    4.0278    4.0992    3.2508
  std. dev.         4.5903    3.7729    3.2124    2.2445    3.2172    3.0586    5.3852    1.1335    2.2548    2.3586    2.9273    5.0581
  weight sum         14333      4428      6910      1286      3561      6646      8663     35829      2915      1346      2080      3702
  precision         1.0755    1.0755    1.0755    1.0755    1.0755    1.0755    1.0755    1.0755    1.0755    1.0755    1.0755    1.0755

3F1(Hz)
  mean            680.5164  327.9873   463.877  383.2741  361.6146  484.2054  245.0498   53.8406  371.8273  504.9305  498.0573  429.6581
  std. dev.       271.5055  274.1854   146.053  277.9272  144.1442  226.2125  289.3656  166.7285   237.112  171.3464   307.944  203.5119
  weight sum         14333      4428      6910      1286      3561      6646      8663     35829      2915      1346      2080      3702
  precision         0.3648    0.3648    0.3648    0.3648    0.3648    0.3648    0.3648    0.3648    0.3648    0.3648    0.3648    0.3648

3F2(Hz)
  mean           1442.0523 1108.1493  1785.616 1168.3225 1974.0792 1140.4987  750.1326  168.5764 1308.1584 1447.6544  1053.554 1457.7227
  std. dev.       456.0769  876.3799  528.1297  778.4294  669.1502  535.6978  855.0401  516.6569   749.768  391.6426  426.6176  624.9813
  weight sum         14333      4428      6910      1286      3561      6646      8663     35829      2915      1346      2080      3702
  precision         0.4429    0.4429    0.4429    0.4429    0.4429    0.4429    0.4429    0.4429    0.4429    0.4429    0.4429    0.4429

3F3(Hz)
  mean           2653.6177 1843.3859 2619.8245 1990.5358 2655.6632  2499.568 1287.0206  287.4429 2202.5227 2798.5752  2673.852 2515.5789
  std. dev.       815.2889 1437.1292  786.5019 1314.6764  922.4738 1024.8703 1456.2998   866.044 1206.5921   666.643  787.5699 1012.9065
  weight sum         14333      4428      6910      1286      3561      6646      8663     35829      2915      1346      2080      3702
  precision          0.662     0.662     0.662     0.662     0.662     0.662     0.662     0.662     0.662     0.662     0.662     0.662

3F4(Hz)
  mean           3078.5421  2101.281 3157.1809 2382.1202 3159.0187 2876.1426 1475.8212  345.5151 2644.3886 3240.4226  3063.919 2888.5546
  std. dev.       932.0325 1624.8999  913.7543 1537.9929 1054.7924 1161.7476 1659.1561 1038.6777 1416.7903  748.1848  806.6532 1164.8692
  weight sum         14333      4428      6910      1286      3561      6646      8663     35829      2915      1346      2080      3702
  precision         0.6829    0.6829    0.6829    0.6829    0.6829    0.6829    0.6829    0.6829    0.6829    0.6829    0.6829    0.6829

4Int(dB)
  mean             -4.2733  -15.0488    -5.199  -15.0003    -8.676   -8.1936  -19.7065  -48.3072  -12.2641   -8.1726   -5.0927  -10.6476
  std. dev.         9.6287   10.8635    8.0531    8.8607    8.3577   12.2208    9.4263   16.1121   10.5968    6.8019    7.5769    8.3765
  weight sum         14333      4428      6910      1286      3561      6646      8663     35829      2915      1346      2080      3702
  precision         0.1037    0.1037    0.1037    0.1037    0.1037    0.1037    0.1037    0.1037    0.1037    0.1037    0.1037    0.1037

4Pitch(Hz)
  mean            215.1446  132.6941  190.3791  130.8258  173.4856  178.0537   82.0048   16.3396  160.3717  197.2842  229.8416  175.2531
  std. dev.       108.5552   111.541   87.7367  107.1381   76.0683  105.2226  105.6854   55.7299  110.4325   89.2015   83.5753  103.4275
  weight sum         14333      4428      6910      1286      3561      6646      8663     35829      2915      1346      2080      3702
  precision         0.1242    0.1242    0.1242    0.1242    0.1242    0.1242    0.1242    0.1242    0.1242    0.1242    0.1242    0.1242

4RawPitch
  mean            204.7828  109.8718   185.837  105.9763  166.2787  172.2852   63.1905   13.3739  148.5095  191.0311  220.9278  160.8881
  std. dev.       114.9802    110.33   95.0002  102.9581   83.0617  112.5036   99.2114   50.3505  115.8451   97.9614   92.1417  113.1803
  weight sum         14333      4428      6910      1286      3561      6646      8663     35829      2915      1346      2080      3702
  precision         0.1243    0.1243    0.1243    0.1243    0.1243    0.1243    0.1243    0.1243    0.1243    0.1243    0.1243    0.1243

4SmPitch
  mean            213.2239  122.9872  188.9642  120.6473  171.0525  175.9682   75.1339   14.7419  155.6124  196.8148  229.2536   172.027
  std. dev.       110.0447  112.9121   88.9263  104.2291   78.7886  107.3853  103.5009   51.9315  113.2741   90.0345   84.0032  105.5167
  weight sum         14333      4428      6910      1286      3561      6646      8663     35829      2915      1346      2080      3702
  precision         0.1248    0.1248    0.1248    0.1248    0.1248    0.1248    0.1248    0.1248    0.1248    0.1248    0.1248    0.1248

4Melogram(st)
  mean             51.2983   33.1517   50.4842   37.0069   48.6341   46.4749   22.0146    4.8258   41.6893   51.7752   54.3072   45.7574
  std. dev.        16.9875   26.8769   15.3213   25.0249   15.9951   20.5262   26.8897   15.4837   24.1614   13.7541   13.7628   21.2886
  weight sum         14333      4428      6910      1286      3561      6646      8663     35829      2915      1346      2080      3702
  precision         0.0246    0.0246    0.0246    0.0246    0.0246    0.0246    0.0246    0.0246    0.0246    0.0246    0.0246    0.0246

4ZCross
  mean               7.111    3.1506    5.2438    2.0698    3.7483    4.4237    2.9147    0.2484    2.5583    4.0886    4.1111    3.2363
  std. dev.         4.6004    3.7529    3.2168    2.2498    3.2275    3.0692     5.384    1.1311    2.2519    2.3648    2.9164     5.066
  weight sum         14333      4428      6910      1286      3561      6646      8663     35829      2915      1346      2080      3702
  precision         1.0755    1.0755    1.0755    1.0755    1.0755    1.0755    1.0755    1.0755    1.0755    1.0755    1.0755    1.0755

4F1(Hz)
  mean            683.4195   329.635  466.4894  378.5922    363.75  486.2046  241.1127   52.7372   372.086  505.7205  500.6341   425.508
  std. dev.        269.455  273.3007  142.2388  277.5826  140.8431  225.0865  287.7183  165.1061  236.0116  171.4004  305.2064  203.4459
  weight sum         14333      4428      6910      1286      3561      6646      8663     35829      2915      1346      2080      3702
  precision         0.3648    0.3648    0.3648    0.3648    0.3648    0.3648    0.3648    0.3648    0.3648    0.3648    0.3648    0.3648

4F2(Hz)
  mean           1444.7727 1112.3184 1798.4442 1163.3139  1993.047 1140.7371  740.6528  165.1296 1309.1173 1447.7215 1061.2779 1451.7489
  std. dev.       450.4532  872.7631  511.8666   782.141  650.7685  531.1147   853.618  511.8838    746.06  393.3743  416.4942  628.6578
  weight sum         14333      4428      6910      1286      3561      6646      8663     35829      2915      1346      2080      3702
  precision         0.4429    0.4429    0.4429    0.4429    0.4429    0.4429    0.4429    0.4429    0.4429    0.4429    0.4429    0.4429

4F3(Hz)
  mean           2659.8447 1854.8343 2634.9785 1978.2255 2677.3565 2506.4348 1269.4081  281.5482 2204.7048 2797.9736 2694.0925 2505.9666
  std. dev.       806.7783 1434.0175  764.1593 1318.9077  898.3116 1018.6433 1453.0535  858.0862 1201.2074  671.2133  755.1652 1020.9464
  weight sum         14333      4428      6910      1286      3561      6646      8663     35829      2915      1346      2080      3702
  precision          0.662     0.662     0.662     0.662     0.662     0.662     0.662     0.662     0.662     0.662     0.662     0.662

4F4(Hz)
  mean           3084.7647 2115.9384   3174.33 2370.2376 3182.3609 2882.7851 1457.3159  338.5454 2650.5175 3238.3887 3086.3027 2878.7668
  std. dev.       921.7526 1622.1375  885.5429 1544.5093 1024.5862 1153.5603 1657.6969 1029.4374 1411.8243  753.1084   763.546 1175.2848
  weight sum         14333      4428      6910      1286      3561      6646      8663     35829      2915      1346      2080      3702
  precision         0.6829    0.6829    0.6829    0.6829    0.6829    0.6829    0.6829    0.6829    0.6829    0.6829    0.6829    0.6829





=== Stratified cross-validation ===

Correctly Classified Instances       46289               50.4793 %
Incorrectly Classified Instances     45410               49.5207 %
Kappa statistic                          0.3796
K&B Relative Info Score            3203220.4369 %
K&B Information Score                91721.0738 bits      1.0002 bits/instance
Class complexity | order 0          262551.22   bits      2.8632 bits/instance
Class complexity | scheme          2610274.6863 bits     28.4657 bits/instance
Complexity improvement     (Sf)    -2347723.4662 bits    -25.6025 bits/instance
Mean absolute error                      0.0831
Root mean squared error                  0.2719
Relative absolute error                 62.6718 %
Root relative squared error            105.6014 %
Coverage of cases (0.95 level)          55.7792 %
Mean rel. region size (0.95 level)      11.6862 %
Total Number of Instances            91699     


=== Detailed Accuracy By Class ===

                 TP Rate  FP Rate  Precision  Recall   F-Measure  MCC      ROC Area  PRC Area  Class
                 0,426    0,037    0,683      0,426    0,525      0,477    0,879     0,603     A
                 0,020    0,007    0,123      0,020    0,034      0,031    0,691     0,083     LGJKC
                 0,493    0,060    0,401      0,493    0,442      0,394    0,863     0,401     E
                 0,074    0,031    0,033      0,074    0,046      0,029    0,730     0,030     FV
                 0,384    0,036    0,302      0,384    0,338      0,310    0,862     0,266     I
                 0,004    0,002    0,124      0,004    0,008      0,010    0,776     0,178     O
                 0,176    0,026    0,416      0,176    0,248      0,224    0,802     0,305     SNRTY
                 0,891    0,138    0,805      0,891    0,846      0,741    0,918     0,844     0
                 0,007    0,004    0,054      0,007    0,013      0,008    0,720     0,057     BMP
                 0,660    0,205    0,046      0,660    0,085      0,134    0,815     0,047     DZ
                 0,389    0,017    0,352      0,389    0,370      0,355    0,866     0,335     U
                 0,012    0,005    0,097      0,012    0,022      0,021    0,719     0,070     SNRTXY
Weighted Avg.    0,505    0,073    0,532      0,505    0,496      0,441    0,854     0,524     


=== Confusion Matrix ===

     a     b     c     d     e     f     g     h     i     j     k     l   <-- classified as
  6106   142  1526   384   287    70   260   737    45  4450   296    30 |     a = A
   217    88   319   184   351    45   480  1164    33  1380    94    73 |     b = LGJKC
   594    94  3408   171   426    10   132   273    62  1649    67    24 |     c = E
    83    11    87    95   122     0    77   307     5   484     8     7 |     d = FV
   171    73  1230   120  1367     0   104   196    37   254     4     5 |     e = I
   668    77   896   316    75    27   155   705    44  3046   612    25 |     f = O
   266   114   275   595   441    24  1527  3445    66  1648    92   170 |     g = SNRTY
    88    56   306   515   540    23   498 31907    44  1695    87    70 |     h = 0
   178    21   137   149   433     8   128   531    21  1177   112    20 |     i = BMP
   132     0    91    52    37     0    21    49     6   888    64     6 |     j = DZ
   187    36    60    62    57     9    50    43    20   747   809     0 |     k = U
   248     4   169   227   395     1   240   284     4  2032    52    46 |     l = SNRTXY

=== Percent Confusion Matrix ===
a	b	c	d	e	f	g	h	i	j	k	l	
42.6	0.99	10.65	2.68	2.0	0.49	1.81	5.14	0.31	31.05	2.07	0.21	 a = A
4.9	1.99	7.2	4.16	7.93	1.02	10.84	26.29	0.75	31.17	2.12	1.65	 b = LGJKC
8.6	1.36	49.32	2.47	6.16	0.14	1.91	3.95	0.9	23.86	0.97	0.35	 c = E
6.45	0.86	6.77	7.39	9.49	0.0	5.99	23.87	0.39	37.64	0.62	0.54	 d = FV
4.8	2.05	34.54	3.37	38.39	0.0	2.92	5.5	1.04	7.13	0.11	0.14	 e = I
10.05	1.16	13.48	4.75	1.13	0.41	2.33	10.61	0.66	45.83	9.21	0.38	 f = O
3.07	1.32	3.17	6.87	5.09	0.28	17.63	39.77	0.76	19.02	1.06	1.96	 g = SNRTY
0.25	0.16	0.85	1.44	1.51	0.06	1.39	89.05	0.12	4.73	0.24	0.2	 h = 0
6.11	0.72	4.7	5.11	14.85	0.27	4.39	18.22	0.72	40.38	3.84	0.69	 i = BMP
9.81	0.0	6.76	3.86	2.75	0.0	1.56	3.64	0.45	65.97	4.75	0.45	 j = DZ
8.99	1.73	2.88	2.98	2.74	0.43	2.4	2.07	0.96	35.91	38.89	0.0	 k = U
6.7	0.11	4.57	6.13	10.67	0.03	6.48	7.67	0.11	54.89	1.4	1.24	 l = SNRTXY
