Timestamp:2014-12-07-10:57:19
Inventario:I2
Intervalo:2ms
Ngramas:4
Clasificador:NaiveBayes
Relation Name:  I2-2ms-4gramas
Num Instances:  91700
Num Attributes: 41

     Name                      Type  Nom  Int Real     Missing      Unique  Dist
   1 0Int(dB)                   Num   0%   9%  91%     0 /  0%     4 /  0%   779 
   2 0Pitch(Hz)                 Num   0%  52%  48%     0 /  0%   471 /  1%  4016 
   3 0RawPitch                  Num   0%  55%  45%     0 /  0%   550 /  1%  4014 
   4 0SmPitch                   Num   0%  53%  47%     0 /  0%   491 /  1%  3998 
   5 0Melogram(st)              Num   0%  49%  51%     0 /  0%   212 /  0%  3363 
   6 0ZCross                    Num   0% 100%   0%     0 /  0%     6 /  0%    54 
   7 0F1(Hz)                    Num   0%  52%  48%     0 /  0%  1126 /  1%  4776 
   8 0F2(Hz)                    Num   0%  52%  48%     0 /  0%  2304 /  3%  6727 
   9 0F3(Hz)                    Num   0%  52%  48%     0 /  0%  1967 /  2%  6224 
  10 0F4(Hz)                    Num   0%  52%  48%     0 /  0%  1884 /  2%  6074 
  11 1Int(dB)                   Num   0%   9%  91%     0 /  0%     4 /  0%   779 
  12 1Pitch(Hz)                 Num   0%  52%  48%     0 /  0%   471 /  1%  4016 
  13 1RawPitch                  Num   0%  55%  45%     0 /  0%   550 /  1%  4014 
  14 1SmPitch                   Num   0%  53%  47%     0 /  0%   491 /  1%  3998 
  15 1Melogram(st)              Num   0%  49%  51%     0 /  0%   212 /  0%  3363 
  16 1ZCross                    Num   0% 100%   0%     0 /  0%     6 /  0%    54 
  17 1F1(Hz)                    Num   0%  52%  48%     0 /  0%  1126 /  1%  4776 
  18 1F2(Hz)                    Num   0%  52%  48%     0 /  0%  2304 /  3%  6727 
  19 1F3(Hz)                    Num   0%  52%  48%     0 /  0%  1967 /  2%  6224 
  20 1F4(Hz)                    Num   0%  52%  48%     0 /  0%  1884 /  2%  6074 
  21 2Int(dB)                   Num   0%   9%  91%     0 /  0%     5 /  0%   780 
  22 2Pitch(Hz)                 Num   0%  52%  48%     0 /  0%   471 /  1%  4016 
  23 2RawPitch                  Num   0%  55%  45%     0 /  0%   550 /  1%  4014 
  24 2SmPitch                   Num   0%  53%  47%     0 /  0%   491 /  1%  3998 
  25 2Melogram(st)              Num   0%  49%  51%     0 /  0%   212 /  0%  3363 
  26 2ZCross                    Num   0% 100%   0%     0 /  0%     6 /  0%    54 
  27 2F1(Hz)                    Num   0%  52%  48%     0 /  0%  1126 /  1%  4776 
  28 2F2(Hz)                    Num   0%  52%  48%     0 /  0%  2304 /  3%  6727 
  29 2F3(Hz)                    Num   0%  52%  48%     0 /  0%  1967 /  2%  6224 
  30 2F4(Hz)                    Num   0%  52%  48%     0 /  0%  1884 /  2%  6074 
  31 3Int(dB)                   Num   0%   9%  91%     0 /  0%     6 /  0%   781 
  32 3Pitch(Hz)                 Num   0%  52%  48%     0 /  0%   471 /  1%  4016 
  33 3RawPitch                  Num   0%  55%  45%     0 /  0%   550 /  1%  4014 
  34 3SmPitch                   Num   0%  53%  47%     0 /  0%   491 /  1%  3998 
  35 3Melogram(st)              Num   0%  49%  51%     0 /  0%   212 /  0%  3363 
  36 3ZCross                    Num   0% 100%   0%     0 /  0%     6 /  0%    54 
  37 3F1(Hz)                    Num   0%  52%  48%     0 /  0%  1126 /  1%  4776 
  38 3F2(Hz)                    Num   0%  52%  48%     0 /  0%  2304 /  3%  6727 
  39 3F3(Hz)                    Num   0%  52%  48%     0 /  0%  1967 /  2%  6224 
  40 3F4(Hz)                    Num   0%  52%  48%     0 /  0%  1884 /  2%  6074 
  41 class                      Nom 100%   0%   0%     0 /  0%     0 /  0%    12 


Naive Bayes Classifier

                    Class
Attribute               A     LGJKC         E        FV         I         O     SNRTY         0       BMP        DZ         U    SNRTXY
                   (0.16)    (0.05)    (0.08)    (0.01)    (0.04)    (0.07)    (0.09)    (0.39)    (0.03)    (0.01)    (0.02)    (0.04)
========================================================================================================================================
0Int(dB)
  mean             -4.2384  -15.8612   -5.2725  -14.9878   -8.8919    -8.154  -19.8978  -48.1014   -12.821    -8.381    -5.542  -10.3171
  std. dev.         9.6628   11.5711    8.2012    9.0002    8.4155   12.1079    9.5102   16.4153   10.9576    6.7147    8.2546    8.3237
  weight sum         14333      4428      6910      1286      3561      6646      8663     35830      2915      1346      2080      3702
  precision          0.104     0.104     0.104     0.104     0.104     0.104     0.104     0.104     0.104     0.104     0.104     0.104

0Pitch(Hz)
  mean            215.2523  126.4973  188.7056   132.578  171.6528   179.115   81.9615   17.4128  158.5726  197.5174   227.888  176.7605
  std. dev.       108.4244  111.6292   88.8894  107.6288    77.843  105.6864  105.1373    57.392  112.1031   88.7453   87.0635  102.6172
  weight sum         14333      4428      6910      1286      3561      6646      8663     35830      2915      1346      2080      3702
  precision         0.1242    0.1242    0.1242    0.1242    0.1242    0.1242    0.1242    0.1242    0.1242    0.1242    0.1242    0.1242

0RawPitch
  mean            204.6555  105.2817  184.6007  107.2731   163.826  173.0518   63.3161   14.2988  146.0307  191.2896  218.9774  163.4155
  std. dev.       114.9714  109.6548   95.7338  104.2544   84.4289  113.1417   99.0234   51.8247  117.1223   98.1559   95.0579  112.2385
  weight sum         14333      4428      6910      1286      3561      6646      8663     35830      2915      1346      2080      3702
  precision         0.1243    0.1243    0.1243    0.1243    0.1243    0.1243    0.1243    0.1243    0.1243    0.1243    0.1243    0.1243

0SmPitch
  mean            213.1285  117.5444  187.0281  122.2039   169.294  176.9741   75.0565   15.7543  154.4121  196.8406  227.3868   174.229
  std. dev.       110.1559   112.418   90.2619   104.892   80.1089  107.8927  103.0137   53.6098  114.4599   89.9719   87.2185  104.4284
  weight sum         14333      4428      6910      1286      3561      6646      8663     35830      2915      1346      2080      3702
  precision         0.1248    0.1248    0.1248    0.1248    0.1248    0.1248    0.1248    0.1248    0.1248    0.1248    0.1248    0.1248

0Melogram(st)
  mean             51.2208   31.9336   50.1378   37.3403   48.1087   46.5873   22.1391     5.111   41.2076   51.7327   53.4674   46.1621
  std. dev.        17.1425   26.9937    15.863   24.8755   16.7578   20.5055    26.847   15.8762    24.495   13.8754   15.3794   20.9281
  weight sum         14333      4428      6910      1286      3561      6646      8663     35830      2915      1346      2080      3702
  precision         0.0246    0.0246    0.0246    0.0246    0.0246    0.0246    0.0246    0.0246    0.0246    0.0246    0.0246    0.0246

0ZCross
  mean              7.1251    3.0503    5.2821    2.0824    3.7217    4.4284    2.8606    0.2716     2.462    3.9431    4.0615    3.3022
  std. dev.         4.5896    3.7907    3.2153    2.2428    3.2672    3.0869    5.3689    1.1738    2.2685    2.3589    2.9528    5.0082
  weight sum         14333      4428      6910      1286      3561      6646      8663     35830      2915      1346      2080      3702
  precision         1.0755    1.0755    1.0755    1.0755    1.0755    1.0755    1.0755    1.0755    1.0755    1.0755    1.0755    1.0755

0F1(Hz)
  mean            673.2103  326.9727  458.0799  393.0414  356.2436  478.8171  255.4544   56.1152  372.9024   503.768  491.0591  438.5572
  std. dev.       277.2349  275.5248   153.926  278.0738  151.5566  229.7252  292.3091    170.12  238.8814  171.2052  315.0618  203.8174
  weight sum         14333      4428      6910      1286      3561      6646      8663     35830      2915      1346      2080      3702
  precision         0.3648    0.3648    0.3648    0.3648    0.3648    0.3648    0.3648    0.3648    0.3648    0.3648    0.3648    0.3648

0F2(Hz)
  mean           1433.1553 1105.6275 1757.7095 1181.0302 1928.7407 1136.7974  778.8339  175.3222  1310.527  1447.887 1034.0495 1469.6275
  std. dev.       471.5399  881.4683  560.9633  771.3771  710.0757  547.7396  859.1392  525.6561  755.0799  388.9673  450.6215  618.0947
  weight sum         14333      4428      6910      1286      3561      6646      8663     35830      2915      1346      2080      3702
  precision         0.4429    0.4429    0.4429    0.4429    0.4429    0.4429    0.4429    0.4429    0.4429    0.4429    0.4429    0.4429

0F3(Hz)
  mean           2635.5247 1831.5394 2586.6864   2017.54 2604.0226 2478.8191 1337.3049  299.2665 2205.0132  2799.579 2621.0935 2534.3307
  std. dev.       840.5679 1439.7354  831.7891  1304.859  977.1249 1044.4223  1462.839  881.7239 1213.1591  657.3075  864.0366   997.422
  weight sum         14333      4428      6910      1286      3561      6646      8663     35830      2915      1346      2080      3702
  precision          0.662     0.662     0.662     0.662     0.662     0.662     0.662     0.662     0.662     0.662     0.662     0.662

0F4(Hz)
  mean           3059.0113 2085.8951 3119.9567 2408.5536 3102.2711 2854.0576 1532.0584  359.4005 2639.3069 3243.4772 3004.6925 2907.1921
  std. dev.       962.1251 1626.9902  971.1133 1523.4941 1123.1453 1186.1932 1664.3677 1056.6559 1421.0299   737.781  906.3874 1144.4515
  weight sum         14333      4428      6910      1286      3561      6646      8663     35830      2915      1346      2080      3702
  precision         0.6829    0.6829    0.6829    0.6829    0.6829    0.6829    0.6829    0.6829    0.6829    0.6829    0.6829    0.6829

1Int(dB)
  mean             -4.2251  -15.6275    -5.205  -15.0221   -8.7895   -8.1324  -19.8784    -48.18  -12.6603   -8.3397   -5.3672  -10.4288
  std. dev.         9.6253   11.3142    8.1176    8.9257    8.3703   12.1307    9.4356   16.3016   10.8312    6.7392     8.007    8.3305
  weight sum         14333      4428      6910      1286      3561      6646      8663     35830      2915      1346      2080      3702
  precision          0.104     0.104     0.104     0.104     0.104     0.104     0.104     0.104     0.104     0.104     0.104     0.104

1Pitch(Hz)
  mean            215.3388  128.2048  189.4672   131.712  172.4288  178.9677    81.633   17.0614  158.9952  197.4113  228.8154  176.1354
  std. dev.       108.3673  111.6359   88.3909  107.4401   77.1572  105.4237  105.1726   56.8538   111.641   88.9567   85.6072  102.9305
  weight sum         14333      4428      6910      1286      3561      6646      8663     35830      2915      1346      2080      3702
  precision         0.1242    0.1242    0.1242    0.1242    0.1242    0.1242    0.1242    0.1242    0.1242    0.1242    0.1242    0.1242

1RawPitch
  mean            204.8262  106.3841  185.2835  106.7449  164.8572  173.0225   62.9326   13.9623  146.6041  191.2629  219.9054  162.5968
  std. dev.       114.8351  109.7058   95.4466  103.7582   83.8605  112.8916   98.9149   51.2547  116.7477   98.1667   93.8544   112.594
  weight sum         14333      4428      6910      1286      3561      6646      8663     35830      2915      1346      2080      3702
  precision         0.1243    0.1243    0.1243    0.1243    0.1243    0.1243    0.1243    0.1243    0.1243    0.1243    0.1243    0.1243

1SmPitch
  mean            213.2942  118.9468  187.8876  121.4041  170.0743  176.8295   74.7279   15.4232  154.5794     196.8  228.2489   173.465
  std. dev.       110.0116  112.5748   89.6855  104.6191   79.5741  107.6308  103.0179   53.0677  114.1868   90.0544   85.8949  104.7442
  weight sum         14333      4428      6910      1286      3561      6646      8663     35830      2915      1346      2080      3702
  precision         0.1248    0.1248    0.1248    0.1248    0.1248    0.1248    0.1248    0.1248    0.1248    0.1248    0.1248    0.1248

1Melogram(st)
  mean             51.2738   32.2995    50.296   37.1801   48.3177   46.5862   22.0058    5.0217   41.2827   51.7238   53.7993   46.0144
  std. dev.        17.0546   26.9642   15.6299   24.9375   16.4721   20.4797   26.8403   15.7547   24.4294   13.8823     14.79   21.0579
  weight sum         14333      4428      6910      1286      3561      6646      8663     35830      2915      1346      2080      3702
  precision         0.0246    0.0246    0.0246    0.0246    0.0246    0.0246    0.0246    0.0246    0.0246    0.0246    0.0246    0.0246

1ZCross
  mean              7.1301    3.0824    5.2767     2.069    3.7235    4.4336    2.8724    0.2613    2.4852    3.9831    4.0842    3.2752
  std. dev.         4.5874     3.788     3.209    2.2383    3.2289    3.0623    5.3818    1.1465    2.2611    2.3602    2.9396    5.0415
  weight sum         14333      4428      6910      1286      3561      6646      8663     35830      2915      1346      2080      3702
  precision         1.0755    1.0755    1.0755    1.0755    1.0755    1.0755    1.0755    1.0755    1.0755    1.0755    1.0755    1.0755

1F1(Hz)
  mean            677.0705  327.0989  461.0472  388.0168  359.1654  481.7752  249.8542   54.9845  372.2266  504.3029  494.6223  433.9309
  std. dev.       274.1678  274.8933  149.9473   278.164  147.6819  227.7162  290.9205  168.4345  238.0257  171.2959   311.451  203.6934
  weight sum         14333      4428      6910      1286      3561      6646      8663     35830      2915      1346      2080      3702
  precision         0.3648    0.3648    0.3648    0.3648    0.3648    0.3648    0.3648    0.3648    0.3648    0.3648    0.3648    0.3648

1F2(Hz)
  mean           1438.0676 1105.6876 1772.0574 1173.9193 1952.7441 1139.4043   762.998  171.9905 1309.0897 1447.6359 1043.9884 1463.3985
  std. dev.       463.2855  879.1633  544.5249  775.1169  688.7429  541.1664  857.0263  521.2421  752.5784   390.147  438.5623   621.758
  weight sum         14333      4428      6910      1286      3561      6646      8663     35830      2915      1346      2080      3702
  precision         0.4429    0.4429    0.4429    0.4429    0.4429    0.4429    0.4429    0.4429    0.4429    0.4429    0.4429    0.4429

1F3(Hz)
  mean           2645.3531 1835.4256 2603.6899 2003.0171 2631.3817 2490.7242 1309.7685  293.4349 2203.0948 2799.2032 2648.1475 2524.5723
  std. dev.       826.9081 1438.8383  809.0505 1310.3914  948.5385 1033.2776 1459.6458  874.0581 1210.0929   661.974  826.0863 1005.6339
  weight sum         14333      4428      6910      1286      3561      6646      8663     35830      2915      1346      2080      3702
  precision          0.662     0.662     0.662     0.662     0.662     0.662     0.662     0.662     0.662     0.662     0.662     0.662

1F4(Hz)
  mean           3069.6694 2091.4756 3139.0513 2393.9651 3132.5813 2866.8671 1500.9276  352.5503 2641.4508 3242.0836 3035.0863 2897.4177
  std. dev.        945.882 1626.6128  942.3082 1531.3561 1087.3648 1172.3377 1661.5435 1047.8566 1419.3848  743.0753  857.2082 1155.2209
  weight sum         14333      4428      6910      1286      3561      6646      8663     35830      2915      1346      2080      3702
  precision         0.6829    0.6829    0.6829    0.6829    0.6829    0.6829    0.6829    0.6829    0.6829    0.6829    0.6829    0.6829

2Int(dB)
  mean             -4.2367  -15.3568   -5.1801  -15.0289   -8.7172    -8.146  -19.8155  -48.2528  -12.4737   -8.2684   -5.2139  -10.5395
  std. dev.         9.6141    11.078     8.069    8.8787    8.3524   12.1698    9.4065   16.2026   10.7103    6.7651    7.7793    8.3476
  weight sum         14333      4428      6910      1286      3561      6646      8663     35830      2915      1346      2080      3702
  precision         0.1039    0.1039    0.1039    0.1039    0.1039    0.1039    0.1039    0.1039    0.1039    0.1039    0.1039    0.1039

2Pitch(Hz)
  mean            215.3054  130.3957  190.0868  131.0502  173.0539  178.5997    81.633   16.6931  159.5378  197.3134  229.3808  175.6318
  std. dev.       108.4186  111.6066   87.9634  107.2576   76.5412   105.265  105.3344   56.2811  111.1102   89.1466    84.526   103.219
  weight sum         14333      4428      6910      1286      3561      6646      8663     35830      2915      1346      2080      3702
  precision         0.1242    0.1242    0.1242    0.1242    0.1242    0.1242    0.1242    0.1242    0.1242    0.1242    0.1242    0.1242

2RawPitch
  mean            204.9204  107.8573  185.5725  106.2993  165.7052  172.7286   62.8262   13.6791   147.555  191.1584  220.4839  161.7517
  std. dev.        114.845  109.9635   95.2181  103.3674   83.3185  112.6688   98.9135   50.8138  116.3293   98.1058   93.0053  112.8954
  weight sum         14333      4428      6910      1286      3561      6646      8663     35830      2915      1346      2080      3702
  precision         0.1243    0.1243    0.1243    0.1243    0.1243    0.1243    0.1243    0.1243    0.1243    0.1243    0.1243    0.1243

2SmPitch
  mean            213.3064  120.8501  188.5362  120.8089  170.6841  176.5062   74.7538   15.0755  154.9178  196.7689  228.8712  172.8312
  std. dev.       109.9963  112.7685   89.2414  104.3726   79.0929  107.4391  103.1617   52.4903  113.8128   90.1148   84.8121   105.082
  weight sum         14333      4428      6910      1286      3561      6646      8663     35830      2915      1346      2080      3702
  precision         0.1248    0.1248    0.1248    0.1248    0.1248    0.1248    0.1248    0.1248    0.1248    0.1248    0.1248    0.1248

2Melogram(st)
  mean             51.3027   32.6817   50.4037   37.0227   48.4912   46.5516    21.964    4.9296    41.476   51.7167   54.0704   45.8817
  std. dev.        16.9973    26.931   15.4597   25.0004   16.2162    20.484    26.856   15.6284   24.3018   13.8885   14.2652    21.173
  weight sum         14333      4428      6910      1286      3561      6646      8663     35830      2915      1346      2080      3702
  precision         0.0246    0.0246    0.0246    0.0246    0.0246    0.0246    0.0246    0.0246    0.0246    0.0246    0.0246    0.0246

2ZCross
  mean              7.1259    3.1149    5.2659    2.0682    3.7314    4.4315    2.8907    0.2535     2.518    4.0278    4.0992    3.2508
  std. dev.         4.5903    3.7729    3.2124    2.2445    3.2172    3.0586    5.3852    1.1335    2.2548    2.3586    2.9273    5.0581
  weight sum         14333      4428      6910      1286      3561      6646      8663     35830      2915      1346      2080      3702
  precision         1.0755    1.0755    1.0755    1.0755    1.0755    1.0755    1.0755    1.0755    1.0755    1.0755    1.0755    1.0755

2F1(Hz)
  mean            680.5164  327.9873   463.877  383.2741  361.6146  484.2054  245.0498   53.8391  371.8273  504.9305  498.0573  429.6581
  std. dev.       271.5055  274.1854   146.053  277.9272  144.1442  226.2125  289.3656  166.7264   237.112  171.3464   307.944  203.5119
  weight sum         14333      4428      6910      1286      3561      6646      8663     35830      2915      1346      2080      3702
  precision         0.3648    0.3648    0.3648    0.3648    0.3648    0.3648    0.3648    0.3648    0.3648    0.3648    0.3648    0.3648

2F2(Hz)
  mean           1442.0523 1108.1493  1785.616 1168.3225 1974.0792 1140.4987  750.1326  168.5717 1308.1584 1447.6544  1053.554 1457.7227
  std. dev.       456.0769  876.3799  528.1297  778.4294  669.1502  535.6978  855.0401  516.6505   749.768  391.6426  426.6176  624.9813
  weight sum         14333      4428      6910      1286      3561      6646      8663     35830      2915      1346      2080      3702
  precision         0.4429    0.4429    0.4429    0.4429    0.4429    0.4429    0.4429    0.4429    0.4429    0.4429    0.4429    0.4429

2F3(Hz)
  mean           2653.6177 1843.3859 2619.8245 1990.5358 2655.6632  2499.568 1287.0206  287.4349 2202.5227 2798.5752  2673.852 2515.5789
  std. dev.       815.2889 1437.1292  786.5019 1314.6764  922.4738 1024.8703 1456.2998  866.0332 1206.5921   666.643  787.5699 1012.9065
  weight sum         14333      4428      6910      1286      3561      6646      8663     35830      2915      1346      2080      3702
  precision          0.662     0.662     0.662     0.662     0.662     0.662     0.662     0.662     0.662     0.662     0.662     0.662

2F4(Hz)
  mean           3078.5421  2101.281 3157.1809 2382.1202 3159.0187 2876.1426 1475.8212  345.5055 2644.3886 3240.4226  3063.919 2888.5546
  std. dev.       932.0325 1624.8999  913.7543 1537.9929 1054.7924 1161.7476 1659.1561 1038.6648 1416.7903  748.1848  806.6532 1164.8692
  weight sum         14333      4428      6910      1286      3561      6646      8663     35830      2915      1346      2080      3702
  precision         0.6829    0.6829    0.6829    0.6829    0.6829    0.6829    0.6829    0.6829    0.6829    0.6829    0.6829    0.6829

3Int(dB)
  mean             -4.2733  -15.0488    -5.199  -15.0003    -8.676   -8.1936  -19.7065  -48.3071  -12.2641   -8.1726   -5.0927  -10.6476
  std. dev.         9.6287   10.8635    8.0531    8.8607    8.3577   12.2208    9.4263   16.1119   10.5968    6.8019    7.5769    8.3765
  weight sum         14333      4428      6910      1286      3561      6646      8663     35830      2915      1346      2080      3702
  precision         0.1037    0.1037    0.1037    0.1037    0.1037    0.1037    0.1037    0.1037    0.1037    0.1037    0.1037    0.1037

3Pitch(Hz)
  mean            215.1446  132.6941  190.3791  130.8258  173.4856  178.0537   82.0048   16.3392  160.3717  197.2842  229.8416  175.2531
  std. dev.       108.5552   111.541   87.7367  107.1381   76.0683  105.2226  105.6854   55.7292  110.4325   89.2015   83.5753  103.4275
  weight sum         14333      4428      6910      1286      3561      6646      8663     35830      2915      1346      2080      3702
  precision         0.1242    0.1242    0.1242    0.1242    0.1242    0.1242    0.1242    0.1242    0.1242    0.1242    0.1242    0.1242

3RawPitch
  mean            204.7828  109.8718   185.837  105.9763  166.2787  172.2852   63.1905   13.3735  148.5095  191.0311  220.9278  160.8881
  std. dev.       114.9802    110.33   95.0002  102.9581   83.0617  112.5036   99.2114   50.3498  115.8451   97.9614   92.1417  113.1803
  weight sum         14333      4428      6910      1286      3561      6646      8663     35830      2915      1346      2080      3702
  precision         0.1243    0.1243    0.1243    0.1243    0.1243    0.1243    0.1243    0.1243    0.1243    0.1243    0.1243    0.1243

3SmPitch
  mean            213.2239  122.9872  188.9642  120.6473  171.0525  175.9682   75.1339   14.7415  155.6124  196.8148  229.2536   172.027
  std. dev.       110.0447  112.9121   88.9263  104.2291   78.7886  107.3853  103.5009   51.9308  113.2741   90.0345   84.0032  105.5167
  weight sum         14333      4428      6910      1286      3561      6646      8663     35830      2915      1346      2080      3702
  precision         0.1248    0.1248    0.1248    0.1248    0.1248    0.1248    0.1248    0.1248    0.1248    0.1248    0.1248    0.1248

3Melogram(st)
  mean             51.2983   33.1517   50.4842   37.0069   48.6341   46.4749   22.0146    4.8257   41.6893   51.7752   54.3072   45.7574
  std. dev.        16.9875   26.8769   15.3213   25.0249   15.9951   20.5262   26.8897   15.4835   24.1614   13.7541   13.7628   21.2886
  weight sum         14333      4428      6910      1286      3561      6646      8663     35830      2915      1346      2080      3702
  precision         0.0246    0.0246    0.0246    0.0246    0.0246    0.0246    0.0246    0.0246    0.0246    0.0246    0.0246    0.0246

3ZCross
  mean               7.111    3.1506    5.2438    2.0698    3.7483    4.4237    2.9147    0.2484    2.5583    4.0886    4.1111    3.2363
  std. dev.         4.6004    3.7529    3.2168    2.2498    3.2275    3.0692     5.384    1.1311    2.2519    2.3648    2.9164     5.066
  weight sum         14333      4428      6910      1286      3561      6646      8663     35830      2915      1346      2080      3702
  precision         1.0755    1.0755    1.0755    1.0755    1.0755    1.0755    1.0755    1.0755    1.0755    1.0755    1.0755    1.0755

3F1(Hz)
  mean            683.4195   329.635  466.4894  378.5922    363.75  486.2046  241.1127   52.7357   372.086  505.7205  500.6341   425.508
  std. dev.        269.455  273.3007  142.2388  277.5826  140.8431  225.0865  287.7183  165.1041  236.0116  171.4004  305.2064  203.4459
  weight sum         14333      4428      6910      1286      3561      6646      8663     35830      2915      1346      2080      3702
  precision         0.3648    0.3648    0.3648    0.3648    0.3648    0.3648    0.3648    0.3648    0.3648    0.3648    0.3648    0.3648

3F2(Hz)
  mean           1444.7727 1112.3184 1798.4442 1163.3139  1993.047 1140.7371  740.6528   165.125 1309.1173 1447.7215 1061.2779 1451.7489
  std. dev.       450.4532  872.7631  511.8666   782.141  650.7685  531.1147   853.618  511.8774    746.06  393.3743  416.4942  628.6578
  weight sum         14333      4428      6910      1286      3561      6646      8663     35830      2915      1346      2080      3702
  precision         0.4429    0.4429    0.4429    0.4429    0.4429    0.4429    0.4429    0.4429    0.4429    0.4429    0.4429    0.4429

3F3(Hz)
  mean           2659.8447 1854.8343 2634.9785 1978.2255 2677.3565 2506.4348 1269.4081  281.5403 2204.7048 2797.9736 2694.0925 2505.9666
  std. dev.       806.7783 1434.0175  764.1593 1318.9077  898.3116 1018.6433 1453.0535  858.0755 1201.2074  671.2133  755.1652 1020.9464
  weight sum         14333      4428      6910      1286      3561      6646      8663     35830      2915      1346      2080      3702
  precision          0.662     0.662     0.662     0.662     0.662     0.662     0.662     0.662     0.662     0.662     0.662     0.662

3F4(Hz)
  mean           3084.7647 2115.9384   3174.33 2370.2376 3182.3609 2882.7851 1457.3159   338.536 2650.5175 3238.3887 3086.3027 2878.7668
  std. dev.       921.7526 1622.1375  885.5429 1544.5093 1024.5862 1153.5603 1657.6969 1029.4246 1411.8243  753.1084   763.546 1175.2848
  weight sum         14333      4428      6910      1286      3561      6646      8663     35830      2915      1346      2080      3702
  precision         0.6829    0.6829    0.6829    0.6829    0.6829    0.6829    0.6829    0.6829    0.6829    0.6829    0.6829    0.6829





=== Stratified cross-validation ===

Correctly Classified Instances       46811               51.048  %
Incorrectly Classified Instances     44889               48.952  %
Kappa statistic                          0.3855
K&B Relative Info Score            3290469.706  %
K&B Information Score                94218.8238 bits      1.0275 bits/instance
Class complexity | order 0          262552.5757 bits      2.8632 bits/instance
Class complexity | scheme          2103004.2579 bits     22.9335 bits/instance
Complexity improvement     (Sf)    -1840451.6821 bits    -20.0704 bits/instance
Mean absolute error                      0.0825
Root mean squared error                  0.2657
Relative absolute error                 62.2089 %
Root relative squared error            103.1872 %
Coverage of cases (0.95 level)          57.6183 %
Mean rel. region size (0.95 level)      12.973  %
Total Number of Instances            91700     


=== Detailed Accuracy By Class ===

                 TP Rate  FP Rate  Precision  Recall   F-Measure  MCC      ROC Area  PRC Area  Class
                 0,433    0,037    0,682      0,433    0,530      0,481    0,881     0,608     A
                 0,020    0,007    0,121      0,020    0,034      0,030    0,691     0,084     LGJKC
                 0,550    0,070    0,390      0,550    0,457      0,411    0,866     0,408     E
                 0,072    0,028    0,035      0,072    0,047      0,030    0,729     0,030     FV
                 0,389    0,038    0,290      0,389    0,333      0,305    0,862     0,266     I
                 0,005    0,003    0,125      0,005    0,010      0,011    0,778     0,180     O
                 0,178    0,025    0,422      0,178    0,251      0,228    0,802     0,307     SNRTY
                 0,892    0,139    0,804      0,892    0,846      0,741    0,940     0,910     0
                 0,005    0,004    0,042      0,005    0,010      0,004    0,721     0,057     BMP
                 0,607    0,186    0,046      0,607    0,086      0,128    0,815     0,047     DZ
                 0,401    0,019    0,329      0,401    0,362      0,347    0,868     0,345     U
                 0,012    0,005    0,087      0,012    0,020      0,017    0,725     0,072     SNRTXY
Weighted Avg.    0,510    0,074    0,530      0,510    0,498      0,442    0,863     0,551     


=== Confusion Matrix ===

     a     b     c     d     e     f     g     h     i     j     k     l   <-- classified as
  6201   136  1698   358   299    79   254   742    43  4140   351    32 |     a = A
   222    87   419   167   360    52   475  1166    40  1252   110    78 |     b = LGJKC
   597    95  3798   158   441    12   129   271    57  1269    62    21 |     c = E
    84    11   103    92   131     0    74   313     4   458     8     8 |     d = FV
   171    71  1299   109  1387     0   104   194    34   187     1     4 |     e = I
   680    76  1058   300    78    33   148   711    36  2791   701    34 |     f = O
   272   117   329   545   482    34  1544  3468    73  1540    93   166 |     g = SNRTY
    98    63   353   482   574    28   485 31958    44  1567   102    76 |     h = 0
   178    24   221   140   467    15   123   534    16  1039   138    20 |     i = BMP
   131     0   142    40    59     0    20    50     7   817    68    12 |     j = DZ
   191    32    98    59    69    10    53    39    19   675   835     0 |     k = U
   261     5   208   214   433     0   249   289     6  1928    66    43 |     l = SNRTXY

=== Percent Confusion Matrix ===
a	b	c	d	e	f	g	h	i	j	k	l	
43.26	0.95	11.85	2.5	2.09	0.55	1.77	5.18	0.3	28.88	2.45	0.22	 a = A
5.01	1.96	9.46	3.77	8.13	1.17	10.73	26.33	0.9	28.27	2.48	1.76	 b = LGJKC
8.64	1.37	54.96	2.29	6.38	0.17	1.87	3.92	0.82	18.36	0.9	0.3	 c = E
6.53	0.86	8.01	7.15	10.19	0.0	5.75	24.34	0.31	35.61	0.62	0.62	 d = FV
4.8	1.99	36.48	3.06	38.95	0.0	2.92	5.45	0.95	5.25	0.03	0.11	 e = I
10.23	1.14	15.92	4.51	1.17	0.5	2.23	10.7	0.54	42.0	10.55	0.51	 f = O
3.14	1.35	3.8	6.29	5.56	0.39	17.82	40.03	0.84	17.78	1.07	1.92	 g = SNRTY
0.27	0.18	0.99	1.35	1.6	0.08	1.35	89.19	0.12	4.37	0.28	0.21	 h = 0
6.11	0.82	7.58	4.8	16.02	0.51	4.22	18.32	0.55	35.64	4.73	0.69	 i = BMP
9.73	0.0	10.55	2.97	4.38	0.0	1.49	3.71	0.52	60.7	5.05	0.89	 j = DZ
9.18	1.54	4.71	2.84	3.32	0.48	2.55	1.88	0.91	32.45	40.14	0.0	 k = U
7.05	0.14	5.62	5.78	11.7	0.0	6.73	7.81	0.16	52.08	1.78	1.16	 l = SNRTXY
