Timestamp:2014-12-07-11:01:29
Inventario:I2
Intervalo:20ms
Ngramas:5
Clasificador:NaiveBayes
Relation Name:  I2-20ms-5gramas
Num Instances:  9125
Num Attributes: 51

     Name                      Type  Nom  Int Real     Missing      Unique  Dist
   1 0Int(dB)                   Num   0%  11%  89%     0 /  0%    14 /  0%   764 
   2 0Pitch(Hz)                 Num   0%  49%  51%     0 /  0%  1033 / 11%  2440 
   3 0RawPitch                  Num   0%  52%  48%     0 /  0%  1062 / 12%  2369 
   4 0SmPitch                   Num   0%  50%  50%     0 /  0%  1056 / 12%  2419 
   5 0Melogram(st)              Num   0%  45%  55%     0 /  0%   937 / 10%  2341 
   6 0ZCross                    Num   0% 100%   0%     0 /  0%     7 /  0%    34 
   7 0F1(Hz)                    Num   0%  49%  51%     0 /  0%  2180 / 24%  3398 
   8 0F2(Hz)                    Num   0%  49%  51%     0 /  0%  3463 / 38%  4259 
   9 0F3(Hz)                    Num   0%  49%  51%     0 /  0%  3209 / 35%  4087 
  10 0F4(Hz)                    Num   0%  49%  51%     0 /  0%  3134 / 34%  4027 
  11 1Int(dB)                   Num   0%  11%  89%     0 /  0%    14 /  0%   764 
  12 1Pitch(Hz)                 Num   0%  49%  51%     0 /  0%  1033 / 11%  2440 
  13 1RawPitch                  Num   0%  52%  48%     0 /  0%  1062 / 12%  2369 
  14 1SmPitch                   Num   0%  50%  50%     0 /  0%  1056 / 12%  2419 
  15 1Melogram(st)              Num   0%  45%  55%     0 /  0%   937 / 10%  2341 
  16 1ZCross                    Num   0% 100%   0%     0 /  0%     7 /  0%    34 
  17 1F1(Hz)                    Num   0%  49%  51%     0 /  0%  2180 / 24%  3398 
  18 1F2(Hz)                    Num   0%  49%  51%     0 /  0%  3463 / 38%  4259 
  19 1F3(Hz)                    Num   0%  49%  51%     0 /  0%  3209 / 35%  4087 
  20 1F4(Hz)                    Num   0%  49%  51%     0 /  0%  3134 / 34%  4027 
  21 2Int(dB)                   Num   0%  11%  89%     0 /  0%    14 /  0%   764 
  22 2Pitch(Hz)                 Num   0%  49%  51%     0 /  0%  1033 / 11%  2440 
  23 2RawPitch                  Num   0%  52%  48%     0 /  0%  1062 / 12%  2369 
  24 2SmPitch                   Num   0%  50%  50%     0 /  0%  1056 / 12%  2419 
  25 2Melogram(st)              Num   0%  45%  55%     0 /  0%   937 / 10%  2341 
  26 2ZCross                    Num   0% 100%   0%     0 /  0%     7 /  0%    34 
  27 2F1(Hz)                    Num   0%  49%  51%     0 /  0%  2180 / 24%  3398 
  28 2F2(Hz)                    Num   0%  49%  51%     0 /  0%  3463 / 38%  4259 
  29 2F3(Hz)                    Num   0%  49%  51%     0 /  0%  3209 / 35%  4087 
  30 2F4(Hz)                    Num   0%  49%  51%     0 /  0%  3134 / 34%  4027 
  31 3Int(dB)                   Num   0%  11%  89%     0 /  0%    14 /  0%   764 
  32 3Pitch(Hz)                 Num   0%  49%  51%     0 /  0%  1033 / 11%  2440 
  33 3RawPitch                  Num   0%  52%  48%     0 /  0%  1062 / 12%  2369 
  34 3SmPitch                   Num   0%  50%  50%     0 /  0%  1056 / 12%  2419 
  35 3Melogram(st)              Num   0%  45%  55%     0 /  0%   937 / 10%  2341 
  36 3ZCross                    Num   0% 100%   0%     0 /  0%     7 /  0%    34 
  37 3F1(Hz)                    Num   0%  49%  51%     0 /  0%  2180 / 24%  3398 
  38 3F2(Hz)                    Num   0%  49%  51%     0 /  0%  3463 / 38%  4259 
  39 3F3(Hz)                    Num   0%  49%  51%     0 /  0%  3209 / 35%  4087 
  40 3F4(Hz)                    Num   0%  49%  51%     0 /  0%  3134 / 34%  4027 
  41 4Int(dB)                   Num   0%  11%  89%     0 /  0%    14 /  0%   764 
  42 4Pitch(Hz)                 Num   0%  49%  51%     0 /  0%  1033 / 11%  2440 
  43 4RawPitch                  Num   0%  52%  48%     0 /  0%  1062 / 12%  2369 
  44 4SmPitch                   Num   0%  50%  50%     0 /  0%  1056 / 12%  2419 
  45 4Melogram(st)              Num   0%  45%  55%     0 /  0%   938 / 10%  2342 
  46 4ZCross                    Num   0% 100%   0%     0 /  0%     7 /  0%    34 
  47 4F1(Hz)                    Num   0%  49%  51%     0 /  0%  2180 / 24%  3398 
  48 4F2(Hz)                    Num   0%  49%  51%     0 /  0%  3463 / 38%  4259 
  49 4F3(Hz)                    Num   0%  49%  51%     0 /  0%  3209 / 35%  4087 
  50 4F4(Hz)                    Num   0%  49%  51%     0 /  0%  3134 / 34%  4027 
  51 class                      Nom 100%   0%   0%     0 /  0%     0 /  0%    12 


Naive Bayes Classifier

                    Class
Attribute               A     LGJKC         E        FV         I         O     SNRTY         0       BMP        DZ         U    SNRTXY
                   (0.16)    (0.05)    (0.08)    (0.02)    (0.04)    (0.08)     (0.1)    (0.35)    (0.03)    (0.02)    (0.02)    (0.04)
========================================================================================================================================
0Int(dB)
  mean             -9.4436  -13.4216  -13.0643   -8.9269  -14.4823  -13.7939  -12.7114  -47.5634  -10.7538  -10.8207  -12.6792   -7.6882
  std. dev.        14.8533    15.238   13.8924   12.5332   12.1648   14.5422   12.6626   17.5773   12.8105     9.073   14.5166    8.9878
  weight sum          1505       450       746       138       385       712       914      3233       299       138       218       387
  precision         0.1008    0.1008    0.1008    0.1008    0.1008    0.1008    0.1008    0.1008    0.1008    0.1008    0.1008    0.1008

0Pitch(Hz)
  mean            192.1654  161.5029  157.6241  180.3011   129.399  154.4015  160.8652   22.5345  168.3253  163.3852  185.4643  191.0757
  std. dev.       124.5559  102.3312  106.2543   98.9453    97.295  117.9146  100.3511   64.1222  106.7245   93.2086  129.6329    89.816
  weight sum          1505       450       746       138       385       712       914      3233       299       138       218       387
  precision         0.2034    0.2034    0.2034    0.2034    0.2034    0.2034    0.2034    0.2034    0.2034    0.2034    0.2034    0.2034

0RawPitch
  mean            182.8778  155.0971  142.8621  172.2618  115.7703  147.4316  148.1611   19.0259  165.1759   150.173  174.0768  178.0856
  std. dev.       126.0813  105.3548  108.7738  100.7608   98.4318  119.9864  106.2421   58.9951  108.0612  100.3023   129.047   96.8545
  weight sum          1505       450       746       138       385       712       914      3233       299       138       218       387
  precision         0.2088    0.2088    0.2088    0.2088    0.2088    0.2088    0.2088    0.2088    0.2088    0.2088    0.2088    0.2088

0SmPitch
  mean            190.7737  158.8732  151.1828    179.78  126.3893  151.8381   157.795   20.5313  169.0202  159.0338   182.135   187.246
  std. dev.       124.8295  102.9867  108.3387  100.4294    98.528  118.5922  101.8863   60.8233  106.3346   95.7205  130.2709   93.5644
  weight sum          1505       450       746       138       385       712       914      3233       299       138       218       387
  precision         0.2051    0.2051    0.2051    0.2051    0.2051    0.2051    0.2051    0.2051    0.2051    0.2051    0.2051    0.2051

0Melogram(st)
  mean             45.7878   43.4982   41.5957   48.2008   37.5182   40.1516   43.3422    6.4706   44.6453   46.4163   41.8132   49.8912
  std. dev.        22.8954   22.3521   23.8518   18.1359   24.3982   24.9935   21.9542   17.6275    22.068   19.4202    26.342   17.1471
  weight sum          1505       450       746       138       385       712       914      3233       299       138       218       387
  precision         0.0353    0.0353    0.0353    0.0353    0.0353    0.0353    0.0353    0.0353    0.0353    0.0353    0.0353    0.0353

0ZCross
  mean              5.5966    3.4816     3.564    4.2701    3.6099    3.1175    3.0454    0.4181    3.8139    3.1542    3.6956    4.5549
  std. dev.         5.2608    3.0707    3.6901    3.3526       4.9    3.4613    2.7753    1.6417    3.5612    2.7246    4.1241     3.388
  weight sum          1505       450       746       138       385       712       914      3233       299       138       218       387
  precision         1.2727    1.2727    1.2727    1.2727    1.2727    1.2727    1.2727    1.2727    1.2727    1.2727    1.2727    1.2727

0F1(Hz)
  mean            539.6585  442.6963  396.6456  477.7009  362.3908  381.2384  465.4151   78.4894  404.6554   454.531  436.2298  524.7739
  std. dev.       340.8503  235.4902  245.4891  201.4736  263.2562   266.009  248.0348  203.5437  239.4385  233.8577  361.4868   218.031
  weight sum          1505       450       746       138       385       712       914      3233       299       138       218       387
  precision         0.5127    0.5127    0.5127    0.5127    0.5127    0.5127    0.5127    0.5127    0.5127    0.5127    0.5127    0.5127

0F2(Hz)
  mean           1296.0971 1393.0932 1340.1469 1515.3183 1267.4653 1098.4424 1409.2359  231.6962 1394.3751  1213.765 1020.6963 1538.6065
  std. dev.       679.3112  716.4354  797.5886   626.684  859.7623  749.9908  684.8831  596.3489  768.1069  622.7755   717.933  578.7666
  weight sum          1505       450       746       138       385       712       914      3233       299       138       218       387
  precision         0.6985    0.6985    0.6985    0.6985    0.6985    0.6985    0.6985    0.6985    0.6985    0.6985    0.6985    0.6985

0F3(Hz)
  mean           2328.8526 2350.4154 2162.9982 2526.1882 2022.7855 2116.8449  2423.033  398.5268 2282.2263 2336.8057  2161.149  2646.046
  std. dev.      1165.6944 1167.9305 1227.4642  968.8846  1338.969 1300.7052 1123.0907  997.1309  1194.601 1139.7693 1263.8627  895.8091
  weight sum          1505       450       746       138       385       712       914      3233       299       138       218       387
  precision         1.0065    1.0065    1.0065    1.0065    1.0065    1.0065    1.0065    1.0065    1.0065    1.0065    1.0065    1.0065

0F4(Hz)
  mean           2691.0845 2701.2885 2604.1079 2969.9013 2433.8024  2442.601 2781.9905  479.4766 2688.4461  2748.044 2510.8149 3036.2737
  std. dev.      1337.1531 1329.4452  1461.208 1128.5034 1591.4063 1494.7339 1268.8079 1196.5525 1385.2271 1311.5579 1424.0654 1003.8327
  weight sum          1505       450       746       138       385       712       914      3233       299       138       218       387
  precision         1.0301    1.0301    1.0301    1.0301    1.0301    1.0301    1.0301    1.0301    1.0301    1.0301    1.0301    1.0301

1Int(dB)
  mean             -8.6039  -13.8469  -11.7218   -8.8371  -14.1716  -13.1727  -13.6553  -48.3452  -10.1929   -9.0825  -12.1512   -7.1446
  std. dev.        13.8877   15.1912   12.7888   12.1009   11.3435   13.9303   12.3442   16.8525   12.1121    8.1938   13.5815    8.1877
  weight sum          1505       450       746       138       385       712       914      3233       299       138       218       387
  precision         0.1008    0.1008    0.1008    0.1008    0.1008    0.1008    0.1008    0.1008    0.1008    0.1008    0.1008    0.1008

1Pitch(Hz)
  mean            194.5491  157.1857  160.6546  181.9044  134.2538  156.7441   153.709   19.4371  179.4782  182.2168  185.7432  198.5596
  std. dev.        122.101  104.2772  102.2528  100.9774   96.8851  116.9519  102.6533   59.9023  103.6256   86.9581  130.6923    85.883
  weight sum          1505       450       746       138       385       712       914      3233       299       138       218       387
  precision         0.2034    0.2034    0.2034    0.2034    0.2034    0.2034    0.2034    0.2034    0.2034    0.2034    0.2034    0.2034

1RawPitch
  mean             184.365  149.9541  148.5522  170.1709  121.7318  148.9971   140.363   16.1157  175.1905  168.9379  173.5625  187.8385
  std. dev.       124.2233  107.5161  106.1316  103.5921   96.3139  120.0464  107.7139   54.3952  105.5177   95.6179  129.6098   92.9156
  weight sum          1505       450       746       138       385       712       914      3233       299       138       218       387
  precision         0.2088    0.2088    0.2088    0.2088    0.2088    0.2088    0.2088    0.2088    0.2088    0.2088    0.2088    0.2088

1SmPitch
  mean            192.5256  153.3014  155.5873  177.1758  131.2192  153.6272  150.3572   17.6206   179.977  181.0673  182.8643  196.4031
  std. dev.       122.8826   106.453  104.7161  100.5075   96.9443  117.9631  104.4532   56.4298  103.1028   88.3662  131.0566   87.9678
  weight sum          1505       450       746       138       385       712       914      3233       299       138       218       387
  precision         0.2051    0.2051    0.2051    0.2051    0.2051    0.2051    0.2051    0.2051    0.2051    0.2051    0.2051    0.2051

1Melogram(st)
  mean             46.3494   41.9912   43.0353   48.8131   38.5277     40.72   41.8826     5.628   47.4023    50.224    41.677   51.4916
  std. dev.        22.3412   23.3035   22.8173    17.183   23.9713   24.6779    22.989    16.586   19.9946   15.3337    26.535   14.9337
  weight sum          1505       450       746       138       385       712       914      3233       299       138       218       387
  precision         0.0353    0.0353    0.0353    0.0353    0.0353    0.0353    0.0353    0.0353    0.0353    0.0353    0.0353    0.0353

1ZCross
  mean              5.7987    3.4053    3.7875    4.3439    3.3025    3.2283    2.9729    0.3547    3.5458    3.3939    3.5496    4.4069
  std. dev.         5.2067     3.111    3.6027    3.5198    4.4292    3.6497    3.1469    1.5381    3.2035    2.4483    3.8879     3.244
  weight sum          1505       450       746       138       385       712       914      3233       299       138       218       387
  precision         1.2727    1.2727    1.2727    1.2727    1.2727    1.2727    1.2727    1.2727    1.2727    1.2727    1.2727    1.2727

1F1(Hz)
  mean            548.2115  440.4349  393.9778   516.388  337.2878   387.934  463.9905   69.4789  434.0106  488.8531  424.8479  548.2741
  std. dev.       340.6042   238.484  237.3761  185.7463  247.3025  267.0661  251.6192  193.2584  222.5728  188.7732  365.8257  180.8894
  weight sum          1505       450       746       138       385       712       914      3233       299       138       218       387
  precision         0.5127    0.5127    0.5127    0.5127    0.5127    0.5127    0.5127    0.5127    0.5127    0.5127    0.5127    0.5127

1F2(Hz)
  mean           1291.1129 1403.0537 1373.2113 1567.5638 1314.2846 1075.1192 1394.5407  205.7068 1481.8017 1374.5813  955.3932 1624.0884
  std. dev.       669.3906  735.6073  794.2677  551.4753  896.4634  722.9702  692.6927   567.627  698.0192  507.4621  693.4125  465.9132
  weight sum          1505       450       746       138       385       712       914      3233       299       138       218       387
  precision         0.6985    0.6985    0.6985    0.6985    0.6985    0.6985    0.6985    0.6985    0.6985    0.6985    0.6985    0.6985

1F3(Hz)
  mean           2332.9922 2334.8533 2174.5401 2627.5782 2014.1352 2131.1022 2401.2675  351.5345 2459.9895   2628.57 2126.7769  2793.975
  std. dev.      1159.2763 1176.5406 1212.1208  842.6607 1344.3758 1290.7244 1139.3262  944.5845 1073.6058  876.1679 1291.5323  673.9655
  weight sum          1505       450       746       138       385       712       914      3233       299       138       218       387
  precision         1.0065    1.0065    1.0065    1.0065    1.0065    1.0065    1.0065    1.0065    1.0065    1.0065    1.0065    1.0065

1F4(Hz)
  mean           2700.5548 2683.7364 2634.0278 3085.9541 2430.7791 2461.9478 2759.7362  424.4618 2871.1033 3050.5218 2454.4832 3183.1111
  std. dev.      1332.9429 1340.2982 1448.9271   967.976 1598.0911 1484.5906 1291.2466 1137.6364 1226.0673  980.6928  1445.419  742.2332
  weight sum          1505       450       746       138       385       712       914      3233       299       138       218       387
  precision         1.0301    1.0301    1.0301    1.0301    1.0301    1.0301    1.0301    1.0301    1.0301    1.0301    1.0301    1.0301

2Int(dB)
  mean             -7.2233  -15.2855   -9.6448  -10.0976  -12.8075  -11.6424  -15.5272  -49.2213  -10.9675   -7.7642  -10.4698   -7.6626
  std. dev.        12.4964   15.1641   11.2836   11.5475   10.4841   13.0523   12.0659   15.8212   11.7268    7.1778   12.0458    8.1941
  weight sum          1505       450       746       138       385       712       914      3233       299       138       218       387
  precision         0.1008    0.1008    0.1008    0.1008    0.1008    0.1008    0.1008    0.1008    0.1008    0.1008    0.1008    0.1008

2Pitch(Hz)
  mean            201.6038  147.4176  168.4113  174.9356  145.3172  164.5924  138.7944   15.8317  181.5295  193.3442   199.501  196.6127
  std. dev.       116.7827  107.6644   97.9387   105.317    93.238  113.2428  106.3067     54.56  103.9694   84.8869   120.686   88.3756
  weight sum          1505       450       746       138       385       712       914      3233       299       138       218       387
  precision         0.2034    0.2034    0.2034    0.2034    0.2034    0.2034    0.2034    0.2034    0.2034    0.2034    0.2034    0.2034

2RawPitch
  mean            192.0371   138.882  160.8464  150.5271  134.7046  155.7527  121.1476   12.9523  174.3366  183.2789  187.6775  188.2523
  std. dev.       119.1688  109.3642  102.2888  108.0909   92.9403  117.0548  109.7441   48.8078  107.6802   94.8983   120.986   95.5155
  weight sum          1505       450       746       138       385       712       914      3233       299       138       218       387
  precision         0.2088    0.2088    0.2088    0.2088    0.2088    0.2088    0.2088    0.2088    0.2088    0.2088    0.2088    0.2088

2SmPitch
  mean            199.8945  142.8303  165.6273  164.0951  143.4528  162.0426  132.6773   14.3648  180.2617  191.6804  195.9784  195.1421
  std. dev.       117.6128  109.4491  100.1622  102.8422   93.1972  114.4287  107.9719   51.0357  105.3606   87.4261  122.4742   90.3362
  weight sum          1505       450       746       138       385       712       914      3233       299       138       218       387
  precision         0.2051    0.2051    0.2051    0.2051    0.2051    0.2051    0.2051    0.2051    0.2051    0.2051    0.2051    0.2051

2Melogram(st)
  mean             48.2092   39.4769   45.4706   47.4754   41.3427   43.3948   37.7346    4.6675   47.4768   51.5728   44.4291   50.9757
  std. dev.        20.5746   24.5961   20.8835   18.4939   22.4649   23.1016   25.2148   15.2484   19.8068   13.5777    24.856   15.8021
  weight sum          1505       450       746       138       385       712       914      3233       299       138       218       387
  precision         0.0353    0.0353    0.0353    0.0353    0.0353    0.0353    0.0353    0.0353    0.0353    0.0353    0.0353    0.0353

2ZCross
  mean               6.115    3.1196    4.2003    3.7167    3.1471    3.4785    2.9312    0.2555    3.0435    3.6061    3.4504    3.9267
  std. dev.         5.0271    3.0707    3.4667    3.2864    4.1866    3.6204    3.7872    1.3164    2.9836    2.2704    3.5108    2.9916
  weight sum          1505       450       746       138       385       712       914      3233       299       138       218       387
  precision         1.2727    1.2727    1.2727    1.2727    1.2727    1.2727    1.2727    1.2727    1.2727    1.2727    1.2727    1.2727

2F1(Hz)
  mean            581.7148  418.0762  408.4223  522.7777  325.1292  411.5688   432.494   58.3154  443.7803  506.5249   424.862  536.2617
  std. dev.       326.0741  254.9219  216.3841  201.8334  214.6223  260.2244  270.9083  178.1822  220.7378   153.482  361.7064  175.2787
  weight sum          1505       450       746       138       385       712       914      3233       299       138       218       387
  precision         0.5127    0.5127    0.5127    0.5127    0.5127    0.5127    0.5127    0.5127    0.5127    0.5127    0.5127    0.5127

2F2(Hz)
  mean           1332.7377 1348.2605 1477.3725 1525.1731 1473.7397 1085.7909 1297.0966  173.8413 1499.8925 1468.4886  924.4511 1628.3029
  std. dev.       619.6166  787.5839  754.7082  570.7008  898.7946  674.5578  757.3229  526.5742  665.9892   378.177  644.9976  461.7432
  weight sum          1505       450       746       138       385       712       914      3233       299       138       218       387
  precision         0.6985    0.6985    0.6985    0.6985    0.6985    0.6985    0.6985    0.6985    0.6985    0.6985    0.6985    0.6985

2F3(Hz)
  mean           2424.4511 2225.4376 2285.1335 2573.9367 2142.5805 2224.7554 2233.6157  296.3217 2515.1665  2812.592 2177.1877 2791.9413
  std. dev.      1080.1353 1258.0629 1133.2536  901.2684 1286.7452 1238.7361 1260.9202  875.1932 1019.8055   582.935 1282.0773  673.5628
  weight sum          1505       450       746       138       385       712       914      3233       299       138       218       387
  precision         1.0065    1.0065    1.0065    1.0065    1.0065    1.0065    1.0065    1.0065    1.0065    1.0065    1.0065    1.0065

2F4(Hz)
  mean           2808.6736 2548.7191 2766.3747 3029.4131 2588.6317 2567.4184 2568.2902  360.3981 2942.8455 3255.1145 2475.9112  3180.492
  std. dev.      1242.9542 1429.5533 1350.6568 1028.6692 1525.8539 1421.7151 1434.1325 1061.7969 1160.3327  630.9667 1409.4738   746.257
  weight sum          1505       450       746       138       385       712       914      3233       299       138       218       387
  precision         1.0301    1.0301    1.0301    1.0301    1.0301    1.0301    1.0301    1.0301    1.0301    1.0301    1.0301    1.0301

3Int(dB)
  mean              -5.641  -16.4002   -7.2226  -12.3449  -10.9862   -9.7163   -17.898  -50.1395   -12.305   -7.9351   -8.0296   -8.7825
  std. dev.        10.8727   13.9486    9.4909   10.3558    9.3463   12.1824   11.1541   14.5069   11.5328    6.9104    9.9998    8.1424
  weight sum          1505       450       746       138       385       712       914      3233       299       138       218       387
  precision         0.1008    0.1008    0.1008    0.1008    0.1008    0.1008    0.1008    0.1008    0.1008    0.1008    0.1008    0.1008

3Pitch(Hz)
  mean            211.1547  135.0979   183.146  161.6772  163.4233  177.1418  114.1164    12.238  174.4724  192.6531  221.0527  190.8829
  std. dev.       109.0219  110.0777   90.4096  107.4647   84.1925  106.6856  108.7689   48.3823  105.6613    88.609   98.5341    93.451
  weight sum          1505       450       746       138       385       712       914      3233       299       138       218       387
  precision         0.2034    0.2034    0.2034    0.2034    0.2034    0.2034    0.2034    0.2034    0.2034    0.2034    0.2034    0.2034

3RawPitch
  mean            200.9312  123.3527  176.8718  134.4189  153.6209  168.1349   97.1459   10.0589  163.2284  186.1671  210.2912   180.646
  std. dev.       113.0094   109.512   96.4397  106.6169   86.0466   111.735  108.0956   42.5778  110.9161   96.0987  103.8231   101.702
  weight sum          1505       450       746       138       385       712       914      3233       299       138       218       387
  precision         0.2088    0.2088    0.2088    0.2088    0.2088    0.2088    0.2088    0.2088    0.2088    0.2088    0.2088    0.2088

3SmPitch
  mean            209.2749  130.4583  181.1568   150.738  161.2553  174.8902  107.9675      10.7  171.9345  191.2271  219.9482  188.5966
  std. dev.       110.3154  111.6593   92.1927  103.6325   84.9278  108.2193  108.8075   43.9127  107.9136   90.5485    99.473   96.1418
  weight sum          1505       450       746       138       385       712       914      3233       299       138       218       387
  precision         0.2051    0.2051    0.2051    0.2051    0.2051    0.2051    0.2051    0.2051    0.2051    0.2051    0.2051    0.2051

3Melogram(st)
  mean             50.6224    36.376   49.1776   45.2162   45.9084   46.5218   31.3986    3.7068   45.7201   51.4088   50.6374   49.4702
  std. dev.        17.7748   25.8023   17.1261   20.2304   18.9795   20.6378   26.9257    13.744    21.266   13.7531    19.473   17.7115
  weight sum          1505       450       746       138       385       712       914      3233       299       138       218       387
  precision         0.0353    0.0353    0.0353    0.0353    0.0353    0.0353    0.0353    0.0353    0.0353    0.0353    0.0353    0.0353

3ZCross
  mean              6.4973    2.7095    4.6951    2.7115    3.0678    3.8039    2.8588    0.1472    2.4688    3.5415    3.4387    3.3512
  std. dev.         4.7305    2.8951    3.4013    2.5858     3.289    3.4966    4.5876    0.8717    2.5057    2.2242    3.0618    3.2088
  weight sum          1505       450       746       138       385       712       914      3233       299       138       218       387
  precision         1.2727    1.2727    1.2727    1.2727    1.2727    1.2727    1.2727    1.2727    1.2727    1.2727    1.2727    1.2727

3F1(Hz)
  mean            632.5964  383.0878  435.3843  487.8092  340.7633  450.1528  369.5509   45.7977  423.0991  494.4923  462.9492   505.073
  std. dev.       296.8673  271.1426  182.9634    232.81  174.3406  244.2194  290.4831  157.8643  227.7907  163.5032  332.7223  181.6483
  weight sum          1505       450       746       138       385       712       914      3233       299       138       218       387
  precision         0.5127    0.5127    0.5127    0.5127    0.5127    0.5127    0.5127    0.5127    0.5127    0.5127    0.5127    0.5127

3F2(Hz)
  mean           1400.8405 1254.1885 1633.7862 1414.8511 1740.6907 1123.9385 1116.0376  138.8639 1449.4723 1449.0269  1000.033 1598.0563
  std. dev.       532.4998  842.5197  662.2232  640.3559  805.0767  603.6465  831.8752  474.1163  686.1573  382.0215   546.594  503.8129
  weight sum          1505       450       746       138       385       712       914      3233       299       138       218       387
  precision         0.6985    0.6985    0.6985    0.6985    0.6985    0.6985    0.6985    0.6985    0.6985    0.6985    0.6985    0.6985

3F3(Hz)
  mean           2566.7052 2055.7862 2466.1143 2406.0546 2427.5868 2381.9061 1913.4664  236.9897 2437.2044 2791.3469  2460.271 2734.4611
  std. dev.       934.1062 1349.7339  983.2863 1054.0979 1119.2236 1133.1835 1397.5103  790.4255 1070.9844   620.118 1089.2339  763.2448
  weight sum          1505       450       746       138       385       712       914      3233       299       138       218       387
  precision         1.0065    1.0065    1.0065    1.0065    1.0065    1.0065    1.0065    1.0065    1.0065    1.0065    1.0065    1.0065

3F4(Hz)
  mean           2970.9678 2352.0886  2968.206 2858.1926 2906.6724 2739.0875 2212.7873  290.2613  2883.526 3255.5773  2778.374 3118.5716
  std. dev.      1072.0689 1533.4925 1156.9806 1217.3342 1305.1093 1292.2218 1602.7043  965.8901 1232.2639  686.1677 1167.5154  860.9192
  weight sum          1505       450       746       138       385       712       914      3233       299       138       218       387
  precision         1.0301    1.0301    1.0301    1.0301    1.0301    1.0301    1.0301    1.0301    1.0301    1.0301    1.0301    1.0301

4Int(dB)
  mean             -4.7838  -15.4416   -5.6493  -13.9655   -9.5022   -8.6644  -19.5414  -50.8619  -12.4527   -8.6538   -5.9413  -10.0404
  std. dev.          9.917   11.1773    8.2505    8.9902    8.6317   12.1183    9.6185   13.3712   10.4872    7.2422    8.0011    8.0706
  weight sum          1505       450       746       138       385       712       914      3233       299       138       218       387
  precision         0.1008    0.1008    0.1008    0.1008    0.1008    0.1008    0.1008    0.1008    0.1008    0.1008    0.1008    0.1008

4Pitch(Hz)
  mean            215.4717  142.0778  192.4898  152.2312  174.3019  180.2959  104.1051    8.6441  173.7208  190.1568  232.3523  184.1661
  std. dev.       105.3209  107.9314    85.636   105.769   75.0715  103.4062  108.2551   41.2323  104.0157   91.3345   82.3117   97.3536
  weight sum          1505       450       746       138       385       712       914      3233       299       138       218       387
  precision         0.2034    0.2034    0.2034    0.2034    0.2034    0.2034    0.2034    0.2034    0.2034    0.2034    0.2034    0.2034

4RawPitch
  mean            205.1279  123.5759  188.8553  123.0765  166.4766  174.0908   86.1062    6.9113  156.9007  185.4439  222.5693  172.6016
  std. dev.       110.0217  108.7094   89.4789  101.8456   78.7839  108.0935  104.5404   35.5147  112.4322   97.5665   89.8429  105.8742
  weight sum          1505       450       746       138       385       712       914      3233       299       138       218       387
  precision         0.2088    0.2088    0.2088    0.2088    0.2088    0.2088    0.2088    0.2088    0.2088    0.2088    0.2088    0.2088

4SmPitch
  mean            213.4208  133.1159  191.6241  141.6009  171.8543   178.962   97.7719    7.4208  169.8194  189.6336  232.3227  181.8342
  std. dev.       106.8674  111.4709   86.4181  100.3995   76.5988  104.3249  107.7057   36.4842  107.6346   92.3532   82.2366   99.7005
  weight sum          1505       450       746       138       385       712       914      3233       299       138       218       387
  precision         0.2051    0.2051    0.2051    0.2051    0.2051    0.2051    0.2051    0.2051    0.2051    0.2051    0.2051    0.2051

4Melogram(st)
  mean             52.0827   36.7952   51.3162   42.7509   49.4307   47.7311   28.1101    2.7489   45.7719   50.8347   54.9086   47.9275
  std. dev.        15.5643   25.8402   13.9659   21.9334   14.5646   19.2227    27.377   12.0084   21.2519   14.5044   12.8002   19.2949
  weight sum          1505       450       746       138       385       712       914      3233       299       138       218       387
  precision         0.0352    0.0352    0.0352    0.0352    0.0352    0.0352    0.0352    0.0352    0.0352    0.0352    0.0352    0.0352

4ZCross
  mean              6.7146    2.7972    4.8248    2.0843    3.1868    3.9665    2.6986    0.0854    2.2092    3.4862     3.573    2.9993
  std. dev.          4.535    3.0186    3.1533    2.0439    2.9527    3.0096    4.7727    0.6293     2.095    2.2377    2.8222    4.3035
  weight sum          1505       450       746       138       385       712       914      3233       299       138       218       387
  precision         1.2727    1.2727    1.2727    1.2727    1.2727    1.2727    1.2727    1.2727    1.2727    1.2727    1.2727    1.2727

4F1(Hz)
  mean            680.6071  362.7342  468.1216  433.0067  362.9833  487.9887  305.0821   33.6626  402.1692  495.2687  498.1345  456.4619
  std. dev.       260.5161  271.2321  135.4424  254.6457  139.6622  219.6408  293.2229  135.0393  226.7452  176.0915  299.1257  189.4997
  weight sum          1505       450       746       138       385       712       914      3233       299       138       218       387
  precision         0.5127    0.5127    0.5127    0.5127    0.5127    0.5127    0.5127    0.5127    0.5127    0.5127    0.5127    0.5127

4F2(Hz)
  mean           1463.4676 1203.8626 1802.3085 1302.5905 1971.4305 1165.7924  937.3286  104.6838 1402.7174 1423.4659 1080.7158 1529.0513
  std. dev.       432.0523  847.9838  487.8366  701.6256  644.7659  525.3227  863.0234  416.0122  694.7863   407.382  431.8771  567.7466
  weight sum          1505       450       746       138       385       712       914      3233       299       138       218       387
  precision         0.6985    0.6985    0.6985    0.6985    0.6985    0.6985    0.6985    0.6985    0.6985    0.6985    0.6985    0.6985

4F3(Hz)
  mean           2691.8093 2000.3705 2662.4498 2220.2677 2672.9489 2534.4259 1601.4051  178.5819 2362.4099 2756.8647 2714.6841 2627.1885
  std. dev.       762.9907 1383.7036   729.876 1179.8092  890.7818  989.9708 1456.9288  694.2706 1105.7815   698.638  768.9985  897.2101
  weight sum          1505       450       746       138       385       712       914      3233       299       138       218       387
  precision         1.0065    1.0065    1.0065    1.0065    1.0065    1.0065    1.0065    1.0065    1.0065    1.0065    1.0065    1.0065

4F4(Hz)
  mean            3114.979 2277.7553 3199.5596 2671.4019 3176.0491 2913.9175 1852.0608  220.0468 2816.8308 3224.9891  3074.217 3010.2722
  std. dev.       871.0219 1563.2483  841.1377 1380.3083 1017.7226 1121.3472 1674.0085  853.3303 1281.9538  787.9869  772.1011   1028.98
  weight sum          1505       450       746       138       385       712       914      3233       299       138       218       387
  precision         1.0301    1.0301    1.0301    1.0301    1.0301    1.0301    1.0301    1.0301    1.0301    1.0301    1.0301    1.0301





=== Stratified cross-validation ===

Correctly Classified Instances        3990               43.726  %
Incorrectly Classified Instances      5135               56.274  %
Kappa statistic                          0.3274
K&B Relative Info Score             272016.0357 %
K&B Information Score                 8022.9526 bits      0.8792 bits/instance
Class complexity | order 0           26896.5513 bits      2.9476 bits/instance
Class complexity | scheme           204066.6649 bits     22.3635 bits/instance
Complexity improvement     (Sf)    -177170.1137 bits    -19.4159 bits/instance
Mean absolute error                      0.0937
Root mean squared error                  0.2854
Relative absolute error                 68.8842 %
Root relative squared error            109.4221 %
Coverage of cases (0.95 level)          49.6767 %
Mean rel. region size (0.95 level)      12.663  %
Total Number of Instances             9125     


=== Detailed Accuracy By Class ===

                 TP Rate  FP Rate  Precision  Recall   F-Measure  MCC      ROC Area  PRC Area  Class
                 0,258    0,036    0,584      0,258    0,358      0,317    0,824     0,495     A
                 0,018    0,006    0,133      0,018    0,031      0,032    0,679     0,081     LGJKC
                 0,052    0,013    0,264      0,052    0,087      0,085    0,795     0,210     E
                 0,022    0,014    0,023      0,022    0,022      0,008    0,749     0,034     FV
                 0,242    0,040    0,212      0,242    0,226      0,190    0,822     0,212     I
                 0,028    0,012    0,160      0,028    0,048      0,036    0,723     0,153     O
                 0,318    0,066    0,351      0,318    0,334      0,264    0,763     0,296     SNRTY
                 0,892    0,060    0,892      0,892    0,892      0,833    0,948     0,893     0
                 0,000    0,001    0,000      0,000    0,000      -0,006   0,722     0,061     BMP
                 0,536    0,156    0,050      0,536    0,092      0,126    0,811     0,050     DZ
                 0,124    0,012    0,200      0,124    0,153      0,141    0,839     0,116     U
                 0,416    0,196    0,086      0,416    0,142      0,110    0,750     0,091     SNRTXY
Weighted Avg.    0,437    0,049    0,506      0,437    0,442      0,403    0,837     0,480     


=== Confusion Matrix ===

    a    b    c    d    e    f    g    h    i    j    k    l   <-- classified as
  389   21   43   19   76   56   64   49    0  279   48  461 |    a = A
   24    8    7   16   18    2   77   56    0   81    2  159 |    b = LGJKC
   40    8   39    6   88   23   39   19    2  206   11  265 |    c = E
    7    0    1    3    3    2   20    6    0   42    0   54 |    d = FV
   14    6   19    3   93    4   37   11    2   74    1  121 |    e = I
   63    7   16   12   64   20   43   65    0  260   29  133 |    f = O
   36    5    9   29   18    5  291  119    1  149    5  247 |    g = SNRTY
    7    1    3   21   11    1  155 2885    1   38    1  109 |    h = 0
   22    0    3    8   25    2   40   15    0   76    6  102 |    i = BMP
    8    0    6    1    3    1    9    2    0   74    2   32 |    j = DZ
   27    4    0    2   30    7   14    5    3   68   27   31 |    k = U
   29    0    2   10   10    2   40    4    0  126    3  161 |    l = SNRTXY

=== Percent Confusion Matrix ===
a	b	c	d	e	f	g	h	i	j	k	l	
25.85	1.4	2.86	1.26	5.05	3.72	4.25	3.26	0.0	18.54	3.19	30.63	 a = A
5.33	1.78	1.56	3.56	4.0	0.44	17.11	12.44	0.0	18.0	0.44	35.33	 b = LGJKC
5.36	1.07	5.23	0.8	11.8	3.08	5.23	2.55	0.27	27.61	1.47	35.52	 c = E
5.07	0.0	0.72	2.17	2.17	1.45	14.49	4.35	0.0	30.43	0.0	39.13	 d = FV
3.64	1.56	4.94	0.78	24.16	1.04	9.61	2.86	0.52	19.22	0.26	31.43	 e = I
8.85	0.98	2.25	1.69	8.99	2.81	6.04	9.13	0.0	36.52	4.07	18.68	 f = O
3.94	0.55	0.98	3.17	1.97	0.55	31.84	13.02	0.11	16.3	0.55	27.02	 g = SNRTY
0.22	0.03	0.09	0.65	0.34	0.03	4.79	89.24	0.03	1.18	0.03	3.37	 h = 0
7.36	0.0	1.0	2.68	8.36	0.67	13.38	5.02	0.0	25.42	2.01	34.11	 i = BMP
5.8	0.0	4.35	0.72	2.17	0.72	6.52	1.45	0.0	53.62	1.45	23.19	 j = DZ
12.39	1.83	0.0	0.92	13.76	3.21	6.42	2.29	1.38	31.19	12.39	14.22	 k = U
7.49	0.0	0.52	2.58	2.58	0.52	10.34	1.03	0.0	32.56	0.78	41.6	 l = SNRTXY
