Timestamp:2014-12-07-10:59:24
Inventario:I2
Intervalo:3ms
Ngramas:5
Clasificador:NaiveBayes
Relation Name:  I2-3ms-5gramas
Num Instances:  61131
Num Attributes: 51

     Name                      Type  Nom  Int Real     Missing      Unique  Dist
   1 0Int(dB)                   Num   0%  10%  90%     0 /  0%     2 /  0%   776 
   2 0Pitch(Hz)                 Num   0%  52%  48%     0 /  0%   559 /  1%  3828 
   3 0RawPitch                  Num   0%  55%  45%     0 /  0%   613 /  1%  3808 
   4 0SmPitch                   Num   0%  53%  47%     0 /  0%   575 /  1%  3802 
   5 0Melogram(st)              Num   0%  49%  51%     0 /  0%   269 /  0%  3285 
   6 0ZCross                    Num   0% 100%   0%     0 /  0%     3 /  0%    50 
   7 0F1(Hz)                    Num   0%  52%  48%     0 /  0%  1075 /  2%  4783 
   8 0F2(Hz)                    Num   0%  52%  48%     0 /  0%  2270 /  4%  6724 
   9 0F3(Hz)                    Num   0%  52%  48%     0 /  0%  1945 /  3%  6241 
  10 0F4(Hz)                    Num   0%  52%  48%     0 /  0%  1922 /  3%  6122 
  11 1Int(dB)                   Num   0%  10%  90%     0 /  0%     2 /  0%   776 
  12 1Pitch(Hz)                 Num   0%  52%  48%     0 /  0%   559 /  1%  3828 
  13 1RawPitch                  Num   0%  55%  45%     0 /  0%   613 /  1%  3808 
  14 1SmPitch                   Num   0%  53%  47%     0 /  0%   575 /  1%  3802 
  15 1Melogram(st)              Num   0%  49%  51%     0 /  0%   269 /  0%  3285 
  16 1ZCross                    Num   0% 100%   0%     0 /  0%     3 /  0%    50 
  17 1F1(Hz)                    Num   0%  52%  48%     0 /  0%  1075 /  2%  4783 
  18 1F2(Hz)                    Num   0%  52%  48%     0 /  0%  2270 /  4%  6724 
  19 1F3(Hz)                    Num   0%  52%  48%     0 /  0%  1945 /  3%  6241 
  20 1F4(Hz)                    Num   0%  52%  48%     0 /  0%  1922 /  3%  6122 
  21 2Int(dB)                   Num   0%  10%  90%     0 /  0%     2 /  0%   776 
  22 2Pitch(Hz)                 Num   0%  52%  48%     0 /  0%   559 /  1%  3828 
  23 2RawPitch                  Num   0%  55%  45%     0 /  0%   613 /  1%  3808 
  24 2SmPitch                   Num   0%  53%  47%     0 /  0%   575 /  1%  3802 
  25 2Melogram(st)              Num   0%  49%  51%     0 /  0%   269 /  0%  3285 
  26 2ZCross                    Num   0% 100%   0%     0 /  0%     3 /  0%    50 
  27 2F1(Hz)                    Num   0%  52%  48%     0 /  0%  1075 /  2%  4783 
  28 2F2(Hz)                    Num   0%  52%  48%     0 /  0%  2270 /  4%  6724 
  29 2F3(Hz)                    Num   0%  52%  48%     0 /  0%  1945 /  3%  6241 
  30 2F4(Hz)                    Num   0%  52%  48%     0 /  0%  1922 /  3%  6122 
  31 3Int(dB)                   Num   0%  10%  90%     0 /  0%     2 /  0%   776 
  32 3Pitch(Hz)                 Num   0%  52%  48%     0 /  0%   559 /  1%  3828 
  33 3RawPitch                  Num   0%  55%  45%     0 /  0%   613 /  1%  3808 
  34 3SmPitch                   Num   0%  53%  47%     0 /  0%   575 /  1%  3802 
  35 3Melogram(st)              Num   0%  49%  51%     0 /  0%   269 /  0%  3285 
  36 3ZCross                    Num   0% 100%   0%     0 /  0%     3 /  0%    50 
  37 3F1(Hz)                    Num   0%  52%  48%     0 /  0%  1075 /  2%  4783 
  38 3F2(Hz)                    Num   0%  52%  48%     0 /  0%  2270 /  4%  6724 
  39 3F3(Hz)                    Num   0%  52%  48%     0 /  0%  1945 /  3%  6241 
  40 3F4(Hz)                    Num   0%  52%  48%     0 /  0%  1922 /  3%  6122 
  41 4Int(dB)                   Num   0%  10%  90%     0 /  0%     3 /  0%   777 
  42 4Pitch(Hz)                 Num   0%  52%  48%     0 /  0%   559 /  1%  3828 
  43 4RawPitch                  Num   0%  55%  45%     0 /  0%   613 /  1%  3808 
  44 4SmPitch                   Num   0%  53%  47%     0 /  0%   575 /  1%  3802 
  45 4Melogram(st)              Num   0%  49%  51%     0 /  0%   269 /  0%  3285 
  46 4ZCross                    Num   0% 100%   0%     0 /  0%     3 /  0%    50 
  47 4F1(Hz)                    Num   0%  52%  48%     0 /  0%  1075 /  2%  4783 
  48 4F2(Hz)                    Num   0%  52%  48%     0 /  0%  2270 /  4%  6724 
  49 4F3(Hz)                    Num   0%  52%  48%     0 /  0%  1945 /  3%  6241 
  50 4F4(Hz)                    Num   0%  52%  48%     0 /  0%  1922 /  3%  6122 
  51 class                      Nom 100%   0%   0%     0 /  0%     0 /  0%    12 


Naive Bayes Classifier

                    Class
Attribute               A     LGJKC         E        FV         I         O     SNRTY         0       BMP        DZ         U    SNRTXY
                   (0.16)    (0.05)    (0.08)    (0.01)    (0.04)    (0.07)     (0.1)    (0.39)    (0.03)    (0.01)    (0.02)    (0.04)
========================================================================================================================================
0Int(dB)
  mean             -4.4631  -16.4034   -5.7241  -14.6126   -9.4261   -8.4226  -19.6502    -48.04  -13.1152   -8.3407   -6.2108   -9.9465
  std. dev.         9.9613    12.412    8.6737    9.2915    8.7661   12.1005   10.0008    16.606   11.3516    6.6698    9.0317    8.3581
  weight sum          9585      2963      4621       864      2382      4463      5808     23722      1948       904      1386      2485
  precision         0.1044    0.1044    0.1044    0.1044    0.1044    0.1044    0.1044    0.1044    0.1044    0.1044    0.1044    0.1044

0Pitch(Hz)
  mean            214.0682  124.3423  185.9586  137.4946  168.4152  178.4602   86.8411   17.8444  158.8832   197.432  224.0701  179.3786
  std. dev.       109.2702  111.7181   90.1831  108.1126   80.7025  106.9431  106.2484   58.0865  112.4924   88.2021   92.7797   101.169
  weight sum          9585      2963      4621       864      2382      4463      5808     23722      1948       904      1386      2485
  precision         0.1303    0.1303    0.1303    0.1303    0.1303    0.1303    0.1303    0.1303    0.1303    0.1303    0.1303    0.1303

0RawPitch
  mean            203.5855  105.3158  181.3123  111.9267   159.707  171.3618   68.4512   14.7579  146.1472  191.6227  215.2186  166.3507
  std. dev.       115.1157  109.2608    96.693  105.4368   86.3426  113.5595  101.3158   52.6837  116.9224   97.2825   99.6003  110.3324
  weight sum          9585      2963      4621       864      2382      4463      5808     23722      1948       904      1386      2485
  precision          0.131     0.131     0.131     0.131     0.131     0.131     0.131     0.131     0.131     0.131     0.131     0.131

0SmPitch
  mean            211.8753  116.2174  183.6469  127.3698  165.7532  176.0047   79.8182   16.2046  155.5195  196.4308  223.7517  177.3263
  std. dev.        111.039  112.3045   92.0569  105.9307   82.6657  109.2519  104.4098    54.355   114.372   89.9928   92.6385  102.7679
  weight sum          9585      2963      4621       864      2382      4463      5808     23722      1948       904      1386      2485
  precision         0.1312    0.1312    0.1312    0.1312    0.1312    0.1312    0.1312    0.1312    0.1312    0.1312    0.1312    0.1312

0Melogram(st)
  mean             50.8757   31.7189   49.4669   38.0803   47.1058   46.3882   23.7037    5.1991   41.4956   51.5903   52.2659   46.7883
  std. dev.        17.6121   26.9549   16.7812     24.59   17.9805   20.7426   27.0619   15.9975   24.3973   14.1577   17.2831   20.4033
  weight sum          9585      2963      4621       864      2382      4463      5808     23722      1948       904      1386      2485
  precision         0.0252    0.0252    0.0252    0.0252    0.0252    0.0252    0.0252    0.0252    0.0252    0.0252    0.0252    0.0252

0ZCross
  mean              6.9462    2.8416    4.9169    2.0505    3.5381    4.0022    2.7936    0.2872    2.3289     3.558     3.713    3.3082
  std. dev.         4.6226    3.5765    3.3248    2.1188    3.3145     3.118    5.2056    1.2752    2.1747    2.1597    2.8833    4.7499
  weight sum          9585      2963      4621       864      2382      4463      5808     23722      1948       904      1386      2485
  precision         1.1633    1.1633    1.1633    1.1633    1.1633    1.1633    1.1633    1.1633    1.1633    1.1633    1.1633    1.1633

0F1(Hz)
  mean            659.2239  331.7379  448.4125  411.1787  346.5478  467.7058  279.4564   58.0026  378.8006  501.9113  478.6311  455.0569
  std. dev.       287.4054   276.915   166.292  274.3057  164.1875  236.8053  296.5437  173.4388  239.9247  169.2907    325.23  202.7212
  weight sum          9585      2963      4621       864      2382      4463      5808     23722      1948       904      1386      2485
  precision         0.3642    0.3642    0.3642    0.3642    0.3642    0.3642    0.3642    0.3642    0.3642    0.3642    0.3642    0.3642

0F2(Hz)
  mean           1416.0808 1118.3612  1711.214  1217.474 1845.7313 1125.8145  847.0561  180.0747 1326.7322 1449.8901 1005.5905  1493.931
  std. dev.       499.3086  883.4635  608.9906  757.4226   773.683  570.3838   864.176  532.2925  756.1536  381.5427   487.338    601.58
  weight sum          9585      2963      4621       864      2382      4463      5808     23722      1948       904      1386      2485
  precision         0.4431    0.4431    0.4431    0.4431    0.4431    0.4431    0.4431    0.4431    0.4431    0.4431    0.4431    0.4431

0F3(Hz)
  mean           2601.1736 1842.7613 2531.3885  2080.908 2511.4671 2433.4936 1456.0545  307.8348 2230.2399 2802.8452 2536.8144 2572.0069
  std. dev.       886.6702 1433.7407   899.016 1279.4794 1065.3826 1084.1339 1470.0243  893.0846 1210.9903   635.283  969.7241  962.1015
  weight sum          9585      2963      4621       864      2382      4463      5808     23722      1948       904      1386      2485
  precision         0.6602    0.6602    0.6602    0.6602    0.6602    0.6602    0.6602    0.6602    0.6602    0.6602    0.6602    0.6602

0F4(Hz)
  mean           3020.7731 2099.1302 3059.3156 2472.1615 2996.5825 2805.3088 1667.4701  369.3315 2653.8723  3254.251 2908.3713 2945.7312
  std. dev.      1016.6813 1621.3212 1056.7202 1487.4598  1233.239 1235.5521 1670.6867 1069.3144 1411.1213  711.3877 1040.3379   1099.92
  weight sum          9585      2963      4621       864      2382      4463      5808     23722      1948       904      1386      2485
  precision         0.6775    0.6775    0.6775    0.6775    0.6775    0.6775    0.6775    0.6775    0.6775    0.6775    0.6775    0.6775

1Int(dB)
  mean             -4.3451  -16.1676   -5.4866   -14.804   -9.1799   -8.2804   -19.799  -48.1807  -13.0129   -8.3969   -5.8577  -10.1218
  std. dev.         9.7988    12.013    8.4392    9.1123    8.6146   12.0927    9.7527   16.4087   11.1545    6.7078    8.6173     8.338
  weight sum          9585      2963      4621       864      2382      4463      5808     23722      1948       904      1386      2485
  precision         0.1044    0.1044    0.1044    0.1044    0.1044    0.1044    0.1044    0.1044    0.1044    0.1044    0.1044    0.1044

1Pitch(Hz)
  mean            214.8348  125.6301  187.5772  135.8817  170.3677  179.1099   84.6771   17.3506  158.7755  197.2212  226.2021  178.1417
  std. dev.       108.6313  111.6748   89.3537  107.8471   79.1235  106.1835  105.7225   57.3369  112.1053   88.5836   89.9667  101.7491
  weight sum          9585      2963      4621       864      2382      4463      5808     23722      1948       904      1386      2485
  precision         0.1303    0.1303    0.1303    0.1303    0.1303    0.1303    0.1303    0.1303    0.1303    0.1303    0.1303    0.1303

1RawPitch
  mean            204.4046  105.5129  183.2465  109.9703  162.0978  172.4006   65.9859   14.2573  146.1731  191.5814  217.6541  165.0598
  std. dev.       114.5571  109.2842   95.6687  104.6772   85.0721  112.8726  100.0364   51.6702  116.9415   97.8039   96.8389  111.0003
  weight sum          9585      2963      4621       864      2382      4463      5808     23722      1948       904      1386      2485
  precision          0.131     0.131     0.131     0.131     0.131     0.131     0.131     0.131     0.131     0.131     0.131     0.131

1SmPitch
  mean            212.6964  116.9073  185.6219  125.7035  167.7906  176.7887   77.7601   15.6887  154.8711  196.3462  225.9095   175.953
  std. dev.       110.3732   112.296    90.965  105.4709   81.2541  108.4257  103.8026   53.4945  114.2773   90.1545   89.8265  103.3981
  weight sum          9585      2963      4621       864      2382      4463      5808     23722      1948       904      1386      2485
  precision         0.1312    0.1312    0.1312    0.1312    0.1312    0.1312    0.1312    0.1312    0.1312    0.1312    0.1312    0.1312

1Melogram(st)
  mean             51.1094   31.9329   49.8961   37.8284   47.7099   46.6075   22.9767    5.0779   41.3347   51.6148   52.9335   46.5494
  std. dev.        17.2871   26.9503   16.2028   24.6828   17.2872   20.5184    26.967   15.8345   24.4629   14.0688   16.2835   20.6017
  weight sum          9585      2963      4621       864      2382      4463      5808     23722      1948       904      1386      2485
  precision         0.0252    0.0252    0.0252    0.0252    0.0252    0.0252    0.0252    0.0252    0.0252    0.0252    0.0252    0.0252

1ZCross
  mean              6.9827    2.8954    4.9388    2.0007    3.5626    4.0249    2.7814    0.2622    2.3235    3.5606     3.755    3.2623
  std. dev.         4.6044    3.6664    3.2469    2.0822    3.2866    3.0126    5.2567    1.1593     2.129    2.1658    2.8542    4.8716
  weight sum          9585      2963      4621       864      2382      4463      5808     23722      1948       904      1386      2485
  precision         1.1633    1.1633    1.1633    1.1633    1.1633    1.1633    1.1633    1.1633    1.1633    1.1633    1.1633    1.1633

1F1(Hz)
  mean            666.7136  329.5146  453.7041  403.0001  351.6224  473.8855  269.0048   56.1656  374.9867  502.2114  484.7897   447.269
  std. dev.       281.5906  276.2679  159.4091  276.2591  157.9743  232.8436  294.8736  170.5763  239.5169  170.2917  320.1911  202.9624
  weight sum          9585      2963      4621       864      2382      4463      5808     23722      1948       904      1386      2485
  precision         0.3642    0.3642    0.3642    0.3642    0.3642    0.3642    0.3642    0.3642    0.3642    0.3642    0.3642    0.3642

1F2(Hz)
  mean           1426.5335  1112.609 1736.7393 1201.2387 1888.1428 1133.1742  817.3286  174.9481 1317.4527 1447.3023 1019.5348 1483.6367
  std. dev.       483.8135  882.3471  582.7337  764.2508  742.2294  558.0272   862.397   525.318  757.5471  385.9422  469.8361  609.3413
  weight sum          9585      2963      4621       864      2382      4463      5808     23722      1948       904      1386      2485
  precision         0.4431    0.4431    0.4431    0.4431    0.4431    0.4431    0.4431    0.4431    0.4431    0.4431    0.4431    0.4431

1F3(Hz)
  mean            2621.437   1838.18 2562.5981 2053.3107 2559.2594  2458.752 1404.0837  299.0333 2214.3535 2798.6217 2579.3441 2555.4511
  std. dev.       860.1173  1436.476   862.118 1292.4335 1021.4692 1061.5374 1467.5196  881.6893 1214.8583  648.4218  919.5861  978.0421
  weight sum          9585      2963      4621       864      2382      4463      5808     23722      1948       904      1386      2485
  precision         0.6602    0.6602    0.6602    0.6602    0.6602    0.6602    0.6602    0.6602    0.6602    0.6602    0.6602    0.6602

1F4(Hz)
  mean           3043.6864 2093.1399 3093.8052  2442.436 3050.9117 2833.3702 1608.8637  358.9847 2641.6647  3248.514 2956.7717 2928.6273
  std. dev.       985.2717 1623.5868 1009.5134 1504.0848 1178.4462 1207.9571 1669.2695 1056.2377 1419.2169  727.6066   976.944 1120.1992
  weight sum          9585      2963      4621       864      2382      4463      5808     23722      1948       904      1386      2485
  precision         0.6775    0.6775    0.6775    0.6775    0.6775    0.6775    0.6775    0.6775    0.6775    0.6775    0.6775    0.6775

2Int(dB)
  mean              -4.275   -15.887   -5.3093   -14.929   -8.9731    -8.186  -19.8698  -48.3098  -12.8391   -8.4011   -5.5524  -10.2946
  std. dev.         9.6881   11.6131    8.2373    8.9669    8.4929   12.1008    9.5615   16.2247   10.9656    6.7519    8.2298    8.3341
  weight sum          9585      2963      4621       864      2382      4463      5808     23722      1948       904      1386      2485
  precision         0.1044    0.1044    0.1044    0.1044    0.1044    0.1044    0.1044    0.1044    0.1044    0.1044    0.1044    0.1044

2Pitch(Hz)
  mean            215.2871  127.5882  188.9058  134.5242  172.0827  179.2936    83.369   16.8275  158.9902  197.0294  228.1408  176.9616
  std. dev.       108.2446  111.6322   88.6428  107.5224   77.7161  105.6064  105.4793   56.5405  111.5792   88.9348   87.2319  102.2993
  weight sum          9585      2963      4621       864      2382      4463      5808     23722      1948       904      1386      2485
  precision         0.1303    0.1303    0.1303    0.1303    0.1303    0.1303    0.1303    0.1303    0.1303    0.1303    0.1303    0.1303

2RawPitch
  mean            204.9344  106.2697  184.5166  108.9501   164.127  173.0126   64.5478   13.8002  146.3863  191.0868  219.2103  163.9323
  std. dev.       114.2089  109.1897   95.0659  104.2181    83.993  112.4306   99.2735   50.8241  116.5641   97.7905   94.8961  111.6012
  weight sum          9585      2963      4621       864      2382      4463      5808     23722      1948       904      1386      2485
  precision          0.131     0.131     0.131     0.131     0.131     0.131     0.131     0.131     0.131     0.131     0.131     0.131

2SmPitch
  mean              213.21  118.3103  187.1933  124.4425  169.4288  177.1572   76.3606   15.1843  154.8208   196.273  227.7542  174.7065
  std. dev.       109.9155  112.4263   90.0322  105.0137   80.1407  107.7873  103.4265    52.656  113.9964   90.2956   87.2767  103.9351
  weight sum          9585      2963      4621       864      2382      4463      5808     23722      1948       904      1386      2485
  precision         0.1312    0.1312    0.1312    0.1312    0.1312    0.1312    0.1312    0.1312    0.1312    0.1312    0.1312    0.1312

2Melogram(st)
  mean             51.2709    32.263   50.2427   37.5734   48.1463   46.6963   22.5117    4.9554   41.2774    51.643   53.5545   46.3436
  std. dev.        17.0469   26.9289   15.7114   24.7697    16.741    20.402   26.9116   15.6692   24.4581   13.9783    15.256    20.778
  weight sum          9585      2963      4621       864      2382      4463      5808     23722      1948       904      1386      2485
  precision         0.0252    0.0252    0.0252    0.0252    0.0252    0.0252    0.0252    0.0252    0.0252    0.0252    0.0252    0.0252

2ZCross
  mean              7.0076    2.9366    4.9486    1.9576    3.5738    4.0411    2.7806    0.2433    2.3403     3.585    3.7945    3.2122
  std. dev.         4.5938    3.6993    3.2071    2.0438    3.2163    2.9298    5.2988    1.0804    2.1047    2.1652    2.8295    4.9553
  weight sum          9585      2963      4621       864      2382      4463      5808     23722      1948       904      1386      2485
  precision         1.1633    1.1633    1.1633    1.1633    1.1633    1.1633    1.1633    1.1633    1.1633    1.1633    1.1633    1.1633

2F1(Hz)
  mean            673.1337   328.383  458.5411  395.5357  356.2706  479.3315  259.4825   54.3918  373.5242   502.481  491.2079  439.8766
  std. dev.       276.5723  275.5521  152.8966  277.2043   151.878  229.0643  293.0204  167.8415  238.3426  171.3175  314.7115  202.9909
  weight sum          9585      2963      4621       864      2382      4463      5808     23722      1948       904      1386      2485
  precision         0.3642    0.3642    0.3642    0.3642    0.3642    0.3642    0.3642    0.3642    0.3642    0.3642    0.3642    0.3642

2F2(Hz)
  mean           1434.8492 1109.2274 1759.9732 1189.2807 1927.6297  1139.398  790.4926  169.8362 1314.2158 1445.3781 1035.0423 1473.6272
  std. dev.       470.4865  880.1885  557.1365  769.1361  710.1468  546.4539  860.0926  518.3893  754.2105  390.7301  450.7523  615.8654
  weight sum          9585      2963      4621       864      2382      4463      5808     23722      1948       904      1386      2485
  precision         0.4431    0.4431    0.4431    0.4431    0.4431    0.4431    0.4431    0.4431    0.4431    0.4431    0.4431    0.4431

2F3(Hz)
  mean           2637.8989 1837.9042 2590.6505 2031.3736 2603.7866 2481.3348 1356.8455  290.0758 2210.1004 2794.8203 2624.5033 2539.9511
  std. dev.       837.7663  1437.513   826.473 1301.0849   977.692 1040.3144 1463.7823  869.7877 1211.2692  661.6762  861.9955  992.1243
  weight sum          9585      2963      4621       864      2382      4463      5808     23722      1948       904      1386      2485
  precision         0.6602    0.6602    0.6602    0.6602    0.6602    0.6602    0.6602    0.6602    0.6602    0.6602    0.6602    0.6602

2F4(Hz)
  mean           3061.8157 2093.1233 3124.7953 2420.8547 3100.6951 2858.4583 1555.6222  348.5398 2643.1324 3242.3872 3006.9754 2913.0409
  std. dev.       958.7356 1624.6397  964.1286 1516.4414 1123.6536 1181.9837 1666.4814 1042.8301 1417.9475  743.4558  902.9144 1138.4704
  weight sum          9585      2963      4621       864      2382      4463      5808     23722      1948       904      1386      2485
  precision         0.6775    0.6775    0.6775    0.6775    0.6775    0.6775    0.6775    0.6775    0.6775    0.6775    0.6775    0.6775

3Int(dB)
  mean             -4.2584  -15.5397   -5.2147  -14.9846    -8.825   -8.1561  -19.8428  -48.4237  -12.5947   -8.3385   -5.2953  -10.4676
  std. dev.         9.6363   11.2376    8.1108    8.8593    8.4293   12.1343    9.4526   16.0588   10.7736    6.7894    7.8625    8.3532
  weight sum          9585      2963      4621       864      2382      4463      5808     23722      1948       904      1386      2485
  precision         0.1044    0.1044    0.1044    0.1044    0.1044    0.1044    0.1044    0.1044    0.1044    0.1044    0.1044    0.1044

3Pitch(Hz)
  mean             215.424   130.399  190.0809  133.2458  173.0172    179.07   82.9702   16.2557  159.7556  196.8632   229.415   175.987
  std. dev.       108.1379  111.5347   87.8538  107.2688   76.7882  105.2101  105.5866   55.6504  110.8403    89.247   85.2349  102.7965
  weight sum          9585      2963      4621       864      2382      4463      5808     23722      1948       904      1386      2485
  precision         0.1303    0.1303    0.1303    0.1303    0.1303    0.1303    0.1303    0.1303    0.1303    0.1303    0.1303    0.1303

3RawPitch
  mean             205.191  107.8889  185.5537  108.1776  165.5748  172.9408   63.8907    13.331  147.2848  190.9996  220.5485  162.6881
  std. dev.       114.0304  109.3109   94.6689  103.4633   83.1744  112.1655   98.9024   50.0238  115.9925   97.8483   93.0837  112.0712
  weight sum          9585      2963      4621       864      2382      4463      5808     23722      1948       904      1386      2485
  precision          0.131     0.131     0.131     0.131     0.131     0.131     0.131     0.131     0.131     0.131     0.131     0.131

3SmPitch
  mean            213.3805  120.5567  188.4788  123.2631  170.4827   176.912   76.0432   14.6616   155.285  196.2119  229.0404  173.4928
  std. dev.        109.759  112.6343   89.1689  104.6396   79.2893  107.4207  103.4965   51.7924  113.4942   90.4104   85.2781  104.4798
  weight sum          9585      2963      4621       864      2382      4463      5808     23722      1948       904      1386      2485
  precision         0.1312    0.1312    0.1312    0.1312    0.1312    0.1312    0.1312    0.1312    0.1312    0.1312    0.1312    0.1312

3Melogram(st)
  mean             51.3557   32.7734   50.4808   37.3343    48.407    46.671   22.3413    4.8142   41.4703   51.6291   54.1306   46.1228
  std. dev.        16.9062    26.884   15.3557   24.8638   16.3656   20.3864   26.9099   15.4731   24.3086    13.988   14.2012   20.9736
  weight sum          9585      2963      4621       864      2382      4463      5808     23722      1948       904      1386      2485
  precision         0.0252    0.0252    0.0252    0.0252    0.0252    0.0252    0.0252    0.0252    0.0252    0.0252    0.0252    0.0252

3ZCross
  mean              7.0158    2.9833    4.9388    1.9347    3.5777    4.0484    2.7936    0.2298    2.3719    3.6365    3.8272    3.1715
  std. dev.         4.5915    3.6963    3.1975    2.0238    3.1538    2.8985    5.3156    1.0465    2.0915    2.1699    2.8121    4.9948
  weight sum          9585      2963      4621       864      2382      4463      5808     23722      1948       904      1386      2485
  precision         1.1633    1.1633    1.1633    1.1633    1.1633    1.1633    1.1633    1.1633    1.1633    1.1633    1.1633    1.1633

3F1(Hz)
  mean            678.6538  328.6829  462.8688  388.2589  360.2165   483.672  251.5229   52.7265  372.4682   503.296  496.5514  433.1838
  std. dev.       272.3175  274.7054  146.9719  277.0199    146.32  226.1449  291.0893  165.2548  237.0685  171.4896  309.2602  202.6263
  weight sum          9585      2963      4621       864      2382      4463      5808     23722      1948       904      1386      2485
  precision         0.3642    0.3642    0.3642    0.3642    0.3642    0.3642    0.3642    0.3642    0.3642    0.3642    0.3642    0.3642

3F2(Hz)
  mean           1441.2512  1109.357 1781.0424 1180.6948 1961.8033 1142.8991  768.0459  165.0589  1312.066 1445.0356 1050.0402 1465.0518
  std. dev.       459.1186  876.8105  532.5896  774.0059  680.1225  536.7971  857.2741  511.9666  750.4882  392.4853  432.2873  620.7476
  weight sum          9585      2963      4621       864      2382      4463      5808     23722      1948       904      1386      2485
  precision         0.4431    0.4431    0.4431    0.4431    0.4431    0.4431    0.4431    0.4431    0.4431    0.4431    0.4431    0.4431

3F3(Hz)
  mean           2651.2499 1843.7629 2615.4812 2012.5832 2642.4014 2498.5172 1317.6148  281.5968  2207.248 2794.3463 2665.1247 2526.3388
  std. dev.       819.3519 1436.1893  792.6591  1307.812   937.499 1024.1918 1459.4189  858.2952 1206.6787  668.5359  803.6971 1003.1436
  weight sum          9585      2963      4621       864      2382      4463      5808     23722      1948       904      1386      2485
  precision         0.6602    0.6602    0.6602    0.6602    0.6602    0.6602    0.6602    0.6602    0.6602    0.6602    0.6602    0.6602

3F4(Hz)
  mean           3075.9587 2101.5572 3152.5297 2403.3745 3143.1187 2876.7808 1511.5822  338.6077 2646.3634 3240.3794 3052.6473 2899.8327
  std. dev.       936.7556 1624.1062  921.2174 1526.7311 1073.3319 1161.8705 1663.0468 1029.7278 1415.4829  751.3128  827.1813 1153.1956
  weight sum          9585      2963      4621       864      2382      4463      5808     23722      1948       904      1386      2485
  precision         0.6775    0.6775    0.6775    0.6775    0.6775    0.6775    0.6775    0.6775    0.6775    0.6775    0.6775    0.6775

4Int(dB)
  mean             -4.2995  -15.1069   -5.2154  -14.9663    -8.745    -8.205  -19.7107  -48.5189  -12.2908   -8.2151   -5.0964  -10.6372
  std. dev.         9.6425   10.9007     8.061    8.8198    8.4284   12.2015    9.4473   15.9252   10.5869    6.8402    7.5403    8.3925
  weight sum          9585      2963      4621       864      2382      4463      5808     23722      1948       904      1386      2485
  precision         0.1043    0.1043    0.1043    0.1043    0.1043    0.1043    0.1043    0.1043    0.1043    0.1043    0.1043    0.1043

4Pitch(Hz)
  mean            215.2171   133.684  190.6854  132.7243  173.6379  178.3171   83.4102   15.7183  161.0025  196.7149   230.256  175.3921
  std. dev.       108.2936  111.4175   87.4198  107.1636   76.0641  105.1185  106.0628   54.8033  109.8138   89.5099   83.5916  103.1093
  weight sum          9585      2963      4621       864      2382      4463      5808     23722      1948       904      1386      2485
  precision         0.1303    0.1303    0.1303    0.1303    0.1303    0.1303    0.1303    0.1303    0.1303    0.1303    0.1303    0.1303

4RawPitch
  mean             205.011  110.7226  186.0468  107.6938  166.4491  172.3446   64.4541   12.8482  148.5952   190.776   221.377  161.3722
  std. dev.       114.2273  109.7547   94.2836  102.8608   82.7406   111.886   99.3458   49.2604  115.2511   97.6689   91.8259  112.5171
  weight sum          9585      2963      4621       864      2382      4463      5808     23722      1948       904      1386      2485
  precision          0.131     0.131     0.131     0.131     0.131     0.131     0.131     0.131     0.131     0.131     0.131     0.131

4SmPitch
  mean             213.279  123.5147  189.2421  123.0119  171.0176  176.2127   76.5201   14.1449  156.3345   196.165   229.966  172.2645
  std. dev.       109.7994  112.8412   88.6477  104.4081   78.8205  107.2818  103.9302   50.9173  112.6809   90.4791   83.6261   105.134
  weight sum          9585      2963      4621       864      2382      4463      5808     23722      1948       904      1386      2485
  precision         0.1312    0.1312    0.1312    0.1312    0.1312    0.1312    0.1312    0.1312    0.1312    0.1312    0.1312    0.1312

4Melogram(st)
  mean             51.3572    33.408   50.6147   37.2513   48.6212   46.5702   22.3776    4.6716   41.7583   51.6188   54.4863   45.9716
  std. dev.        16.8758   26.8176   15.1287    24.928   16.0378    20.439   26.9577   15.2691   24.1126   13.9964   13.4335   21.1087
  weight sum          9585      2963      4621       864      2382      4463      5808     23722      1948       904      1386      2485
  precision         0.0252    0.0252    0.0252    0.0252    0.0252    0.0252    0.0252    0.0252    0.0252    0.0252    0.0252    0.0252

4ZCross
  mean              6.9994    3.0261    4.9156    1.9401    3.5967    4.0424     2.824    0.2221    2.4227     3.706    3.8515    3.1411
  std. dev.         4.6018    3.6698    3.2034    2.0364    3.1513    2.9091    5.3166    1.0405    2.0849    2.1752    2.7932    5.0092
  weight sum          9585      2963      4621       864      2382      4463      5808     23722      1948       904      1386      2485
  precision         1.1633    1.1633    1.1633    1.1633    1.1633    1.1633    1.1633    1.1633    1.1633    1.1633    1.1633    1.1633

4F1(Hz)
  mean             683.313  330.5602  466.9426  381.3156  363.5983  486.8876  245.2618   50.9791  372.4935  504.4024  501.4313  426.9662
  std. dev.       268.9093   273.463  141.0764  276.5899  141.2908  224.2029  288.7902  162.6227  235.5015  171.5549  304.2361  202.3611
  weight sum          9585      2963      4621       864      2382      4463      5808     23722      1948       904      1386      2485
  precision         0.3642    0.3642    0.3642    0.3642    0.3642    0.3642    0.3642    0.3642    0.3642    0.3642    0.3642    0.3642

4F2(Hz)
  mean           1445.9618 1114.7351 1800.7234 1172.6362 1991.3969 1143.6165  752.3874  159.7147 1312.5688 1445.0542 1063.4653 1456.7438
  std. dev.       449.7706  872.1813  507.5736  779.2046  651.9928  529.3781  855.1375  504.5122  745.4148   394.779  414.3404  625.6337
  weight sum          9585      2963      4621       864      2382      4463      5808     23722      1948       904      1386      2485
  precision         0.4431    0.4431    0.4431    0.4431    0.4431    0.4431    0.4431    0.4431    0.4431    0.4431    0.4431    0.4431

4F3(Hz)
  mean           2661.7097 1858.6091  2638.722 1994.0357 2676.1136 2509.8227 1289.0994  272.3289 2208.9124 2793.5531  2701.015 2512.9885
  std. dev.       804.8708 1432.7645  758.2975 1314.2962  900.3451 1013.4676 1455.0706  845.5437 1199.4463  675.3818  745.1651 1014.0342
  weight sum          9585      2963      4621       864      2382      4463      5808     23722      1948       904      1386      2485
  precision         0.6602    0.6602    0.6602    0.6602    0.6602    0.6602    0.6602    0.6602    0.6602    0.6602    0.6602    0.6602

4F4(Hz)
  mean           3086.6146 2119.6964  3179.034 2385.6763 3179.5458  2888.156 1480.8848   327.666 2654.3032 3237.6627 3093.8479 2886.6057
  std. dev.       919.3099 1620.6194  877.8457 1536.6667  1026.953 1148.0627 1660.8423  1014.973 1409.2849  758.6904  750.1771 1167.5753
  weight sum          9585      2963      4621       864      2382      4463      5808     23722      1948       904      1386      2485
  precision         0.6775    0.6775    0.6775    0.6775    0.6775    0.6775    0.6775    0.6775    0.6775    0.6775    0.6775    0.6775





=== Stratified cross-validation ===

Correctly Classified Instances       30517               49.9207 %
Incorrectly Classified Instances     30614               50.0793 %
Kappa statistic                          0.3746
K&B Relative Info Score            2104921.5564 %
K&B Information Score                60415.6927 bits      0.9883 bits/instance
Class complexity | order 0          175442.4274 bits      2.8699 bits/instance
Class complexity | scheme          1728273.7603 bits     28.2716 bits/instance
Complexity improvement     (Sf)    -1552831.3329 bits    -25.4017 bits/instance
Mean absolute error                      0.0837
Root mean squared error                  0.2741
Relative absolute error                 62.9526 %
Root relative squared error            106.3425 %
Coverage of cases (0.95 level)          55.3533 %
Mean rel. region size (0.95 level)      11.4763 %
Total Number of Instances            61131     


=== Detailed Accuracy By Class ===

                 TP Rate  FP Rate  Precision  Recall   F-Measure  MCC      ROC Area  PRC Area  Class
                 0,441    0,039    0,680      0,441    0,535      0,484    0,876     0,608     A
                 0,018    0,008    0,104      0,018    0,031      0,024    0,690     0,082     LGJKC
                 0,427    0,056    0,386      0,427    0,406      0,355    0,856     0,376     E
                 0,072    0,031    0,032      0,072    0,045      0,028    0,733     0,030     FV
                 0,345    0,029    0,323      0,345    0,334      0,306    0,860     0,266     I
                 0,003    0,002    0,110      0,003    0,005      0,006    0,773     0,175     O
                 0,182    0,029    0,397      0,182    0,250      0,220    0,793     0,297     SNRTY
                 0,891    0,134    0,808      0,891    0,848      0,746    0,916     0,836     0
                 0,008    0,004    0,060      0,008    0,014      0,010    0,719     0,057     BMP
                 0,689    0,222    0,044      0,689    0,084      0,134    0,820     0,051     DZ
                 0,366    0,014    0,380      0,366    0,373      0,359    0,864     0,314     U
                 0,007    0,005    0,060      0,007    0,013      0,007    0,706     0,068     SNRTXY
Weighted Avg.    0,499    0,071    0,527      0,499    0,493      0,438    0,850     0,516     


=== Confusion Matrix ===

     a     b     c     d     e     f     g     h     i     j     k     l   <-- classified as
  4231   119   986   254   156    34   203   475    28  2936   133    30 |     a = A
   149    54   189   119   175    17   342   766    22  1024    50    56 |     b = LGJKC
   429    78  1975   121   247     4   106   178    31  1385    54    13 |     c = E
    56     6    50    62    53     0    60   195     3   366     6     7 |     d = FV
   121    55   773    76   821     0    88   131    27   283     5     2 |     e = I
   478    63   523   207    53    12   121   464    32  2149   348    13 |     f = O
   198    59   170   417   241    17  1058  2220    40  1236    49   103 |     g = SNRTY
    61    40   196   332   306    16   361 21141    29  1150    49    41 |     h = 0
   120    16    75    98   238     1   100   345    15   858    68    14 |     i = BMP
    91     0    43    36    21     0    15    33     4   623    37     1 |     j = DZ
   117    26    24    44    31     6    40    30    16   545   507     0 |     k = U
   169     3   116   152   198     2   169   174     2  1455    27    18 |     l = SNRTXY

=== Percent Confusion Matrix ===
a	b	c	d	e	f	g	h	i	j	k	l	
44.14	1.24	10.29	2.65	1.63	0.35	2.12	4.96	0.29	30.63	1.39	0.31	 a = A
5.03	1.82	6.38	4.02	5.91	0.57	11.54	25.85	0.74	34.56	1.69	1.89	 b = LGJKC
9.28	1.69	42.74	2.62	5.35	0.09	2.29	3.85	0.67	29.97	1.17	0.28	 c = E
6.48	0.69	5.79	7.18	6.13	0.0	6.94	22.57	0.35	42.36	0.69	0.81	 d = FV
5.08	2.31	32.45	3.19	34.47	0.0	3.69	5.5	1.13	11.88	0.21	0.08	 e = I
10.71	1.41	11.72	4.64	1.19	0.27	2.71	10.4	0.72	48.15	7.8	0.29	 f = O
3.41	1.02	2.93	7.18	4.15	0.29	18.22	38.22	0.69	21.28	0.84	1.77	 g = SNRTY
0.26	0.17	0.83	1.4	1.29	0.07	1.52	89.12	0.12	4.85	0.21	0.17	 h = 0
6.16	0.82	3.85	5.03	12.22	0.05	5.13	17.71	0.77	44.05	3.49	0.72	 i = BMP
10.07	0.0	4.76	3.98	2.32	0.0	1.66	3.65	0.44	68.92	4.09	0.11	 j = DZ
8.44	1.88	1.73	3.17	2.24	0.43	2.89	2.16	1.15	39.32	36.58	0.0	 k = U
6.8	0.12	4.67	6.12	7.97	0.08	6.8	7.0	0.08	58.55	1.09	0.72	 l = SNRTXY
