Timestamp:2014-12-07-10:59:04
Inventario:I2
Intervalo:3ms
Ngramas:4
Clasificador:NaiveBayes
Relation Name:  I2-3ms-4gramas
Num Instances:  61132
Num Attributes: 41

     Name                      Type  Nom  Int Real     Missing      Unique  Dist
   1 0Int(dB)                   Num   0%  10%  90%     0 /  0%     2 /  0%   776 
   2 0Pitch(Hz)                 Num   0%  52%  48%     0 /  0%   559 /  1%  3828 
   3 0RawPitch                  Num   0%  55%  45%     0 /  0%   613 /  1%  3808 
   4 0SmPitch                   Num   0%  53%  47%     0 /  0%   575 /  1%  3802 
   5 0Melogram(st)              Num   0%  49%  51%     0 /  0%   269 /  0%  3285 
   6 0ZCross                    Num   0% 100%   0%     0 /  0%     3 /  0%    50 
   7 0F1(Hz)                    Num   0%  52%  48%     0 /  0%  1075 /  2%  4783 
   8 0F2(Hz)                    Num   0%  52%  48%     0 /  0%  2270 /  4%  6724 
   9 0F3(Hz)                    Num   0%  52%  48%     0 /  0%  1945 /  3%  6241 
  10 0F4(Hz)                    Num   0%  52%  48%     0 /  0%  1922 /  3%  6122 
  11 1Int(dB)                   Num   0%  10%  90%     0 /  0%     2 /  0%   776 
  12 1Pitch(Hz)                 Num   0%  52%  48%     0 /  0%   559 /  1%  3828 
  13 1RawPitch                  Num   0%  55%  45%     0 /  0%   613 /  1%  3808 
  14 1SmPitch                   Num   0%  53%  47%     0 /  0%   575 /  1%  3802 
  15 1Melogram(st)              Num   0%  49%  51%     0 /  0%   269 /  0%  3285 
  16 1ZCross                    Num   0% 100%   0%     0 /  0%     3 /  0%    50 
  17 1F1(Hz)                    Num   0%  52%  48%     0 /  0%  1075 /  2%  4783 
  18 1F2(Hz)                    Num   0%  52%  48%     0 /  0%  2270 /  4%  6724 
  19 1F3(Hz)                    Num   0%  52%  48%     0 /  0%  1945 /  3%  6241 
  20 1F4(Hz)                    Num   0%  52%  48%     0 /  0%  1922 /  3%  6122 
  21 2Int(dB)                   Num   0%  10%  90%     0 /  0%     2 /  0%   776 
  22 2Pitch(Hz)                 Num   0%  52%  48%     0 /  0%   559 /  1%  3828 
  23 2RawPitch                  Num   0%  55%  45%     0 /  0%   613 /  1%  3808 
  24 2SmPitch                   Num   0%  53%  47%     0 /  0%   575 /  1%  3802 
  25 2Melogram(st)              Num   0%  49%  51%     0 /  0%   269 /  0%  3285 
  26 2ZCross                    Num   0% 100%   0%     0 /  0%     3 /  0%    50 
  27 2F1(Hz)                    Num   0%  52%  48%     0 /  0%  1075 /  2%  4783 
  28 2F2(Hz)                    Num   0%  52%  48%     0 /  0%  2270 /  4%  6724 
  29 2F3(Hz)                    Num   0%  52%  48%     0 /  0%  1945 /  3%  6241 
  30 2F4(Hz)                    Num   0%  52%  48%     0 /  0%  1922 /  3%  6122 
  31 3Int(dB)                   Num   0%  10%  90%     0 /  0%     3 /  0%   777 
  32 3Pitch(Hz)                 Num   0%  52%  48%     0 /  0%   559 /  1%  3828 
  33 3RawPitch                  Num   0%  55%  45%     0 /  0%   613 /  1%  3808 
  34 3SmPitch                   Num   0%  53%  47%     0 /  0%   575 /  1%  3802 
  35 3Melogram(st)              Num   0%  49%  51%     0 /  0%   269 /  0%  3285 
  36 3ZCross                    Num   0% 100%   0%     0 /  0%     3 /  0%    50 
  37 3F1(Hz)                    Num   0%  52%  48%     0 /  0%  1075 /  2%  4783 
  38 3F2(Hz)                    Num   0%  52%  48%     0 /  0%  2270 /  4%  6724 
  39 3F3(Hz)                    Num   0%  52%  48%     0 /  0%  1945 /  3%  6241 
  40 3F4(Hz)                    Num   0%  52%  48%     0 /  0%  1922 /  3%  6122 
  41 class                      Nom 100%   0%   0%     0 /  0%     0 /  0%    12 


Naive Bayes Classifier

                    Class
Attribute               A     LGJKC         E        FV         I         O     SNRTY         0       BMP        DZ         U    SNRTXY
                   (0.16)    (0.05)    (0.08)    (0.01)    (0.04)    (0.07)     (0.1)    (0.39)    (0.03)    (0.01)    (0.02)    (0.04)
========================================================================================================================================
0Int(dB)
  mean             -4.3451  -16.1676   -5.4866   -14.804   -9.1799   -8.2804   -19.799  -48.1806  -13.0129   -8.3969   -5.8577  -10.1218
  std. dev.         9.7988    12.013    8.4392    9.1123    8.6146   12.0927    9.7527   16.4083   11.1545    6.7078    8.6173     8.338
  weight sum          9585      2963      4621       864      2382      4463      5808     23723      1948       904      1386      2485
  precision         0.1044    0.1044    0.1044    0.1044    0.1044    0.1044    0.1044    0.1044    0.1044    0.1044    0.1044    0.1044

0Pitch(Hz)
  mean            214.8348  125.6301  187.5772  135.8817  170.3677  179.1099   84.6771   17.3499  158.7755  197.2212  226.2021  178.1417
  std. dev.       108.6313  111.6748   89.3537  107.8471   79.1235  106.1835  105.7225   57.3358  112.1053   88.5836   89.9667  101.7491
  weight sum          9585      2963      4621       864      2382      4463      5808     23723      1948       904      1386      2485
  precision         0.1303    0.1303    0.1303    0.1303    0.1303    0.1303    0.1303    0.1303    0.1303    0.1303    0.1303    0.1303

0RawPitch
  mean            204.4046  105.5129  183.2465  109.9703  162.0978  172.4006   65.9859   14.2567  146.1731  191.5814  217.6541  165.0598
  std. dev.       114.5571  109.2842   95.6687  104.6772   85.0721  112.8726  100.0364   51.6692  116.9415   97.8039   96.8389  111.0003
  weight sum          9585      2963      4621       864      2382      4463      5808     23723      1948       904      1386      2485
  precision          0.131     0.131     0.131     0.131     0.131     0.131     0.131     0.131     0.131     0.131     0.131     0.131

0SmPitch
  mean            212.6964  116.9073  185.6219  125.7035  167.7906  176.7887   77.7601    15.688  154.8711  196.3462  225.9095   175.953
  std. dev.       110.3732   112.296    90.965  105.4709   81.2541  108.4257  103.8026   53.4934  114.2773   90.1545   89.8265  103.3981
  weight sum          9585      2963      4621       864      2382      4463      5808     23723      1948       904      1386      2485
  precision         0.1312    0.1312    0.1312    0.1312    0.1312    0.1312    0.1312    0.1312    0.1312    0.1312    0.1312    0.1312

0Melogram(st)
  mean             51.1094   31.9329   49.8961   37.8284   47.7099   46.6075   22.9767    5.0777   41.3347   51.6148   52.9335   46.5494
  std. dev.        17.2871   26.9503   16.2028   24.6828   17.2872   20.5184    26.967   15.8342   24.4629   14.0688   16.2835   20.6017
  weight sum          9585      2963      4621       864      2382      4463      5808     23723      1948       904      1386      2485
  precision         0.0252    0.0252    0.0252    0.0252    0.0252    0.0252    0.0252    0.0252    0.0252    0.0252    0.0252    0.0252

0ZCross
  mean              6.9827    2.8954    4.9388    2.0007    3.5626    4.0249    2.7814    0.2622    2.3235    3.5606     3.755    3.2623
  std. dev.         4.6044    3.6664    3.2469    2.0822    3.2866    3.0126    5.2567    1.1593     2.129    2.1658    2.8542    4.8716
  weight sum          9585      2963      4621       864      2382      4463      5808     23723      1948       904      1386      2485
  precision         1.1633    1.1633    1.1633    1.1633    1.1633    1.1633    1.1633    1.1633    1.1633    1.1633    1.1633    1.1633

0F1(Hz)
  mean            666.7136  329.5146  453.7041  403.0001  351.6224  473.8855  269.0048   56.1633  374.9867  502.2114  484.7897   447.269
  std. dev.       281.5906  276.2679  159.4091  276.2591  157.9743  232.8436  294.8736  170.5731  239.5169  170.2917  320.1911  202.9624
  weight sum          9585      2963      4621       864      2382      4463      5808     23723      1948       904      1386      2485
  precision         0.3642    0.3642    0.3642    0.3642    0.3642    0.3642    0.3642    0.3642    0.3642    0.3642    0.3642    0.3642

0F2(Hz)
  mean           1426.5335  1112.609 1736.7393 1201.2387 1888.1428 1133.1742  817.3286  174.9407 1317.4527 1447.3023 1019.5348 1483.6367
  std. dev.       483.8135  882.3471  582.7337  764.2508  742.2294  558.0272   862.397  525.3081  757.5471  385.9422  469.8361  609.3413
  weight sum          9585      2963      4621       864      2382      4463      5808     23723      1948       904      1386      2485
  precision         0.4431    0.4431    0.4431    0.4431    0.4431    0.4431    0.4431    0.4431    0.4431    0.4431    0.4431    0.4431

0F3(Hz)
  mean            2621.437   1838.18 2562.5981 2053.3107 2559.2594  2458.752 1404.0837  299.0207 2214.3535 2798.6217 2579.3441 2555.4511
  std. dev.       860.1173  1436.476   862.118 1292.4335 1021.4692 1061.5374 1467.5196  881.6728 1214.8583  648.4218  919.5861  978.0421
  weight sum          9585      2963      4621       864      2382      4463      5808     23723      1948       904      1386      2485
  precision         0.6602    0.6602    0.6602    0.6602    0.6602    0.6602    0.6602    0.6602    0.6602    0.6602    0.6602    0.6602

0F4(Hz)
  mean           3043.6864 2093.1399 3093.8052  2442.436 3050.9117 2833.3702 1608.8637  358.9696 2641.6647  3248.514 2956.7717 2928.6273
  std. dev.       985.2717 1623.5868 1009.5134 1504.0848 1178.4462 1207.9571 1669.2695 1056.2181 1419.2169  727.6066   976.944 1120.1992
  weight sum          9585      2963      4621       864      2382      4463      5808     23723      1948       904      1386      2485
  precision         0.6775    0.6775    0.6775    0.6775    0.6775    0.6775    0.6775    0.6775    0.6775    0.6775    0.6775    0.6775

1Int(dB)
  mean              -4.275   -15.887   -5.3093   -14.929   -8.9731    -8.186  -19.8698  -48.3097  -12.8391   -8.4011   -5.5524  -10.2946
  std. dev.         9.6881   11.6131    8.2373    8.9669    8.4929   12.1008    9.5615   16.2244   10.9656    6.7519    8.2298    8.3341
  weight sum          9585      2963      4621       864      2382      4463      5808     23723      1948       904      1386      2485
  precision         0.1044    0.1044    0.1044    0.1044    0.1044    0.1044    0.1044    0.1044    0.1044    0.1044    0.1044    0.1044

1Pitch(Hz)
  mean            215.2871  127.5882  188.9058  134.5242  172.0827  179.2936    83.369   16.8268  158.9902  197.0294  228.1408  176.9616
  std. dev.       108.2446  111.6322   88.6428  107.5224   77.7161  105.6064  105.4793   56.5394  111.5792   88.9348   87.2319  102.2993
  weight sum          9585      2963      4621       864      2382      4463      5808     23723      1948       904      1386      2485
  precision         0.1303    0.1303    0.1303    0.1303    0.1303    0.1303    0.1303    0.1303    0.1303    0.1303    0.1303    0.1303

1RawPitch
  mean            204.9344  106.2697  184.5166  108.9501   164.127  173.0126   64.5478   13.7996  146.3863  191.0868  219.2103  163.9323
  std. dev.       114.2089  109.1897   95.0659  104.2181    83.993  112.4306   99.2735   50.8231  116.5641   97.7905   94.8961  111.6012
  weight sum          9585      2963      4621       864      2382      4463      5808     23723      1948       904      1386      2485
  precision          0.131     0.131     0.131     0.131     0.131     0.131     0.131     0.131     0.131     0.131     0.131     0.131

1SmPitch
  mean              213.21  118.3103  187.1933  124.4425  169.4288  177.1572   76.3606   15.1837  154.8208   196.273  227.7542  174.7065
  std. dev.       109.9155  112.4263   90.0322  105.0137   80.1407  107.7873  103.4265    52.655  113.9964   90.2956   87.2767  103.9351
  weight sum          9585      2963      4621       864      2382      4463      5808     23723      1948       904      1386      2485
  precision         0.1312    0.1312    0.1312    0.1312    0.1312    0.1312    0.1312    0.1312    0.1312    0.1312    0.1312    0.1312

1Melogram(st)
  mean             51.2709    32.263   50.2427   37.5734   48.1463   46.6963   22.5117    4.9552   41.2774    51.643   53.5545   46.3436
  std. dev.        17.0469   26.9289   15.7114   24.7697    16.741    20.402   26.9116   15.6689   24.4581   13.9783    15.256    20.778
  weight sum          9585      2963      4621       864      2382      4463      5808     23723      1948       904      1386      2485
  precision         0.0252    0.0252    0.0252    0.0252    0.0252    0.0252    0.0252    0.0252    0.0252    0.0252    0.0252    0.0252

1ZCross
  mean              7.0076    2.9366    4.9486    1.9576    3.5738    4.0411    2.7806    0.2433    2.3403     3.585    3.7945    3.2122
  std. dev.         4.5938    3.6993    3.2071    2.0438    3.2163    2.9298    5.2988    1.0804    2.1047    2.1652    2.8295    4.9553
  weight sum          9585      2963      4621       864      2382      4463      5808     23723      1948       904      1386      2485
  precision         1.1633    1.1633    1.1633    1.1633    1.1633    1.1633    1.1633    1.1633    1.1633    1.1633    1.1633    1.1633

1F1(Hz)
  mean            673.1337   328.383  458.5411  395.5357  356.2706  479.3315  259.4825   54.3895  373.5242   502.481  491.2079  439.8766
  std. dev.       276.5723  275.5521  152.8966  277.2043   151.878  229.0643  293.0204  167.8384  238.3426  171.3175  314.7115  202.9909
  weight sum          9585      2963      4621       864      2382      4463      5808     23723      1948       904      1386      2485
  precision         0.3642    0.3642    0.3642    0.3642    0.3642    0.3642    0.3642    0.3642    0.3642    0.3642    0.3642    0.3642

1F2(Hz)
  mean           1434.8492 1109.2274 1759.9732 1189.2807 1927.6297  1139.398  790.4926  169.8291 1314.2158 1445.3781 1035.0423 1473.6272
  std. dev.       470.4865  880.1885  557.1365  769.1361  710.1468  546.4539  860.0926  518.3795  754.2105  390.7301  450.7523  615.8654
  weight sum          9585      2963      4621       864      2382      4463      5808     23723      1948       904      1386      2485
  precision         0.4431    0.4431    0.4431    0.4431    0.4431    0.4431    0.4431    0.4431    0.4431    0.4431    0.4431    0.4431

1F3(Hz)
  mean           2637.8989 1837.9042 2590.6505 2031.3736 2603.7866 2481.3348 1356.8455  290.0636 2210.1004 2794.8203 2624.5033 2539.9511
  std. dev.       837.7663  1437.513   826.473 1301.0849   977.692 1040.3144 1463.7823  869.7714 1211.2692  661.6762  861.9955  992.1243
  weight sum          9585      2963      4621       864      2382      4463      5808     23723      1948       904      1386      2485
  precision         0.6602    0.6602    0.6602    0.6602    0.6602    0.6602    0.6602    0.6602    0.6602    0.6602    0.6602    0.6602

1F4(Hz)
  mean           3061.8157 2093.1233 3124.7953 2420.8547 3100.6951 2858.4583 1555.6222  348.5251 2643.1324 3242.3872 3006.9754 2913.0409
  std. dev.       958.7356 1624.6397  964.1286 1516.4414 1123.6536 1181.9837 1666.4814 1042.8106 1417.9475  743.4558  902.9144 1138.4704
  weight sum          9585      2963      4621       864      2382      4463      5808     23723      1948       904      1386      2485
  precision         0.6775    0.6775    0.6775    0.6775    0.6775    0.6775    0.6775    0.6775    0.6775    0.6775    0.6775    0.6775

2Int(dB)
  mean             -4.2584  -15.5397   -5.2147  -14.9846    -8.825   -8.1561  -19.8428  -48.4236  -12.5947   -8.3385   -5.2953  -10.4676
  std. dev.         9.6363   11.2376    8.1108    8.8593    8.4293   12.1343    9.4526   16.0585   10.7736    6.7894    7.8625    8.3532
  weight sum          9585      2963      4621       864      2382      4463      5808     23723      1948       904      1386      2485
  precision         0.1044    0.1044    0.1044    0.1044    0.1044    0.1044    0.1044    0.1044    0.1044    0.1044    0.1044    0.1044

2Pitch(Hz)
  mean             215.424   130.399  190.0809  133.2458  173.0172    179.07   82.9702    16.255  159.7556  196.8632   229.415   175.987
  std. dev.       108.1379  111.5347   87.8538  107.2688   76.7882  105.2101  105.5866   55.6494  110.8403    89.247   85.2349  102.7965
  weight sum          9585      2963      4621       864      2382      4463      5808     23723      1948       904      1386      2485
  precision         0.1303    0.1303    0.1303    0.1303    0.1303    0.1303    0.1303    0.1303    0.1303    0.1303    0.1303    0.1303

2RawPitch
  mean             205.191  107.8889  185.5537  108.1776  165.5748  172.9408   63.8907   13.3305  147.2848  190.9996  220.5485  162.6881
  std. dev.       114.0304  109.3109   94.6689  103.4633   83.1744  112.1655   98.9024   50.0229  115.9925   97.8483   93.0837  112.0712
  weight sum          9585      2963      4621       864      2382      4463      5808     23723      1948       904      1386      2485
  precision          0.131     0.131     0.131     0.131     0.131     0.131     0.131     0.131     0.131     0.131     0.131     0.131

2SmPitch
  mean            213.3805  120.5567  188.4788  123.2631  170.4827   176.912   76.0432    14.661   155.285  196.2119  229.0404  173.4928
  std. dev.        109.759  112.6343   89.1689  104.6396   79.2893  107.4207  103.4965   51.7914  113.4942   90.4104   85.2781  104.4798
  weight sum          9585      2963      4621       864      2382      4463      5808     23723      1948       904      1386      2485
  precision         0.1312    0.1312    0.1312    0.1312    0.1312    0.1312    0.1312    0.1312    0.1312    0.1312    0.1312    0.1312

2Melogram(st)
  mean             51.3557   32.7734   50.4808   37.3343    48.407    46.671   22.3413     4.814   41.4703   51.6291   54.1306   46.1228
  std. dev.        16.9062    26.884   15.3557   24.8638   16.3656   20.3864   26.9099   15.4728   24.3086    13.988   14.2012   20.9736
  weight sum          9585      2963      4621       864      2382      4463      5808     23723      1948       904      1386      2485
  precision         0.0252    0.0252    0.0252    0.0252    0.0252    0.0252    0.0252    0.0252    0.0252    0.0252    0.0252    0.0252

2ZCross
  mean              7.0158    2.9833    4.9388    1.9347    3.5777    4.0484    2.7936    0.2298    2.3719    3.6365    3.8272    3.1715
  std. dev.         4.5915    3.6963    3.1975    2.0238    3.1538    2.8985    5.3156    1.0465    2.0915    2.1699    2.8121    4.9948
  weight sum          9585      2963      4621       864      2382      4463      5808     23723      1948       904      1386      2485
  precision         1.1633    1.1633    1.1633    1.1633    1.1633    1.1633    1.1633    1.1633    1.1633    1.1633    1.1633    1.1633

2F1(Hz)
  mean            678.6538  328.6829  462.8688  388.2589  360.2165   483.672  251.5229   52.7243  372.4682   503.296  496.5514  433.1838
  std. dev.       272.3175  274.7054  146.9719  277.0199    146.32  226.1449  291.0893  165.2517  237.0685  171.4896  309.2602  202.6263
  weight sum          9585      2963      4621       864      2382      4463      5808     23723      1948       904      1386      2485
  precision         0.3642    0.3642    0.3642    0.3642    0.3642    0.3642    0.3642    0.3642    0.3642    0.3642    0.3642    0.3642

2F2(Hz)
  mean           1441.2512  1109.357 1781.0424 1180.6948 1961.8033 1142.8991  768.0459   165.052  1312.066 1445.0356 1050.0402 1465.0518
  std. dev.       459.1186  876.8105  532.5896  774.0059  680.1225  536.7971  857.2741  511.9569  750.4882  392.4853  432.2873  620.7476
  weight sum          9585      2963      4621       864      2382      4463      5808     23723      1948       904      1386      2485
  precision         0.4431    0.4431    0.4431    0.4431    0.4431    0.4431    0.4431    0.4431    0.4431    0.4431    0.4431    0.4431

2F3(Hz)
  mean           2651.2499 1843.7629 2615.4812 2012.5832 2642.4014 2498.5172 1317.6148   281.585  2207.248 2794.3463 2665.1247 2526.3388
  std. dev.       819.3519 1436.1893  792.6591  1307.812   937.499 1024.1918 1459.4189  858.2791 1206.6787  668.5359  803.6971 1003.1436
  weight sum          9585      2963      4621       864      2382      4463      5808     23723      1948       904      1386      2485
  precision         0.6602    0.6602    0.6602    0.6602    0.6602    0.6602    0.6602    0.6602    0.6602    0.6602    0.6602    0.6602

2F4(Hz)
  mean           3075.9587 2101.5572 3152.5297 2403.3745 3143.1187 2876.7808 1511.5822  338.5934 2646.3634 3240.3794 3052.6473 2899.8327
  std. dev.       936.7556 1624.1062  921.2174 1526.7311 1073.3319 1161.8705 1663.0468 1029.7085 1415.4829  751.3128  827.1813 1153.1956
  weight sum          9585      2963      4621       864      2382      4463      5808     23723      1948       904      1386      2485
  precision         0.6775    0.6775    0.6775    0.6775    0.6775    0.6775    0.6775    0.6775    0.6775    0.6775    0.6775    0.6775

3Int(dB)
  mean             -4.2995  -15.1069   -5.2154  -14.9663    -8.745    -8.205  -19.7107  -48.5188  -12.2908   -8.2151   -5.0964  -10.6372
  std. dev.         9.6425   10.9007     8.061    8.8198    8.4284   12.2015    9.4473   15.9248   10.5869    6.8402    7.5403    8.3925
  weight sum          9585      2963      4621       864      2382      4463      5808     23723      1948       904      1386      2485
  precision         0.1043    0.1043    0.1043    0.1043    0.1043    0.1043    0.1043    0.1043    0.1043    0.1043    0.1043    0.1043

3Pitch(Hz)
  mean            215.2171   133.684  190.6854  132.7243  173.6379  178.3171   83.4102   15.7176  161.0025  196.7149   230.256  175.3921
  std. dev.       108.2936  111.4175   87.4198  107.1636   76.0641  105.1185  106.0628   54.8022  109.8138   89.5099   83.5916  103.1093
  weight sum          9585      2963      4621       864      2382      4463      5808     23723      1948       904      1386      2485
  precision         0.1303    0.1303    0.1303    0.1303    0.1303    0.1303    0.1303    0.1303    0.1303    0.1303    0.1303    0.1303

3RawPitch
  mean             205.011  110.7226  186.0468  107.6938  166.4491  172.3446   64.4541   12.8477  148.5952   190.776   221.377  161.3722
  std. dev.       114.2273  109.7547   94.2836  102.8608   82.7406   111.886   99.3458   49.2594  115.2511   97.6689   91.8259  112.5171
  weight sum          9585      2963      4621       864      2382      4463      5808     23723      1948       904      1386      2485
  precision          0.131     0.131     0.131     0.131     0.131     0.131     0.131     0.131     0.131     0.131     0.131     0.131

3SmPitch
  mean             213.279  123.5147  189.2421  123.0119  171.0176  176.2127   76.5201   14.1443  156.3345   196.165   229.966  172.2645
  std. dev.       109.7994  112.8412   88.6477  104.4081   78.8205  107.2818  103.9302   50.9163  112.6809   90.4791   83.6261   105.134
  weight sum          9585      2963      4621       864      2382      4463      5808     23723      1948       904      1386      2485
  precision         0.1312    0.1312    0.1312    0.1312    0.1312    0.1312    0.1312    0.1312    0.1312    0.1312    0.1312    0.1312

3Melogram(st)
  mean             51.3572    33.408   50.6147   37.2513   48.6212   46.5702   22.3776    4.6714   41.7583   51.6188   54.4863   45.9716
  std. dev.        16.8758   26.8176   15.1287    24.928   16.0378    20.439   26.9577   15.2688   24.1126   13.9964   13.4335   21.1087
  weight sum          9585      2963      4621       864      2382      4463      5808     23723      1948       904      1386      2485
  precision         0.0252    0.0252    0.0252    0.0252    0.0252    0.0252    0.0252    0.0252    0.0252    0.0252    0.0252    0.0252

3ZCross
  mean              6.9994    3.0261    4.9156    1.9401    3.5967    4.0424     2.824    0.2221    2.4227     3.706    3.8515    3.1411
  std. dev.         4.6018    3.6698    3.2034    2.0364    3.1513    2.9091    5.3166    1.0405    2.0849    2.1752    2.7932    5.0092
  weight sum          9585      2963      4621       864      2382      4463      5808     23723      1948       904      1386      2485
  precision         1.1633    1.1633    1.1633    1.1633    1.1633    1.1633    1.1633    1.1633    1.1633    1.1633    1.1633    1.1633

3F1(Hz)
  mean             683.313  330.5602  466.9426  381.3156  363.5983  486.8876  245.2618    50.977  372.4935  504.4024  501.4313  426.9662
  std. dev.       268.9093   273.463  141.0764  276.5899  141.2908  224.2029  288.7902  162.6196  235.5015  171.5549  304.2361  202.3611
  weight sum          9585      2963      4621       864      2382      4463      5808     23723      1948       904      1386      2485
  precision         0.3642    0.3642    0.3642    0.3642    0.3642    0.3642    0.3642    0.3642    0.3642    0.3642    0.3642    0.3642

3F2(Hz)
  mean           1445.9618 1114.7351 1800.7234 1172.6362 1991.3969 1143.6165  752.3874   159.708 1312.5688 1445.0542 1063.4653 1456.7438
  std. dev.       449.7706  872.1813  507.5736  779.2046  651.9928  529.3781  855.1375  504.5026  745.4148   394.779  414.3404  625.6337
  weight sum          9585      2963      4621       864      2382      4463      5808     23723      1948       904      1386      2485
  precision         0.4431    0.4431    0.4431    0.4431    0.4431    0.4431    0.4431    0.4431    0.4431    0.4431    0.4431    0.4431

3F3(Hz)
  mean           2661.7097 1858.6091  2638.722 1994.0357 2676.1136 2509.8227 1289.0994  272.3175 2208.9124 2793.5531  2701.015 2512.9885
  std. dev.       804.8708 1432.7645  758.2975 1314.2962  900.3451 1013.4676 1455.0706  845.5277 1199.4463  675.3818  745.1651 1014.0342
  weight sum          9585      2963      4621       864      2382      4463      5808     23723      1948       904      1386      2485
  precision         0.6602    0.6602    0.6602    0.6602    0.6602    0.6602    0.6602    0.6602    0.6602    0.6602    0.6602    0.6602

3F4(Hz)
  mean           3086.6146 2119.6964  3179.034 2385.6763 3179.5458  2888.156 1480.8848  327.6521 2654.3032 3237.6627 3093.8479 2886.6057
  std. dev.       919.3099 1620.6194  877.8457 1536.6667  1026.953 1148.0627 1660.8423 1014.9538 1409.2849  758.6904  750.1771 1167.5753
  weight sum          9585      2963      4621       864      2382      4463      5808     23723      1948       904      1386      2485
  precision         0.6775    0.6775    0.6775    0.6775    0.6775    0.6775    0.6775    0.6775    0.6775    0.6775    0.6775    0.6775





=== Stratified cross-validation ===

Correctly Classified Instances       31060               50.8081 %
Incorrectly Classified Instances     30072               49.1919 %
Kappa statistic                          0.3841
K&B Relative Info Score            2185524.7026 %
K&B Information Score                62729.4957 bits      1.0261 bits/instance
Class complexity | order 0          175443.7931 bits      2.8699 bits/instance
Class complexity | scheme          1398115.6702 bits     22.8704 bits/instance
Complexity improvement     (Sf)    -1222671.8772 bits    -20.0005 bits/instance
Mean absolute error                      0.0826
Root mean squared error                  0.267 
Relative absolute error                 62.1837 %
Root relative squared error            103.5911 %
Coverage of cases (0.95 level)          57.4364 %
Mean rel. region size (0.95 level)      12.7553 %
Total Number of Instances            61132     


=== Detailed Accuracy By Class ===

                 TP Rate  FP Rate  Precision  Recall   F-Measure  MCC      ROC Area  PRC Area  Class
                 0,452    0,039    0,685      0,452    0,544      0,493    0,880     0,616     A
                 0,018    0,007    0,114      0,018    0,031      0,027    0,691     0,083     LGJKC
                 0,503    0,067    0,379      0,503    0,433      0,384    0,861     0,389     E
                 0,067    0,029    0,032      0,067    0,044      0,027    0,734     0,030     FV
                 0,361    0,033    0,310      0,361    0,333      0,305    0,860     0,264     I
                 0,005    0,002    0,153      0,005    0,009      0,015    0,777     0,179     O
                 0,179    0,028    0,401      0,179    0,248      0,220    0,795     0,300     SNRTY
                 0,893    0,136    0,807      0,893    0,848      0,746    0,939     0,902     0
                 0,008    0,005    0,054      0,008    0,014      0,009    0,721     0,057     BMP
                 0,659    0,198    0,048      0,659    0,089      0,138    0,818     0,050     DZ
                 0,390    0,016    0,355      0,390    0,372      0,357    0,868     0,333     U
                 0,011    0,005    0,090      0,011    0,020      0,018    0,715     0,070     SNRTXY
Weighted Avg.    0,508    0,072    0,531      0,508    0,497      0,442    0,861     0,545     


=== Confusion Matrix ===

     a     b     c     d     e     f     g     h     i     j     k     l   <-- classified as
  4331   100  1132   235   178    41   194   483    32  2650   181    28 |     a = A
   151    54   258   113   198    22   336   768    26   922    62    53 |     b = LGJKC
   430    68  2325   111   258     6    90   179    48  1045    48    13 |     c = E
    60     5    61    58    68     0    59   200     3   338     6     6 |     d = FV
   119    44   870    75   859     1    83   129    32   165     1     4 |     e = I
   467    53   653   199    39    21   118   468    31  1991   404    19 |     f = O
   201    74   217   382   269    14  1041  2268    54  1122    63   103 |     g = SNRTY
    58    37   242   314   335    19   347 21191    31  1051    56    42 |     h = 0
   122    13   123    97   268     7   100   344    16   771    73    14 |     i = BMP
    89     0    63    30    27     0    16    33     4   596    44     2 |     j = DZ
   123    24    47    40    35     5    38    27    18   489   540     0 |     k = U
   175     2   137   143   241     1   172   181     2  1362    41    28 |     l = SNRTXY

=== Percent Confusion Matrix ===
a	b	c	d	e	f	g	h	i	j	k	l	
45.19	1.04	11.81	2.45	1.86	0.43	2.02	5.04	0.33	27.65	1.89	0.29	 a = A
5.1	1.82	8.71	3.81	6.68	0.74	11.34	25.92	0.88	31.12	2.09	1.79	 b = LGJKC
9.31	1.47	50.31	2.4	5.58	0.13	1.95	3.87	1.04	22.61	1.04	0.28	 c = E
6.94	0.58	7.06	6.71	7.87	0.0	6.83	23.15	0.35	39.12	0.69	0.69	 d = FV
5.0	1.85	36.52	3.15	36.06	0.04	3.48	5.42	1.34	6.93	0.04	0.17	 e = I
10.46	1.19	14.63	4.46	0.87	0.47	2.64	10.49	0.69	44.61	9.05	0.43	 f = O
3.46	1.27	3.74	6.58	4.63	0.24	17.92	39.05	0.93	19.32	1.08	1.77	 g = SNRTY
0.24	0.16	1.02	1.32	1.41	0.08	1.46	89.33	0.13	4.43	0.24	0.18	 h = 0
6.26	0.67	6.31	4.98	13.76	0.36	5.13	17.66	0.82	39.58	3.75	0.72	 i = BMP
9.85	0.0	6.97	3.32	2.99	0.0	1.77	3.65	0.44	65.93	4.87	0.22	 j = DZ
8.87	1.73	3.39	2.89	2.53	0.36	2.74	1.95	1.3	35.28	38.96	0.0	 k = U
7.04	0.08	5.51	5.75	9.7	0.04	6.92	7.28	0.08	54.81	1.65	1.13	 l = SNRTXY
