Timestamp:2014-12-07-10:58:48
Inventario:I2
Intervalo:3ms
Ngramas:3
Clasificador:NaiveBayes
Relation Name:  I2-3ms-3gramas
Num Instances:  61133
Num Attributes: 31

     Name                      Type  Nom  Int Real     Missing      Unique  Dist
   1 0Int(dB)                   Num   0%  10%  90%     0 /  0%     2 /  0%   776 
   2 0Pitch(Hz)                 Num   0%  52%  48%     0 /  0%   559 /  1%  3828 
   3 0RawPitch                  Num   0%  55%  45%     0 /  0%   613 /  1%  3808 
   4 0SmPitch                   Num   0%  53%  47%     0 /  0%   575 /  1%  3802 
   5 0Melogram(st)              Num   0%  49%  51%     0 /  0%   269 /  0%  3285 
   6 0ZCross                    Num   0% 100%   0%     0 /  0%     3 /  0%    50 
   7 0F1(Hz)                    Num   0%  52%  48%     0 /  0%  1075 /  2%  4783 
   8 0F2(Hz)                    Num   0%  52%  48%     0 /  0%  2270 /  4%  6724 
   9 0F3(Hz)                    Num   0%  52%  48%     0 /  0%  1945 /  3%  6241 
  10 0F4(Hz)                    Num   0%  52%  48%     0 /  0%  1922 /  3%  6122 
  11 1Int(dB)                   Num   0%  10%  90%     0 /  0%     2 /  0%   776 
  12 1Pitch(Hz)                 Num   0%  52%  48%     0 /  0%   559 /  1%  3828 
  13 1RawPitch                  Num   0%  55%  45%     0 /  0%   613 /  1%  3808 
  14 1SmPitch                   Num   0%  53%  47%     0 /  0%   575 /  1%  3802 
  15 1Melogram(st)              Num   0%  49%  51%     0 /  0%   269 /  0%  3285 
  16 1ZCross                    Num   0% 100%   0%     0 /  0%     3 /  0%    50 
  17 1F1(Hz)                    Num   0%  52%  48%     0 /  0%  1075 /  2%  4783 
  18 1F2(Hz)                    Num   0%  52%  48%     0 /  0%  2270 /  4%  6724 
  19 1F3(Hz)                    Num   0%  52%  48%     0 /  0%  1945 /  3%  6241 
  20 1F4(Hz)                    Num   0%  52%  48%     0 /  0%  1922 /  3%  6122 
  21 2Int(dB)                   Num   0%  10%  90%     0 /  0%     3 /  0%   777 
  22 2Pitch(Hz)                 Num   0%  52%  48%     0 /  0%   559 /  1%  3828 
  23 2RawPitch                  Num   0%  55%  45%     0 /  0%   613 /  1%  3808 
  24 2SmPitch                   Num   0%  53%  47%     0 /  0%   575 /  1%  3802 
  25 2Melogram(st)              Num   0%  49%  51%     0 /  0%   269 /  0%  3285 
  26 2ZCross                    Num   0% 100%   0%     0 /  0%     3 /  0%    50 
  27 2F1(Hz)                    Num   0%  52%  48%     0 /  0%  1075 /  2%  4783 
  28 2F2(Hz)                    Num   0%  52%  48%     0 /  0%  2270 /  4%  6724 
  29 2F3(Hz)                    Num   0%  52%  48%     0 /  0%  1945 /  3%  6241 
  30 2F4(Hz)                    Num   0%  52%  48%     0 /  0%  1922 /  3%  6122 
  31 class                      Nom 100%   0%   0%     0 /  0%     0 /  0%    12 


Naive Bayes Classifier

                    Class
Attribute               A     LGJKC         E        FV         I         O     SNRTY         0       BMP        DZ         U    SNRTXY
                   (0.16)    (0.05)    (0.08)    (0.01)    (0.04)    (0.07)     (0.1)    (0.39)    (0.03)    (0.01)    (0.02)    (0.04)
========================================================================================================================================
0Int(dB)
  mean              -4.275   -15.887   -5.3093   -14.929   -8.9731    -8.186  -19.8698  -48.3096  -12.8391   -8.4011   -5.5524  -10.2946
  std. dev.         9.6881   11.6131    8.2373    8.9669    8.4929   12.1008    9.5615   16.2241   10.9656    6.7519    8.2298    8.3341
  weight sum          9585      2963      4621       864      2382      4463      5808     23724      1948       904      1386      2485
  precision         0.1044    0.1044    0.1044    0.1044    0.1044    0.1044    0.1044    0.1044    0.1044    0.1044    0.1044    0.1044

0Pitch(Hz)
  mean            215.2871  127.5882  188.9058  134.5242  172.0827  179.2936    83.369   16.8261  158.9902  197.0294  228.1408  176.9616
  std. dev.       108.2446  111.6322   88.6428  107.5224   77.7161  105.6064  105.4793   56.5383  111.5792   88.9348   87.2319  102.2993
  weight sum          9585      2963      4621       864      2382      4463      5808     23724      1948       904      1386      2485
  precision         0.1303    0.1303    0.1303    0.1303    0.1303    0.1303    0.1303    0.1303    0.1303    0.1303    0.1303    0.1303

0RawPitch
  mean            204.9344  106.2697  184.5166  108.9501   164.127  173.0126   64.5478    13.799  146.3863  191.0868  219.2103  163.9323
  std. dev.       114.2089  109.1897   95.0659  104.2181    83.993  112.4306   99.2735   50.8222  116.5641   97.7905   94.8961  111.6012
  weight sum          9585      2963      4621       864      2382      4463      5808     23724      1948       904      1386      2485
  precision          0.131     0.131     0.131     0.131     0.131     0.131     0.131     0.131     0.131     0.131     0.131     0.131

0SmPitch
  mean              213.21  118.3103  187.1933  124.4425  169.4288  177.1572   76.3606    15.183  154.8208   196.273  227.7542  174.7065
  std. dev.       109.9155  112.4263   90.0322  105.0137   80.1407  107.7873  103.4265    52.654  113.9964   90.2956   87.2767  103.9351
  weight sum          9585      2963      4621       864      2382      4463      5808     23724      1948       904      1386      2485
  precision         0.1312    0.1312    0.1312    0.1312    0.1312    0.1312    0.1312    0.1312    0.1312    0.1312    0.1312    0.1312

0Melogram(st)
  mean             51.2709    32.263   50.2427   37.5734   48.1463   46.6963   22.5117     4.955   41.2774    51.643   53.5545   46.3436
  std. dev.        17.0469   26.9289   15.7114   24.7697    16.741    20.402   26.9116   15.6686   24.4581   13.9783    15.256    20.778
  weight sum          9585      2963      4621       864      2382      4463      5808     23724      1948       904      1386      2485
  precision         0.0252    0.0252    0.0252    0.0252    0.0252    0.0252    0.0252    0.0252    0.0252    0.0252    0.0252    0.0252

0ZCross
  mean              7.0076    2.9366    4.9486    1.9576    3.5738    4.0411    2.7806    0.2433    2.3403     3.585    3.7945    3.2122
  std. dev.         4.5938    3.6993    3.2071    2.0438    3.2163    2.9298    5.2988    1.0804    2.1047    2.1652    2.8295    4.9553
  weight sum          9585      2963      4621       864      2382      4463      5808     23724      1948       904      1386      2485
  precision         1.1633    1.1633    1.1633    1.1633    1.1633    1.1633    1.1633    1.1633    1.1633    1.1633    1.1633    1.1633

0F1(Hz)
  mean            673.1337   328.383  458.5411  395.5357  356.2706  479.3315  259.4825   54.3872  373.5242   502.481  491.2079  439.8766
  std. dev.       276.5723  275.5521  152.8966  277.2043   151.878  229.0643  293.0204  167.8352  238.3426  171.3175  314.7115  202.9909
  weight sum          9585      2963      4621       864      2382      4463      5808     23724      1948       904      1386      2485
  precision         0.3642    0.3642    0.3642    0.3642    0.3642    0.3642    0.3642    0.3642    0.3642    0.3642    0.3642    0.3642

0F2(Hz)
  mean           1434.8492 1109.2274 1759.9732 1189.2807 1927.6297  1139.398  790.4926  169.8219 1314.2158 1445.3781 1035.0423 1473.6272
  std. dev.       470.4865  880.1885  557.1365  769.1361  710.1468  546.4539  860.0926  518.3697  754.2105  390.7301  450.7523  615.8654
  weight sum          9585      2963      4621       864      2382      4463      5808     23724      1948       904      1386      2485
  precision         0.4431    0.4431    0.4431    0.4431    0.4431    0.4431    0.4431    0.4431    0.4431    0.4431    0.4431    0.4431

0F3(Hz)
  mean           2637.8989 1837.9042 2590.6505 2031.3736 2603.7866 2481.3348 1356.8455  290.0514 2210.1004 2794.8203 2624.5033 2539.9511
  std. dev.       837.7663  1437.513   826.473 1301.0849   977.692 1040.3144 1463.7823  869.7551 1211.2692  661.6762  861.9955  992.1243
  weight sum          9585      2963      4621       864      2382      4463      5808     23724      1948       904      1386      2485
  precision         0.6602    0.6602    0.6602    0.6602    0.6602    0.6602    0.6602    0.6602    0.6602    0.6602    0.6602    0.6602

0F4(Hz)
  mean           3061.8157 2093.1233 3124.7953 2420.8547 3100.6951 2858.4583 1555.6222  348.5104 2643.1324 3242.3872 3006.9754 2913.0409
  std. dev.       958.7356 1624.6397  964.1286 1516.4414 1123.6536 1181.9837 1666.4814  1042.791 1417.9475  743.4558  902.9144 1138.4704
  weight sum          9585      2963      4621       864      2382      4463      5808     23724      1948       904      1386      2485
  precision         0.6775    0.6775    0.6775    0.6775    0.6775    0.6775    0.6775    0.6775    0.6775    0.6775    0.6775    0.6775

1Int(dB)
  mean             -4.2584  -15.5397   -5.2147  -14.9846    -8.825   -8.1561  -19.8428  -48.4234  -12.5947   -8.3385   -5.2953  -10.4676
  std. dev.         9.6363   11.2376    8.1108    8.8593    8.4293   12.1343    9.4526   16.0582   10.7736    6.7894    7.8625    8.3532
  weight sum          9585      2963      4621       864      2382      4463      5808     23724      1948       904      1386      2485
  precision         0.1044    0.1044    0.1044    0.1044    0.1044    0.1044    0.1044    0.1044    0.1044    0.1044    0.1044    0.1044

1Pitch(Hz)
  mean             215.424   130.399  190.0809  133.2458  173.0172    179.07   82.9702   16.2544  159.7556  196.8632   229.415   175.987
  std. dev.       108.1379  111.5347   87.8538  107.2688   76.7882  105.2101  105.5866   55.6483  110.8403    89.247   85.2349  102.7965
  weight sum          9585      2963      4621       864      2382      4463      5808     23724      1948       904      1386      2485
  precision         0.1303    0.1303    0.1303    0.1303    0.1303    0.1303    0.1303    0.1303    0.1303    0.1303    0.1303    0.1303

1RawPitch
  mean             205.191  107.8889  185.5537  108.1776  165.5748  172.9408   63.8907   13.3299  147.2848  190.9996  220.5485  162.6881
  std. dev.       114.0304  109.3109   94.6689  103.4633   83.1744  112.1655   98.9024   50.0219  115.9925   97.8483   93.0837  112.0712
  weight sum          9585      2963      4621       864      2382      4463      5808     23724      1948       904      1386      2485
  precision          0.131     0.131     0.131     0.131     0.131     0.131     0.131     0.131     0.131     0.131     0.131     0.131

1SmPitch
  mean            213.3805  120.5567  188.4788  123.2631  170.4827   176.912   76.0432   14.6603   155.285  196.2119  229.0404  173.4928
  std. dev.        109.759  112.6343   89.1689  104.6396   79.2893  107.4207  103.4965   51.7904  113.4942   90.4104   85.2781  104.4798
  weight sum          9585      2963      4621       864      2382      4463      5808     23724      1948       904      1386      2485
  precision         0.1312    0.1312    0.1312    0.1312    0.1312    0.1312    0.1312    0.1312    0.1312    0.1312    0.1312    0.1312

1Melogram(st)
  mean             51.3557   32.7734   50.4808   37.3343    48.407    46.671   22.3413    4.8138   41.4703   51.6291   54.1306   46.1228
  std. dev.        16.9062    26.884   15.3557   24.8638   16.3656   20.3864   26.9099   15.4725   24.3086    13.988   14.2012   20.9736
  weight sum          9585      2963      4621       864      2382      4463      5808     23724      1948       904      1386      2485
  precision         0.0252    0.0252    0.0252    0.0252    0.0252    0.0252    0.0252    0.0252    0.0252    0.0252    0.0252    0.0252

1ZCross
  mean              7.0158    2.9833    4.9388    1.9347    3.5777    4.0484    2.7936    0.2298    2.3719    3.6365    3.8272    3.1715
  std. dev.         4.5915    3.6963    3.1975    2.0238    3.1538    2.8985    5.3156    1.0464    2.0915    2.1699    2.8121    4.9948
  weight sum          9585      2963      4621       864      2382      4463      5808     23724      1948       904      1386      2485
  precision         1.1633    1.1633    1.1633    1.1633    1.1633    1.1633    1.1633    1.1633    1.1633    1.1633    1.1633    1.1633

1F1(Hz)
  mean            678.6538  328.6829  462.8688  388.2589  360.2165   483.672  251.5229    52.722  372.4682   503.296  496.5514  433.1838
  std. dev.       272.3175  274.7054  146.9719  277.0199    146.32  226.1449  291.0893  165.2486  237.0685  171.4896  309.2602  202.6263
  weight sum          9585      2963      4621       864      2382      4463      5808     23724      1948       904      1386      2485
  precision         0.3642    0.3642    0.3642    0.3642    0.3642    0.3642    0.3642    0.3642    0.3642    0.3642    0.3642    0.3642

1F2(Hz)
  mean           1441.2512  1109.357 1781.0424 1180.6948 1961.8033 1142.8991  768.0459   165.045  1312.066 1445.0356 1050.0402 1465.0518
  std. dev.       459.1186  876.8105  532.5896  774.0059  680.1225  536.7971  857.2741  511.9472  750.4882  392.4853  432.2873  620.7476
  weight sum          9585      2963      4621       864      2382      4463      5808     23724      1948       904      1386      2485
  precision         0.4431    0.4431    0.4431    0.4431    0.4431    0.4431    0.4431    0.4431    0.4431    0.4431    0.4431    0.4431

1F3(Hz)
  mean           2651.2499 1843.7629 2615.4812 2012.5832 2642.4014 2498.5172 1317.6148  281.5731  2207.248 2794.3463 2665.1247 2526.3388
  std. dev.       819.3519 1436.1893  792.6591  1307.812   937.499 1024.1918 1459.4189  858.2629 1206.6787  668.5359  803.6971 1003.1436
  weight sum          9585      2963      4621       864      2382      4463      5808     23724      1948       904      1386      2485
  precision         0.6602    0.6602    0.6602    0.6602    0.6602    0.6602    0.6602    0.6602    0.6602    0.6602    0.6602    0.6602

1F4(Hz)
  mean           3075.9587 2101.5572 3152.5297 2403.3745 3143.1187 2876.7808 1511.5822  338.5791 2646.3634 3240.3794 3052.6473 2899.8327
  std. dev.       936.7556 1624.1062  921.2174 1526.7311 1073.3319 1161.8705 1663.0468 1029.6891 1415.4829  751.3128  827.1813 1153.1956
  weight sum          9585      2963      4621       864      2382      4463      5808     23724      1948       904      1386      2485
  precision         0.6775    0.6775    0.6775    0.6775    0.6775    0.6775    0.6775    0.6775    0.6775    0.6775    0.6775    0.6775

2Int(dB)
  mean             -4.2995  -15.1069   -5.2154  -14.9663    -8.745    -8.205  -19.7107  -48.5187  -12.2908   -8.2151   -5.0964  -10.6372
  std. dev.         9.6425   10.9007     8.061    8.8198    8.4284   12.2015    9.4473   15.9245   10.5869    6.8402    7.5403    8.3925
  weight sum          9585      2963      4621       864      2382      4463      5808     23724      1948       904      1386      2485
  precision         0.1043    0.1043    0.1043    0.1043    0.1043    0.1043    0.1043    0.1043    0.1043    0.1043    0.1043    0.1043

2Pitch(Hz)
  mean            215.2171   133.684  190.6854  132.7243  173.6379  178.3171   83.4102   15.7169  161.0025  196.7149   230.256  175.3921
  std. dev.       108.2936  111.4175   87.4198  107.1636   76.0641  105.1185  106.0628   54.8012  109.8138   89.5099   83.5916  103.1093
  weight sum          9585      2963      4621       864      2382      4463      5808     23724      1948       904      1386      2485
  precision         0.1303    0.1303    0.1303    0.1303    0.1303    0.1303    0.1303    0.1303    0.1303    0.1303    0.1303    0.1303

2RawPitch
  mean             205.011  110.7226  186.0468  107.6938  166.4491  172.3446   64.4541   12.8471  148.5952   190.776   221.377  161.3722
  std. dev.       114.2273  109.7547   94.2836  102.8608   82.7406   111.886   99.3458   49.2585  115.2511   97.6689   91.8259  112.5171
  weight sum          9585      2963      4621       864      2382      4463      5808     23724      1948       904      1386      2485
  precision          0.131     0.131     0.131     0.131     0.131     0.131     0.131     0.131     0.131     0.131     0.131     0.131

2SmPitch
  mean             213.279  123.5147  189.2421  123.0119  171.0176  176.2127   76.5201   14.1437  156.3345   196.165   229.966  172.2645
  std. dev.       109.7994  112.8412   88.6477  104.4081   78.8205  107.2818  103.9302   50.9153  112.6809   90.4791   83.6261   105.134
  weight sum          9585      2963      4621       864      2382      4463      5808     23724      1948       904      1386      2485
  precision         0.1312    0.1312    0.1312    0.1312    0.1312    0.1312    0.1312    0.1312    0.1312    0.1312    0.1312    0.1312

2Melogram(st)
  mean             51.3572    33.408   50.6147   37.2513   48.6212   46.5702   22.3776    4.6712   41.7583   51.6188   54.4863   45.9716
  std. dev.        16.8758   26.8176   15.1287    24.928   16.0378    20.439   26.9577   15.2685   24.1126   13.9964   13.4335   21.1087
  weight sum          9585      2963      4621       864      2382      4463      5808     23724      1948       904      1386      2485
  precision         0.0252    0.0252    0.0252    0.0252    0.0252    0.0252    0.0252    0.0252    0.0252    0.0252    0.0252    0.0252

2ZCross
  mean              6.9994    3.0261    4.9156    1.9401    3.5967    4.0424     2.824    0.2221    2.4227     3.706    3.8515    3.1411
  std. dev.         4.6018    3.6698    3.2034    2.0364    3.1513    2.9091    5.3166    1.0405    2.0849    2.1752    2.7932    5.0092
  weight sum          9585      2963      4621       864      2382      4463      5808     23724      1948       904      1386      2485
  precision         1.1633    1.1633    1.1633    1.1633    1.1633    1.1633    1.1633    1.1633    1.1633    1.1633    1.1633    1.1633

2F1(Hz)
  mean             683.313  330.5602  466.9426  381.3156  363.5983  486.8876  245.2618   50.9748  372.4935  504.4024  501.4313  426.9662
  std. dev.       268.9093   273.463  141.0764  276.5899  141.2908  224.2029  288.7902  162.6166  235.5015  171.5549  304.2361  202.3611
  weight sum          9585      2963      4621       864      2382      4463      5808     23724      1948       904      1386      2485
  precision         0.3642    0.3642    0.3642    0.3642    0.3642    0.3642    0.3642    0.3642    0.3642    0.3642    0.3642    0.3642

2F2(Hz)
  mean           1445.9618 1114.7351 1800.7234 1172.6362 1991.3969 1143.6165  752.3874  159.7012 1312.5688 1445.0542 1063.4653 1456.7438
  std. dev.       449.7706  872.1813  507.5736  779.2046  651.9928  529.3781  855.1375  504.4931  745.4148   394.779  414.3404  625.6337
  weight sum          9585      2963      4621       864      2382      4463      5808     23724      1948       904      1386      2485
  precision         0.4431    0.4431    0.4431    0.4431    0.4431    0.4431    0.4431    0.4431    0.4431    0.4431    0.4431    0.4431

2F3(Hz)
  mean           2661.7097 1858.6091  2638.722 1994.0357 2676.1136 2509.8227 1289.0994   272.306 2208.9124 2793.5531  2701.015 2512.9885
  std. dev.       804.8708 1432.7645  758.2975 1314.2962  900.3451 1013.4676 1455.0706  845.5117 1199.4463  675.3818  745.1651 1014.0342
  weight sum          9585      2963      4621       864      2382      4463      5808     23724      1948       904      1386      2485
  precision         0.6602    0.6602    0.6602    0.6602    0.6602    0.6602    0.6602    0.6602    0.6602    0.6602    0.6602    0.6602

2F4(Hz)
  mean           3086.6146 2119.6964  3179.034 2385.6763 3179.5458  2888.156 1480.8848  327.6383 2654.3032 3237.6627 3093.8479 2886.6057
  std. dev.       919.3099 1620.6194  877.8457 1536.6667  1026.953 1148.0627 1660.8423 1014.9346 1409.2849  758.6904  750.1771 1167.5753
  weight sum          9585      2963      4621       864      2382      4463      5808     23724      1948       904      1386      2485
  precision         0.6775    0.6775    0.6775    0.6775    0.6775    0.6775    0.6775    0.6775    0.6775    0.6775    0.6775    0.6775





=== Stratified cross-validation ===

Correctly Classified Instances       31507               51.5384 %
Incorrectly Classified Instances     29626               48.4616 %
Kappa statistic                          0.3911
K&B Relative Info Score            2265642.053  %
K&B Information Score                65027.3255 bits      1.0637 bits/instance
Class complexity | order 0          175445.1587 bits      2.8699 bits/instance
Class complexity | scheme          1063368.0077 bits     17.3943 bits/instance
Complexity improvement     (Sf)    -887922.8491 bits    -14.5244 bits/instance
Mean absolute error                      0.0819
Root mean squared error                  0.2576
Relative absolute error                 61.6161 %
Root relative squared error             99.9475 %
Coverage of cases (0.95 level)          60.3177 %
Mean rel. region size (0.95 level)      14.8755 %
Total Number of Instances            61133     


=== Detailed Accuracy By Class ===

                 TP Rate  FP Rate  Precision  Recall   F-Measure  MCC      ROC Area  PRC Area  Class
                 0,464    0,040    0,682      0,464    0,552      0,499    0,883     0,621     A
                 0,023    0,007    0,137      0,023    0,039      0,037    0,691     0,084     LGJKC
                 0,575    0,086    0,353      0,575    0,437      0,393    0,864     0,398     E
                 0,058    0,026    0,031      0,058    0,041      0,024    0,734     0,030     FV
                 0,358    0,036    0,285      0,358    0,318      0,289    0,860     0,264     I
                 0,005    0,003    0,116      0,005    0,010      0,009    0,779     0,182     O
                 0,177    0,027    0,408      0,177    0,247      0,221    0,796     0,301     SNRTY
                 0,895    0,138    0,804      0,895    0,847      0,745    0,951     0,945     0
                 0,007    0,005    0,046      0,007    0,012      0,005    0,723     0,057     BMP
                 0,571    0,165    0,049      0,571    0,091      0,130    0,815     0,047     DZ
                 0,417    0,020    0,322      0,417    0,364      0,350    0,871     0,350     U
                 0,011    0,005    0,082      0,011    0,020      0,016    0,725     0,072     SNRTXY
Weighted Avg.    0,515    0,075    0,524      0,515    0,498      0,443    0,867     0,564     


=== Confusion Matrix ===

     a     b     c     d     e     f     g     h     i     j     k     l   <-- classified as
  4450    89  1321   222   186    48   179   493    35  2263   275    24 |     a = A
   162    67   407    97   224    30   314   776    27   730    70    59 |     b = LGJKC
   433    59  2658   100   277     5    94   178    42   720    44    11 |     c = E
    60     8    78    50    89     2    55   206     4   297     6     9 |     d = FV
   121    50   967    62   853     0    82   126    23    90     5     3 |     e = I
   485    51   848   178    40    23   117   475    26  1701   494    25 |     f = O
   220    78   272   331   305    34  1027  2319    62   995    58   107 |     g = SNRTY
    64    42   314   287   360    34   328 21244    30   900    73    48 |     h = 0
   124    18   229    82   294    10    97   347    13   620    99    15 |     i = BMP
    94     0   126    18    46     0    15    34     5   516    39    11 |     j = DZ
   128    24   110    35    46     9    33    26    13   384   578     0 |     k = U
   183     4   207   130   270     3   174   192     4  1238    52    28 |     l = SNRTXY

=== Percent Confusion Matrix ===
a	b	c	d	e	f	g	h	i	j	k	l	
46.43	0.93	13.78	2.32	1.94	0.5	1.87	5.14	0.37	23.61	2.87	0.25	 a = A
5.47	2.26	13.74	3.27	7.56	1.01	10.6	26.19	0.91	24.64	2.36	1.99	 b = LGJKC
9.37	1.28	57.52	2.16	5.99	0.11	2.03	3.85	0.91	15.58	0.95	0.24	 c = E
6.94	0.93	9.03	5.79	10.3	0.23	6.37	23.84	0.46	34.38	0.69	1.04	 d = FV
5.08	2.1	40.6	2.6	35.81	0.0	3.44	5.29	0.97	3.78	0.21	0.13	 e = I
10.87	1.14	19.0	3.99	0.9	0.52	2.62	10.64	0.58	38.11	11.07	0.56	 f = O
3.79	1.34	4.68	5.7	5.25	0.59	17.68	39.93	1.07	17.13	1.0	1.84	 g = SNRTY
0.27	0.18	1.32	1.21	1.52	0.14	1.38	89.55	0.13	3.79	0.31	0.2	 h = 0
6.37	0.92	11.76	4.21	15.09	0.51	4.98	17.81	0.67	31.83	5.08	0.77	 i = BMP
10.4	0.0	13.94	1.99	5.09	0.0	1.66	3.76	0.55	57.08	4.31	1.22	 j = DZ
9.24	1.73	7.94	2.53	3.32	0.65	2.38	1.88	0.94	27.71	41.7	0.0	 k = U
7.36	0.16	8.33	5.23	10.87	0.12	7.0	7.73	0.16	49.82	2.09	1.13	 l = SNRTXY
