Timestamp:2014-12-07-10:59:58
Inventario:I2
Intervalo:6ms
Ngramas:3
Clasificador:NaiveBayes
Relation Name:  I2-6ms-3gramas
Num Instances:  30451
Num Attributes: 31

     Name                      Type  Nom  Int Real     Missing      Unique  Dist
   1 0Int(dB)                   Num   0%  10%  90%     0 /  0%     2 /  0%   776 
   2 0Pitch(Hz)                 Num   0%  51%  49%     0 /  0%   750 /  2%  3423 
   3 0RawPitch                  Num   0%  55%  45%     0 /  0%   699 /  2%  3337 
   4 0SmPitch                   Num   0%  53%  47%     0 /  0%   748 /  2%  3382 
   5 0Melogram(st)              Num   0%  48%  52%     0 /  0%   413 /  1%  3048 
   6 0ZCross                    Num   0% 100%   0%     0 /  0%     8 /  0%    47 
   7 0F1(Hz)                    Num   0%  52%  48%     0 /  0%  1130 /  4%  4802 
   8 0F2(Hz)                    Num   0%  51%  49%     0 /  0%  2251 /  7%  6691 
   9 0F3(Hz)                    Num   0%  52%  48%     0 /  0%  1969 /  6%  6255 
  10 0F4(Hz)                    Num   0%  52%  48%     0 /  0%  1938 /  6%  6099 
  11 1Int(dB)                   Num   0%  10%  90%     0 /  0%     2 /  0%   776 
  12 1Pitch(Hz)                 Num   0%  51%  49%     0 /  0%   750 /  2%  3423 
  13 1RawPitch                  Num   0%  55%  45%     0 /  0%   699 /  2%  3337 
  14 1SmPitch                   Num   0%  53%  47%     0 /  0%   748 /  2%  3382 
  15 1Melogram(st)              Num   0%  48%  52%     0 /  0%   413 /  1%  3048 
  16 1ZCross                    Num   0% 100%   0%     0 /  0%     8 /  0%    47 
  17 1F1(Hz)                    Num   0%  52%  48%     0 /  0%  1130 /  4%  4802 
  18 1F2(Hz)                    Num   0%  51%  49%     0 /  0%  2251 /  7%  6691 
  19 1F3(Hz)                    Num   0%  52%  48%     0 /  0%  1969 /  6%  6255 
  20 1F4(Hz)                    Num   0%  52%  48%     0 /  0%  1938 /  6%  6099 
  21 2Int(dB)                   Num   0%  10%  90%     0 /  0%     3 /  0%   777 
  22 2Pitch(Hz)                 Num   0%  51%  49%     0 /  0%   750 /  2%  3423 
  23 2RawPitch                  Num   0%  55%  45%     0 /  0%   699 /  2%  3337 
  24 2SmPitch                   Num   0%  53%  47%     0 /  0%   748 /  2%  3382 
  25 2Melogram(st)              Num   0%  48%  52%     0 /  0%   413 /  1%  3048 
  26 2ZCross                    Num   0% 100%   0%     0 /  0%     8 /  0%    47 
  27 2F1(Hz)                    Num   0%  52%  48%     0 /  0%  1130 /  4%  4802 
  28 2F2(Hz)                    Num   0%  51%  49%     0 /  0%  2251 /  7%  6691 
  29 2F3(Hz)                    Num   0%  52%  48%     0 /  0%  1969 /  6%  6255 
  30 2F4(Hz)                    Num   0%  52%  48%     0 /  0%  1938 /  6%  6099 
  31 class                      Nom 100%   0%   0%     0 /  0%     0 /  0%    12 


Naive Bayes Classifier

                    Class
Attribute               A     LGJKC         E        FV         I         O     SNRTY         0       BMP        DZ         U    SNRTXY
                   (0.16)    (0.05)    (0.08)    (0.01)    (0.04)    (0.07)     (0.1)    (0.38)    (0.03)    (0.01)    (0.02)    (0.04)
========================================================================================================================================
0Int(dB)
  mean             -4.5987  -16.3618   -5.8995  -14.5611   -9.5588   -8.5713  -19.5944   -48.557  -12.9966   -8.2731    -6.419   -9.9112
  std. dev.        10.0572   12.4852     8.786    9.4214    8.7617   12.1108    10.125   16.0879   11.3571    6.6541    9.2206    8.3856
  weight sum          4825      1495      2347       430      1206      2251      2912     11609       980       453       697      1246
  precision         0.1001    0.1001    0.1001    0.1001    0.1001    0.1001    0.1001    0.1001    0.1001    0.1001    0.1001    0.1001

0Pitch(Hz)
  mean            213.9858  126.3582  185.9675  138.3865   168.922  178.5044   90.3578   16.3299  162.1914  197.3077  225.2933  180.6989
  std. dev.       108.6894  111.2021   90.3606  108.2488   80.1793  106.4846   106.959   55.6006  111.4338    88.379   91.5415   100.486
  weight sum          4825      1495      2347       430      1206      2251      2912     11609       980       453       697      1246
  precision         0.1457    0.1457    0.1457    0.1457    0.1457    0.1457    0.1457    0.1457    0.1457    0.1457    0.1457    0.1457

0RawPitch
  mean            203.4289  107.9608  181.6948  114.6567   160.411  171.1249   72.1285   13.5133  148.0422  192.1779  215.3066  167.8129
  std. dev.       114.2033  108.7309   96.2139  105.4998   84.8193  112.4932  102.1251   50.0924  115.6256   96.4293   98.6174  109.0519
  weight sum          4825      1495      2347       430      1206      2251      2912     11609       980       453       697      1246
  precision         0.1486    0.1486    0.1486    0.1486    0.1486    0.1486    0.1486    0.1486    0.1486    0.1486    0.1486    0.1486

0SmPitch
  mean            211.6839  118.4424  183.5596  128.8353  166.5988  175.9059   83.5013   14.8061  158.6549  196.3238  223.7844  178.2525
  std. dev.       110.6731  112.0733   92.3488  105.8213   81.8868  108.6981  105.2338   51.7803   113.938   90.1643   92.4136  102.1592
  weight sum          4825      1495      2347       430      1206      2251      2912     11609       980       453       697      1246
  precision         0.1475    0.1475    0.1475    0.1475    0.1475    0.1475    0.1475    0.1475    0.1475    0.1475    0.1475    0.1475

0Melogram(st)
  mean             51.0457   32.1702   49.6417   39.2686   47.3894   46.4994   24.7586    4.8244   42.2976   51.8281   52.9038   47.0089
  std. dev.        17.3442   26.8419   16.5413   24.0506   17.6115   20.6431   27.1749   15.4707   23.9194    13.567    16.369     20.22
  weight sum          4825      1495      2347       430      1206      2251      2912     11609       980       453       697      1246
  precision         0.0271    0.0271    0.0271    0.0271    0.0271    0.0271    0.0271    0.0271    0.0271    0.0271    0.0271    0.0271

0ZCross
  mean              6.8934    2.7946    4.8687    2.0038    3.5256    3.9353    2.7856    0.2426    2.3634     3.514    3.6666    3.3286
  std. dev.         4.5993    3.3599    3.3612    2.0839    3.3498     3.141    5.1116    1.1445    2.1945    2.1397    2.8883     4.662
  weight sum          4825      1495      2347       430      1206      2251      2912     11609       980       453       697      1246
  precision         1.1739    1.1739    1.1739    1.1739    1.1739    1.1739    1.1739    1.1739    1.1739    1.1739    1.1739    1.1739

0F1(Hz)
  mean            658.1625  339.5717  448.1303  421.3901  348.8664  467.9136  289.9277   53.9321  387.5882  500.2076  478.0605   459.862
  std. dev.       286.2026   275.456  167.3815  272.3544  162.2662  235.6843  297.1682  168.2103  237.6824  169.1352   324.529  200.5848
  weight sum          4825      1495      2347       430      1206      2251      2912     11609       980       453       697      1246
  precision         0.3628    0.3628    0.3628    0.3628    0.3628    0.3628    0.3628    0.3628    0.3628    0.3628    0.3628    0.3628

0F2(Hz)
  mean           1419.2622 1144.2017 1706.5198 1239.1028 1853.8785 1129.6245  878.9046  166.3315 1348.6957 1446.9631 1009.2259 1504.3129
  std. dev.       497.7941  878.3276  612.0386  748.4208  761.7664  569.4748  865.0862  512.7304  740.2835  383.2018  490.7397  591.2449
  weight sum          4825      1495      2347       430      1206      2251      2912     11609       980       453       697      1246
  precision         0.4452    0.4452    0.4452    0.4452    0.4452    0.4452    0.4452    0.4452    0.4452    0.4452    0.4452    0.4452

0F3(Hz)
  mean           2605.2622 1880.2332 2528.8267 2115.5779 2527.1222  2440.143 1511.1536  285.4193  2271.328 2795.3227 2534.3382 2589.1837
  std. dev.       881.9027 1420.2481   904.012 1263.4416 1049.8927 1080.4541 1470.6773  863.1325 1184.8692  639.5707  971.1663  942.4543
  weight sum          4825      1495      2347       430      1206      2251      2912     11609       980       453       697      1246
  precision         0.6587    0.6587    0.6587    0.6587    0.6587    0.6587    0.6587    0.6587    0.6587    0.6587    0.6587    0.6587

0F4(Hz)
  mean           3024.9811 2145.5262  3055.702 2508.5338 3015.9411 2810.7638 1730.2026  343.0735 2699.0169 3253.5631 2907.9441 2965.4012
  std. dev.      1010.9519 1608.9438 1062.5316 1464.9089 1214.2293 1230.5926 1671.0286 1035.4709 1377.3282  718.6748 1043.9573 1077.2017
  weight sum          4825      1495      2347       430      1206      2251      2912     11609       980       453       697      1246
  precision         0.6801    0.6801    0.6801    0.6801    0.6801    0.6801    0.6801    0.6801    0.6801    0.6801    0.6801    0.6801

1Int(dB)
  mean             -4.3897  -15.8985   -5.4538  -14.9101   -9.0975     -8.32  -19.8827  -48.8223   -12.808   -8.3777   -5.7217  -10.2662
  std. dev.         9.7701   11.6832    8.3541     9.056    8.4757   12.1084    9.6412   15.7034   10.9801    6.7523    8.3788    8.3511
  weight sum          4825      1495      2347       430      1206      2251      2912     11609       980       453       697      1246
  precision         0.1001    0.1001    0.1001    0.1001    0.1001    0.1001    0.1001    0.1001    0.1001    0.1001    0.1001    0.1001

1Pitch(Hz)
  mean            215.1858  129.3649  188.9309  135.5009  172.4627  179.6002   86.8917   15.2638  162.0524  196.8696  229.1165  178.6153
  std. dev.       107.7136  110.8074   88.8484  107.5102   77.3033  105.0982  106.2567   53.8922  110.5525   89.1614    86.113  101.4837
  weight sum          4825      1495      2347       430      1206      2251      2912     11609       980       453       697      1246
  precision         0.1457    0.1457    0.1457    0.1457    0.1457    0.1457    0.1457    0.1457    0.1457    0.1457    0.1457    0.1457

1RawPitch
  mean            204.8304  108.6374  185.2813   111.142  164.6635  173.0353   68.0383   12.5253  147.7901  192.0542  219.1052   165.347
  std. dev.       113.2593  108.4392   94.3657   103.983   82.3462  111.2194  100.1913   48.0516  115.4056   96.8511   94.0431  110.4673
  weight sum          4825      1495      2347       430      1206      2251      2912     11609       980       453       697      1246
  precision         0.1486    0.1486    0.1486    0.1486    0.1486    0.1486    0.1486    0.1486    0.1486    0.1486    0.1486    0.1486

1SmPitch
  mean            213.0105  120.4571  187.4191  126.3464   169.864  177.2873   79.8684   13.7642  157.4726   196.136  227.6752  175.6511
  std. dev.       109.5872  112.0198   90.1622  104.6501   79.4786  107.1683  104.3365   49.9351  113.6823   90.5134   87.0875  103.3145
  weight sum          4825      1495      2347       430      1206      2251      2912     11609       980       453       697      1246
  precision         0.1475    0.1475    0.1475    0.1475    0.1475    0.1475    0.1475    0.1475    0.1475    0.1475    0.1475    0.1475

1Melogram(st)
  mean             51.4062   32.7705    50.443    38.768   48.4372   46.7991   23.4771    4.5871   42.0662   51.7615   54.1423     46.72
  std. dev.        16.8175   26.7824   15.4134   24.2654   16.3134   20.2997   27.0502   15.1428   23.9804      13.6    14.241   20.4641
  weight sum          4825      1495      2347       430      1206      2251      2912     11609       980       453       697      1246
  precision         0.0271    0.0271    0.0271    0.0271    0.0271    0.0271    0.0271    0.0271    0.0271    0.0271    0.0271    0.0271

1ZCross
  mean              6.9598    2.8967    4.9057    1.9165    3.5597    3.9697    2.7562    0.2049    2.3311    3.5269    3.7441    3.2118
  std. dev.         4.5644    3.5454    3.2087    2.0253    3.2377    2.9459    5.1961    0.9759    2.0986    2.1532    2.8259    4.8566
  weight sum          4825      1495      2347       430      1206      2251      2912     11609       980       453       697      1246
  precision         1.1739    1.1739    1.1739    1.1739    1.1739    1.1739    1.1739    1.1739    1.1739    1.1739    1.1739    1.1739

1F1(Hz)
  mean            671.8022  335.0167  458.4701  405.4793  358.3341  479.3066  270.0199   50.4031  382.1121  501.7228  490.8774  444.7698
  std. dev.       275.7695  274.1106  153.5049  275.9084  149.9822  228.1739  294.3178   162.571  236.5551  169.8665  313.8193  200.7989
  weight sum          4825      1495      2347       430      1206      2251      2912     11609       980       453       697      1246
  precision         0.3628    0.3628    0.3628    0.3628    0.3628    0.3628    0.3628    0.3628    0.3628    0.3628    0.3628    0.3628

1F2(Hz)
  mean           1436.7855 1131.8837 1756.5682  1210.404 1934.2548 1142.3274  822.7494  156.3707 1334.4278  1445.933 1039.7614 1484.6813
  std. dev.       469.7671    875.83  558.7593  760.5497    698.11  545.8877  863.1665  498.6315  740.0834  387.8544  453.9752  605.2985
  weight sum          4825      1495      2347       430      1206      2251      2912     11609       980       453       697      1246
  precision         0.4452    0.4452    0.4452    0.4452    0.4452    0.4452    0.4452    0.4452    0.4452    0.4452    0.4452    0.4452

1F3(Hz)
  mean           2640.8558 1869.8757 2589.9599 2065.6755  2617.135   2486.42 1412.3534  267.8531 2248.5273 2792.7197 2624.1187 2558.3474
  std. dev.       835.2949 1424.9403  828.9033 1286.9009  961.8845 1037.8263 1467.8279  838.7348 1187.9068  652.3593   862.036  972.3374
  weight sum          4825      1495      2347       430      1206      2251      2912     11609       980       453       697      1246
  precision         0.6587    0.6587    0.6587    0.6587    0.6587    0.6587    0.6587    0.6587    0.6587    0.6587    0.6587    0.6587

1F4(Hz)
  mean           3063.4806 2134.6394 3123.7667 2456.6943 3116.8532 2862.0839 1619.7766  322.5326 2685.0292 3250.4045 3008.5041 2934.0257
  std. dev.       955.4282 1614.2076   967.012 1495.5033 1104.1679 1178.6146 1671.5497 1007.8515 1387.1463  735.0539  904.6428 1115.4508
  weight sum          4825      1495      2347       430      1206      2251      2912     11609       980       453       697      1246
  precision         0.6801    0.6801    0.6801    0.6801    0.6801    0.6801    0.6801    0.6801    0.6801    0.6801    0.6801    0.6801

2Int(dB)
  mean             -4.3746  -15.1801   -5.3083  -14.9621   -8.8383   -8.2927  -19.7992  -49.0435  -12.3369   -8.2512   -5.2124   -10.604
  std. dev.         9.6808   10.9367    8.1563    8.8347    8.4087   12.1905    9.4462   15.4144    10.602    6.8533    7.6533    8.3777
  weight sum          4825      1495      2347       430      1206      2251      2912     11609       980       453       697      1246
  precision         0.1027    0.1027    0.1027    0.1027    0.1027    0.1027    0.1027    0.1027    0.1027    0.1027    0.1027    0.1027

2Pitch(Hz)
  mean            215.2971  135.4825  191.0581  133.3692  173.8339  178.5747    86.664   14.1324  163.7124  196.5351  230.7901  177.0522
  std. dev.       107.7031  110.3961   87.4612  106.8281   75.6506  104.7438   106.604    52.013  108.8774   89.7942   82.8574  102.1951
  weight sum          4825      1495      2347       430      1206      2251      2912     11609       980       453       697      1246
  precision         0.1457    0.1457    0.1457    0.1457    0.1457    0.1457    0.1457    0.1457    0.1457    0.1457    0.1457    0.1457

2RawPitch
  mean            204.9722  112.5458  186.7023  109.9149  166.6698  172.5426   67.6665   11.6302  150.0446  191.2433  221.3767  163.2624
  std. dev.       113.3158  108.6812   93.4491  102.8897   81.1132  110.6448  100.0083   46.5627   114.114   96.8178   91.1707    111.26
  weight sum          4825      1495      2347       430      1206      2251      2912     11609       980       453       697      1246
  precision         0.1486    0.1486    0.1486    0.1486    0.1486    0.1486    0.1486    0.1486    0.1486    0.1486    0.1486    0.1486

2SmPitch
  mean            213.2402   125.785  189.6338   124.407  171.4037  176.5059   79.3932    12.707  158.6198  196.0253  229.7721  173.7136
  std. dev.       109.3851  112.2615   88.7774   103.769   78.1033   106.636  104.4918   48.0587  112.4568   90.7394   83.4441  104.1861
  weight sum          4825      1495      2347       430      1206      2251      2912     11609       980       453       697      1246
  precision         0.1475    0.1475    0.1475    0.1475    0.1475    0.1475    0.1475    0.1475    0.1475    0.1475    0.1475    0.1475

2Melogram(st)
  mean              51.533   34.0249   50.8127   38.4205   48.9436   46.6912   23.2972     4.292    42.399   51.7323   54.8522   46.3742
  std. dev.        16.5965    26.633   14.8245   24.4262   15.5254   20.3122   27.0944   14.7028   23.6994   13.6209   12.6632   20.7876
  weight sum          4825      1495      2347       430      1206      2251      2912     11609       980       453       697      1246
  precision         0.0271    0.0271    0.0271    0.0271    0.0271    0.0271    0.0271    0.0271    0.0271    0.0271    0.0271    0.0271

2ZCross
  mean              6.9593    2.9949    4.8852    1.9001    3.5568    3.9781    2.7735    0.1869    2.4041    3.6047    3.8114    3.1317
  std. dev.         4.5717    3.5547    3.1792    2.0075    3.1167    2.8849    5.2227     0.942    2.0753    2.1402    2.7838    4.9422
  weight sum          4825      1495      2347       430      1206      2251      2912     11609       980       453       697      1246
  precision         1.1739    1.1739    1.1739    1.1739    1.1739    1.1739    1.1739    1.1739    1.1739    1.1739    1.1739    1.1739

2F1(Hz)
  mean            682.1071  338.0269   466.462  391.2913  366.1781  486.7294  255.3971   46.8644  381.3506  503.7105  499.9719  432.0277
  std. dev.       268.0102  271.8139  141.9729  276.1702  138.5016  223.3891  290.5344  156.9447   233.551  170.1733  304.4022  199.9502
  weight sum          4825      1495      2347       430      1206      2251      2912     11609       980       453       697      1246
  precision         0.3628    0.3628    0.3628    0.3628    0.3628    0.3628    0.3628    0.3628    0.3628    0.3628    0.3628    0.3628

2F2(Hz)
  mean           1448.2374 1139.7769 1796.4609 1193.1191 2002.2125  1145.619  783.6108  145.6726 1332.6509 1445.2293 1063.4579 1469.5062
  std. dev.       448.6029  866.5606  511.4411  771.0706  633.8216   528.768  859.5135  482.7197  730.2324    391.85  420.6329  614.4609
  weight sum          4825      1495      2347       430      1206      2251      2912     11609       980       453       697      1246
  precision         0.4452    0.4452    0.4452    0.4452    0.4452    0.4452    0.4452    0.4452    0.4452    0.4452    0.4452    0.4452

2F3(Hz)
  mean           2665.0519 1894.4352 2636.0758 2027.9477 2693.6179  2513.778 1343.1362  249.4006 2248.6819 2791.4444 2692.0225 2533.9315
  std. dev.       801.5039 1417.7185  763.9923 1301.1049  876.6153 1011.4708 1461.9806  812.1111 1174.9913  665.7853   759.659  992.8328
  weight sum          4825      1495      2347       430      1206      2251      2912     11609       980       453       697      1246
  precision         0.6587    0.6587    0.6587    0.6587    0.6587    0.6587    0.6587    0.6587    0.6587    0.6587    0.6587    0.6587

2F4(Hz)
  mean            3089.112    2167.4 3175.4825 2421.4135 3200.0296 2890.9482 1542.3552  300.6818 2697.4569 3246.0224 3085.5469 2910.8191
  std. dev.       915.0775 1608.5329  884.6328 1516.9857  997.3182 1145.4649 1668.0224  976.9137 1376.7352  750.8035  770.8999 1142.9278
  weight sum          4825      1495      2347       430      1206      2251      2912     11609       980       453       697      1246
  precision         0.6801    0.6801    0.6801    0.6801    0.6801    0.6801    0.6801    0.6801    0.6801    0.6801    0.6801    0.6801





=== Stratified cross-validation ===

Correctly Classified Instances       15476               50.8226 %
Incorrectly Classified Instances     14975               49.1774 %
Kappa statistic                          0.3872
K&B Relative Info Score            1111470.6295 %
K&B Information Score                32085.2571 bits      1.0537 bits/instance
Class complexity | order 0           87886.9852 bits      2.8862 bits/instance
Class complexity | scheme           519896.9861 bits     17.0732 bits/instance
Complexity improvement     (Sf)    -432010.0009 bits    -14.1871 bits/instance
Mean absolute error                      0.083 
Root mean squared error                  0.261 
Relative absolute error                 62.125  %
Root relative squared error            100.9913 %
Coverage of cases (0.95 level)          59.9094 %
Mean rel. region size (0.95 level)      14.7373 %
Total Number of Instances            30451     


=== Detailed Accuracy By Class ===

                 TP Rate  FP Rate  Precision  Recall   F-Measure  MCC      ROC Area  PRC Area  Class
                 0,478    0,046    0,662      0,478    0,555      0,495    0,876     0,612     A
                 0,022    0,009    0,117      0,022    0,037      0,030    0,691     0,084     LGJKC
                 0,452    0,059    0,389      0,452    0,419      0,367    0,854     0,378     E
                 0,063    0,023    0,037      0,063    0,047      0,031    0,739     0,031     FV
                 0,377    0,035    0,307      0,377    0,338      0,310    0,860     0,279     I
                 0,006    0,002    0,197      0,006    0,012      0,023    0,774     0,181     O
                 0,195    0,034    0,378      0,195    0,257      0,219    0,779     0,290     SNRTY
                 0,900    0,128    0,813      0,900    0,854      0,759    0,954     0,943     0
                 0,007    0,005    0,047      0,007    0,012      0,006    0,723     0,058     BMP
                 0,660    0,201    0,047      0,660    0,088      0,137    0,819     0,051     DZ
                 0,357    0,013    0,393      0,357    0,374      0,361    0,864     0,311     U
                 0,009    0,007    0,054      0,009    0,015      0,006    0,713     0,069     SNRTXY
Weighted Avg.    0,508    0,070    0,527      0,508    0,498      0,444    0,863     0,555     


=== Confusion Matrix ===

     a     b     c     d     e     f     g     h     i     j     k     l   <-- classified as
  2304    52   509   107   100    19   126   234    14  1281    54    25 |     a = A
    93    33   112    40   105    14   185   370    13   480    22    28 |     b = LGJKC
   246    42  1062    44   147     1    65    89    23   594    27     7 |     c = E
    29     3    27    27    35     0    33    94     2   170     3     7 |     d = FV
    66    27   385    30   455     0    57    60    11   110     3     2 |     e = I
   289    38   273    84    28    14    78   233    11  1016   174    13 |     f = O
   134    43   109   153   152    11   568  1056    31   568    23    64 |     g = SNRTY
    29    21    83   125   161     6   188 10447    21   478    19    31 |     h = 0
    71     8    47    33   143     2    68   160     7   401    30    10 |     i = BMP
    55     0    31     8    17     0     8    16     4   299    11     4 |     j = DZ
    70    14    22    16    19     4    24    13     9   257   249     0 |     k = U
    95     2    67    57   122     0   103    80     2   689    18    11 |     l = SNRTXY

=== Percent Confusion Matrix ===
a	b	c	d	e	f	g	h	i	j	k	l	
47.75	1.08	10.55	2.22	2.07	0.39	2.61	4.85	0.29	26.55	1.12	0.52	 a = A
6.22	2.21	7.49	2.68	7.02	0.94	12.37	24.75	0.87	32.11	1.47	1.87	 b = LGJKC
10.48	1.79	45.25	1.87	6.26	0.04	2.77	3.79	0.98	25.31	1.15	0.3	 c = E
6.74	0.7	6.28	6.28	8.14	0.0	7.67	21.86	0.47	39.53	0.7	1.63	 d = FV
5.47	2.24	31.92	2.49	37.73	0.0	4.73	4.98	0.91	9.12	0.25	0.17	 e = I
12.84	1.69	12.13	3.73	1.24	0.62	3.47	10.35	0.49	45.14	7.73	0.58	 f = O
4.6	1.48	3.74	5.25	5.22	0.38	19.51	36.26	1.06	19.51	0.79	2.2	 g = SNRTY
0.25	0.18	0.71	1.08	1.39	0.05	1.62	89.99	0.18	4.12	0.16	0.27	 h = 0
7.24	0.82	4.8	3.37	14.59	0.2	6.94	16.33	0.71	40.92	3.06	1.02	 i = BMP
12.14	0.0	6.84	1.77	3.75	0.0	1.77	3.53	0.88	66.0	2.43	0.88	 j = DZ
10.04	2.01	3.16	2.3	2.73	0.57	3.44	1.87	1.29	36.87	35.72	0.0	 k = U
7.62	0.16	5.38	4.57	9.79	0.0	8.27	6.42	0.16	55.3	1.44	0.88	 l = SNRTXY
