Timestamp:2014-12-07-11:10:30
Inventario:I3
Intervalo:15ms
Ngramas:2
Clasificador:NaiveBayes
Relation Name:  I3-15ms-2gramas
Num Instances:  12188
Num Attributes: 21

     Name                      Type  Nom  Int Real     Missing      Unique  Dist
   1 0Int(dB)                   Num   0%  10%  90%     0 /  0%    10 /  0%   768 
   2 0Pitch(Hz)                 Num   0%  50%  50%     0 /  0%   940 /  8%  2714 
   3 0RawPitch                  Num   0%  53%  47%     0 /  0%   980 /  8%  2609 
   4 0SmPitch                   Num   0%  51%  49%     0 /  0%   957 /  8%  2691 
   5 0Melogram(st)              Num   0%  46%  54%     0 /  0%   837 /  7%  2573 
   6 0ZCross                    Num   0% 100%   0%     0 /  0%    10 /  0%    40 
   7 0F1(Hz)                    Num   0%  50%  50%     0 /  0%  2281 / 19%  3977 
   8 0F2(Hz)                    Num   0%  50%  50%     0 /  0%  3848 / 32%  5158 
   9 0F3(Hz)                    Num   0%  50%  50%     0 /  0%  3419 / 28%  4850 
  10 0F4(Hz)                    Num   0%  50%  50%     0 /  0%  3319 / 27%  4764 
  11 1Int(dB)                   Num   0%  10%  90%     0 /  0%    10 /  0%   768 
  12 1Pitch(Hz)                 Num   0%  50%  50%     0 /  0%   941 /  8%  2715 
  13 1RawPitch                  Num   0%  53%  47%     0 /  0%   979 /  8%  2609 
  14 1SmPitch                   Num   0%  51%  49%     0 /  0%   957 /  8%  2691 
  15 1Melogram(st)              Num   0%  46%  54%     0 /  0%   838 /  7%  2574 
  16 1ZCross                    Num   0% 100%   0%     0 /  0%    10 /  0%    40 
  17 1F1(Hz)                    Num   0%  50%  50%     0 /  0%  2281 / 19%  3977 
  18 1F2(Hz)                    Num   0%  50%  50%     0 /  0%  3848 / 32%  5158 
  19 1F3(Hz)                    Num   0%  50%  50%     0 /  0%  3419 / 28%  4850 
  20 1F4(Hz)                    Num   0%  50%  50%     0 /  0%  3319 / 27%  4764 
  21 class                      Nom 100%   0%   0%     0 /  0%     0 /  0%    11 


Naive Bayes Classifier

                    Class
Attribute               A         E CGJLNQSRT        FV         I         O         0       BMP         U        DZ         D
                   (0.16)    (0.08)    (0.19)    (0.01)    (0.04)    (0.08)    (0.36)    (0.03)    (0.02)       (0)    (0.01)
==============================================================================================================================
0Int(dB)
  mean             -5.1539   -6.5035  -16.0885  -13.4875  -10.0663   -8.9829  -50.0118  -12.6599   -7.1056  -26.9599   -7.4766
  std. dev.        10.4855    9.1484   11.4122    9.7297    8.7445   12.0392   14.6113   11.4853    9.4113    1.5758    6.0362
  weight sum          1989       971      2325       177       503       940      4417       399       285         5       177
  precision         0.1005    0.1005    0.1005    0.1005    0.1005    0.1005    0.1005    0.1005    0.1005    0.1005    0.1005

0Pitch(Hz)
  mean            211.6164  183.4717  130.3538   151.416  170.1872  178.6603   12.1245   169.157   222.874         0  200.0956
  std. dev.       108.5356   90.6248  111.3916  107.3372    80.118  105.9497    48.346  107.9278   96.7144    0.0305   81.8085
  weight sum          1989       971      2325       177       503       940      4417       399       285         5       177
  precision         0.1828    0.1828    0.1828    0.1828    0.1828    0.1828    0.1828    0.1828    0.1828    0.1828    0.1828

0RawPitch
  mean            201.8512  179.2232  113.8623  126.9095  160.6735  170.2865    9.8324  156.3794  214.8787         0  194.4351
  std. dev.       112.7474   94.3626  112.1512  104.8815   84.5436  111.2599   42.7162  112.6669  100.3251    0.0317   90.2297
  weight sum          1989       971      2325       177       503       940      4417       399       285         5       177
  precision           0.19      0.19      0.19      0.19      0.19      0.19      0.19      0.19      0.19      0.19      0.19

0SmPitch
  mean            209.8362  181.7709  123.6122  140.8054  167.6412  176.3381   10.5802  166.7235  222.2202         0  199.4185
  std. dev.       109.8749   92.0323  112.0208    105.09   82.3894  107.6496   43.6586  110.0496    96.345    0.0307   83.1714
  weight sum          1989       971      2325       177       503       940      4417       399       285         5       177
  precision         0.1841    0.1841    0.1841    0.1841    0.1841    0.1841    0.1841    0.1841    0.1841    0.1841    0.1841

0Melogram(st)
  mean              50.884    49.433   34.6443   42.1057   47.5936    46.689    3.8382   44.1038   51.8876   10.4247   53.0523
  std. dev.        17.3482   16.6562   26.5278   22.5058    17.453   20.4728   13.9973   22.6152   18.0236   20.8493   10.6126
  weight sum          1989       971      2325       177       503       940      4417       399       285         5       177
  precision         0.0321    0.0321    0.0321    0.0321    0.0321    0.0321    0.0321    0.0321    0.0321    0.0321    0.0321

0ZCross
  mean              6.5278      4.81    2.9198     2.392    3.4699    4.0255    0.1445    2.5119    3.6946         0    3.8123
  std. dev.         4.5495    3.2495    4.1802    2.3218    3.3736    3.4165    0.8058    2.4124    3.0049    0.1838    2.0932
  weight sum          1989       971      2325       177       503       940      4417       399       285         5       177
  precision         1.1026    1.1026    1.1026    1.1026    1.1026    1.1026    1.1026    1.1026    1.1026    1.1026    1.1026

0F1(Hz)
  mean            646.5551  448.7867  369.9637   455.282  347.8788  460.8448   44.4946  407.9579  479.4518         0  510.9363
  std. dev.       288.6109  167.2097   277.083   257.875  165.9413  237.0895  156.5552  229.4716  324.8579     0.073  140.7084
  weight sum          1989       971      2325       177       503       940      4417       399       285         5       177
  precision          0.438     0.438     0.438     0.438     0.438     0.438     0.438     0.438     0.438     0.438     0.438

0F2(Hz)
  mean           1415.1431 1697.5367 1170.4997 1319.8463  1816.924 1136.7816  133.6062 1414.0003 1012.0156         0 1494.7328
  std. dev.       509.9497  606.8332  831.5724  697.8781  769.2522   583.467  464.3597  704.2441  498.3854    0.0963  278.4461
  weight sum          1989       971      2325       177       503       940      4417       399       285         5       177
  precision         0.5776    0.5776    0.5776    0.5776    0.5776    0.5776    0.5776    0.5776    0.5776    0.5776    0.5776

0F3(Hz)
  mean           2589.7585 2529.5236 1988.9896  2267.597 2497.6197 2424.0221  231.1113 2386.6296 2541.1097         0 2872.1485
  std. dev.       897.5737  892.9521 1381.3544 1184.2012 1063.4499 1093.5808  786.3537 1113.8644  990.0091    0.1416  378.7918
  weight sum          1989       971      2325       177       503       940      4417       399       285         5       177
  precision         0.8494    0.8494    0.8494    0.8494    0.8494    0.8494    0.8494    0.8494    0.8494    0.8494    0.8494

0F4(Hz)
  mean           3011.8957 3071.5364 2268.1145  2669.134 2991.7043 2797.3211   277.447 2816.2806 2890.5441         0 3364.2827
  std. dev.      1031.5735 1053.8859 1563.9172 1361.3599 1236.9689  1248.566  942.3686 1281.9024 1057.0684    0.1451  394.5159
  weight sum          1989       971      2325       177       503       940      4417       399       285         5       177
  precision         0.8707    0.8707    0.8707    0.8707    0.8707    0.8707    0.8707    0.8707    0.8707    0.8707    0.8707

1Int(dB)
  mean             -4.6544   -5.5049  -16.4721  -14.3263   -9.1576   -8.3852  -50.5579  -12.4692   -5.5692  -27.6233   -7.8361
  std. dev.         9.8223    8.2833   10.3148    8.9225    8.3719   12.0282   13.7499    10.584    7.6498    2.2988    6.2597
  weight sum          1989       971      2325       177       503       940      4417       399       285         5       177
  precision         0.1005    0.1005    0.1005    0.1005    0.1005    0.1005    0.1005    0.1005    0.1005    0.1005    0.1005

1Pitch(Hz)
  mean             214.311  189.9846  128.2916   145.764  175.8084  180.3637    9.3571  169.0755  231.3108         0  199.2072
  std. dev.       106.3793   87.3032  111.7964  105.9069   73.8088  102.9621    43.029  105.9927   84.4017    0.0305   83.2243
  weight sum          1989       971      2325       177       503       940      4417       399       285         5       177
  precision         0.1828    0.1828    0.1828    0.1828    0.1828    0.1828    0.1828    0.1828    0.1828    0.1828    0.1828

1RawPitch
  mean            204.6048  186.8578  109.7237  119.8712  168.3408  174.1912    7.3672   155.219  222.5963         0  194.0122
  std. dev.       110.9966   91.2535  111.3873  101.1981   79.5481  108.1025   36.8732  111.9695   90.9444    0.0317   91.7751
  weight sum          1989       971      2325       177       503       940      4417       399       285         5       177
  precision           0.19      0.19      0.19      0.19      0.19      0.19      0.19      0.19      0.19      0.19      0.19

1SmPitch
  mean            212.5582  188.6266  120.8933  135.2172  174.1996  178.2642    8.0627  164.9116  230.9021         0  198.3639
  std. dev.       107.6671   88.6539  112.3234  102.9917   75.9109  104.6347   38.1417  109.5012   84.0603    0.0307   84.9657
  weight sum          1989       971      2325       177       503       940      4417       399       285         5       177
  precision         0.1841    0.1841    0.1841    0.1841    0.1841    0.1841    0.1841    0.1841    0.1841    0.1841    0.1841

1Melogram(st)
  mean             51.7631   50.9897   33.8074   40.8426    49.433   47.3663    3.0759   44.2448   54.7393         0   52.6514
  std. dev.         15.996   14.4101   26.8445   23.1702   14.7392   19.6193   12.6713   22.4965   13.2895    0.0053   11.4213
  weight sum          1989       971      2325       177       503       940      4417       399       285         5       177
  precision         0.0321    0.0321    0.0321    0.0321    0.0321    0.0321    0.0321    0.0321    0.0321    0.0321    0.0321

1ZCross
  mean              6.6459    4.8701    2.8657    2.1179    3.5072    4.0889    0.1006    2.3765    3.8532         0    3.8434
  std. dev.         4.4895    2.9907    4.4033    2.1208    3.0758     2.998      0.68    2.1579    2.8492    0.1838    2.0838
  weight sum          1989       971      2325       177       503       940      4417       399       285         5       177
  precision         1.1026    1.1026    1.1026    1.1026    1.1026    1.1026    1.1026    1.1026    1.1026    1.1026    1.1026

1F1(Hz)
  mean            680.2157  469.1052  338.0257  420.1259  370.0223  487.7924   34.4817  391.9946  504.5577         0  515.2919
  std. dev.       263.0262  136.7924  274.7281  268.8685  133.9826   218.941  138.1328  227.7233   299.786     0.073  145.0907
  weight sum          1989       971      2325       177       503       940      4417       399       285         5       177
  precision          0.438     0.438     0.438     0.438     0.438     0.438     0.438     0.438     0.438     0.438     0.438

1F2(Hz)
  mean           1457.3331 1803.6497 1097.2142 1256.0162 2010.9745 1164.8777  104.1698 1374.8709 1075.9553         0 1484.1532
  std. dev.       439.9568  490.0179  848.1773  726.8151  600.2718   526.346   412.975  707.8796   411.661    0.0963  291.7647
  weight sum          1989       971      2325       177       503       940      4417       399       285         5       177
  precision         0.5776    0.5776    0.5776    0.5776    0.5776    0.5776    0.5776    0.5776    0.5776    0.5776    0.5776

1F3(Hz)
  mean            2676.475 2651.8402  1865.785 2156.9356 2714.2403 2529.7403  180.9842 2325.0319 2728.7599         0 2866.2889
  std. dev.       781.3816  731.0473 1416.2095 1243.2456  831.8369  990.6689  703.2706 1133.6314   731.591    0.1416  431.5143
  weight sum          1989       971      2325       177       503       940      4417       399       285         5       177
  precision         0.8494    0.8494    0.8494    0.8494    0.8494    0.8494    0.8494    0.8494    0.8494    0.8494    0.8494

1F4(Hz)
  mean            3105.401 3206.8695 2136.3708 2560.0986 3233.1412 2916.3463  217.2523 2772.6162 3100.5588         0 3354.8725
  std. dev.       892.4908  845.6004 1612.2774 1438.2149  946.7373 1123.3047  842.5928 1317.5612  725.9921    0.1451  465.2171
  weight sum          1989       971      2325       177       503       940      4417       399       285         5       177
  precision         0.8707    0.8707    0.8707    0.8707    0.8707    0.8707    0.8707    0.8707    0.8707    0.8707    0.8707





=== Stratified cross-validation ===

Correctly Classified Instances        4731               38.8169 %
Incorrectly Classified Instances      7457               61.1831 %
Kappa statistic                          0.2924
K&B Relative Info Score             349811.5142 %
K&B Information Score                 9276.7012 bits      0.7611 bits/instance
Class complexity | order 0           32290.0118 bits      2.6493 bits/instance
Class complexity | scheme           293148.3718 bits     24.0522 bits/instance
Complexity improvement     (Sf)    -260858.36   bits    -21.4029 bits/instance
Mean absolute error                      0.1122
Root mean squared error                  0.3092
Relative absolute error                 78.1407 %
Root relative squared error            115.3958 %
Coverage of cases (0.95 level)          51.2553 %
Mean rel. region size (0.95 level)      16.8064 %
Total Number of Instances            12188     


=== Detailed Accuracy By Class ===

                 TP Rate  FP Rate  Precision  Recall   F-Measure  MCC      ROC Area  PRC Area  Class
                 0,399    0,052    0,598      0,399    0,479      0,411    0,837     0,529     A
                 0,306    0,040    0,395      0,306    0,345      0,299    0,829     0,321     E
                 0,213    0,059    0,460      0,213    0,291      0,213    0,673     0,389     CGJLNQSRT
                 0,011    0,005    0,032      0,011    0,017      0,011    0,677     0,028     FV
                 0,312    0,031    0,305      0,312    0,308      0,278    0,859     0,282     I
                 0,010    0,003    0,191      0,010    0,018      0,027    0,715     0,163     O
                 0,626    0,030    0,922      0,626    0,746      0,665    0,945     0,921     0
                 0,008    0,003    0,070      0,008    0,014      0,012    0,698     0,058     BMP
                 0,260    0,008    0,425      0,260    0,322      0,320    0,852     0,274     U
                 0,800    0,155    0,002      0,800    0,004      0,036    0,928     0,003     DZ
                 0,729    0,264    0,039      0,729    0,074      0,125    0,818     0,046     D
Weighted Avg.    0,388    0,040    0,592      0,388    0,455      0,396    0,829     0,554     


=== Confusion Matrix ===

    a    b    c    d    e    f    g    h    i    j    k   <-- classified as
  794   67  127   15   34   13   35    3   17   52  832 |    a = A
  109  297   76    0   56    2    6    3    4   25  393 |    b = E
  184  134  496   22  136   12  148   19   21  357  796 |    c = CGJLNQSRT
   16    9   31    2   10    0    3    1    0   22   83 |    d = FV
   30  148   53    0  157    1    7    2    1   14   90 |    e = I
   97   34   90   11   14    9   14    4   41   72  554 |    f = O
   11   11  119   12   44    7 2766    2    4 1309  132 |    g = 0
   28   33   52    0   47    0   15    3   12   32  177 |    h = BMP
   36    9   29    0   12    3    3    2   74    2  115 |    i = U
    0    0    0    0    0    0    1    0    0    4    0 |    j = DZ
   23    9    6    0    5    0    1    4    0    0  129 |    k = D

=== Percent Confusion Matrix ===
a	b	c	d	e	f	g	h	i	j	k	
39.92	3.37	6.39	0.75	1.71	0.65	1.76	0.15	0.85	2.61	41.83	 a = A
11.23	30.59	7.83	0.0	5.77	0.21	0.62	0.31	0.41	2.57	40.47	 b = E
7.91	5.76	21.33	0.95	5.85	0.52	6.37	0.82	0.9	15.35	34.24	 c = CGJLNQSRT
9.04	5.08	17.51	1.13	5.65	0.0	1.69	0.56	0.0	12.43	46.89	 d = FV
5.96	29.42	10.54	0.0	31.21	0.2	1.39	0.4	0.2	2.78	17.89	 e = I
10.32	3.62	9.57	1.17	1.49	0.96	1.49	0.43	4.36	7.66	58.94	 f = O
0.25	0.25	2.69	0.27	1.0	0.16	62.62	0.05	0.09	29.64	2.99	 g = 0
7.02	8.27	13.03	0.0	11.78	0.0	3.76	0.75	3.01	8.02	44.36	 h = BMP
12.63	3.16	10.18	0.0	4.21	1.05	1.05	0.7	25.96	0.7	40.35	 i = U
0.0	0.0	0.0	0.0	0.0	0.0	20.0	0.0	0.0	80.0	0.0	 j = DZ
12.99	5.08	3.39	0.0	2.82	0.0	0.56	2.26	0.0	0.0	72.88	 k = D
