Timestamp:2014-12-07-11:10:05
Inventario:I3
Intervalo:10ms
Ngramas:3
Clasificador:NaiveBayes
Relation Name:  I3-10ms-3gramas
Num Instances:  18294
Num Attributes: 31

     Name                      Type  Nom  Int Real     Missing      Unique  Dist
   1 0Int(dB)                   Num   0%  10%  90%     0 /  0%     7 /  0%   772 
   2 0Pitch(Hz)                 Num   0%  51%  49%     0 /  0%   816 /  4%  3063 
   3 0RawPitch                  Num   0%  54%  46%     0 /  0%   853 /  5%  2955 
   4 0SmPitch                   Num   0%  52%  48%     0 /  0%   827 /  5%  3024 
   5 0Melogram(st)              Num   0%  47%  53%     0 /  0%   581 /  3%  2807 
   6 0ZCross                    Num   0% 100%   0%     0 /  0%    10 /  0%    42 
   7 0F1(Hz)                    Num   0%  51%  49%     0 /  0%  2131 / 12%  4724 
   8 0F2(Hz)                    Num   0%  51%  49%     0 /  0%  4210 / 23%  6615 
   9 0F3(Hz)                    Num   0%  51%  49%     0 /  0%  3688 / 20%  6145 
  10 0F4(Hz)                    Num   0%  51%  49%     0 /  0%  3689 / 20%  6054 
  11 1Int(dB)                   Num   0%  10%  90%     0 /  0%     7 /  0%   772 
  12 1Pitch(Hz)                 Num   0%  51%  49%     0 /  0%   816 /  4%  3063 
  13 1RawPitch                  Num   0%  54%  46%     0 /  0%   853 /  5%  2955 
  14 1SmPitch                   Num   0%  52%  48%     0 /  0%   827 /  5%  3024 
  15 1Melogram(st)              Num   0%  47%  53%     0 /  0%   581 /  3%  2807 
  16 1ZCross                    Num   0% 100%   0%     0 /  0%    10 /  0%    42 
  17 1F1(Hz)                    Num   0%  51%  49%     0 /  0%  2131 / 12%  4724 
  18 1F2(Hz)                    Num   0%  51%  49%     0 /  0%  4210 / 23%  6615 
  19 1F3(Hz)                    Num   0%  51%  49%     0 /  0%  3688 / 20%  6145 
  20 1F4(Hz)                    Num   0%  51%  49%     0 /  0%  3689 / 20%  6054 
  21 2Int(dB)                   Num   0%  10%  90%     0 /  0%     7 /  0%   772 
  22 2Pitch(Hz)                 Num   0%  51%  49%     0 /  0%   817 /  4%  3064 
  23 2RawPitch                  Num   0%  54%  46%     0 /  0%   854 /  5%  2956 
  24 2SmPitch                   Num   0%  52%  48%     0 /  0%   828 /  5%  3025 
  25 2Melogram(st)              Num   0%  47%  53%     0 /  0%   582 /  3%  2808 
  26 2ZCross                    Num   0% 100%   0%     0 /  0%    10 /  0%    42 
  27 2F1(Hz)                    Num   0%  51%  49%     0 /  0%  2131 / 12%  4724 
  28 2F2(Hz)                    Num   0%  51%  49%     0 /  0%  4210 / 23%  6615 
  29 2F3(Hz)                    Num   0%  51%  49%     0 /  0%  3688 / 20%  6145 
  30 2F4(Hz)                    Num   0%  51%  49%     0 /  0%  3689 / 20%  6054 
  31 class                      Nom 100%   0%   0%     0 /  0%     0 /  0%    11 


Naive Bayes Classifier

                    Class
Attribute               A         E CGJLNQSRT        FV         I         O         0       BMP         U        DZ         D
                   (0.16)    (0.08)    (0.19)    (0.01)    (0.04)    (0.08)    (0.37)    (0.03)    (0.02)       (0)    (0.01)
==============================================================================================================================
0Int(dB)
  mean             -5.2562   -6.9781  -16.0062   -13.453  -10.5648   -9.2289  -48.9829  -12.6892    -7.821  -26.5998   -7.3579
  std. dev.        10.6845     9.587   11.8296    9.9848    9.3802   12.1503   15.8892   11.7406   10.4376    2.3369    5.9065
  weight sum          2940      1438      3443       261       748      1377      6796       594       423         8       266
  precision         0.1005    0.1005    0.1005    0.1005    0.1005    0.1005    0.1005    0.1005    0.1005    0.1005    0.1005

0Pitch(Hz)
  mean            210.9077  179.7817  128.2945  147.5196  161.7269  175.9738   15.5414  166.9471  217.8099   20.9194   202.533
  std. dev.       110.2129   93.2543  112.1215  107.4902   84.8365  108.3955   54.3341  109.8658   101.251   55.3476   81.9477
  weight sum          2940      1438      3443       261       748      1377      6796       594       423         8       266
  precision         0.1626    0.1626    0.1626    0.1626    0.1626    0.1626    0.1626    0.1626    0.1626    0.1626    0.1626

0RawPitch
  mean            200.2188  175.0704  111.9207  125.4184  151.7646  167.5572   12.9568  153.9342  208.6619         0  196.8233
  std. dev.       115.2026    97.669  112.7888  107.1313   87.9735  114.1306   49.1179  113.8843  106.1879     0.028   90.7572
  weight sum          2940      1438      3443       261       748      1377      6796       594       423         8       266
  precision         0.1679    0.1679    0.1679    0.1679    0.1679    0.1679    0.1679    0.1679    0.1679    0.1679    0.1679

0SmPitch
  mean            208.5725  177.2466  123.2098  139.8605  159.4793  173.3248   13.9203  163.7838  215.6213         0  201.6691
  std. dev.       111.9157   95.7152  112.7853  105.8427   85.9419   110.039   50.3031  111.3474  102.5619    0.0275   83.7815
  weight sum          2940      1438      3443       261       748      1377      6796       594       423         8       266
  precision         0.1647    0.1647    0.1647    0.1647    0.1647    0.1647    0.1647    0.1647    0.1647    0.1647    0.1647

0Melogram(st)
  mean             50.4189   48.2348   34.4082   41.8303   45.5707   45.7502    4.6135   43.8398   50.2186     13.03   53.3655
  std. dev.        18.0558   18.1696   26.6181   22.7672   19.4988   21.3432   15.1924   22.8015   19.9908   22.5687   10.1476
  weight sum          2940      1438      3443       261       748      1377      6796       594       423         8       266
  precision         0.0294    0.0294    0.0294    0.0294    0.0294    0.0294    0.0294    0.0294    0.0294    0.0294    0.0294

0ZCross
  mean              6.5747     4.777    2.8981    2.4071    3.3008    3.9062    0.2452    2.4526    3.5022         0    3.6642
  std. dev.         4.6892    3.5473    4.2392    2.4072    3.5385    3.5254    1.2666    2.4563    3.0347    0.2154    2.1396
  weight sum          2940      1438      3443       261       748      1377      6796       594       423         8       266
  precision         1.2927    1.2927    1.2927    1.2927    1.2927    1.2927    1.2927    1.2927    1.2927    1.2927    1.2927

0F1(Hz)
  mean            637.5745  432.7945   372.225  457.1842    337.77   450.362   53.5772  403.2101  460.9396   90.4869  508.9856
  std. dev.       296.9353  184.6991  279.3546   256.028  176.2367  244.3368  169.3511  236.5419  335.9081  239.4058  146.3709
  weight sum          2940      1438      3443       261       748      1377      6796       594       423         8       266
  precision         0.3688    0.3688    0.3688    0.3688    0.3688    0.3688    0.3688    0.3688    0.3688    0.3688    0.3688

0F2(Hz)
  mean           1400.9882 1632.6744 1166.1693 1322.7123 1742.2077 1117.1452  162.6355  1390.089  979.7948  146.5368 1492.3451
  std. dev.       529.3561   673.554   831.893  699.8891  822.2232  603.6027  507.4221    729.41  538.5145     387.7  306.0497
  weight sum          2940      1438      3443       261       748      1377      6796       594       423         8       266
  precision         0.4504    0.4504    0.4504    0.4504    0.4504    0.4504    0.4504    0.4504    0.4504    0.4504    0.4504

0F3(Hz)
  mean           2565.6797 2447.1049 1980.6736 2268.6436 2408.7343 2373.7752  279.3828 2335.5553 2430.7754  471.6413 2874.2561
  std. dev.       931.4867  996.0136 1379.4958  1175.068 1138.7559 1134.1201  854.3516  1153.522  1089.578 1247.8457  420.4854
  weight sum          2940      1438      3443       261       748      1377      6796       594       423         8       266
  precision         0.6705    0.6705    0.6705    0.6705    0.6705    0.6705    0.6705    0.6705    0.6705    0.6705    0.6705

0F4(Hz)
  mean           2978.0599  2953.752 2268.0892 2681.0905 2889.2593 2740.1433  336.4594  2763.331 2777.4425  373.7301 3342.9508
  std. dev.      1069.8428 1176.1247 1568.1908 1356.4028 1330.8507 1297.7013 1026.7447  1333.663 1184.8746   988.797  450.7948
  weight sum          2940      1438      3443       261       748      1377      6796       594       423         8       266
  precision         0.6851    0.6851    0.6851    0.6851    0.6851    0.6851    0.6851    0.6851    0.6851    0.6851    0.6851

1Int(dB)
  mean             -4.6583   -5.9386  -16.5001   -14.457   -9.6878    -8.538  -49.4521  -12.9285    -6.523  -27.1778   -7.8272
  std. dev.         9.9884    8.7524   11.0247    9.1174    8.9009   12.0283   15.1913   11.2858    9.2325    1.8825    5.9928
  weight sum          2940      1438      3443       261       748      1377      6796       594       423         8       266
  precision         0.1005    0.1005    0.1005    0.1005    0.1005    0.1005    0.1005    0.1005    0.1005    0.1005    0.1005

1Pitch(Hz)
  mean            214.2999  187.1289  122.6403  141.0758   169.624   180.298   13.6898  164.0251  226.0414         0  201.6085
  std. dev.       107.3554   89.1848  112.4887  107.2369   79.3475  104.9788   51.1501  110.3131   90.8899    0.0271   83.5041
  weight sum          2940      1438      3443       261       748      1377      6796       594       423         8       266
  precision         0.1626    0.1626    0.1626    0.1626    0.1626    0.1626    0.1626    0.1626    0.1626    0.1626    0.1626

1RawPitch
  mean            203.4999  182.7671   105.444  118.1042  160.2257  173.1119   11.1138  151.3042  217.7899         0  195.8548
  std. dev.        112.824   93.8486  112.1993  105.1012   83.7348   111.182   45.2383  114.0339   96.3272     0.028   92.7432
  weight sum          2940      1438      3443       261       748      1377      6796       594       423         8       266
  precision         0.1679    0.1679    0.1679    0.1679    0.1679    0.1679    0.1679    0.1679    0.1679    0.1679    0.1679

1SmPitch
  mean            212.0791  185.0532  116.9238  133.6333  167.3233  177.9648   12.1427  160.0578  225.0495         0  200.8491
  std. dev.       109.1565    91.154  112.9389  104.9032   80.6951  106.8233     46.89  112.2555   91.3186    0.0275   85.1021
  weight sum          2940      1438      3443       261       748      1377      6796       594       423         8       266
  precision         0.1647    0.1647    0.1647    0.1647    0.1647    0.1647    0.1647    0.1647    0.1647    0.1647    0.1647

1Melogram(st)
  mean             51.3965   50.1673   32.6991   40.1599   47.7876   46.7989    4.1827   42.9332   52.9506     6.515   53.0952
  std. dev.        16.7239    15.729   27.0066   23.6891   17.1488   20.3195   14.5496   23.4206   16.4082   17.2371   10.7263
  weight sum          2940      1438      3443       261       748      1377      6796       594       423         8       266
  precision         0.0294    0.0294    0.0294    0.0294    0.0294    0.0294    0.0294    0.0294    0.0294    0.0294    0.0294

1ZCross
  mean              6.7426    4.8777    2.8504    2.0356    3.3458    4.0104    0.1759    2.2633    3.6091         0     3.601
  std. dev.         4.6066    3.2885    4.4898    2.1197    3.3619    3.2415    0.9112    2.1902     2.929    0.2154    2.1368
  weight sum          2940      1438      3443       261       748      1377      6796       594       423         8       266
  precision         1.2927    1.2927    1.2927    1.2927    1.2927    1.2927    1.2927    1.2927    1.2927    1.2927    1.2927

1F1(Hz)
  mean            664.8149  452.4055  344.2113  427.4933  353.4925  474.0843   46.3563  387.8062  482.6221         0  513.7324
  std. dev.       276.6469  159.6131  280.1567  266.6231  155.8578  229.5879  157.5769  236.7462  319.3509    0.0615  147.7122
  weight sum          2940      1438      3443       261       748      1377      6796       594       423         8       266
  precision         0.3688    0.3688    0.3688    0.3688    0.3688    0.3688    0.3688    0.3688    0.3688    0.3688    0.3688

1F2(Hz)
  mean           1438.6375 1730.4304 1096.0185 1255.6134 1886.1841 1149.4791  141.6984 1355.9289 1027.4385         0 1489.1875
  std. dev.       474.1145  583.9406  849.0325  728.5852  727.5947  557.6755  475.9233   740.105  482.4236    0.0751  299.1535
  weight sum          2940      1438      3443       261       748      1377      6796       594       423         8       266
  precision         0.4504    0.4504    0.4504    0.4504    0.4504    0.4504    0.4504    0.4504    0.4504    0.4504    0.4504

1F3(Hz)
  mean           2639.6428 2566.2209 1863.7293 2161.8658 2569.2982 2474.5963   243.839 2275.3297 2578.9648         0 2878.9701
  std. dev.       836.6339  864.4824 1415.5597 1236.4745 1001.9819 1047.0894  803.7972 1178.2882   937.242    0.1118  419.4367
  weight sum          2940      1438      3443       261       748      1377      6796       594       423         8       266
  precision         0.6705    0.6705    0.6705    0.6705    0.6705    0.6705    0.6705    0.6705    0.6705    0.6705    0.6705

1F4(Hz)
  mean           3062.2428 3090.2109 2135.6008 2569.1202 3069.7504 2853.8724  293.9451  2712.388 2942.8419         0 3351.4375
  std. dev.        957.834 1010.4123 1612.0487  1435.181 1158.3793 1192.6404  966.7807 1372.7244  994.8814    0.1142  448.5867
  weight sum          2940      1438      3443       261       748      1377      6796       594       423         8       266
  precision         0.6851    0.6851    0.6851    0.6851    0.6851    0.6851    0.6851    0.6851    0.6851    0.6851    0.6851

2Int(dB)
  mean             -4.4871   -5.4216  -16.5098  -14.8768   -9.1229   -8.3525  -49.8209  -12.4295   -5.5461  -28.0322   -7.8401
  std. dev.         9.7495    8.2134   10.3424    8.5952    8.6417   12.1594    14.616   10.5978    7.9501    3.0174    6.1435
  weight sum          2940      1438      3443       261       748      1377      6796       594       423         8       266
  precision         0.1005    0.1005    0.1005    0.1005    0.1005    0.1005    0.1005    0.1005    0.1005    0.1005    0.1005

2Pitch(Hz)
  mean            215.0265  190.3918  123.3327  138.4937  173.2212  179.1301   11.8136  166.0775  230.9859         0  201.0018
  std. dev.       106.7631   87.4257  112.7931  106.1938   75.5653   103.979   47.9018  107.8218   83.0165    0.0271   84.8129
  weight sum          2940      1438      3443       261       748      1377      6796       594       423         8       266
  precision         0.1626    0.1626    0.1626    0.1626    0.1626    0.1626    0.1626    0.1626    0.1626    0.1626    0.1626

2RawPitch
  mean            204.5729  186.9416  104.8015  114.3432  164.8509  172.8881    9.4611  152.1597  221.8351         0  195.4717
  std. dev.       112.2304   92.1579  111.9064  102.4081   80.9322  110.0663   41.8753   112.921   90.5835     0.028   93.1794
  weight sum          2940      1438      3443       261       748      1377      6796       594       423         8       266
  precision         0.1679    0.1679    0.1679    0.1679    0.1679    0.1679    0.1679    0.1679    0.1679    0.1679    0.1679

2SmPitch
  mean            213.0261  188.8901  117.1704  131.3637   170.918  177.1958    10.224   161.354  230.1655         0  200.6341
  std. dev.       108.3889   88.8533  113.2926  103.6517   77.6434  105.5718   43.0567   110.475   83.5323    0.0274   85.6348
  weight sum          2940      1438      3443       261       748      1377      6796       594       423         8       266
  precision         0.1647    0.1647    0.1647    0.1647    0.1647    0.1647    0.1647    0.1647    0.1647    0.1647    0.1647

2Melogram(st)
  mean             51.7443    50.757    32.661   39.8199   48.7629   46.9889    3.6603   43.3262   54.7081         0   53.0359
  std. dev.        16.1385   14.7786   27.1072   23.9008   15.7624   20.0024   13.7168   23.0622      13.2    0.0049   10.7827
  weight sum          2940      1438      3443       261       748      1377      6796       594       423         8       266
  precision         0.0294    0.0294    0.0294    0.0294    0.0294    0.0294    0.0294    0.0294    0.0294    0.0294    0.0294

2ZCross
  mean              6.8081    4.8831    2.8441     1.892    3.3285    4.0329    0.1408    2.2589     3.713         0    3.7468
  std. dev.         4.5857    3.1607    4.6239    1.9842    3.1155    2.9611    0.7914    2.0707    2.8728    0.2154    2.1448
  weight sum          2940      1438      3443       261       748      1377      6796       594       423         8       266
  precision         1.2927    1.2927    1.2927    1.2927    1.2927    1.2927    1.2927    1.2927    1.2927    1.2927    1.2927

2F1(Hz)
  mean            684.8624  467.7497  325.1328  399.7197  366.3373  488.3137   40.0701  383.8168  499.4556         0  516.3637
  std. dev.       260.7635  137.6849  277.0697  273.4014  136.8258  220.1308  146.5336  232.2972   302.477    0.0615   149.061
  weight sum          2940      1438      3443       261       748      1377      6796       594       423         8       266
  precision         0.3688    0.3688    0.3688    0.3688    0.3688    0.3688    0.3688    0.3688    0.3688    0.3688    0.3688

2F2(Hz)
  mean             1462.31 1804.3312 1052.8424 1203.5318 1998.9223 1157.6298  123.4876 1349.6905 1072.0404         0  1487.044
  std. dev.       430.5852  496.1344  854.7536  754.0967  624.7892  525.4581   446.987  728.3086  424.8655    0.0751  307.7561
  weight sum          2940      1438      3443       261       748      1377      6796       594       423         8       266
  precision         0.4504    0.4504    0.4504    0.4504    0.4504    0.4504    0.4504    0.4504    0.4504    0.4504    0.4504

2F3(Hz)
  mean           2687.7356 2653.2835 1794.2755 2069.2644 2693.2397 2526.8298  212.0685 2268.8241 2703.6172         0 2875.6804
  std. dev.       764.2898  742.6344 1431.8071 1282.9054  863.6174  995.0347   754.286 1165.0514  758.4179    0.1118  453.3058
  weight sum          2940      1438      3443       261       748      1377      6796       594       423         8       266
  precision         0.6705    0.6705    0.6705    0.6705    0.6705    0.6705    0.6705    0.6705    0.6705    0.6705    0.6705

2F4(Hz)
  mean           3116.7672 3189.0151 2058.5295 2471.0333 3209.5559 2910.5036  256.0406 2720.5333 3086.4504         0 3344.0454
  std. dev.       872.2076  856.4692 1634.0141 1495.7988  985.3806 1127.9374  908.4214 1363.5495  766.0819    0.1142  491.6785
  weight sum          2940      1438      3443       261       748      1377      6796       594       423         8       266
  precision         0.6851    0.6851    0.6851    0.6851    0.6851    0.6851    0.6851    0.6851    0.6851    0.6851    0.6851





=== Stratified cross-validation ===

Correctly Classified Instances        6470               35.3668 %
Incorrectly Classified Instances     11824               64.6332 %
Kappa statistic                          0.2607
K&B Relative Info Score             436344.98   %
K&B Information Score                11495.6805 bits      0.6284 bits/instance
Class complexity | order 0           48173.9135 bits      2.6333 bits/instance
Class complexity | scheme           657239.3186 bits     35.9265 bits/instance
Complexity improvement     (Sf)    -609065.4051 bits    -33.2932 bits/instance
Mean absolute error                      0.1178
Root mean squared error                  0.3281
Relative absolute error                 82.4746 %
Root relative squared error            122.8167 %
Coverage of cases (0.95 level)          43.282  %
Mean rel. region size (0.95 level)      13.2438 %
Total Number of Instances            18294     


=== Detailed Accuracy By Class ===

                 TP Rate  FP Rate  Precision  Recall   F-Measure  MCC      ROC Area  PRC Area  Class
                 0,378    0,046    0,614      0,378    0,468      0,409    0,838     0,533     A
                 0,200    0,024    0,416      0,200    0,270      0,248    0,823     0,294     E
                 0,185    0,050    0,464      0,185    0,265      0,201    0,654     0,372     CGJLNQSRT
                 0,050    0,017    0,040      0,050    0,044      0,029    0,664     0,027     FV
                 0,271    0,028    0,294      0,271    0,282      0,253    0,850     0,252     I
                 0,010    0,003    0,233      0,010    0,019      0,034    0,709     0,156     O
                 0,572    0,029    0,920      0,572    0,705      0,622    0,926     0,897     0
                 0,010    0,004    0,071      0,010    0,018      0,015    0,681     0,055     BMP
                 0,234    0,007    0,452      0,234    0,308      0,314    0,850     0,257     U
                 0,875    0,180    0,002      0,875    0,004      0,038    0,855     0,003     DZ
                 0,767    0,294    0,037      0,767    0,071      0,123    0,824     0,049     D
Weighted Avg.    0,354    0,036    0,604      0,354    0,431      0,377    0,818     0,543     


=== Confusion Matrix ===

    a    b    c    d    e    f    g    h    i    j    k   <-- classified as
 1112   47  173   54   63   19   36    1   32   87 1316 |    a = A
  147  288  102   12   82    6   12   13   15   44  717 |    b = E
  214  116  637  119  153   12  230   35   17  607 1303 |    c = CGJLNQSRT
   22    8   28   13   12    0   10    0    0   39  129 |    d = FV
   43  161   81    8  203    1   12    6    2   25  206 |    e = I
  136   31  106   44   26   14    9    4   41  123  843 |    f = O
   16   15  138   56   66    4 3887   17    4 2300  293 |    g = 0
   40   17   63   12   59    0   22    6    9   63  303 |    h = BMP
   49    3   37    5   14    4    7    2   99    4  199 |    i = U
    0    0    1    0    0    0    0    0    0    7    0 |    j = DZ
   33    7    7    2   12    0    1    0    0    0  204 |    k = D

=== Percent Confusion Matrix ===
a	b	c	d	e	f	g	h	i	j	k	
37.82	1.6	5.88	1.84	2.14	0.65	1.22	0.03	1.09	2.96	44.76	 a = A
10.22	20.03	7.09	0.83	5.7	0.42	0.83	0.9	1.04	3.06	49.86	 b = E
6.22	3.37	18.5	3.46	4.44	0.35	6.68	1.02	0.49	17.63	37.84	 c = CGJLNQSRT
8.43	3.07	10.73	4.98	4.6	0.0	3.83	0.0	0.0	14.94	49.43	 d = FV
5.75	21.52	10.83	1.07	27.14	0.13	1.6	0.8	0.27	3.34	27.54	 e = I
9.88	2.25	7.7	3.2	1.89	1.02	0.65	0.29	2.98	8.93	61.22	 f = O
0.24	0.22	2.03	0.82	0.97	0.06	57.2	0.25	0.06	33.84	4.31	 g = 0
6.73	2.86	10.61	2.02	9.93	0.0	3.7	1.01	1.52	10.61	51.01	 h = BMP
11.58	0.71	8.75	1.18	3.31	0.95	1.65	0.47	23.4	0.95	47.04	 i = U
0.0	0.0	12.5	0.0	0.0	0.0	0.0	0.0	0.0	87.5	0.0	 j = DZ
12.41	2.63	2.63	0.75	4.51	0.0	0.38	0.0	0.0	0.0	76.69	 k = D
