Timestamp:2014-12-07-11:03:26
Inventario:I3
Intervalo:1ms
Ngramas:4
Clasificador:NaiveBayes
Relation Name:  I3-1ms-4gramas
Num Instances:  183401
Num Attributes: 41

     Name                      Type  Nom  Int Real     Missing      Unique  Dist
   1 0Int(dB)                   Num   0%   9%  91%     0 /  0%     2 /  0%   779 
   2 0Pitch(Hz)                 Num   0%  51%  49%     0 /  0%   256 /  0%  4213 
   3 0RawPitch                  Num   0%  55%  45%     0 /  0%   417 /  0%  4119 
   4 0SmPitch                   Num   0%  53%  47%     0 /  0%   263 /  0%  4193 
   5 0Melogram(st)              Num   0%  49%  51%     0 /  0%   133 /  0%  3454 
   6 0ZCross                    Num   0% 100%   0%     0 /  0%     4 /  0%    58 
   7 0F1(Hz)                    Num   0%  52%  48%     0 /  0%  1154 /  1%  4824 
   8 0F2(Hz)                    Num   0%  52%  48%     0 /  0%  2223 /  1%  6697 
   9 0F3(Hz)                    Num   0%  53%  47%     0 /  0%  1930 /  1%  6200 
  10 0F4(Hz)                    Num   0%  52%  48%     0 /  0%  1933 /  1%  6096 
  11 1Int(dB)                   Num   0%   9%  91%     0 /  0%     3 /  0%   780 
  12 1Pitch(Hz)                 Num   0%  51%  49%     0 /  0%   256 /  0%  4213 
  13 1RawPitch                  Num   0%  55%  45%     0 /  0%   417 /  0%  4119 
  14 1SmPitch                   Num   0%  53%  47%     0 /  0%   263 /  0%  4193 
  15 1Melogram(st)              Num   0%  49%  51%     0 /  0%   133 /  0%  3454 
  16 1ZCross                    Num   0% 100%   0%     0 /  0%     4 /  0%    58 
  17 1F1(Hz)                    Num   0%  52%  48%     0 /  0%  1154 /  1%  4824 
  18 1F2(Hz)                    Num   0%  52%  48%     0 /  0%  2223 /  1%  6697 
  19 1F3(Hz)                    Num   0%  53%  47%     0 /  0%  1930 /  1%  6200 
  20 1F4(Hz)                    Num   0%  52%  48%     0 /  0%  1933 /  1%  6096 
  21 2Int(dB)                   Num   0%   9%  91%     0 /  0%     4 /  0%   781 
  22 2Pitch(Hz)                 Num   0%  51%  49%     0 /  0%   256 /  0%  4213 
  23 2RawPitch                  Num   0%  55%  45%     0 /  0%   417 /  0%  4119 
  24 2SmPitch                   Num   0%  53%  47%     0 /  0%   263 /  0%  4193 
  25 2Melogram(st)              Num   0%  49%  51%     0 /  0%   133 /  0%  3454 
  26 2ZCross                    Num   0% 100%   0%     0 /  0%     4 /  0%    58 
  27 2F1(Hz)                    Num   0%  52%  48%     0 /  0%  1154 /  1%  4824 
  28 2F2(Hz)                    Num   0%  52%  48%     0 /  0%  2223 /  1%  6697 
  29 2F3(Hz)                    Num   0%  53%  47%     0 /  0%  1930 /  1%  6200 
  30 2F4(Hz)                    Num   0%  52%  48%     0 /  0%  1933 /  1%  6096 
  31 3Int(dB)                   Num   0%   9%  91%     0 /  0%     3 /  0%   781 
  32 3Pitch(Hz)                 Num   0%  51%  49%     0 /  0%   256 /  0%  4213 
  33 3RawPitch                  Num   0%  55%  45%     0 /  0%   417 /  0%  4119 
  34 3SmPitch                   Num   0%  53%  47%     0 /  0%   263 /  0%  4193 
  35 3Melogram(st)              Num   0%  49%  51%     0 /  0%   133 /  0%  3454 
  36 3ZCross                    Num   0% 100%   0%     0 /  0%     4 /  0%    58 
  37 3F1(Hz)                    Num   0%  52%  48%     0 /  0%  1154 /  1%  4824 
  38 3F2(Hz)                    Num   0%  52%  48%     0 /  0%  2223 /  1%  6697 
  39 3F3(Hz)                    Num   0%  53%  47%     0 /  0%  1930 /  1%  6200 
  40 3F4(Hz)                    Num   0%  52%  48%     0 /  0%  1933 /  1%  6096 
  41 class                      Nom 100%   0%   0%     0 /  0%     0 /  0%    11 


Naive Bayes Classifier

                    Class
Attribute               A         E CGJLNQSRT        FV         I         O         0       BMP         U        DZ         D
                   (0.16)    (0.07)    (0.18)    (0.01)    (0.04)    (0.07)    (0.39)    (0.03)    (0.02)       (0)    (0.01)
==============================================================================================================================
0Int(dB)
  mean             -4.2013    -5.156  -16.6015  -15.0484   -8.7128   -8.1103  -48.0284  -12.5205   -5.2051  -26.8904   -7.8216
  std. dev.         9.5927    8.0597   10.3712    8.8828    8.3473   12.1522   16.4115   10.7402    7.7835    2.0309    6.1424
  weight sum         28557     13740     33479      2561      7083     13234     72114      5814      4137        65      2617
  precision          0.104     0.104     0.104     0.104     0.104     0.104     0.104     0.104     0.104     0.104     0.104

0Pitch(Hz)
  mean            215.3234  189.7736  114.2021  130.5895  172.5882   178.609   17.3157  158.7298   228.829         0  202.2308
  std. dev.       108.5781   88.2344  113.1828  107.4498   76.9615  105.4051   57.2256  111.7609   85.2298    0.0197   84.4357
  weight sum         28557     13740     33479      2561      7083     13234     72114      5814      4137        65      2617
  precision         0.1184    0.1184    0.1184    0.1184    0.1184    0.1184    0.1184    0.1184    0.1184    0.1184    0.1184

0RawPitch
  mean            204.8522  185.2743   95.4629  105.4364  164.8645  172.7411    14.197  146.8224  220.0766         0  195.4561
  std. dev.       115.4214   95.9379  112.3647   103.892   84.3754  113.3437   51.8738  117.0312   93.8332    0.0202   95.6519
  weight sum         28557     13740     33479      2561      7083     13234     72114      5814      4137        65      2617
  precision         0.1214    0.1214    0.1214    0.1214    0.1214    0.1214    0.1214    0.1214    0.1214    0.1214    0.1214

0SmPitch
  mean            213.3152  188.2045  107.5772  120.3297  170.1487  176.3386   15.6943  154.2915  228.2692         0   201.549
  std. dev.       110.1882   89.4937  113.1733  104.7626   79.4942  107.7071   53.5408  114.2373    85.559    0.0198   85.7427
  weight sum         28557     13740     33479      2561      7083     13234     72114      5814      4137        65      2617
  precision          0.119     0.119     0.119     0.119     0.119     0.119     0.119     0.119     0.119     0.119     0.119

0Melogram(st)
  mean             51.2057   50.2797    29.816    36.619   48.3201   46.5103     5.085   41.1472   53.9044         0   52.9763
  std. dev.        17.1608   15.6601   27.4521   25.1611   16.4677    20.538   15.8399   24.5066   14.5585     0.004   11.4408
  weight sum         28557     13740     33479      2561      7083     13234     72114      5814      4137        65      2617
  precision         0.0239    0.0239    0.0239    0.0239    0.0239    0.0239    0.0239    0.0239    0.0239    0.0239    0.0239

0ZCross
  mean              7.3216    5.2602    3.0404    2.0498    3.7242    4.3728    0.2697    2.4709    4.0672         0    4.0387
  std. dev.         4.7305    3.3214    4.9919     2.208    3.2959    3.0812    1.1656    2.2406    2.9913    0.1696     2.266
  weight sum         28557     13740     33479      2561      7083     13234     72114      5814      4137        65      2617
  precision         1.0175    1.0175    1.0175    1.0175    1.0175    1.0175    1.0175    1.0175    1.0175    1.0175    1.0175

0F1(Hz)
  mean            679.0141  462.5388  306.5761  383.0549  360.2928  482.8394   55.8179  370.2911  496.8631         0  516.7579
  std. dev.       273.4573  148.1545  278.8299  278.9196  146.3199  227.5019  169.4373  238.1729  309.9663    0.0602  153.4331
  weight sum         28557     13740     33479      2561      7083     13234     72114      5814      4137        65      2617
  precision         0.3611    0.3611    0.3611    0.3611    0.3611    0.3611    0.3611    0.3611    0.3611    0.3611    0.3611

0F2(Hz)
  mean           1438.9064 1779.4393  996.8152 1164.2707 1963.5585 1137.9104  174.7293 1302.6268 1047.9548         0 1484.0861
  std. dev.       460.8432  536.6813    865.22  779.7988  681.2366  538.8449  524.8427  753.7966   431.069    0.0741  321.7117
  weight sum         28557     13740     33479      2561      7083     13234     72114      5814      4137        65      2617
  precision         0.4448    0.4448    0.4448    0.4448    0.4448    0.4448    0.4448    0.4448    0.4448    0.4448    0.4448

0F3(Hz)
  mean           2647.8865 2611.7843 1697.5437 1985.3528 2643.1271 2492.6874  298.0229 2193.0228 2662.0438         0 2868.1851
  std. dev.       823.8379  798.7858 1451.5226 1318.4833  938.7899 1031.3021  879.9877 1213.2906  804.1633    0.1108  503.9898
  weight sum         28557     13740     33479      2561      7083     13234     72114      5814      4137        65      2617
  precision         0.6646    0.6646    0.6646    0.6646    0.6646    0.6646    0.6646    0.6646    0.6646    0.6646    0.6646

0F4(Hz)
  mean           3071.9596 3147.1235 1944.5265 2373.2424 3143.0541 2868.4799  358.0734 2632.6489 3051.8664         0 3322.3401
  std. dev.       942.0101  928.5918 1653.8945 1541.2239 1074.2428 1169.7236  1054.913 1425.2945  828.8457    0.1134  551.1434
  weight sum         28557     13740     33479      2561      7083     13234     72114      5814      4137        65      2617
  precision         0.6804    0.6804    0.6804    0.6804    0.6804    0.6804    0.6804    0.6804    0.6804    0.6804    0.6804

1Int(dB)
  mean             -4.2125   -5.1527  -16.5537  -15.0454   -8.6835   -8.1232  -48.0653  -12.4222   -5.1335  -26.8607   -7.7772
  std. dev.         9.5923    8.0415   10.3306    8.8688     8.344   12.1734   16.3663   10.6829    7.6759    1.9776    6.1585
  weight sum         28557     13740     33479      2561      7083     13234     72114      5814      4137        65      2617
  precision         0.1039    0.1039    0.1039    0.1039    0.1039    0.1039    0.1039    0.1039    0.1039    0.1039    0.1039

1Pitch(Hz)
  mean            215.2862  190.0442  114.4858  130.2645  172.8092  178.3926    17.139  159.0019  229.1151         0  202.2132
  std. dev.       108.6186   88.0362  113.2687  107.3679   76.7258  105.3465   56.9508  111.4961   84.6861    0.0197   84.4717
  weight sum         28557     13740     33479      2561      7083     13234     72114      5814      4137        65      2617
  precision         0.1184    0.1184    0.1184    0.1184    0.1184    0.1184    0.1184    0.1184    0.1184    0.1184    0.1184

1RawPitch
  mean            204.8389  185.3904   95.6327  105.2473  165.1915  172.5714   14.0526  147.2724  220.3812         0  195.4751
  std. dev.       115.4661   95.8388  112.4442  103.6816   84.2064  113.2081   51.6501  116.8386   93.3578    0.0202   95.5093
  weight sum         28557     13740     33479      2561      7083     13234     72114      5814      4137        65      2617
  precision         0.1214    0.1214    0.1214    0.1214    0.1214    0.1214    0.1214    0.1214    0.1214    0.1214    0.1214

1SmPitch
  mean            213.3047  188.5286  107.7979  120.0376  170.4162  176.1475   15.5185  154.4932  228.5834         0  201.5673
  std. dev.       110.1891   89.2681  113.2628  104.6493   79.2706  107.6301   53.2523  114.0328   85.0153    0.0198   85.7059
  weight sum         28557     13740     33479      2561      7083     13234     72114      5814      4137        65      2617
  precision          0.119     0.119     0.119     0.119     0.119     0.119     0.119     0.119     0.119     0.119     0.119

1Melogram(st)
  mean             51.2207   50.3338   29.8431   36.5638   48.3994   46.4929    5.0369   41.2442   54.0407         0   53.0058
  std. dev.        17.1322    15.575   27.4612    25.185   16.3496   20.5401   15.7744   24.4436   14.2925     0.004    11.354
  weight sum         28557     13740     33479      2561      7083     13234     72114      5814      4137        65      2617
  precision         0.0239    0.0239    0.0239    0.0239    0.0239    0.0239    0.0239    0.0239    0.0239    0.0239    0.0239

1ZCross
  mean              7.3168    5.2522    3.0487    2.0494    3.7306    4.3707    0.2663    2.4891    4.0724         0    4.0659
  std. dev.          4.734    3.3232    4.9915    2.2106    3.2938    3.0828     1.162    2.2391    2.9865    0.1696    2.2648
  weight sum         28557     13740     33479      2561      7083     13234     72114      5814      4137        65      2617
  precision         1.0175    1.0175    1.0175    1.0175    1.0175    1.0175    1.0175    1.0175    1.0175    1.0175    1.0175

1F1(Hz)
  mean              680.68  463.9738  305.0179   380.668  361.4648  484.0118   55.2559  370.2872  498.5025         0  517.1175
  std. dev.       272.1801  146.1336  278.3727  278.7586  144.5804  226.7963  168.6112  237.6445  308.2875    0.0602  153.4041
  weight sum         28557     13740     33479      2561      7083     13234     72114      5814      4137        65      2617
  precision         0.3611    0.3611    0.3611    0.3611    0.3611    0.3611    0.3611    0.3611    0.3611    0.3611    0.3611

1F2(Hz)
  mean           1440.7973 1786.3109  993.2456 1161.6312 1973.7484 1138.3786  173.0699 1302.7636 1052.4199         0  1484.039
  std. dev.       457.3774  528.1199  865.2217  781.5797  671.6296  536.2083  522.6817  752.0998  425.1574    0.0741  322.7423
  weight sum         28557     13740     33479      2561      7083     13234     72114      5814      4137        65      2617
  precision         0.4448    0.4448    0.4448    0.4448    0.4448    0.4448    0.4448    0.4448    0.4448    0.4448    0.4448

1F3(Hz)
  mean            2651.859 2620.1056 1691.8168 1979.1395 2654.8736 2496.9201  295.0903 2193.5767 2674.1003         0 2867.8184
  std. dev.        818.296  787.0306 1452.1354 1320.5796  926.0878 1027.3116  876.1347 1210.8731  785.3599    0.1108   507.148
  weight sum         28557     13740     33479      2561      7083     13234     72114      5814      4137        65      2617
  precision         0.6646    0.6646    0.6646    0.6646    0.6646    0.6646    0.6646    0.6646    0.6646    0.6646    0.6646

1F4(Hz)
  mean           3076.1686  3156.326 1938.5188 2367.2839 3155.7849 2872.8522  354.6277 2635.3487 3065.6415         0 3321.3909
  std. dev.       935.4026  913.7122 1655.1747 1544.4726 1058.3659 1164.6509 1050.4946 1423.2744  804.1571    0.1134  554.7594
  weight sum         28557     13740     33479      2561      7083     13234     72114      5814      4137        65      2617
  precision         0.6804    0.6804    0.6804    0.6804    0.6804    0.6804    0.6804    0.6804    0.6804    0.6804    0.6804

2Int(dB)
  mean             -4.2297   -5.1597  -16.4962   -15.033   -8.6607   -8.1449  -48.0905  -12.3149   -5.0726  -26.8486   -7.7263
  std. dev.         9.5985    8.0314   10.2973    8.8639    8.3453   12.1979   16.3156   10.6245    7.5754    1.9432    6.1746
  weight sum         28557     13740     33479      2561      7083     13234     72114      5814      4137        65      2617
  precision         0.1037    0.1037    0.1037    0.1037    0.1037    0.1037    0.1037    0.1037    0.1037    0.1037    0.1037

2Pitch(Hz)
  mean            215.2062   190.258  114.8253  129.9494  173.0302  178.1206   16.9612  159.4679  229.3502         0  202.1991
  std. dev.       108.6869   87.8928  113.3556  107.2999   76.4927   105.326   56.6737  111.1515   84.2123    0.0197   84.5042
  weight sum         28557     13740     33479      2561      7083     13234     72114      5814      4137        65      2617
  precision         0.1184    0.1184    0.1184    0.1184    0.1184    0.1184    0.1184    0.1184    0.1184    0.1184    0.1184

2RawPitch
  mean            204.7785  185.5139   95.8597  104.9895  165.4701   172.363   13.9204  147.7852  220.5579         0   195.358
  std. dev.       115.5309   95.7233  112.5441   103.475   84.0796  113.1234   51.4525  116.6168   92.9298    0.0202   95.4733
  weight sum         28557     13740     33479      2561      7083     13234     72114      5814      4137        65      2617
  precision         0.1214    0.1214    0.1214    0.1214    0.1214    0.1214    0.1214    0.1214    0.1214    0.1214    0.1214

2SmPitch
  mean             213.264  188.8112  108.0549  119.7549  170.6319  175.8934   15.3491  154.8892  228.8462         0   201.591
  std. dev.       110.2131   89.0812   113.356  104.5511   79.0959   107.593   52.9681  113.7583   84.5411    0.0198   85.6638
  weight sum         28557     13740     33479      2561      7083     13234     72114      5814      4137        65      2617
  precision          0.119     0.119     0.119     0.119     0.119     0.119     0.119     0.119     0.119     0.119     0.119

2Melogram(st)
  mean             51.2183    50.379   29.8993   36.5095   48.4716   46.4586     4.986   41.3724     54.16         0   53.0359
  std. dev.        17.1271   15.5007   27.4678   25.2094   16.2405   20.5573   15.7047   24.3658   14.0434     0.004   11.2662
  weight sum         28557     13740     33479      2561      7083     13234     72114      5814      4137        65      2617
  precision         0.0239    0.0239    0.0239    0.0239    0.0239    0.0239    0.0239    0.0239    0.0239    0.0239    0.0239

2ZCross
  mean              7.3101    5.2408    3.0586    2.0498    3.7393    4.3663    0.2635     2.508    4.0771         0     4.097
  std. dev.         4.7386    3.3253    4.9906    2.2131    3.2999     3.087    1.1594     2.237    2.9819    0.1696    2.2657
  weight sum         28557     13740     33479      2561      7083     13234     72114      5814      4137        65      2617
  precision         1.0175    1.0175    1.0175    1.0175    1.0175    1.0175    1.0175    1.0175    1.0175    1.0175    1.0175

2F1(Hz)
  mean            682.1503  465.3474  303.6968  378.3582  362.5437  485.0896    54.696  370.4332  499.8715         0  517.5928
  std. dev.        271.133  144.1266  277.8831  278.5939  142.9356  226.1543  167.7982  237.1009  306.7882    0.0602  153.4125
  weight sum         28557     13740     33479      2561      7083     13234     72114      5814      4137        65      2617
  precision         0.3611    0.3611    0.3611    0.3611    0.3611    0.3611    0.3611    0.3611    0.3611    0.3611    0.3611

2F2(Hz)
  mean           1442.2136 1793.0334  990.4602 1159.1061 1983.2786  1138.672  171.3484 1303.2526 1056.4734         0 1484.0603
  std. dev.       454.4964  519.5885   865.127  783.4471  662.5587  533.7441   520.371  750.2659  419.7581    0.0741  323.8039
  weight sum         28557     13740     33479      2561      7083     13234     72114      5814      4137        65      2617
  precision         0.4448    0.4448    0.4448    0.4448    0.4448    0.4448    0.4448    0.4448    0.4448    0.4448    0.4448

2F3(Hz)
  mean           2655.0761 2628.2257 1687.3057 1972.9814 2665.7831 2500.7441  292.1142 2194.6698 2684.8467         0 2867.5444
  std. dev.       813.9125  775.3306 1452.4531  1322.667  914.1503 1023.7463  872.1883 1208.1856  768.1272    0.1108  510.3194
  weight sum         28557     13740     33479      2561      7083     13234     72114      5814      4137        65      2617
  precision         0.6646    0.6646    0.6646    0.6646    0.6646    0.6646    0.6646    0.6646    0.6646    0.6646    0.6646

2F4(Hz)
  mean           3079.4149  3165.364 1934.0766 2361.3224 3167.5238 2876.6923  351.1341 2638.4197 3077.7233         0 3320.3356
  std. dev.       930.1153  898.8907  1656.262 1547.6942 1043.4405 1160.0433 1045.9839 1420.8135  781.3188    0.1134  558.3815
  weight sum         28557     13740     33479      2561      7083     13234     72114      5814      4137        65      2617
  precision         0.6804    0.6804    0.6804    0.6804    0.6804    0.6804    0.6804    0.6804    0.6804    0.6804    0.6804

3Int(dB)
  mean              -4.254   -5.1788  -16.4317  -15.0107    -8.647   -8.1757  -48.1181  -12.2049   -5.0188  -26.8422   -7.6697
  std. dev.         9.6114    8.0296   10.2711     8.868    8.3528   12.2243   16.2754   10.5691    7.4803    1.9264    6.1925
  weight sum         28557     13740     33479      2561      7083     13234     72114      5814      4137        65      2617
  precision         0.1037    0.1037    0.1037    0.1037    0.1037    0.1037    0.1037    0.1037    0.1037    0.1037    0.1037

3Pitch(Hz)
  mean            215.1081  190.4015  115.2141  129.6994  173.2101  177.8211   16.7882  159.9332  229.5826         0  202.1811
  std. dev.       108.7696   87.7758  113.4474  107.2959   76.2773  105.3227   56.4058  110.8047   83.7347    0.0197    84.529
  weight sum         28557     13740     33479      2561      7083     13234     72114      5814      4137        65      2617
  precision         0.1184    0.1184    0.1184    0.1184    0.1184    0.1184    0.1184    0.1184    0.1184    0.1184    0.1184

3RawPitch
  mean            204.7122  185.6605   96.1419    104.69  165.7379  172.1393   13.7659  148.2899  220.7885         0  195.1733
  std. dev.       115.5921   95.6276  112.6457  103.2429   83.9735  113.0491   51.2118  116.3341   92.5273    0.0202   95.4762
  weight sum         28557     13740     33479      2561      7083     13234     72114      5814      4137        65      2617
  precision         0.1214    0.1214    0.1214    0.1214    0.1214    0.1214    0.1214    0.1214    0.1214    0.1214    0.1214

3SmPitch
  mean            213.2106  189.0092  108.3721  119.5928  170.7795  175.6214   15.1797  155.3207  229.0387         0  201.6147
  std. dev.       110.2529   88.9353  113.4533  104.4955    78.963  107.5646   52.6867  113.4664   84.1352    0.0198     85.61
  weight sum         28557     13740     33479      2561      7083     13234     72114      5814      4137        65      2617
  precision          0.119     0.119     0.119     0.119     0.119     0.119     0.119     0.119     0.119     0.119     0.119

3Melogram(st)
  mean             51.2091   50.4242   29.9724   36.4608   48.5268   46.3993    4.9364    41.496   54.2789         0   53.0658
  std. dev.        17.1327   15.4261   27.4735   25.2383   16.1496   20.5969    15.636   24.2847   13.7888     0.004   11.1774
  weight sum         28557     13740     33479      2561      7083     13234     72114      5814      4137        65      2617
  precision         0.0239    0.0239    0.0239    0.0239    0.0239    0.0239    0.0239    0.0239    0.0239    0.0239    0.0239

3ZCross
  mean              7.3004    5.2275    3.0701    2.0522    3.7468    4.3624    0.2613    2.5306    4.0827         0    4.1262
  std. dev.         4.7448     3.329     4.989    2.2158    3.3104    3.0942     1.158    2.2366    2.9766    0.1696    2.2672
  weight sum         28557     13740     33479      2561      7083     13234     72114      5814      4137        65      2617
  precision         1.0175    1.0175    1.0175    1.0175    1.0175    1.0175    1.0175    1.0175    1.0175    1.0175    1.0175

3F1(Hz)
  mean            683.5492   466.604  302.5519  376.1761  363.6076   485.985    54.146  370.5749  501.0702         0  518.0523
  std. dev.       270.1486  142.2478  277.3582  278.4193  141.3453  225.6523   167.002   236.559  305.5336    0.0602   153.457
  weight sum         28557     13740     33479      2561      7083     13234     72114      5814      4137        65      2617
  precision         0.3611    0.3611    0.3611    0.3611    0.3611    0.3611    0.3611    0.3611    0.3611    0.3611    0.3611

3F2(Hz)
  mean           1443.5164 1799.2434    988.19 1156.6522 1992.3968  1138.609  169.6379 1303.9361 1060.1575         0 1484.1145
  std. dev.       451.7609  511.5475  864.9445  785.3266  653.6523   531.629  518.0423  748.5317  414.9703    0.0741  324.8835
  weight sum         28557     13740     33479      2561      7083     13234     72114      5814      4137        65      2617
  precision         0.4448    0.4448    0.4448    0.4448    0.4448    0.4448    0.4448    0.4448    0.4448    0.4448    0.4448

3F3(Hz)
  mean           2658.1212 2635.6414 1683.7716 1966.8613 2676.2267 2503.6829  289.1672 2195.7732 2694.2989         0 2867.2678
  std. dev.       809.8058   764.297 1452.6604 1324.7402   902.456 1021.0061   868.226 1205.5074   752.613    0.1108   513.436
  weight sum         28557     13740     33479      2561      7083     13234     72114      5814      4137        65      2617
  precision         0.6646    0.6646    0.6646    0.6646    0.6646    0.6646    0.6646    0.6646    0.6646    0.6646    0.6646

3F4(Hz)
  mean           3082.4058 3173.7603 1930.7032 2355.3511 3178.8998 2879.5448  347.6794 2641.4866 3088.1777         0 3319.2569
  std. dev.       925.1344  884.9534 1657.1479 1550.8738 1028.8621 1156.4562 1041.4841 1418.3454  760.6201    0.1134   561.953
  weight sum         28557     13740     33479      2561      7083     13234     72114      5814      4137        65      2617
  precision         0.6804    0.6804    0.6804    0.6804    0.6804    0.6804    0.6804    0.6804    0.6804    0.6804    0.6804





=== Stratified cross-validation ===

Correctly Classified Instances       63355               34.5445 %
Incorrectly Classified Instances    120046               65.4555 %
Kappa statistic                          0.2593
K&B Relative Info Score            4320598.8156 %
K&B Information Score               111869.5267 bits      0.61   bits/instance
Class complexity | order 0          474842.223  bits      2.5891 bits/instance
Class complexity | scheme          13278498.1059 bits     72.4014 bits/instance
Complexity improvement     (Sf)    -12803655.8829 bits    -69.8124 bits/instance
Mean absolute error                      0.1192
Root mean squared error                  0.3318
Relative absolute error                 84.737  %
Root relative squared error            125.1057 %
Coverage of cases (0.95 level)          40.8684 %
Mean rel. region size (0.95 level)      12.3518 %
Total Number of Instances           183401     


=== Detailed Accuracy By Class ===

                 TP Rate  FP Rate  Precision  Recall   F-Measure  MCC      ROC Area  PRC Area  Class
                 0,394    0,034    0,679      0,394    0,498      0,454    0,858     0,584     A
                 0,358    0,033    0,465      0,358    0,405      0,367    0,854     0,386     E
                 0,130    0,022    0,574      0,130    0,212      0,211    0,623     0,373     CGJLNQSRT
                 0,070    0,030    0,032      0,070    0,044      0,027    0,625     0,026     FV
                 0,379    0,033    0,313      0,379    0,343      0,315    0,859     0,277     I
                 0,007    0,004    0,134      0,007    0,013      0,015    0,738     0,168     O
                 0,502    0,024    0,932      0,502    0,653      0,572    0,871     0,852     0
                 0,007    0,005    0,045      0,007    0,013      0,006    0,664     0,054     BMP
                 0,386    0,012    0,425      0,386    0,405      0,392    0,870     0,362     U
                 1,000    0,228    0,002      1,000    0,003      0,035    0,894     0,002     DZ
                 0,742    0,257    0,040      0,742    0,076      0,131    0,825     0,048     D
Weighted Avg.    0,345    0,027    0,645      0,345    0,429      0,386    0,801     0,557     


=== Confusion Matrix ===

     a     b     c     d     e     f     g     h     i     j     k   <-- classified as
 11241  1235   632   766   507   170   308    75   273  1244 12106 |     a = A
  1110  4920   374   317   813    22    66   129    73   487  5429 |     b = E
  1355  1049  4361  2001  2157   230  1885   381   381  8562 11117 |     c = CGJLNQSRT
   162   113   151   179   240     6    59    13    13   598  1027 |     d = FV
   308  2081   320   194  2684     0    84    58     1   319  1034 |     e = I
  1268   562   372   648   121    94    66    66  1049  1386  7602 |     f = O
   188   371   937  1017  1066   123 36228   143   127 28119  3795 |     g = 0
   344   141   272   258   795    38   134    43   148   962  2679 |     h = BMP
   340    34   143   101   108    20    33    29  1598    51  1680 |     i = U
     0     0     0     0     0     0     0     0     0    65     0 |     j = DZ
   249    65    36    83    90     0    21    15   101    15  1942 |     k = D

=== Percent Confusion Matrix ===
a	b	c	d	e	f	g	h	i	j	k	
39.36	4.32	2.21	2.68	1.78	0.6	1.08	0.26	0.96	4.36	42.39	 a = A
8.08	35.81	2.72	2.31	5.92	0.16	0.48	0.94	0.53	3.54	39.51	 b = E
4.05	3.13	13.03	5.98	6.44	0.69	5.63	1.14	1.14	25.57	33.21	 c = CGJLNQSRT
6.33	4.41	5.9	6.99	9.37	0.23	2.3	0.51	0.51	23.35	40.1	 d = FV
4.35	29.38	4.52	2.74	37.89	0.0	1.19	0.82	0.01	4.5	14.6	 e = I
9.58	4.25	2.81	4.9	0.91	0.71	0.5	0.5	7.93	10.47	57.44	 f = O
0.26	0.51	1.3	1.41	1.48	0.17	50.24	0.2	0.18	38.99	5.26	 g = 0
5.92	2.43	4.68	4.44	13.67	0.65	2.3	0.74	2.55	16.55	46.08	 h = BMP
8.22	0.82	3.46	2.44	2.61	0.48	0.8	0.7	38.63	1.23	40.61	 i = U
0.0	0.0	0.0	0.0	0.0	0.0	0.0	0.0	0.0	100.0	0.0	 j = DZ
9.51	2.48	1.38	3.17	3.44	0.0	0.8	0.57	3.86	0.57	74.21	 k = D
