Timestamp:2014-12-07-11:02:34
Inventario:I3
Intervalo:1ms
Ngramas:3
Clasificador:NaiveBayes
Relation Name:  I3-1ms-3gramas
Num Instances:  183402
Num Attributes: 31

     Name                      Type  Nom  Int Real     Missing      Unique  Dist
   1 0Int(dB)                   Num   0%   9%  91%     0 /  0%     3 /  0%   780 
   2 0Pitch(Hz)                 Num   0%  51%  49%     0 /  0%   256 /  0%  4213 
   3 0RawPitch                  Num   0%  55%  45%     0 /  0%   417 /  0%  4119 
   4 0SmPitch                   Num   0%  53%  47%     0 /  0%   263 /  0%  4193 
   5 0Melogram(st)              Num   0%  49%  51%     0 /  0%   133 /  0%  3454 
   6 0ZCross                    Num   0% 100%   0%     0 /  0%     4 /  0%    58 
   7 0F1(Hz)                    Num   0%  52%  48%     0 /  0%  1154 /  1%  4824 
   8 0F2(Hz)                    Num   0%  52%  48%     0 /  0%  2223 /  1%  6697 
   9 0F3(Hz)                    Num   0%  53%  47%     0 /  0%  1930 /  1%  6200 
  10 0F4(Hz)                    Num   0%  52%  48%     0 /  0%  1933 /  1%  6096 
  11 1Int(dB)                   Num   0%   9%  91%     0 /  0%     4 /  0%   781 
  12 1Pitch(Hz)                 Num   0%  51%  49%     0 /  0%   256 /  0%  4213 
  13 1RawPitch                  Num   0%  55%  45%     0 /  0%   417 /  0%  4119 
  14 1SmPitch                   Num   0%  53%  47%     0 /  0%   263 /  0%  4193 
  15 1Melogram(st)              Num   0%  49%  51%     0 /  0%   133 /  0%  3454 
  16 1ZCross                    Num   0% 100%   0%     0 /  0%     4 /  0%    58 
  17 1F1(Hz)                    Num   0%  52%  48%     0 /  0%  1154 /  1%  4824 
  18 1F2(Hz)                    Num   0%  52%  48%     0 /  0%  2223 /  1%  6697 
  19 1F3(Hz)                    Num   0%  53%  47%     0 /  0%  1930 /  1%  6200 
  20 1F4(Hz)                    Num   0%  52%  48%     0 /  0%  1933 /  1%  6096 
  21 2Int(dB)                   Num   0%   9%  91%     0 /  0%     3 /  0%   781 
  22 2Pitch(Hz)                 Num   0%  51%  49%     0 /  0%   256 /  0%  4213 
  23 2RawPitch                  Num   0%  55%  45%     0 /  0%   417 /  0%  4119 
  24 2SmPitch                   Num   0%  53%  47%     0 /  0%   263 /  0%  4193 
  25 2Melogram(st)              Num   0%  49%  51%     0 /  0%   133 /  0%  3454 
  26 2ZCross                    Num   0% 100%   0%     0 /  0%     4 /  0%    58 
  27 2F1(Hz)                    Num   0%  52%  48%     0 /  0%  1154 /  1%  4824 
  28 2F2(Hz)                    Num   0%  52%  48%     0 /  0%  2223 /  1%  6697 
  29 2F3(Hz)                    Num   0%  53%  47%     0 /  0%  1930 /  1%  6200 
  30 2F4(Hz)                    Num   0%  52%  48%     0 /  0%  1933 /  1%  6096 
  31 class                      Nom 100%   0%   0%     0 /  0%     0 /  0%    11 


Naive Bayes Classifier

                    Class
Attribute               A         E CGJLNQSRT        FV         I         O         0       BMP         U        DZ         D
                   (0.16)    (0.07)    (0.18)    (0.01)    (0.04)    (0.07)    (0.39)    (0.03)    (0.02)       (0)    (0.01)
==============================================================================================================================
0Int(dB)
  mean             -4.2125   -5.1527  -16.5537  -15.0454   -8.6835   -8.1232  -48.0652  -12.4222   -5.1335  -26.8607   -7.7772
  std. dev.         9.5923    8.0415   10.3306    8.8688     8.344   12.1734   16.3662   10.6829    7.6759    1.9776    6.1585
  weight sum         28557     13740     33479      2561      7083     13234     72115      5814      4137        65      2617
  precision         0.1039    0.1039    0.1039    0.1039    0.1039    0.1039    0.1039    0.1039    0.1039    0.1039    0.1039

0Pitch(Hz)
  mean            215.2862  190.0442  114.4858  130.2645  172.8092  178.3926   17.1388  159.0019  229.1151         0  202.2132
  std. dev.       108.6186   88.0362  113.2687  107.3679   76.7258  105.3465   56.9505  111.4961   84.6861    0.0197   84.4717
  weight sum         28557     13740     33479      2561      7083     13234     72115      5814      4137        65      2617
  precision         0.1184    0.1184    0.1184    0.1184    0.1184    0.1184    0.1184    0.1184    0.1184    0.1184    0.1184

0RawPitch
  mean            204.8389  185.3904   95.6327  105.2473  165.1915  172.5714   14.0524  147.2724  220.3812         0  195.4751
  std. dev.       115.4661   95.8388  112.4442  103.6816   84.2064  113.2081   51.6498  116.8386   93.3578    0.0202   95.5093
  weight sum         28557     13740     33479      2561      7083     13234     72115      5814      4137        65      2617
  precision         0.1214    0.1214    0.1214    0.1214    0.1214    0.1214    0.1214    0.1214    0.1214    0.1214    0.1214

0SmPitch
  mean            213.3047  188.5286  107.7979  120.0376  170.4162  176.1475   15.5182  154.4932  228.5834         0  201.5673
  std. dev.       110.1891   89.2681  113.2628  104.6493   79.2706  107.6301    53.252  114.0328   85.0153    0.0198   85.7059
  weight sum         28557     13740     33479      2561      7083     13234     72115      5814      4137        65      2617
  precision          0.119     0.119     0.119     0.119     0.119     0.119     0.119     0.119     0.119     0.119     0.119

0Melogram(st)
  mean             51.2207   50.3338   29.8431   36.5638   48.3994   46.4929    5.0368   41.2442   54.0407         0   53.0058
  std. dev.        17.1322    15.575   27.4612    25.185   16.3496   20.5401   15.7743   24.4436   14.2925     0.004    11.354
  weight sum         28557     13740     33479      2561      7083     13234     72115      5814      4137        65      2617
  precision         0.0239    0.0239    0.0239    0.0239    0.0239    0.0239    0.0239    0.0239    0.0239    0.0239    0.0239

0ZCross
  mean              7.3168    5.2522    3.0487    2.0494    3.7306    4.3707    0.2663    2.4891    4.0724         0    4.0659
  std. dev.          4.734    3.3232    4.9915    2.2106    3.2938    3.0828     1.162    2.2391    2.9865    0.1696    2.2648
  weight sum         28557     13740     33479      2561      7083     13234     72115      5814      4137        65      2617
  precision         1.0175    1.0175    1.0175    1.0175    1.0175    1.0175    1.0175    1.0175    1.0175    1.0175    1.0175

0F1(Hz)
  mean              680.68  463.9738  305.0179   380.668  361.4648  484.0118   55.2552  370.2872  498.5025         0  517.1175
  std. dev.       272.1801  146.1336  278.3727  278.7586  144.5804  226.7963  168.6102  237.6445  308.2875    0.0602  153.4041
  weight sum         28557     13740     33479      2561      7083     13234     72115      5814      4137        65      2617
  precision         0.3611    0.3611    0.3611    0.3611    0.3611    0.3611    0.3611    0.3611    0.3611    0.3611    0.3611

0F2(Hz)
  mean           1440.7973 1786.3109  993.2456 1161.6312 1973.7484 1138.3786  173.0675 1302.7636 1052.4199         0  1484.039
  std. dev.       457.3774  528.1199  865.2217  781.5797  671.6296  536.2083  522.6785  752.0998  425.1574    0.0741  322.7423
  weight sum         28557     13740     33479      2561      7083     13234     72115      5814      4137        65      2617
  precision         0.4448    0.4448    0.4448    0.4448    0.4448    0.4448    0.4448    0.4448    0.4448    0.4448    0.4448

0F3(Hz)
  mean            2651.859 2620.1056 1691.8168 1979.1395 2654.8736 2496.9201  295.0862 2193.5767 2674.1003         0 2867.8184
  std. dev.        818.296  787.0306 1452.1354 1320.5796  926.0878 1027.3116  876.1293 1210.8731  785.3599    0.1108   507.148
  weight sum         28557     13740     33479      2561      7083     13234     72115      5814      4137        65      2617
  precision         0.6646    0.6646    0.6646    0.6646    0.6646    0.6646    0.6646    0.6646    0.6646    0.6646    0.6646

0F4(Hz)
  mean           3076.1686  3156.326 1938.5188 2367.2839 3155.7849 2872.8522  354.6228 2635.3487 3065.6415         0 3321.3909
  std. dev.       935.4026  913.7122 1655.1747 1544.4726 1058.3659 1164.6509 1050.4882 1423.2744  804.1571    0.1134  554.7594
  weight sum         28557     13740     33479      2561      7083     13234     72115      5814      4137        65      2617
  precision         0.6804    0.6804    0.6804    0.6804    0.6804    0.6804    0.6804    0.6804    0.6804    0.6804    0.6804

1Int(dB)
  mean             -4.2297   -5.1597  -16.4962   -15.033   -8.6607   -8.1449  -48.0905  -12.3149   -5.0726  -26.8486   -7.7263
  std. dev.         9.5985    8.0314   10.2973    8.8639    8.3453   12.1979   16.3155   10.6245    7.5754    1.9432    6.1746
  weight sum         28557     13740     33479      2561      7083     13234     72115      5814      4137        65      2617
  precision         0.1037    0.1037    0.1037    0.1037    0.1037    0.1037    0.1037    0.1037    0.1037    0.1037    0.1037

1Pitch(Hz)
  mean            215.2062   190.258  114.8253  129.9494  173.0302  178.1206    16.961  159.4679  229.3502         0  202.1991
  std. dev.       108.6869   87.8928  113.3556  107.2999   76.4927   105.326   56.6733  111.1515   84.2123    0.0197   84.5042
  weight sum         28557     13740     33479      2561      7083     13234     72115      5814      4137        65      2617
  precision         0.1184    0.1184    0.1184    0.1184    0.1184    0.1184    0.1184    0.1184    0.1184    0.1184    0.1184

1RawPitch
  mean            204.7785  185.5139   95.8597  104.9895  165.4701   172.363   13.9203  147.7852  220.5579         0   195.358
  std. dev.       115.5309   95.7233  112.5441   103.475   84.0796  113.1234   51.4522  116.6168   92.9298    0.0202   95.4733
  weight sum         28557     13740     33479      2561      7083     13234     72115      5814      4137        65      2617
  precision         0.1214    0.1214    0.1214    0.1214    0.1214    0.1214    0.1214    0.1214    0.1214    0.1214    0.1214

1SmPitch
  mean             213.264  188.8112  108.0549  119.7549  170.6319  175.8934   15.3489  154.8892  228.8462         0   201.591
  std. dev.       110.2131   89.0812   113.356  104.5511   79.0959   107.593   52.9677  113.7583   84.5411    0.0198   85.6638
  weight sum         28557     13740     33479      2561      7083     13234     72115      5814      4137        65      2617
  precision          0.119     0.119     0.119     0.119     0.119     0.119     0.119     0.119     0.119     0.119     0.119

1Melogram(st)
  mean             51.2183    50.379   29.8993   36.5095   48.4716   46.4586    4.9859   41.3724     54.16         0   53.0359
  std. dev.        17.1271   15.5007   27.4678   25.2094   16.2405   20.5573   15.7046   24.3658   14.0434     0.004   11.2662
  weight sum         28557     13740     33479      2561      7083     13234     72115      5814      4137        65      2617
  precision         0.0239    0.0239    0.0239    0.0239    0.0239    0.0239    0.0239    0.0239    0.0239    0.0239    0.0239

1ZCross
  mean              7.3101    5.2408    3.0586    2.0498    3.7393    4.3663    0.2635     2.508    4.0771         0     4.097
  std. dev.         4.7386    3.3253    4.9906    2.2131    3.2999     3.087    1.1594     2.237    2.9819    0.1696    2.2657
  weight sum         28557     13740     33479      2561      7083     13234     72115      5814      4137        65      2617
  precision         1.0175    1.0175    1.0175    1.0175    1.0175    1.0175    1.0175    1.0175    1.0175    1.0175    1.0175

1F1(Hz)
  mean            682.1503  465.3474  303.6968  378.3582  362.5437  485.0896   54.6953  370.4332  499.8715         0  517.5928
  std. dev.        271.133  144.1266  277.8831  278.5939  142.9356  226.1543  167.7972  237.1009  306.7882    0.0602  153.4125
  weight sum         28557     13740     33479      2561      7083     13234     72115      5814      4137        65      2617
  precision         0.3611    0.3611    0.3611    0.3611    0.3611    0.3611    0.3611    0.3611    0.3611    0.3611    0.3611

1F2(Hz)
  mean           1442.2136 1793.0334  990.4602 1159.1061 1983.2786  1138.672   171.346 1303.2526 1056.4734         0 1484.0603
  std. dev.       454.4964  519.5885   865.127  783.4471  662.5587  533.7441  520.3678  750.2659  419.7581    0.0741  323.8039
  weight sum         28557     13740     33479      2561      7083     13234     72115      5814      4137        65      2617
  precision         0.4448    0.4448    0.4448    0.4448    0.4448    0.4448    0.4448    0.4448    0.4448    0.4448    0.4448

1F3(Hz)
  mean           2655.0761 2628.2257 1687.3057 1972.9814 2665.7831 2500.7441  292.1102 2194.6698 2684.8467         0 2867.5444
  std. dev.       813.9125  775.3306 1452.4531  1322.667  914.1503 1023.7463   872.183 1208.1856  768.1272    0.1108  510.3194
  weight sum         28557     13740     33479      2561      7083     13234     72115      5814      4137        65      2617
  precision         0.6646    0.6646    0.6646    0.6646    0.6646    0.6646    0.6646    0.6646    0.6646    0.6646    0.6646

1F4(Hz)
  mean           3079.4149  3165.364 1934.0766 2361.3224 3167.5238 2876.6923  351.1292 2638.4197 3077.7233         0 3320.3356
  std. dev.       930.1153  898.8907  1656.262 1547.6942 1043.4405 1160.0433 1045.9775 1420.8135  781.3188    0.1134  558.3815
  weight sum         28557     13740     33479      2561      7083     13234     72115      5814      4137        65      2617
  precision         0.6804    0.6804    0.6804    0.6804    0.6804    0.6804    0.6804    0.6804    0.6804    0.6804    0.6804

2Int(dB)
  mean              -4.254   -5.1788  -16.4317  -15.0107    -8.647   -8.1757   -48.118  -12.2049   -5.0188  -26.8422   -7.6697
  std. dev.         9.6114    8.0296   10.2711     8.868    8.3528   12.2243   16.2753   10.5691    7.4803    1.9264    6.1925
  weight sum         28557     13740     33479      2561      7083     13234     72115      5814      4137        65      2617
  precision         0.1037    0.1037    0.1037    0.1037    0.1037    0.1037    0.1037    0.1037    0.1037    0.1037    0.1037

2Pitch(Hz)
  mean            215.1081  190.4015  115.2141  129.6994  173.2101  177.8211   16.7879  159.9332  229.5826         0  202.1811
  std. dev.       108.7696   87.7758  113.4474  107.2959   76.2773  105.3227   56.4054  110.8047   83.7347    0.0197    84.529
  weight sum         28557     13740     33479      2561      7083     13234     72115      5814      4137        65      2617
  precision         0.1184    0.1184    0.1184    0.1184    0.1184    0.1184    0.1184    0.1184    0.1184    0.1184    0.1184

2RawPitch
  mean            204.7122  185.6605   96.1419    104.69  165.7379  172.1393   13.7657  148.2899  220.7885         0  195.1733
  std. dev.       115.5921   95.6276  112.6457  103.2429   83.9735  113.0491   51.2115  116.3341   92.5273    0.0202   95.4762
  weight sum         28557     13740     33479      2561      7083     13234     72115      5814      4137        65      2617
  precision         0.1214    0.1214    0.1214    0.1214    0.1214    0.1214    0.1214    0.1214    0.1214    0.1214    0.1214

2SmPitch
  mean            213.2106  189.0092  108.3721  119.5928  170.7795  175.6214   15.1795  155.3207  229.0387         0  201.6147
  std. dev.       110.2529   88.9353  113.4533  104.4955    78.963  107.5646   52.6864  113.4664   84.1352    0.0198     85.61
  weight sum         28557     13740     33479      2561      7083     13234     72115      5814      4137        65      2617
  precision          0.119     0.119     0.119     0.119     0.119     0.119     0.119     0.119     0.119     0.119     0.119

2Melogram(st)
  mean             51.2091   50.4242   29.9724   36.4608   48.5268   46.3993    4.9363    41.496   54.2789         0   53.0658
  std. dev.        17.1327   15.4261   27.4735   25.2383   16.1496   20.5969   15.6359   24.2847   13.7888     0.004   11.1774
  weight sum         28557     13740     33479      2561      7083     13234     72115      5814      4137        65      2617
  precision         0.0239    0.0239    0.0239    0.0239    0.0239    0.0239    0.0239    0.0239    0.0239    0.0239    0.0239

2ZCross
  mean              7.3004    5.2275    3.0701    2.0522    3.7468    4.3624    0.2613    2.5306    4.0827         0    4.1262
  std. dev.         4.7448     3.329     4.989    2.2158    3.3104    3.0942     1.158    2.2366    2.9766    0.1696    2.2672
  weight sum         28557     13740     33479      2561      7083     13234     72115      5814      4137        65      2617
  precision         1.0175    1.0175    1.0175    1.0175    1.0175    1.0175    1.0175    1.0175    1.0175    1.0175    1.0175

2F1(Hz)
  mean            683.5492   466.604  302.5519  376.1761  363.6076   485.985   54.1452  370.5749  501.0702         0  518.0523
  std. dev.       270.1486  142.2478  277.3582  278.4193  141.3453  225.6523   167.001   236.559  305.5336    0.0602   153.457
  weight sum         28557     13740     33479      2561      7083     13234     72115      5814      4137        65      2617
  precision         0.3611    0.3611    0.3611    0.3611    0.3611    0.3611    0.3611    0.3611    0.3611    0.3611    0.3611

2F2(Hz)
  mean           1443.5164 1799.2434    988.19 1156.6522 1992.3968  1138.609  169.6356 1303.9361 1060.1575         0 1484.1145
  std. dev.       451.7609  511.5475  864.9445  785.3266  653.6523   531.629  518.0391  748.5317  414.9703    0.0741  324.8835
  weight sum         28557     13740     33479      2561      7083     13234     72115      5814      4137        65      2617
  precision         0.4448    0.4448    0.4448    0.4448    0.4448    0.4448    0.4448    0.4448    0.4448    0.4448    0.4448

2F3(Hz)
  mean           2658.1212 2635.6414 1683.7716 1966.8613 2676.2267 2503.6829  289.1632 2195.7732 2694.2989         0 2867.2678
  std. dev.       809.8058   764.297 1452.6604 1324.7402   902.456 1021.0061  868.2206 1205.5074   752.613    0.1108   513.436
  weight sum         28557     13740     33479      2561      7083     13234     72115      5814      4137        65      2617
  precision         0.6646    0.6646    0.6646    0.6646    0.6646    0.6646    0.6646    0.6646    0.6646    0.6646    0.6646

2F4(Hz)
  mean           3082.4058 3173.7603 1930.7032 2355.3511 3178.8998 2879.5448  347.6746 2641.4866 3088.1777         0 3319.2569
  std. dev.       925.1344  884.9534 1657.1479 1550.8738 1028.8621 1156.4562 1041.4777 1418.3454  760.6201    0.1134   561.953
  weight sum         28557     13740     33479      2561      7083     13234     72115      5814      4137        65      2617
  precision         0.6804    0.6804    0.6804    0.6804    0.6804    0.6804    0.6804    0.6804    0.6804    0.6804    0.6804





=== Stratified cross-validation ===

Correctly Classified Instances       65449               35.6861 %
Incorrectly Classified Instances    117953               64.3139 %
Kappa statistic                          0.2694
K&B Relative Info Score            4641093.1122 %
K&B Information Score               120166.958  bits      0.6552 bits/instance
Class complexity | order 0          474843.5697 bits      2.5891 bits/instance
Class complexity | scheme          9835160.6043 bits     53.6262 bits/instance
Complexity improvement     (Sf)    -9360317.0347 bits    -51.0372 bits/instance
Mean absolute error                      0.1177
Root mean squared error                  0.324 
Relative absolute error                 83.6552 %
Root relative squared error            122.1863 %
Coverage of cases (0.95 level)          43.8098 %
Mean rel. region size (0.95 level)      14.0182 %
Total Number of Instances           183402     


=== Detailed Accuracy By Class ===

                 TP Rate  FP Rate  Precision  Recall   F-Measure  MCC      ROC Area  PRC Area  Class
                 0,416    0,037    0,678      0,416    0,516      0,468    0,860     0,589     A
                 0,403    0,040    0,449      0,403    0,425      0,382    0,856     0,392     E
                 0,142    0,026    0,554      0,142    0,226      0,213    0,623     0,372     CGJLNQSRT
                 0,056    0,023    0,033      0,056    0,042      0,025    0,624     0,026     FV
                 0,375    0,035    0,299      0,375    0,333      0,305    0,857     0,275     I
                 0,010    0,004    0,154      0,010    0,018      0,021    0,741     0,172     O
                 0,509    0,024    0,932      0,509    0,659      0,577    0,875     0,858     0
                 0,007    0,005    0,045      0,007    0,012      0,005    0,664     0,054     BMP
                 0,385    0,012    0,425      0,385    0,404      0,392    0,872     0,369     U
                 1,000    0,225    0,002      1,000    0,003      0,035    0,902     0,002     DZ
                 0,730    0,241    0,042      0,730    0,079      0,134    0,824     0,047     D
Weighted Avg.    0,357    0,029    0,642      0,357    0,438      0,392    0,804     0,560     


=== Confusion Matrix ===

     a     b     c     d     e     f     g     h     i     j     k   <-- classified as
 11881  1470   716   635   555   170   283    81   214  1271 11281 |     a = A
  1142  5543   465   228   839    30    58   111    63   491  4770 |     b = E
  1474  1224  4756  1499  2272   269  1966   393   320  8530 10776 |     c = CGJLNQSRT
   171   137   179   143   253     6    52     9    10   609   992 |     d = FV
   315  2334   363   148  2653     2    80    44     1   321   822 |     e = I
  1328   845   454   542   123   127    55    59  1175  1399  7127 |     f = O
   225   457  1097   806  1093   161 36736   136   133 27644  3627 |     g = 0
   355   213   366   159   855    41   119    41   150   969  2546 |     h = BMP
   373    40   152    91   114    20    26    23  1594    51  1653 |     i = U
     0     0     0     0     0     0     0     0     0    65     0 |     j = DZ
   271    82    35    77   103     0    21    15    87    16  1910 |     k = D

=== Percent Confusion Matrix ===
a	b	c	d	e	f	g	h	i	j	k	
41.6	5.15	2.51	2.22	1.94	0.6	0.99	0.28	0.75	4.45	39.5	 a = A
8.31	40.34	3.38	1.66	6.11	0.22	0.42	0.81	0.46	3.57	34.72	 b = E
4.4	3.66	14.21	4.48	6.79	0.8	5.87	1.17	0.96	25.48	32.19	 c = CGJLNQSRT
6.68	5.35	6.99	5.58	9.88	0.23	2.03	0.35	0.39	23.78	38.73	 d = FV
4.45	32.95	5.12	2.09	37.46	0.03	1.13	0.62	0.01	4.53	11.61	 e = I
10.03	6.39	3.43	4.1	0.93	0.96	0.42	0.45	8.88	10.57	53.85	 f = O
0.31	0.63	1.52	1.12	1.52	0.22	50.94	0.19	0.18	38.33	5.03	 g = 0
6.11	3.66	6.3	2.73	14.71	0.71	2.05	0.71	2.58	16.67	43.79	 h = BMP
9.02	0.97	3.67	2.2	2.76	0.48	0.63	0.56	38.53	1.23	39.96	 i = U
0.0	0.0	0.0	0.0	0.0	0.0	0.0	0.0	0.0	100.0	0.0	 j = DZ
10.36	3.13	1.34	2.94	3.94	0.0	0.8	0.57	3.32	0.61	72.98	 k = D
