Timestamp:2014-12-07-11:10:34
Inventario:I3
Intervalo:15ms
Ngramas:3
Clasificador:NaiveBayes
Relation Name:  I3-15ms-3gramas
Num Instances:  12187
Num Attributes: 31

     Name                      Type  Nom  Int Real     Missing      Unique  Dist
   1 0Int(dB)                   Num   0%  10%  90%     0 /  0%    10 /  0%   768 
   2 0Pitch(Hz)                 Num   0%  50%  50%     0 /  0%   940 /  8%  2714 
   3 0RawPitch                  Num   0%  53%  47%     0 /  0%   980 /  8%  2609 
   4 0SmPitch                   Num   0%  51%  49%     0 /  0%   957 /  8%  2691 
   5 0Melogram(st)              Num   0%  46%  54%     0 /  0%   837 /  7%  2573 
   6 0ZCross                    Num   0% 100%   0%     0 /  0%    10 /  0%    40 
   7 0F1(Hz)                    Num   0%  50%  50%     0 /  0%  2281 / 19%  3977 
   8 0F2(Hz)                    Num   0%  50%  50%     0 /  0%  3848 / 32%  5158 
   9 0F3(Hz)                    Num   0%  50%  50%     0 /  0%  3419 / 28%  4850 
  10 0F4(Hz)                    Num   0%  50%  50%     0 /  0%  3319 / 27%  4764 
  11 1Int(dB)                   Num   0%  10%  90%     0 /  0%    10 /  0%   768 
  12 1Pitch(Hz)                 Num   0%  50%  50%     0 /  0%   940 /  8%  2714 
  13 1RawPitch                  Num   0%  53%  47%     0 /  0%   980 /  8%  2609 
  14 1SmPitch                   Num   0%  51%  49%     0 /  0%   957 /  8%  2691 
  15 1Melogram(st)              Num   0%  46%  54%     0 /  0%   837 /  7%  2573 
  16 1ZCross                    Num   0% 100%   0%     0 /  0%    10 /  0%    40 
  17 1F1(Hz)                    Num   0%  50%  50%     0 /  0%  2281 / 19%  3977 
  18 1F2(Hz)                    Num   0%  50%  50%     0 /  0%  3848 / 32%  5158 
  19 1F3(Hz)                    Num   0%  50%  50%     0 /  0%  3419 / 28%  4850 
  20 1F4(Hz)                    Num   0%  50%  50%     0 /  0%  3319 / 27%  4764 
  21 2Int(dB)                   Num   0%  10%  90%     0 /  0%    10 /  0%   768 
  22 2Pitch(Hz)                 Num   0%  50%  50%     0 /  0%   941 /  8%  2715 
  23 2RawPitch                  Num   0%  53%  47%     0 /  0%   979 /  8%  2609 
  24 2SmPitch                   Num   0%  51%  49%     0 /  0%   957 /  8%  2691 
  25 2Melogram(st)              Num   0%  46%  54%     0 /  0%   838 /  7%  2574 
  26 2ZCross                    Num   0% 100%   0%     0 /  0%    10 /  0%    40 
  27 2F1(Hz)                    Num   0%  50%  50%     0 /  0%  2281 / 19%  3977 
  28 2F2(Hz)                    Num   0%  50%  50%     0 /  0%  3848 / 32%  5158 
  29 2F3(Hz)                    Num   0%  50%  50%     0 /  0%  3419 / 28%  4850 
  30 2F4(Hz)                    Num   0%  50%  50%     0 /  0%  3319 / 27%  4764 
  31 class                      Nom 100%   0%   0%     0 /  0%     0 /  0%    11 


Naive Bayes Classifier

                    Class
Attribute               A         E CGJLNQSRT        FV         I         O         0       BMP         U        DZ         D
                   (0.16)    (0.08)    (0.19)    (0.01)    (0.04)    (0.08)    (0.36)    (0.03)    (0.02)       (0)    (0.01)
==============================================================================================================================
0Int(dB)
  mean             -6.2827   -8.2853  -14.9604  -11.8337  -11.4664  -10.3306  -49.3157  -11.7003        -9  -26.0954   -6.8144
  std. dev.        11.7372   10.4618   12.3225   10.8769    9.6852   12.5524   15.6452   11.7463   11.0737    2.8789     5.834
  weight sum          1989       971      2325       177       503       940      4416       399       285         5       177
  precision         0.1005    0.1005    0.1005    0.1005    0.1005    0.1005    0.1005    0.1005    0.1005    0.1005    0.1005

0Pitch(Hz)
  mean            205.2843   171.376  141.1126  161.8432  155.6275  170.5933   15.1236  176.1634  208.3385   33.4567  201.9838
  std. dev.       113.8386   96.7489  109.3948  106.9302   89.3289  111.0794   53.6597  105.3804  113.7908   66.9134   79.4376
  weight sum          1989       971      2325       177       503       940      4416       399       285         5       177
  precision         0.1828    0.1828    0.1828    0.1828    0.1828    0.1828    0.1828    0.1828    0.1828    0.1828    0.1828

0RawPitch
  mean            195.8224  166.4294   126.098  138.8672  144.7636  160.9027   12.3493   166.948  197.8707         0  195.5579
  std. dev.       117.0434   99.7164  111.8824  107.0856    91.976  115.9139   47.9354  110.5987  115.5032    0.0317   88.5514
  weight sum          1989       971      2325       177       503       940      4416       399       285         5       177
  precision           0.19      0.19      0.19      0.19      0.19      0.19      0.19      0.19      0.19      0.19      0.19

0SmPitch
  mean            203.4414  169.6121  135.4639  150.9116  152.7216  167.6951   13.4413  174.3874  204.0613         0  201.1367
  std. dev.       114.9465     98.43  110.7681  106.0938   90.5569  112.6857   49.2449  107.0721  114.8803    0.0307   81.1257
  weight sum          1989       971      2325       177       503       940      4416       399       285         5       177
  precision         0.1841    0.1841    0.1841    0.1841    0.1841    0.1841    0.1841    0.1841    0.1841    0.1841    0.1841

0Melogram(st)
  mean             49.1246    46.364   37.7819   44.3633   43.7828   44.5801    4.5593   46.2526   46.8237   20.8558   53.2637
  std. dev.        19.5383   19.9773   25.4904   21.0748   21.0046   22.3034   15.1232   20.8639     23.28    25.543   10.4759
  weight sum          1989       971      2325       177       503       940      4416       399       285         5       177
  precision         0.0321    0.0321    0.0321    0.0321    0.0321    0.0321    0.0321    0.0321    0.0321    0.0321    0.0321

0ZCross
  mean              6.2828    4.5363    3.0492    3.0523    3.4129    3.8308    0.2319    2.9291    3.6211         0    3.8995
  std. dev.         4.8016    3.4214    3.8073     2.753    3.6124    3.7224    1.1941    2.7939    3.3263    0.1838      2.03
  weight sum          1989       971      2325       177       503       940      4416       399       285         5       177
  precision         1.1026    1.1026    1.1026    1.1026    1.1026    1.1026    1.1026    1.1026    1.1026    1.1026    1.1026

0F1(Hz)
  mean            606.1779  421.4711  411.1892  494.2517  328.6039  427.7699    54.094  434.8028  447.6356  144.8121  511.8322
  std. dev.       314.3985  199.8827  270.1034  234.8699  197.0056  253.7566  172.0438  221.0826  351.3336  289.6242  138.1345
  weight sum          1989       971      2325       177       503       940      4416       399       285         5       177
  precision          0.438     0.438     0.438     0.438     0.438     0.438     0.438     0.438     0.438     0.438     0.438

0F2(Hz)
  mean           1360.0457 1557.4028 1275.4352 1421.4392 1600.4272 1095.9014  161.1049 1481.8564  941.4183  234.5069 1503.7689
  std. dev.       582.3985  715.8668  790.5713  646.1569  875.8818   642.731  507.0628    667.81  583.0066  469.0138  295.4608
  weight sum          1989       971      2325       177       503       940      4416       399       285         5       177
  precision         0.5776    0.5776    0.5776    0.5776    0.5776    0.5776    0.5776    0.5776    0.5776    0.5776    0.5776

0F3(Hz)
  mean             2479.17 2361.5599 2169.3591 2423.2784 2260.1467   2286.61  277.6514 2496.4215 2306.2699  754.6362  2865.449
  std. dev.      1020.8902  1058.658 1304.2972 1066.6564 1230.4607 1195.8853  854.2277 1031.3795 1189.9252 1509.2723  384.2718
  weight sum          1989       971      2325       177       503       940      4416       399       285         5       177
  precision         0.8494    0.8494    0.8494    0.8494    0.8494    0.8494    0.8494    0.8494    0.8494    0.8494    0.8494

0F4(Hz)
  mean           2885.4543 2879.2008 2470.4088  2839.318 2723.7025 2646.7638  332.5609 2926.4759 2634.9155   597.976 3346.8397
  std. dev.      1177.5077 1266.1181 1472.2006 1221.6089 1450.2143 1374.1393 1021.1349 1176.9755 1307.4223  1195.952  398.6879
  weight sum          1989       971      2325       177       503       940      4416       399       285         5       177
  precision         0.8707    0.8707    0.8707    0.8707    0.8707    0.8707    0.8707    0.8707    0.8707    0.8707    0.8707

1Int(dB)
  mean             -5.1539   -6.5035  -16.0885  -13.4875  -10.0663   -8.9829   -50.013  -12.6599   -7.1056  -26.9599   -7.4766
  std. dev.        10.4855    9.1484   11.4122    9.7297    8.7445   12.0392   14.6127   11.4853    9.4113    1.5758    6.0362
  weight sum          1989       971      2325       177       503       940      4416       399       285         5       177
  precision         0.1005    0.1005    0.1005    0.1005    0.1005    0.1005    0.1005    0.1005    0.1005    0.1005    0.1005

1Pitch(Hz)
  mean            211.6164  183.4717  130.3538   151.416  170.1872  178.6603   12.1273   169.157   222.874         0  200.0956
  std. dev.       108.5356   90.6248  111.3916  107.3372    80.118  105.9497   48.3511  107.9278   96.7144    0.0305   81.8085
  weight sum          1989       971      2325       177       503       940      4416       399       285         5       177
  precision         0.1828    0.1828    0.1828    0.1828    0.1828    0.1828    0.1828    0.1828    0.1828    0.1828    0.1828

1RawPitch
  mean            201.8512  179.2232  113.8623  126.9095  160.6735  170.2865    9.8346  156.3794  214.8787         0  194.4351
  std. dev.       112.7474   94.3626  112.1512  104.8815   84.5436  111.2599   42.7207  112.6669  100.3251    0.0317   90.2297
  weight sum          1989       971      2325       177       503       940      4416       399       285         5       177
  precision           0.19      0.19      0.19      0.19      0.19      0.19      0.19      0.19      0.19      0.19      0.19

1SmPitch
  mean            209.8362  181.7709  123.6122  140.8054  167.6412  176.3381   10.5826  166.7235  222.2202         0  199.4185
  std. dev.       109.8749   92.0323  112.0208    105.09   82.3894  107.6496   43.6632  110.0496    96.345    0.0307   83.1714
  weight sum          1989       971      2325       177       503       940      4416       399       285         5       177
  precision         0.1841    0.1841    0.1841    0.1841    0.1841    0.1841    0.1841    0.1841    0.1841    0.1841    0.1841

1Melogram(st)
  mean              50.884    49.433   34.6443   42.1057   47.5936    46.689    3.8391   44.1038   51.8876   10.4247   53.0523
  std. dev.        17.3482   16.6562   26.5278   22.5058    17.453   20.4728   13.9988   22.6152   18.0236   20.8493   10.6126
  weight sum          1989       971      2325       177       503       940      4416       399       285         5       177
  precision         0.0321    0.0321    0.0321    0.0321    0.0321    0.0321    0.0321    0.0321    0.0321    0.0321    0.0321

1ZCross
  mean              6.5278      4.81    2.9198     2.392    3.4699    4.0255    0.1446    2.5119    3.6946         0    3.8123
  std. dev.         4.5495    3.2495    4.1802    2.3218    3.3736    3.4165    0.8059    2.4124    3.0049    0.1838    2.0932
  weight sum          1989       971      2325       177       503       940      4416       399       285         5       177
  precision         1.1026    1.1026    1.1026    1.1026    1.1026    1.1026    1.1026    1.1026    1.1026    1.1026    1.1026

1F1(Hz)
  mean            646.5551  448.7867  369.9637   455.282  347.8788  460.8448   44.5047  407.9579  479.4518         0  510.9363
  std. dev.       288.6109  167.2097   277.083   257.875  165.9413  237.0895  156.5715  229.4716  324.8579     0.073  140.7084
  weight sum          1989       971      2325       177       503       940      4416       399       285         5       177
  precision          0.438     0.438     0.438     0.438     0.438     0.438     0.438     0.438     0.438     0.438     0.438

1F2(Hz)
  mean           1415.1431 1697.5367 1170.4997 1319.8463  1816.924 1136.7816  133.6364 1414.0003 1012.0156         0 1494.7328
  std. dev.       509.9497  606.8332  831.5724  697.8781  769.2522   583.467  464.4079  704.2441  498.3854    0.0963  278.4461
  weight sum          1989       971      2325       177       503       940      4416       399       285         5       177
  precision         0.5776    0.5776    0.5776    0.5776    0.5776    0.5776    0.5776    0.5776    0.5776    0.5776    0.5776

1F3(Hz)
  mean           2589.7585 2529.5236 1988.9896  2267.597 2497.6197 2424.0221  231.1637 2386.6296 2541.1097         0 2872.1485
  std. dev.       897.5737  892.9521 1381.3544 1184.2012 1063.4499 1093.5808   786.435 1113.8644  990.0091    0.1416  378.7918
  weight sum          1989       971      2325       177       503       940      4416       399       285         5       177
  precision         0.8494    0.8494    0.8494    0.8494    0.8494    0.8494    0.8494    0.8494    0.8494    0.8494    0.8494

1F4(Hz)
  mean           3011.8957 3071.5364 2268.1145  2669.134 2991.7043 2797.3211  277.5098 2816.2806 2890.5441         0 3364.2827
  std. dev.      1031.5735 1053.8859 1563.9172 1361.3599 1236.9689  1248.566   942.466 1281.9024 1057.0684    0.1451  394.5159
  weight sum          1989       971      2325       177       503       940      4416       399       285         5       177
  precision         0.8707    0.8707    0.8707    0.8707    0.8707    0.8707    0.8707    0.8707    0.8707    0.8707    0.8707

2Int(dB)
  mean             -4.6544   -5.5049  -16.4721  -14.3263   -9.1576   -8.3852  -50.5594  -12.4692   -5.5692  -27.6233   -7.8361
  std. dev.         9.8223    8.2833   10.3148    8.9225    8.3719   12.0282   13.7511    10.584    7.6498    2.2988    6.2597
  weight sum          1989       971      2325       177       503       940      4416       399       285         5       177
  precision         0.1005    0.1005    0.1005    0.1005    0.1005    0.1005    0.1005    0.1005    0.1005    0.1005    0.1005

2Pitch(Hz)
  mean             214.311  189.9846  128.2916   145.764  175.8084  180.3637    9.3592  169.0755  231.3108         0  199.2072
  std. dev.       106.3793   87.3032  111.7964  105.9069   73.8088  102.9621   43.0337  105.9927   84.4017    0.0305   83.2243
  weight sum          1989       971      2325       177       503       940      4416       399       285         5       177
  precision         0.1828    0.1828    0.1828    0.1828    0.1828    0.1828    0.1828    0.1828    0.1828    0.1828    0.1828

2RawPitch
  mean            204.6048  186.8578  109.7237  119.8712  168.3408  174.1912    7.3688   155.219  222.5963         0  194.0122
  std. dev.       110.9966   91.2535  111.3873  101.1981   79.5481  108.1025   36.8772  111.9695   90.9444    0.0317   91.7751
  weight sum          1989       971      2325       177       503       940      4416       399       285         5       177
  precision           0.19      0.19      0.19      0.19      0.19      0.19      0.19      0.19      0.19      0.19      0.19

2SmPitch
  mean            212.5582  188.6266  120.8933  135.2172  174.1996  178.2642    8.0645  164.9116  230.9021         0  198.3639
  std. dev.       107.6671   88.6539  112.3234  102.9917   75.9109  104.6347   38.1459  109.5012   84.0603    0.0307   84.9657
  weight sum          1989       971      2325       177       503       940      4416       399       285         5       177
  precision         0.1841    0.1841    0.1841    0.1841    0.1841    0.1841    0.1841    0.1841    0.1841    0.1841    0.1841

2Melogram(st)
  mean             51.7631   50.9897   33.8074   40.8426    49.433   47.3663    3.0766   44.2448   54.7393         0   52.6514
  std. dev.         15.996   14.4101   26.8445   23.1702   14.7392   19.6193   12.6727   22.4965   13.2895    0.0053   11.4213
  weight sum          1989       971      2325       177       503       940      4416       399       285         5       177
  precision         0.0321    0.0321    0.0321    0.0321    0.0321    0.0321    0.0321    0.0321    0.0321    0.0321    0.0321

2ZCross
  mean              6.6459    4.8701    2.8657    2.1179    3.5072    4.0889    0.1006    2.3765    3.8532         0    3.8434
  std. dev.         4.4895    2.9907    4.4033    2.1208    3.0758     2.998    0.6801    2.1579    2.8492    0.1838    2.0838
  weight sum          1989       971      2325       177       503       940      4416       399       285         5       177
  precision         1.1026    1.1026    1.1026    1.1026    1.1026    1.1026    1.1026    1.1026    1.1026    1.1026    1.1026

2F1(Hz)
  mean            680.2157  469.1052  338.0257  420.1259  370.0223  487.7924   34.4895  391.9946  504.5577         0  515.2919
  std. dev.       263.0262  136.7924  274.7281  268.8685  133.9826   218.941  138.1474  227.7233   299.786     0.073  145.0907
  weight sum          1989       971      2325       177       503       940      4416       399       285         5       177
  precision          0.438     0.438     0.438     0.438     0.438     0.438     0.438     0.438     0.438     0.438     0.438

2F2(Hz)
  mean           1457.3331 1803.6497 1097.2142 1256.0162 2010.9745 1164.8777  104.1934 1374.8709 1075.9553         0 1484.1532
  std. dev.       439.9568  490.0179  848.1773  726.8151  600.2718   526.346  413.0188  707.8796   411.661    0.0963  291.7647
  weight sum          1989       971      2325       177       503       940      4416       399       285         5       177
  precision         0.5776    0.5776    0.5776    0.5776    0.5776    0.5776    0.5776    0.5776    0.5776    0.5776    0.5776

2F3(Hz)
  mean            2676.475 2651.8402  1865.785 2156.9356 2714.2403 2529.7403  181.0252 2325.0319 2728.7599         0 2866.2889
  std. dev.       781.3816  731.0473 1416.2095 1243.2456  831.8369  990.6689   703.345 1133.6314   731.591    0.1416  431.5143
  weight sum          1989       971      2325       177       503       940      4416       399       285         5       177
  precision         0.8494    0.8494    0.8494    0.8494    0.8494    0.8494    0.8494    0.8494    0.8494    0.8494    0.8494

2F4(Hz)
  mean            3105.401 3206.8695 2136.3708 2560.0986 3233.1412 2916.3463  217.3015 2772.6162 3100.5588         0 3354.8725
  std. dev.       892.4908  845.6004 1612.2774 1438.2149  946.7373 1123.3047  842.6819 1317.5612  725.9921    0.1451  465.2171
  weight sum          1989       971      2325       177       503       940      4416       399       285         5       177
  precision         0.8707    0.8707    0.8707    0.8707    0.8707    0.8707    0.8707    0.8707    0.8707    0.8707    0.8707





=== Stratified cross-validation ===

Correctly Classified Instances        4598               37.7287 %
Incorrectly Classified Instances      7589               62.2713 %
Kappa statistic                          0.2777
K&B Relative Info Score             309581.2517 %
K&B Information Score                 8208.6658 bits      0.6736 bits/instance
Class complexity | order 0           32288.5474 bits      2.6494 bits/instance
Class complexity | scheme           351023.2282 bits     28.8031 bits/instance
Complexity improvement     (Sf)    -318734.6808 bits    -26.1537 bits/instance
Mean absolute error                      0.1132
Root mean squared error                  0.322 
Relative absolute error                 78.8567 %
Root relative squared error            120.165  %
Coverage of cases (0.95 level)          45.8603 %
Mean rel. region size (0.95 level)      13.0079 %
Total Number of Instances            12187     


=== Detailed Accuracy By Class ===

                 TP Rate  FP Rate  Precision  Recall   F-Measure  MCC      ROC Area  PRC Area  Class
                 0,325    0,046    0,579      0,325    0,416      0,357    0,818     0,491     A
                 0,128    0,025    0,308      0,128    0,180      0,156    0,804     0,239     E
                 0,211    0,063    0,441      0,211    0,285      0,202    0,672     0,368     CGJLNQSRT
                 0,056    0,013    0,060      0,056    0,058      0,044    0,678     0,030     FV
                 0,256    0,026    0,296      0,256    0,275      0,247    0,851     0,250     I
                 0,006    0,003    0,171      0,006    0,012      0,019    0,686     0,147     O
                 0,675    0,031    0,925      0,675    0,780      0,702    0,947     0,920     0
                 0,015    0,006    0,081      0,015    0,025      0,021    0,697     0,059     BMP
                 0,214    0,009    0,372      0,214    0,272      0,269    0,849     0,212     U
                 0,800    0,129    0,003      0,800    0,005      0,040    0,829     0,004     DZ
                 0,802    0,311    0,037      0,802    0,070      0,126    0,826     0,049     D
Weighted Avg.    0,377    0,039    0,577      0,377    0,441      0,385    0,822     0,533     


=== Confusion Matrix ===

    a    b    c    d    e    f    g    h    i    j    k   <-- classified as
  646   50  147   26   45   15   37    4   34   42  943 |    a = A
   98  124   82    3   66    6   10    3   11   24  544 |    b = E
  156   89  490   61   84    3  145   42   10  317  928 |    c = CGJLNQSRT
   13    2   27   10    2    0    6    0    1   17   99 |    d = FV
   27   94   61    4  129    1    9    4    3   13  158 |    e = I
   90   20   90   28   29    6   13    1   38   73  552 |    f = O
    9    6  127   25   27    3 2980    9    1 1061  168 |    g = 0
   26   11   46    8   36    0   16    6    5   26  219 |    h = BMP
   33    3   34    1   17    1    4    2   61    1  128 |    i = U
    0    0    1    0    0    0    0    0    0    4    0 |    j = DZ
   18    4    6    2    1    0    1    3    0    0  142 |    k = D

=== Percent Confusion Matrix ===
a	b	c	d	e	f	g	h	i	j	k	
32.48	2.51	7.39	1.31	2.26	0.75	1.86	0.2	1.71	2.11	47.41	 a = A
10.09	12.77	8.44	0.31	6.8	0.62	1.03	0.31	1.13	2.47	56.02	 b = E
6.71	3.83	21.08	2.62	3.61	0.13	6.24	1.81	0.43	13.63	39.91	 c = CGJLNQSRT
7.34	1.13	15.25	5.65	1.13	0.0	3.39	0.0	0.56	9.6	55.93	 d = FV
5.37	18.69	12.13	0.8	25.65	0.2	1.79	0.8	0.6	2.58	31.41	 e = I
9.57	2.13	9.57	2.98	3.09	0.64	1.38	0.11	4.04	7.77	58.72	 f = O
0.2	0.14	2.88	0.57	0.61	0.07	67.48	0.2	0.02	24.03	3.8	 g = 0
6.52	2.76	11.53	2.01	9.02	0.0	4.01	1.5	1.25	6.52	54.89	 h = BMP
11.58	1.05	11.93	0.35	5.96	0.35	1.4	0.7	21.4	0.35	44.91	 i = U
0.0	0.0	20.0	0.0	0.0	0.0	0.0	0.0	0.0	80.0	0.0	 j = DZ
10.17	2.26	3.39	1.13	0.56	0.0	0.56	1.69	0.0	0.0	80.23	 k = D
