Timestamp:2014-12-07-11:10:12
Inventario:I3
Intervalo:10ms
Ngramas:4
Clasificador:NaiveBayes
Relation Name:  I3-10ms-4gramas
Num Instances:  18293
Num Attributes: 41

     Name                      Type  Nom  Int Real     Missing      Unique  Dist
   1 0Int(dB)                   Num   0%  10%  90%     0 /  0%     7 /  0%   772 
   2 0Pitch(Hz)                 Num   0%  51%  49%     0 /  0%   816 /  4%  3063 
   3 0RawPitch                  Num   0%  54%  46%     0 /  0%   853 /  5%  2955 
   4 0SmPitch                   Num   0%  52%  48%     0 /  0%   827 /  5%  3024 
   5 0Melogram(st)              Num   0%  47%  53%     0 /  0%   581 /  3%  2807 
   6 0ZCross                    Num   0% 100%   0%     0 /  0%    10 /  0%    42 
   7 0F1(Hz)                    Num   0%  51%  49%     0 /  0%  2131 / 12%  4724 
   8 0F2(Hz)                    Num   0%  51%  49%     0 /  0%  4210 / 23%  6615 
   9 0F3(Hz)                    Num   0%  51%  49%     0 /  0%  3688 / 20%  6145 
  10 0F4(Hz)                    Num   0%  51%  49%     0 /  0%  3689 / 20%  6054 
  11 1Int(dB)                   Num   0%  10%  90%     0 /  0%     7 /  0%   772 
  12 1Pitch(Hz)                 Num   0%  51%  49%     0 /  0%   816 /  4%  3063 
  13 1RawPitch                  Num   0%  54%  46%     0 /  0%   853 /  5%  2955 
  14 1SmPitch                   Num   0%  52%  48%     0 /  0%   827 /  5%  3024 
  15 1Melogram(st)              Num   0%  47%  53%     0 /  0%   581 /  3%  2807 
  16 1ZCross                    Num   0% 100%   0%     0 /  0%    10 /  0%    42 
  17 1F1(Hz)                    Num   0%  51%  49%     0 /  0%  2131 / 12%  4724 
  18 1F2(Hz)                    Num   0%  51%  49%     0 /  0%  4210 / 23%  6615 
  19 1F3(Hz)                    Num   0%  51%  49%     0 /  0%  3688 / 20%  6145 
  20 1F4(Hz)                    Num   0%  51%  49%     0 /  0%  3689 / 20%  6054 
  21 2Int(dB)                   Num   0%  10%  90%     0 /  0%     7 /  0%   772 
  22 2Pitch(Hz)                 Num   0%  51%  49%     0 /  0%   816 /  4%  3063 
  23 2RawPitch                  Num   0%  54%  46%     0 /  0%   853 /  5%  2955 
  24 2SmPitch                   Num   0%  52%  48%     0 /  0%   827 /  5%  3024 
  25 2Melogram(st)              Num   0%  47%  53%     0 /  0%   581 /  3%  2807 
  26 2ZCross                    Num   0% 100%   0%     0 /  0%    10 /  0%    42 
  27 2F1(Hz)                    Num   0%  51%  49%     0 /  0%  2131 / 12%  4724 
  28 2F2(Hz)                    Num   0%  51%  49%     0 /  0%  4210 / 23%  6615 
  29 2F3(Hz)                    Num   0%  51%  49%     0 /  0%  3688 / 20%  6145 
  30 2F4(Hz)                    Num   0%  51%  49%     0 /  0%  3689 / 20%  6054 
  31 3Int(dB)                   Num   0%  10%  90%     0 /  0%     7 /  0%   772 
  32 3Pitch(Hz)                 Num   0%  51%  49%     0 /  0%   817 /  4%  3064 
  33 3RawPitch                  Num   0%  54%  46%     0 /  0%   854 /  5%  2956 
  34 3SmPitch                   Num   0%  52%  48%     0 /  0%   828 /  5%  3025 
  35 3Melogram(st)              Num   0%  47%  53%     0 /  0%   582 /  3%  2808 
  36 3ZCross                    Num   0% 100%   0%     0 /  0%    10 /  0%    42 
  37 3F1(Hz)                    Num   0%  51%  49%     0 /  0%  2131 / 12%  4724 
  38 3F2(Hz)                    Num   0%  51%  49%     0 /  0%  4210 / 23%  6615 
  39 3F3(Hz)                    Num   0%  51%  49%     0 /  0%  3688 / 20%  6145 
  40 3F4(Hz)                    Num   0%  51%  49%     0 /  0%  3689 / 20%  6054 
  41 class                      Nom 100%   0%   0%     0 /  0%     0 /  0%    11 


Naive Bayes Classifier

                    Class
Attribute               A         E CGJLNQSRT        FV         I         O         0       BMP         U        DZ         D
                   (0.16)    (0.08)    (0.19)    (0.01)    (0.04)    (0.08)    (0.37)    (0.03)    (0.02)       (0)    (0.01)
==============================================================================================================================
0Int(dB)
  mean             -6.0715   -8.2832  -15.1929   -12.229  -11.5529  -10.1884  -48.5008  -12.0773    -9.141  -25.8333   -6.8561
  std. dev.         11.593   10.5574   12.4136   10.7764   10.0097   12.4847   16.5452   11.9572    11.517    3.4835    5.8063
  weight sum          2940      1438      3443       261       748      1377      6795       594       423         8       266
  precision         0.1005    0.1005    0.1005    0.1005    0.1005    0.1005    0.1005    0.1005    0.1005    0.1005    0.1005

0Pitch(Hz)
  mean            206.0621  171.3761  136.6491  155.4117  151.1778  169.4942    17.615  171.2937  206.5505   41.7778  203.5149
  std. dev.       114.2169   97.3583  110.9563  107.1208   90.4554  112.1681   57.6262  108.4803  112.6088   72.3614   80.9096
  weight sum          2940      1438      3443       261       748      1377      6795       594       423         8       266
  precision         0.1626    0.1626    0.1626    0.1626    0.1626    0.1626    0.1626    0.1626    0.1626    0.1626    0.1626

0RawPitch
  mean            195.4446  165.9268  121.1217  134.3425  140.1369  160.7417    14.716  160.9589  196.9115         0  197.2577
  std. dev.       118.3762  101.4248   112.988  108.4897   92.6731  117.1537   52.3139  112.6321  116.0658     0.028   89.7337
  weight sum          2940      1438      3443       261       748      1377      6795       594       423         8       266
  precision         0.1679    0.1679    0.1679    0.1679    0.1679    0.1679    0.1679    0.1679    0.1679    0.1679    0.1679

0SmPitch
  mean            203.8807  168.9406  131.5124  147.5141  148.7333  166.8657   15.9847  168.8457  203.2317         0   202.821
  std. dev.       115.5779   99.8036  111.9223  106.2865   91.0219  113.6276   53.9912  109.5157  114.3476    0.0275   82.3739
  weight sum          2940      1438      3443       261       748      1377      6795       594       423         8       266
  precision         0.1647    0.1647    0.1647    0.1647    0.1647    0.1647    0.1647    0.1647    0.1647    0.1647    0.1647

0Melogram(st)
  mean               49.16   46.0304   36.7079   43.7744   42.8057   44.1418    5.1045   45.0143   46.9326   19.5598   53.5061
  std. dev.         19.561   20.3297    25.931   21.5454   21.7211   22.6348   15.8989   21.9175   23.1329   25.2516   10.0492
  weight sum          2940      1438      3443       261       748      1377      6795       594       423         8       266
  precision         0.0294    0.0294    0.0294    0.0294    0.0294    0.0294    0.0294    0.0294    0.0294    0.0294    0.0294

0ZCross
  mean                6.39    4.5442    2.9972    2.8924    3.2766    3.7485    0.3145    2.7268    3.4685         0    3.7614
  std. dev.         4.8474    3.6764    3.9166    2.7663    3.9228    3.6397    1.5733    2.7447    3.3113    0.2154    2.1704
  weight sum          2940      1438      3443       261       748      1377      6795       594       423         8       266
  precision         1.2927    1.2927    1.2927    1.2927    1.2927    1.2927    1.2927    1.2927    1.2927    1.2927    1.2927

0F1(Hz)
  mean            608.9814  414.4876  400.0438  481.1684  324.4815  427.1986   60.6312  420.5783  438.9512  180.9738  511.1178
  std. dev.       314.7754  204.0813  275.3762  244.4663  196.3871  255.5101  179.8204   233.997  351.0171  313.4558   140.012
  weight sum          2940      1438      3443       261       748      1377      6795       594       423         8       266
  precision         0.3688    0.3688    0.3688    0.3688    0.3688    0.3688    0.3688    0.3688    0.3688    0.3688    0.3688

0F2(Hz)
  mean           1361.1691 1540.0099 1235.6394 1382.0687 1594.9962   1087.12  182.9176 1431.5618  933.7491  293.0736  1504.063
  std. dev.       579.0188  736.2298  805.9784  677.1876  886.9887  643.6083  535.9925  712.6322  589.8158  507.6184  301.5818
  weight sum          2940      1438      3443       261       748      1377      6795       594       423         8       266
  precision         0.4504    0.4504    0.4504    0.4504    0.4504    0.4504    0.4504    0.4504    0.4504    0.4504    0.4504

0F3(Hz)
  mean            2487.049 2334.9624 2101.3648 2354.9866 2246.1444 2276.2654  313.2807 2400.4431 2280.9865  943.2827 2878.8995
  std. dev.       1017.274 1092.4038  1331.579 1117.9617 1243.3357 1203.3602  898.6842 1114.3931 1204.2554 1633.8135  387.0814
  weight sum          2940      1438      3443       261       748      1377      6795       594       423         8       266
  precision         0.6705    0.6705    0.6705    0.6705    0.6705    0.6705    0.6705    0.6705    0.6705    0.6705    0.6705

0F4(Hz)
  mean           2887.8182 2827.1616 2403.5056 2769.7197 2704.0163 2631.6643   377.076 2825.1944 2611.7192  747.4603 3345.3023
  std. dev.      1170.9939 1299.7201  1510.226 1285.7643 1464.2027 1382.1236 1079.3679 1281.0444 1326.9291 1294.6392  404.4488
  weight sum          2940      1438      3443       261       748      1377      6795       594       423         8       266
  precision         0.6851    0.6851    0.6851    0.6851    0.6851    0.6851    0.6851    0.6851    0.6851    0.6851    0.6851

1Int(dB)
  mean             -5.2562   -6.9781  -16.0062   -13.453  -10.5648   -9.2289  -48.9834  -12.6892    -7.821  -26.5998   -7.3579
  std. dev.        10.6845     9.587   11.8296    9.9848    9.3802   12.1503   15.8904   11.7406   10.4376    2.3369    5.9065
  weight sum          2940      1438      3443       261       748      1377      6795       594       423         8       266
  precision         0.1005    0.1005    0.1005    0.1005    0.1005    0.1005    0.1005    0.1005    0.1005    0.1005    0.1005

1Pitch(Hz)
  mean            210.9077  179.7817  128.2945  147.5196  161.7269  175.9738   15.5437  166.9471  217.8099   20.9194   202.533
  std. dev.       110.2129   93.2543  112.1215  107.4902   84.8365  108.3955   54.3378  109.8658   101.251   55.3476   81.9477
  weight sum          2940      1438      3443       261       748      1377      6795       594       423         8       266
  precision         0.1626    0.1626    0.1626    0.1626    0.1626    0.1626    0.1626    0.1626    0.1626    0.1626    0.1626

1RawPitch
  mean            200.2188  175.0704  111.9207  125.4184  151.7646  167.5572   12.9587  153.9342  208.6619         0  196.8233
  std. dev.       115.2026    97.669  112.7888  107.1313   87.9735  114.1306   49.1213  113.8843  106.1879     0.028   90.7572
  weight sum          2940      1438      3443       261       748      1377      6795       594       423         8       266
  precision         0.1679    0.1679    0.1679    0.1679    0.1679    0.1679    0.1679    0.1679    0.1679    0.1679    0.1679

1SmPitch
  mean            208.5725  177.2466  123.2098  139.8605  159.4793  173.3248   13.9223  163.7838  215.6213         0  201.6691
  std. dev.       111.9157   95.7152  112.7853  105.8427   85.9419   110.039   50.3065  111.3474  102.5619    0.0275   83.7815
  weight sum          2940      1438      3443       261       748      1377      6795       594       423         8       266
  precision         0.1647    0.1647    0.1647    0.1647    0.1647    0.1647    0.1647    0.1647    0.1647    0.1647    0.1647

1Melogram(st)
  mean             50.4189   48.2348   34.4082   41.8303   45.5707   45.7502    4.6142   43.8398   50.2186     13.03   53.3655
  std. dev.        18.0558   18.1696   26.6181   22.7672   19.4988   21.3432   15.1935   22.8015   19.9908   22.5687   10.1476
  weight sum          2940      1438      3443       261       748      1377      6795       594       423         8       266
  precision         0.0294    0.0294    0.0294    0.0294    0.0294    0.0294    0.0294    0.0294    0.0294    0.0294    0.0294

1ZCross
  mean              6.5747     4.777    2.8981    2.4071    3.3008    3.9062    0.2452    2.4526    3.5022         0    3.6642
  std. dev.         4.6892    3.5473    4.2392    2.4072    3.5385    3.5254    1.2667    2.4563    3.0347    0.2154    2.1396
  weight sum          2940      1438      3443       261       748      1377      6795       594       423         8       266
  precision         1.2927    1.2927    1.2927    1.2927    1.2927    1.2927    1.2927    1.2927    1.2927    1.2927    1.2927

1F1(Hz)
  mean            637.5745  432.7945   372.225  457.1842    337.77   450.362   53.5851  403.2101  460.9396   90.4869  508.9856
  std. dev.       296.9353  184.6991  279.3546   256.028  176.2367  244.3368  169.3624  236.5419  335.9081  239.4058  146.3709
  weight sum          2940      1438      3443       261       748      1377      6795       594       423         8       266
  precision         0.3688    0.3688    0.3688    0.3688    0.3688    0.3688    0.3688    0.3688    0.3688    0.3688    0.3688

1F2(Hz)
  mean           1400.9882 1632.6744 1166.1693 1322.7123 1742.2077 1117.1452  162.6594  1390.089  979.7948  146.5368 1492.3451
  std. dev.       529.3561   673.554   831.893  699.8891  822.2232  603.6027  507.4556    729.41  538.5145     387.7  306.0497
  weight sum          2940      1438      3443       261       748      1377      6795       594       423         8       266
  precision         0.4504    0.4504    0.4504    0.4504    0.4504    0.4504    0.4504    0.4504    0.4504    0.4504    0.4504

1F3(Hz)
  mean           2565.6797 2447.1049 1980.6736 2268.6436 2408.7343 2373.7752  279.4239 2335.5553 2430.7754  471.6413 2874.2561
  std. dev.       931.4867  996.0136 1379.4958  1175.068 1138.7559 1134.1201  854.4078  1153.522  1089.578 1247.8457  420.4854
  weight sum          2940      1438      3443       261       748      1377      6795       594       423         8       266
  precision         0.6705    0.6705    0.6705    0.6705    0.6705    0.6705    0.6705    0.6705    0.6705    0.6705    0.6705

1F4(Hz)
  mean           2978.0599  2953.752 2268.0892 2681.0905 2889.2593 2740.1433  336.5089  2763.331 2777.4425  373.7301 3342.9508
  std. dev.      1069.8428 1176.1247 1568.1908 1356.4028 1330.8507 1297.7013 1026.8121  1333.663 1184.8746   988.797  450.7948
  weight sum          2940      1438      3443       261       748      1377      6795       594       423         8       266
  precision         0.6851    0.6851    0.6851    0.6851    0.6851    0.6851    0.6851    0.6851    0.6851    0.6851    0.6851

2Int(dB)
  mean             -4.6583   -5.9386  -16.5001   -14.457   -9.6878    -8.538  -49.4531  -12.9285    -6.523  -27.1778   -7.8272
  std. dev.         9.9884    8.7524   11.0247    9.1174    8.9009   12.0283   15.1922   11.2858    9.2325    1.8825    5.9928
  weight sum          2940      1438      3443       261       748      1377      6795       594       423         8       266
  precision         0.1005    0.1005    0.1005    0.1005    0.1005    0.1005    0.1005    0.1005    0.1005    0.1005    0.1005

2Pitch(Hz)
  mean            214.2999  187.1289  122.6403  141.0758   169.624   180.298   13.6918  164.0251  226.0414         0  201.6085
  std. dev.       107.3554   89.1848  112.4887  107.2369   79.3475  104.9788   51.1536  110.3131   90.8899    0.0271   83.5041
  weight sum          2940      1438      3443       261       748      1377      6795       594       423         8       266
  precision         0.1626    0.1626    0.1626    0.1626    0.1626    0.1626    0.1626    0.1626    0.1626    0.1626    0.1626

2RawPitch
  mean            203.4999  182.7671   105.444  118.1042  160.2257  173.1119   11.1154  151.3042  217.7899         0  195.8548
  std. dev.        112.824   93.8486  112.1993  105.1012   83.7348   111.182   45.2414  114.0339   96.3272     0.028   92.7432
  weight sum          2940      1438      3443       261       748      1377      6795       594       423         8       266
  precision         0.1679    0.1679    0.1679    0.1679    0.1679    0.1679    0.1679    0.1679    0.1679    0.1679    0.1679

2SmPitch
  mean            212.0791  185.0532  116.9238  133.6333  167.3233  177.9648   12.1445  160.0578  225.0495         0  200.8491
  std. dev.       109.1565    91.154  112.9389  104.9032   80.6951  106.8233   46.8932  112.2555   91.3186    0.0275   85.1021
  weight sum          2940      1438      3443       261       748      1377      6795       594       423         8       266
  precision         0.1647    0.1647    0.1647    0.1647    0.1647    0.1647    0.1647    0.1647    0.1647    0.1647    0.1647

2Melogram(st)
  mean             51.3965   50.1673   32.6991   40.1599   47.7876   46.7989    4.1833   42.9332   52.9506     6.515   53.0952
  std. dev.        16.7239    15.729   27.0066   23.6891   17.1488   20.3195   14.5506   23.4206   16.4082   17.2371   10.7263
  weight sum          2940      1438      3443       261       748      1377      6795       594       423         8       266
  precision         0.0294    0.0294    0.0294    0.0294    0.0294    0.0294    0.0294    0.0294    0.0294    0.0294    0.0294

2ZCross
  mean              6.7426    4.8777    2.8504    2.0356    3.3458    4.0104     0.176    2.2633    3.6091         0     3.601
  std. dev.         4.6066    3.2885    4.4898    2.1197    3.3619    3.2415    0.9113    2.1902     2.929    0.2154    2.1368
  weight sum          2940      1438      3443       261       748      1377      6795       594       423         8       266
  precision         1.2927    1.2927    1.2927    1.2927    1.2927    1.2927    1.2927    1.2927    1.2927    1.2927    1.2927

2F1(Hz)
  mean            664.8149  452.4055  344.2113  427.4933  353.4925  474.0843   46.3631  387.8062  482.6221         0  513.7324
  std. dev.       276.6469  159.6131  280.1567  266.6231  155.8578  229.5879  157.5875  236.7462  319.3509    0.0615  147.7122
  weight sum          2940      1438      3443       261       748      1377      6795       594       423         8       266
  precision         0.3688    0.3688    0.3688    0.3688    0.3688    0.3688    0.3688    0.3688    0.3688    0.3688    0.3688

2F2(Hz)
  mean           1438.6375 1730.4304 1096.0185 1255.6134 1886.1841 1149.4791  141.7193 1355.9289 1027.4385         0 1489.1875
  std. dev.       474.1145  583.9406  849.0325  728.5852  727.5947  557.6755  475.9552   740.105  482.4236    0.0751  299.1535
  weight sum          2940      1438      3443       261       748      1377      6795       594       423         8       266
  precision         0.4504    0.4504    0.4504    0.4504    0.4504    0.4504    0.4504    0.4504    0.4504    0.4504    0.4504

2F3(Hz)
  mean           2639.6428 2566.2209 1863.7293 2161.8658 2569.2982 2474.5963  243.8749 2275.3297 2578.9648         0 2878.9701
  std. dev.       836.6339  864.4824 1415.5597 1236.4745 1001.9819 1047.0894  803.8509 1178.2882   937.242    0.1118  419.4367
  weight sum          2940      1438      3443       261       748      1377      6795       594       423         8       266
  precision         0.6705    0.6705    0.6705    0.6705    0.6705    0.6705    0.6705    0.6705    0.6705    0.6705    0.6705

2F4(Hz)
  mean           3062.2428 3090.2109 2135.6008 2569.1202 3069.7504 2853.8724  293.9884  2712.388 2942.8419         0 3351.4375
  std. dev.        957.834 1010.4123 1612.0487  1435.181 1158.3793 1192.6404  966.8453 1372.7244  994.8814    0.1142  448.5867
  weight sum          2940      1438      3443       261       748      1377      6795       594       423         8       266
  precision         0.6851    0.6851    0.6851    0.6851    0.6851    0.6851    0.6851    0.6851    0.6851    0.6851    0.6851

3Int(dB)
  mean             -4.4871   -5.4216  -16.5098  -14.8768   -9.1229   -8.3525  -49.8217  -12.4295   -5.5461  -28.0322   -7.8401
  std. dev.         9.7495    8.2134   10.3424    8.5952    8.6417   12.1594   14.6169   10.5978    7.9501    3.0174    6.1435
  weight sum          2940      1438      3443       261       748      1377      6795       594       423         8       266
  precision         0.1005    0.1005    0.1005    0.1005    0.1005    0.1005    0.1005    0.1005    0.1005    0.1005    0.1005

3Pitch(Hz)
  mean            215.0265  190.3918  123.3327  138.4937  173.2212  179.1301   11.8153  166.0775  230.9859         0  201.0018
  std. dev.       106.7631   87.4257  112.7931  106.1938   75.5653   103.979   47.9052  107.8218   83.0165    0.0271   84.8129
  weight sum          2940      1438      3443       261       748      1377      6795       594       423         8       266
  precision         0.1626    0.1626    0.1626    0.1626    0.1626    0.1626    0.1626    0.1626    0.1626    0.1626    0.1626

3RawPitch
  mean            204.5729  186.9416  104.8015  114.3432  164.8509  172.8881    9.4625  152.1597  221.8351         0  195.4717
  std. dev.       112.2304   92.1579  111.9064  102.4081   80.9322  110.0663   41.8782   112.921   90.5835     0.028   93.1794
  weight sum          2940      1438      3443       261       748      1377      6795       594       423         8       266
  precision         0.1679    0.1679    0.1679    0.1679    0.1679    0.1679    0.1679    0.1679    0.1679    0.1679    0.1679

3SmPitch
  mean            213.0261  188.8901  117.1704  131.3637   170.918  177.1958   10.2255   161.354  230.1655         0  200.6341
  std. dev.       108.3889   88.8533  113.2926  103.6517   77.6434  105.5718   43.0597   110.475   83.5323    0.0274   85.6348
  weight sum          2940      1438      3443       261       748      1377      6795       594       423         8       266
  precision         0.1647    0.1647    0.1647    0.1647    0.1647    0.1647    0.1647    0.1647    0.1647    0.1647    0.1647

3Melogram(st)
  mean             51.7443    50.757    32.661   39.8199   48.7629   46.9889    3.6608   43.3262   54.7081         0   53.0359
  std. dev.        16.1385   14.7786   27.1072   23.9008   15.7624   20.0024   13.7177   23.0622      13.2    0.0049   10.7827
  weight sum          2940      1438      3443       261       748      1377      6795       594       423         8       266
  precision         0.0294    0.0294    0.0294    0.0294    0.0294    0.0294    0.0294    0.0294    0.0294    0.0294    0.0294

3ZCross
  mean              6.8081    4.8831    2.8441     1.892    3.3285    4.0329    0.1408    2.2589     3.713         0    3.7468
  std. dev.         4.5857    3.1607    4.6239    1.9842    3.1155    2.9611    0.7915    2.0707    2.8728    0.2154    2.1448
  weight sum          2940      1438      3443       261       748      1377      6795       594       423         8       266
  precision         1.2927    1.2927    1.2927    1.2927    1.2927    1.2927    1.2927    1.2927    1.2927    1.2927    1.2927

3F1(Hz)
  mean            684.8624  467.7497  325.1328  399.7197  366.3373  488.3137    40.076  383.8168  499.4556         0  516.3637
  std. dev.       260.7635  137.6849  277.0697  273.4014  136.8258  220.1308  146.5436  232.2972   302.477    0.0615   149.061
  weight sum          2940      1438      3443       261       748      1377      6795       594       423         8       266
  precision         0.3688    0.3688    0.3688    0.3688    0.3688    0.3688    0.3688    0.3688    0.3688    0.3688    0.3688

3F2(Hz)
  mean             1462.31 1804.3312 1052.8424 1203.5318 1998.9223 1157.6298  123.5058 1349.6905 1072.0404         0  1487.044
  std. dev.       430.5852  496.1344  854.7536  754.0967  624.7892  525.4581  447.0173  728.3086  424.8655    0.0751  307.7561
  weight sum          2940      1438      3443       261       748      1377      6795       594       423         8       266
  precision         0.4504    0.4504    0.4504    0.4504    0.4504    0.4504    0.4504    0.4504    0.4504    0.4504    0.4504

3F3(Hz)
  mean           2687.7356 2653.2835 1794.2755 2069.2644 2693.2397 2526.8298  212.0997 2268.8241 2703.6172         0 2875.6804
  std. dev.       764.2898  742.6344 1431.8071 1282.9054  863.6174  995.0347  754.3371 1165.0514  758.4179    0.1118  453.3058
  weight sum          2940      1438      3443       261       748      1377      6795       594       423         8       266
  precision         0.6705    0.6705    0.6705    0.6705    0.6705    0.6705    0.6705    0.6705    0.6705    0.6705    0.6705

3F4(Hz)
  mean           3116.7672 3189.0151 2058.5295 2471.0333 3209.5559 2910.5036  256.0783 2720.5333 3086.4504         0 3344.0454
  std. dev.       872.2076  856.4692 1634.0141 1495.7988  985.3806 1127.9374  908.4829 1363.5495  766.0819    0.1142  491.6785
  weight sum          2940      1438      3443       261       748      1377      6795       594       423         8       266
  precision         0.6851    0.6851    0.6851    0.6851    0.6851    0.6851    0.6851    0.6851    0.6851    0.6851    0.6851





=== Stratified cross-validation ===

Correctly Classified Instances        6229               34.0513 %
Incorrectly Classified Instances     12064               65.9487 %
Kappa statistic                          0.2449
K&B Relative Info Score             391076.2602 %
K&B Information Score                10303.1998 bits      0.5632 bits/instance
Class complexity | order 0           48172.4848 bits      2.6334 bits/instance
Class complexity | scheme           746611.7624 bits     40.8141 bits/instance
Complexity improvement     (Sf)    -698439.2776 bits    -38.1807 bits/instance
Mean absolute error                      0.1199
Root mean squared error                  0.3362
Relative absolute error                 83.939  %
Root relative squared error            125.8395 %
Coverage of cases (0.95 level)          39.4632 %
Mean rel. region size (0.95 level)      11.6826 %
Total Number of Instances            18293     


=== Detailed Accuracy By Class ===

                 TP Rate  FP Rate  Precision  Recall   F-Measure  MCC      ROC Area  PRC Area  Class
                 0,329    0,044    0,590      0,329    0,422      0,367    0,826     0,506     A
                 0,113    0,019    0,331      0,113    0,168      0,155    0,809     0,243     E
                 0,180    0,053    0,438      0,180    0,255      0,185    0,657     0,358     CGJLNQSRT
                 0,061    0,023    0,037      0,061    0,046      0,030    0,673     0,027     FV
                 0,243    0,024    0,300      0,243    0,269      0,242    0,844     0,243     I
                 0,006    0,002    0,174      0,006    0,011      0,019    0,692     0,144     O
                 0,583    0,035    0,909      0,583    0,710      0,622    0,927     0,891     0
                 0,010    0,004    0,076      0,010    0,018      0,016    0,682     0,055     BMP
                 0,206    0,007    0,395      0,206    0,271      0,273    0,841     0,214     U
                 0,875    0,168    0,002      0,875    0,005      0,040    0,860     0,003     DZ
                 0,801    0,318    0,036      0,801    0,069      0,123    0,829     0,051     D
Weighted Avg.    0,341    0,038    0,579      0,341    0,413      0,357    0,815     0,528     


=== Confusion Matrix ===

    a    b    c    d    e    f    g    h    i    j    k   <-- classified as
  967   61  186   55   63   16   50    1   47   76 1418 |    a = A
  143  162  113   15   88    8   12    8   23   40  826 |    b = E
  210   84  619  171  108    8  251   39   12  540 1401 |    c = CGJLNQSRT
   19    2   30   16    5    0   11    1    0   32  145 |    d = FV
   43  113   82   12  182    1   17    4    4   25  265 |    e = I
  124   37  106   57   45    8   14    3   43  120  820 |    f = O
   18    8  170   70   41    3 3962   14    3 2179  327 |    g = 0
   37   10   56   20   53    0   34    6    1   49  328 |    h = BMP
   50    6   41    8   18    2    9    2   87    2  198 |    i = U
    0    0    1    0    0    0    0    0    0    7    0 |    j = DZ
   28    7    8    6    3    0    0    1    0    0  213 |    k = D

=== Percent Confusion Matrix ===
a	b	c	d	e	f	g	h	i	j	k	
32.89	2.07	6.33	1.87	2.14	0.54	1.7	0.03	1.6	2.59	48.23	 a = A
9.94	11.27	7.86	1.04	6.12	0.56	0.83	0.56	1.6	2.78	57.44	 b = E
6.1	2.44	17.98	4.97	3.14	0.23	7.29	1.13	0.35	15.68	40.69	 c = CGJLNQSRT
7.28	0.77	11.49	6.13	1.92	0.0	4.21	0.38	0.0	12.26	55.56	 d = FV
5.75	15.11	10.96	1.6	24.33	0.13	2.27	0.53	0.53	3.34	35.43	 e = I
9.01	2.69	7.7	4.14	3.27	0.58	1.02	0.22	3.12	8.71	59.55	 f = O
0.26	0.12	2.5	1.03	0.6	0.04	58.31	0.21	0.04	32.07	4.81	 g = 0
6.23	1.68	9.43	3.37	8.92	0.0	5.72	1.01	0.17	8.25	55.22	 h = BMP
11.82	1.42	9.69	1.89	4.26	0.47	2.13	0.47	20.57	0.47	46.81	 i = U
0.0	0.0	12.5	0.0	0.0	0.0	0.0	0.0	0.0	87.5	0.0	 j = DZ
10.53	2.63	3.01	2.26	1.13	0.0	0.0	0.38	0.0	0.0	80.08	 k = D
