Timestamp:2014-12-07-11:10:43
Inventario:I3
Intervalo:15ms
Ngramas:5
Clasificador:NaiveBayes
Relation Name:  I3-15ms-5gramas
Num Instances:  12185
Num Attributes: 51

     Name                      Type  Nom  Int Real     Missing      Unique  Dist
   1 0Int(dB)                   Num   0%  10%  90%     0 /  0%    10 /  0%   768 
   2 0Pitch(Hz)                 Num   0%  50%  50%     0 /  0%   940 /  8%  2714 
   3 0RawPitch                  Num   0%  53%  47%     0 /  0%   980 /  8%  2609 
   4 0SmPitch                   Num   0%  51%  49%     0 /  0%   957 /  8%  2691 
   5 0Melogram(st)              Num   0%  46%  54%     0 /  0%   837 /  7%  2573 
   6 0ZCross                    Num   0% 100%   0%     0 /  0%    10 /  0%    40 
   7 0F1(Hz)                    Num   0%  50%  50%     0 /  0%  2281 / 19%  3977 
   8 0F2(Hz)                    Num   0%  50%  50%     0 /  0%  3848 / 32%  5158 
   9 0F3(Hz)                    Num   0%  50%  50%     0 /  0%  3419 / 28%  4850 
  10 0F4(Hz)                    Num   0%  50%  50%     0 /  0%  3319 / 27%  4764 
  11 1Int(dB)                   Num   0%  10%  90%     0 /  0%    10 /  0%   768 
  12 1Pitch(Hz)                 Num   0%  50%  50%     0 /  0%   940 /  8%  2714 
  13 1RawPitch                  Num   0%  53%  47%     0 /  0%   980 /  8%  2609 
  14 1SmPitch                   Num   0%  51%  49%     0 /  0%   957 /  8%  2691 
  15 1Melogram(st)              Num   0%  46%  54%     0 /  0%   837 /  7%  2573 
  16 1ZCross                    Num   0% 100%   0%     0 /  0%    10 /  0%    40 
  17 1F1(Hz)                    Num   0%  50%  50%     0 /  0%  2281 / 19%  3977 
  18 1F2(Hz)                    Num   0%  50%  50%     0 /  0%  3848 / 32%  5158 
  19 1F3(Hz)                    Num   0%  50%  50%     0 /  0%  3419 / 28%  4850 
  20 1F4(Hz)                    Num   0%  50%  50%     0 /  0%  3319 / 27%  4764 
  21 2Int(dB)                   Num   0%  10%  90%     0 /  0%    10 /  0%   768 
  22 2Pitch(Hz)                 Num   0%  50%  50%     0 /  0%   940 /  8%  2714 
  23 2RawPitch                  Num   0%  53%  47%     0 /  0%   980 /  8%  2609 
  24 2SmPitch                   Num   0%  51%  49%     0 /  0%   957 /  8%  2691 
  25 2Melogram(st)              Num   0%  46%  54%     0 /  0%   837 /  7%  2573 
  26 2ZCross                    Num   0% 100%   0%     0 /  0%    10 /  0%    40 
  27 2F1(Hz)                    Num   0%  50%  50%     0 /  0%  2281 / 19%  3977 
  28 2F2(Hz)                    Num   0%  50%  50%     0 /  0%  3848 / 32%  5158 
  29 2F3(Hz)                    Num   0%  50%  50%     0 /  0%  3419 / 28%  4850 
  30 2F4(Hz)                    Num   0%  50%  50%     0 /  0%  3319 / 27%  4764 
  31 3Int(dB)                   Num   0%  10%  90%     0 /  0%    10 /  0%   768 
  32 3Pitch(Hz)                 Num   0%  50%  50%     0 /  0%   940 /  8%  2714 
  33 3RawPitch                  Num   0%  53%  47%     0 /  0%   980 /  8%  2609 
  34 3SmPitch                   Num   0%  51%  49%     0 /  0%   957 /  8%  2691 
  35 3Melogram(st)              Num   0%  46%  54%     0 /  0%   837 /  7%  2573 
  36 3ZCross                    Num   0% 100%   0%     0 /  0%    10 /  0%    40 
  37 3F1(Hz)                    Num   0%  50%  50%     0 /  0%  2281 / 19%  3977 
  38 3F2(Hz)                    Num   0%  50%  50%     0 /  0%  3848 / 32%  5158 
  39 3F3(Hz)                    Num   0%  50%  50%     0 /  0%  3419 / 28%  4850 
  40 3F4(Hz)                    Num   0%  50%  50%     0 /  0%  3319 / 27%  4764 
  41 4Int(dB)                   Num   0%  10%  90%     0 /  0%    10 /  0%   768 
  42 4Pitch(Hz)                 Num   0%  50%  50%     0 /  0%   941 /  8%  2715 
  43 4RawPitch                  Num   0%  53%  47%     0 /  0%   979 /  8%  2609 
  44 4SmPitch                   Num   0%  51%  49%     0 /  0%   957 /  8%  2691 
  45 4Melogram(st)              Num   0%  46%  54%     0 /  0%   838 /  7%  2574 
  46 4ZCross                    Num   0% 100%   0%     0 /  0%    10 /  0%    40 
  47 4F1(Hz)                    Num   0%  50%  50%     0 /  0%  2281 / 19%  3977 
  48 4F2(Hz)                    Num   0%  50%  50%     0 /  0%  3848 / 32%  5158 
  49 4F3(Hz)                    Num   0%  50%  50%     0 /  0%  3419 / 28%  4850 
  50 4F4(Hz)                    Num   0%  50%  50%     0 /  0%  3319 / 27%  4764 
  51 class                      Nom 100%   0%   0%     0 /  0%     0 /  0%    11 


Naive Bayes Classifier

                    Class
Attribute               A         E CGJLNQSRT        FV         I         O         0       BMP         U        DZ         D
                   (0.16)    (0.08)    (0.19)    (0.01)    (0.04)    (0.08)    (0.36)    (0.03)    (0.02)       (0)    (0.01)
==============================================================================================================================
0Int(dB)
  mean             -8.6178   -11.785  -12.4002   -8.6687  -13.9957  -13.0905  -47.9666  -10.2759  -11.9663  -22.8184   -8.4529
  std. dev.        13.9467   12.8986   12.6933   12.0588   11.3129   14.0184   17.2863   12.1022   13.7701    4.9756    7.7106
  weight sum          1989       971      2325       177       503       940      4414       399       285         5       177
  precision         0.1005    0.1005    0.1005    0.1005    0.1005    0.1005    0.1005    0.1005    0.1005    0.1005    0.1005

0Pitch(Hz)
  mean            192.6576  153.0375  161.9368  179.6287  133.7228  155.9105   20.3798  179.8992  185.7384  101.2842   188.524
  std. dev.       123.2993  103.8972   102.284   103.953   97.9308  117.3958    61.369  105.1483  132.3586   82.7244   85.3431
  weight sum          1989       971      2325       177       503       940      4414       399       285         5       177
  precision         0.1828    0.1828    0.1828    0.1828    0.1828    0.1828    0.1828    0.1828    0.1828    0.1828    0.1828

0RawPitch
  mean            183.1727  144.5828  149.9261  166.2658   118.792  146.8368   17.1631  173.8506  171.6991         0  172.3402
  std. dev.       124.9825  106.5862  107.4792  103.3211   99.1267  120.8184   56.4371  106.7713   131.795    0.0317   96.4111
  weight sum          1989       971      2325       177       503       940      4414       399       285         5       177
  precision           0.19      0.19      0.19      0.19      0.19      0.19      0.19      0.19      0.19      0.19      0.19

0SmPitch
  mean            190.2293  149.0753   157.778  173.1916  130.2865  152.2588   18.7257  180.2866   180.598    34.756  184.4803
  std. dev.       124.1476  106.3452  104.5251  102.0399   98.3476  118.4966   58.1994  104.7377   131.965   69.5121   88.2718
  weight sum          1989       971      2325       177       503       940      4414       399       285         5       177
  precision         0.1841    0.1841    0.1841    0.1841    0.1841    0.1841    0.1841    0.1841    0.1841    0.1841    0.1841

0Melogram(st)
  mean             45.8985   41.6006   43.2096   48.1518   37.8739   40.2674    5.9899    47.725   41.0172   41.8912   50.0685
  std. dev.        22.6753   23.5005   22.5529   18.0734   24.4823   24.9104   17.0581   19.8248   27.0441   20.9468   15.9563
  weight sum          1989       971      2325       177       503       940      4414       399       285         5       177
  precision         0.0321    0.0321    0.0321    0.0321    0.0321    0.0321    0.0321    0.0321    0.0321    0.0321    0.0321

0ZCross
  mean              5.7795    3.8959    3.4139    4.4476    3.5159    3.3147    0.3867    3.7028    3.6752     0.441    3.6316
  std. dev.         5.2032     3.649    3.1537    3.4388    4.6496    3.6649    1.5809    3.2269      3.94    0.5401    2.2677
  weight sum          1989       971      2325       177       503       940      4414       399       285         5       177
  precision         1.1026    1.1026    1.1026    1.1026    1.1026    1.1026    1.1026    1.1026    1.1026    1.1026    1.1026

0F1(Hz)
  mean            544.9469  388.8481   467.462  509.3179   327.902  385.1749    70.658  431.6949  419.7893  414.1118  484.6076
  std. dev.       343.2522   237.095  245.2126  195.7216  249.1817   266.914  194.4811  229.3067  372.1684    338.82  187.6747
  weight sum          1989       971      2325       177       503       940      4414       399       285         5       177
  precision          0.438     0.438     0.438     0.438     0.438     0.438     0.438     0.438     0.438     0.438     0.438

0F2(Hz)
  mean            1278.689 1369.0863 1417.4319 1541.6786 1293.9645 1068.2508  208.2172 1458.7638   914.502  711.3762 1392.2458
  std. dev.       674.3769  803.3837  693.1529   580.665  912.4754  725.3498  568.3554  713.6231  685.7093  580.9063  510.2109
  weight sum          1989       971      2325       177       503       940      4414       399       285         5       177
  precision         0.5776    0.5776    0.5776    0.5776    0.5776    0.5776    0.5776    0.5776    0.5776    0.5776    0.5776

0F3(Hz)
  mean           2312.3604 2150.7772  2420.518 2580.8602  1972.427 2120.0995  358.7944 2423.0168 2080.2522 2226.1937 2608.9347
  std. dev.      1172.3148 1216.5845 1125.9816  904.0374 1368.1768 1296.1846  955.2144  1100.655  1312.859 1818.1142  858.2001
  weight sum          1989       971      2325       177       503       940      4414       399       285         5       177
  precision         0.8494    0.8494    0.8494    0.8494    0.8494    0.8494    0.8494    0.8494    0.8494    0.8494    0.8494

0F4(Hz)
  mean           2682.2288 2618.9863 2773.8729 3024.6427 2368.7133 2452.0691  429.1094 2836.6595 2397.0943 1792.0125 3077.0403
  std. dev.      1349.7388 1462.1662 1272.6768 1043.5972 1616.6699 1492.5677 1139.7345 1264.4821 1469.4084 1463.1744  983.3284
  weight sum          1989       971      2325       177       503       940      4414       399       285         5       177
  precision         0.8707    0.8707    0.8707    0.8707    0.8707    0.8707    0.8707    0.8707    0.8707    0.8707    0.8707

1Int(dB)
  mean             -7.5227  -10.1933  -13.5437  -10.0033  -12.9283  -11.9021  -48.6205  -10.7409   -10.704  -24.5272   -7.1626
  std. dev.        12.8902   11.7847   12.6645   11.6666   10.6057    13.325   16.5761    11.848    12.611    4.3885    6.5421
  weight sum          1989       971      2325       177       503       940      4414       399       285         5       177
  precision         0.1005    0.1005    0.1005    0.1005    0.1005    0.1005    0.1005    0.1005    0.1005    0.1005    0.1005

1Pitch(Hz)
  mean            198.3964  160.1808  153.0588  172.3798  142.2505  161.5093   17.8672   182.286  194.1405   66.7671  199.4728
  std. dev.       119.0264  100.9674  106.1251  105.1479   94.8404  115.1424   57.8415  103.6491  126.5096    81.773   80.3012
  weight sum          1989       971      2325       177       503       940      4414       399       285         5       177
  precision         0.1828    0.1828    0.1828    0.1828    0.1828    0.1828    0.1828    0.1828    0.1828    0.1828    0.1828

1RawPitch
  mean            189.1921  154.2988  139.2456  153.4086  129.5623  151.8615   14.8169  174.1149   182.114         0  188.4026
  std. dev.       121.2248  103.8965  110.3011  106.4127   96.6501  118.7396   52.5577  108.2118   126.065    0.0317     90.83
  weight sum          1989       971      2325       177       503       940      4414       399       285         5       177
  precision           0.19      0.19      0.19      0.19      0.19      0.19      0.19      0.19      0.19      0.19      0.19

1SmPitch
  mean            196.3056  157.6884  148.1249  163.5118  139.5184  158.3741   16.1999   180.944  187.9493         0  197.3686
  std. dev.       119.9266  102.7097  108.1735  103.8799   95.2859  116.4366   54.1567  105.0311  127.6747    0.0307   82.1423
  weight sum          1989       971      2325       177       503       940      4414       399       285         5       177
  precision         0.1841    0.1841    0.1841    0.1841    0.1841    0.1841    0.1841    0.1841    0.1841    0.1841    0.1841

1Melogram(st)
  mean             47.2817   43.8321   40.8854   46.4107   40.2909   42.1946    5.2917   47.4283   43.1507   31.3446   52.3937
  std. dev.         21.441   21.9994   24.0337   19.5839   23.2502   23.8924   16.1544   19.8935   25.8888    25.593   12.4641
  weight sum          1989       971      2325       177       503       940      4414       399       285         5       177
  precision         0.0321    0.0321    0.0321    0.0321    0.0321    0.0321    0.0321    0.0321    0.0321    0.0321    0.0321

1ZCross
  mean              6.0089    4.1877    3.2465    3.8309    3.4173    3.5388    0.3175    3.3547    3.6946    0.2205    3.8434
  std. dev.         5.0516      3.51    3.4076    3.1646    4.3415       3.7    1.4497    3.0234    3.7659     0.441    2.1455
  weight sum          1989       971      2325       177       503       940      4414       399       285         5       177
  precision         1.1026    1.1026    1.1026    1.1026    1.1026    1.1026    1.1026    1.1026    1.1026    1.1026    1.1026

1F1(Hz)
  mean            569.5758  399.5254  446.2475   509.407  321.9794  400.7883   63.3036  448.4717  423.1014  283.0538  505.7122
  std. dev.       332.7507  222.3308  257.7398  214.6903  226.2374  262.7274  185.2909  217.4863  367.4317  346.8243  151.6225
  weight sum          1989       971      2325       177       503       940      4414       399       285         5       177
  precision          0.438     0.438     0.438     0.438     0.438     0.438     0.438     0.438     0.438     0.438     0.438

1F2(Hz)
  mean           1311.4106 1442.8428  1361.389 1487.4002 1417.0158 1071.2623  187.2709 1511.2562  901.2556  471.2087 1476.8173
  std. dev.       638.9109  776.7388  737.9161  613.6935  915.8706   690.734  542.7833  656.5641  645.6145  577.1209  379.8977
  weight sum          1989       971      2325       177       503       940      4414       399       285         5       177
  precision         0.5776    0.5776    0.5776    0.5776    0.5776    0.5776    0.5776    0.5776    0.5776    0.5776    0.5776

1F3(Hz)
  mean           2380.1019 2225.9848 2323.0867 2511.3747  2074.489  2178.095  321.9054 2536.1532 2131.2599 1496.7007 2789.7583
  std. dev.      1114.8824 1160.7791 1208.8174  982.7376 1324.8705 1261.4257  911.1638 1002.0059 1290.0635 1833.1843  576.4179
  weight sum          1989       971      2325       177       503       940      4414       399       285         5       177
  precision         0.8494    0.8494    0.8494    0.8494    0.8494    0.8494    0.8494    0.8494    0.8494    0.8494    0.8494

1F4(Hz)
  mean           2767.4468   2718.69 2650.2764 2938.8695 2501.7838 2525.1794   385.557 2957.3618 2447.5687 1195.6037 3264.9033
  std. dev.      1285.9068 1397.2836 1363.9575 1127.8105 1568.3926 1454.2085 1088.8664 1139.4412 1436.0304 1464.3096  638.4598
  weight sum          1989       971      2325       177       503       940      4414       399       285         5       177
  precision         0.8707    0.8707    0.8707    0.8707    0.8707    0.8707    0.8707    0.8707    0.8707    0.8707    0.8707

2Int(dB)
  mean             -6.2827   -8.2853  -14.9604  -11.8337  -11.4664  -10.3306  -49.3181  -11.7003        -9  -26.0954   -6.8144
  std. dev.        11.7372   10.4618   12.3225   10.8769    9.6852   12.5524   15.6483   11.7463   11.0737    2.8789     5.834
  weight sum          1989       971      2325       177       503       940      4414       399       285         5       177
  precision         0.1005    0.1005    0.1005    0.1005    0.1005    0.1005    0.1005    0.1005    0.1005    0.1005    0.1005

2Pitch(Hz)
  mean            205.2843   171.376  141.1126  161.8432  155.6275  170.5933   15.1305  176.1634  208.3385   33.4567  201.9838
  std. dev.       113.8386   96.7489  109.3948  106.9302   89.3289  111.0794   53.6708  105.3804  113.7908   66.9134   79.4376
  weight sum          1989       971      2325       177       503       940      4414       399       285         5       177
  precision         0.1828    0.1828    0.1828    0.1828    0.1828    0.1828    0.1828    0.1828    0.1828    0.1828    0.1828

2RawPitch
  mean            195.8224  166.4294   126.098  138.8672  144.7636  160.9027   12.3549   166.948  197.8707         0  195.5579
  std. dev.       117.0434   99.7164  111.8824  107.0856    91.976  115.9139   47.9455  110.5987  115.5032    0.0317   88.5514
  weight sum          1989       971      2325       177       503       940      4414       399       285         5       177
  precision           0.19      0.19      0.19      0.19      0.19      0.19      0.19      0.19      0.19      0.19      0.19

2SmPitch
  mean            203.4414  169.6121  135.4639  150.9116  152.7216  167.6951   13.4474  174.3874  204.0613         0  201.1367
  std. dev.       114.9465     98.43  110.7681  106.0938   90.5569  112.6857   49.2552  107.0721  114.8803    0.0307   81.1257
  weight sum          1989       971      2325       177       503       940      4414       399       285         5       177
  precision         0.1841    0.1841    0.1841    0.1841    0.1841    0.1841    0.1841    0.1841    0.1841    0.1841    0.1841

2Melogram(st)
  mean             49.1246    46.364   37.7819   44.3633   43.7828   44.5801    4.5613   46.2526   46.8237   20.8558   53.2637
  std. dev.        19.5383   19.9773   25.4904   21.0748   21.0046   22.3034   15.1263   20.8639     23.28    25.543   10.4759
  weight sum          1989       971      2325       177       503       940      4414       399       285         5       177
  precision         0.0321    0.0321    0.0321    0.0321    0.0321    0.0321    0.0321    0.0321    0.0321    0.0321    0.0321

2ZCross
  mean              6.2828    4.5363    3.0492    3.0523    3.4129    3.8308    0.2321    2.9291    3.6211         0    3.8995
  std. dev.         4.8016    3.4214    3.8073     2.753    3.6124    3.7224    1.1943    2.7939    3.3263    0.1838      2.03
  weight sum          1989       971      2325       177       503       940      4414       399       285         5       177
  precision         1.1026    1.1026    1.1026    1.1026    1.1026    1.1026    1.1026    1.1026    1.1026    1.1026    1.1026

2F1(Hz)
  mean            606.1779  421.4711  411.1892  494.2517  328.6039  427.7699   54.1185  434.8028  447.6356  144.8121  511.8322
  std. dev.       314.3985  199.8827  270.1034  234.8699  197.0056  253.7566  172.0789  221.0826  351.3336  289.6242  138.1345
  weight sum          1989       971      2325       177       503       940      4414       399       285         5       177
  precision          0.438     0.438     0.438     0.438     0.438     0.438     0.438     0.438     0.438     0.438     0.438

2F2(Hz)
  mean           1360.0457 1557.4028 1275.4352 1421.4392 1600.4272 1095.9014  161.1779 1481.8564  941.4183  234.5069 1503.7689
  std. dev.       582.3985  715.8668  790.5713  646.1569  875.8818   642.731   507.166    667.81  583.0066  469.0138  295.4608
  weight sum          1989       971      2325       177       503       940      4414       399       285         5       177
  precision         0.5776    0.5776    0.5776    0.5776    0.5776    0.5776    0.5776    0.5776    0.5776    0.5776    0.5776

2F3(Hz)
  mean             2479.17 2361.5599 2169.3591 2423.2784 2260.1467   2286.61  277.7773 2496.4215 2306.2699  754.6362  2865.449
  std. dev.      1020.8902  1058.658 1304.2972 1066.6564 1230.4607 1195.8853  854.4008 1031.3795 1189.9252 1509.2723  384.2718
  weight sum          1989       971      2325       177       503       940      4414       399       285         5       177
  precision         0.8494    0.8494    0.8494    0.8494    0.8494    0.8494    0.8494    0.8494    0.8494    0.8494    0.8494

2F4(Hz)
  mean           2885.4543 2879.2008 2470.4088  2839.318 2723.7025 2646.7638  332.7116 2926.4759 2634.9155   597.976 3346.8397
  std. dev.      1177.5077 1266.1181 1472.2006 1221.6089 1450.2143 1374.1393 1021.3417 1176.9755 1307.4223  1195.952  398.6879
  weight sum          1989       971      2325       177       503       940      4414       399       285         5       177
  precision         0.8707    0.8707    0.8707    0.8707    0.8707    0.8707    0.8707    0.8707    0.8707    0.8707    0.8707

3Int(dB)
  mean             -5.1539   -6.5035  -16.0885  -13.4875  -10.0663   -8.9829  -50.0164  -12.6599   -7.1056  -26.9599   -7.4766
  std. dev.        10.4855    9.1484   11.4122    9.7297    8.7445   12.0392   14.6151   11.4853    9.4113    1.5758    6.0362
  weight sum          1989       971      2325       177       503       940      4414       399       285         5       177
  precision         0.1005    0.1005    0.1005    0.1005    0.1005    0.1005    0.1005    0.1005    0.1005    0.1005    0.1005

3Pitch(Hz)
  mean            211.6164  183.4717  130.3538   151.416  170.1872  178.6603   12.1328   169.157   222.874         0  200.0956
  std. dev.       108.5356   90.6248  111.3916  107.3372    80.118  105.9497   48.3614  107.9278   96.7144    0.0305   81.8085
  weight sum          1989       971      2325       177       503       940      4414       399       285         5       177
  precision         0.1828    0.1828    0.1828    0.1828    0.1828    0.1828    0.1828    0.1828    0.1828    0.1828    0.1828

3RawPitch
  mean            201.8512  179.2232  113.8623  126.9095  160.6735  170.2865    9.8391  156.3794  214.8787         0  194.4351
  std. dev.       112.7474   94.3626  112.1512  104.8815   84.5436  111.2599   42.7299  112.6669  100.3251    0.0317   90.2297
  weight sum          1989       971      2325       177       503       940      4414       399       285         5       177
  precision           0.19      0.19      0.19      0.19      0.19      0.19      0.19      0.19      0.19      0.19      0.19

3SmPitch
  mean            209.8362  181.7709  123.6122  140.8054  167.6412  176.3381   10.5874  166.7235  222.2202         0  199.4185
  std. dev.       109.8749   92.0323  112.0208    105.09   82.3894  107.6496   43.6726  110.0496    96.345    0.0307   83.1714
  weight sum          1989       971      2325       177       503       940      4414       399       285         5       177
  precision         0.1841    0.1841    0.1841    0.1841    0.1841    0.1841    0.1841    0.1841    0.1841    0.1841    0.1841

3Melogram(st)
  mean              50.884    49.433   34.6443   42.1057   47.5936    46.689    3.8408   44.1038   51.8876   10.4247   53.0523
  std. dev.        17.3482   16.6562   26.5278   22.5058    17.453   20.4728   14.0017   22.6152   18.0236   20.8493   10.6126
  weight sum          1989       971      2325       177       503       940      4414       399       285         5       177
  precision         0.0321    0.0321    0.0321    0.0321    0.0321    0.0321    0.0321    0.0321    0.0321    0.0321    0.0321

3ZCross
  mean              6.5278      4.81    2.9198     2.392    3.4699    4.0255    0.1446    2.5119    3.6946         0    3.8123
  std. dev.         4.5495    3.2495    4.1802    2.3218    3.3736    3.4165     0.806    2.4124    3.0049    0.1838    2.0932
  weight sum          1989       971      2325       177       503       940      4414       399       285         5       177
  precision         1.1026    1.1026    1.1026    1.1026    1.1026    1.1026    1.1026    1.1026    1.1026    1.1026    1.1026

3F1(Hz)
  mean            646.5551  448.7867  369.9637   455.282  347.8788  460.8448   44.5249  407.9579  479.4518         0  510.9363
  std. dev.       288.6109  167.2097   277.083   257.875  165.9413  237.0895  156.6041  229.4716  324.8579     0.073  140.7084
  weight sum          1989       971      2325       177       503       940      4414       399       285         5       177
  precision          0.438     0.438     0.438     0.438     0.438     0.438     0.438     0.438     0.438     0.438     0.438

3F2(Hz)
  mean           1415.1431 1697.5367 1170.4997 1319.8463  1816.924 1136.7816   133.697 1414.0003 1012.0156         0 1494.7328
  std. dev.       509.9497  606.8332  831.5724  697.8781  769.2522   583.467  464.5044  704.2441  498.3854    0.0963  278.4461
  weight sum          1989       971      2325       177       503       940      4414       399       285         5       177
  precision         0.5776    0.5776    0.5776    0.5776    0.5776    0.5776    0.5776    0.5776    0.5776    0.5776    0.5776

3F3(Hz)
  mean           2589.7585 2529.5236 1988.9896  2267.597 2497.6197 2424.0221  231.2684 2386.6296 2541.1097         0 2872.1485
  std. dev.       897.5737  892.9521 1381.3544 1184.2012 1063.4499 1093.5808  786.5978 1113.8644  990.0091    0.1416  378.7918
  weight sum          1989       971      2325       177       503       940      4414       399       285         5       177
  precision         0.8494    0.8494    0.8494    0.8494    0.8494    0.8494    0.8494    0.8494    0.8494    0.8494    0.8494

3F4(Hz)
  mean           3011.8957 3071.5364 2268.1145  2669.134 2991.7043 2797.3211  277.6356 2816.2806 2890.5441         0 3364.2827
  std. dev.      1031.5735 1053.8859 1563.9172 1361.3599 1236.9689  1248.566   942.661 1281.9024 1057.0684    0.1451  394.5159
  weight sum          1989       971      2325       177       503       940      4414       399       285         5       177
  precision         0.8707    0.8707    0.8707    0.8707    0.8707    0.8707    0.8707    0.8707    0.8707    0.8707    0.8707

4Int(dB)
  mean             -4.6544   -5.5049  -16.4721  -14.3263   -9.1576   -8.3852  -50.5629  -12.4692   -5.5692  -27.6233   -7.8361
  std. dev.         9.8223    8.2833   10.3148    8.9225    8.3719   12.0282   13.7532    10.584    7.6498    2.2988    6.2597
  weight sum          1989       971      2325       177       503       940      4414       399       285         5       177
  precision         0.1005    0.1005    0.1005    0.1005    0.1005    0.1005    0.1005    0.1005    0.1005    0.1005    0.1005

4Pitch(Hz)
  mean             214.311  189.9846  128.2916   145.764  175.8084  180.3637    9.3634  169.0755  231.3108         0  199.2072
  std. dev.       106.3793   87.3032  111.7964  105.9069   73.8088  102.9621    43.043  105.9927   84.4017    0.0305   83.2243
  weight sum          1989       971      2325       177       503       940      4414       399       285         5       177
  precision         0.1828    0.1828    0.1828    0.1828    0.1828    0.1828    0.1828    0.1828    0.1828    0.1828    0.1828

4RawPitch
  mean            204.6048  186.8578  109.7237  119.8712  168.3408  174.1912    7.3722   155.219  222.5963         0  194.0122
  std. dev.       110.9966   91.2535  111.3873  101.1981   79.5481  108.1025   36.8853  111.9695   90.9444    0.0317   91.7751
  weight sum          1989       971      2325       177       503       940      4414       399       285         5       177
  precision           0.19      0.19      0.19      0.19      0.19      0.19      0.19      0.19      0.19      0.19      0.19

4SmPitch
  mean            212.5582  188.6266  120.8933  135.2172  174.1996  178.2642    8.0681  164.9116  230.9021         0  198.3639
  std. dev.       107.6671   88.6539  112.3234  102.9917   75.9109  104.6347   38.1541  109.5012   84.0603    0.0307   84.9657
  weight sum          1989       971      2325       177       503       940      4414       399       285         5       177
  precision         0.1841    0.1841    0.1841    0.1841    0.1841    0.1841    0.1841    0.1841    0.1841    0.1841    0.1841

4Melogram(st)
  mean             51.7631   50.9897   33.8074   40.8426    49.433   47.3663     3.078   44.2448   54.7393         0   52.6514
  std. dev.         15.996   14.4101   26.8445   23.1702   14.7392   19.6193   12.6754   22.4965   13.2895    0.0053   11.4213
  weight sum          1989       971      2325       177       503       940      4414       399       285         5       177
  precision         0.0321    0.0321    0.0321    0.0321    0.0321    0.0321    0.0321    0.0321    0.0321    0.0321    0.0321

4ZCross
  mean              6.6459    4.8701    2.8657    2.1179    3.5072    4.0889    0.1007    2.3765    3.8532         0    3.8434
  std. dev.         4.4895    2.9907    4.4033    2.1208    3.0758     2.998    0.6803    2.1579    2.8492    0.1838    2.0838
  weight sum          1989       971      2325       177       503       940      4414       399       285         5       177
  precision         1.1026    1.1026    1.1026    1.1026    1.1026    1.1026    1.1026    1.1026    1.1026    1.1026    1.1026

4F1(Hz)
  mean            680.2157  469.1052  338.0257  420.1259  370.0223  487.7924   34.5051  391.9946  504.5577         0  515.2919
  std. dev.       263.0262  136.7924  274.7281  268.8685  133.9826   218.941  138.1768  227.7233   299.786     0.073  145.0907
  weight sum          1989       971      2325       177       503       940      4414       399       285         5       177
  precision          0.438     0.438     0.438     0.438     0.438     0.438     0.438     0.438     0.438     0.438     0.438

4F2(Hz)
  mean           1457.3331 1803.6497 1097.2142 1256.0162 2010.9745 1164.8777  104.2406 1374.8709 1075.9553         0 1484.1532
  std. dev.       439.9568  490.0179  848.1773  726.8151  600.2718   526.346  413.1064  707.8796   411.661    0.0963  291.7647
  weight sum          1989       971      2325       177       503       940      4414       399       285         5       177
  precision         0.5776    0.5776    0.5776    0.5776    0.5776    0.5776    0.5776    0.5776    0.5776    0.5776    0.5776

4F3(Hz)
  mean            2676.475 2651.8402  1865.785 2156.9356 2714.2403 2529.7403  181.1072 2325.0319 2728.7599         0 2866.2889
  std. dev.       781.3816  731.0473 1416.2095 1243.2456  831.8369  990.6689  703.4937 1133.6314   731.591    0.1416  431.5143
  weight sum          1989       971      2325       177       503       940      4414       399       285         5       177
  precision         0.8494    0.8494    0.8494    0.8494    0.8494    0.8494    0.8494    0.8494    0.8494    0.8494    0.8494

4F4(Hz)
  mean            3105.401 3206.8695 2136.3708 2560.0986 3233.1412 2916.3463     217.4 2772.6162 3100.5588         0 3354.8725
  std. dev.       892.4908  845.6004 1612.2774 1438.2149  946.7373 1123.3047  842.8601 1317.5612  725.9921    0.1451  465.2171
  weight sum          1989       971      2325       177       503       940      4414       399       285         5       177
  precision         0.8707    0.8707    0.8707    0.8707    0.8707    0.8707    0.8707    0.8707    0.8707    0.8707    0.8707





=== Stratified cross-validation ===

Correctly Classified Instances        4697               38.5474 %
Incorrectly Classified Instances      7488               61.4526 %
Kappa statistic                          0.281 
K&B Relative Info Score             300431.8623 %
K&B Information Score                 7966.9019 bits      0.6538 bits/instance
Class complexity | order 0           32285.6179 bits      2.6496 bits/instance
Class complexity | scheme           410594.3627 bits     33.6967 bits/instance
Complexity improvement     (Sf)    -378308.7448 bits    -31.0471 bits/instance
Mean absolute error                      0.1118
Root mean squared error                  0.3246
Relative absolute error                 77.8778 %
Root relative squared error            121.1641 %
Coverage of cases (0.95 level)          43.2909 %
Mean rel. region size (0.95 level)      11.5156 %
Total Number of Instances            12185     


=== Detailed Accuracy By Class ===

                 TP Rate  FP Rate  Precision  Recall   F-Measure  MCC      ROC Area  PRC Area  Class
                 0,283    0,045    0,549      0,283    0,373      0,316    0,808     0,470     A
                 0,071    0,017    0,266      0,071    0,112      0,102    0,790     0,203     E
                 0,216    0,053    0,489      0,216    0,300      0,230    0,705     0,391     CGJLNQSRT
                 0,079    0,023    0,048      0,079    0,060      0,044    0,706     0,034     FV
                 0,258    0,035    0,239      0,258    0,249      0,215    0,839     0,218     I
                 0,019    0,008    0,159      0,019    0,034      0,030    0,676     0,140     O
                 0,728    0,043    0,906      0,728    0,808      0,725    0,941     0,896     0
                 0,005    0,006    0,026      0,005    0,008      -0,003   0,713     0,058     BMP
                 0,140    0,015    0,188      0,140    0,161      0,145    0,839     0,126     U
                 0,600    0,089    0,003      0,600    0,005      0,036    0,817     0,003     DZ
                 0,802    0,322    0,035      0,802    0,068      0,122    0,821     0,050     D
Weighted Avg.    0,385    0,042    0,561      0,385    0,438      0,383    0,822     0,518     


=== Confusion Matrix ===

    a    b    c    d    e    f    g    h    i    j    k   <-- classified as
  562   52  100   37   86   50   50    2   75   29  946 |    a = A
  104   69   58   12  108   20   11    5   18   20  546 |    b = E
  149   41  502  129   60    7  180   41   17  191 1008 |    c = CGJLNQSRT
   12    2   25   14    4    2   12    0    0    7   99 |    d = FV
   30   50   45    7  130    2   17    6    3    7  206 |    e = I
   81   22   66   26   71   18   28    3   47   59  519 |    f = O
   10    3  162   45   19    4 3215    8    3  762  183 |    g = 0
   26    9   45   15   28    1   27    2    6    9  231 |    h = BMP
   39    2   17    2   35    9    7   10   40    1  123 |    i = U
    0    0    1    0    0    0    1    0    0    3    0 |    j = DZ
   10    9    6    4    2    0    0    0    4    0  142 |    k = D

=== Percent Confusion Matrix ===
a	b	c	d	e	f	g	h	i	j	k	
28.26	2.61	5.03	1.86	4.32	2.51	2.51	0.1	3.77	1.46	47.56	 a = A
10.71	7.11	5.97	1.24	11.12	2.06	1.13	0.51	1.85	2.06	56.23	 b = E
6.41	1.76	21.59	5.55	2.58	0.3	7.74	1.76	0.73	8.22	43.35	 c = CGJLNQSRT
6.78	1.13	14.12	7.91	2.26	1.13	6.78	0.0	0.0	3.95	55.93	 d = FV
5.96	9.94	8.95	1.39	25.84	0.4	3.38	1.19	0.6	1.39	40.95	 e = I
8.62	2.34	7.02	2.77	7.55	1.91	2.98	0.32	5.0	6.28	55.21	 f = O
0.23	0.07	3.67	1.02	0.43	0.09	72.84	0.18	0.07	17.26	4.15	 g = 0
6.52	2.26	11.28	3.76	7.02	0.25	6.77	0.5	1.5	2.26	57.89	 h = BMP
13.68	0.7	5.96	0.7	12.28	3.16	2.46	3.51	14.04	0.35	43.16	 i = U
0.0	0.0	20.0	0.0	0.0	0.0	20.0	0.0	0.0	60.0	0.0	 j = DZ
5.65	5.08	3.39	2.26	1.13	0.0	0.0	0.0	2.26	0.0	80.23	 k = D
