Timestamp:2014-12-07-11:01:54
Inventario:I3
Intervalo:1ms
Ngramas:2
Clasificador:NaiveBayes
Relation Name:  I3-1ms-2gramas
Num Instances:  183403
Num Attributes: 21

     Name                      Type  Nom  Int Real     Missing      Unique  Dist
   1 0Int(dB)                   Num   0%   9%  91%     0 /  0%     4 /  0%   781 
   2 0Pitch(Hz)                 Num   0%  51%  49%     0 /  0%   256 /  0%  4213 
   3 0RawPitch                  Num   0%  55%  45%     0 /  0%   417 /  0%  4119 
   4 0SmPitch                   Num   0%  53%  47%     0 /  0%   263 /  0%  4193 
   5 0Melogram(st)              Num   0%  49%  51%     0 /  0%   133 /  0%  3454 
   6 0ZCross                    Num   0% 100%   0%     0 /  0%     4 /  0%    58 
   7 0F1(Hz)                    Num   0%  52%  48%     0 /  0%  1154 /  1%  4824 
   8 0F2(Hz)                    Num   0%  52%  48%     0 /  0%  2223 /  1%  6697 
   9 0F3(Hz)                    Num   0%  53%  47%     0 /  0%  1930 /  1%  6200 
  10 0F4(Hz)                    Num   0%  52%  48%     0 /  0%  1933 /  1%  6096 
  11 1Int(dB)                   Num   0%   9%  91%     0 /  0%     3 /  0%   781 
  12 1Pitch(Hz)                 Num   0%  51%  49%     0 /  0%   256 /  0%  4213 
  13 1RawPitch                  Num   0%  55%  45%     0 /  0%   417 /  0%  4119 
  14 1SmPitch                   Num   0%  53%  47%     0 /  0%   263 /  0%  4193 
  15 1Melogram(st)              Num   0%  49%  51%     0 /  0%   133 /  0%  3454 
  16 1ZCross                    Num   0% 100%   0%     0 /  0%     4 /  0%    58 
  17 1F1(Hz)                    Num   0%  52%  48%     0 /  0%  1154 /  1%  4824 
  18 1F2(Hz)                    Num   0%  52%  48%     0 /  0%  2223 /  1%  6697 
  19 1F3(Hz)                    Num   0%  53%  47%     0 /  0%  1930 /  1%  6200 
  20 1F4(Hz)                    Num   0%  52%  48%     0 /  0%  1933 /  1%  6096 
  21 class                      Nom 100%   0%   0%     0 /  0%     0 /  0%    11 


Naive Bayes Classifier

                    Class
Attribute               A         E CGJLNQSRT        FV         I         O         0       BMP         U        DZ         D
                   (0.16)    (0.07)    (0.18)    (0.01)    (0.04)    (0.07)    (0.39)    (0.03)    (0.02)       (0)    (0.01)
==============================================================================================================================
0Int(dB)
  mean             -4.2297   -5.1597  -16.4962   -15.033   -8.6607   -8.1449  -48.0905  -12.3149   -5.0726  -26.8486   -7.7263
  std. dev.         9.5985    8.0314   10.2973    8.8639    8.3453   12.1979   16.3154   10.6245    7.5754    1.9432    6.1746
  weight sum         28557     13740     33479      2561      7083     13234     72116      5814      4137        65      2617
  precision         0.1037    0.1037    0.1037    0.1037    0.1037    0.1037    0.1037    0.1037    0.1037    0.1037    0.1037

0Pitch(Hz)
  mean            215.2062   190.258  114.8253  129.9494  173.0302  178.1206   16.9607  159.4679  229.3502         0  202.1991
  std. dev.       108.6869   87.8928  113.3556  107.2999   76.4927   105.326    56.673  111.1515   84.2123    0.0197   84.5042
  weight sum         28557     13740     33479      2561      7083     13234     72116      5814      4137        65      2617
  precision         0.1184    0.1184    0.1184    0.1184    0.1184    0.1184    0.1184    0.1184    0.1184    0.1184    0.1184

0RawPitch
  mean            204.7785  185.5139   95.8597  104.9895  165.4701   172.363   13.9201  147.7852  220.5579         0   195.358
  std. dev.       115.5309   95.7233  112.5441   103.475   84.0796  113.1234   51.4519  116.6168   92.9298    0.0202   95.4733
  weight sum         28557     13740     33479      2561      7083     13234     72116      5814      4137        65      2617
  precision         0.1214    0.1214    0.1214    0.1214    0.1214    0.1214    0.1214    0.1214    0.1214    0.1214    0.1214

0SmPitch
  mean             213.264  188.8112  108.0549  119.7549  170.6319  175.8934   15.3486  154.8892  228.8462         0   201.591
  std. dev.       110.2131   89.0812   113.356  104.5511   79.0959   107.593   52.9674  113.7583   84.5411    0.0198   85.6638
  weight sum         28557     13740     33479      2561      7083     13234     72116      5814      4137        65      2617
  precision          0.119     0.119     0.119     0.119     0.119     0.119     0.119     0.119     0.119     0.119     0.119

0Melogram(st)
  mean             51.2183    50.379   29.8993   36.5095   48.4716   46.4586    4.9859   41.3724     54.16         0   53.0359
  std. dev.        17.1271   15.5007   27.4678   25.2094   16.2405   20.5573   15.7045   24.3658   14.0434     0.004   11.2662
  weight sum         28557     13740     33479      2561      7083     13234     72116      5814      4137        65      2617
  precision         0.0239    0.0239    0.0239    0.0239    0.0239    0.0239    0.0239    0.0239    0.0239    0.0239    0.0239

0ZCross
  mean              7.3101    5.2408    3.0586    2.0498    3.7393    4.3663    0.2635     2.508    4.0771         0     4.097
  std. dev.         4.7386    3.3253    4.9906    2.2131    3.2999     3.087    1.1594     2.237    2.9819    0.1696    2.2657
  weight sum         28557     13740     33479      2561      7083     13234     72116      5814      4137        65      2617
  precision         1.0175    1.0175    1.0175    1.0175    1.0175    1.0175    1.0175    1.0175    1.0175    1.0175    1.0175

0F1(Hz)
  mean            682.1503  465.3474  303.6968  378.3582  362.5437  485.0896   54.6945  370.4332  499.8715         0  517.5928
  std. dev.        271.133  144.1266  277.8831  278.5939  142.9356  226.1543  167.7961  237.1009  306.7882    0.0602  153.4125
  weight sum         28557     13740     33479      2561      7083     13234     72116      5814      4137        65      2617
  precision         0.3611    0.3611    0.3611    0.3611    0.3611    0.3611    0.3611    0.3611    0.3611    0.3611    0.3611

0F2(Hz)
  mean           1442.2136 1793.0334  990.4602 1159.1061 1983.2786  1138.672  171.3436 1303.2526 1056.4734         0 1484.0603
  std. dev.       454.4964  519.5885   865.127  783.4471  662.5587  533.7441  520.3646  750.2659  419.7581    0.0741  323.8039
  weight sum         28557     13740     33479      2561      7083     13234     72116      5814      4137        65      2617
  precision         0.4448    0.4448    0.4448    0.4448    0.4448    0.4448    0.4448    0.4448    0.4448    0.4448    0.4448

0F3(Hz)
  mean           2655.0761 2628.2257 1687.3057 1972.9814 2665.7831 2500.7441  292.1061 2194.6698 2684.8467         0 2867.5444
  std. dev.       813.9125  775.3306 1452.4531  1322.667  914.1503 1023.7463  872.1776 1208.1856  768.1272    0.1108  510.3194
  weight sum         28557     13740     33479      2561      7083     13234     72116      5814      4137        65      2617
  precision         0.6646    0.6646    0.6646    0.6646    0.6646    0.6646    0.6646    0.6646    0.6646    0.6646    0.6646

0F4(Hz)
  mean           3079.4149  3165.364 1934.0766 2361.3224 3167.5238 2876.6923  351.1243 2638.4197 3077.7233         0 3320.3356
  std. dev.       930.1153  898.8907  1656.262 1547.6942 1043.4405 1160.0433 1045.9711 1420.8135  781.3188    0.1134  558.3815
  weight sum         28557     13740     33479      2561      7083     13234     72116      5814      4137        65      2617
  precision         0.6804    0.6804    0.6804    0.6804    0.6804    0.6804    0.6804    0.6804    0.6804    0.6804    0.6804

1Int(dB)
  mean              -4.254   -5.1788  -16.4317  -15.0107    -8.647   -8.1757   -48.118  -12.2049   -5.0188  -26.8422   -7.6697
  std. dev.         9.6114    8.0296   10.2711     8.868    8.3528   12.2243   16.2752   10.5691    7.4803    1.9264    6.1925
  weight sum         28557     13740     33479      2561      7083     13234     72116      5814      4137        65      2617
  precision         0.1037    0.1037    0.1037    0.1037    0.1037    0.1037    0.1037    0.1037    0.1037    0.1037    0.1037

1Pitch(Hz)
  mean            215.1081  190.4015  115.2141  129.6994  173.2101  177.8211   16.7877  159.9332  229.5826         0  202.1811
  std. dev.       108.7696   87.7758  113.4474  107.2959   76.2773  105.3227   56.4051  110.8047   83.7347    0.0197    84.529
  weight sum         28557     13740     33479      2561      7083     13234     72116      5814      4137        65      2617
  precision         0.1184    0.1184    0.1184    0.1184    0.1184    0.1184    0.1184    0.1184    0.1184    0.1184    0.1184

1RawPitch
  mean            204.7122  185.6605   96.1419    104.69  165.7379  172.1393   13.7655  148.2899  220.7885         0  195.1733
  std. dev.       115.5921   95.6276  112.6457  103.2429   83.9735  113.0491   51.2112  116.3341   92.5273    0.0202   95.4762
  weight sum         28557     13740     33479      2561      7083     13234     72116      5814      4137        65      2617
  precision         0.1214    0.1214    0.1214    0.1214    0.1214    0.1214    0.1214    0.1214    0.1214    0.1214    0.1214

1SmPitch
  mean            213.2106  189.0092  108.3721  119.5928  170.7795  175.6214   15.1793  155.3207  229.0387         0  201.6147
  std. dev.       110.2529   88.9353  113.4533  104.4955    78.963  107.5646   52.6861  113.4664   84.1352    0.0198     85.61
  weight sum         28557     13740     33479      2561      7083     13234     72116      5814      4137        65      2617
  precision          0.119     0.119     0.119     0.119     0.119     0.119     0.119     0.119     0.119     0.119     0.119

1Melogram(st)
  mean             51.2091   50.4242   29.9724   36.4608   48.5268   46.3993    4.9362    41.496   54.2789         0   53.0658
  std. dev.        17.1327   15.4261   27.4735   25.2383   16.1496   20.5969   15.6358   24.2847   13.7888     0.004   11.1774
  weight sum         28557     13740     33479      2561      7083     13234     72116      5814      4137        65      2617
  precision         0.0239    0.0239    0.0239    0.0239    0.0239    0.0239    0.0239    0.0239    0.0239    0.0239    0.0239

1ZCross
  mean              7.3004    5.2275    3.0701    2.0522    3.7468    4.3624    0.2613    2.5306    4.0827         0    4.1262
  std. dev.         4.7448     3.329     4.989    2.2158    3.3104    3.0942     1.158    2.2366    2.9766    0.1696    2.2672
  weight sum         28557     13740     33479      2561      7083     13234     72116      5814      4137        65      2617
  precision         1.0175    1.0175    1.0175    1.0175    1.0175    1.0175    1.0175    1.0175    1.0175    1.0175    1.0175

1F1(Hz)
  mean            683.5492   466.604  302.5519  376.1761  363.6076   485.985   54.1445  370.5749  501.0702         0  518.0523
  std. dev.       270.1486  142.2478  277.3582  278.4193  141.3453  225.6523  166.9999   236.559  305.5336    0.0602   153.457
  weight sum         28557     13740     33479      2561      7083     13234     72116      5814      4137        65      2617
  precision         0.3611    0.3611    0.3611    0.3611    0.3611    0.3611    0.3611    0.3611    0.3611    0.3611    0.3611

1F2(Hz)
  mean           1443.5164 1799.2434    988.19 1156.6522 1992.3968  1138.609  169.6332 1303.9361 1060.1575         0 1484.1145
  std. dev.       451.7609  511.5475  864.9445  785.3266  653.6523   531.629  518.0359  748.5317  414.9703    0.0741  324.8835
  weight sum         28557     13740     33479      2561      7083     13234     72116      5814      4137        65      2617
  precision         0.4448    0.4448    0.4448    0.4448    0.4448    0.4448    0.4448    0.4448    0.4448    0.4448    0.4448

1F3(Hz)
  mean           2658.1212 2635.6414 1683.7716 1966.8613 2676.2267 2503.6829  289.1592 2195.7732 2694.2989         0 2867.2678
  std. dev.       809.8058   764.297 1452.6604 1324.7402   902.456 1021.0061  868.2153 1205.5074   752.613    0.1108   513.436
  weight sum         28557     13740     33479      2561      7083     13234     72116      5814      4137        65      2617
  precision         0.6646    0.6646    0.6646    0.6646    0.6646    0.6646    0.6646    0.6646    0.6646    0.6646    0.6646

1F4(Hz)
  mean           3082.4058 3173.7603 1930.7032 2355.3511 3178.8998 2879.5448  347.6697 2641.4866 3088.1777         0 3319.2569
  std. dev.       925.1344  884.9534 1657.1479 1550.8738 1028.8621 1156.4562 1041.4713 1418.3454  760.6201    0.1134   561.953
  weight sum         28557     13740     33479      2561      7083     13234     72116      5814      4137        65      2617
  precision         0.6804    0.6804    0.6804    0.6804    0.6804    0.6804    0.6804    0.6804    0.6804    0.6804    0.6804





=== Stratified cross-validation ===

Correctly Classified Instances       68630               37.4203 %
Incorrectly Classified Instances    114773               62.5797 %
Kappa statistic                          0.2848
K&B Relative Info Score            5052965.7145 %
K&B Information Score               130832.6705 bits      0.7134 bits/instance
Class complexity | order 0          474844.9163 bits      2.5891 bits/instance
Class complexity | scheme          6461091.0626 bits     35.2289 bits/instance
Complexity improvement     (Sf)    -5986246.1463 bits    -32.6398 bits/instance
Mean absolute error                      0.1161
Root mean squared error                  0.3114
Relative absolute error                 82.5399 %
Root relative squared error            117.4065 %
Coverage of cases (0.95 level)          48.6677 %
Mean rel. region size (0.95 level)      17.5861 %
Total Number of Instances           183403     


=== Detailed Accuracy By Class ===

                 TP Rate  FP Rate  Precision  Recall   F-Measure  MCC      ROC Area  PRC Area  Class
                 0,453    0,042    0,668      0,453    0,540      0,486    0,863     0,594     A
                 0,490    0,056    0,416      0,490    0,450      0,403    0,858     0,399     E
                 0,163    0,033    0,523      0,163    0,248      0,216    0,620     0,370     CGJLNQSRT
                 0,027    0,010    0,037      0,027    0,031      0,020    0,622     0,026     FV
                 0,352    0,037    0,276      0,352    0,309      0,280    0,855     0,277     I
                 0,023    0,006    0,242      0,023    0,041      0,054    0,745     0,178     O
                 0,515    0,023    0,935      0,515    0,665      0,584    0,880     0,865     0
                 0,009    0,004    0,065      0,009    0,016      0,012    0,665     0,054     BMP
                 0,377    0,011    0,439      0,377    0,406      0,394    0,875     0,375     U
                 1,000    0,224    0,002      1,000    0,003      0,035    0,918     0,002     DZ
                 0,686    0,211    0,045      0,686    0,084      0,136    0,824     0,047     D
Weighted Avg.    0,374    0,031    0,640      0,374    0,451      0,401    0,806     0,565     


=== Confusion Matrix ===

     a     b     c     d     e     f     g     h     i     j     k   <-- classified as
 12945  2060   905   383   574   186   281    54    69  1279  9821 |     a = A
  1267  6737   605    53   847    27    55    97    62   492  3498 |     b = E
  1693  1710  5446   619  2432   396  1908   336   315  8655  9969 |     c = CGJLNQSRT
   180   196   233    69   275    14    45    13     8   618   910 |     d = FV
   337  2819   462    51  2493     0    72    28     0   327   494 |     e = I
  1488  1381   675   207   125   300    52    36  1198  1409  6363 |     f = O
   307   626  1402   363  1148   231 37169   151   136 27274  3309 |     g = 0
   369   403   439    57   878    44   120    52   164   970  2318 |     h = BMP
   447   112   212    13   142    30    27    21  1560    51  1522 |     i = U
     0     0     0     0     0     0     0     0     0    65     0 |     j = DZ
   344   155    38    49   131    10    19    17    42    18  1794 |     k = D

=== Percent Confusion Matrix ===
a	b	c	d	e	f	g	h	i	j	k	
45.33	7.21	3.17	1.34	2.01	0.65	0.98	0.19	0.24	4.48	34.39	 a = A
9.22	49.03	4.4	0.39	6.16	0.2	0.4	0.71	0.45	3.58	25.46	 b = E
5.06	5.11	16.27	1.85	7.26	1.18	5.7	1.0	0.94	25.85	29.78	 c = CGJLNQSRT
7.03	7.65	9.1	2.69	10.74	0.55	1.76	0.51	0.31	24.13	35.53	 d = FV
4.76	39.8	6.52	0.72	35.2	0.0	1.02	0.4	0.0	4.62	6.97	 e = I
11.24	10.44	5.1	1.56	0.94	2.27	0.39	0.27	9.05	10.65	48.08	 f = O
0.43	0.87	1.94	0.5	1.59	0.32	51.54	0.21	0.19	37.82	4.59	 g = 0
6.35	6.93	7.55	0.98	15.1	0.76	2.06	0.89	2.82	16.68	39.87	 h = BMP
10.8	2.71	5.12	0.31	3.43	0.73	0.65	0.51	37.71	1.23	36.79	 i = U
0.0	0.0	0.0	0.0	0.0	0.0	0.0	0.0	0.0	100.0	0.0	 j = DZ
13.14	5.92	1.45	1.87	5.01	0.38	0.73	0.65	1.6	0.69	68.55	 k = D
