Timestamp:2014-12-07-11:10:19
Inventario:I3
Intervalo:10ms
Ngramas:5
Clasificador:NaiveBayes
Relation Name:  I3-10ms-5gramas
Num Instances:  18292
Num Attributes: 51

     Name                      Type  Nom  Int Real     Missing      Unique  Dist
   1 0Int(dB)                   Num   0%  10%  90%     0 /  0%     7 /  0%   772 
   2 0Pitch(Hz)                 Num   0%  51%  49%     0 /  0%   816 /  4%  3063 
   3 0RawPitch                  Num   0%  54%  46%     0 /  0%   853 /  5%  2955 
   4 0SmPitch                   Num   0%  52%  48%     0 /  0%   827 /  5%  3024 
   5 0Melogram(st)              Num   0%  47%  53%     0 /  0%   581 /  3%  2807 
   6 0ZCross                    Num   0% 100%   0%     0 /  0%    10 /  0%    42 
   7 0F1(Hz)                    Num   0%  51%  49%     0 /  0%  2131 / 12%  4724 
   8 0F2(Hz)                    Num   0%  51%  49%     0 /  0%  4210 / 23%  6615 
   9 0F3(Hz)                    Num   0%  51%  49%     0 /  0%  3688 / 20%  6145 
  10 0F4(Hz)                    Num   0%  51%  49%     0 /  0%  3689 / 20%  6054 
  11 1Int(dB)                   Num   0%  10%  90%     0 /  0%     7 /  0%   772 
  12 1Pitch(Hz)                 Num   0%  51%  49%     0 /  0%   816 /  4%  3063 
  13 1RawPitch                  Num   0%  54%  46%     0 /  0%   853 /  5%  2955 
  14 1SmPitch                   Num   0%  52%  48%     0 /  0%   827 /  5%  3024 
  15 1Melogram(st)              Num   0%  47%  53%     0 /  0%   581 /  3%  2807 
  16 1ZCross                    Num   0% 100%   0%     0 /  0%    10 /  0%    42 
  17 1F1(Hz)                    Num   0%  51%  49%     0 /  0%  2131 / 12%  4724 
  18 1F2(Hz)                    Num   0%  51%  49%     0 /  0%  4210 / 23%  6615 
  19 1F3(Hz)                    Num   0%  51%  49%     0 /  0%  3688 / 20%  6145 
  20 1F4(Hz)                    Num   0%  51%  49%     0 /  0%  3689 / 20%  6054 
  21 2Int(dB)                   Num   0%  10%  90%     0 /  0%     7 /  0%   772 
  22 2Pitch(Hz)                 Num   0%  51%  49%     0 /  0%   816 /  4%  3063 
  23 2RawPitch                  Num   0%  54%  46%     0 /  0%   853 /  5%  2955 
  24 2SmPitch                   Num   0%  52%  48%     0 /  0%   827 /  5%  3024 
  25 2Melogram(st)              Num   0%  47%  53%     0 /  0%   581 /  3%  2807 
  26 2ZCross                    Num   0% 100%   0%     0 /  0%    10 /  0%    42 
  27 2F1(Hz)                    Num   0%  51%  49%     0 /  0%  2131 / 12%  4724 
  28 2F2(Hz)                    Num   0%  51%  49%     0 /  0%  4210 / 23%  6615 
  29 2F3(Hz)                    Num   0%  51%  49%     0 /  0%  3688 / 20%  6145 
  30 2F4(Hz)                    Num   0%  51%  49%     0 /  0%  3689 / 20%  6054 
  31 3Int(dB)                   Num   0%  10%  90%     0 /  0%     7 /  0%   772 
  32 3Pitch(Hz)                 Num   0%  51%  49%     0 /  0%   816 /  4%  3063 
  33 3RawPitch                  Num   0%  54%  46%     0 /  0%   853 /  5%  2955 
  34 3SmPitch                   Num   0%  52%  48%     0 /  0%   827 /  5%  3024 
  35 3Melogram(st)              Num   0%  47%  53%     0 /  0%   581 /  3%  2807 
  36 3ZCross                    Num   0% 100%   0%     0 /  0%    10 /  0%    42 
  37 3F1(Hz)                    Num   0%  51%  49%     0 /  0%  2131 / 12%  4724 
  38 3F2(Hz)                    Num   0%  51%  49%     0 /  0%  4210 / 23%  6615 
  39 3F3(Hz)                    Num   0%  51%  49%     0 /  0%  3688 / 20%  6145 
  40 3F4(Hz)                    Num   0%  51%  49%     0 /  0%  3689 / 20%  6054 
  41 4Int(dB)                   Num   0%  10%  90%     0 /  0%     7 /  0%   772 
  42 4Pitch(Hz)                 Num   0%  51%  49%     0 /  0%   817 /  4%  3064 
  43 4RawPitch                  Num   0%  54%  46%     0 /  0%   854 /  5%  2956 
  44 4SmPitch                   Num   0%  52%  48%     0 /  0%   828 /  5%  3025 
  45 4Melogram(st)              Num   0%  47%  53%     0 /  0%   582 /  3%  2808 
  46 4ZCross                    Num   0% 100%   0%     0 /  0%    10 /  0%    42 
  47 4F1(Hz)                    Num   0%  51%  49%     0 /  0%  2131 / 12%  4724 
  48 4F2(Hz)                    Num   0%  51%  49%     0 /  0%  4210 / 23%  6615 
  49 4F3(Hz)                    Num   0%  51%  49%     0 /  0%  3688 / 20%  6145 
  50 4F4(Hz)                    Num   0%  51%  49%     0 /  0%  3689 / 20%  6054 
  51 class                      Nom 100%   0%   0%     0 /  0%     0 /  0%    11 


Naive Bayes Classifier

                    Class
Attribute               A         E CGJLNQSRT        FV         I         O         0       BMP         U        DZ         D
                   (0.16)    (0.08)    (0.19)    (0.01)    (0.04)    (0.08)    (0.37)    (0.03)    (0.02)       (0)    (0.01)
==============================================================================================================================
0Int(dB)
  mean             -6.9299   -9.6111  -14.2661   -10.982  -12.4993  -11.2977  -48.0267  -11.3972  -10.2969  -24.8533   -6.8107
  std. dev.        12.4228   11.4443   12.7696   11.4347    10.575     13.03   17.1401   11.9964   12.4298    4.3426    6.0892
  weight sum          2940      1438      3443       261       748      1377      6794       594       423         8       266
  precision         0.1005    0.1005    0.1005    0.1005    0.1005    0.1005    0.1005    0.1005    0.1005    0.1005    0.1005

0Pitch(Hz)
  mean            201.0034  162.8814  145.2009  162.8376  141.7256  162.3445   19.6403  176.5923  196.4288   62.5956  202.9384
  std. dev.       118.0639  100.9376  109.2416  106.0306   94.1851  115.4514   60.4023  106.6658  121.8438   80.8108   80.3025
  weight sum          2940      1438      3443       261       748      1377      6794       594       423         8       266
  precision         0.1626    0.1626    0.1626    0.1626    0.1626    0.1626    0.1626    0.1626    0.1626    0.1626    0.1626

0RawPitch
  mean            190.7861  157.1635  130.3449  143.5452  130.5727   154.051    16.296  167.2471  185.1858         0  193.5466
  std. dev.       121.3283   104.273  112.4019  109.1897   95.3267  119.4964   54.9452  111.4688   124.139     0.028   90.6324
  weight sum          2940      1438      3443       261       748      1377      6794       594       423         8       266
  precision         0.1679    0.1679    0.1679    0.1679    0.1679    0.1679    0.1679    0.1679    0.1679    0.1679    0.1679

0SmPitch
  mean            198.9282  160.1278   140.408  154.4791  139.4948  160.0958   17.9599  173.7853  191.6402         0  201.2628
  std. dev.        119.099  103.2014  110.5997   106.176    94.338  116.5286   56.9887  108.2015  124.0826    0.0275   82.1587
  weight sum          2940      1438      3443       261       748      1377      6794       594       423         8       266
  precision         0.1647    0.1647    0.1647    0.1647    0.1647    0.1647    0.1647    0.1647    0.1647    0.1647    0.1647

0Melogram(st)
  mean             47.8679   43.9709   38.9783   45.1576   40.3717   42.2639    5.6482   45.9865    43.858   26.1189   53.3962
  std. dev.        20.9198    21.953   25.0466   20.6297   23.2088   23.8573    16.628   21.1991   25.2949   26.1191   10.4716
  weight sum          2940      1438      3443       261       748      1377      6794       594       423         8       266
  precision         0.0294    0.0294    0.0294    0.0294    0.0294    0.0294    0.0294    0.0294    0.0294    0.0294    0.0294

0ZCross
  mean              6.1908    4.2718    3.1298    3.4224    3.2887     3.572    0.3724    3.0467    3.5052    0.1616    3.8246
  std. dev.         5.0845    3.6952    3.6403    3.1109    4.3028    3.7147    1.6643    3.0136    3.5492    0.4275    2.2537
  weight sum          2940      1438      3443       261       748      1377      6794       594       423         8       266
  precision         1.2927    1.2927    1.2927    1.2927    1.2927    1.2927    1.2927    1.2927    1.2927    1.2927    1.2927

0F1(Hz)
  mean            581.8893  397.3557  426.4518  499.4316  314.4877  404.7558   67.3207   435.447  421.2912   266.344  509.4015
  std. dev.       329.6543  220.5354  267.2809  230.5154  214.7262  263.5378  189.0983  227.9619  363.4485  344.0516  146.4531
  weight sum          2940      1438      3443       261       748      1377      6794       594       423         8       266
  precision         0.3688    0.3688    0.3688    0.3688    0.3688    0.3688    0.3688    0.3688    0.3688    0.3688    0.3688

0F2(Hz)
  mean           1322.2779 1452.2339 1303.7112 1440.7522 1458.8644 1058.6386   201.594 1470.3392  898.5293  441.4119  1488.622
  std. dev.       623.3526  782.1386  771.5861  648.3082  923.3942  680.2641  559.6456  691.4076  631.6566  569.8755   347.053
  weight sum          2940      1438      3443       261       748      1377      6794       594       423         8       266
  precision         0.4504    0.4504    0.4504    0.4504    0.4504    0.4504    0.4504    0.4504    0.4504    0.4504    0.4504

0F3(Hz)
  mean           2408.7717 2228.1348 2222.2681 2441.7175 2099.7998 2179.4174  344.8935 2460.7556 2149.9078 1405.1173 2838.0495
  std. dev.      1092.4253 1168.5798 1269.5337 1052.2514 1316.2452 1259.3843   936.734 1067.6148 1279.6717   1814.14  494.4817
  weight sum          2940      1438      3443       261       748      1377      6794       594       423         8       266
  precision         0.6705    0.6705    0.6705    0.6705    0.6705    0.6705    0.6705    0.6705    0.6705    0.6705    0.6705

0F4(Hz)
  mean           2796.1617 2704.2382 2540.6935 2859.7375 2531.2629 2526.1338  415.0202 2886.9193 2470.7103 1120.9335 3298.3668
  std. dev.      1258.5259 1397.5563 1437.4225 1204.9182 1557.2602 1451.9381  1124.632 1222.9136 1423.5708  1447.119  535.8574
  weight sum          2940      1438      3443       261       748      1377      6794       594       423         8       266
  precision         0.6851    0.6851    0.6851    0.6851    0.6851    0.6851    0.6851    0.6851    0.6851    0.6851    0.6851

1Int(dB)
  mean             -6.0715   -8.2832  -15.1929   -12.229  -11.5529  -10.1884  -48.5012  -12.0773    -9.141  -25.8333   -6.8561
  std. dev.         11.593   10.5574   12.4136   10.7764   10.0097   12.4847   16.5463   11.9572    11.517    3.4835    5.8063
  weight sum          2940      1438      3443       261       748      1377      6794       594       423         8       266
  precision         0.1005    0.1005    0.1005    0.1005    0.1005    0.1005    0.1005    0.1005    0.1005    0.1005    0.1005

1Pitch(Hz)
  mean            206.0621  171.3761  136.6491  155.4117  151.1778  169.4942   17.6176  171.2937  206.5505   41.7778  203.5149
  std. dev.       114.2169   97.3583  110.9563  107.1208   90.4554  112.1681     57.63  108.4803  112.6088   72.3614   80.9096
  weight sum          2940      1438      3443       261       748      1377      6794       594       423         8       266
  precision         0.1626    0.1626    0.1626    0.1626    0.1626    0.1626    0.1626    0.1626    0.1626    0.1626    0.1626

1RawPitch
  mean            195.4446  165.9268  121.1217  134.3425  140.1369  160.7417   14.7182  160.9589  196.9115         0  197.2577
  std. dev.       118.3762  101.4248   112.988  108.4897   92.6731  117.1537   52.3175  112.6321  116.0658     0.028   89.7337
  weight sum          2940      1438      3443       261       748      1377      6794       594       423         8       266
  precision         0.1679    0.1679    0.1679    0.1679    0.1679    0.1679    0.1679    0.1679    0.1679    0.1679    0.1679

1SmPitch
  mean            203.8807  168.9406  131.5124  147.5141  148.7333  166.8657   15.9871  168.8457  203.2317         0   202.821
  std. dev.       115.5779   99.8036  111.9223  106.2865   91.0219  113.6276   53.9948  109.5157  114.3476    0.0275   82.3739
  weight sum          2940      1438      3443       261       748      1377      6794       594       423         8       266
  precision         0.1647    0.1647    0.1647    0.1647    0.1647    0.1647    0.1647    0.1647    0.1647    0.1647    0.1647

1Melogram(st)
  mean               49.16   46.0304   36.7079   43.7744   42.8057   44.1418    5.1053   45.0143   46.9326   19.5598   53.5061
  std. dev.         19.561   20.3297    25.931   21.5454   21.7211   22.6348   15.8999   21.9175   23.1329   25.2516   10.0492
  weight sum          2940      1438      3443       261       748      1377      6794       594       423         8       266
  precision         0.0294    0.0294    0.0294    0.0294    0.0294    0.0294    0.0294    0.0294    0.0294    0.0294    0.0294

1ZCross
  mean                6.39    4.5442    2.9972    2.8924    3.2766    3.7485    0.3145    2.7268    3.4685         0    3.7614
  std. dev.         4.8474    3.6764    3.9166    2.7663    3.9228    3.6397    1.5734    2.7447    3.3113    0.2154    2.1704
  weight sum          2940      1438      3443       261       748      1377      6794       594       423         8       266
  precision         1.2927    1.2927    1.2927    1.2927    1.2927    1.2927    1.2927    1.2927    1.2927    1.2927    1.2927

1F1(Hz)
  mean            608.9814  414.4876  400.0438  481.1684  324.4815  427.1986   60.6401  420.5783  438.9512  180.9738  511.1178
  std. dev.       314.7754  204.0813  275.3762  244.4663  196.3871  255.5101  179.8321   233.997  351.0171  313.4558   140.012
  weight sum          2940      1438      3443       261       748      1377      6794       594       423         8       266
  precision         0.3688    0.3688    0.3688    0.3688    0.3688    0.3688    0.3688    0.3688    0.3688    0.3688    0.3688

1F2(Hz)
  mean           1361.1691 1540.0099 1235.6394 1382.0687 1594.9962   1087.12  182.9445 1431.5618  933.7491  293.0736  1504.063
  std. dev.       579.0188  736.2298  805.9784  677.1876  886.9887  643.6083  536.0273  712.6322  589.8158  507.6184  301.5818
  weight sum          2940      1438      3443       261       748      1377      6794       594       423         8       266
  precision         0.4504    0.4504    0.4504    0.4504    0.4504    0.4504    0.4504    0.4504    0.4504    0.4504    0.4504

1F3(Hz)
  mean            2487.049 2334.9624 2101.3648 2354.9866 2246.1444 2276.2654  313.3268 2400.4431 2280.9865  943.2827 2878.8995
  std. dev.       1017.274 1092.4038  1331.579 1117.9617 1243.3357 1203.3602  898.7423 1114.3931 1204.2554 1633.8135  387.0814
  weight sum          2940      1438      3443       261       748      1377      6794       594       423         8       266
  precision         0.6705    0.6705    0.6705    0.6705    0.6705    0.6705    0.6705    0.6705    0.6705    0.6705    0.6705

1F4(Hz)
  mean           2887.8182 2827.1616 2403.5056 2769.7197 2704.0163 2631.6643  377.1315 2825.1944 2611.7192  747.4603 3345.3023
  std. dev.      1170.9939 1299.7201  1510.226 1285.7643 1464.2027 1382.1236 1079.4377 1281.0444 1326.9291 1294.6392  404.4488
  weight sum          2940      1438      3443       261       748      1377      6794       594       423         8       266
  precision         0.6851    0.6851    0.6851    0.6851    0.6851    0.6851    0.6851    0.6851    0.6851    0.6851    0.6851

2Int(dB)
  mean             -5.2562   -6.9781  -16.0062   -13.453  -10.5648   -9.2289  -48.9843  -12.6892    -7.821  -26.5998   -7.3579
  std. dev.        10.6845     9.587   11.8296    9.9848    9.3802   12.1503   15.8913   11.7406   10.4376    2.3369    5.9065
  weight sum          2940      1438      3443       261       748      1377      6794       594       423         8       266
  precision         0.1005    0.1005    0.1005    0.1005    0.1005    0.1005    0.1005    0.1005    0.1005    0.1005    0.1005

2Pitch(Hz)
  mean            210.9077  179.7817  128.2945  147.5196  161.7269  175.9738    15.546  166.9471  217.8099   20.9194   202.533
  std. dev.       110.2129   93.2543  112.1215  107.4902   84.8365  108.3955   54.3414  109.8658   101.251   55.3476   81.9477
  weight sum          2940      1438      3443       261       748      1377      6794       594       423         8       266
  precision         0.1626    0.1626    0.1626    0.1626    0.1626    0.1626    0.1626    0.1626    0.1626    0.1626    0.1626

2RawPitch
  mean            200.2188  175.0704  111.9207  125.4184  151.7646  167.5572   12.9606  153.9342  208.6619         0  196.8233
  std. dev.       115.2026    97.669  112.7888  107.1313   87.9735  114.1306   49.1247  113.8843  106.1879     0.028   90.7572
  weight sum          2940      1438      3443       261       748      1377      6794       594       423         8       266
  precision         0.1679    0.1679    0.1679    0.1679    0.1679    0.1679    0.1679    0.1679    0.1679    0.1679    0.1679

2SmPitch
  mean            208.5725  177.2466  123.2098  139.8605  159.4793  173.3248   13.9244  163.7838  215.6213         0  201.6691
  std. dev.       111.9157   95.7152  112.7853  105.8427   85.9419   110.039   50.3099  111.3474  102.5619    0.0275   83.7815
  weight sum          2940      1438      3443       261       748      1377      6794       594       423         8       266
  precision         0.1647    0.1647    0.1647    0.1647    0.1647    0.1647    0.1647    0.1647    0.1647    0.1647    0.1647

2Melogram(st)
  mean             50.4189   48.2348   34.4082   41.8303   45.5707   45.7502    4.6149   43.8398   50.2186     13.03   53.3655
  std. dev.        18.0558   18.1696   26.6181   22.7672   19.4988   21.3432   15.1945   22.8015   19.9908   22.5687   10.1476
  weight sum          2940      1438      3443       261       748      1377      6794       594       423         8       266
  precision         0.0294    0.0294    0.0294    0.0294    0.0294    0.0294    0.0294    0.0294    0.0294    0.0294    0.0294

2ZCross
  mean              6.5747     4.777    2.8981    2.4071    3.3008    3.9062    0.2453    2.4526    3.5022         0    3.6642
  std. dev.         4.6892    3.5473    4.2392    2.4072    3.5385    3.5254    1.2668    2.4563    3.0347    0.2154    2.1396
  weight sum          2940      1438      3443       261       748      1377      6794       594       423         8       266
  precision         1.2927    1.2927    1.2927    1.2927    1.2927    1.2927    1.2927    1.2927    1.2927    1.2927    1.2927

2F1(Hz)
  mean            637.5745  432.7945   372.225  457.1842    337.77   450.362    53.593  403.2101  460.9396   90.4869  508.9856
  std. dev.       296.9353  184.6991  279.3546   256.028  176.2367  244.3368  169.3736  236.5419  335.9081  239.4058  146.3709
  weight sum          2940      1438      3443       261       748      1377      6794       594       423         8       266
  precision         0.3688    0.3688    0.3688    0.3688    0.3688    0.3688    0.3688    0.3688    0.3688    0.3688    0.3688

2F2(Hz)
  mean           1400.9882 1632.6744 1166.1693 1322.7123 1742.2077 1117.1452  162.6833  1390.089  979.7948  146.5368 1492.3451
  std. dev.       529.3561   673.554   831.893  699.8891  822.2232  603.6027  507.4891    729.41  538.5145     387.7  306.0497
  weight sum          2940      1438      3443       261       748      1377      6794       594       423         8       266
  precision         0.4504    0.4504    0.4504    0.4504    0.4504    0.4504    0.4504    0.4504    0.4504    0.4504    0.4504

2F3(Hz)
  mean           2565.6797 2447.1049 1980.6736 2268.6436 2408.7343 2373.7752   279.465 2335.5553 2430.7754  471.6413 2874.2561
  std. dev.       931.4867  996.0136 1379.4958  1175.068 1138.7559 1134.1201  854.4639  1153.522  1089.578 1247.8457  420.4854
  weight sum          2940      1438      3443       261       748      1377      6794       594       423         8       266
  precision         0.6705    0.6705    0.6705    0.6705    0.6705    0.6705    0.6705    0.6705    0.6705    0.6705    0.6705

2F4(Hz)
  mean           2978.0599  2953.752 2268.0892 2681.0905 2889.2593 2740.1433  336.5585  2763.331 2777.4425  373.7301 3342.9508
  std. dev.      1069.8428 1176.1247 1568.1908 1356.4028 1330.8507 1297.7013 1026.8796  1333.663 1184.8746   988.797  450.7948
  weight sum          2940      1438      3443       261       748      1377      6794       594       423         8       266
  precision         0.6851    0.6851    0.6851    0.6851    0.6851    0.6851    0.6851    0.6851    0.6851    0.6851    0.6851

3Int(dB)
  mean             -4.6583   -5.9386  -16.5001   -14.457   -9.6878    -8.538  -49.4538  -12.9285    -6.523  -27.1778   -7.8272
  std. dev.         9.9884    8.7524   11.0247    9.1174    8.9009   12.0283   15.1932   11.2858    9.2325    1.8825    5.9928
  weight sum          2940      1438      3443       261       748      1377      6794       594       423         8       266
  precision         0.1005    0.1005    0.1005    0.1005    0.1005    0.1005    0.1005    0.1005    0.1005    0.1005    0.1005

3Pitch(Hz)
  mean            214.2999  187.1289  122.6403  141.0758   169.624   180.298   13.6938  164.0251  226.0414         0  201.6085
  std. dev.       107.3554   89.1848  112.4887  107.2369   79.3475  104.9788   51.1571  110.3131   90.8899    0.0271   83.5041
  weight sum          2940      1438      3443       261       748      1377      6794       594       423         8       266
  precision         0.1626    0.1626    0.1626    0.1626    0.1626    0.1626    0.1626    0.1626    0.1626    0.1626    0.1626

3RawPitch
  mean            203.4999  182.7671   105.444  118.1042  160.2257  173.1119    11.117  151.3042  217.7899         0  195.8548
  std. dev.        112.824   93.8486  112.1993  105.1012   83.7348   111.182   45.2445  114.0339   96.3272     0.028   92.7432
  weight sum          2940      1438      3443       261       748      1377      6794       594       423         8       266
  precision         0.1679    0.1679    0.1679    0.1679    0.1679    0.1679    0.1679    0.1679    0.1679    0.1679    0.1679

3SmPitch
  mean            212.0791  185.0532  116.9238  133.6333  167.3233  177.9648   12.1462  160.0578  225.0495         0  200.8491
  std. dev.       109.1565    91.154  112.9389  104.9032   80.6951  106.8233   46.8965  112.2555   91.3186    0.0275   85.1021
  weight sum          2940      1438      3443       261       748      1377      6794       594       423         8       266
  precision         0.1647    0.1647    0.1647    0.1647    0.1647    0.1647    0.1647    0.1647    0.1647    0.1647    0.1647

3Melogram(st)
  mean             51.3965   50.1673   32.6991   40.1599   47.7876   46.7989    4.1839   42.9332   52.9506     6.515   53.0952
  std. dev.        16.7239    15.729   27.0066   23.6891   17.1488   20.3195   14.5516   23.4206   16.4082   17.2371   10.7263
  weight sum          2940      1438      3443       261       748      1377      6794       594       423         8       266
  precision         0.0294    0.0294    0.0294    0.0294    0.0294    0.0294    0.0294    0.0294    0.0294    0.0294    0.0294

3ZCross
  mean              6.7426    4.8777    2.8504    2.0356    3.3458    4.0104     0.176    2.2633    3.6091         0     3.601
  std. dev.         4.6066    3.2885    4.4898    2.1197    3.3619    3.2415    0.9114    2.1902     2.929    0.2154    2.1368
  weight sum          2940      1438      3443       261       748      1377      6794       594       423         8       266
  precision         1.2927    1.2927    1.2927    1.2927    1.2927    1.2927    1.2927    1.2927    1.2927    1.2927    1.2927

3F1(Hz)
  mean            664.8149  452.4055  344.2113  427.4933  353.4925  474.0843     46.37  387.8062  482.6221         0  513.7324
  std. dev.       276.6469  159.6131  280.1567  266.6231  155.8578  229.5879  157.5981  236.7462  319.3509    0.0615  147.7122
  weight sum          2940      1438      3443       261       748      1377      6794       594       423         8       266
  precision         0.3688    0.3688    0.3688    0.3688    0.3688    0.3688    0.3688    0.3688    0.3688    0.3688    0.3688

3F2(Hz)
  mean           1438.6375 1730.4304 1096.0185 1255.6134 1886.1841 1149.4791  141.7401 1355.9289 1027.4385         0 1489.1875
  std. dev.       474.1145  583.9406  849.0325  728.5852  727.5947  557.6755  475.9872   740.105  482.4236    0.0751  299.1535
  weight sum          2940      1438      3443       261       748      1377      6794       594       423         8       266
  precision         0.4504    0.4504    0.4504    0.4504    0.4504    0.4504    0.4504    0.4504    0.4504    0.4504    0.4504

3F3(Hz)
  mean           2639.6428 2566.2209 1863.7293 2161.8658 2569.2982 2474.5963  243.9108 2275.3297 2578.9648         0 2878.9701
  std. dev.       836.6339  864.4824 1415.5597 1236.4745 1001.9819 1047.0894  803.9046 1178.2882   937.242    0.1118  419.4367
  weight sum          2940      1438      3443       261       748      1377      6794       594       423         8       266
  precision         0.6705    0.6705    0.6705    0.6705    0.6705    0.6705    0.6705    0.6705    0.6705    0.6705    0.6705

3F4(Hz)
  mean           3062.2428 3090.2109 2135.6008 2569.1202 3069.7504 2853.8724  294.0316  2712.388 2942.8419         0 3351.4375
  std. dev.        957.834 1010.4123 1612.0487  1435.181 1158.3793 1192.6404  966.9098 1372.7244  994.8814    0.1142  448.5867
  weight sum          2940      1438      3443       261       748      1377      6794       594       423         8       266
  precision         0.6851    0.6851    0.6851    0.6851    0.6851    0.6851    0.6851    0.6851    0.6851    0.6851    0.6851

4Int(dB)
  mean             -4.4871   -5.4216  -16.5098  -14.8768   -9.1229   -8.3525  -49.8229  -12.4295   -5.5461  -28.0322   -7.8401
  std. dev.         9.7495    8.2134   10.3424    8.5952    8.6417   12.1594   14.6176   10.5978    7.9501    3.0174    6.1435
  weight sum          2940      1438      3443       261       748      1377      6794       594       423         8       266
  precision         0.1005    0.1005    0.1005    0.1005    0.1005    0.1005    0.1005    0.1005    0.1005    0.1005    0.1005

4Pitch(Hz)
  mean            215.0265  190.3918  123.3327  138.4937  173.2212  179.1301   11.8171  166.0775  230.9859         0  201.0018
  std. dev.       106.7631   87.4257  112.7931  106.1938   75.5653   103.979   47.9085  107.8218   83.0165    0.0271   84.8129
  weight sum          2940      1438      3443       261       748      1377      6794       594       423         8       266
  precision         0.1626    0.1626    0.1626    0.1626    0.1626    0.1626    0.1626    0.1626    0.1626    0.1626    0.1626

4RawPitch
  mean            204.5729  186.9416  104.8015  114.3432  164.8509  172.8881    9.4639  152.1597  221.8351         0  195.4717
  std. dev.       112.2304   92.1579  111.9064  102.4081   80.9322  110.0663   41.8811   112.921   90.5835     0.028   93.1794
  weight sum          2940      1438      3443       261       748      1377      6794       594       423         8       266
  precision         0.1679    0.1679    0.1679    0.1679    0.1679    0.1679    0.1679    0.1679    0.1679    0.1679    0.1679

4SmPitch
  mean            213.0261  188.8901  117.1704  131.3637   170.918  177.1958    10.227   161.354  230.1655         0  200.6341
  std. dev.       108.3889   88.8533  113.2926  103.6517   77.6434  105.5718   43.0626   110.475   83.5323    0.0274   85.6348
  weight sum          2940      1438      3443       261       748      1377      6794       594       423         8       266
  precision         0.1647    0.1647    0.1647    0.1647    0.1647    0.1647    0.1647    0.1647    0.1647    0.1647    0.1647

4Melogram(st)
  mean             51.7443    50.757    32.661   39.8199   48.7629   46.9889    3.6614   43.3262   54.7081         0   53.0359
  std. dev.        16.1385   14.7786   27.1072   23.9008   15.7624   20.0024   13.7186   23.0622      13.2    0.0049   10.7827
  weight sum          2940      1438      3443       261       748      1377      6794       594       423         8       266
  precision         0.0294    0.0294    0.0294    0.0294    0.0294    0.0294    0.0294    0.0294    0.0294    0.0294    0.0294

4ZCross
  mean              6.8081    4.8831    2.8441     1.892    3.3285    4.0329    0.1408    2.2589     3.713         0    3.7468
  std. dev.         4.5857    3.1607    4.6239    1.9842    3.1155    2.9611    0.7915    2.0707    2.8728    0.2154    2.1448
  weight sum          2940      1438      3443       261       748      1377      6794       594       423         8       266
  precision         1.2927    1.2927    1.2927    1.2927    1.2927    1.2927    1.2927    1.2927    1.2927    1.2927    1.2927

4F1(Hz)
  mean            684.8624  467.7497  325.1328  399.7197  366.3373  488.3137   40.0819  383.8168  499.4556         0  516.3637
  std. dev.       260.7635  137.6849  277.0697  273.4014  136.8258  220.1308  146.5535  232.2972   302.477    0.0615   149.061
  weight sum          2940      1438      3443       261       748      1377      6794       594       423         8       266
  precision         0.3688    0.3688    0.3688    0.3688    0.3688    0.3688    0.3688    0.3688    0.3688    0.3688    0.3688

4F2(Hz)
  mean             1462.31 1804.3312 1052.8424 1203.5318 1998.9223 1157.6298   123.524 1349.6905 1072.0404         0  1487.044
  std. dev.       430.5852  496.1344  854.7536  754.0967  624.7892  525.4581  447.0477  728.3086  424.8655    0.0751  307.7561
  weight sum          2940      1438      3443       261       748      1377      6794       594       423         8       266
  precision         0.4504    0.4504    0.4504    0.4504    0.4504    0.4504    0.4504    0.4504    0.4504    0.4504    0.4504

4F3(Hz)
  mean           2687.7356 2653.2835 1794.2755 2069.2644 2693.2397 2526.8298  212.1309 2268.8241 2703.6172         0 2875.6804
  std. dev.       764.2898  742.6344 1431.8071 1282.9054  863.6174  995.0347  754.3882 1165.0514  758.4179    0.1118  453.3058
  weight sum          2940      1438      3443       261       748      1377      6794       594       423         8       266
  precision         0.6705    0.6705    0.6705    0.6705    0.6705    0.6705    0.6705    0.6705    0.6705    0.6705    0.6705

4F4(Hz)
  mean           3116.7672 3189.0151 2058.5295 2471.0333 3209.5559 2910.5036   256.116 2720.5333 3086.4504         0 3344.0454
  std. dev.       872.2076  856.4692 1634.0141 1495.7988  985.3806 1127.9374  908.5444 1363.5495  766.0819    0.1142  491.6785
  weight sum          2940      1438      3443       261       748      1377      6794       594       423         8       266
  precision         0.6851    0.6851    0.6851    0.6851    0.6851    0.6851    0.6851    0.6851    0.6851    0.6851    0.6851





=== Stratified cross-validation ===

Correctly Classified Instances        6046               33.0527 %
Incorrectly Classified Instances     12246               66.9473 %
Kappa statistic                          0.234 
K&B Relative Info Score             363631.8909 %
K&B Information Score                 9580.182  bits      0.5237 bits/instance
Class complexity | order 0           48171.0561 bits      2.6334 bits/instance
Class complexity | scheme           826817.9242 bits     45.2011 bits/instance
Complexity improvement     (Sf)    -778646.8681 bits    -42.5676 bits/instance
Mean absolute error                      0.1216
Root mean squared error                  0.341 
Relative absolute error                 85.1568 %
Root relative squared error            127.6238 %
Coverage of cases (0.95 level)          37.2021 %
Mean rel. region size (0.95 level)      11.052  %
Total Number of Instances            18292     


=== Detailed Accuracy By Class ===

                 TP Rate  FP Rate  Precision  Recall   F-Measure  MCC      ROC Area  PRC Area  Class
                 0,294    0,042    0,571      0,294    0,388      0,335    0,820     0,490     A
                 0,073    0,017    0,266      0,073    0,115      0,103    0,800     0,218     E
                 0,175    0,052    0,437      0,175    0,250      0,182    0,664     0,357     CGJLNQSRT
                 0,084    0,027    0,044      0,084    0,058      0,042    0,681     0,028     FV
                 0,235    0,026    0,279      0,235    0,255      0,227    0,841     0,231     I
                 0,002    0,003    0,056      0,002    0,004      -0,004   0,685     0,141     O
                 0,582    0,039    0,899      0,582    0,707      0,615    0,925     0,883     0
                 0,010    0,005    0,066      0,010    0,018      0,013    0,687     0,055     BMP
                 0,203    0,009    0,339      0,203    0,254      0,249    0,840     0,174     U
                 0,875    0,161    0,002      0,875    0,005      0,041    0,864     0,003     DZ
                 0,816    0,327    0,035      0,816    0,068      0,124    0,829     0,051     D
Weighted Avg.    0,331    0,039    0,556      0,331    0,400      0,342    0,813     0,518     


=== Confusion Matrix ===

    a    b    c    d    e    f    g    h    i    j    k   <-- classified as
  863   76  188   63   78   26   59    1   65   63 1458 |    a = A
  144  105  108   19  108   10   17   11   24   37  855 |    b = E
  202   63  604  203   93    8  260   49   12  492 1457 |    c = CGJLNQSRT
   17    0   24   22    7    0   16    1    0   27  147 |    d = FV
   39   88   75   15  176    1   22    4    3   23  302 |    e = I
  122   35  105   57   63    3   17    3   57  117  798 |    f = O
   20    9  180   88   31    3 3957   12    5 2146  343 |    g = 0
   37    7   51   25   43    0   40    6    1   43  341 |    h = BMP
   47    2   37    5   30    3   12    4   86    2  195 |    i = U
    0    0    1    0    0    0    0    0    0    7    0 |    j = DZ
   21   10    8    7    2    0    0    0    1    0  217 |    k = D

=== Percent Confusion Matrix ===
a	b	c	d	e	f	g	h	i	j	k	
29.35	2.59	6.39	2.14	2.65	0.88	2.01	0.03	2.21	2.14	49.59	 a = A
10.01	7.3	7.51	1.32	7.51	0.7	1.18	0.76	1.67	2.57	59.46	 b = E
5.87	1.83	17.54	5.9	2.7	0.23	7.55	1.42	0.35	14.29	42.32	 c = CGJLNQSRT
6.51	0.0	9.2	8.43	2.68	0.0	6.13	0.38	0.0	10.34	56.32	 d = FV
5.21	11.76	10.03	2.01	23.53	0.13	2.94	0.53	0.4	3.07	40.37	 e = I
8.86	2.54	7.63	4.14	4.58	0.22	1.23	0.22	4.14	8.5	57.95	 f = O
0.29	0.13	2.65	1.3	0.46	0.04	58.24	0.18	0.07	31.59	5.05	 g = 0
6.23	1.18	8.59	4.21	7.24	0.0	6.73	1.01	0.17	7.24	57.41	 h = BMP
11.11	0.47	8.75	1.18	7.09	0.71	2.84	0.95	20.33	0.47	46.1	 i = U
0.0	0.0	12.5	0.0	0.0	0.0	0.0	0.0	0.0	87.5	0.0	 j = DZ
7.89	3.76	3.01	2.63	0.75	0.0	0.0	0.0	0.38	0.0	81.58	 k = D
