Timestamp:2014-12-07-11:10:54
Inventario:I3
Intervalo:20ms
Ngramas:3
Clasificador:NaiveBayes
Relation Name:  I3-20ms-3gramas
Num Instances:  9127
Num Attributes: 31

     Name                      Type  Nom  Int Real     Missing      Unique  Dist
   1 0Int(dB)                   Num   0%  11%  89%     0 /  0%    14 /  0%   764 
   2 0Pitch(Hz)                 Num   0%  49%  51%     0 /  0%  1033 / 11%  2440 
   3 0RawPitch                  Num   0%  52%  48%     0 /  0%  1062 / 12%  2369 
   4 0SmPitch                   Num   0%  50%  50%     0 /  0%  1056 / 12%  2419 
   5 0Melogram(st)              Num   0%  45%  55%     0 /  0%   937 / 10%  2341 
   6 0ZCross                    Num   0% 100%   0%     0 /  0%     7 /  0%    34 
   7 0F1(Hz)                    Num   0%  49%  51%     0 /  0%  2180 / 24%  3398 
   8 0F2(Hz)                    Num   0%  49%  51%     0 /  0%  3463 / 38%  4259 
   9 0F3(Hz)                    Num   0%  49%  51%     0 /  0%  3209 / 35%  4087 
  10 0F4(Hz)                    Num   0%  49%  51%     0 /  0%  3134 / 34%  4027 
  11 1Int(dB)                   Num   0%  11%  89%     0 /  0%    14 /  0%   764 
  12 1Pitch(Hz)                 Num   0%  49%  51%     0 /  0%  1033 / 11%  2440 
  13 1RawPitch                  Num   0%  52%  48%     0 /  0%  1062 / 12%  2369 
  14 1SmPitch                   Num   0%  50%  50%     0 /  0%  1056 / 12%  2419 
  15 1Melogram(st)              Num   0%  45%  55%     0 /  0%   937 / 10%  2341 
  16 1ZCross                    Num   0% 100%   0%     0 /  0%     7 /  0%    34 
  17 1F1(Hz)                    Num   0%  49%  51%     0 /  0%  2180 / 24%  3398 
  18 1F2(Hz)                    Num   0%  49%  51%     0 /  0%  3463 / 38%  4259 
  19 1F3(Hz)                    Num   0%  49%  51%     0 /  0%  3209 / 35%  4087 
  20 1F4(Hz)                    Num   0%  49%  51%     0 /  0%  3134 / 34%  4027 
  21 2Int(dB)                   Num   0%  11%  89%     0 /  0%    14 /  0%   764 
  22 2Pitch(Hz)                 Num   0%  49%  51%     0 /  0%  1033 / 11%  2440 
  23 2RawPitch                  Num   0%  52%  48%     0 /  0%  1062 / 12%  2369 
  24 2SmPitch                   Num   0%  50%  50%     0 /  0%  1056 / 12%  2419 
  25 2Melogram(st)              Num   0%  45%  55%     0 /  0%   938 / 10%  2342 
  26 2ZCross                    Num   0% 100%   0%     0 /  0%     7 /  0%    34 
  27 2F1(Hz)                    Num   0%  49%  51%     0 /  0%  2180 / 24%  3398 
  28 2F2(Hz)                    Num   0%  49%  51%     0 /  0%  3463 / 38%  4259 
  29 2F3(Hz)                    Num   0%  49%  51%     0 /  0%  3209 / 35%  4087 
  30 2F4(Hz)                    Num   0%  49%  51%     0 /  0%  3134 / 34%  4027 
  31 class                      Nom 100%   0%   0%     0 /  0%     0 /  0%    11 


Naive Bayes Classifier

                    Class
Attribute               A         E CGJLNQSRT        FV         I         O         0       BMP         U        DZ         D
                   (0.16)    (0.08)    (0.19)    (0.02)    (0.04)    (0.08)    (0.35)    (0.03)    (0.02)       (0)    (0.01)
==============================================================================================================================
0Int(dB)
  mean             -7.2233   -9.6448  -13.7269  -10.0976  -12.8075  -11.6424  -49.2195  -10.9675  -10.4698  -24.1283    -7.149
  std. dev.        12.4964   11.2836   12.6639   11.5475   10.4841   13.0523   15.8165   11.7268   12.0458    4.1431     6.509
  weight sum          1505       746      1751       138       385       712      3235       299       218         5       133
  precision         0.1008    0.1008    0.1008    0.1008    0.1008    0.1008    0.1008    0.1008    0.1008    0.1008    0.1008

0Pitch(Hz)
  mean            201.6038  168.4113  153.7893  174.9356  145.3172  164.5924   15.8219  181.5295   199.501   67.2315  198.0853
  std. dev.       116.7827   97.9387  105.5336   105.317    93.238  113.2428   54.5445  103.9694   120.686   82.3435   81.2489
  weight sum          1505       746      1751       138       385       712      3235       299       218         5       133
  precision         0.2034    0.2034    0.2034    0.2034    0.2034    0.2034    0.2034    0.2034    0.2034    0.2034    0.2034

0RawPitch
  mean            192.0371  160.8464  140.5365  150.5271  134.7046  155.7527   12.9443  174.3366  187.6775         0  190.1691
  std. dev.       119.1688  102.2888  109.8955  108.0909   92.9403  117.0548   48.7937  107.6802   120.986    0.0348   89.6323
  weight sum          1505       746      1751       138       385       712      3235       299       218         5       133
  precision         0.2088    0.2088    0.2088    0.2088    0.2088    0.2088    0.2088    0.2088    0.2088    0.2088    0.2088

0SmPitch
  mean            199.8945  165.6273  149.0924  164.0951  143.4528  162.0426   14.3559  180.2617  195.9784   34.7897  197.5786
  std. dev.       117.6128  100.1622  107.6426  102.8422   93.1972  114.4287   51.0212  105.3606  122.4742   69.5795   82.3924
  weight sum          1505       746      1751       138       385       712      3235       299       218         5       133
  precision         0.2051    0.2051    0.2051    0.2051    0.2051    0.2051    0.2051    0.2051    0.2051    0.2051    0.2051

0Melogram(st)
  mean             48.2092   45.4706   41.1088   47.4754   41.3427   43.3948    4.6646   47.4768   44.4291   31.3679   52.3324
  std. dev.        20.5746   20.8835   23.8889   18.4939   22.4649   23.1016   15.2441   19.8068    24.856   25.6122    12.276
  weight sum          1505       746      1751       138       385       712      3235       299       218         5       133
  precision         0.0353    0.0353    0.0353    0.0353    0.0353    0.0353    0.0353    0.0353    0.0353    0.0353    0.0353

0ZCross
  mean               6.115    4.2003    3.1996    3.7167    3.1471    3.4785    0.2553    3.0435    3.4504    0.2545    3.7321
  std. dev.         5.0271    3.4667    3.4705    3.2864    4.1866    3.6204     1.316    2.9836    3.5108    0.5091    2.2138
  weight sum          1505       746      1751       138       385       712      3235       299       218         5       133
  precision         1.2727    1.2727    1.2727    1.2727    1.2727    1.2727    1.2727    1.2727    1.2727    1.2727    1.2727

0F1(Hz)
  mean            581.7148  408.4223   451.723  522.7777  325.1292  411.5688   58.2793  443.7803   424.862  280.3215  515.0288
  std. dev.       326.0741  216.3841  252.7133  201.8334  214.6223  260.2244   178.133  220.7378  361.7064  343.6322  134.1908
  weight sum          1505       746      1751       138       385       712      3235       299       218         5       133
  precision         0.5127    0.5127    0.5127    0.5127    0.5127    0.5127    0.5127    0.5127    0.5127    0.5127    0.5127

0F2(Hz)
  mean           1332.7377 1477.3725 1383.4476 1525.1731 1473.7397 1085.7909  173.7338 1499.8925  924.4511  472.0442 1505.9489
  std. dev.       619.6166  754.7082  723.4465  570.7008  898.7946  674.5578  526.4291  665.9892  644.9976  578.1561  311.6051
  weight sum          1505       746      1751       138       385       712      3235       299       218         5       133
  precision         0.6985    0.6985    0.6985    0.6985    0.6985    0.6985    0.6985    0.6985    0.6985    0.6985    0.6985

0F3(Hz)
  mean           2424.4511 2285.1335 2354.9132 2573.9367 2142.5805 2224.7554  296.1385 2515.1665 2177.1877 1491.5753 2862.2543
  std. dev.      1080.1353 1133.2536  1179.468  901.2684 1286.7452 1238.7361  874.9536 1019.8055 1282.0773 1827.0139  398.7846
  weight sum          1505       746      1751       138       385       712      3235       299       218         5       133
  precision         1.0065    1.0065    1.0065    1.0065    1.0065    1.0065    1.0065    1.0065    1.0065    1.0065    1.0065

0F4(Hz)
  mean           2808.6736 2766.3747 2698.5673 3029.4131 2588.6317 2567.4184  360.1752 2942.8455 2475.9112 1195.4814 3332.5443
  std. dev.      1242.9542 1350.6568 1337.1008 1028.6692 1525.8539 1421.7151 1061.5064 1160.3327 1409.4738 1464.1601  408.6818
  weight sum          1505       746      1751       138       385       712      3235       299       218         5       133
  precision         1.0301    1.0301    1.0301    1.0301    1.0301    1.0301    1.0301    1.0301    1.0301    1.0301    1.0301

1Int(dB)
  mean              -5.641   -7.2226  -15.4984  -12.3449  -10.9862   -9.7163   -50.137   -12.305   -8.0296   -25.761    -7.265
  std. dev.        10.8727    9.4909   11.9491   10.3558    9.3463   12.1824   14.5028   11.5328    9.9998    2.8196    6.0708
  weight sum          1505       746      1751       138       385       712      3235       299       218         5       133
  precision         0.1008    0.1008    0.1008    0.1008    0.1008    0.1008    0.1008    0.1008    0.1008    0.1008    0.1008

1Pitch(Hz)
  mean            211.1547   183.146  136.4752  161.6772  163.4233  177.1418   12.2305  174.4724  221.0527   33.4327  198.6388
  std. dev.       109.0219   90.4096  110.1606  107.4647   84.1925  106.6856   48.3683  105.6613   98.5341   66.8654   83.6049
  weight sum          1505       746      1751       138       385       712      3235       299       218         5       133
  precision         0.2034    0.2034    0.2034    0.2034    0.2034    0.2034    0.2034    0.2034    0.2034    0.2034    0.2034

1RawPitch
  mean            200.9312  176.8718  122.3359  134.4189  153.6209  168.1349   10.0527  163.2284  210.2912         0  193.1658
  std. dev.       113.0094   96.4397  112.0284  106.6169   86.0466   111.735   42.5654  110.9161  103.8231    0.0348   90.7206
  weight sum          1505       746      1751       138       385       712      3235       299       218         5       133
  precision         0.2088    0.2088    0.2088    0.2088    0.2088    0.2088    0.2088    0.2088    0.2088    0.2088    0.2088

1SmPitch
  mean            209.2749  181.1568  131.5679   150.738  161.2553  174.8902   10.6934  171.9345  219.9482         0   198.416
  std. dev.       110.3154   92.1927  111.5204  103.6325   84.9278  108.2193   43.8999  107.9136    99.473    0.0342   84.1478
  weight sum          1505       746      1751       138       385       712      3235       299       218         5       133
  precision         0.2051    0.2051    0.2051    0.2051    0.2051    0.2051    0.2051    0.2051    0.2051    0.2051    0.2051

1Melogram(st)
  mean             50.6224   49.1776   36.6719   45.2162   45.9084   46.5218    3.7045   45.7201   50.6374   20.8602   52.5572
  std. dev.        17.7748   17.1261   25.8767   20.2304   18.9795   20.6378   13.7401    21.266    19.473   25.5485   11.6326
  weight sum          1505       746      1751       138       385       712      3235       299       218         5       133
  precision         0.0353    0.0353    0.0353    0.0353    0.0353    0.0353    0.0353    0.0353    0.0353    0.0353    0.0353

1ZCross
  mean              6.4973    4.6951    2.9292    2.7115    3.0678    3.8039    0.1471    2.4688    3.4387         0    3.6746
  std. dev.         4.7305    3.4013    3.9332    2.5858     3.289    3.4966    0.8715    2.5057    3.0618    0.2121     2.155
  weight sum          1505       746      1751       138       385       712      3235       299       218         5       133
  precision         1.2727    1.2727    1.2727    1.2727    1.2727    1.2727    1.2727    1.2727    1.2727    1.2727    1.2727

1F1(Hz)
  mean            632.5964  435.3843  402.9825  487.8092  340.7633  450.1528   45.7694  423.0991  462.9492  144.7747  507.6396
  std. dev.       296.8673  182.9634  270.5934    232.81  174.3406  244.2194  157.8196  227.7907  332.7223  289.5494  140.7686
  weight sum          1505       746      1751       138       385       712      3235       299       218         5       133
  precision         0.5127    0.5127    0.5127    0.5127    0.5127    0.5127    0.5127    0.5127    0.5127    0.5127    0.5127

1F2(Hz)
  mean           1400.8405 1633.7862  1258.076 1414.8511 1740.6907 1123.9385  138.7781 1449.4723  1000.033  234.4156 1494.6889
  std. dev.       532.4998  662.2232  797.3903  640.3559  805.0767  603.6465  473.9823  686.1573   546.594  468.8312  292.6037
  weight sum          1505       746      1751       138       385       712      3235       299       218         5       133
  precision         0.6985    0.6985    0.6985    0.6985    0.6985    0.6985    0.6985    0.6985    0.6985    0.6985    0.6985

1F3(Hz)
  mean           2566.7052 2466.1143 2131.4955 2406.0546 2427.5868 2381.9061  236.8432 2437.2044  2460.271  754.6445 2867.9147
  std. dev.       934.1062  983.2863 1312.6473 1054.0979 1119.2236 1133.1835  790.2031 1070.9844 1089.2339  1509.289  389.3036
  weight sum          1505       746      1751       138       385       712      3235       299       218         5       133
  precision         1.0065    1.0065    1.0065    1.0065    1.0065    1.0065    1.0065    1.0065    1.0065    1.0065    1.0065

1F4(Hz)
  mean           2970.9678  2968.206 2448.7805 2858.1926 2906.6724 2739.0875  290.0819  2883.526  2778.374  598.0497 3355.4843
  std. dev.      1072.0689 1156.9806 1496.5293 1217.3342 1305.1093 1292.2218  965.6184 1232.2639 1167.5154 1196.0995   399.068
  weight sum          1505       746      1751       138       385       712      3235       299       218         5       133
  precision         1.0301    1.0301    1.0301    1.0301    1.0301    1.0301    1.0301    1.0301    1.0301    1.0301    1.0301

2Int(dB)
  mean             -4.7838   -5.6493  -16.3879  -13.9655   -9.5022   -8.6644  -50.8591  -12.4527   -5.9413  -28.5024   -7.9076
  std. dev.          9.917    8.2505   10.4461    8.9902    8.6317   12.1183   13.3675   10.4872    8.0011    3.0818    6.2206
  weight sum          1505       746      1751       138       385       712      3235       299       218         5       133
  precision         0.1008    0.1008    0.1008    0.1008    0.1008    0.1008    0.1008    0.1008    0.1008    0.1008    0.1008

2Pitch(Hz)
  mean            215.4717  192.4898  131.5587  152.2312  174.3019  180.2959    8.6388  173.7208  232.3523         0  197.3055
  std. dev.       105.3209    85.636  110.6314   105.769   75.0715  103.4062   41.2201  104.0157   82.3117    0.0339   85.1182
  weight sum          1505       746      1751       138       385       712      3235       299       218         5       133
  precision         0.2034    0.2034    0.2034    0.2034    0.2034    0.2034    0.2034    0.2034    0.2034    0.2034    0.2034

2RawPitch
  mean            205.1279  188.8553  114.8527  123.0765  166.4766  174.0908     6.907  156.9007  222.5693         0  192.4154
  std. dev.       110.0217   89.4789  111.3876  101.8456   78.7839  108.0935   35.5041  112.4322   89.8429    0.0348   92.3885
  weight sum          1505       746      1751       138       385       712      3235       299       218         5       133
  precision         0.2088    0.2088    0.2088    0.2088    0.2088    0.2088    0.2088    0.2088    0.2088    0.2088    0.2088

2SmPitch
  mean            213.4208  191.6241  125.4343  141.6009  171.8543   178.962    7.4163  169.8194  232.3227         0  196.7627
  std. dev.       106.8674   86.4181   112.086  100.3995   76.5988  104.3249   36.4734  107.6346   82.2366    0.0342   86.2961
  weight sum          1505       746      1751       138       385       712      3235       299       218         5       133
  precision         0.2051    0.2051    0.2051    0.2051    0.2051    0.2051    0.2051    0.2051    0.2051    0.2051    0.2051

2Melogram(st)
  mean             52.0827   51.3162   34.7221   42.7509   49.4307   47.7311    2.7472   45.7719   54.9086   10.4257   52.3538
  std. dev.        15.5643   13.9659   26.6004   21.9334   14.5646   19.2227   12.0049   21.2519   12.8002   20.8513   11.7579
  weight sum          1505       746      1751       138       385       712      3235       299       218         5       133
  precision         0.0352    0.0352    0.0352    0.0352    0.0352    0.0352    0.0352    0.0352    0.0352    0.0352    0.0352

2ZCross
  mean              6.7146    4.8248    2.7904    2.0843    3.1868    3.9665    0.0854    2.2092     3.573         0    3.6172
  std. dev.          4.535    3.1533    4.2824    2.0439    2.9527    3.0096    0.6291     2.095    2.8222    0.2121    2.1729
  weight sum          1505       746      1751       138       385       712      3235       299       218         5       133
  precision         1.2727    1.2727    1.2727    1.2727    1.2727    1.2727    1.2727    1.2727    1.2727    1.2727    1.2727

2F1(Hz)
  mean            680.6071  468.1216  353.3559  433.0067  362.9833  487.9887   33.6418  402.1692  498.1345         0  513.8878
  std. dev.       260.5161  135.4424  274.4304  254.6457  139.6622  219.6408  135.0001  226.7452  299.1257    0.0854  150.3522
  weight sum          1505       746      1751       138       385       712      3235       299       218         5       133
  precision         0.5127    0.5127    0.5127    0.5127    0.5127    0.5127    0.5127    0.5127    0.5127    0.5127    0.5127

2F2(Hz)
  mean           1463.4676 1802.3085 1136.6073 1302.5905 1971.4305 1165.7924  104.6191 1402.7174 1080.7158         0 1476.9797
  std. dev.       432.0523  487.8366  837.1102  701.6256  644.7659  525.3227  415.8917  694.7863  431.8771    0.1164  305.2219
  weight sum          1505       746      1751       138       385       712      3235       299       218         5       133
  precision         0.6985    0.6985    0.6985    0.6985    0.6985    0.6985    0.6985    0.6985    0.6985    0.6985    0.6985

2F3(Hz)
  mean           2691.8093 2662.4498 1930.6527 2220.2677 2672.9489 2534.4259  178.4715 2362.4099 2714.6841         0 2860.5062
  std. dev.       762.9907   729.876 1393.9242 1179.8092  890.7818  989.9708  694.0702 1105.7815  768.9985    0.1677  458.2327
  weight sum          1505       746      1751       138       385       712      3235       299       218         5       133
  precision         1.0065    1.0065    1.0065    1.0065    1.0065    1.0065    1.0065    1.0065    1.0065    1.0065    1.0065

2F4(Hz)
  mean            3114.979 3199.5596 2217.4465 2671.4019 3176.0491 2913.9175  219.9108 2816.8308  3074.217         0 3346.2293
  std. dev.       871.0219  841.1377 1591.9677 1380.3083 1017.7226 1121.3472   853.084 1281.9538  772.1011    0.1717  488.4351
  weight sum          1505       746      1751       138       385       712      3235       299       218         5       133
  precision         1.0301    1.0301    1.0301    1.0301    1.0301    1.0301    1.0301    1.0301    1.0301    1.0301    1.0301





=== Stratified cross-validation ===

Correctly Classified Instances        3225               35.3347 %
Incorrectly Classified Instances      5902               64.6653 %
Kappa statistic                          0.2583
K&B Relative Info Score             213745.3324 %
K&B Information Score                 5708.3329 bits      0.6254 bits/instance
Class complexity | order 0           24349.2613 bits      2.6678 bits/instance
Class complexity | scheme           210667.0612 bits     23.0817 bits/instance
Complexity improvement     (Sf)    -186317.7999 bits    -20.4139 bits/instance
Mean absolute error                      0.1173
Root mean squared error                  0.3279
Relative absolute error                 81.2968 %
Root relative squared error            122.0689 %
Coverage of cases (0.95 level)          43.6836 %
Mean rel. region size (0.95 level)      13.1378 %
Total Number of Instances             9127     


=== Detailed Accuracy By Class ===

                 TP Rate  FP Rate  Precision  Recall   F-Measure  MCC      ROC Area  PRC Area  Class
                 0,308    0,051    0,545      0,308    0,393      0,328    0,814     0,483     A
                 0,097    0,025    0,256      0,097    0,140      0,114    0,798     0,220     E
                 0,209    0,059    0,458      0,209    0,287      0,209    0,677     0,378     CGJLNQSRT
                 0,029    0,014    0,031      0,029    0,030      0,016    0,685     0,028     FV
                 0,252    0,028    0,287      0,252    0,268      0,239    0,840     0,246     I
                 0,008    0,005    0,133      0,008    0,016      0,015    0,682     0,144     O
                 0,638    0,025    0,933      0,638    0,758      0,684    0,955     0,928     0
                 0,000    0,004    0,000      0,000    0,000      -0,011   0,708     0,057     BMP
                 0,193    0,011    0,302      0,193    0,235      0,227    0,843     0,169     U
                 0,800    0,141    0,003      0,800    0,006      0,044    0,837     0,007     DZ
                 0,805    0,323    0,036      0,805    0,068      0,123    0,816     0,046     D
Weighted Avg.    0,353    0,038    0,560      0,353    0,420      0,364    0,823     0,528     


=== Confusion Matrix ===

    a    b    c    d    e    f    g    h    i    j    k   <-- classified as
  463   45   99   20   33   23   15    2   44   41  720 |    a = A
   81   72   56    3   58   10    5    4   13   19  425 |    b = E
  139   60  366   53   50    2   90   19    6  221  745 |    c = CGJLNQSRT
   10    3   18    4    3    0    4    0    0   13   83 |    d = FV
   20   66   34    6   97    1   10    1    3   11  136 |    e = I
   67   20   63   17   35    6   10    0   27   57  410 |    f = O
    7    2   95   20   14    0 2064    6    2  910  115 |    g = 0
   21    6   39    3   24    0   13    0    2   13  178 |    h = BMP
   29    3   24    0   23    3    1    1   42    2   90 |    i = U
    0    0    1    0    0    0    0    0    0    4    0 |    j = DZ
   13    4    5    2    1    0    1    0    0    0  107 |    k = D

=== Percent Confusion Matrix ===
a	b	c	d	e	f	g	h	i	j	k	
30.76	2.99	6.58	1.33	2.19	1.53	1.0	0.13	2.92	2.72	47.84	 a = A
10.86	9.65	7.51	0.4	7.77	1.34	0.67	0.54	1.74	2.55	56.97	 b = E
7.94	3.43	20.9	3.03	2.86	0.11	5.14	1.09	0.34	12.62	42.55	 c = CGJLNQSRT
7.25	2.17	13.04	2.9	2.17	0.0	2.9	0.0	0.0	9.42	60.14	 d = FV
5.19	17.14	8.83	1.56	25.19	0.26	2.6	0.26	0.78	2.86	35.32	 e = I
9.41	2.81	8.85	2.39	4.92	0.84	1.4	0.0	3.79	8.01	57.58	 f = O
0.22	0.06	2.94	0.62	0.43	0.0	63.8	0.19	0.06	28.13	3.55	 g = 0
7.02	2.01	13.04	1.0	8.03	0.0	4.35	0.0	0.67	4.35	59.53	 h = BMP
13.3	1.38	11.01	0.0	10.55	1.38	0.46	0.46	19.27	0.92	41.28	 i = U
0.0	0.0	20.0	0.0	0.0	0.0	0.0	0.0	0.0	80.0	0.0	 j = DZ
9.77	3.01	3.76	1.5	0.75	0.0	0.75	0.0	0.0	0.0	80.45	 k = D
