Timestamp:2014-12-07-11:10:51
Inventario:I3
Intervalo:20ms
Ngramas:2
Clasificador:NaiveBayes
Relation Name:  I3-20ms-2gramas
Num Instances:  9128
Num Attributes: 21

     Name                      Type  Nom  Int Real     Missing      Unique  Dist
   1 0Int(dB)                   Num   0%  11%  89%     0 /  0%    14 /  0%   764 
   2 0Pitch(Hz)                 Num   0%  49%  51%     0 /  0%  1033 / 11%  2440 
   3 0RawPitch                  Num   0%  52%  48%     0 /  0%  1062 / 12%  2369 
   4 0SmPitch                   Num   0%  50%  50%     0 /  0%  1056 / 12%  2419 
   5 0Melogram(st)              Num   0%  45%  55%     0 /  0%   937 / 10%  2341 
   6 0ZCross                    Num   0% 100%   0%     0 /  0%     7 /  0%    34 
   7 0F1(Hz)                    Num   0%  49%  51%     0 /  0%  2180 / 24%  3398 
   8 0F2(Hz)                    Num   0%  49%  51%     0 /  0%  3463 / 38%  4259 
   9 0F3(Hz)                    Num   0%  49%  51%     0 /  0%  3209 / 35%  4087 
  10 0F4(Hz)                    Num   0%  49%  51%     0 /  0%  3134 / 34%  4027 
  11 1Int(dB)                   Num   0%  11%  89%     0 /  0%    14 /  0%   764 
  12 1Pitch(Hz)                 Num   0%  49%  51%     0 /  0%  1033 / 11%  2440 
  13 1RawPitch                  Num   0%  52%  48%     0 /  0%  1062 / 12%  2369 
  14 1SmPitch                   Num   0%  50%  50%     0 /  0%  1056 / 12%  2419 
  15 1Melogram(st)              Num   0%  45%  55%     0 /  0%   938 / 10%  2342 
  16 1ZCross                    Num   0% 100%   0%     0 /  0%     7 /  0%    34 
  17 1F1(Hz)                    Num   0%  49%  51%     0 /  0%  2180 / 24%  3398 
  18 1F2(Hz)                    Num   0%  49%  51%     0 /  0%  3463 / 38%  4259 
  19 1F3(Hz)                    Num   0%  49%  51%     0 /  0%  3209 / 35%  4087 
  20 1F4(Hz)                    Num   0%  49%  51%     0 /  0%  3134 / 34%  4027 
  21 class                      Nom 100%   0%   0%     0 /  0%     0 /  0%    11 


Naive Bayes Classifier

                    Class
Attribute               A         E CGJLNQSRT        FV         I         O         0       BMP         U        DZ         D
                   (0.16)    (0.08)    (0.19)    (0.02)    (0.04)    (0.08)    (0.35)    (0.03)    (0.02)       (0)    (0.01)
==============================================================================================================================
0Int(dB)
  mean              -5.641   -7.2226  -15.4984  -12.3449  -10.9862   -9.7163  -50.1358   -12.305   -8.0296   -25.761    -7.265
  std. dev.        10.8727    9.4909   11.9491   10.3558    9.3463   12.1824   14.5007   11.5328    9.9998    2.8196    6.0708
  weight sum          1505       746      1751       138       385       712      3236       299       218         5       133
  precision         0.1008    0.1008    0.1008    0.1008    0.1008    0.1008    0.1008    0.1008    0.1008    0.1008    0.1008

0Pitch(Hz)
  mean            211.1547   183.146  136.4752  161.6772  163.4233  177.1418   12.2267  174.4724  221.0527   33.4327  198.6388
  std. dev.       109.0219   90.4096  110.1606  107.4647   84.1925  106.6856   48.3613  105.6613   98.5341   66.8654   83.6049
  weight sum          1505       746      1751       138       385       712      3236       299       218         5       133
  precision         0.2034    0.2034    0.2034    0.2034    0.2034    0.2034    0.2034    0.2034    0.2034    0.2034    0.2034

0RawPitch
  mean            200.9312  176.8718  122.3359  134.4189  153.6209  168.1349   10.0496  163.2284  210.2912         0  193.1658
  std. dev.       113.0094   96.4397  112.0284  106.6169   86.0466   111.735   42.5592  110.9161  103.8231    0.0348   90.7206
  weight sum          1505       746      1751       138       385       712      3236       299       218         5       133
  precision         0.2088    0.2088    0.2088    0.2088    0.2088    0.2088    0.2088    0.2088    0.2088    0.2088    0.2088

0SmPitch
  mean            209.2749  181.1568  131.5679   150.738  161.2553  174.8902   10.6901  171.9345  219.9482         0   198.416
  std. dev.       110.3154   92.1927  111.5204  103.6325   84.9278  108.2193   43.8936  107.9136    99.473    0.0342   84.1478
  weight sum          1505       746      1751       138       385       712      3236       299       218         5       133
  precision         0.2051    0.2051    0.2051    0.2051    0.2051    0.2051    0.2051    0.2051    0.2051    0.2051    0.2051

0Melogram(st)
  mean             50.6224   49.1776   36.6719   45.2162   45.9084   46.5218    3.7033   45.7201   50.6374   20.8602   52.5572
  std. dev.        17.7748   17.1261   25.8767   20.2304   18.9795   20.6378   13.7381    21.266    19.473   25.5485   11.6326
  weight sum          1505       746      1751       138       385       712      3236       299       218         5       133
  precision         0.0353    0.0353    0.0353    0.0353    0.0353    0.0353    0.0353    0.0353    0.0353    0.0353    0.0353

0ZCross
  mean              6.4973    4.6951    2.9292    2.7115    3.0678    3.8039    0.1471    2.4688    3.4387         0    3.6746
  std. dev.         4.7305    3.4013    3.9332    2.5858     3.289    3.4966    0.8713    2.5057    3.0618    0.2121     2.155
  weight sum          1505       746      1751       138       385       712      3236       299       218         5       133
  precision         1.2727    1.2727    1.2727    1.2727    1.2727    1.2727    1.2727    1.2727    1.2727    1.2727    1.2727

0F1(Hz)
  mean            632.5964  435.3843  402.9825  487.8092  340.7633  450.1528   45.7552  423.0991  462.9492  144.7747  507.6396
  std. dev.       296.8673  182.9634  270.5934    232.81  174.3406  244.2194  157.7973  227.7907  332.7223  289.5494  140.7686
  weight sum          1505       746      1751       138       385       712      3236       299       218         5       133
  precision         0.5127    0.5127    0.5127    0.5127    0.5127    0.5127    0.5127    0.5127    0.5127    0.5127    0.5127

0F2(Hz)
  mean           1400.8405 1633.7862  1258.076 1414.8511 1740.6907 1123.9385  138.7352 1449.4723  1000.033  234.4156 1494.6889
  std. dev.       532.4998  662.2232  797.3903  640.3559  805.0767  603.6465  473.9153  686.1573   546.594  468.8312  292.6037
  weight sum          1505       746      1751       138       385       712      3236       299       218         5       133
  precision         0.6985    0.6985    0.6985    0.6985    0.6985    0.6985    0.6985    0.6985    0.6985    0.6985    0.6985

0F3(Hz)
  mean           2566.7052 2466.1143 2131.4955 2406.0546 2427.5868 2381.9061    236.77 2437.2044  2460.271  754.6445 2867.9147
  std. dev.       934.1062  983.2863 1312.6473 1054.0979 1119.2236 1133.1835   790.092 1070.9844 1089.2339  1509.289  389.3036
  weight sum          1505       746      1751       138       385       712      3236       299       218         5       133
  precision         1.0065    1.0065    1.0065    1.0065    1.0065    1.0065    1.0065    1.0065    1.0065    1.0065    1.0065

0F4(Hz)
  mean           2970.9678  2968.206 2448.7805 2858.1926 2906.6724 2739.0875  289.9922  2883.526  2778.374  598.0497 3355.4843
  std. dev.      1072.0689 1156.9806 1496.5293 1217.3342 1305.1093 1292.2218  965.4827 1232.2639 1167.5154 1196.0995   399.068
  weight sum          1505       746      1751       138       385       712      3236       299       218         5       133
  precision         1.0301    1.0301    1.0301    1.0301    1.0301    1.0301    1.0301    1.0301    1.0301    1.0301    1.0301

1Int(dB)
  mean             -4.7838   -5.6493  -16.3879  -13.9655   -9.5022   -8.6644  -50.8578  -12.4527   -5.9413  -28.5024   -7.9076
  std. dev.          9.917    8.2505   10.4461    8.9902    8.6317   12.1183   13.3657   10.4872    8.0011    3.0818    6.2206
  weight sum          1505       746      1751       138       385       712      3236       299       218         5       133
  precision         0.1008    0.1008    0.1008    0.1008    0.1008    0.1008    0.1008    0.1008    0.1008    0.1008    0.1008

1Pitch(Hz)
  mean            215.4717  192.4898  131.5587  152.2312  174.3019  180.2959    8.6361  173.7208  232.3523         0  197.3055
  std. dev.       105.3209    85.636  110.6314   105.769   75.0715  103.4062    41.214  104.0157   82.3117    0.0339   85.1182
  weight sum          1505       746      1751       138       385       712      3236       299       218         5       133
  precision         0.2034    0.2034    0.2034    0.2034    0.2034    0.2034    0.2034    0.2034    0.2034    0.2034    0.2034

1RawPitch
  mean            205.1279  188.8553  114.8527  123.0765  166.4766  174.0908    6.9049  156.9007  222.5693         0  192.4154
  std. dev.       110.0217   89.4789  111.3876  101.8456   78.7839  108.0935   35.4988  112.4322   89.8429    0.0348   92.3885
  weight sum          1505       746      1751       138       385       712      3236       299       218         5       133
  precision         0.2088    0.2088    0.2088    0.2088    0.2088    0.2088    0.2088    0.2088    0.2088    0.2088    0.2088

1SmPitch
  mean            213.4208  191.6241  125.4343  141.6009  171.8543   178.962     7.414  169.8194  232.3227         0  196.7627
  std. dev.       106.8674   86.4181   112.086  100.3995   76.5988  104.3249    36.468  107.6346   82.2366    0.0342   86.2961
  weight sum          1505       746      1751       138       385       712      3236       299       218         5       133
  precision         0.2051    0.2051    0.2051    0.2051    0.2051    0.2051    0.2051    0.2051    0.2051    0.2051    0.2051

1Melogram(st)
  mean             52.0827   51.3162   34.7221   42.7509   49.4307   47.7311    2.7463   45.7719   54.9086   10.4257   52.3538
  std. dev.        15.5643   13.9659   26.6004   21.9334   14.5646   19.2227   12.0032   21.2519   12.8002   20.8513   11.7579
  weight sum          1505       746      1751       138       385       712      3236       299       218         5       133
  precision         0.0352    0.0352    0.0352    0.0352    0.0352    0.0352    0.0352    0.0352    0.0352    0.0352    0.0352

1ZCross
  mean              6.7146    4.8248    2.7904    2.0843    3.1868    3.9665    0.0853    2.2092     3.573         0    3.6172
  std. dev.          4.535    3.1533    4.2824    2.0439    2.9527    3.0096     0.629     2.095    2.8222    0.2121    2.1729
  weight sum          1505       746      1751       138       385       712      3236       299       218         5       133
  precision         1.2727    1.2727    1.2727    1.2727    1.2727    1.2727    1.2727    1.2727    1.2727    1.2727    1.2727

1F1(Hz)
  mean            680.6071  468.1216  353.3559  433.0067  362.9833  487.9887   33.6314  402.1692  498.1345         0  513.8878
  std. dev.       260.5161  135.4424  274.4304  254.6457  139.6622  219.6408  134.9805  226.7452  299.1257    0.0854  150.3522
  weight sum          1505       746      1751       138       385       712      3236       299       218         5       133
  precision         0.5127    0.5127    0.5127    0.5127    0.5127    0.5127    0.5127    0.5127    0.5127    0.5127    0.5127

1F2(Hz)
  mean           1463.4676 1802.3085 1136.6073 1302.5905 1971.4305 1165.7924  104.5868 1402.7174 1080.7158         0 1476.9797
  std. dev.       432.0523  487.8366  837.1102  701.6256  644.7659  525.3227  415.8315  694.7863  431.8771    0.1164  305.2219
  weight sum          1505       746      1751       138       385       712      3236       299       218         5       133
  precision         0.6985    0.6985    0.6985    0.6985    0.6985    0.6985    0.6985    0.6985    0.6985    0.6985    0.6985

1F3(Hz)
  mean           2691.8093 2662.4498 1930.6527 2220.2677 2672.9489 2534.4259  178.4164 2362.4099 2714.6841         0 2860.5062
  std. dev.       762.9907   729.876 1393.9242 1179.8092  890.7818  989.9708    693.97 1105.7815  768.9985    0.1677  458.2327
  weight sum          1505       746      1751       138       385       712      3236       299       218         5       133
  precision         1.0065    1.0065    1.0065    1.0065    1.0065    1.0065    1.0065    1.0065    1.0065    1.0065    1.0065

1F4(Hz)
  mean            3114.979 3199.5596 2217.4465 2671.4019 3176.0491 2913.9175  219.8428 2816.8308  3074.217         0 3346.2293
  std. dev.       871.0219  841.1377 1591.9677 1380.3083 1017.7226 1121.3472  852.9609 1281.9538  772.1011    0.1717  488.4351
  weight sum          1505       746      1751       138       385       712      3236       299       218         5       133
  precision         1.0301    1.0301    1.0301    1.0301    1.0301    1.0301    1.0301    1.0301    1.0301    1.0301    1.0301





=== Stratified cross-validation ===

Correctly Classified Instances        3362               36.8317 %
Incorrectly Classified Instances      5766               63.1683 %
Kappa statistic                          0.2765
K&B Relative Info Score             245207.8114 %
K&B Information Score                 6548.529  bits      0.7174 bits/instance
Class complexity | order 0           24350.7576 bits      2.6677 bits/instance
Class complexity | scheme           182377.9046 bits     19.9801 bits/instance
Complexity improvement     (Sf)    -158027.147  bits    -17.3124 bits/instance
Mean absolute error                      0.1157
Root mean squared error                  0.3146
Relative absolute error                 80.1765 %
Root relative squared error            117.1245 %
Coverage of cases (0.95 level)          49.9562 %
Mean rel. region size (0.95 level)      17.1441 %
Total Number of Instances             9128     


=== Detailed Accuracy By Class ===

                 TP Rate  FP Rate  Precision  Recall   F-Measure  MCC      ROC Area  PRC Area  Class
                 0,401    0,058    0,577      0,401    0,473      0,399    0,831     0,518     A
                 0,269    0,042    0,363      0,269    0,309      0,261    0,820     0,295     E
                 0,205    0,062    0,441      0,205    0,280      0,198    0,659     0,369     CGJLNQSRT
                 0,007    0,006    0,017      0,007    0,010      0,001    0,666     0,029     FV
                 0,275    0,028    0,302      0,275    0,288      0,259    0,848     0,256     I
                 0,007    0,002    0,227      0,007    0,014      0,027    0,708     0,167     O
                 0,596    0,020    0,943      0,596    0,731      0,662    0,957     0,934     0
                 0,000    0,004    0,000      0,000    0,000      -0,011   0,702     0,058     BMP
                 0,248    0,007    0,450      0,248    0,320      0,322    0,842     0,236     U
                 0,800    0,170    0,003      0,800    0,005      0,039    0,825     0,004     DZ
                 0,744    0,271    0,039      0,744    0,074      0,127    0,809     0,044     D
Weighted Avg.    0,368    0,038    0,586      0,368    0,438      0,382    0,826     0,544     


=== Confusion Matrix ===

    a    b    c    d    e    f    g    h    i    j    k   <-- classified as
  603   47  111   11   26   10   12    1   18   49  617 |    a = A
   83  201   63    1   49    1    2    3    7   20  316 |    b = E
  165  117  359   22   85    2   78   13    9  283  618 |    c = CGJLNQSRT
   12    8   17    1    3    0    2    2    0   19   74 |    d = FV
   20  110   46    1  106    0    7    2    2   11   80 |    e = I
   88   23   70   10   12    5    4    5   23   63  409 |    f = O
    6    7   82    9   25    1 1930    2    1 1077   96 |    g = 0
   24   25   35    3   32    0    9    0    6   23  142 |    h = BMP
   27    9   25    0   10    3    1    1   54    2   86 |    i = U
    0    0    1    0    0    0    0    0    0    4    0 |    j = DZ
   17    6    5    0    3    0    1    2    0    0   99 |    k = D

=== Percent Confusion Matrix ===
a	b	c	d	e	f	g	h	i	j	k	
40.07	3.12	7.38	0.73	1.73	0.66	0.8	0.07	1.2	3.26	41.0	 a = A
11.13	26.94	8.45	0.13	6.57	0.13	0.27	0.4	0.94	2.68	42.36	 b = E
9.42	6.68	20.5	1.26	4.85	0.11	4.45	0.74	0.51	16.16	35.29	 c = CGJLNQSRT
8.7	5.8	12.32	0.72	2.17	0.0	1.45	1.45	0.0	13.77	53.62	 d = FV
5.19	28.57	11.95	0.26	27.53	0.0	1.82	0.52	0.52	2.86	20.78	 e = I
12.36	3.23	9.83	1.4	1.69	0.7	0.56	0.7	3.23	8.85	57.44	 f = O
0.19	0.22	2.53	0.28	0.77	0.03	59.64	0.06	0.03	33.28	2.97	 g = 0
8.03	8.36	11.71	1.0	10.7	0.0	3.01	0.0	2.01	7.69	47.49	 h = BMP
12.39	4.13	11.47	0.0	4.59	1.38	0.46	0.46	24.77	0.92	39.45	 i = U
0.0	0.0	20.0	0.0	0.0	0.0	0.0	0.0	0.0	80.0	0.0	 j = DZ
12.78	4.51	3.76	0.0	2.26	0.0	0.75	1.5	0.0	0.0	74.44	 k = D
