Timestamp:2014-12-07-11:05:58
Inventario:I3
Intervalo:2ms
Ngramas:2
Clasificador:NaiveBayes
Relation Name:  I3-2ms-2gramas
Num Instances:  91702
Num Attributes: 21

     Name                      Type  Nom  Int Real     Missing      Unique  Dist
   1 0Int(dB)                   Num   0%   9%  91%     0 /  0%     5 /  0%   780 
   2 0Pitch(Hz)                 Num   0%  52%  48%     0 /  0%   471 /  1%  4016 
   3 0RawPitch                  Num   0%  55%  45%     0 /  0%   550 /  1%  4014 
   4 0SmPitch                   Num   0%  53%  47%     0 /  0%   491 /  1%  3998 
   5 0Melogram(st)              Num   0%  49%  51%     0 /  0%   212 /  0%  3363 
   6 0ZCross                    Num   0% 100%   0%     0 /  0%     6 /  0%    54 
   7 0F1(Hz)                    Num   0%  52%  48%     0 /  0%  1126 /  1%  4776 
   8 0F2(Hz)                    Num   0%  52%  48%     0 /  0%  2304 /  3%  6727 
   9 0F3(Hz)                    Num   0%  52%  48%     0 /  0%  1967 /  2%  6224 
  10 0F4(Hz)                    Num   0%  52%  48%     0 /  0%  1884 /  2%  6074 
  11 1Int(dB)                   Num   0%   9%  91%     0 /  0%     6 /  0%   781 
  12 1Pitch(Hz)                 Num   0%  52%  48%     0 /  0%   471 /  1%  4016 
  13 1RawPitch                  Num   0%  55%  45%     0 /  0%   550 /  1%  4014 
  14 1SmPitch                   Num   0%  53%  47%     0 /  0%   491 /  1%  3998 
  15 1Melogram(st)              Num   0%  49%  51%     0 /  0%   212 /  0%  3363 
  16 1ZCross                    Num   0% 100%   0%     0 /  0%     6 /  0%    54 
  17 1F1(Hz)                    Num   0%  52%  48%     0 /  0%  1126 /  1%  4776 
  18 1F2(Hz)                    Num   0%  52%  48%     0 /  0%  2304 /  3%  6727 
  19 1F3(Hz)                    Num   0%  52%  48%     0 /  0%  1967 /  2%  6224 
  20 1F4(Hz)                    Num   0%  52%  48%     0 /  0%  1884 /  2%  6074 
  21 class                      Nom 100%   0%   0%     0 /  0%     0 /  0%    11 


Naive Bayes Classifier

                    Class
Attribute               A         E CGJLNQSRT        FV         I         O         0       BMP         U        DZ         D
                   (0.16)    (0.08)    (0.18)    (0.01)    (0.04)    (0.07)    (0.39)    (0.03)    (0.02)       (0)    (0.01)
==============================================================================================================================
0Int(dB)
  mean             -4.2367   -5.1801  -16.5949  -15.0289   -8.7172    -8.146  -48.2526  -12.4737   -5.2139  -26.9195   -7.7997
  std. dev.         9.6141     8.069   10.3539    8.8787    8.3524   12.1698   16.2021   10.7103    7.7793    2.0302    6.1523
  weight sum         14333      6910     16793      1286      3561      6646     35832      2915      2080        33      1313
  precision         0.1039    0.1039    0.1039    0.1039    0.1039    0.1039    0.1039    0.1039    0.1039    0.1039    0.1039

0Pitch(Hz)
  mean            215.3054  190.0868  115.2128  131.0502  173.0539  178.5997   16.6922  159.5378  229.3808         0  202.2726
  std. dev.       108.4186   87.9634  113.1551  107.2576   76.5412   105.265   56.2797  111.1102    84.526    0.0207   84.5208
  weight sum         14333      6910     16793      1286      3561      6646     35832      2915      2080        33      1313
  precision         0.1242    0.1242    0.1242    0.1242    0.1242    0.1242    0.1242    0.1242    0.1242    0.1242    0.1242

0RawPitch
  mean            204.9204  185.5725   96.5081  106.2993  165.7052  172.7286   13.6783   147.555  220.4839         0  195.9629
  std. dev.        114.845   95.2181  112.2628  103.3674   83.3185  112.6688   50.8125  116.3293   93.0053    0.0207    94.473
  weight sum         14333      6910     16793      1286      3561      6646     35832      2915      2080        33      1313
  precision         0.1243    0.1243    0.1243    0.1243    0.1243    0.1243    0.1243    0.1243    0.1243    0.1243    0.1243

0SmPitch
  mean            213.3064  188.5362  108.5296  120.8089  170.6841  176.5062   15.0746  154.9178  228.8712         0  201.7143
  std. dev.       109.9963   89.2414  113.2143  104.3726   79.0929  107.4391    52.489  113.8128   84.8121    0.0208   85.5991
  weight sum         14333      6910     16793      1286      3561      6646     35832      2915      2080        33      1313
  precision         0.1248    0.1248    0.1248    0.1248    0.1248    0.1248    0.1248    0.1248    0.1248    0.1248    0.1248

0Melogram(st)
  mean             51.3027   50.4037   30.0627   37.0227   48.4912   46.5516    4.9293    41.476   54.0704         0   53.0165
  std. dev.        16.9973   15.4597   27.4399   25.0004   16.2162    20.484    15.628   24.3018   14.2652    0.0041   11.3502
  weight sum         14333      6910     16793      1286      3561      6646     35832      2915      2080        33      1313
  precision         0.0246    0.0246    0.0246    0.0246    0.0246    0.0246    0.0246    0.0246    0.0246    0.0246    0.0246

0ZCross
  mean              7.1259    5.2659    3.0292    2.0682    3.7314    4.4315    0.2535     2.518    4.0992         0    4.1291
  std. dev.         4.5903    3.2124    4.9373    2.2445    3.2172    3.0586    1.1335    2.2548    2.9273    0.1792    2.2988
  weight sum         14333      6910     16793      1286      3561      6646     35832      2915      2080        33      1313
  precision         1.0755    1.0755    1.0755    1.0755    1.0755    1.0755    1.0755    1.0755    1.0755    1.0755    1.0755

0F1(Hz)
  mean            680.5164   463.877  307.6156  383.2741  361.6146  484.2054   53.8361  371.8273  498.0573         0  517.6211
  std. dev.       271.5055   146.053   278.497  277.9272  144.1442  226.2125  166.7222   237.112   307.944    0.0608  153.3903
  weight sum         14333      6910     16793      1286      3561      6646     35832      2915      2080        33      1313
  precision         0.3648    0.3648    0.3648    0.3648    0.3648    0.3648    0.3648    0.3648    0.3648    0.3648    0.3648

0F2(Hz)
  mean           1442.0523  1785.616 1000.5225 1168.3225 1974.0792 1140.4987  168.5623 1308.1584  1053.554         0 1484.0387
  std. dev.       456.0769  528.1297  864.4378  778.4294  669.1502  535.6978  516.6376   749.768  426.6176    0.0738  321.3149
  weight sum         14333      6910     16793      1286      3561      6646     35832      2915      2080        33      1313
  precision         0.4429    0.4429    0.4429    0.4429    0.4429    0.4429    0.4429    0.4429    0.4429    0.4429    0.4429

0F3(Hz)
  mean           2653.6177 2619.8245 1704.5582 1990.5358 2655.6632  2499.568  287.4189 2202.5227  2673.852         0 2868.9125
  std. dev.       815.2889  786.5019 1450.8094 1314.6764  922.4738 1024.8703  866.0117 1206.5921  787.5699    0.1103  503.7764
  weight sum         14333      6910     16793      1286      3561      6646     35832      2915      2080        33      1313
  precision          0.662     0.662     0.662     0.662     0.662     0.662     0.662     0.662     0.662     0.662     0.662

0F4(Hz)
  mean           3078.5421 3157.1809 1952.1789 2382.1202 3159.0187 2876.1426  345.4862 2644.3886  3063.919         0  3321.865
  std. dev.       932.0325  913.7543 1652.7631 1537.9929 1054.7924 1161.7476  1038.639 1416.7903  806.6532    0.1138  550.7347
  weight sum         14333      6910     16793      1286      3561      6646     35832      2915      2080        33      1313
  precision         0.6829    0.6829    0.6829    0.6829    0.6829    0.6829    0.6829    0.6829    0.6829    0.6829    0.6829

1Int(dB)
  mean             -4.2733    -5.199  -16.4813  -15.0003    -8.676   -8.1936  -48.3069  -12.2641   -5.0927  -26.9132   -7.7016
  std. dev.         9.6287    8.0531   10.2875    8.8607    8.3577   12.2208   16.1114   10.5968    7.5769    1.9983     6.187
  weight sum         14333      6910     16793      1286      3561      6646     35832      2915      2080        33      1313
  precision         0.1037    0.1037    0.1037    0.1037    0.1037    0.1037    0.1037    0.1037    0.1037    0.1037    0.1037

1Pitch(Hz)
  mean            215.1446  190.3791  115.9271  130.8258  173.4856  178.0537   16.3383  160.3717  229.8416         0  202.2426
  std. dev.       108.5552   87.7367  113.3329  107.1381   76.0683  105.2226   55.7277  110.4325   83.5753    0.0207   84.5819
  weight sum         14333      6910     16793      1286      3561      6646     35832      2915      2080        33      1313
  precision         0.1242    0.1242    0.1242    0.1242    0.1242    0.1242    0.1242    0.1242    0.1242    0.1242    0.1242

1RawPitch
  mean            204.7828   185.837   97.0368  105.9763  166.2787  172.2852   13.3728  148.5095  220.9278         0  195.8324
  std. dev.       114.9802   95.0002  112.4475  102.9581   83.0617  112.5036   50.3485  115.8451   92.1417    0.0207    94.326
  weight sum         14333      6910     16793      1286      3561      6646     35832      2915      2080        33      1313
  precision         0.1243    0.1243    0.1243    0.1243    0.1243    0.1243    0.1243    0.1243    0.1243    0.1243    0.1243

1SmPitch
  mean            213.2239  188.9642  109.1119  120.6473  171.0525  175.9682   14.7407  155.6124  229.2536         0  201.7614
  std. dev.       110.0447   88.9263  113.4077  104.2291   78.7886  107.3853   51.9295  113.2741   84.0032    0.0208   85.5097
  weight sum         14333      6910     16793      1286      3561      6646     35832      2915      2080        33      1313
  precision         0.1248    0.1248    0.1248    0.1248    0.1248    0.1248    0.1248    0.1248    0.1248    0.1248    0.1248

1Melogram(st)
  mean             51.2983   50.4842   30.1853   37.0069   48.6341   46.4749    4.8254   41.6893   54.3072         0   53.0765
  std. dev.        16.9875   15.3213   27.4518   25.0249   15.9951   20.5262   15.4831   24.1614   13.7628    0.0041   11.1742
  weight sum         14333      6910     16793      1286      3561      6646     35832      2915      2080        33      1313
  precision         0.0246    0.0246    0.0246    0.0246    0.0246    0.0246    0.0246    0.0246    0.0246    0.0246    0.0246

1ZCross
  mean               7.111    5.2438    3.0478    2.0698    3.7483    4.4237    0.2484    2.5583    4.1111         0    4.1913
  std. dev.         4.6004    3.2168     4.934    2.2498    3.2275    3.0692    1.1311    2.2519    2.9164    0.1792    2.3027
  weight sum         14333      6910     16793      1286      3561      6646     35832      2915      2080        33      1313
  precision         1.0755    1.0755    1.0755    1.0755    1.0755    1.0755    1.0755    1.0755    1.0755    1.0755    1.0755

1F1(Hz)
  mean            683.4195  466.4894  305.1041  378.5922    363.75  486.2046   52.7328   372.086  500.6341         0  518.4309
  std. dev.        269.455  142.2388   277.473  277.5826  140.8431  225.0865  165.0999  236.0116  305.2064    0.0608  153.3851
  weight sum         14333      6910     16793      1286      3561      6646     35832      2915      2080        33      1313
  precision         0.3648    0.3648    0.3648    0.3648    0.3648    0.3648    0.3648    0.3648    0.3648    0.3648    0.3648

1F2(Hz)
  mean           1444.7727 1798.4442  995.4145 1163.3139  1993.047 1140.7371  165.1158 1309.1173 1061.2779         0 1484.1075
  std. dev.       450.4532  511.8666  864.2114   782.141  650.7685  531.1147  511.8646    746.06  416.4942    0.0738  323.4684
  weight sum         14333      6910     16793      1286      3561      6646     35832      2915      2080        33      1313
  precision         0.4429    0.4429    0.4429    0.4429    0.4429    0.4429    0.4429    0.4429    0.4429    0.4429    0.4429

1F3(Hz)
  mean           2659.8447 2634.9785 1696.3721 1978.2255 2677.3565 2506.4348  281.5246 2204.7048 2694.0925         0 2868.2959
  std. dev.       806.7783  764.1593 1451.3307 1318.9077  898.3116 1018.6433  858.0542 1201.2074  755.1652    0.1103  510.0445
  weight sum         14333      6910     16793      1286      3561      6646     35832      2915      2080        33      1313
  precision          0.662     0.662     0.662     0.662     0.662     0.662     0.662     0.662     0.662     0.662     0.662

1F4(Hz)
  mean           3084.7647   3174.33 1944.3398 2370.2376 3182.3609 2882.7851  338.5171 2650.5175 3086.3027         0 3319.7801
  std. dev.       921.7526  885.5429 1654.8525 1544.5093 1024.5862 1153.5603  1029.399 1411.8243   763.546    0.1138  557.8761
  weight sum         14333      6910     16793      1286      3561      6646     35832      2915      2080        33      1313
  precision         0.6829    0.6829    0.6829    0.6829    0.6829    0.6829    0.6829    0.6829    0.6829    0.6829    0.6829





=== Stratified cross-validation ===

Correctly Classified Instances       33501               36.5325 %
Incorrectly Classified Instances     58201               63.4675 %
Kappa statistic                          0.2772
K&B Relative Info Score            2464749.55   %
K&B Information Score                63952.6582 bits      0.6974 bits/instance
Class complexity | order 0          237915.0222 bits      2.5944 bits/instance
Class complexity | scheme          3287024.6059 bits     35.8446 bits/instance
Complexity improvement     (Sf)    -3049109.5837 bits    -33.2502 bits/instance
Mean absolute error                      0.1176
Root mean squared error                  0.3136
Relative absolute error                 83.4682 %
Root relative squared error            118.1632 %
Coverage of cases (0.95 level)          48.1843 %
Mean rel. region size (0.95 level)      17.6843 %
Total Number of Instances            91702     


=== Detailed Accuracy By Class ===

                 TP Rate  FP Rate  Precision  Recall   F-Measure  MCC      ROC Area  PRC Area  Class
                 0,437    0,042    0,656      0,437    0,524      0,469    0,862     0,586     A
                 0,484    0,054    0,422      0,484    0,451      0,404    0,857     0,398     E
                 0,168    0,034    0,528      0,168    0,255      0,222    0,625     0,376     CGJLNQSRT
                 0,027    0,010    0,039      0,027    0,032      0,021    0,628     0,027     FV
                 0,349    0,038    0,273      0,349    0,307      0,277    0,855     0,275     I
                 0,024    0,006    0,237      0,024    0,043      0,054    0,743     0,177     O
                 0,500    0,024    0,931      0,500    0,651      0,571    0,878     0,857     0
                 0,009    0,005    0,061      0,009    0,016      0,011    0,665     0,054     BMP
                 0,363    0,010    0,456      0,363    0,404      0,394    0,871     0,367     U
                 1,000    0,228    0,002      1,000    0,003      0,035    0,912     0,002     DZ
                 0,681    0,216    0,044      0,681    0,082      0,133    0,822     0,047     D
Weighted Avg.    0,365    0,032    0,636      0,365    0,443      0,394    0,805     0,560     


=== Confusion Matrix ===

     a     b     c     d     e     f     g     h     i     j     k   <-- classified as
  6261   974   463   187   291   102   147    34    24   628  5222 |     a = A
   637  3344   312    29   419    14    30    53    30   246  1796 |     b = E
   882   843  2828   296  1232   212   957   173   138  4228  5004 |     c = CGJLNQSRT
    96    94   122    35   138    10    26     6     2   297   460 |     d = FV
   177  1401   234    24  1244     1    40    24     0   159   257 |     e = I
   753   661   339   110    67   158    27    22   558   700  3251 |     f = O
   149   272   702   168   566   127 17924    69    55 14180  1620 |     g = 0
   187   205   228    31   446    22    66    26    78   474  1152 |     h = BMP
   230    60   112     7    76    14    16    13   754    24   774 |     i = U
     0     0     0     0     0     0     0     0     0    33     0 |     j = DZ
   176    79    21    21    72     7    10     9    16     8   894 |     k = D

=== Percent Confusion Matrix ===
a	b	c	d	e	f	g	h	i	j	k	
43.68	6.8	3.23	1.3	2.03	0.71	1.03	0.24	0.17	4.38	36.43	 a = A
9.22	48.39	4.52	0.42	6.06	0.2	0.43	0.77	0.43	3.56	25.99	 b = E
5.25	5.02	16.84	1.76	7.34	1.26	5.7	1.03	0.82	25.18	29.8	 c = CGJLNQSRT
7.47	7.31	9.49	2.72	10.73	0.78	2.02	0.47	0.16	23.09	35.77	 d = FV
4.97	39.34	6.57	0.67	34.93	0.03	1.12	0.67	0.0	4.47	7.22	 e = I
11.33	9.95	5.1	1.66	1.01	2.38	0.41	0.33	8.4	10.53	48.92	 f = O
0.42	0.76	1.96	0.47	1.58	0.35	50.02	0.19	0.15	39.57	4.52	 g = 0
6.42	7.03	7.82	1.06	15.3	0.75	2.26	0.89	2.68	16.26	39.52	 h = BMP
11.06	2.88	5.38	0.34	3.65	0.67	0.77	0.63	36.25	1.15	37.21	 i = U
0.0	0.0	0.0	0.0	0.0	0.0	0.0	0.0	0.0	100.0	0.0	 j = DZ
13.4	6.02	1.6	1.6	5.48	0.53	0.76	0.69	1.22	0.61	68.09	 k = D
