Timestamp:2014-12-07-11:11:02
Inventario:I3
Intervalo:20ms
Ngramas:5
Clasificador:NaiveBayes
Relation Name:  I3-20ms-5gramas
Num Instances:  9125
Num Attributes: 51

     Name                      Type  Nom  Int Real     Missing      Unique  Dist
   1 0Int(dB)                   Num   0%  11%  89%     0 /  0%    14 /  0%   764 
   2 0Pitch(Hz)                 Num   0%  49%  51%     0 /  0%  1033 / 11%  2440 
   3 0RawPitch                  Num   0%  52%  48%     0 /  0%  1062 / 12%  2369 
   4 0SmPitch                   Num   0%  50%  50%     0 /  0%  1056 / 12%  2419 
   5 0Melogram(st)              Num   0%  45%  55%     0 /  0%   937 / 10%  2341 
   6 0ZCross                    Num   0% 100%   0%     0 /  0%     7 /  0%    34 
   7 0F1(Hz)                    Num   0%  49%  51%     0 /  0%  2180 / 24%  3398 
   8 0F2(Hz)                    Num   0%  49%  51%     0 /  0%  3463 / 38%  4259 
   9 0F3(Hz)                    Num   0%  49%  51%     0 /  0%  3209 / 35%  4087 
  10 0F4(Hz)                    Num   0%  49%  51%     0 /  0%  3134 / 34%  4027 
  11 1Int(dB)                   Num   0%  11%  89%     0 /  0%    14 /  0%   764 
  12 1Pitch(Hz)                 Num   0%  49%  51%     0 /  0%  1033 / 11%  2440 
  13 1RawPitch                  Num   0%  52%  48%     0 /  0%  1062 / 12%  2369 
  14 1SmPitch                   Num   0%  50%  50%     0 /  0%  1056 / 12%  2419 
  15 1Melogram(st)              Num   0%  45%  55%     0 /  0%   937 / 10%  2341 
  16 1ZCross                    Num   0% 100%   0%     0 /  0%     7 /  0%    34 
  17 1F1(Hz)                    Num   0%  49%  51%     0 /  0%  2180 / 24%  3398 
  18 1F2(Hz)                    Num   0%  49%  51%     0 /  0%  3463 / 38%  4259 
  19 1F3(Hz)                    Num   0%  49%  51%     0 /  0%  3209 / 35%  4087 
  20 1F4(Hz)                    Num   0%  49%  51%     0 /  0%  3134 / 34%  4027 
  21 2Int(dB)                   Num   0%  11%  89%     0 /  0%    14 /  0%   764 
  22 2Pitch(Hz)                 Num   0%  49%  51%     0 /  0%  1033 / 11%  2440 
  23 2RawPitch                  Num   0%  52%  48%     0 /  0%  1062 / 12%  2369 
  24 2SmPitch                   Num   0%  50%  50%     0 /  0%  1056 / 12%  2419 
  25 2Melogram(st)              Num   0%  45%  55%     0 /  0%   937 / 10%  2341 
  26 2ZCross                    Num   0% 100%   0%     0 /  0%     7 /  0%    34 
  27 2F1(Hz)                    Num   0%  49%  51%     0 /  0%  2180 / 24%  3398 
  28 2F2(Hz)                    Num   0%  49%  51%     0 /  0%  3463 / 38%  4259 
  29 2F3(Hz)                    Num   0%  49%  51%     0 /  0%  3209 / 35%  4087 
  30 2F4(Hz)                    Num   0%  49%  51%     0 /  0%  3134 / 34%  4027 
  31 3Int(dB)                   Num   0%  11%  89%     0 /  0%    14 /  0%   764 
  32 3Pitch(Hz)                 Num   0%  49%  51%     0 /  0%  1033 / 11%  2440 
  33 3RawPitch                  Num   0%  52%  48%     0 /  0%  1062 / 12%  2369 
  34 3SmPitch                   Num   0%  50%  50%     0 /  0%  1056 / 12%  2419 
  35 3Melogram(st)              Num   0%  45%  55%     0 /  0%   937 / 10%  2341 
  36 3ZCross                    Num   0% 100%   0%     0 /  0%     7 /  0%    34 
  37 3F1(Hz)                    Num   0%  49%  51%     0 /  0%  2180 / 24%  3398 
  38 3F2(Hz)                    Num   0%  49%  51%     0 /  0%  3463 / 38%  4259 
  39 3F3(Hz)                    Num   0%  49%  51%     0 /  0%  3209 / 35%  4087 
  40 3F4(Hz)                    Num   0%  49%  51%     0 /  0%  3134 / 34%  4027 
  41 4Int(dB)                   Num   0%  11%  89%     0 /  0%    14 /  0%   764 
  42 4Pitch(Hz)                 Num   0%  49%  51%     0 /  0%  1033 / 11%  2440 
  43 4RawPitch                  Num   0%  52%  48%     0 /  0%  1062 / 12%  2369 
  44 4SmPitch                   Num   0%  50%  50%     0 /  0%  1056 / 12%  2419 
  45 4Melogram(st)              Num   0%  45%  55%     0 /  0%   938 / 10%  2342 
  46 4ZCross                    Num   0% 100%   0%     0 /  0%     7 /  0%    34 
  47 4F1(Hz)                    Num   0%  49%  51%     0 /  0%  2180 / 24%  3398 
  48 4F2(Hz)                    Num   0%  49%  51%     0 /  0%  3463 / 38%  4259 
  49 4F3(Hz)                    Num   0%  49%  51%     0 /  0%  3209 / 35%  4087 
  50 4F4(Hz)                    Num   0%  49%  51%     0 /  0%  3134 / 34%  4027 
  51 class                      Nom 100%   0%   0%     0 /  0%     0 /  0%    11 


Naive Bayes Classifier

                    Class
Attribute               A         E CGJLNQSRT        FV         I         O         0       BMP         U        DZ         D
                   (0.16)    (0.08)    (0.19)    (0.02)    (0.04)    (0.08)    (0.35)    (0.03)    (0.02)       (0)    (0.01)
==============================================================================================================================
0Int(dB)
  mean             -9.4436  -13.0643  -11.7837   -8.9269  -14.4823  -13.7939  -47.5634  -10.7538  -12.6792  -20.2177  -10.4674
  std. dev.        14.8533   13.8924   12.8868   12.5332   12.1648   14.5422   17.5773   12.8105   14.5166    4.6281    9.0092
  weight sum          1505       746      1751       138       385       712      3233       299       218         5       133
  precision         0.1008    0.1008    0.1008    0.1008    0.1008    0.1008    0.1008    0.1008    0.1008    0.1008    0.1008

0Pitch(Hz)
  mean            192.1654  157.6241  167.7061  180.3011   129.399  154.4015   22.5345  168.3253  185.4643  137.9608   164.341
  std. dev.       124.5559  106.2543   99.4269   98.9453    97.295  117.9146   64.1222  106.7245  129.6329   69.1022   93.8601
  weight sum          1505       746      1751       138       385       712      3233       299       218         5       133
  precision         0.2034    0.2034    0.2034    0.2034    0.2034    0.2034    0.2034    0.2034    0.2034    0.2034    0.2034

0RawPitch
  mean            182.8778  142.8621  156.5574  172.2618  115.7703  147.4316   19.0259  165.1759  174.0768   33.9065   154.544
  std. dev.       126.0813  108.7738  104.6782  100.7608   98.4318  119.9864   58.9951  108.0612   129.047    67.813   98.6844
  weight sum          1505       746      1751       138       385       712      3233       299       218         5       133
  precision         0.2088    0.2088    0.2088    0.2088    0.2088    0.2088    0.2088    0.2088    0.2088    0.2088    0.2088

0SmPitch
  mean            190.7737  151.1828  164.5812    179.78  126.3893  151.8381   20.5313  169.0202   182.135  105.5179  161.0457
  std. dev.       124.8295  108.3387  101.1198  100.4294    98.528  118.5922   60.8233  106.3346  130.2709   86.1677   95.4779
  weight sum          1505       746      1751       138       385       712      3233       299       218         5       133
  precision         0.2051    0.2051    0.2051    0.2051    0.2051    0.2051    0.2051    0.2051    0.2051    0.2051    0.2051

0Melogram(st)
  mean             45.7878   41.5957   44.8297   48.2008   37.5182   40.1516    6.4706   44.6453   41.8132   52.6371   46.1825
  std. dev.        22.8954   23.8518   21.2661   18.1359   24.3982   24.9935   17.6275    22.068    26.342    0.4691   19.7435
  weight sum          1505       746      1751       138       385       712      3233       299       218         5       133
  precision         0.0353    0.0353    0.0353    0.0353    0.0353    0.0353    0.0353    0.0353    0.0353    0.0353    0.0353

0ZCross
  mean              5.5966     3.564    3.4911    4.2701    3.6099    3.1175    0.4181    3.8139    3.6956    0.5091    3.2536
  std. dev.         5.2608    3.6901    3.0552    3.3526       4.9    3.4613    1.6417    3.5612    4.1241    0.6235    2.7231
  weight sum          1505       746      1751       138       385       712      3233       299       218         5       133
  precision         1.2727    1.2727    1.2727    1.2727    1.2727    1.2727    1.2727    1.2727    1.2727    1.2727    1.2727

0F1(Hz)
  mean            539.6585  396.6456  472.6958  477.7009  362.3908  381.2384   78.4894  404.6554  436.2298  502.5076  452.7273
  std. dev.       340.8503  245.4891   240.271  201.4736  263.2562   266.009  203.5437  239.4385  361.4868  263.2014  232.4894
  weight sum          1505       746      1751       138       385       712      3233       299       218         5       133
  precision         0.5127    0.5127    0.5127    0.5127    0.5127    0.5127    0.5127    0.5127    0.5127    0.5127    0.5127

0F2(Hz)
  mean           1296.0971 1340.1469 1433.6803 1515.3183 1267.4653 1098.4424  231.6962 1394.3751 1020.6963    999.13  1221.834
  std. dev.       679.3112  797.5886  673.7651   626.684  859.7623  749.9908  596.3489  768.1069   717.933  506.9657  625.2766
  weight sum          1505       746      1751       138       385       712      3233       299       218         5       133
  precision         0.6985    0.6985    0.6985    0.6985    0.6985    0.6985    0.6985    0.6985    0.6985    0.6985    0.6985

0F3(Hz)
  mean           2328.8526 2162.9982 2453.6602 2526.1882 2022.7855 2116.8449  398.5268 2282.2263  2161.149 2905.2506 2315.4356
  std. dev.      1165.6944 1227.4642 1094.4075  968.8846  1338.969 1300.7052  997.1309  1194.601 1263.8627 1456.0128 1120.5395
  weight sum          1505       746      1751       138       385       712      3233       299       218         5       133
  precision         1.0065    1.0065    1.0065    1.0065    1.0065    1.0065    1.0065    1.0065    1.0065    1.0065    1.0065

0F4(Hz)
  mean           2691.0845 2604.1079 2817.4512 2969.9013 2433.8024  2442.601  479.4766 2688.4461 2510.8149 2368.3016   2762.32
  std. dev.      1337.1531  1461.208 1237.7302 1128.5034 1591.4063 1494.7339 1196.5525 1385.2271 1424.0654 1184.7017 1313.9497
  weight sum          1505       746      1751       138       385       712      3233       299       218         5       133
  precision         1.0301    1.0301    1.0301    1.0301    1.0301    1.0301    1.0301    1.0301    1.0301    1.0301    1.0301

1Int(dB)
  mean             -8.6039  -11.7218  -12.2656   -8.8371  -14.1716  -13.1727  -48.3452  -10.1929  -12.1512  -22.3746   -8.5828
  std. dev.        13.8877   12.7888    12.693   12.1009   11.3435   13.9303   16.8525   12.1121   13.5815    4.8213    7.8675
  weight sum          1505       746      1751       138       385       712      3233       299       218         5       133
  precision         0.1008    0.1008    0.1008    0.1008    0.1008    0.1008    0.1008    0.1008    0.1008    0.1008    0.1008

1Pitch(Hz)
  mean            194.5491  160.6546  164.5152  181.9044  134.2538  156.7441   19.4371  179.4782  185.7432  102.2504  185.2231
  std. dev.        122.101  102.2528  101.2728  100.9774   96.8851  116.9519   59.9023  103.6256  130.6923   83.5284   85.6403
  weight sum          1505       746      1751       138       385       712      3233       299       218         5       133
  precision         0.2034    0.2034    0.2034    0.2034    0.2034    0.2034    0.2034    0.2034    0.2034    0.2034    0.2034

1RawPitch
  mean             184.365  148.5522  153.3207  170.1709  121.7318  148.9971   16.1157  175.1905  173.5625         0  175.2889
  std. dev.       124.2233  106.1316  106.2499  103.5921   96.3139  120.0464   54.3952  105.5177  129.6098    0.0348   91.5053
  weight sum          1505       746      1751       138       385       712      3233       299       218         5       133
  precision         0.2088    0.2088    0.2088    0.2088    0.2088    0.2088    0.2088    0.2088    0.2088    0.2088    0.2088

1SmPitch
  mean            192.5256  155.5873  161.2907  177.1758  131.2192  153.6272   17.6206   179.977  182.8643   69.8256  185.2493
  std. dev.       122.8826  104.7161  103.2911  100.5075   96.9443  117.9631   56.4298  103.1028  131.0566   85.5195      85.7
  weight sum          1505       746      1751       138       385       712      3233       299       218         5       133
  precision         0.2051    0.2051    0.2051    0.2051    0.2051    0.2051    0.2051    0.2051    0.2051    0.2051    0.2051

1Melogram(st)
  mean             46.3494   43.0353   44.0343   48.8131   38.5277     40.72     5.628   47.4023    41.677   41.9743   50.5341
  std. dev.        22.3412   22.8173   21.9203    17.183   23.9713   24.6779    16.586   19.9946    26.535   20.9897   14.9915
  weight sum          1505       746      1751       138       385       712      3233       299       218         5       133
  precision         0.0353    0.0353    0.0353    0.0353    0.0353    0.0353    0.0353    0.0353    0.0353    0.0353    0.0353

1ZCross
  mean              5.7987    3.7875     3.401    4.3439    3.3025    3.2283    0.3547    3.5458    3.5496    0.5091    3.5024
  std. dev.         5.2067    3.6027    3.2096    3.5198    4.4292    3.6497    1.5381    3.2035    3.8879    0.6235    2.4249
  weight sum          1505       746      1751       138       385       712      3233       299       218         5       133
  precision         1.2727    1.2727    1.2727    1.2727    1.2727    1.2727    1.2727    1.2727    1.2727    1.2727    1.2727

1F1(Hz)
  mean            548.2115  393.9778  476.5649   516.388  337.2878   387.934   69.4789  434.0106  424.8479  404.4873  492.0247
  std. dev.       340.6042  237.3761  237.5945  185.7463  247.3025  267.0661  193.2584  222.5728  365.8257   331.872   180.435
  weight sum          1505       746      1751       138       385       712      3233       299       218         5       133
  precision         0.5127    0.5127    0.5127    0.5127    0.5127    0.5127    0.5127    0.5127    0.5127    0.5127    0.5127

1F2(Hz)
  mean           1291.1129 1373.2113 1447.4624 1567.5638 1314.2846 1075.1192  205.7068 1481.8017  955.3932  716.5182 1399.3205
  std. dev.       669.3906  794.2677  668.1076  551.4753  896.4634  722.9702   567.627  698.0192  693.4125  585.2602  487.2677
  weight sum          1505       746      1751       138       385       712      3233       299       218         5       133
  precision         0.6985    0.6985    0.6985    0.6985    0.6985    0.6985    0.6985    0.6985    0.6985    0.6985    0.6985

1F3(Hz)
  mean           2332.9922 2174.5401 2470.9942 2627.5782 2014.1352 2131.1022  351.5345 2459.9895 2126.7769 2210.5911 2644.2835
  std. dev.      1159.2763 1212.1208   1078.92  842.6607 1344.3758 1290.7244  944.5845 1073.6058 1291.5323  1805.819  816.7753
  weight sum          1505       746      1751       138       385       712      3233       299       218         5       133
  precision         1.0065    1.0065    1.0065    1.0065    1.0065    1.0065    1.0065    1.0065    1.0065    1.0065    1.0065

1F4(Hz)
  mean           2700.5548 2634.0278 2833.7774 3085.9541 2430.7791 2461.9478  424.4618 2871.1033 2454.4832  1790.029 3097.9087
  std. dev.      1332.9429 1448.9271 1220.3955   967.976 1598.0911 1484.5906 1137.6364 1226.0673  1445.419 1461.5645  925.0033
  weight sum          1505       746      1751       138       385       712      3233       299       218         5       133
  precision         1.0301    1.0301    1.0301    1.0301    1.0301    1.0301    1.0301    1.0301    1.0301    1.0301    1.0301

2Int(dB)
  mean             -7.2233   -9.6448  -13.7269  -10.0976  -12.8075  -11.6424  -49.2213  -10.9675  -10.4698  -24.1283    -7.149
  std. dev.        12.4964   11.2836   12.6639   11.5475   10.4841   13.0523   15.8212   11.7268   12.0458    4.1431     6.509
  weight sum          1505       746      1751       138       385       712      3233       299       218         5       133
  precision         0.1008    0.1008    0.1008    0.1008    0.1008    0.1008    0.1008    0.1008    0.1008    0.1008    0.1008

2Pitch(Hz)
  mean            201.6038  168.4113  153.7893  174.9356  145.3172  164.5924   15.8317  181.5295   199.501   67.2315  198.0853
  std. dev.       116.7827   97.9387  105.5336   105.317    93.238  113.2428     54.56  103.9694   120.686   82.3435   81.2489
  weight sum          1505       746      1751       138       385       712      3233       299       218         5       133
  precision         0.2034    0.2034    0.2034    0.2034    0.2034    0.2034    0.2034    0.2034    0.2034    0.2034    0.2034

2RawPitch
  mean            192.0371  160.8464  140.5365  150.5271  134.7046  155.7527   12.9523  174.3366  187.6775         0  190.1691
  std. dev.       119.1688  102.2888  109.8955  108.0909   92.9403  117.0548   48.8078  107.6802   120.986    0.0348   89.6323
  weight sum          1505       746      1751       138       385       712      3233       299       218         5       133
  precision         0.2088    0.2088    0.2088    0.2088    0.2088    0.2088    0.2088    0.2088    0.2088    0.2088    0.2088

2SmPitch
  mean            199.8945  165.6273  149.0924  164.0951  143.4528  162.0426   14.3648  180.2617  195.9784   34.7897  197.5786
  std. dev.       117.6128  100.1622  107.6426  102.8422   93.1972  114.4287   51.0357  105.3606  122.4742   69.5795   82.3924
  weight sum          1505       746      1751       138       385       712      3233       299       218         5       133
  precision         0.2051    0.2051    0.2051    0.2051    0.2051    0.2051    0.2051    0.2051    0.2051    0.2051    0.2051

2Melogram(st)
  mean             48.2092   45.4706   41.1088   47.4754   41.3427   43.3948    4.6675   47.4768   44.4291   31.3679   52.3324
  std. dev.        20.5746   20.8835   23.8889   18.4939   22.4649   23.1016   15.2484   19.8068    24.856   25.6122    12.276
  weight sum          1505       746      1751       138       385       712      3233       299       218         5       133
  precision         0.0353    0.0353    0.0353    0.0353    0.0353    0.0353    0.0353    0.0353    0.0353    0.0353    0.0353

2ZCross
  mean               6.115    4.2003    3.1996    3.7167    3.1471    3.4785    0.2555    3.0435    3.4504    0.2545    3.7321
  std. dev.         5.0271    3.4667    3.4705    3.2864    4.1866    3.6204    1.3164    2.9836    3.5108    0.5091    2.2138
  weight sum          1505       746      1751       138       385       712      3233       299       218         5       133
  precision         1.2727    1.2727    1.2727    1.2727    1.2727    1.2727    1.2727    1.2727    1.2727    1.2727    1.2727

2F1(Hz)
  mean            581.7148  408.4223   451.723  522.7777  325.1292  411.5688   58.3154  443.7803   424.862  280.3215  515.0288
  std. dev.       326.0741  216.3841  252.7133  201.8334  214.6223  260.2244  178.1822  220.7378  361.7064  343.6322  134.1908
  weight sum          1505       746      1751       138       385       712      3233       299       218         5       133
  precision         0.5127    0.5127    0.5127    0.5127    0.5127    0.5127    0.5127    0.5127    0.5127    0.5127    0.5127

2F2(Hz)
  mean           1332.7377 1477.3725 1383.4476 1525.1731 1473.7397 1085.7909  173.8413 1499.8925  924.4511  472.0442 1505.9489
  std. dev.       619.6166  754.7082  723.4465  570.7008  898.7946  674.5578  526.5742  665.9892  644.9976  578.1561  311.6051
  weight sum          1505       746      1751       138       385       712      3233       299       218         5       133
  precision         0.6985    0.6985    0.6985    0.6985    0.6985    0.6985    0.6985    0.6985    0.6985    0.6985    0.6985

2F3(Hz)
  mean           2424.4511 2285.1335 2354.9132 2573.9367 2142.5805 2224.7554  296.3217 2515.1665 2177.1877 1491.5753 2862.2543
  std. dev.      1080.1353 1133.2536  1179.468  901.2684 1286.7452 1238.7361  875.1932 1019.8055 1282.0773 1827.0139  398.7846
  weight sum          1505       746      1751       138       385       712      3233       299       218         5       133
  precision         1.0065    1.0065    1.0065    1.0065    1.0065    1.0065    1.0065    1.0065    1.0065    1.0065    1.0065

2F4(Hz)
  mean           2808.6736 2766.3747 2698.5673 3029.4131 2588.6317 2567.4184  360.3981 2942.8455 2475.9112 1195.4814 3332.5443
  std. dev.      1242.9542 1350.6568 1337.1008 1028.6692 1525.8539 1421.7151 1061.7969 1160.3327 1409.4738 1464.1601  408.6818
  weight sum          1505       746      1751       138       385       712      3233       299       218         5       133
  precision         1.0301    1.0301    1.0301    1.0301    1.0301    1.0301    1.0301    1.0301    1.0301    1.0301    1.0301

3Int(dB)
  mean              -5.641   -7.2226  -15.4984  -12.3449  -10.9862   -9.7163  -50.1395   -12.305   -8.0296   -25.761    -7.265
  std. dev.        10.8727    9.4909   11.9491   10.3558    9.3463   12.1824   14.5069   11.5328    9.9998    2.8196    6.0708
  weight sum          1505       746      1751       138       385       712      3233       299       218         5       133
  precision         0.1008    0.1008    0.1008    0.1008    0.1008    0.1008    0.1008    0.1008    0.1008    0.1008    0.1008

3Pitch(Hz)
  mean            211.1547   183.146  136.4752  161.6772  163.4233  177.1418    12.238  174.4724  221.0527   33.4327  198.6388
  std. dev.       109.0219   90.4096  110.1606  107.4647   84.1925  106.6856   48.3823  105.6613   98.5341   66.8654   83.6049
  weight sum          1505       746      1751       138       385       712      3233       299       218         5       133
  precision         0.2034    0.2034    0.2034    0.2034    0.2034    0.2034    0.2034    0.2034    0.2034    0.2034    0.2034

3RawPitch
  mean            200.9312  176.8718  122.3359  134.4189  153.6209  168.1349   10.0589  163.2284  210.2912         0  193.1658
  std. dev.       113.0094   96.4397  112.0284  106.6169   86.0466   111.735   42.5778  110.9161  103.8231    0.0348   90.7206
  weight sum          1505       746      1751       138       385       712      3233       299       218         5       133
  precision         0.2088    0.2088    0.2088    0.2088    0.2088    0.2088    0.2088    0.2088    0.2088    0.2088    0.2088

3SmPitch
  mean            209.2749  181.1568  131.5679   150.738  161.2553  174.8902      10.7  171.9345  219.9482         0   198.416
  std. dev.       110.3154   92.1927  111.5204  103.6325   84.9278  108.2193   43.9127  107.9136    99.473    0.0342   84.1478
  weight sum          1505       746      1751       138       385       712      3233       299       218         5       133
  precision         0.2051    0.2051    0.2051    0.2051    0.2051    0.2051    0.2051    0.2051    0.2051    0.2051    0.2051

3Melogram(st)
  mean             50.6224   49.1776   36.6719   45.2162   45.9084   46.5218    3.7068   45.7201   50.6374   20.8602   52.5572
  std. dev.        17.7748   17.1261   25.8767   20.2304   18.9795   20.6378    13.744    21.266    19.473   25.5485   11.6326
  weight sum          1505       746      1751       138       385       712      3233       299       218         5       133
  precision         0.0353    0.0353    0.0353    0.0353    0.0353    0.0353    0.0353    0.0353    0.0353    0.0353    0.0353

3ZCross
  mean              6.4973    4.6951    2.9292    2.7115    3.0678    3.8039    0.1472    2.4688    3.4387         0    3.6746
  std. dev.         4.7305    3.4013    3.9332    2.5858     3.289    3.4966    0.8717    2.5057    3.0618    0.2121     2.155
  weight sum          1505       746      1751       138       385       712      3233       299       218         5       133
  precision         1.2727    1.2727    1.2727    1.2727    1.2727    1.2727    1.2727    1.2727    1.2727    1.2727    1.2727

3F1(Hz)
  mean            632.5964  435.3843  402.9825  487.8092  340.7633  450.1528   45.7977  423.0991  462.9492  144.7747  507.6396
  std. dev.       296.8673  182.9634  270.5934    232.81  174.3406  244.2194  157.8643  227.7907  332.7223  289.5494  140.7686
  weight sum          1505       746      1751       138       385       712      3233       299       218         5       133
  precision         0.5127    0.5127    0.5127    0.5127    0.5127    0.5127    0.5127    0.5127    0.5127    0.5127    0.5127

3F2(Hz)
  mean           1400.8405 1633.7862  1258.076 1414.8511 1740.6907 1123.9385  138.8639 1449.4723  1000.033  234.4156 1494.6889
  std. dev.       532.4998  662.2232  797.3903  640.3559  805.0767  603.6465  474.1163  686.1573   546.594  468.8312  292.6037
  weight sum          1505       746      1751       138       385       712      3233       299       218         5       133
  precision         0.6985    0.6985    0.6985    0.6985    0.6985    0.6985    0.6985    0.6985    0.6985    0.6985    0.6985

3F3(Hz)
  mean           2566.7052 2466.1143 2131.4955 2406.0546 2427.5868 2381.9061  236.9897 2437.2044  2460.271  754.6445 2867.9147
  std. dev.       934.1062  983.2863 1312.6473 1054.0979 1119.2236 1133.1835  790.4255 1070.9844 1089.2339  1509.289  389.3036
  weight sum          1505       746      1751       138       385       712      3233       299       218         5       133
  precision         1.0065    1.0065    1.0065    1.0065    1.0065    1.0065    1.0065    1.0065    1.0065    1.0065    1.0065

3F4(Hz)
  mean           2970.9678  2968.206 2448.7805 2858.1926 2906.6724 2739.0875  290.2613  2883.526  2778.374  598.0497 3355.4843
  std. dev.      1072.0689 1156.9806 1496.5293 1217.3342 1305.1093 1292.2218  965.8901 1232.2639 1167.5154 1196.0995   399.068
  weight sum          1505       746      1751       138       385       712      3233       299       218         5       133
  precision         1.0301    1.0301    1.0301    1.0301    1.0301    1.0301    1.0301    1.0301    1.0301    1.0301    1.0301

4Int(dB)
  mean             -4.7838   -5.6493  -16.3879  -13.9655   -9.5022   -8.6644  -50.8619  -12.4527   -5.9413  -28.5024   -7.9076
  std. dev.          9.917    8.2505   10.4461    8.9902    8.6317   12.1183   13.3712   10.4872    8.0011    3.0818    6.2206
  weight sum          1505       746      1751       138       385       712      3233       299       218         5       133
  precision         0.1008    0.1008    0.1008    0.1008    0.1008    0.1008    0.1008    0.1008    0.1008    0.1008    0.1008

4Pitch(Hz)
  mean            215.4717  192.4898  131.5587  152.2312  174.3019  180.2959    8.6441  173.7208  232.3523         0  197.3055
  std. dev.       105.3209    85.636  110.6314   105.769   75.0715  103.4062   41.2323  104.0157   82.3117    0.0339   85.1182
  weight sum          1505       746      1751       138       385       712      3233       299       218         5       133
  precision         0.2034    0.2034    0.2034    0.2034    0.2034    0.2034    0.2034    0.2034    0.2034    0.2034    0.2034

4RawPitch
  mean            205.1279  188.8553  114.8527  123.0765  166.4766  174.0908    6.9113  156.9007  222.5693         0  192.4154
  std. dev.       110.0217   89.4789  111.3876  101.8456   78.7839  108.0935   35.5147  112.4322   89.8429    0.0348   92.3885
  weight sum          1505       746      1751       138       385       712      3233       299       218         5       133
  precision         0.2088    0.2088    0.2088    0.2088    0.2088    0.2088    0.2088    0.2088    0.2088    0.2088    0.2088

4SmPitch
  mean            213.4208  191.6241  125.4343  141.6009  171.8543   178.962    7.4208  169.8194  232.3227         0  196.7627
  std. dev.       106.8674   86.4181   112.086  100.3995   76.5988  104.3249   36.4842  107.6346   82.2366    0.0342   86.2961
  weight sum          1505       746      1751       138       385       712      3233       299       218         5       133
  precision         0.2051    0.2051    0.2051    0.2051    0.2051    0.2051    0.2051    0.2051    0.2051    0.2051    0.2051

4Melogram(st)
  mean             52.0827   51.3162   34.7221   42.7509   49.4307   47.7311    2.7489   45.7719   54.9086   10.4257   52.3538
  std. dev.        15.5643   13.9659   26.6004   21.9334   14.5646   19.2227   12.0084   21.2519   12.8002   20.8513   11.7579
  weight sum          1505       746      1751       138       385       712      3233       299       218         5       133
  precision         0.0352    0.0352    0.0352    0.0352    0.0352    0.0352    0.0352    0.0352    0.0352    0.0352    0.0352

4ZCross
  mean              6.7146    4.8248    2.7904    2.0843    3.1868    3.9665    0.0854    2.2092     3.573         0    3.6172
  std. dev.          4.535    3.1533    4.2824    2.0439    2.9527    3.0096    0.6293     2.095    2.8222    0.2121    2.1729
  weight sum          1505       746      1751       138       385       712      3233       299       218         5       133
  precision         1.2727    1.2727    1.2727    1.2727    1.2727    1.2727    1.2727    1.2727    1.2727    1.2727    1.2727

4F1(Hz)
  mean            680.6071  468.1216  353.3559  433.0067  362.9833  487.9887   33.6626  402.1692  498.1345         0  513.8878
  std. dev.       260.5161  135.4424  274.4304  254.6457  139.6622  219.6408  135.0393  226.7452  299.1257    0.0854  150.3522
  weight sum          1505       746      1751       138       385       712      3233       299       218         5       133
  precision         0.5127    0.5127    0.5127    0.5127    0.5127    0.5127    0.5127    0.5127    0.5127    0.5127    0.5127

4F2(Hz)
  mean           1463.4676 1802.3085 1136.6073 1302.5905 1971.4305 1165.7924  104.6838 1402.7174 1080.7158         0 1476.9797
  std. dev.       432.0523  487.8366  837.1102  701.6256  644.7659  525.3227  416.0122  694.7863  431.8771    0.1164  305.2219
  weight sum          1505       746      1751       138       385       712      3233       299       218         5       133
  precision         0.6985    0.6985    0.6985    0.6985    0.6985    0.6985    0.6985    0.6985    0.6985    0.6985    0.6985

4F3(Hz)
  mean           2691.8093 2662.4498 1930.6527 2220.2677 2672.9489 2534.4259  178.5819 2362.4099 2714.6841         0 2860.5062
  std. dev.       762.9907   729.876 1393.9242 1179.8092  890.7818  989.9708  694.2706 1105.7815  768.9985    0.1677  458.2327
  weight sum          1505       746      1751       138       385       712      3233       299       218         5       133
  precision         1.0065    1.0065    1.0065    1.0065    1.0065    1.0065    1.0065    1.0065    1.0065    1.0065    1.0065

4F4(Hz)
  mean            3114.979 3199.5596 2217.4465 2671.4019 3176.0491 2913.9175  220.0468 2816.8308  3074.217         0 3346.2293
  std. dev.       871.0219  841.1377 1591.9677 1380.3083 1017.7226 1121.3472  853.3303 1281.9538  772.1011    0.1717  488.4351
  weight sum          1505       746      1751       138       385       712      3233       299       218         5       133
  precision         1.0301    1.0301    1.0301    1.0301    1.0301    1.0301    1.0301    1.0301    1.0301    1.0301    1.0301





=== Stratified cross-validation ===

Correctly Classified Instances        4016               44.011  %
Incorrectly Classified Instances      5109               55.989  %
Kappa statistic                          0.3271
K&B Relative Info Score             268414.8709 %
K&B Information Score                 7169.9045 bits      0.7857 bits/instance
Class complexity | order 0           24346.2677 bits      2.6681 bits/instance
Class complexity | scheme           218420.6964 bits     23.9365 bits/instance
Complexity improvement     (Sf)    -194074.4286 bits    -21.2684 bits/instance
Mean absolute error                      0.1015
Root mean squared error                  0.3075
Relative absolute error                 70.2983 %
Root relative squared error            114.4557 %
Coverage of cases (0.95 level)          48.9973 %
Mean rel. region size (0.95 level)      11.7499 %
Total Number of Instances             9125     


=== Detailed Accuracy By Class ===

                 TP Rate  FP Rate  Precision  Recall   F-Measure  MCC      ROC Area  PRC Area  Class
                 0,290    0,052    0,525      0,290    0,373      0,307    0,810     0,473     A
                 0,063    0,019    0,228      0,063    0,099      0,081    0,791     0,204     E
                 0,233    0,055    0,503      0,233    0,319      0,247    0,748     0,409     CGJLNQSRT
                 0,065    0,027    0,036      0,065    0,047      0,029    0,737     0,036     FV
                 0,262    0,041    0,221      0,262    0,240      0,204    0,830     0,216     I
                 0,034    0,018    0,137      0,034    0,054      0,031    0,684     0,135     O
                 0,888    0,058    0,893      0,888    0,890      0,830    0,947     0,889     0
                 0,000    0,003    0,000      0,000    0,000      -0,010   0,723     0,060     BMP
                 0,092    0,013    0,144      0,092    0,112      0,098    0,830     0,113     U
                 0,600    0,009    0,035      0,600    0,067      0,144    0,726     0,025     DZ
                 0,737    0,315    0,033      0,737    0,064      0,108    0,806     0,050     D
Weighted Avg.    0,440    0,050    0,543      0,440    0,465      0,414    0,832     0,514     


=== Confusion Matrix ===

    a    b    c    d    e    f    g    h    i    j    k   <-- classified as
  436   50   63   33   68   77   51    1   51    4  671 |    a = A
   83   47   34   11   95   30   20    1   12    0  413 |    b = E
  137   31  408  110   50   19  172   12   13   35  764 |    c = CGJLNQSRT
   13    3   22    9    3    1    7    0    0    1   79 |    d = FV
   25   34   38    7  101    7   10    6    1    2  154 |    e = I
   59   19   46   13   64   24   63    0   31    6  387 |    f = O
    8    5  142   46   13    2 2870    3    2   32  110 |    g = 0
   23    7   38   13   28    2   16    0    6    1  165 |    h = BMP
   36    2   13    3   31   13    4    6   20    1   89 |    i = U
    0    0    1    0    0    0    1    0    0    3    0 |    j = DZ
   11    8    6    3    4    0    0    0    3    0   98 |    k = D

=== Percent Confusion Matrix ===
a	b	c	d	e	f	g	h	i	j	k	
28.97	3.32	4.19	2.19	4.52	5.12	3.39	0.07	3.39	0.27	44.58	 a = A
11.13	6.3	4.56	1.47	12.73	4.02	2.68	0.13	1.61	0.0	55.36	 b = E
7.82	1.77	23.3	6.28	2.86	1.09	9.82	0.69	0.74	2.0	43.63	 c = CGJLNQSRT
9.42	2.17	15.94	6.52	2.17	0.72	5.07	0.0	0.0	0.72	57.25	 d = FV
6.49	8.83	9.87	1.82	26.23	1.82	2.6	1.56	0.26	0.52	40.0	 e = I
8.29	2.67	6.46	1.83	8.99	3.37	8.85	0.0	4.35	0.84	54.35	 f = O
0.25	0.15	4.39	1.42	0.4	0.06	88.77	0.09	0.06	0.99	3.4	 g = 0
7.69	2.34	12.71	4.35	9.36	0.67	5.35	0.0	2.01	0.33	55.18	 h = BMP
16.51	0.92	5.96	1.38	14.22	5.96	1.83	2.75	9.17	0.46	40.83	 i = U
0.0	0.0	20.0	0.0	0.0	0.0	20.0	0.0	0.0	60.0	0.0	 j = DZ
8.27	6.02	4.51	2.26	3.01	0.0	0.0	0.0	2.26	0.0	73.68	 k = D
