Timestamp:2014-12-07-11:08:11
Inventario:I3
Intervalo:3ms
Ngramas:3
Clasificador:NaiveBayes
Relation Name:  I3-3ms-3gramas
Num Instances:  61133
Num Attributes: 31

     Name                      Type  Nom  Int Real     Missing      Unique  Dist
   1 0Int(dB)                   Num   0%  10%  90%     0 /  0%     2 /  0%   776 
   2 0Pitch(Hz)                 Num   0%  52%  48%     0 /  0%   559 /  1%  3828 
   3 0RawPitch                  Num   0%  55%  45%     0 /  0%   613 /  1%  3808 
   4 0SmPitch                   Num   0%  53%  47%     0 /  0%   575 /  1%  3802 
   5 0Melogram(st)              Num   0%  49%  51%     0 /  0%   269 /  0%  3285 
   6 0ZCross                    Num   0% 100%   0%     0 /  0%     3 /  0%    50 
   7 0F1(Hz)                    Num   0%  52%  48%     0 /  0%  1075 /  2%  4783 
   8 0F2(Hz)                    Num   0%  52%  48%     0 /  0%  2270 /  4%  6724 
   9 0F3(Hz)                    Num   0%  52%  48%     0 /  0%  1945 /  3%  6241 
  10 0F4(Hz)                    Num   0%  52%  48%     0 /  0%  1922 /  3%  6122 
  11 1Int(dB)                   Num   0%  10%  90%     0 /  0%     2 /  0%   776 
  12 1Pitch(Hz)                 Num   0%  52%  48%     0 /  0%   559 /  1%  3828 
  13 1RawPitch                  Num   0%  55%  45%     0 /  0%   613 /  1%  3808 
  14 1SmPitch                   Num   0%  53%  47%     0 /  0%   575 /  1%  3802 
  15 1Melogram(st)              Num   0%  49%  51%     0 /  0%   269 /  0%  3285 
  16 1ZCross                    Num   0% 100%   0%     0 /  0%     3 /  0%    50 
  17 1F1(Hz)                    Num   0%  52%  48%     0 /  0%  1075 /  2%  4783 
  18 1F2(Hz)                    Num   0%  52%  48%     0 /  0%  2270 /  4%  6724 
  19 1F3(Hz)                    Num   0%  52%  48%     0 /  0%  1945 /  3%  6241 
  20 1F4(Hz)                    Num   0%  52%  48%     0 /  0%  1922 /  3%  6122 
  21 2Int(dB)                   Num   0%  10%  90%     0 /  0%     3 /  0%   777 
  22 2Pitch(Hz)                 Num   0%  52%  48%     0 /  0%   559 /  1%  3828 
  23 2RawPitch                  Num   0%  55%  45%     0 /  0%   613 /  1%  3808 
  24 2SmPitch                   Num   0%  53%  47%     0 /  0%   575 /  1%  3802 
  25 2Melogram(st)              Num   0%  49%  51%     0 /  0%   269 /  0%  3285 
  26 2ZCross                    Num   0% 100%   0%     0 /  0%     3 /  0%    50 
  27 2F1(Hz)                    Num   0%  52%  48%     0 /  0%  1075 /  2%  4783 
  28 2F2(Hz)                    Num   0%  52%  48%     0 /  0%  2270 /  4%  6724 
  29 2F3(Hz)                    Num   0%  52%  48%     0 /  0%  1945 /  3%  6241 
  30 2F4(Hz)                    Num   0%  52%  48%     0 /  0%  1922 /  3%  6122 
  31 class                      Nom 100%   0%   0%     0 /  0%     0 /  0%    11 


Naive Bayes Classifier

                    Class
Attribute               A         E CGJLNQSRT        FV         I         O         0       BMP         U        DZ         D
                   (0.16)    (0.08)    (0.18)    (0.01)    (0.04)    (0.07)    (0.39)    (0.03)    (0.02)       (0)    (0.01)
==============================================================================================================================
0Int(dB)
  mean              -4.275   -5.3093  -16.7074   -14.929   -8.9731    -8.186  -48.3096  -12.8391   -5.5524  -27.1225   -7.9123
  std. dev.         9.6881    8.2373    10.603    8.9669    8.4929   12.1008   16.2241   10.9656    8.2298    2.1763    6.1046
  weight sum          9585      4621     11256       864      2382      4463     23724      1948      1386        23       881
  precision         0.1044    0.1044    0.1044    0.1044    0.1044    0.1044    0.1044    0.1044    0.1044    0.1044    0.1044

0Pitch(Hz)
  mean            215.2871  188.9058  115.6717  134.5242  172.0827  179.2936   16.8261  158.9902  228.1408         0  202.1732
  std. dev.       108.2446   88.6428  112.8573  107.5224   77.7161  105.6064   56.5383  111.5792   87.2319    0.0217   84.1187
  weight sum          9585      4621     11256       864      2382      4463     23724      1948      1386        23       881
  precision         0.1303    0.1303    0.1303    0.1303    0.1303    0.1303    0.1303    0.1303    0.1303    0.1303    0.1303

0RawPitch
  mean            204.9344  184.5166   97.4718  108.9501   164.127  173.0126    13.799  146.3863  219.2103         0  196.0755
  std. dev.       114.2089   95.0659  111.9292  104.2181    83.993  112.4306   50.8222  116.5641   94.8961    0.0218    93.992
  weight sum          9585      4621     11256       864      2382      4463     23724      1948      1386        23       881
  precision          0.131     0.131     0.131     0.131     0.131     0.131     0.131     0.131     0.131     0.131     0.131

0SmPitch
  mean              213.21  187.1933  109.1153  124.4425  169.4288  177.1572    15.183  154.8208  227.7542         0   201.397
  std. dev.       109.9155   90.0322  112.9484  105.0137   80.1407  107.7873    52.654  113.9964   87.2767    0.0219   85.6399
  weight sum          9585      4621     11256       864      2382      4463     23724      1948      1386        23       881
  precision         0.1312    0.1312    0.1312    0.1312    0.1312    0.1312    0.1312    0.1312    0.1312    0.1312    0.1312

0Melogram(st)
  mean             51.2709   50.2427     30.34   37.5734   48.1463   46.6963     4.955   41.2774   53.5545         0   52.9912
  std. dev.        17.0469   15.7114   27.3686   24.7697    16.741    20.402   15.6686   24.4581    15.256    0.0042     11.36
  weight sum          9585      4621     11256       864      2382      4463     23724      1948      1386        23       881
  precision         0.0252    0.0252    0.0252    0.0252    0.0252    0.0252    0.0252    0.0252    0.0252    0.0252    0.0252

0ZCross
  mean              7.0076    4.9486    2.9169    1.9576    3.5738    4.0411    0.2433    2.3403    3.7945         0    3.6786
  std. dev.         4.5938    3.2071    4.8518    2.0438    3.2163    2.9298    1.0804    2.1047    2.8295    0.1939    2.1134
  weight sum          9585      4621     11256       864      2382      4463     23724      1948      1386        23       881
  precision         1.1633    1.1633    1.1633    1.1633    1.1633    1.1633    1.1633    1.1633    1.1633    1.1633    1.1633

0F1(Hz)
  mean            673.1337  458.5411  317.4455  395.5357  356.2706  479.3315   54.3872  373.5242  491.2079         0  515.5991
  std. dev.       276.5723  152.8966  280.1108  277.2043   151.878  229.0643  167.8352  238.3426  314.7115    0.0607  152.8143
  weight sum          9585      4621     11256       864      2382      4463     23724      1948      1386        23       881
  precision         0.3642    0.3642    0.3642    0.3642    0.3642    0.3642    0.3642    0.3642    0.3642    0.3642    0.3642

0F2(Hz)
  mean           1434.8492 1759.9732 1025.2119 1189.2807 1927.6297  1139.398  169.8219 1314.2158 1035.0423         0 1483.1122
  std. dev.       470.4865  557.1365  862.5901  769.1361  710.1468  546.4539  518.3697  754.2105  450.7523    0.0738  317.3199
  weight sum          9585      4621     11256       864      2382      4463     23724      1948      1386        23       881
  precision         0.4431    0.4431    0.4431    0.4431    0.4431    0.4431    0.4431    0.4431    0.4431    0.4431    0.4431

0F3(Hz)
  mean           2637.8989 2590.6505 1744.6737 2031.3736 2603.7866 2481.3348  290.0514 2210.1004 2624.5033         0 2867.7838
  std. dev.       837.7663   826.473 1444.4359 1301.0849   977.692 1040.3144  869.7551 1211.2692  861.9955      0.11  489.8996
  weight sum          9585      4621     11256       864      2382      4463     23724      1948      1386        23       881
  precision         0.6602    0.6602    0.6602    0.6602    0.6602    0.6602    0.6602    0.6602    0.6602    0.6602    0.6602

0F4(Hz)
  mean           3061.8157 3124.7953 1996.7914 2420.8547 3100.6951 2858.4583  348.5104 2643.1324 3006.9754         0 3327.0352
  std. dev.       958.7356  964.1286 1643.8216 1516.4414 1123.6536 1181.9837  1042.791 1417.9475  902.9144    0.1129  534.3496
  weight sum          9585      4621     11256       864      2382      4463     23724      1948      1386        23       881
  precision         0.6775    0.6775    0.6775    0.6775    0.6775    0.6775    0.6775    0.6775    0.6775    0.6775    0.6775

1Int(dB)
  mean             -4.2584   -5.2147  -16.6403  -14.9846    -8.825   -8.1561  -48.4234  -12.5947   -5.2953  -27.1089   -7.8485
  std. dev.         9.6363    8.1108   10.4295    8.8593    8.4293   12.1343   16.0582   10.7736    7.8625    2.1562    6.1433
  weight sum          9585      4621     11256       864      2382      4463     23724      1948      1386        23       881
  precision         0.1044    0.1044    0.1044    0.1044    0.1044    0.1044    0.1044    0.1044    0.1044    0.1044    0.1044

1Pitch(Hz)
  mean             215.424  190.0809  115.9907  133.2458  173.0172    179.07   16.2544  159.7556   229.415         0  202.0027
  std. dev.       108.1379   87.8538  113.0136  107.2688   76.7882  105.2101   55.6483  110.8403   85.2349    0.0217   84.4676
  weight sum          9585      4621     11256       864      2382      4463     23724      1948      1386        23       881
  precision         0.1303    0.1303    0.1303    0.1303    0.1303    0.1303    0.1303    0.1303    0.1303    0.1303    0.1303

1RawPitch
  mean             205.191  185.5537   97.2843  108.1776  165.5748  172.9408   13.3299  147.2848  220.5485         0   195.986
  std. dev.       114.0304   94.6689  111.8701  103.4633   83.1744  112.1655   50.0219  115.9925   93.0837    0.0218   94.0584
  weight sum          9585      4621     11256       864      2382      4463     23724      1948      1386        23       881
  precision          0.131     0.131     0.131     0.131     0.131     0.131     0.131     0.131     0.131     0.131     0.131

1SmPitch
  mean            213.3805  188.4788  109.2749  123.2631  170.4827   176.912   14.6603   155.285  229.0404         0  201.3343
  std. dev.        109.759   89.1689  113.0944  104.6396   79.2893  107.4207   51.7904  113.4942   85.2781    0.0219   85.7678
  weight sum          9585      4621     11256       864      2382      4463     23724      1948      1386        23       881
  precision         0.1312    0.1312    0.1312    0.1312    0.1312    0.1312    0.1312    0.1312    0.1312    0.1312    0.1312

1Melogram(st)
  mean             51.3557   50.4808   30.3377   37.3343    48.407    46.671    4.8138   41.4703   54.1306         0   52.9769
  std. dev.        16.9062   15.3557   27.3968   24.8638   16.3656   20.3864   15.4725   24.3086   14.2012    0.0042    11.374
  weight sum          9585      4621     11256       864      2382      4463     23724      1948      1386        23       881
  precision         0.0252    0.0252    0.0252    0.0252    0.0252    0.0252    0.0252    0.0252    0.0252    0.0252    0.0252

1ZCross
  mean              7.0158    4.9388     2.927    1.9347    3.5777    4.0484    0.2298    2.3719    3.8272         0    3.7314
  std. dev.         4.5915    3.1975     4.869    2.0238    3.1538    2.8985    1.0464    2.0915    2.8121    0.1939     2.116
  weight sum          9585      4621     11256       864      2382      4463     23724      1948      1386        23       881
  precision         1.1633    1.1633    1.1633    1.1633    1.1633    1.1633    1.1633    1.1633    1.1633    1.1633    1.1633

1F1(Hz)
  mean            678.6538  462.8688  311.9398  388.2589  360.2165   483.672    52.722  372.4682  496.5514         0  516.4354
  std. dev.       272.3175  146.9719  279.0217  277.0199    146.32  226.1449  165.2486  237.0685  309.2602    0.0607  152.9405
  weight sum          9585      4621     11256       864      2382      4463     23724      1948      1386        23       881
  precision         0.3642    0.3642    0.3642    0.3642    0.3642    0.3642    0.3642    0.3642    0.3642    0.3642    0.3642

1F2(Hz)
  mean           1441.2512 1781.0424 1011.7706 1180.6948 1961.8033 1142.8991   165.045  1312.066 1050.0402         0 1482.7607
  std. dev.       459.1186  532.5896  863.2353  774.0059  680.1225  536.7971  511.9472  750.4882  432.2873    0.0738  319.5763
  weight sum          9585      4621     11256       864      2382      4463     23724      1948      1386        23       881
  precision         0.4431    0.4431    0.4431    0.4431    0.4431    0.4431    0.4431    0.4431    0.4431    0.4431    0.4431

1F3(Hz)
  mean           2651.2499 2615.4812  1722.968 2012.5832 2642.4014 2498.5172  281.5731  2207.248 2665.1247         0 2867.2974
  std. dev.       819.3519  792.6591 1447.4972  1307.812   937.499 1024.1918  858.2629 1206.6787  803.6971      0.11  499.4354
  weight sum          9585      4621     11256       864      2382      4463     23724      1948      1386        23       881
  precision         0.6602    0.6602    0.6602    0.6602    0.6602    0.6602    0.6602    0.6602    0.6602    0.6602    0.6602

1F4(Hz)
  mean           3075.9587 3152.5297 1973.3713 2403.3745 3143.1187 2876.7808  338.5791 2646.3634 3052.6473         0  3324.975
  std. dev.       936.7556  921.2174 1648.9047 1526.7311 1073.3319 1161.8705 1029.6891 1415.4829  827.1813    0.1129  545.8289
  weight sum          9585      4621     11256       864      2382      4463     23724      1948      1386        23       881
  precision         0.6775    0.6775    0.6775    0.6775    0.6775    0.6775    0.6775    0.6775    0.6775    0.6775    0.6775

2Int(dB)
  mean             -4.2995   -5.2154  -16.4957  -14.9663    -8.745    -8.205  -48.5187  -12.2908   -5.0964   -27.151   -7.7207
  std. dev.         9.6425     8.061   10.3102    8.8198    8.4284   12.2015   15.9245   10.5869    7.5403    2.2431    6.1865
  weight sum          9585      4621     11256       864      2382      4463     23724      1948      1386        23       881
  precision         0.1043    0.1043    0.1043    0.1043    0.1043    0.1043    0.1043    0.1043    0.1043    0.1043    0.1043

2Pitch(Hz)
  mean            215.2171  190.6854  116.9511  132.7243  173.6379  178.3171   15.7169  161.0025   230.256         0  201.8505
  std. dev.       108.2936   87.4198  113.2594  107.1636   76.0641  105.1185   54.8012  109.8138   83.5916    0.0217   84.7618
  weight sum          9585      4621     11256       864      2382      4463     23724      1948      1386        23       881
  precision         0.1303    0.1303    0.1303    0.1303    0.1303    0.1303    0.1303    0.1303    0.1303    0.1303    0.1303

2RawPitch
  mean             205.011  186.0468   98.0304  107.6938  166.4491  172.3446   12.8471  148.5952   221.377         0  195.7565
  std. dev.       114.2273   94.2836  112.1092  102.8608   82.7406   111.886   49.2585  115.2511   91.8259    0.0218    93.879
  weight sum          9585      4621     11256       864      2382      4463     23724      1948      1386        23       881
  precision          0.131     0.131     0.131     0.131     0.131     0.131     0.131     0.131     0.131     0.131     0.131

2SmPitch
  mean             213.279  189.2421  110.0284  123.0119  171.0176  176.2127   14.1437  156.3345   229.966         0  201.2862
  std. dev.       109.7994   88.6477  113.3485  104.4081   78.8205  107.2818   50.9153  112.6809   83.6261    0.0219   85.8449
  weight sum          9585      4621     11256       864      2382      4463     23724      1948      1386        23       881
  precision         0.1312    0.1312    0.1312    0.1312    0.1312    0.1312    0.1312    0.1312    0.1312    0.1312    0.1312

2Melogram(st)
  mean             51.3572   50.6147   30.4901   37.2513   48.6212   46.5702    4.6712   41.7583   54.4863         0   52.9664
  std. dev.        16.8758   15.1287   27.4186    24.928   16.0378    20.439   15.2685   24.1126   13.4335    0.0042   11.3858
  weight sum          9585      4621     11256       864      2382      4463     23724      1948      1386        23       881
  precision         0.0252    0.0252    0.0252    0.0252    0.0252    0.0252    0.0252    0.0252    0.0252    0.0252    0.0252

2ZCross
  mean              6.9994    4.9156    2.9472    1.9401    3.5967    4.0424    0.2221    2.4227    3.8515         0    3.8027
  std. dev.         4.6018    3.2034     4.867    2.0364    3.1513    2.9091    1.0405    2.0849    2.7932    0.1939    2.1182
  weight sum          9585      4621     11256       864      2382      4463     23724      1948      1386        23       881
  precision         1.1633    1.1633    1.1633    1.1633    1.1633    1.1633    1.1633    1.1633    1.1633    1.1633    1.1633

2F1(Hz)
  mean             683.313  466.9426  307.8306  381.3156  363.5983  486.8876   50.9748  372.4935  501.4313         0  517.5707
  std. dev.       268.9093  141.0764  277.5772  276.5899  141.2908  224.2029  162.6166  235.5015  304.2361    0.0607   152.918
  weight sum          9585      4621     11256       864      2382      4463     23724      1948      1386        23       881
  precision         0.3642    0.3642    0.3642    0.3642    0.3642    0.3642    0.3642    0.3642    0.3642    0.3642    0.3642

2F2(Hz)
  mean           1445.9618 1800.7234 1003.2724 1172.6362 1991.3969 1143.6165  159.7012 1312.5688 1063.4653         0 1482.7798
  std. dev.       449.7706  507.5736  863.2089  779.2046  651.9928  529.3781  504.4931  745.4148  414.3404    0.0738    322.46
  weight sum          9585      4621     11256       864      2382      4463     23724      1948      1386        23       881
  precision         0.4431    0.4431    0.4431    0.4431    0.4431    0.4431    0.4431    0.4431    0.4431    0.4431    0.4431

2F3(Hz)
  mean           2661.7097  2638.722 1709.2151 1994.0357 2676.1136 2509.8227   272.306 2208.9124  2701.015         0 2866.4836
  std. dev.       804.8708  758.2975 1448.9435 1314.2962  900.3451 1013.4676  845.5117 1199.4463  745.1651      0.11  508.9155
  weight sum          9585      4621     11256       864      2382      4463     23724      1948      1386        23       881
  precision         0.6602    0.6602    0.6602    0.6602    0.6602    0.6602    0.6602    0.6602    0.6602    0.6602    0.6602

2F4(Hz)
  mean           3086.6146  3179.034 1959.3865 2385.6763 3179.5458  2888.156  327.6383 2654.3032 3093.8479         0 3322.1873
  std. dev.       919.3099  877.8457 1652.3781 1536.6667  1026.953 1148.0627 1014.9346 1409.2849  750.1771    0.1129  556.6252
  weight sum          9585      4621     11256       864      2382      4463     23724      1948      1386        23       881
  precision         0.6775    0.6775    0.6775    0.6775    0.6775    0.6775    0.6775    0.6775    0.6775    0.6775    0.6775





=== Stratified cross-validation ===

Correctly Classified Instances       20800               34.0242 %
Incorrectly Classified Instances     40333               65.9758 %
Kappa statistic                          0.2551
K&B Relative Info Score            1464162.3306 %
K&B Information Score                38071.803  bits      0.6228 bits/instance
Class complexity | order 0          158934.5154 bits      2.5998 bits/instance
Class complexity | scheme          3432857.9897 bits     56.1539 bits/instance
Complexity improvement     (Sf)    -3273923.4743 bits    -53.5541 bits/instance
Mean absolute error                      0.1204
Root mean squared error                  0.329 
Relative absolute error                 85.3001 %
Root relative squared error            123.8521 %
Coverage of cases (0.95 level)          42.1442 %
Mean rel. region size (0.95 level)      13.8513 %
Total Number of Instances            61133     


=== Detailed Accuracy By Class ===

                 TP Rate  FP Rate  Precision  Recall   F-Measure  MCC      ROC Area  PRC Area  Class
                 0,424    0,038    0,675      0,424    0,521      0,471    0,858     0,588     A
                 0,369    0,041    0,421      0,369    0,393      0,348    0,849     0,374     E
                 0,149    0,029    0,540      0,149    0,234      0,213    0,635     0,378     CGJLNQSRT
                 0,058    0,023    0,035      0,058    0,044      0,027    0,641     0,027     FV
                 0,336    0,031    0,305      0,336    0,320      0,292    0,855     0,269     I
                 0,009    0,004    0,146      0,009    0,016      0,019    0,737     0,169     O
                 0,475    0,026    0,919      0,475    0,627      0,546    0,858     0,829     0
                 0,008    0,006    0,046      0,008    0,014      0,006    0,668     0,054     BMP
                 0,354    0,010    0,441      0,354    0,393      0,383    0,867     0,355     U
                 1,000    0,234    0,002      1,000    0,003      0,035    0,892     0,002     DZ
                 0,742    0,248    0,042      0,742    0,079      0,135    0,827     0,049     D
Weighted Avg.    0,340    0,031    0,629      0,340    0,422      0,375    0,798     0,545     


=== Confusion Matrix ===

     a     b     c     d     e     f     g     h     i     j     k   <-- classified as
  4067   559   278   214   170    54   106    40    66   395  3636 |     a = A
   404  1705   182    70   251     5    25    46    31   157  1745 |     b = E
   516   436  1677   493   652    95   707   129   104  2683  3764 |     c = CGJLNQSRT
    59    40    64    50    75     3    26     4     5   182   356 |     d = FV
   117   770   136    49   801     0    33    26     3   101   346 |     e = I
   460   278   171   182    37    39    29    29   306   450  2482 |     f = O
    63   143   388   251   324    53 11277    38    38  9993  1156 |     g = 0
   117    78   134    58   243    10    49    16    46   305   892 |     h = BMP
   127    14    58    35    41     8     8    12   491    18   574 |     i = U
     0     0     0     0     0     0     0     0     0    23     0 |     j = DZ
    94    25    15    26    28     0     7     5    23     4   654 |     k = D

=== Percent Confusion Matrix ===
a	b	c	d	e	f	g	h	i	j	k	
42.43	5.83	2.9	2.23	1.77	0.56	1.11	0.42	0.69	4.12	37.93	 a = A
8.74	36.9	3.94	1.51	5.43	0.11	0.54	1.0	0.67	3.4	37.76	 b = E
4.58	3.87	14.9	4.38	5.79	0.84	6.28	1.15	0.92	23.84	33.44	 c = CGJLNQSRT
6.83	4.63	7.41	5.79	8.68	0.35	3.01	0.46	0.58	21.06	41.2	 d = FV
4.91	32.33	5.71	2.06	33.63	0.0	1.39	1.09	0.13	4.24	14.53	 e = I
10.31	6.23	3.83	4.08	0.83	0.87	0.65	0.65	6.86	10.08	55.61	 f = O
0.27	0.6	1.64	1.06	1.37	0.22	47.53	0.16	0.16	42.12	4.87	 g = 0
6.01	4.0	6.88	2.98	12.47	0.51	2.52	0.82	2.36	15.66	45.79	 h = BMP
9.16	1.01	4.18	2.53	2.96	0.58	0.58	0.87	35.43	1.3	41.41	 i = U
0.0	0.0	0.0	0.0	0.0	0.0	0.0	0.0	0.0	100.0	0.0	 j = DZ
10.67	2.84	1.7	2.95	3.18	0.0	0.79	0.57	2.61	0.45	74.23	 k = D
