Timestamp:2014-12-07-11:07:58
Inventario:I3
Intervalo:3ms
Ngramas:2
Clasificador:NaiveBayes
Relation Name:  I3-3ms-2gramas
Num Instances:  61134
Num Attributes: 21

     Name                      Type  Nom  Int Real     Missing      Unique  Dist
   1 0Int(dB)                   Num   0%  10%  90%     0 /  0%     2 /  0%   776 
   2 0Pitch(Hz)                 Num   0%  52%  48%     0 /  0%   559 /  1%  3828 
   3 0RawPitch                  Num   0%  55%  45%     0 /  0%   613 /  1%  3808 
   4 0SmPitch                   Num   0%  53%  47%     0 /  0%   575 /  1%  3802 
   5 0Melogram(st)              Num   0%  49%  51%     0 /  0%   269 /  0%  3285 
   6 0ZCross                    Num   0% 100%   0%     0 /  0%     3 /  0%    50 
   7 0F1(Hz)                    Num   0%  52%  48%     0 /  0%  1075 /  2%  4783 
   8 0F2(Hz)                    Num   0%  52%  48%     0 /  0%  2270 /  4%  6724 
   9 0F3(Hz)                    Num   0%  52%  48%     0 /  0%  1945 /  3%  6241 
  10 0F4(Hz)                    Num   0%  52%  48%     0 /  0%  1922 /  3%  6122 
  11 1Int(dB)                   Num   0%  10%  90%     0 /  0%     3 /  0%   777 
  12 1Pitch(Hz)                 Num   0%  52%  48%     0 /  0%   559 /  1%  3828 
  13 1RawPitch                  Num   0%  55%  45%     0 /  0%   613 /  1%  3808 
  14 1SmPitch                   Num   0%  53%  47%     0 /  0%   575 /  1%  3802 
  15 1Melogram(st)              Num   0%  49%  51%     0 /  0%   269 /  0%  3285 
  16 1ZCross                    Num   0% 100%   0%     0 /  0%     3 /  0%    50 
  17 1F1(Hz)                    Num   0%  52%  48%     0 /  0%  1075 /  2%  4783 
  18 1F2(Hz)                    Num   0%  52%  48%     0 /  0%  2270 /  4%  6724 
  19 1F3(Hz)                    Num   0%  52%  48%     0 /  0%  1945 /  3%  6241 
  20 1F4(Hz)                    Num   0%  52%  48%     0 /  0%  1922 /  3%  6122 
  21 class                      Nom 100%   0%   0%     0 /  0%     0 /  0%    11 


Naive Bayes Classifier

                    Class
Attribute               A         E CGJLNQSRT        FV         I         O         0       BMP         U        DZ         D
                   (0.16)    (0.08)    (0.18)    (0.01)    (0.04)    (0.07)    (0.39)    (0.03)    (0.02)       (0)    (0.01)
==============================================================================================================================
0Int(dB)
  mean             -4.2584   -5.2147  -16.6403  -14.9846    -8.825   -8.1561  -48.4233  -12.5947   -5.2953  -27.1089   -7.8485
  std. dev.         9.6363    8.1108   10.4295    8.8593    8.4293   12.1343   16.0579   10.7736    7.8625    2.1562    6.1433
  weight sum          9585      4621     11256       864      2382      4463     23725      1948      1386        23       881
  precision         0.1044    0.1044    0.1044    0.1044    0.1044    0.1044    0.1044    0.1044    0.1044    0.1044    0.1044

0Pitch(Hz)
  mean             215.424  190.0809  115.9907  133.2458  173.0172    179.07   16.2537  159.7556   229.415         0  202.0027
  std. dev.       108.1379   87.8538  113.0136  107.2688   76.7882  105.2101   55.6472  110.8403   85.2349    0.0217   84.4676
  weight sum          9585      4621     11256       864      2382      4463     23725      1948      1386        23       881
  precision         0.1303    0.1303    0.1303    0.1303    0.1303    0.1303    0.1303    0.1303    0.1303    0.1303    0.1303

0RawPitch
  mean             205.191  185.5537   97.2843  108.1776  165.5748  172.9408   13.3293  147.2848  220.5485         0   195.986
  std. dev.       114.0304   94.6689  111.8701  103.4633   83.1744  112.1655   50.0209  115.9925   93.0837    0.0218   94.0584
  weight sum          9585      4621     11256       864      2382      4463     23725      1948      1386        23       881
  precision          0.131     0.131     0.131     0.131     0.131     0.131     0.131     0.131     0.131     0.131     0.131

0SmPitch
  mean            213.3805  188.4788  109.2749  123.2631  170.4827   176.912   14.6597   155.285  229.0404         0  201.3343
  std. dev.        109.759   89.1689  113.0944  104.6396   79.2893  107.4207   51.7894  113.4942   85.2781    0.0219   85.7678
  weight sum          9585      4621     11256       864      2382      4463     23725      1948      1386        23       881
  precision         0.1312    0.1312    0.1312    0.1312    0.1312    0.1312    0.1312    0.1312    0.1312    0.1312    0.1312

0Melogram(st)
  mean             51.3557   50.4808   30.3377   37.3343    48.407    46.671    4.8136   41.4703   54.1306         0   52.9769
  std. dev.        16.9062   15.3557   27.3968   24.8638   16.3656   20.3864   15.4722   24.3086   14.2012    0.0042    11.374
  weight sum          9585      4621     11256       864      2382      4463     23725      1948      1386        23       881
  precision         0.0252    0.0252    0.0252    0.0252    0.0252    0.0252    0.0252    0.0252    0.0252    0.0252    0.0252

0ZCross
  mean              7.0158    4.9388     2.927    1.9347    3.5777    4.0484    0.2298    2.3719    3.8272         0    3.7314
  std. dev.         4.5915    3.1975     4.869    2.0238    3.1538    2.8985    1.0464    2.0915    2.8121    0.1939     2.116
  weight sum          9585      4621     11256       864      2382      4463     23725      1948      1386        23       881
  precision         1.1633    1.1633    1.1633    1.1633    1.1633    1.1633    1.1633    1.1633    1.1633    1.1633    1.1633

0F1(Hz)
  mean            678.6538  462.8688  311.9398  388.2589  360.2165   483.672   52.7198  372.4682  496.5514         0  516.4354
  std. dev.       272.3175  146.9719  279.0217  277.0199    146.32  226.1449  165.2455  237.0685  309.2602    0.0607  152.9405
  weight sum          9585      4621     11256       864      2382      4463     23725      1948      1386        23       881
  precision         0.3642    0.3642    0.3642    0.3642    0.3642    0.3642    0.3642    0.3642    0.3642    0.3642    0.3642

0F2(Hz)
  mean           1441.2512 1781.0424 1011.7706 1180.6948 1961.8033 1142.8991  165.0381  1312.066 1050.0402         0 1482.7607
  std. dev.       459.1186  532.5896  863.2353  774.0059  680.1225  536.7971  511.9376  750.4882  432.2873    0.0738  319.5763
  weight sum          9585      4621     11256       864      2382      4463     23725      1948      1386        23       881
  precision         0.4431    0.4431    0.4431    0.4431    0.4431    0.4431    0.4431    0.4431    0.4431    0.4431    0.4431

0F3(Hz)
  mean           2651.2499 2615.4812  1722.968 2012.5832 2642.4014 2498.5172  281.5612  2207.248 2665.1247         0 2867.2974
  std. dev.       819.3519  792.6591 1447.4972  1307.812   937.499 1024.1918  858.2468 1206.6787  803.6971      0.11  499.4354
  weight sum          9585      4621     11256       864      2382      4463     23725      1948      1386        23       881
  precision         0.6602    0.6602    0.6602    0.6602    0.6602    0.6602    0.6602    0.6602    0.6602    0.6602    0.6602

0F4(Hz)
  mean           3075.9587 3152.5297 1973.3713 2403.3745 3143.1187 2876.7808  338.5649 2646.3634 3052.6473         0  3324.975
  std. dev.       936.7556  921.2174 1648.9047 1526.7311 1073.3319 1161.8705 1029.6698 1415.4829  827.1813    0.1129  545.8289
  weight sum          9585      4621     11256       864      2382      4463     23725      1948      1386        23       881
  precision         0.6775    0.6775    0.6775    0.6775    0.6775    0.6775    0.6775    0.6775    0.6775    0.6775    0.6775

1Int(dB)
  mean             -4.2995   -5.2154  -16.4957  -14.9663    -8.745    -8.205  -48.5185  -12.2908   -5.0964   -27.151   -7.7207
  std. dev.         9.6425     8.061   10.3102    8.8198    8.4284   12.2015   15.9242   10.5869    7.5403    2.2431    6.1865
  weight sum          9585      4621     11256       864      2382      4463     23725      1948      1386        23       881
  precision         0.1043    0.1043    0.1043    0.1043    0.1043    0.1043    0.1043    0.1043    0.1043    0.1043    0.1043

1Pitch(Hz)
  mean            215.2171  190.6854  116.9511  132.7243  173.6379  178.3171   15.7163  161.0025   230.256         0  201.8505
  std. dev.       108.2936   87.4198  113.2594  107.1636   76.0641  105.1185   54.8001  109.8138   83.5916    0.0217   84.7618
  weight sum          9585      4621     11256       864      2382      4463     23725      1948      1386        23       881
  precision         0.1303    0.1303    0.1303    0.1303    0.1303    0.1303    0.1303    0.1303    0.1303    0.1303    0.1303

1RawPitch
  mean             205.011  186.0468   98.0304  107.6938  166.4491  172.3446   12.8466  148.5952   221.377         0  195.7565
  std. dev.       114.2273   94.2836  112.1092  102.8608   82.7406   111.886   49.2575  115.2511   91.8259    0.0218    93.879
  weight sum          9585      4621     11256       864      2382      4463     23725      1948      1386        23       881
  precision          0.131     0.131     0.131     0.131     0.131     0.131     0.131     0.131     0.131     0.131     0.131

1SmPitch
  mean             213.279  189.2421  110.0284  123.0119  171.0176  176.2127   14.1431  156.3345   229.966         0  201.2862
  std. dev.       109.7994   88.6477  113.3485  104.4081   78.8205  107.2818   50.9143  112.6809   83.6261    0.0219   85.8449
  weight sum          9585      4621     11256       864      2382      4463     23725      1948      1386        23       881
  precision         0.1312    0.1312    0.1312    0.1312    0.1312    0.1312    0.1312    0.1312    0.1312    0.1312    0.1312

1Melogram(st)
  mean             51.3572   50.6147   30.4901   37.2513   48.6212   46.5702     4.671   41.7583   54.4863         0   52.9664
  std. dev.        16.8758   15.1287   27.4186    24.928   16.0378    20.439   15.2683   24.1126   13.4335    0.0042   11.3858
  weight sum          9585      4621     11256       864      2382      4463     23725      1948      1386        23       881
  precision         0.0252    0.0252    0.0252    0.0252    0.0252    0.0252    0.0252    0.0252    0.0252    0.0252    0.0252

1ZCross
  mean              6.9994    4.9156    2.9472    1.9401    3.5967    4.0424    0.2221    2.4227    3.8515         0    3.8027
  std. dev.         4.6018    3.2034     4.867    2.0364    3.1513    2.9091    1.0405    2.0849    2.7932    0.1939    2.1182
  weight sum          9585      4621     11256       864      2382      4463     23725      1948      1386        23       881
  precision         1.1633    1.1633    1.1633    1.1633    1.1633    1.1633    1.1633    1.1633    1.1633    1.1633    1.1633

1F1(Hz)
  mean             683.313  466.9426  307.8306  381.3156  363.5983  486.8876   50.9727  372.4935  501.4313         0  517.5707
  std. dev.       268.9093  141.0764  277.5772  276.5899  141.2908  224.2029  162.6135  235.5015  304.2361    0.0607   152.918
  weight sum          9585      4621     11256       864      2382      4463     23725      1948      1386        23       881
  precision         0.3642    0.3642    0.3642    0.3642    0.3642    0.3642    0.3642    0.3642    0.3642    0.3642    0.3642

1F2(Hz)
  mean           1445.9618 1800.7234 1003.2724 1172.6362 1991.3969 1143.6165  159.6945 1312.5688 1063.4653         0 1482.7798
  std. dev.       449.7706  507.5736  863.2089  779.2046  651.9928  529.3781  504.4835  745.4148  414.3404    0.0738    322.46
  weight sum          9585      4621     11256       864      2382      4463     23725      1948      1386        23       881
  precision         0.4431    0.4431    0.4431    0.4431    0.4431    0.4431    0.4431    0.4431    0.4431    0.4431    0.4431

1F3(Hz)
  mean           2661.7097  2638.722 1709.2151 1994.0357 2676.1136 2509.8227  272.2945 2208.9124  2701.015         0 2866.4836
  std. dev.       804.8708  758.2975 1448.9435 1314.2962  900.3451 1013.4676  845.4957 1199.4463  745.1651      0.11  508.9155
  weight sum          9585      4621     11256       864      2382      4463     23725      1948      1386        23       881
  precision         0.6602    0.6602    0.6602    0.6602    0.6602    0.6602    0.6602    0.6602    0.6602    0.6602    0.6602

1F4(Hz)
  mean           3086.6146  3179.034 1959.3865 2385.6763 3179.5458  2888.156  327.6245 2654.3032 3093.8479         0 3322.1873
  std. dev.       919.3099  877.8457 1652.3781 1536.6667  1026.953 1148.0627 1014.9155 1409.2849  750.1771    0.1129  556.6252
  weight sum          9585      4621     11256       864      2382      4463     23725      1948      1386        23       881
  precision         0.6775    0.6775    0.6775    0.6775    0.6775    0.6775    0.6775    0.6775    0.6775    0.6775    0.6775





=== Stratified cross-validation ===

Correctly Classified Instances       21837               35.7199 %
Incorrectly Classified Instances     39297               64.2801 %
Kappa statistic                          0.2709
K&B Relative Info Score            1614331.8364 %
K&B Information Score                41976.531  bits      0.6866 bits/instance
Class complexity | order 0          158935.881  bits      2.5998 bits/instance
Class complexity | scheme          2317524.753  bits     37.9089 bits/instance
Complexity improvement     (Sf)    -2158588.872 bits    -35.3091 bits/instance
Mean absolute error                      0.1189
Root mean squared error                  0.3164
Relative absolute error                 84.2059 %
Root relative squared error            119.0946 %
Coverage of cases (0.95 level)          47.1636 %
Mean rel. region size (0.95 level)      17.4938 %
Total Number of Instances            61134     


=== Detailed Accuracy By Class ===

                 TP Rate  FP Rate  Precision  Recall   F-Measure  MCC      ROC Area  PRC Area  Class
                 0,460    0,042    0,671      0,460    0,546      0,491    0,863     0,597     A
                 0,472    0,058    0,401      0,472    0,433      0,385    0,854     0,388     E
                 0,168    0,034    0,526      0,168    0,254      0,220    0,629     0,377     CGJLNQSRT
                 0,031    0,010    0,043      0,031    0,036      0,025    0,635     0,027     FV
                 0,322    0,033    0,281      0,322    0,300      0,271    0,854     0,274     I
                 0,022    0,006    0,221      0,022    0,040      0,048    0,744     0,176     O
                 0,477    0,025    0,924      0,477    0,629      0,550    0,865     0,836     0
                 0,011    0,005    0,067      0,011    0,019      0,015    0,668     0,055     BMP
                 0,365    0,011    0,442      0,365    0,400      0,389    0,872     0,369     U
                 1,000    0,236    0,002      1,000    0,003      0,035    0,897     0,002     DZ
                 0,695    0,215    0,045      0,695    0,085      0,137    0,825     0,048     D
Weighted Avg.    0,357    0,032    0,632      0,357    0,435      0,386    0,801     0,552     


=== Confusion Matrix ===

     a     b     c     d     e     f     g     h     i     j     k   <-- classified as
  4408   733   320   129   174    70    96    30    20   412  3193 |     a = A
   439  2180   213    23   249     8    21    40    22   159  1267 |     b = E
   572   615  1889   203   704   146   678   123   108  2750  3468 |     c = CGJLNQSRT
    65    59    79    27    88     7    19     5     1   192   322 |     d = FV
   120   975   162    16   768     0    26    22     0   105   188 |     e = I
   496   457   223    72    33    97    24    26   383   461  2191 |     f = O
    88   188   459   116   349    87 11305    41    38 10017  1037 |     g = 0
   126   142   158    19   276    10    45    22    51   309   790 |     h = BMP
   146    40    75     5    47    10     9    12   506    17   519 |     i = U
     0     0     0     0     0     0     0     0     0    23     0 |     j = DZ
   111    48    14    15    44     3     7     5    17     5   612 |     k = D

=== Percent Confusion Matrix ===
a	b	c	d	e	f	g	h	i	j	k	
45.99	7.65	3.34	1.35	1.82	0.73	1.0	0.31	0.21	4.3	33.31	 a = A
9.5	47.18	4.61	0.5	5.39	0.17	0.45	0.87	0.48	3.44	27.42	 b = E
5.08	5.46	16.78	1.8	6.25	1.3	6.02	1.09	0.96	24.43	30.81	 c = CGJLNQSRT
7.52	6.83	9.14	3.13	10.19	0.81	2.2	0.58	0.12	22.22	37.27	 d = FV
5.04	40.93	6.8	0.67	32.24	0.0	1.09	0.92	0.0	4.41	7.89	 e = I
11.11	10.24	5.0	1.61	0.74	2.17	0.54	0.58	8.58	10.33	49.09	 f = O
0.37	0.79	1.93	0.49	1.47	0.37	47.65	0.17	0.16	42.22	4.37	 g = 0
6.47	7.29	8.11	0.98	14.17	0.51	2.31	1.13	2.62	15.86	40.55	 h = BMP
10.53	2.89	5.41	0.36	3.39	0.72	0.65	0.87	36.51	1.23	37.45	 i = U
0.0	0.0	0.0	0.0	0.0	0.0	0.0	0.0	0.0	100.0	0.0	 j = DZ
12.6	5.45	1.59	1.7	4.99	0.34	0.79	0.57	1.93	0.57	69.47	 k = D
