Timestamp:2014-12-07-11:09:33
Inventario:I3
Intervalo:6ms
Ngramas:4
Clasificador:NaiveBayes
Relation Name:  I3-6ms-4gramas
Num Instances:  30450
Num Attributes: 41

     Name                      Type  Nom  Int Real     Missing      Unique  Dist
   1 0Int(dB)                   Num   0%  10%  90%     0 /  0%     2 /  0%   776 
   2 0Pitch(Hz)                 Num   0%  51%  49%     0 /  0%   750 /  2%  3423 
   3 0RawPitch                  Num   0%  55%  45%     0 /  0%   699 /  2%  3337 
   4 0SmPitch                   Num   0%  53%  47%     0 /  0%   748 /  2%  3382 
   5 0Melogram(st)              Num   0%  48%  52%     0 /  0%   413 /  1%  3048 
   6 0ZCross                    Num   0% 100%   0%     0 /  0%     8 /  0%    47 
   7 0F1(Hz)                    Num   0%  52%  48%     0 /  0%  1130 /  4%  4802 
   8 0F2(Hz)                    Num   0%  51%  49%     0 /  0%  2251 /  7%  6691 
   9 0F3(Hz)                    Num   0%  52%  48%     0 /  0%  1969 /  6%  6255 
  10 0F4(Hz)                    Num   0%  52%  48%     0 /  0%  1938 /  6%  6099 
  11 1Int(dB)                   Num   0%  10%  90%     0 /  0%     2 /  0%   776 
  12 1Pitch(Hz)                 Num   0%  51%  49%     0 /  0%   750 /  2%  3423 
  13 1RawPitch                  Num   0%  55%  45%     0 /  0%   699 /  2%  3337 
  14 1SmPitch                   Num   0%  53%  47%     0 /  0%   748 /  2%  3382 
  15 1Melogram(st)              Num   0%  48%  52%     0 /  0%   413 /  1%  3048 
  16 1ZCross                    Num   0% 100%   0%     0 /  0%     8 /  0%    47 
  17 1F1(Hz)                    Num   0%  52%  48%     0 /  0%  1130 /  4%  4802 
  18 1F2(Hz)                    Num   0%  51%  49%     0 /  0%  2251 /  7%  6691 
  19 1F3(Hz)                    Num   0%  52%  48%     0 /  0%  1969 /  6%  6255 
  20 1F4(Hz)                    Num   0%  52%  48%     0 /  0%  1938 /  6%  6099 
  21 2Int(dB)                   Num   0%  10%  90%     0 /  0%     2 /  0%   776 
  22 2Pitch(Hz)                 Num   0%  51%  49%     0 /  0%   750 /  2%  3423 
  23 2RawPitch                  Num   0%  55%  45%     0 /  0%   699 /  2%  3337 
  24 2SmPitch                   Num   0%  53%  47%     0 /  0%   748 /  2%  3382 
  25 2Melogram(st)              Num   0%  48%  52%     0 /  0%   413 /  1%  3048 
  26 2ZCross                    Num   0% 100%   0%     0 /  0%     8 /  0%    47 
  27 2F1(Hz)                    Num   0%  52%  48%     0 /  0%  1130 /  4%  4802 
  28 2F2(Hz)                    Num   0%  51%  49%     0 /  0%  2251 /  7%  6691 
  29 2F3(Hz)                    Num   0%  52%  48%     0 /  0%  1969 /  6%  6255 
  30 2F4(Hz)                    Num   0%  52%  48%     0 /  0%  1938 /  6%  6099 
  31 3Int(dB)                   Num   0%  10%  90%     0 /  0%     3 /  0%   777 
  32 3Pitch(Hz)                 Num   0%  51%  49%     0 /  0%   750 /  2%  3423 
  33 3RawPitch                  Num   0%  55%  45%     0 /  0%   699 /  2%  3337 
  34 3SmPitch                   Num   0%  53%  47%     0 /  0%   748 /  2%  3382 
  35 3Melogram(st)              Num   0%  48%  52%     0 /  0%   413 /  1%  3048 
  36 3ZCross                    Num   0% 100%   0%     0 /  0%     8 /  0%    47 
  37 3F1(Hz)                    Num   0%  52%  48%     0 /  0%  1130 /  4%  4802 
  38 3F2(Hz)                    Num   0%  51%  49%     0 /  0%  2251 /  7%  6691 
  39 3F3(Hz)                    Num   0%  52%  48%     0 /  0%  1969 /  6%  6255 
  40 3F4(Hz)                    Num   0%  52%  48%     0 /  0%  1938 /  6%  6099 
  41 class                      Nom 100%   0%   0%     0 /  0%     0 /  0%    11 


Naive Bayes Classifier

                    Class
Attribute               A         E CGJLNQSRT        FV         I         O         0       BMP         U        DZ         D
                   (0.16)    (0.08)    (0.19)    (0.01)    (0.04)    (0.07)    (0.38)    (0.03)    (0.02)       (0)    (0.01)
==============================================================================================================================
0Int(dB)
  mean             -4.9579   -6.5177  -16.3426  -13.9952  -10.1042   -8.9796  -48.2636  -12.9282   -7.2074  -27.0098   -7.4895
  std. dev.        10.4863    9.2729   11.6448    9.9098    9.0807   12.1898   16.5008   11.6685    10.005    2.1854    5.8788
  weight sum          4825      2347      5653       430      1206      2251     11608       980       697        12       441
  precision         0.1001    0.1001    0.1001    0.1001    0.1001    0.1001    0.1001    0.1001    0.1001    0.1001    0.1001

0Pitch(Hz)
  mean            211.8007  181.8248  123.4282  141.9695  163.9943  175.9605   17.3088  163.7762  220.3105   13.8783  203.2221
  std. dev.       110.5354   92.6133  112.3902  108.6529   83.5367  108.5713   57.1161  111.3227   97.9407   46.0292   82.3051
  weight sum          4825      2347      5653       430      1206      2251     11608       980       697        12       441
  precision         0.1457    0.1457    0.1457    0.1457    0.1457    0.1457    0.1457    0.1457    0.1457    0.1457    0.1457

0RawPitch
  mean            201.4532  176.4078  106.9078   119.205  154.7055  167.3967   14.6437  150.2849  209.3446         0  198.0723
  std. dev.       115.6497   98.3173  112.4844  106.8748   87.7211  114.5172   52.4086  115.4886  105.1448    0.0248    90.968
  weight sum          4825      2347      5653       430      1206      2251     11608       980       697        12       441
  precision         0.1486    0.1486    0.1486    0.1486    0.1486    0.1486    0.1486    0.1486    0.1486    0.1486    0.1486

0SmPitch
  mean            209.3893  178.7991  117.6759  132.2744  161.4192  173.1852   15.8543  160.7347  217.8306         0  202.1298
  std. dev.       112.5358   95.0401  112.7721  106.6852    85.075  110.6103   53.6496  113.5476   99.6499    0.0246   84.4843
  weight sum          4825      2347      5653       430      1206      2251     11608       980       697        12       441
  precision         0.1475    0.1475    0.1475    0.1475    0.1475    0.1475    0.1475    0.1475    0.1475    0.1475    0.1475

0Melogram(st)
  mean             50.3727   48.4575   32.8023   40.1595   45.9796   45.7682    5.0775   42.8393   51.0893    8.6892   53.2835
  std. dev.        18.2348   17.9973   26.9453   23.6269   19.1192   21.3497   15.8211   23.5694   18.8712   19.4297   10.6348
  weight sum          4825      2347      5653       430      1206      2251     11608       980       697        12       441
  precision         0.0271    0.0271    0.0271    0.0271    0.0271    0.0271    0.0271    0.0271    0.0271    0.0271    0.0271

0ZCross
  mean              6.7846    4.8042    2.9247     2.184     3.476    3.8899    0.2937    2.4616    3.6026         0    3.6548
  std. dev.         4.6549    3.4983    4.4456     2.217    3.4985    3.3516     1.378     2.346    2.9524    0.1957    2.0663
  weight sum          4825      2347      5653       430      1206      2251     11608       980       697        12       441
  precision         1.1739    1.1739    1.1739    1.1739    1.1739    1.1739    1.1739    1.1739    1.1739    1.1739    1.1739

0F1(Hz)
  mean             641.598  436.6695  357.1088  439.5501   338.547  453.8732   58.3252  395.6915   463.808   60.3422  512.8505
  std. dev.       298.3129  181.6351  281.0827  266.9062  174.0301  244.1481  175.0326  237.6905  334.8008  200.1323  145.4958
  weight sum          4825      2347      5653       430      1206      2251     11608       980       697        12       441
  precision         0.3628    0.3628    0.3628    0.3628    0.3628    0.3628    0.3628    0.3628    0.3628    0.3628    0.3628

0F2(Hz)
  mean            1395.894 1648.9094 1127.6241 1279.0165 1765.1714 1110.1712    179.12 1369.4578  978.1609   97.6945 1493.7924
  std. dev.       530.2954  663.0113  844.1402  732.7963   818.714   595.382  531.0452  735.8848  525.2413  324.0161  291.5337
  weight sum          4825      2347      5653       430      1206      2251     11608       980       697        12       441
  precision         0.4452    0.4452    0.4452    0.4452    0.4452    0.4452    0.4452    0.4452    0.4452    0.4452    0.4452

0F3(Hz)
  mean           2559.4613 2459.3827 1915.1721 2180.6268 2427.5668 2381.0703  306.6365 2305.6138 2438.5289  314.4416  2879.376
  std. dev.       937.7438   978.513 1403.6052  1230.956 1132.3873 1130.0518  891.0759 1172.8483 1064.3754 1042.8849  407.1221
  weight sum          4825      2347      5653       430      1206      2251     11608       980       697        12       441
  precision         0.6587    0.6587    0.6587    0.6587    0.6587    0.6587    0.6587    0.6587    0.6587    0.6587    0.6587

0F4(Hz)
  mean           2973.1331 2976.4834 2189.7719 2575.9403 2903.1799 2744.0896  368.3452 2726.3768 2803.9205   249.185 3353.1922
  std. dev.      1076.9898 1157.0182 1593.8675 1422.3377 1317.4154 1290.3365 1068.3973 1356.7863 1162.6311   826.453  430.1758
  weight sum          4825      2347      5653       430      1206      2251     11608       980       697        12       441
  precision         0.6801    0.6801    0.6801    0.6801    0.6801    0.6801    0.6801    0.6801    0.6801    0.6801    0.6801

1Int(dB)
  mean             -4.5987   -5.8995  -16.6052  -14.5611   -9.5588   -8.5713  -48.5573  -12.9966    -6.419  -27.1266   -7.7601
  std. dev.        10.0572     8.786   11.1368    9.4214    8.7617   12.1108   16.0885   11.3571    9.2206    2.0567    5.9525
  weight sum          4825      2347      5653       430      1206      2251     11608       980       697        12       441
  precision         0.1001    0.1001    0.1001    0.1001    0.1001    0.1001    0.1001    0.1001    0.1001    0.1001    0.1001

1Pitch(Hz)
  mean            213.9858  185.9675  119.7909  138.3865   168.922  178.5044   16.3313  162.1914  225.2933         0  202.6766
  std. dev.       108.6894   90.3606  112.5363  108.2488   80.1793  106.4846   55.6028  111.4338   91.5415    0.0243   83.2781
  weight sum          4825      2347      5653       430      1206      2251     11608       980       697        12       441
  precision         0.1457    0.1457    0.1457    0.1457    0.1457    0.1457    0.1457    0.1457    0.1457    0.1457    0.1457

1RawPitch
  mean            203.4289  181.6948  102.6949  114.6567   160.411  171.1249   13.5144  148.0422  215.3066         0  197.4072
  std. dev.       114.2033   96.2139   111.998  105.4998   84.8193  112.4932   50.0944  115.6256   98.6174    0.0248   92.3001
  weight sum          4825      2347      5653       430      1206      2251     11608       980       697        12       441
  precision         0.1486    0.1486    0.1486    0.1486    0.1486    0.1486    0.1486    0.1486    0.1486    0.1486    0.1486

1SmPitch
  mean            211.6839  183.5596  113.6264  128.8353  166.5988  175.9059   14.8074  158.6549  223.7844         0   201.666
  std. dev.       110.6731   92.3488  112.7868  105.8213   81.8868  108.6981   51.7824   113.938   92.4136    0.0246   85.2848
  weight sum          4825      2347      5653       430      1206      2251     11608       980       697        12       441
  precision         0.1475    0.1475    0.1475    0.1475    0.1475    0.1475    0.1475    0.1475    0.1475    0.1475    0.1475

1Melogram(st)
  mean             51.0457   49.6417   31.6229   39.2686   47.3894   46.4994    4.8249   42.2976   52.9038    4.3435   53.1202
  std. dev.        17.3442   16.5413   27.1587   24.0506   17.6115   20.6431   15.4713   23.9194    16.369   14.4057   10.9727
  weight sum          4825      2347      5653       430      1206      2251     11608       980       697        12       441
  precision         0.0271    0.0271    0.0271    0.0271    0.0271    0.0271    0.0271    0.0271    0.0271    0.0271    0.0271

1ZCross
  mean              6.8934    4.8687    2.9077    2.0038    3.5256    3.9353    0.2426    2.3634    3.6666         0    3.6096
  std. dev.         4.5993    3.3612    4.6136    2.0839    3.3498     3.141    1.1446    2.1945    2.8883    0.1957    2.0875
  weight sum          4825      2347      5653       430      1206      2251     11608       980       697        12       441
  precision         1.1739    1.1739    1.1739    1.1739    1.1739    1.1739    1.1739    1.1739    1.1739    1.1739    1.1739

1F1(Hz)
  mean            658.1625  448.1303  340.5125  421.3901  348.8664  467.9136   53.9368  387.5882  478.0605         0  513.8187
  std. dev.       286.2026  167.3815  280.8604  272.3544  162.2662  235.6843  168.2168  237.6824   324.529    0.0605  149.6379
  weight sum          4825      2347      5653       430      1206      2251     11608       980       697        12       441
  precision         0.3628    0.3628    0.3628    0.3628    0.3628    0.3628    0.3628    0.3628    0.3628    0.3628    0.3628

1F2(Hz)
  mean           1419.2622 1706.5198 1086.9141 1239.1028 1853.8785 1129.6245  166.3459 1348.6957 1009.2259         0 1486.3363
  std. dev.       497.7941  612.0386   853.308  748.4208  761.7664  569.4748  512.7501  740.2835  490.7397    0.0742  303.8381
  weight sum          4825      2347      5653       430      1206      2251     11608       980       697        12       441
  precision         0.4452    0.4452    0.4452    0.4452    0.4452    0.4452    0.4452    0.4452    0.4452    0.4452    0.4452

1F3(Hz)
  mean           2605.2622 2528.8267 1846.3738 2115.5779 2527.1222  2440.143  285.4439  2271.328 2534.3382         0 2871.3859
  std. dev.       881.9027   904.012 1422.3879 1263.4416 1049.8927 1080.4541  863.1657 1184.8692  971.1663    0.1098  449.1931
  weight sum          4825      2347      5653       430      1206      2251     11608       980       697        12       441
  precision         0.6587    0.6587    0.6587    0.6587    0.6587    0.6587    0.6587    0.6587    0.6587    0.6587    0.6587

1F4(Hz)
  mean           3024.9811  3055.702 2112.2946 2508.5338 3015.9411 2810.7638  343.1031 2699.0169 2907.9441         0 3342.0954
  std. dev.      1010.9519 1062.5316  1616.999 1464.9089 1214.2293 1230.5926 1035.5106 1377.3282 1043.9573    0.1133  484.4215
  weight sum          4825      2347      5653       430      1206      2251     11608       980       697        12       441
  precision         0.6801    0.6801    0.6801    0.6801    0.6801    0.6801    0.6801    0.6801    0.6801    0.6801    0.6801

2Int(dB)
  mean             -4.3897   -5.4538  -16.7094  -14.9101   -9.0975     -8.32  -48.8226   -12.808   -5.7217  -27.2184    -7.865
  std. dev.         9.7701    8.3541   10.6707     9.056    8.4757   12.1084    15.704   10.9801    8.3788    2.0706     6.066
  weight sum          4825      2347      5653       430      1206      2251     11608       980       697        12       441
  precision         0.1001    0.1001    0.1001    0.1001    0.1001    0.1001    0.1001    0.1001    0.1001    0.1001    0.1001

2Pitch(Hz)
  mean            215.1858  188.9309  118.3414  135.5009  172.4627  179.6002   15.2651  162.0524  229.1165         0  202.2266
  std. dev.       107.7136   88.8484  112.5858  107.5102   77.3033  105.0982   53.8943  110.5525    86.113    0.0243    84.159
  weight sum          4825      2347      5653       430      1206      2251     11608       980       697        12       441
  precision         0.1457    0.1457    0.1457    0.1457    0.1457    0.1457    0.1457    0.1457    0.1457    0.1457    0.1457

2RawPitch
  mean            204.8304  185.2813  100.2234   111.142  164.6635  173.0353   12.5263  147.7901  219.1052         0  197.2802
  std. dev.       113.2593   94.3657  111.6138   103.983   82.3462  111.2194   48.0535  115.4056   94.0431    0.0248   92.7599
  weight sum          4825      2347      5653       430      1206      2251     11608       980       697        12       441
  precision         0.1486    0.1486    0.1486    0.1486    0.1486    0.1486    0.1486    0.1486    0.1486    0.1486    0.1486

2SmPitch
  mean            213.0105  187.4191  111.7144  126.3464   169.864  177.2873   13.7654  157.4726  227.6752         0   201.473
  std. dev.       109.5872   90.1622  112.7946  104.6501   79.4786  107.1683    49.937  113.6823   87.0875    0.0246   85.6758
  weight sum          4825      2347      5653       430      1206      2251     11608       980       697        12       441
  precision         0.1475    0.1475    0.1475    0.1475    0.1475    0.1475    0.1475    0.1475    0.1475    0.1475    0.1475

2Melogram(st)
  mean             51.4062    50.443   31.0579    38.768   48.4372   46.7991    4.5875   42.0662   54.1423         0   53.1699
  std. dev.        16.8175   15.4134   27.2649   24.2654   16.3134   20.2997   15.1434   23.9804    14.241    0.0045   10.7286
  weight sum          4825      2347      5653       430      1206      2251     11608       980       697        12       441
  precision         0.0271    0.0271    0.0271    0.0271    0.0271    0.0271    0.0271    0.0271    0.0271    0.0271    0.0271

2ZCross
  mean              6.9598    4.9057    2.8938    1.9165    3.5597    3.9697    0.2049    2.3311    3.7441         0    3.6229
  std. dev.         4.5644    3.2087    4.7395    2.0253    3.2377    2.9459    0.9759    2.0986    2.8259    0.1957    2.1011
  weight sum          4825      2347      5653       430      1206      2251     11608       980       697        12       441
  precision         1.1739    1.1739    1.1739    1.1739    1.1739    1.1739    1.1739    1.1739    1.1739    1.1739    1.1739

2F1(Hz)
  mean            671.8022  458.4701  325.7263  405.4793  358.3341  479.3066   50.4075  382.1121  490.8774         0  515.3751
  std. dev.       275.7695  153.5049  279.5075  275.9084  149.9822  228.1739  162.5773  236.5551  313.8193    0.0605  150.3453
  weight sum          4825      2347      5653       430      1206      2251     11608       980       697        12       441
  precision         0.3628    0.3628    0.3628    0.3628    0.3628    0.3628    0.3628    0.3628    0.3628    0.3628    0.3628

2F2(Hz)
  mean           1436.7855 1756.5682 1050.4025  1210.404 1934.2548 1142.3274  156.3842 1334.4278 1039.7614         0 1485.2782
  std. dev.       469.7671  558.7593  858.7423  760.5497    698.11  545.8877  498.6509  740.0834  453.9752    0.0742  309.9774
  weight sum          4825      2347      5653       430      1206      2251     11608       980       697        12       441
  precision         0.4452    0.4452    0.4452    0.4452    0.4452    0.4452    0.4452    0.4452    0.4452    0.4452    0.4452

2F3(Hz)
  mean           2640.8558 2589.9599 1785.9434 2065.6755  2617.135   2486.42  267.8761 2248.5273 2624.1187         0 2868.7121
  std. dev.       835.2949  828.9033 1435.4338 1286.9009  961.8845 1037.8263  838.7672 1187.9068   862.036    0.1098  468.1374
  weight sum          4825      2347      5653       430      1206      2251     11608       980       697        12       441
  precision         0.6587    0.6587    0.6587    0.6587    0.6587    0.6587    0.6587    0.6587    0.6587    0.6587    0.6587

2F4(Hz)
  mean           3063.4806 3123.7667 2045.6167 2456.6943 3116.8532 2862.0839  322.5604 2685.0292 3008.5041         0 3338.8508
  std. dev.       955.4282   967.012 1634.6612 1495.5033 1104.1679 1178.6146 1007.8905 1387.1463  904.6428    0.1133  509.6049
  weight sum          4825      2347      5653       430      1206      2251     11608       980       697        12       441
  precision         0.6801    0.6801    0.6801    0.6801    0.6801    0.6801    0.6801    0.6801    0.6801    0.6801    0.6801

3Int(dB)
  mean             -4.3746   -5.3083  -16.5509  -14.9621   -8.8383   -8.2927  -49.0436  -12.3369   -5.2124  -27.3626   -7.7311
  std. dev.         9.6808    8.1563   10.3341    8.8347    8.4087   12.1905   15.4151    10.602    7.6533    2.3916    6.1548
  weight sum          4825      2347      5653       430      1206      2251     11608       980       697        12       441
  precision         0.1027    0.1027    0.1027    0.1027    0.1027    0.1027    0.1027    0.1027    0.1027    0.1027    0.1027

3Pitch(Hz)
  mean            215.2971  191.0581  119.4974  133.3692  173.8339  178.5747   14.1336  163.7124  230.7901         0   201.883
  std. dev.       107.7031   87.4612  112.8369  106.8281   75.6506  104.7438   52.0151  108.8774   82.8574    0.0243    84.869
  weight sum          4825      2347      5653       430      1206      2251     11608       980       697        12       441
  precision         0.1457    0.1457    0.1457    0.1457    0.1457    0.1457    0.1457    0.1457    0.1457    0.1457    0.1457

3RawPitch
  mean            204.9722  186.7023   100.606  109.9149  166.6698  172.5426   11.6312  150.0446  221.3767         0  196.4472
  std. dev.       113.3158   93.4491  111.6521  102.8897   81.1132  110.6448   46.5646   114.114   91.1707    0.0248    92.771
  weight sum          4825      2347      5653       430      1206      2251     11608       980       697        12       441
  precision         0.1486    0.1486    0.1486    0.1486    0.1486    0.1486    0.1486    0.1486    0.1486    0.1486    0.1486

3SmPitch
  mean            213.2402  189.6338  112.4515   124.407  171.4037  176.5059   12.7081  158.6198  229.7721         0  201.3593
  std. dev.       109.3851   88.7774  113.0799   103.769   78.1033   106.636   48.0606  112.4568   83.4441    0.0246    85.928
  weight sum          4825      2347      5653       430      1206      2251     11608       980       697        12       441
  precision         0.1475    0.1475    0.1475    0.1475    0.1475    0.1475    0.1475    0.1475    0.1475    0.1475    0.1475

3Melogram(st)
  mean              51.533   50.8127   31.2207   38.4205   48.9436   46.6912    4.2923    42.399   54.8522         0     53.14
  std. dev.        16.5965   14.8245   27.3134   24.4262   15.5254   20.3122   14.7034   23.6994   12.6632    0.0045   10.7598
  weight sum          4825      2347      5653       430      1206      2251     11608       980       697        12       441
  precision         0.0271    0.0271    0.0271    0.0271    0.0271    0.0271    0.0271    0.0271    0.0271    0.0271    0.0271

3ZCross
  mean              6.9593    4.8852     2.911    1.9001    3.5568    3.9781    0.1869    2.4041    3.8114         0    3.7028
  std. dev.         4.5717    3.1792    4.7748    2.0075    3.1167    2.8849    0.9421    2.0753    2.7838    0.1957    2.0838
  weight sum          4825      2347      5653       430      1206      2251     11608       980       697        12       441
  precision         1.1739    1.1739    1.1739    1.1739    1.1739    1.1739    1.1739    1.1739    1.1739    1.1739    1.1739

3F1(Hz)
  mean            682.1071   466.462  316.1813  391.2913  366.1781  486.7294   46.8684  381.3506  499.9719         0  517.4169
  std. dev.       268.0102  141.9729  277.1652  276.1702  138.5016  223.3891  156.9509   233.551  304.4022    0.0605  150.5159
  weight sum          4825      2347      5653       430      1206      2251     11608       980       697        12       441
  precision         0.3628    0.3628    0.3628    0.3628    0.3628    0.3628    0.3628    0.3628    0.3628    0.3628    0.3628

3F2(Hz)
  mean           1448.2374 1796.4609 1028.9839 1193.1191 2002.2125  1145.619  145.6852 1332.6509 1063.4579         0 1484.5553
  std. dev.       448.6029  511.4411  859.8842  771.0706  633.8216   528.768  482.7386  730.2324  420.6329    0.0742  315.1872
  weight sum          4825      2347      5653       430      1206      2251     11608       980       697        12       441
  precision         0.4452    0.4452    0.4452    0.4452    0.4452    0.4452    0.4452    0.4452    0.4452    0.4452    0.4452

3F3(Hz)
  mean           2665.0519 2636.0758 1751.4014 2027.9477 2693.6179  2513.778  249.4221 2248.6819 2692.0225         0 2867.4021
  std. dev.       801.5039  763.9923   1440.86 1301.1049  876.6153 1011.4708  812.1428 1174.9913   759.659    0.1098  487.3711
  weight sum          4825      2347      5653       430      1206      2251     11608       980       697        12       441
  precision         0.6587    0.6587    0.6587    0.6587    0.6587    0.6587    0.6587    0.6587    0.6587    0.6587    0.6587

3F4(Hz)
  mean            3089.112 3175.4825 2009.2839 2421.4135 3200.0296 2890.9482  300.7077 2697.4569 3085.5469         0 3334.3495
  std. dev.       915.0775  884.6328 1644.2265 1516.9857  997.3182 1145.4649  976.9518 1376.7352  770.8999    0.1133  533.4148
  weight sum          4825      2347      5653       430      1206      2251     11608       980       697        12       441
  precision         0.6801    0.6801    0.6801    0.6801    0.6801    0.6801    0.6801    0.6801    0.6801    0.6801    0.6801





=== Stratified cross-validation ===

Correctly Classified Instances       10314               33.8719 %
Incorrectly Classified Instances     20136               66.1281 %
Kappa statistic                          0.2489
K&B Relative Info Score             667607.6979 %
K&B Information Score                17454.448  bits      0.5732 bits/instance
Class complexity | order 0           79591.8766 bits      2.6139 bits/instance
Class complexity | scheme          1636255.2154 bits     53.7358 bits/instance
Complexity improvement     (Sf)    -1556663.3388 bits    -51.1219 bits/instance
Mean absolute error                      0.1204
Root mean squared error                  0.3359
Relative absolute error                 84.8734 %
Root relative squared error            126.1296 %
Coverage of cases (0.95 level)          39.3103 %
Mean rel. region size (0.95 level)      11.9385 %
Total Number of Instances            30450     


=== Detailed Accuracy By Class ===

                 TP Rate  FP Rate  Precision  Recall   F-Measure  MCC      ROC Area  PRC Area  Class
                 0,386    0,040    0,646      0,386    0,484      0,432    0,844     0,555     A
                 0,210    0,022    0,442      0,210    0,284      0,266    0,823     0,305     E
                 0,161    0,039    0,486      0,161    0,242      0,198    0,648     0,366     CGJLNQSRT
                 0,067    0,026    0,035      0,067    0,046      0,030    0,665     0,029     FV
                 0,305    0,025    0,331      0,305    0,318      0,291    0,853     0,265     I
                 0,005    0,003    0,121      0,005    0,009      0,010    0,711     0,150     O
                 0,525    0,030    0,914      0,525    0,667      0,581    0,901     0,872     0
                 0,008    0,005    0,049      0,008    0,014      0,007    0,676     0,055     BMP
                 0,268    0,009    0,414      0,268    0,326      0,321    0,851     0,272     U
                 0,917    0,203    0,002      0,917    0,004      0,035    0,862     0,002     DZ
                 0,776    0,292    0,038      0,776    0,072      0,126    0,832     0,052     D
Weighted Avg.    0,339    0,033    0,609      0,339    0,421      0,369    0,810     0,542     


=== Confusion Matrix ===

    a    b    c    d    e    f    g    h    i    j    k   <-- classified as
 1864  115  221  120   91   31   69    7   57  164 2086 |    a = A
  219  492  123   45  127    5   19   27   30   76 1184 |    b = E
  297  155  910  283  237   25  373   66   39 1141 2127 |    c = CGJLNQSRT
   28   10   41   29   12    2   18    3    1   71  215 |    d = FV
   67  231   96   32  368    0   23    8    4   42  335 |    e = I
  217   41  131   99   35   11   21   10   97  215 1374 |    f = O
   23   39  222  141  119   10 6092   27   15 4326  594 |    g = 0
   60   17   75   41   92    2   36    8   17  126  506 |    h = BMP
   63    4   45   17   21    5   10    5  187    7  333 |    i = U
    0    0    0    0    0    0    1    0    0   11    0 |    j = DZ
   46   10   10   15    9    0    1    2    5    1  342 |    k = D

=== Percent Confusion Matrix ===
a	b	c	d	e	f	g	h	i	j	k	
38.63	2.38	4.58	2.49	1.89	0.64	1.43	0.15	1.18	3.4	43.23	 a = A
9.33	20.96	5.24	1.92	5.41	0.21	0.81	1.15	1.28	3.24	50.45	 b = E
5.25	2.74	16.1	5.01	4.19	0.44	6.6	1.17	0.69	20.18	37.63	 c = CGJLNQSRT
6.51	2.33	9.53	6.74	2.79	0.47	4.19	0.7	0.23	16.51	50.0	 d = FV
5.56	19.15	7.96	2.65	30.51	0.0	1.91	0.66	0.33	3.48	27.78	 e = I
9.64	1.82	5.82	4.4	1.55	0.49	0.93	0.44	4.31	9.55	61.04	 f = O
0.2	0.34	1.91	1.21	1.03	0.09	52.48	0.23	0.13	37.27	5.12	 g = 0
6.12	1.73	7.65	4.18	9.39	0.2	3.67	0.82	1.73	12.86	51.63	 h = BMP
9.04	0.57	6.46	2.44	3.01	0.72	1.43	0.72	26.83	1.0	47.78	 i = U
0.0	0.0	0.0	0.0	0.0	0.0	8.33	0.0	0.0	91.67	0.0	 j = DZ
10.43	2.27	2.27	3.4	2.04	0.0	0.23	0.45	1.13	0.23	77.55	 k = D
