Timestamp:2014-12-07-11:09:17
Inventario:I3
Intervalo:6ms
Ngramas:2
Clasificador:NaiveBayes
Relation Name:  I3-6ms-2gramas
Num Instances:  30452
Num Attributes: 21

     Name                      Type  Nom  Int Real     Missing      Unique  Dist
   1 0Int(dB)                   Num   0%  10%  90%     0 /  0%     2 /  0%   776 
   2 0Pitch(Hz)                 Num   0%  51%  49%     0 /  0%   750 /  2%  3423 
   3 0RawPitch                  Num   0%  55%  45%     0 /  0%   699 /  2%  3337 
   4 0SmPitch                   Num   0%  53%  47%     0 /  0%   748 /  2%  3382 
   5 0Melogram(st)              Num   0%  48%  52%     0 /  0%   413 /  1%  3048 
   6 0ZCross                    Num   0% 100%   0%     0 /  0%     8 /  0%    47 
   7 0F1(Hz)                    Num   0%  52%  48%     0 /  0%  1130 /  4%  4802 
   8 0F2(Hz)                    Num   0%  51%  49%     0 /  0%  2251 /  7%  6691 
   9 0F3(Hz)                    Num   0%  52%  48%     0 /  0%  1969 /  6%  6255 
  10 0F4(Hz)                    Num   0%  52%  48%     0 /  0%  1938 /  6%  6099 
  11 1Int(dB)                   Num   0%  10%  90%     0 /  0%     3 /  0%   777 
  12 1Pitch(Hz)                 Num   0%  51%  49%     0 /  0%   750 /  2%  3423 
  13 1RawPitch                  Num   0%  55%  45%     0 /  0%   699 /  2%  3337 
  14 1SmPitch                   Num   0%  53%  47%     0 /  0%   748 /  2%  3382 
  15 1Melogram(st)              Num   0%  48%  52%     0 /  0%   413 /  1%  3048 
  16 1ZCross                    Num   0% 100%   0%     0 /  0%     8 /  0%    47 
  17 1F1(Hz)                    Num   0%  52%  48%     0 /  0%  1130 /  4%  4802 
  18 1F2(Hz)                    Num   0%  51%  49%     0 /  0%  2251 /  7%  6691 
  19 1F3(Hz)                    Num   0%  52%  48%     0 /  0%  1969 /  6%  6255 
  20 1F4(Hz)                    Num   0%  52%  48%     0 /  0%  1938 /  6%  6099 
  21 class                      Nom 100%   0%   0%     0 /  0%     0 /  0%    11 


Naive Bayes Classifier

                    Class
Attribute               A         E CGJLNQSRT        FV         I         O         0       BMP         U        DZ         D
                   (0.16)    (0.08)    (0.19)    (0.01)    (0.04)    (0.07)    (0.38)    (0.03)    (0.02)       (0)    (0.01)
==============================================================================================================================
0Int(dB)
  mean             -4.3897   -5.4538  -16.7094  -14.9101   -9.0975     -8.32   -48.822   -12.808   -5.7217  -27.2184    -7.865
  std. dev.         9.7701    8.3541   10.6707     9.056    8.4757   12.1084   15.7027   10.9801    8.3788    2.0706     6.066
  weight sum          4825      2347      5653       430      1206      2251     11610       980       697        12       441
  precision         0.1001    0.1001    0.1001    0.1001    0.1001    0.1001    0.1001    0.1001    0.1001    0.1001    0.1001

0Pitch(Hz)
  mean            215.1858  188.9309  118.3414  135.5009  172.4627  179.6002   15.2625  162.0524  229.1165         0  202.2266
  std. dev.       107.7136   88.8484  112.5858  107.5102   77.3033  105.0982     53.89  110.5525    86.113    0.0243    84.159
  weight sum          4825      2347      5653       430      1206      2251     11610       980       697        12       441
  precision         0.1457    0.1457    0.1457    0.1457    0.1457    0.1457    0.1457    0.1457    0.1457    0.1457    0.1457

0RawPitch
  mean            204.8304  185.2813  100.2234   111.142  164.6635  173.0353   12.5242  147.7901  219.1052         0  197.2802
  std. dev.       113.2593   94.3657  111.6138   103.983   82.3462  111.2194   48.0496  115.4056   94.0431    0.0248   92.7599
  weight sum          4825      2347      5653       430      1206      2251     11610       980       697        12       441
  precision         0.1486    0.1486    0.1486    0.1486    0.1486    0.1486    0.1486    0.1486    0.1486    0.1486    0.1486

0SmPitch
  mean            213.0105  187.4191  111.7144  126.3464   169.864  177.2873    13.763  157.4726  227.6752         0   201.473
  std. dev.       109.5872   90.1622  112.7946  104.6501   79.4786  107.1683   49.9331  113.6823   87.0875    0.0246   85.6758
  weight sum          4825      2347      5653       430      1206      2251     11610       980       697        12       441
  precision         0.1475    0.1475    0.1475    0.1475    0.1475    0.1475    0.1475    0.1475    0.1475    0.1475    0.1475

0Melogram(st)
  mean             51.4062    50.443   31.0579    38.768   48.4372   46.7991    4.5867   42.0662   54.1423         0   53.1699
  std. dev.        16.8175   15.4134   27.2649   24.2654   16.3134   20.2997   15.1422   23.9804    14.241    0.0045   10.7286
  weight sum          4825      2347      5653       430      1206      2251     11610       980       697        12       441
  precision         0.0271    0.0271    0.0271    0.0271    0.0271    0.0271    0.0271    0.0271    0.0271    0.0271    0.0271

0ZCross
  mean              6.9598    4.9057    2.8938    1.9165    3.5597    3.9697    0.2049    2.3311    3.7441         0    3.6229
  std. dev.         4.5644    3.2087    4.7395    2.0253    3.2377    2.9459    0.9758    2.0986    2.8259    0.1957    2.1011
  weight sum          4825      2347      5653       430      1206      2251     11610       980       697        12       441
  precision         1.1739    1.1739    1.1739    1.1739    1.1739    1.1739    1.1739    1.1739    1.1739    1.1739    1.1739

0F1(Hz)
  mean            671.8022  458.4701  325.7263  405.4793  358.3341  479.3066   50.3988  382.1121  490.8774         0  515.3751
  std. dev.       275.7695  153.5049  279.5075  275.9084  149.9822  228.1739  162.5646  236.5551  313.8193    0.0605  150.3453
  weight sum          4825      2347      5653       430      1206      2251     11610       980       697        12       441
  precision         0.3628    0.3628    0.3628    0.3628    0.3628    0.3628    0.3628    0.3628    0.3628    0.3628    0.3628

0F2(Hz)
  mean           1436.7855 1756.5682 1050.4025  1210.404 1934.2548 1142.3274  156.3573 1334.4278 1039.7614         0 1485.2782
  std. dev.       469.7671  558.7593  858.7423  760.5497    698.11  545.8877  498.6121  740.0834  453.9752    0.0742  309.9774
  weight sum          4825      2347      5653       430      1206      2251     11610       980       697        12       441
  precision         0.4452    0.4452    0.4452    0.4452    0.4452    0.4452    0.4452    0.4452    0.4452    0.4452    0.4452

0F3(Hz)
  mean           2640.8558 2589.9599 1785.9434 2065.6755  2617.135   2486.42    267.83 2248.5273 2624.1187         0 2868.7121
  std. dev.       835.2949  828.9033 1435.4338 1286.9009  961.8845 1037.8263  838.7023 1187.9068   862.036    0.1098  468.1374
  weight sum          4825      2347      5653       430      1206      2251     11610       980       697        12       441
  precision         0.6587    0.6587    0.6587    0.6587    0.6587    0.6587    0.6587    0.6587    0.6587    0.6587    0.6587

0F4(Hz)
  mean           3063.4806 3123.7667 2045.6167 2456.6943 3116.8532 2862.0839  322.5048 2685.0292 3008.5041         0 3338.8508
  std. dev.       955.4282   967.012 1634.6612 1495.5033 1104.1679 1178.6146 1007.8125 1387.1463  904.6428    0.1133  509.6049
  weight sum          4825      2347      5653       430      1206      2251     11610       980       697        12       441
  precision         0.6801    0.6801    0.6801    0.6801    0.6801    0.6801    0.6801    0.6801    0.6801    0.6801    0.6801

1Int(dB)
  mean             -4.3746   -5.3083  -16.5509  -14.9621   -8.8383   -8.2927  -49.0432  -12.3369   -5.2124  -27.3626   -7.7311
  std. dev.         9.6808    8.1563   10.3341    8.8347    8.4087   12.1905   15.4138    10.602    7.6533    2.3916    6.1548
  weight sum          4825      2347      5653       430      1206      2251     11610       980       697        12       441
  precision         0.1027    0.1027    0.1027    0.1027    0.1027    0.1027    0.1027    0.1027    0.1027    0.1027    0.1027

1Pitch(Hz)
  mean            215.2971  191.0581  119.4974  133.3692  173.8339  178.5747   14.1311  163.7124  230.7901         0   201.883
  std. dev.       107.7031   87.4612  112.8369  106.8281   75.6506  104.7438   52.0109  108.8774   82.8574    0.0243    84.869
  weight sum          4825      2347      5653       430      1206      2251     11610       980       697        12       441
  precision         0.1457    0.1457    0.1457    0.1457    0.1457    0.1457    0.1457    0.1457    0.1457    0.1457    0.1457

1RawPitch
  mean            204.9722  186.7023   100.606  109.9149  166.6698  172.5426   11.6292  150.0446  221.3767         0  196.4472
  std. dev.       113.3158   93.4491  111.6521  102.8897   81.1132  110.6448   46.5608   114.114   91.1707    0.0248    92.771
  weight sum          4825      2347      5653       430      1206      2251     11610       980       697        12       441
  precision         0.1486    0.1486    0.1486    0.1486    0.1486    0.1486    0.1486    0.1486    0.1486    0.1486    0.1486

1SmPitch
  mean            213.2402  189.6338  112.4515   124.407  171.4037  176.5059   12.7059  158.6198  229.7721         0  201.3593
  std. dev.       109.3851   88.7774  113.0799   103.769   78.1033   106.636   48.0568  112.4568   83.4441    0.0246    85.928
  weight sum          4825      2347      5653       430      1206      2251     11610       980       697        12       441
  precision         0.1475    0.1475    0.1475    0.1475    0.1475    0.1475    0.1475    0.1475    0.1475    0.1475    0.1475

1Melogram(st)
  mean              51.533   50.8127   31.2207   38.4205   48.9436   46.6912    4.2916    42.399   54.8522         0     53.14
  std. dev.        16.5965   14.8245   27.3134   24.4262   15.5254   20.3122   14.7022   23.6994   12.6632    0.0045   10.7598
  weight sum          4825      2347      5653       430      1206      2251     11610       980       697        12       441
  precision         0.0271    0.0271    0.0271    0.0271    0.0271    0.0271    0.0271    0.0271    0.0271    0.0271    0.0271

1ZCross
  mean              6.9593    4.8852     2.911    1.9001    3.5568    3.9781    0.1869    2.4041    3.8114         0    3.7028
  std. dev.         4.5717    3.1792    4.7748    2.0075    3.1167    2.8849     0.942    2.0753    2.7838    0.1957    2.0838
  weight sum          4825      2347      5653       430      1206      2251     11610       980       697        12       441
  precision         1.1739    1.1739    1.1739    1.1739    1.1739    1.1739    1.1739    1.1739    1.1739    1.1739    1.1739

1F1(Hz)
  mean            682.1071   466.462  316.1813  391.2913  366.1781  486.7294   46.8603  381.3506  499.9719         0  517.4169
  std. dev.       268.0102  141.9729  277.1652  276.1702  138.5016  223.3891  156.9386   233.551  304.4022    0.0605  150.5159
  weight sum          4825      2347      5653       430      1206      2251     11610       980       697        12       441
  precision         0.3628    0.3628    0.3628    0.3628    0.3628    0.3628    0.3628    0.3628    0.3628    0.3628    0.3628

1F2(Hz)
  mean           1448.2374 1796.4609 1028.9839 1193.1191 2002.2125  1145.619  145.6601 1332.6509 1063.4579         0 1484.5553
  std. dev.       448.6029  511.4411  859.8842  771.0706  633.8216   528.768  482.7008  730.2324  420.6329    0.0742  315.1872
  weight sum          4825      2347      5653       430      1206      2251     11610       980       697        12       441
  precision         0.4452    0.4452    0.4452    0.4452    0.4452    0.4452    0.4452    0.4452    0.4452    0.4452    0.4452

1F3(Hz)
  mean           2665.0519 2636.0758 1751.4014 2027.9477 2693.6179  2513.778  249.3791 2248.6819 2692.0225         0 2867.4021
  std. dev.       801.5039  763.9923   1440.86 1301.1049  876.6153 1011.4708  812.0795 1174.9913   759.659    0.1098  487.3711
  weight sum          4825      2347      5653       430      1206      2251     11610       980       697        12       441
  precision         0.6587    0.6587    0.6587    0.6587    0.6587    0.6587    0.6587    0.6587    0.6587    0.6587    0.6587

1F4(Hz)
  mean            3089.112 3175.4825 2009.2839 2421.4135 3200.0296 2890.9482  300.6559 2697.4569 3085.5469         0 3334.3495
  std. dev.       915.0775  884.6328 1644.2265 1516.9857  997.3182 1145.4649  976.8757 1376.7352  770.8999    0.1133  533.4148
  weight sum          4825      2347      5653       430      1206      2251     11610       980       697        12       441
  precision         0.6801    0.6801    0.6801    0.6801    0.6801    0.6801    0.6801    0.6801    0.6801    0.6801    0.6801





=== Stratified cross-validation ===

Correctly Classified Instances       10913               35.8367 %
Incorrectly Classified Instances     19539               64.1633 %
Kappa statistic                          0.2719
K&B Relative Info Score             807156.1494 %
K&B Information Score                21104.0003 bits      0.693  bits/instance
Class complexity | order 0           79594.6588 bits      2.6138 bits/instance
Class complexity | scheme          1094278.8575 bits     35.9345 bits/instance
Complexity improvement     (Sf)    -1014684.1987 bits    -33.3208 bits/instance
Mean absolute error                      0.1185
Root mean squared error                  0.317 
Relative absolute error                 83.5718 %
Root relative squared error            119.0224 %
Coverage of cases (0.95 level)          47.5371 %
Mean rel. region size (0.95 level)      17.3116 %
Total Number of Instances            30452     


=== Detailed Accuracy By Class ===

                 TP Rate  FP Rate  Precision  Recall   F-Measure  MCC      ROC Area  PRC Area  Class
                 0,460    0,045    0,658      0,460    0,541      0,483    0,859     0,587     A
                 0,404    0,045    0,427      0,404    0,415      0,368    0,847     0,376     E
                 0,179    0,039    0,514      0,179    0,266      0,222    0,640     0,382     CGJLNQSRT
                 0,023    0,009    0,036      0,023    0,028      0,018    0,659     0,029     FV
                 0,357    0,035    0,296      0,357    0,323      0,294    0,857     0,284     I
                 0,018    0,005    0,215      0,018    0,033      0,042    0,739     0,176     O
                 0,488    0,026    0,920      0,488    0,638      0,558    0,881     0,848     0
                 0,016    0,007    0,071      0,016    0,027      0,019    0,678     0,056     BMP
                 0,347    0,009    0,477      0,347    0,402      0,395    0,866     0,365     U
                 1,000    0,225    0,002      1,000    0,003      0,037    0,903     0,002     DZ
                 0,728    0,230    0,044      0,728    0,084      0,140    0,825     0,048     D
Weighted Avg.    0,358    0,033    0,625      0,358    0,437      0,386    0,808     0,552     


=== Confusion Matrix ===

    a    b    c    d    e    f    g    h    i    j    k   <-- classified as
 2218  285  188   64   98   33   57   20   14  187 1661 |    a = A
  234  949  119    5  129   10   11   29   12   80  769 |    b = E
  309  260 1013   90  387   57  345   83   51 1251 1807 |    c = CGJLNQSRT
   33   24   53   10   42    2   15    3    0   80  168 |    d = FV
   64  398   88    7  430    0   13   21    0   49  136 |    e = I
  278  163  125   43   18   40   16   14  149  223 1182 |    f = O
   35   61  245   44  161   33 5662   25   16 4839  489 |    g = 0
   63   50   85    8  141    5   30   16   22  137  423 |    h = BMP
   76   17   46    1   27    3    1   10  242    9  265 |    i = U
    0    0    0    0    0    0    0    0    0   12    0 |    j = DZ
   62   15    9    3   20    3    2    3    1    2  321 |    k = D

=== Percent Confusion Matrix ===
a	b	c	d	e	f	g	h	i	j	k	
45.97	5.91	3.9	1.33	2.03	0.68	1.18	0.41	0.29	3.88	34.42	 a = A
9.97	40.43	5.07	0.21	5.5	0.43	0.47	1.24	0.51	3.41	32.77	 b = E
5.47	4.6	17.92	1.59	6.85	1.01	6.1	1.47	0.9	22.13	31.97	 c = CGJLNQSRT
7.67	5.58	12.33	2.33	9.77	0.47	3.49	0.7	0.0	18.6	39.07	 d = FV
5.31	33.0	7.3	0.58	35.66	0.0	1.08	1.74	0.0	4.06	11.28	 e = I
12.35	7.24	5.55	1.91	0.8	1.78	0.71	0.62	6.62	9.91	52.51	 f = O
0.3	0.53	2.11	0.38	1.39	0.28	48.77	0.22	0.14	41.68	4.21	 g = 0
6.43	5.1	8.67	0.82	14.39	0.51	3.06	1.63	2.24	13.98	43.16	 h = BMP
10.9	2.44	6.6	0.14	3.87	0.43	0.14	1.43	34.72	1.29	38.02	 i = U
0.0	0.0	0.0	0.0	0.0	0.0	0.0	0.0	0.0	100.0	0.0	 j = DZ
14.06	3.4	2.04	0.68	4.54	0.68	0.45	0.68	0.23	0.45	72.79	 k = D
