Timestamp:2014-12-07-11:09:44
Inventario:I3
Intervalo:6ms
Ngramas:5
Clasificador:NaiveBayes
Relation Name:  I3-6ms-5gramas
Num Instances:  30449
Num Attributes: 51

     Name                      Type  Nom  Int Real     Missing      Unique  Dist
   1 0Int(dB)                   Num   0%  10%  90%     0 /  0%     2 /  0%   776 
   2 0Pitch(Hz)                 Num   0%  51%  49%     0 /  0%   750 /  2%  3423 
   3 0RawPitch                  Num   0%  55%  45%     0 /  0%   699 /  2%  3337 
   4 0SmPitch                   Num   0%  53%  47%     0 /  0%   748 /  2%  3382 
   5 0Melogram(st)              Num   0%  48%  52%     0 /  0%   413 /  1%  3048 
   6 0ZCross                    Num   0% 100%   0%     0 /  0%     8 /  0%    47 
   7 0F1(Hz)                    Num   0%  52%  48%     0 /  0%  1130 /  4%  4802 
   8 0F2(Hz)                    Num   0%  51%  49%     0 /  0%  2251 /  7%  6691 
   9 0F3(Hz)                    Num   0%  52%  48%     0 /  0%  1969 /  6%  6255 
  10 0F4(Hz)                    Num   0%  52%  48%     0 /  0%  1938 /  6%  6099 
  11 1Int(dB)                   Num   0%  10%  90%     0 /  0%     2 /  0%   776 
  12 1Pitch(Hz)                 Num   0%  51%  49%     0 /  0%   750 /  2%  3423 
  13 1RawPitch                  Num   0%  55%  45%     0 /  0%   699 /  2%  3337 
  14 1SmPitch                   Num   0%  53%  47%     0 /  0%   748 /  2%  3382 
  15 1Melogram(st)              Num   0%  48%  52%     0 /  0%   413 /  1%  3048 
  16 1ZCross                    Num   0% 100%   0%     0 /  0%     8 /  0%    47 
  17 1F1(Hz)                    Num   0%  52%  48%     0 /  0%  1130 /  4%  4802 
  18 1F2(Hz)                    Num   0%  51%  49%     0 /  0%  2251 /  7%  6691 
  19 1F3(Hz)                    Num   0%  52%  48%     0 /  0%  1969 /  6%  6255 
  20 1F4(Hz)                    Num   0%  52%  48%     0 /  0%  1938 /  6%  6099 
  21 2Int(dB)                   Num   0%  10%  90%     0 /  0%     2 /  0%   776 
  22 2Pitch(Hz)                 Num   0%  51%  49%     0 /  0%   750 /  2%  3423 
  23 2RawPitch                  Num   0%  55%  45%     0 /  0%   699 /  2%  3337 
  24 2SmPitch                   Num   0%  53%  47%     0 /  0%   748 /  2%  3382 
  25 2Melogram(st)              Num   0%  48%  52%     0 /  0%   413 /  1%  3048 
  26 2ZCross                    Num   0% 100%   0%     0 /  0%     8 /  0%    47 
  27 2F1(Hz)                    Num   0%  52%  48%     0 /  0%  1130 /  4%  4802 
  28 2F2(Hz)                    Num   0%  51%  49%     0 /  0%  2251 /  7%  6691 
  29 2F3(Hz)                    Num   0%  52%  48%     0 /  0%  1969 /  6%  6255 
  30 2F4(Hz)                    Num   0%  52%  48%     0 /  0%  1938 /  6%  6099 
  31 3Int(dB)                   Num   0%  10%  90%     0 /  0%     2 /  0%   776 
  32 3Pitch(Hz)                 Num   0%  51%  49%     0 /  0%   750 /  2%  3423 
  33 3RawPitch                  Num   0%  55%  45%     0 /  0%   699 /  2%  3337 
  34 3SmPitch                   Num   0%  53%  47%     0 /  0%   748 /  2%  3382 
  35 3Melogram(st)              Num   0%  48%  52%     0 /  0%   413 /  1%  3048 
  36 3ZCross                    Num   0% 100%   0%     0 /  0%     8 /  0%    47 
  37 3F1(Hz)                    Num   0%  52%  48%     0 /  0%  1130 /  4%  4802 
  38 3F2(Hz)                    Num   0%  51%  49%     0 /  0%  2251 /  7%  6691 
  39 3F3(Hz)                    Num   0%  52%  48%     0 /  0%  1969 /  6%  6255 
  40 3F4(Hz)                    Num   0%  52%  48%     0 /  0%  1938 /  6%  6099 
  41 4Int(dB)                   Num   0%  10%  90%     0 /  0%     3 /  0%   777 
  42 4Pitch(Hz)                 Num   0%  51%  49%     0 /  0%   750 /  2%  3423 
  43 4RawPitch                  Num   0%  55%  45%     0 /  0%   699 /  2%  3337 
  44 4SmPitch                   Num   0%  53%  47%     0 /  0%   748 /  2%  3382 
  45 4Melogram(st)              Num   0%  48%  52%     0 /  0%   413 /  1%  3048 
  46 4ZCross                    Num   0% 100%   0%     0 /  0%     8 /  0%    47 
  47 4F1(Hz)                    Num   0%  52%  48%     0 /  0%  1130 /  4%  4802 
  48 4F2(Hz)                    Num   0%  51%  49%     0 /  0%  2251 /  7%  6691 
  49 4F3(Hz)                    Num   0%  52%  48%     0 /  0%  1969 /  6%  6255 
  50 4F4(Hz)                    Num   0%  52%  48%     0 /  0%  1938 /  6%  6099 
  51 class                      Nom 100%   0%   0%     0 /  0%     0 /  0%    11 


Naive Bayes Classifier

                    Class
Attribute               A         E CGJLNQSRT        FV         I         O         0       BMP         U        DZ         D
                   (0.16)    (0.08)    (0.19)    (0.01)    (0.04)    (0.07)    (0.38)    (0.03)    (0.02)       (0)    (0.01)
==============================================================================================================================
0Int(dB)
  mean             -5.4118   -7.2577  -15.9326  -13.3109   -10.716   -9.5072  -47.9711  -12.6386   -8.0314  -26.7511    -7.175
  std. dev.        11.0068    9.8253   12.0902    10.453    9.4418   12.3595   16.8891   11.8743   10.7199    2.5765    5.8045
  weight sum          4825      2347      5653       430      1206      2251     11607       980       697        12       441
  precision         0.1001    0.1001    0.1001    0.1001    0.1001    0.1001    0.1001    0.1001    0.1001    0.1001    0.1001

0Pitch(Hz)
  mean            209.0402   177.001  128.2231   146.571  157.8868  172.4379   18.4166  166.0364  213.6025   27.8659  203.9083
  std. dev.       112.8416   95.1194  111.9534  108.6374   87.2331  110.9435   58.7916   110.778  105.4867   62.3107    81.291
  weight sum          4825      2347      5653       430      1206      2251     11607       980       697        12       441
  precision         0.1457    0.1457    0.1457    0.1457    0.1457    0.1457    0.1457    0.1457    0.1457    0.1457    0.1457

0RawPitch
  mean            198.7329  171.0375  112.1352  124.7505  148.2543  163.5133   15.6513  153.2783  202.7883         0  198.6882
  std. dev.       117.5529  100.5737  112.7488  107.8857   90.5894  116.7271    54.151   115.415  111.3103    0.0248   89.7163
  weight sum          4825      2347      5653       430      1206      2251     11607       980       697        12       441
  precision         0.1486    0.1486    0.1486    0.1486    0.1486    0.1486    0.1486    0.1486    0.1486    0.1486    0.1486

0SmPitch
  mean            206.6612  173.7645  122.6471  136.7277  155.3294  169.3568    16.968  163.4877  210.7198         0  202.7448
  std. dev.       114.6666   97.6867  112.4956  107.2216   88.5745  112.9699   55.5321  112.7218  107.1445    0.0246    83.632
  weight sum          4825      2347      5653       430      1206      2251     11607       980       697        12       441
  precision         0.1475    0.1475    0.1475    0.1475    0.1475    0.1475    0.1475    0.1475    0.1475    0.1475    0.1475

0Melogram(st)
  mean             49.6051   47.0369   34.2117   41.3271    44.285   44.7923     5.373   43.4903   49.1013   13.0327   53.4625
  std. dev.        19.1651   19.4744   26.6395   23.0186   20.6362   22.1672   16.2254   23.1301   21.0803   22.5733    10.276
  weight sum          4825      2347      5653       430      1206      2251     11607       980       697        12       441
  precision         0.0271    0.0271    0.0271    0.0271    0.0271    0.0271    0.0271    0.0271    0.0271    0.0271    0.0271

0ZCross
  mean              6.6693    4.7142    2.9536    2.4161     3.439    3.8153    0.3431    2.6114    3.5554         0     3.724
  std. dev.         4.7465    3.6571    4.2107    2.3921    3.6778    3.4988    1.6017    2.5157     3.083    0.1957    2.0637
  weight sum          4825      2347      5653       430      1206      2251     11607       980       697        12       441
  precision         1.1739    1.1739    1.1739    1.1739    1.1739    1.1739    1.1739    1.1739    1.1739    1.1739    1.1739

0F1(Hz)
  mean            624.4955   424.749  374.4114  455.8423  328.6897  439.0009   62.8556  404.5692  448.2668  120.6843  512.6826
  std. dev.       309.4436  194.8652  280.0658  260.5602  186.0771  251.6708  181.6101  237.8241  344.2631  269.8584  142.7051
  weight sum          4825      2347      5653       430      1206      2251     11607       980       697        12       441
  precision         0.3628    0.3628    0.3628    0.3628    0.3628    0.3628    0.3628    0.3628    0.3628    0.3628    0.3628

0F2(Hz)
  mean           1371.8281 1589.4535 1170.4226 1316.0818 1672.1769 1089.9744  192.4366 1389.0091  946.1299  195.3891 1500.6033
  std. dev.       560.4474  707.3303  831.7529  718.3454  865.5474   620.861  549.1729  730.9012  558.2464  436.9032  288.7611
  weight sum          4825      2347      5653       430      1206      2251     11607       980       697        12       441
  precision         0.4452    0.4452    0.4452    0.4452    0.4452    0.4452    0.4452    0.4452    0.4452    0.4452    0.4452

0F3(Hz)
  mean           2512.8034 2387.6492  1988.159 2237.6313  2323.906 2319.4528  328.4058 2338.8226  2338.906  628.8832 2881.2866
  std. dev.       989.7196 1045.4602 1379.6813 1197.6039  1204.488 1176.4849  918.0696 1159.0283 1145.7887 1406.2257  383.9927
  weight sum          4825      2347      5653       430      1206      2251     11607       980       697        12       441
  precision         0.6587    0.6587    0.6587    0.6587    0.6587    0.6587    0.6587    0.6587    0.6587    0.6587    0.6587

0F4(Hz)
  mean           2919.6988 2894.6517 2271.7199 2637.6754 2785.0724 2674.6565  394.5822 2753.4563  2695.275  498.3699 3355.1106
  std. dev.      1138.3963 1242.3286 1564.6105 1381.4899 1408.5564 1346.3444 1100.9601 1335.5172 1265.2932  1114.389  401.3347
  weight sum          4825      2347      5653       430      1206      2251     11607       980       697        12       441
  precision         0.6801    0.6801    0.6801    0.6801    0.6801    0.6801    0.6801    0.6801    0.6801    0.6801    0.6801

1Int(dB)
  mean             -4.9579   -6.5177  -16.3426  -13.9952  -10.1042   -8.9796  -48.2639  -12.9282   -7.2074  -27.0098   -7.4895
  std. dev.        10.4863    9.2729   11.6448    9.9098    9.0807   12.1898   16.5014   11.6685    10.005    2.1854    5.8788
  weight sum          4825      2347      5653       430      1206      2251     11607       980       697        12       441
  precision         0.1001    0.1001    0.1001    0.1001    0.1001    0.1001    0.1001    0.1001    0.1001    0.1001    0.1001

1Pitch(Hz)
  mean            211.8007  181.8248  123.4282  141.9695  163.9943  175.9605   17.3103  163.7762  220.3105   13.8783  203.2221
  std. dev.       110.5354   92.6133  112.3902  108.6529   83.5367  108.5713   57.1184  111.3227   97.9407   46.0292   82.3051
  weight sum          4825      2347      5653       430      1206      2251     11607       980       697        12       441
  precision         0.1457    0.1457    0.1457    0.1457    0.1457    0.1457    0.1457    0.1457    0.1457    0.1457    0.1457

1RawPitch
  mean            201.4532  176.4078  106.9078   119.205  154.7055  167.3967   14.6449  150.2849  209.3446         0  198.0723
  std. dev.       115.6497   98.3173  112.4844  106.8748   87.7211  114.5172   52.4106  115.4886  105.1448    0.0248    90.968
  weight sum          4825      2347      5653       430      1206      2251     11607       980       697        12       441
  precision         0.1486    0.1486    0.1486    0.1486    0.1486    0.1486    0.1486    0.1486    0.1486    0.1486    0.1486

1SmPitch
  mean            209.3893  178.7991  117.6759  132.2744  161.4192  173.1852   15.8556  160.7347  217.8306         0  202.1298
  std. dev.       112.5358   95.0401  112.7721  106.6852    85.075  110.6103   53.6517  113.5476   99.6499    0.0246   84.4843
  weight sum          4825      2347      5653       430      1206      2251     11607       980       697        12       441
  precision         0.1475    0.1475    0.1475    0.1475    0.1475    0.1475    0.1475    0.1475    0.1475    0.1475    0.1475

1Melogram(st)
  mean             50.3727   48.4575   32.8023   40.1595   45.9796   45.7682    5.0779   42.8393   51.0893    8.6892   53.2835
  std. dev.        18.2348   17.9973   26.9453   23.6269   19.1192   21.3497   15.8217   23.5694   18.8712   19.4297   10.6348
  weight sum          4825      2347      5653       430      1206      2251     11607       980       697        12       441
  precision         0.0271    0.0271    0.0271    0.0271    0.0271    0.0271    0.0271    0.0271    0.0271    0.0271    0.0271

1ZCross
  mean              6.7846    4.8042    2.9247     2.184     3.476    3.8899    0.2937    2.4616    3.6026         0    3.6548
  std. dev.         4.6549    3.4983    4.4456     2.217    3.4985    3.3516    1.3781     2.346    2.9524    0.1957    2.0663
  weight sum          4825      2347      5653       430      1206      2251     11607       980       697        12       441
  precision         1.1739    1.1739    1.1739    1.1739    1.1739    1.1739    1.1739    1.1739    1.1739    1.1739    1.1739

1F1(Hz)
  mean             641.598  436.6695  357.1088  439.5501   338.547  453.8732   58.3302  395.6915   463.808   60.3422  512.8505
  std. dev.       298.3129  181.6351  281.0827  266.9062  174.0301  244.1481  175.0393  237.6905  334.8008  200.1323  145.4958
  weight sum          4825      2347      5653       430      1206      2251     11607       980       697        12       441
  precision         0.3628    0.3628    0.3628    0.3628    0.3628    0.3628    0.3628    0.3628    0.3628    0.3628    0.3628

1F2(Hz)
  mean            1395.894 1648.9094 1127.6241 1279.0165 1765.1714 1110.1712  179.1355 1369.4578  978.1609   97.6945 1493.7924
  std. dev.       530.2954  663.0113  844.1402  732.7963   818.714   595.382  531.0655  735.8848  525.2413  324.0161  291.5337
  weight sum          4825      2347      5653       430      1206      2251     11607       980       697        12       441
  precision         0.4452    0.4452    0.4452    0.4452    0.4452    0.4452    0.4452    0.4452    0.4452    0.4452    0.4452

1F3(Hz)
  mean           2559.4613 2459.3827 1915.1721 2180.6268 2427.5668 2381.0703  306.6629 2305.6138 2438.5289  314.4416  2879.376
  std. dev.       937.7438   978.513 1403.6052  1230.956 1132.3873 1130.0518  891.1097 1172.8483 1064.3754 1042.8849  407.1221
  weight sum          4825      2347      5653       430      1206      2251     11607       980       697        12       441
  precision         0.6587    0.6587    0.6587    0.6587    0.6587    0.6587    0.6587    0.6587    0.6587    0.6587    0.6587

1F4(Hz)
  mean           2973.1331 2976.4834 2189.7719 2575.9403 2903.1799 2744.0896  368.3769 2726.3768 2803.9205   249.185 3353.1922
  std. dev.      1076.9898 1157.0182 1593.8675 1422.3377 1317.4154 1290.3365 1068.4378 1356.7863 1162.6311   826.453  430.1758
  weight sum          4825      2347      5653       430      1206      2251     11607       980       697        12       441
  precision         0.6801    0.6801    0.6801    0.6801    0.6801    0.6801    0.6801    0.6801    0.6801    0.6801    0.6801

2Int(dB)
  mean             -4.5987   -5.8995  -16.6052  -14.5611   -9.5588   -8.5713  -48.5576  -12.9966    -6.419  -27.1266   -7.7601
  std. dev.        10.0572     8.786   11.1368    9.4214    8.7617   12.1108   16.0892   11.3571    9.2206    2.0567    5.9525
  weight sum          4825      2347      5653       430      1206      2251     11607       980       697        12       441
  precision         0.1001    0.1001    0.1001    0.1001    0.1001    0.1001    0.1001    0.1001    0.1001    0.1001    0.1001

2Pitch(Hz)
  mean            213.9858  185.9675  119.7909  138.3865   168.922  178.5044   16.3327  162.1914  225.2933         0  202.6766
  std. dev.       108.6894   90.3606  112.5363  108.2488   80.1793  106.4846    55.605  111.4338   91.5415    0.0243   83.2781
  weight sum          4825      2347      5653       430      1206      2251     11607       980       697        12       441
  precision         0.1457    0.1457    0.1457    0.1457    0.1457    0.1457    0.1457    0.1457    0.1457    0.1457    0.1457

2RawPitch
  mean            203.4289  181.6948  102.6949  114.6567   160.411  171.1249   13.5156  148.0422  215.3066         0  197.4072
  std. dev.       114.2033   96.2139   111.998  105.4998   84.8193  112.4932   50.0964  115.6256   98.6174    0.0248   92.3001
  weight sum          4825      2347      5653       430      1206      2251     11607       980       697        12       441
  precision         0.1486    0.1486    0.1486    0.1486    0.1486    0.1486    0.1486    0.1486    0.1486    0.1486    0.1486

2SmPitch
  mean            211.6839  183.5596  113.6264  128.8353  166.5988  175.9059   14.8087  158.6549  223.7844         0   201.666
  std. dev.       110.6731   92.3488  112.7868  105.8213   81.8868  108.6981   51.7844   113.938   92.4136    0.0246   85.2848
  weight sum          4825      2347      5653       430      1206      2251     11607       980       697        12       441
  precision         0.1475    0.1475    0.1475    0.1475    0.1475    0.1475    0.1475    0.1475    0.1475    0.1475    0.1475

2Melogram(st)
  mean             51.0457   49.6417   31.6229   39.2686   47.3894   46.4994    4.8253   42.2976   52.9038    4.3435   53.1202
  std. dev.        17.3442   16.5413   27.1587   24.0506   17.6115   20.6431   15.4719   23.9194    16.369   14.4057   10.9727
  weight sum          4825      2347      5653       430      1206      2251     11607       980       697        12       441
  precision         0.0271    0.0271    0.0271    0.0271    0.0271    0.0271    0.0271    0.0271    0.0271    0.0271    0.0271

2ZCross
  mean              6.8934    4.8687    2.9077    2.0038    3.5256    3.9353    0.2426    2.3634    3.6666         0    3.6096
  std. dev.         4.5993    3.3612    4.6136    2.0839    3.3498     3.141    1.1446    2.1945    2.8883    0.1957    2.0875
  weight sum          4825      2347      5653       430      1206      2251     11607       980       697        12       441
  precision         1.1739    1.1739    1.1739    1.1739    1.1739    1.1739    1.1739    1.1739    1.1739    1.1739    1.1739

2F1(Hz)
  mean            658.1625  448.1303  340.5125  421.3901  348.8664  467.9136   53.9414  387.5882  478.0605         0  513.8187
  std. dev.       286.2026  167.3815  280.8604  272.3544  162.2662  235.6843  168.2233  237.6824   324.529    0.0605  149.6379
  weight sum          4825      2347      5653       430      1206      2251     11607       980       697        12       441
  precision         0.3628    0.3628    0.3628    0.3628    0.3628    0.3628    0.3628    0.3628    0.3628    0.3628    0.3628

2F2(Hz)
  mean           1419.2622 1706.5198 1086.9141 1239.1028 1853.8785 1129.6245  166.3602 1348.6957 1009.2259         0 1486.3363
  std. dev.       497.7941  612.0386   853.308  748.4208  761.7664  569.4748  512.7699  740.2835  490.7397    0.0742  303.8381
  weight sum          4825      2347      5653       430      1206      2251     11607       980       697        12       441
  precision         0.4452    0.4452    0.4452    0.4452    0.4452    0.4452    0.4452    0.4452    0.4452    0.4452    0.4452

2F3(Hz)
  mean           2605.2622 2528.8267 1846.3738 2115.5779 2527.1222  2440.143  285.4685  2271.328 2534.3382         0 2871.3859
  std. dev.       881.9027   904.012 1422.3879 1263.4416 1049.8927 1080.4541  863.1988 1184.8692  971.1663    0.1098  449.1931
  weight sum          4825      2347      5653       430      1206      2251     11607       980       697        12       441
  precision         0.6587    0.6587    0.6587    0.6587    0.6587    0.6587    0.6587    0.6587    0.6587    0.6587    0.6587

2F4(Hz)
  mean           3024.9811  3055.702 2112.2946 2508.5338 3015.9411 2810.7638  343.1326 2699.0169 2907.9441         0 3342.0954
  std. dev.      1010.9519 1062.5316  1616.999 1464.9089 1214.2293 1230.5926 1035.5503 1377.3282 1043.9573    0.1133  484.4215
  weight sum          4825      2347      5653       430      1206      2251     11607       980       697        12       441
  precision         0.6801    0.6801    0.6801    0.6801    0.6801    0.6801    0.6801    0.6801    0.6801    0.6801    0.6801

3Int(dB)
  mean             -4.3897   -5.4538  -16.7094  -14.9101   -9.0975     -8.32  -48.8227   -12.808   -5.7217  -27.2184    -7.865
  std. dev.         9.7701    8.3541   10.6707     9.056    8.4757   12.1084   15.7047   10.9801    8.3788    2.0706     6.066
  weight sum          4825      2347      5653       430      1206      2251     11607       980       697        12       441
  precision         0.1001    0.1001    0.1001    0.1001    0.1001    0.1001    0.1001    0.1001    0.1001    0.1001    0.1001

3Pitch(Hz)
  mean            215.1858  188.9309  118.3414  135.5009  172.4627  179.6002   15.2665  162.0524  229.1165         0  202.2266
  std. dev.       107.7136   88.8484  112.5858  107.5102   77.3033  105.0982   53.8964  110.5525    86.113    0.0243    84.159
  weight sum          4825      2347      5653       430      1206      2251     11607       980       697        12       441
  precision         0.1457    0.1457    0.1457    0.1457    0.1457    0.1457    0.1457    0.1457    0.1457    0.1457    0.1457

3RawPitch
  mean            204.8304  185.2813  100.2234   111.142  164.6635  173.0353   12.5274  147.7901  219.1052         0  197.2802
  std. dev.       113.2593   94.3657  111.6138   103.983   82.3462  111.2194   48.0554  115.4056   94.0431    0.0248   92.7599
  weight sum          4825      2347      5653       430      1206      2251     11607       980       697        12       441
  precision         0.1486    0.1486    0.1486    0.1486    0.1486    0.1486    0.1486    0.1486    0.1486    0.1486    0.1486

3SmPitch
  mean            213.0105  187.4191  111.7144  126.3464   169.864  177.2873   13.7665  157.4726  227.6752         0   201.473
  std. dev.       109.5872   90.1622  112.7946  104.6501   79.4786  107.1683    49.939  113.6823   87.0875    0.0246   85.6758
  weight sum          4825      2347      5653       430      1206      2251     11607       980       697        12       441
  precision         0.1475    0.1475    0.1475    0.1475    0.1475    0.1475    0.1475    0.1475    0.1475    0.1475    0.1475

3Melogram(st)
  mean             51.4062    50.443   31.0579    38.768   48.4372   46.7991    4.5879   42.0662   54.1423         0   53.1699
  std. dev.        16.8175   15.4134   27.2649   24.2654   16.3134   20.2997    15.144   23.9804    14.241    0.0045   10.7286
  weight sum          4825      2347      5653       430      1206      2251     11607       980       697        12       441
  precision         0.0271    0.0271    0.0271    0.0271    0.0271    0.0271    0.0271    0.0271    0.0271    0.0271    0.0271

3ZCross
  mean              6.9598    4.9057    2.8938    1.9165    3.5597    3.9697    0.2049    2.3311    3.7441         0    3.6229
  std. dev.         4.5644    3.2087    4.7395    2.0253    3.2377    2.9459    0.9759    2.0986    2.8259    0.1957    2.1011
  weight sum          4825      2347      5653       430      1206      2251     11607       980       697        12       441
  precision         1.1739    1.1739    1.1739    1.1739    1.1739    1.1739    1.1739    1.1739    1.1739    1.1739    1.1739

3F1(Hz)
  mean            671.8022  458.4701  325.7263  405.4793  358.3341  479.3066   50.4118  382.1121  490.8774         0  515.3751
  std. dev.       275.7695  153.5049  279.5075  275.9084  149.9822  228.1739  162.5836  236.5551  313.8193    0.0605  150.3453
  weight sum          4825      2347      5653       430      1206      2251     11607       980       697        12       441
  precision         0.3628    0.3628    0.3628    0.3628    0.3628    0.3628    0.3628    0.3628    0.3628    0.3628    0.3628

3F2(Hz)
  mean           1436.7855 1756.5682 1050.4025  1210.404 1934.2548 1142.3274  156.3977 1334.4278 1039.7614         0 1485.2782
  std. dev.       469.7671  558.7593  858.7423  760.5497    698.11  545.8877  498.6702  740.0834  453.9752    0.0742  309.9774
  weight sum          4825      2347      5653       430      1206      2251     11607       980       697        12       441
  precision         0.4452    0.4452    0.4452    0.4452    0.4452    0.4452    0.4452    0.4452    0.4452    0.4452    0.4452

3F3(Hz)
  mean           2640.8558 2589.9599 1785.9434 2065.6755  2617.135   2486.42  267.8992 2248.5273 2624.1187         0 2868.7121
  std. dev.       835.2949  828.9033 1435.4338 1286.9009  961.8845 1037.8263  838.7997 1187.9068   862.036    0.1098  468.1374
  weight sum          4825      2347      5653       430      1206      2251     11607       980       697        12       441
  precision         0.6587    0.6587    0.6587    0.6587    0.6587    0.6587    0.6587    0.6587    0.6587    0.6587    0.6587

3F4(Hz)
  mean           3063.4806 3123.7667 2045.6167 2456.6943 3116.8532 2862.0839  322.5881 2685.0292 3008.5041         0 3338.8508
  std. dev.       955.4282   967.012 1634.6612 1495.5033 1104.1679 1178.6146 1007.9294 1387.1463  904.6428    0.1133  509.6049
  weight sum          4825      2347      5653       430      1206      2251     11607       980       697        12       441
  precision         0.6801    0.6801    0.6801    0.6801    0.6801    0.6801    0.6801    0.6801    0.6801    0.6801    0.6801

4Int(dB)
  mean             -4.3746   -5.3083  -16.5509  -14.9621   -8.8383   -8.2927  -49.0439  -12.3369   -5.2124  -27.3626   -7.7311
  std. dev.         9.6808    8.1563   10.3341    8.8347    8.4087   12.1905   15.4157    10.602    7.6533    2.3916    6.1548
  weight sum          4825      2347      5653       430      1206      2251     11607       980       697        12       441
  precision         0.1027    0.1027    0.1027    0.1027    0.1027    0.1027    0.1027    0.1027    0.1027    0.1027    0.1027

4Pitch(Hz)
  mean            215.2971  191.0581  119.4974  133.3692  173.8339  178.5747   14.1348  163.7124  230.7901         0   201.883
  std. dev.       107.7031   87.4612  112.8369  106.8281   75.6506  104.7438   52.0172  108.8774   82.8574    0.0243    84.869
  weight sum          4825      2347      5653       430      1206      2251     11607       980       697        12       441
  precision         0.1457    0.1457    0.1457    0.1457    0.1457    0.1457    0.1457    0.1457    0.1457    0.1457    0.1457

4RawPitch
  mean            204.9722  186.7023   100.606  109.9149  166.6698  172.5426   11.6322  150.0446  221.3767         0  196.4472
  std. dev.       113.3158   93.4491  111.6521  102.8897   81.1132  110.6448   46.5665   114.114   91.1707    0.0248    92.771
  weight sum          4825      2347      5653       430      1206      2251     11607       980       697        12       441
  precision         0.1486    0.1486    0.1486    0.1486    0.1486    0.1486    0.1486    0.1486    0.1486    0.1486    0.1486

4SmPitch
  mean            213.2402  189.6338  112.4515   124.407  171.4037  176.5059   12.7092  158.6198  229.7721         0  201.3593
  std. dev.       109.3851   88.7774  113.0799   103.769   78.1033   106.636   48.0626  112.4568   83.4441    0.0246    85.928
  weight sum          4825      2347      5653       430      1206      2251     11607       980       697        12       441
  precision         0.1475    0.1475    0.1475    0.1475    0.1475    0.1475    0.1475    0.1475    0.1475    0.1475    0.1475

4Melogram(st)
  mean              51.533   50.8127   31.2207   38.4205   48.9436   46.6912    4.2927    42.399   54.8522         0     53.14
  std. dev.        16.5965   14.8245   27.3134   24.4262   15.5254   20.3122    14.704   23.6994   12.6632    0.0045   10.7598
  weight sum          4825      2347      5653       430      1206      2251     11607       980       697        12       441
  precision         0.0271    0.0271    0.0271    0.0271    0.0271    0.0271    0.0271    0.0271    0.0271    0.0271    0.0271

4ZCross
  mean              6.9593    4.8852     2.911    1.9001    3.5568    3.9781    0.1869    2.4041    3.8114         0    3.7028
  std. dev.         4.5717    3.1792    4.7748    2.0075    3.1167    2.8849    0.9421    2.0753    2.7838    0.1957    2.0838
  weight sum          4825      2347      5653       430      1206      2251     11607       980       697        12       441
  precision         1.1739    1.1739    1.1739    1.1739    1.1739    1.1739    1.1739    1.1739    1.1739    1.1739    1.1739

4F1(Hz)
  mean            682.1071   466.462  316.1813  391.2913  366.1781  486.7294   46.8725  381.3506  499.9719         0  517.4169
  std. dev.       268.0102  141.9729  277.1652  276.1702  138.5016  223.3891   156.957   233.551  304.4022    0.0605  150.5159
  weight sum          4825      2347      5653       430      1206      2251     11607       980       697        12       441
  precision         0.3628    0.3628    0.3628    0.3628    0.3628    0.3628    0.3628    0.3628    0.3628    0.3628    0.3628

4F2(Hz)
  mean           1448.2374 1796.4609 1028.9839 1193.1191 2002.2125  1145.619  145.6977 1332.6509 1063.4579         0 1484.5553
  std. dev.       448.6029  511.4411  859.8842  771.0706  633.8216   528.768  482.7575  730.2324  420.6329    0.0742  315.1872
  weight sum          4825      2347      5653       430      1206      2251     11607       980       697        12       441
  precision         0.4452    0.4452    0.4452    0.4452    0.4452    0.4452    0.4452    0.4452    0.4452    0.4452    0.4452

4F3(Hz)
  mean           2665.0519 2636.0758 1751.4014 2027.9477 2693.6179  2513.778  249.4435 2248.6819 2692.0225         0 2867.4021
  std. dev.       801.5039  763.9923   1440.86 1301.1049  876.6153 1011.4708  812.1745 1174.9913   759.659    0.1098  487.3711
  weight sum          4825      2347      5653       430      1206      2251     11607       980       697        12       441
  precision         0.6587    0.6587    0.6587    0.6587    0.6587    0.6587    0.6587    0.6587    0.6587    0.6587    0.6587

4F4(Hz)
  mean            3089.112 3175.4825 2009.2839 2421.4135 3200.0296 2890.9482  300.7336 2697.4569 3085.5469         0 3334.3495
  std. dev.       915.0775  884.6328 1644.2265 1516.9857  997.3182 1145.4649  976.9899 1376.7352  770.8999    0.1133  533.4148
  weight sum          4825      2347      5653       430      1206      2251     11607       980       697        12       441
  precision         0.6801    0.6801    0.6801    0.6801    0.6801    0.6801    0.6801    0.6801    0.6801    0.6801    0.6801





=== Stratified cross-validation ===

Correctly Classified Instances       10224               33.5775 %
Incorrectly Classified Instances     20225               66.4225 %
Kappa statistic                          0.2436
K&B Relative Info Score             633265.8097 %
K&B Information Score                16559.3052 bits      0.5438 bits/instance
Class complexity | order 0           79590.4853 bits      2.6139 bits/instance
Class complexity | scheme          1785218.4265 bits     58.6298 bits/instance
Complexity improvement     (Sf)    -1705627.9412 bits    -56.0159 bits/instance
Mean absolute error                      0.1208
Root mean squared error                  0.3394
Relative absolute error                 85.1703 %
Root relative squared error            127.4591 %
Coverage of cases (0.95 level)          37.5152 %
Mean rel. region size (0.95 level)      11.0772 %
Total Number of Instances            30449     


=== Detailed Accuracy By Class ===

                 TP Rate  FP Rate  Precision  Recall   F-Measure  MCC      ROC Area  PRC Area  Class
                 0,358    0,039    0,632      0,358    0,457      0,408    0,837     0,535     A
                 0,158    0,019    0,407      0,158    0,227      0,217    0,813     0,269     E
                 0,157    0,042    0,458      0,157    0,234      0,182    0,646     0,353     CGJLNQSRT
                 0,084    0,029    0,040      0,084    0,054      0,038    0,666     0,029     FV
                 0,277    0,024    0,327      0,277    0,300      0,274    0,850     0,253     I
                 0,005    0,003    0,140      0,005    0,010      0,013    0,699     0,142     O
                 0,544    0,031    0,915      0,544    0,683      0,595    0,908     0,873     0
                 0,008    0,004    0,067      0,008    0,015      0,012    0,675     0,054     BMP
                 0,237    0,009    0,377      0,237    0,291      0,286    0,845     0,238     U
                 0,917    0,193    0,002      0,917    0,004      0,036    0,870     0,002     DZ
                 0,800    0,306    0,037      0,800    0,071      0,127    0,835     0,053     D
Weighted Avg.    0,336    0,034    0,600      0,336    0,415      0,363    0,810     0,533     


=== Confusion Matrix ===

    a    b    c    d    e    f    g    h    i    j    k   <-- classified as
 1729   91  255  113   89   28   76    2   70  157 2215 |    a = A
  215  370  141   47  135    7   23   16   43   76 1274 |    b = E
  297  144  886  329  195   24  363   54   30 1118 2213 |    c = CGJLNQSRT
   27    7   37   36    9    0   22    2    2   66  222 |    d = FV
   67  195  104   32  334    0   27    8    7   43  389 |    e = I
  209   43  140  112   47   12   20    4   94  213 1357 |    f = O
   25   31  230  157   98    9 6320   23   13 4063  638 |    g = 0
   58   12   79   40   83    2   41    8   12  119  526 |    h = BMP
   63    5   52   16   27    4   14    3  165    5  343 |    i = U
    0    0    1    0    0    0    0    0    0   11    0 |    j = DZ
   45   10   10   14    5    0    2    0    2    0  353 |    k = D

=== Percent Confusion Matrix ===
a	b	c	d	e	f	g	h	i	j	k	
35.83	1.89	5.28	2.34	1.84	0.58	1.58	0.04	1.45	3.25	45.91	 a = A
9.16	15.76	6.01	2.0	5.75	0.3	0.98	0.68	1.83	3.24	54.28	 b = E
5.25	2.55	15.67	5.82	3.45	0.42	6.42	0.96	0.53	19.78	39.15	 c = CGJLNQSRT
6.28	1.63	8.6	8.37	2.09	0.0	5.12	0.47	0.47	15.35	51.63	 d = FV
5.56	16.17	8.62	2.65	27.69	0.0	2.24	0.66	0.58	3.57	32.26	 e = I
9.28	1.91	6.22	4.98	2.09	0.53	0.89	0.18	4.18	9.46	60.28	 f = O
0.22	0.27	1.98	1.35	0.84	0.08	54.45	0.2	0.11	35.0	5.5	 g = 0
5.92	1.22	8.06	4.08	8.47	0.2	4.18	0.82	1.22	12.14	53.67	 h = BMP
9.04	0.72	7.46	2.3	3.87	0.57	2.01	0.43	23.67	0.72	49.21	 i = U
0.0	0.0	8.33	0.0	0.0	0.0	0.0	0.0	0.0	91.67	0.0	 j = DZ
10.2	2.27	2.27	3.17	1.13	0.0	0.45	0.0	0.45	0.0	80.05	 k = D
