Timestamp:2014-12-07-11:19:10
Inventario:I4
Intervalo:15ms
Ngramas:3
Clasificador:NaiveBayes
Relation Name:  I4-15ms-3gramas
Num Instances:  12187
Num Attributes: 31

     Name                      Type  Nom  Int Real     Missing      Unique  Dist
   1 0Int(dB)                   Num   0%  10%  90%     0 /  0%    10 /  0%   768 
   2 0Pitch(Hz)                 Num   0%  50%  50%     0 /  0%   940 /  8%  2714 
   3 0RawPitch                  Num   0%  53%  47%     0 /  0%   980 /  8%  2609 
   4 0SmPitch                   Num   0%  51%  49%     0 /  0%   957 /  8%  2691 
   5 0Melogram(st)              Num   0%  46%  54%     0 /  0%   837 /  7%  2573 
   6 0ZCross                    Num   0% 100%   0%     0 /  0%    10 /  0%    40 
   7 0F1(Hz)                    Num   0%  50%  50%     0 /  0%  2281 / 19%  3977 
   8 0F2(Hz)                    Num   0%  50%  50%     0 /  0%  3848 / 32%  5158 
   9 0F3(Hz)                    Num   0%  50%  50%     0 /  0%  3419 / 28%  4850 
  10 0F4(Hz)                    Num   0%  50%  50%     0 /  0%  3319 / 27%  4764 
  11 1Int(dB)                   Num   0%  10%  90%     0 /  0%    10 /  0%   768 
  12 1Pitch(Hz)                 Num   0%  50%  50%     0 /  0%   940 /  8%  2714 
  13 1RawPitch                  Num   0%  53%  47%     0 /  0%   980 /  8%  2609 
  14 1SmPitch                   Num   0%  51%  49%     0 /  0%   957 /  8%  2691 
  15 1Melogram(st)              Num   0%  46%  54%     0 /  0%   837 /  7%  2573 
  16 1ZCross                    Num   0% 100%   0%     0 /  0%    10 /  0%    40 
  17 1F1(Hz)                    Num   0%  50%  50%     0 /  0%  2281 / 19%  3977 
  18 1F2(Hz)                    Num   0%  50%  50%     0 /  0%  3848 / 32%  5158 
  19 1F3(Hz)                    Num   0%  50%  50%     0 /  0%  3419 / 28%  4850 
  20 1F4(Hz)                    Num   0%  50%  50%     0 /  0%  3319 / 27%  4764 
  21 2Int(dB)                   Num   0%  10%  90%     0 /  0%    10 /  0%   768 
  22 2Pitch(Hz)                 Num   0%  50%  50%     0 /  0%   941 /  8%  2715 
  23 2RawPitch                  Num   0%  53%  47%     0 /  0%   979 /  8%  2609 
  24 2SmPitch                   Num   0%  51%  49%     0 /  0%   957 /  8%  2691 
  25 2Melogram(st)              Num   0%  46%  54%     0 /  0%   838 /  7%  2574 
  26 2ZCross                    Num   0% 100%   0%     0 /  0%    10 /  0%    40 
  27 2F1(Hz)                    Num   0%  50%  50%     0 /  0%  2281 / 19%  3977 
  28 2F2(Hz)                    Num   0%  50%  50%     0 /  0%  3848 / 32%  5158 
  29 2F3(Hz)                    Num   0%  50%  50%     0 /  0%  3419 / 28%  4850 
  30 2F4(Hz)                    Num   0%  50%  50%     0 /  0%  3319 / 27%  4764 
  31 class                      Nom 100%   0%   0%     0 /  0%     0 /  0%    10 


Naive Bayes Classifier

                    Class
Attribute               C         E        FV        AI CDGKNRSYZ         O         0        LT         U       MBP
                   (0.01)    (0.08)    (0.01)     (0.2)    (0.16)    (0.08)    (0.36)    (0.04)    (0.02)    (0.03)
====================================================================================================================
0Int(dB)
  mean             -6.4627   -8.2853  -11.8337    -7.329  -14.1665  -10.3306  -49.3157  -16.7022        -9  -11.7003
  std. dev.         7.0305   10.4618   10.8769    11.542   11.9083   12.5524   15.6452   13.1961   11.0737   11.7463
  weight sum            72       971       177      2492      1978       940      4416       457       285       399
  precision         0.1005    0.1005    0.1005    0.1005    0.1005    0.1005    0.1005    0.1005    0.1005    0.1005

0Pitch(Hz)
  mean            220.1143   171.376  161.8432  195.2612  144.3986  170.5933   15.1236  136.8415  208.3385  176.1634
  std. dev.        81.6494   96.7489  106.9302  111.1367  108.6394  111.0794   53.6597  108.4248  113.7908  105.3804
  weight sum            72       971       177      2492      1978       940      4416       457       285       399
  precision         0.1828    0.1828    0.1828    0.1828    0.1828    0.1828    0.1828    0.1828    0.1828    0.1828

0RawPitch
  mean            206.8753  166.4294  138.8672  185.5164  130.8286  160.9027   12.3493  118.4193  197.8707   166.948
  std. dev.        96.8329   99.7164  107.0856  114.2872  112.1418  115.9139   47.9354  108.0356  115.5032  110.5987
  weight sum            72       971       177      2492      1978       940      4416       457       285       399
  precision           0.19      0.19      0.19      0.19      0.19      0.19      0.19      0.19      0.19      0.19

0SmPitch
  mean            214.9932  169.6121  150.9116  193.2038  139.5885  167.6951   13.4413  129.0353  204.0613  174.3874
  std. dev.        89.1684     98.43  106.0938  112.3186  110.3425  112.6857   49.2449  108.5341  114.8803  107.0721
  weight sum            72       971       177      2492      1978       940      4416       457       285       399
  precision         0.1841    0.1841    0.1841    0.1841    0.1841    0.1841    0.1841    0.1841    0.1841    0.1841

0Melogram(st)
  mean             53.1112    46.364   44.3633   48.0463   38.3963   44.5801    4.5593   38.5186   46.8237   46.2526
  std. dev.        14.3107   19.9773   21.0748   19.9585   25.2445   22.3034   15.1232   24.9304     23.28   20.8639
  weight sum            72       971       177      2492      1978       940      4416       457       285       399
  precision         0.0321    0.0321    0.0321    0.0321    0.0321    0.0321    0.0321    0.0321    0.0321    0.0321

0ZCross
  mean              4.9922    4.5363    3.0523    5.7035    3.2497    3.8308    0.2319    2.1714    3.6211    2.9291
  std. dev.         2.7806    3.4214     2.753    4.7289    3.9448    3.7224    1.1941    2.3689    3.3263    2.7939
  weight sum            72       971       177      2492      1978       940      4416       457       285       399
  precision         1.1026    1.1026    1.1026    1.1026    1.1026    1.1026    1.1026    1.1026    1.1026    1.1026

0F1(Hz)
  mean            535.7328  421.4711  494.2517  550.1507  425.7911  427.7699    54.094  364.4327  447.6356  434.8028
  std. dev.       169.7117  199.8827  234.8699   314.867  267.1906  253.7566  172.0438  255.1201  351.3336  221.0826
  weight sum            72       971       177      2492      1978       940      4416       457       285       399
  precision          0.438     0.438     0.438     0.438     0.438     0.438     0.438     0.438     0.438     0.438

0F2(Hz)
  mean           1756.7643 1557.4028 1421.4392 1408.5657    1290.7 1095.9014  161.1049 1210.5793  941.4183 1481.8564
  std. dev.        461.855  715.8668  646.1569  659.4569  766.3228   642.731  507.0628  794.2976  583.0066    667.81
  weight sum            72       971       177      2492      1978       940      4416       457       285       399
  precision         0.5776    0.5776    0.5776    0.5776    0.5776    0.5776    0.5776    0.5776    0.5776    0.5776

0F3(Hz)
  mean           3050.0303 2361.5599 2423.2784  2434.961 2218.2214   2286.61  277.6514 2073.2463 2306.2699 2496.4215
  std. dev.       710.6341  1058.658 1066.6564 1070.1306 1268.6917 1195.8853  854.2277 1326.1174 1189.9252 1031.3795
  weight sum            72       971       177      2492      1978       940      4416       457       285       399
  precision         0.8494    0.8494    0.8494    0.8494    0.8494    0.8494    0.8494    0.8494    0.8494    0.8494

0F4(Hz)
  mean           3007.0152 2879.2008  2839.318 2852.8053  2552.003 2646.7638  332.5609 2351.6714 2634.9155 2926.4759
  std. dev.       708.4745 1266.1181 1221.6089 1239.1052 1444.0172 1374.1393 1021.1349 1499.0448 1307.4223 1176.9755
  weight sum            72       971       177      2492      1978       940      4416       457       285       399
  precision         0.8707    0.8707    0.8707    0.8707    0.8707    0.8707    0.8707    0.8707    0.8707    0.8707

1Int(dB)
  mean             -6.8885   -6.5035  -13.4875   -6.1455   -15.222   -8.9829   -50.013  -18.0717   -7.1056  -12.6599
  std. dev.         6.9817    9.1484    9.7297   10.3477    10.881   12.0392   14.6127   12.8879    9.4113   11.4853
  weight sum            72       971       177      2492      1978       940      4416       457       285       399
  precision         0.1005    0.1005    0.1005    0.1005    0.1005    0.1005    0.1005    0.1005    0.1005    0.1005

1Pitch(Hz)
  mean             217.664  183.4717   151.416  203.2541  134.1292  178.6603   12.1273  125.8429   222.874   169.157
  std. dev.        86.9212   90.6248  107.3372  104.7587  111.8147  105.9497   48.3511  105.8357   96.7144  107.9278
  weight sum            72       971       177      2492      1978       940      4416       457       285       399
  precision         0.1828    0.1828    0.1828    0.1828    0.1828    0.1828    0.1828    0.1828    0.1828    0.1828

1RawPitch
  mean            207.3634  179.2232  126.9095  193.5397  118.9254  170.2865    9.8346  107.1777  214.8787  156.3794
  std. dev.        98.5622   94.3626  104.8815  108.9128  113.3918  111.2599   42.7207  105.2865  100.3251  112.6669
  weight sum            72       971       177      2492      1978       940      4416       457       285       399
  precision           0.19      0.19      0.19      0.19      0.19      0.19      0.19      0.19      0.19      0.19

1SmPitch
  mean            212.5412  181.7709  140.8054  201.3193   127.951  176.3381   10.5826  118.8302  222.2202  166.7235
  std. dev.        93.8745   92.0323    105.09   106.267  112.8512  107.6496   43.6632  105.1351    96.345  110.0496
  weight sum            72       971       177      2492      1978       940      4416       457       285       399
  precision         0.1841    0.1841    0.1841    0.1841    0.1841    0.1841    0.1841    0.1841    0.1841    0.1841

1Melogram(st)
  mean             52.3404    49.433   42.1057   50.2198   35.3637    46.689    3.8391   35.6072   51.8876   44.1038
  std. dev.         15.624   16.6562   22.5058   17.4196   26.3892   20.4728   13.9988   25.7128   18.0236   22.6152
  weight sum            72       971       177      2492      1978       940      4416       457       285       399
  precision         0.0321    0.0321    0.0321    0.0321    0.0321    0.0321    0.0321    0.0321    0.0321    0.0321

1ZCross
  mean              4.6706      4.81     2.392    5.9106      3.17    4.0255    0.1446    1.8746    3.6946    2.5119
  std. dev.         2.6149    3.2495    2.3218    4.5082    4.3809    3.4165    0.8059    2.2374    3.0049    2.4124
  weight sum            72       971       177      2492      1978       940      4416       457       285       399
  precision         1.1026    1.1026    1.1026    1.1026    1.1026    1.1026    1.1026    1.1026    1.1026    1.1026

1F1(Hz)
  mean            525.8346  448.7867   455.282  586.2685   386.621  460.8448   44.5047  323.8619  479.4518  407.9579
  std. dev.       172.0577  167.2097   257.875   293.961  276.6551  237.0895  156.5715  253.7036  324.8579  229.4716
  weight sum            72       971       177      2492      1978       940      4416       457       285       399
  precision          0.438     0.438     0.438     0.438     0.438     0.438     0.438     0.438     0.438     0.438

1F2(Hz)
  mean           1769.2148 1697.5367 1319.8463 1496.2409 1188.9884 1136.7816  133.6364 1108.9212 1012.0156 1414.0003
  std. dev.       473.0726  606.8332  697.8781  594.1446  808.3803   583.467  464.4079  823.6593  498.3854  704.2441
  weight sum            72       971       177      2492      1978       940      4416       457       285       399
  precision         0.5776    0.5776    0.5776    0.5776    0.5776    0.5776    0.5776    0.5776    0.5776    0.5776

1F3(Hz)
  mean           3038.7871 2529.5236  2267.597 2571.1607 2045.5555 2424.0221  231.1637 1899.0587 2541.1097 2386.6296
  std. dev.       719.1425  892.9521 1184.2012  934.1649 1351.1031 1093.5808   786.435  1389.432  990.0091 1113.8644
  weight sum            72       971       177      2492      1978       940      4416       457       285       399
  precision         0.8494    0.8494    0.8494    0.8494    0.8494    0.8494    0.8494    0.8494    0.8494    0.8494

1F4(Hz)
  mean           3022.0342 3071.5364  2669.134 3007.8202 2357.0615 2797.3211  277.5098 2164.0925 2890.5441 2816.2806
  std. dev.       721.0039 1053.8859 1361.3599 1076.2246 1544.7102  1248.566   942.466 1575.1145 1057.0684 1281.9024
  weight sum            72       971       177      2492      1978       940      4416       457       285       399
  precision         0.8707    0.8707    0.8707    0.8707    0.8707    0.8707    0.8707    0.8707    0.8707    0.8707

2Int(dB)
  mean             -7.3814   -5.5049  -14.3263   -5.5634  -15.8981   -8.3852  -50.5594  -17.1661   -5.5692  -12.4692
  std. dev.         7.5828    8.2833    8.9225    9.7169    9.9293   12.0282   13.7511   11.6644    7.6498    10.584
  weight sum            72       971       177      2492      1978       940      4416       457       285       399
  precision         0.1005    0.1005    0.1005    0.1005    0.1005    0.1005    0.1005    0.1005    0.1005    0.1005

2Pitch(Hz)
  mean            215.8451  189.9846   145.764  206.5395  129.4782  180.3637    9.3592  135.4247  231.3108  169.0755
  std. dev.        91.5699   87.3032  105.9069  101.8371  112.9128  102.9621   43.0337  103.0969   84.4017  105.9927
  weight sum            72       971       177      2492      1978       940      4416       457       285       399
  precision         0.1828    0.1828    0.1828    0.1828    0.1828    0.1828    0.1828    0.1828    0.1828    0.1828

2RawPitch
  mean            203.5794  186.8578  119.8712  197.2851  112.5058  174.1912    7.3688  114.3405  222.5963   155.219
  std. dev.       105.2011   91.2535  101.1981  106.4076  112.9306  108.1025   36.8772  104.3146   90.9444  111.9695
  weight sum            72       971       177      2492      1978       940      4416       457       285       399
  precision           0.19      0.19      0.19      0.19      0.19      0.19      0.19      0.19      0.19      0.19

2SmPitch
  mean            210.7412  188.6266  135.2172  204.8157  122.7236  178.2642    8.0645  127.4981  230.9021  164.9116
  std. dev.        98.1062   88.6539  102.9917  103.2111  113.5818  104.6347   38.1459  103.8429   84.0603  109.5012
  weight sum            72       971       177      2492      1978       940      4416       457       285       399
  precision         0.1841    0.1841    0.1841    0.1841    0.1841    0.1841    0.1841    0.1841    0.1841    0.1841

2Melogram(st)
  mean             51.6383   50.9897   40.8426   51.2928   34.0468   47.3663    3.0766   36.8907   54.7393   44.2448
  std. dev.        16.8042   14.4101   23.1702   15.7782   26.8437   19.6193   12.6727   25.3688   13.2895   22.4965
  weight sum            72       971       177      2492      1978       940      4416       457       285       399
  precision         0.0321    0.0321    0.0321    0.0321    0.0321    0.0321    0.0321    0.0321    0.0321    0.0321

2ZCross
  mean              4.4562    4.8701    2.1179    6.0123    3.1132    4.0889    0.1006    1.8915    3.8532    2.3765
  std. dev.         2.5024    2.9907    2.1208    4.4254    4.6631     2.998    0.6801    2.0168    2.8492    2.1579
  weight sum            72       971       177      2492      1978       940      4416       457       285       399
  precision         1.1026    1.1026    1.1026    1.1026    1.1026    1.1026    1.1026    1.1026    1.1026    1.1026

2F1(Hz)
  mean            510.8869  469.1052  420.1259  617.6044   352.133  487.7924   34.4895  314.6902  504.5577  391.9946
  std. dev.       175.1628  136.7924  268.8685  272.6598  277.7886   218.941  138.1474  246.2031   299.786  227.7233
  weight sum            72       971       177      2492      1978       940      4416       457       285       399
  precision          0.438     0.438     0.438     0.438     0.438     0.438     0.438     0.438     0.438     0.438

2F2(Hz)
  mean           1734.4383 1803.6497 1256.0162 1569.0834 1104.7679 1164.8777  104.1934 1101.9861 1075.9553 1374.8709
  std. dev.       519.4319  490.0179  726.8151  525.9317  830.4125   526.346  413.0188  820.1762   411.661  707.8796
  weight sum            72       971       177      2492      1978       940      4416       457       285       399
  precision         0.5776    0.5776    0.5776    0.5776    0.5776    0.5776    0.5776    0.5776    0.5776    0.5776

2F3(Hz)
  mean           2990.6054 2651.8402 2156.9356 2684.0978 1904.5307 2529.7403  181.0252 1887.9603 2728.7599 2325.0319
  std. dev.       804.4948  731.0473 1243.2456  791.9699  1397.093  990.6689   703.345 1394.7315   731.591 1133.6314
  weight sum            72       971       177      2492      1978       940      4416       457       285       399
  precision         0.8494    0.8494    0.8494    0.8494    0.8494    0.8494    0.8494    0.8494    0.8494    0.8494

2F4(Hz)
  mean           2990.2306 3206.8695 2560.0986 3131.1849 2202.8521 2916.3463  217.3015 2162.6617 3100.5588 2772.6162
  std. dev.       811.3198  845.6004 1438.2149  905.1559 1606.8749 1123.3047  842.6819 1587.2774  725.9921 1317.5612
  weight sum            72       971       177      2492      1978       940      4416       457       285       399
  precision         0.8707    0.8707    0.8707    0.8707    0.8707    0.8707    0.8707    0.8707    0.8707    0.8707





=== Stratified cross-validation ===

Correctly Classified Instances        5813               47.6984 %
Incorrectly Classified Instances      6374               52.3016 %
Kappa statistic                          0.3546
K&B Relative Info Score             413107.2642 %
K&B Information Score                10742.1174 bits      0.8814 bits/instance
Class complexity | order 0           31672.3435 bits      2.5989 bits/instance
Class complexity | scheme           191465.9426 bits     15.7107 bits/instance
Complexity improvement     (Sf)    -159793.5992 bits    -13.1118 bits/instance
Mean absolute error                      0.1051
Root mean squared error                  0.2915
Relative absolute error                 66.9205 %
Root relative squared error            104.0307 %
Coverage of cases (0.95 level)          60.5809 %
Mean rel. region size (0.95 level)      19.0867 %
Total Number of Instances            12187     


=== Detailed Accuracy By Class ===

                 TP Rate  FP Rate  Precision  Recall   F-Measure  MCC      ROC Area  PRC Area  Class
                 0,500    0,150    0,019      0,500    0,037      0,075    0,780     0,018     C
                 0,491    0,183    0,188      0,491    0,272      0,205    0,789     0,230     E
                 0,068    0,019    0,050      0,068    0,057      0,042    0,731     0,033     FV
                 0,308    0,037    0,680      0,308    0,424      0,377    0,819     0,547     AI
                 0,153    0,024    0,552      0,153    0,239      0,229    0,726     0,366     CDGKNRSYZ
                 0,012    0,004    0,204      0,012    0,022      0,032    0,758     0,186     O
                 0,915    0,097    0,843      0,915    0,878      0,806    0,943     0,876     0
                 0,123    0,047    0,092      0,123    0,105      0,065    0,708     0,073     LT
                 0,354    0,015    0,366      0,354    0,360      0,345    0,857     0,277     U
                 0,023    0,012    0,060      0,023    0,033      0,017    0,724     0,062     MBP
Weighted Avg.    0,477    0,065    0,580      0,477    0,481      0,437    0,834     0,533     


=== Confusion Matrix ===

    a    b    c    d    e    f    g    h    i    j   <-- classified as
   36   25    2    5    2    0    2    0    0    0 |    a = C
  269  477    4   73   27    7   33   62   12    7 |    b = E
   40   64   12    8   15    0   21   15    1    1 |    c = FV
  530  747   46  768   67   26   98  153   39   18 |    d = AI
  465  463   83  120  302    3  355  127   12   48 |    e = CDGKNRSYZ
  186  349   33   81   26   11   86   69   86   13 |    f = O
   74   76   37   22   68    4 4041   62    5   27 |    g = 0
   88  141   11    8   19    1  108   56    4   21 |    h = LT
   51   54    2   27    5    1    5   33  101    6 |    i = U
  113  139   11   18   16    1   42   34   16    9 |    j = MBP

=== Percent Confusion Matrix ===
a	b	c	d	e	f	g	h	i	j	
50.0	34.72	2.78	6.94	2.78	0.0	2.78	0.0	0.0	0.0	 a = C
27.7	49.12	0.41	7.52	2.78	0.72	3.4	6.39	1.24	0.72	 b = E
22.6	36.16	6.78	4.52	8.47	0.0	11.86	8.47	0.56	0.56	 c = FV
21.27	29.98	1.85	30.82	2.69	1.04	3.93	6.14	1.57	0.72	 d = AI
23.51	23.41	4.2	6.07	15.27	0.15	17.95	6.42	0.61	2.43	 e = CDGKNRSYZ
19.79	37.13	3.51	8.62	2.77	1.17	9.15	7.34	9.15	1.38	 f = O
1.68	1.72	0.84	0.5	1.54	0.09	91.51	1.4	0.11	0.61	 g = 0
19.26	30.85	2.41	1.75	4.16	0.22	23.63	12.25	0.88	4.6	 h = LT
17.89	18.95	0.7	9.47	1.75	0.35	1.75	11.58	35.44	2.11	 i = U
28.32	34.84	2.76	4.51	4.01	0.25	10.53	8.52	4.01	2.26	 j = MBP
