Timestamp:2014-12-07-11:18:45
Inventario:I4
Intervalo:10ms
Ngramas:3
Clasificador:NaiveBayes
Relation Name:  I4-10ms-3gramas
Num Instances:  18294
Num Attributes: 31

     Name                      Type  Nom  Int Real     Missing      Unique  Dist
   1 0Int(dB)                   Num   0%  10%  90%     0 /  0%     7 /  0%   772 
   2 0Pitch(Hz)                 Num   0%  51%  49%     0 /  0%   816 /  4%  3063 
   3 0RawPitch                  Num   0%  54%  46%     0 /  0%   853 /  5%  2955 
   4 0SmPitch                   Num   0%  52%  48%     0 /  0%   827 /  5%  3024 
   5 0Melogram(st)              Num   0%  47%  53%     0 /  0%   581 /  3%  2807 
   6 0ZCross                    Num   0% 100%   0%     0 /  0%    10 /  0%    42 
   7 0F1(Hz)                    Num   0%  51%  49%     0 /  0%  2131 / 12%  4724 
   8 0F2(Hz)                    Num   0%  51%  49%     0 /  0%  4210 / 23%  6615 
   9 0F3(Hz)                    Num   0%  51%  49%     0 /  0%  3688 / 20%  6145 
  10 0F4(Hz)                    Num   0%  51%  49%     0 /  0%  3689 / 20%  6054 
  11 1Int(dB)                   Num   0%  10%  90%     0 /  0%     7 /  0%   772 
  12 1Pitch(Hz)                 Num   0%  51%  49%     0 /  0%   816 /  4%  3063 
  13 1RawPitch                  Num   0%  54%  46%     0 /  0%   853 /  5%  2955 
  14 1SmPitch                   Num   0%  52%  48%     0 /  0%   827 /  5%  3024 
  15 1Melogram(st)              Num   0%  47%  53%     0 /  0%   581 /  3%  2807 
  16 1ZCross                    Num   0% 100%   0%     0 /  0%    10 /  0%    42 
  17 1F1(Hz)                    Num   0%  51%  49%     0 /  0%  2131 / 12%  4724 
  18 1F2(Hz)                    Num   0%  51%  49%     0 /  0%  4210 / 23%  6615 
  19 1F3(Hz)                    Num   0%  51%  49%     0 /  0%  3688 / 20%  6145 
  20 1F4(Hz)                    Num   0%  51%  49%     0 /  0%  3689 / 20%  6054 
  21 2Int(dB)                   Num   0%  10%  90%     0 /  0%     7 /  0%   772 
  22 2Pitch(Hz)                 Num   0%  51%  49%     0 /  0%   817 /  4%  3064 
  23 2RawPitch                  Num   0%  54%  46%     0 /  0%   854 /  5%  2956 
  24 2SmPitch                   Num   0%  52%  48%     0 /  0%   828 /  5%  3025 
  25 2Melogram(st)              Num   0%  47%  53%     0 /  0%   582 /  3%  2808 
  26 2ZCross                    Num   0% 100%   0%     0 /  0%    10 /  0%    42 
  27 2F1(Hz)                    Num   0%  51%  49%     0 /  0%  2131 / 12%  4724 
  28 2F2(Hz)                    Num   0%  51%  49%     0 /  0%  4210 / 23%  6615 
  29 2F3(Hz)                    Num   0%  51%  49%     0 /  0%  3688 / 20%  6145 
  30 2F4(Hz)                    Num   0%  51%  49%     0 /  0%  3689 / 20%  6054 
  31 class                      Nom 100%   0%   0%     0 /  0%     0 /  0%    10 


Naive Bayes Classifier

                    Class
Attribute               C         E        FV        AI CDGKNRSYZ         O         0        LT         U       MBP
                   (0.01)    (0.08)    (0.01)     (0.2)    (0.16)    (0.08)    (0.37)    (0.04)    (0.02)    (0.03)
====================================================================================================================
0Int(dB)
  mean             -7.0016   -6.9781   -13.453   -6.3329  -15.0396   -9.2289  -48.9829   -18.344    -7.821  -12.6892
  std. dev.         7.3095     9.587    9.9848   10.6492   11.2462   12.1503   15.8892   13.3214   10.4376   11.7406
  weight sum           107      1438       261      3688      2933      1377      6796       677       423       594
  precision         0.1005    0.1005    0.1005    0.1005    0.1005    0.1005    0.1005    0.1005    0.1005    0.1005

0Pitch(Hz)
  mean            219.2614  179.7817  147.5196  200.9328  133.3928  175.9738   15.5414  119.7295  217.8099  166.9471
  std. dev.        91.8205   93.2543  107.4902  107.3968  112.2156  108.3955   54.3341  107.3728   101.251  109.8658
  weight sum           107      1438       261      3688      2933      1377      6796       677       423       594
  precision         0.1626    0.1626    0.1626    0.1626    0.1626    0.1626    0.1626    0.1626    0.1626    0.1626

0RawPitch
  mean             208.703  175.0704  125.4184  190.3913  117.8787  167.5572   12.9568  102.8483  208.6619  153.9342
  std. dev.       102.9477    97.669  107.1313  111.9338  114.2722  114.1306   49.1179  104.6379  106.1879  113.8843
  weight sum           107      1438       261      3688      2933      1377      6796       677       423       594
  precision         0.1679    0.1679    0.1679    0.1679    0.1679    0.1679    0.1679    0.1679    0.1679    0.1679

0SmPitch
  mean            217.4467  177.2466  139.8605  198.6154  128.3973  173.3248   13.9203  115.2132  215.6213  163.7838
  std. dev.        94.1938   95.7152  105.8427   108.961  113.3215   110.039   50.3031  106.8974  102.5619  111.3474
  weight sum           107      1438       261      3688      2933      1377      6796       677       423       594
  precision         0.1647    0.1647    0.1647    0.1647    0.1647    0.1647    0.1647    0.1647    0.1647    0.1647

0Melogram(st)
  mean              52.783   48.2348   41.8303   49.4355   35.4275   45.7502    4.6135    34.284   50.2186   43.8398
  std. dev.        15.3641   18.1696   22.7672   18.4609   26.3801   21.3432   15.1924    26.197   19.9908   22.8015
  weight sum           107      1438       261      3688      2933      1377      6796       677       423       594
  precision         0.0294    0.0294    0.0294    0.0294    0.0294    0.0294    0.0294    0.0294    0.0294    0.0294

0ZCross
  mean              4.6512     4.777    2.4071    5.9107    3.1442    3.9062    0.2452    1.8216    3.5022    2.4526
  std. dev.         2.9353    3.5473    2.4072    4.6692    4.4336    3.5254    1.2666    2.2569    3.0347    2.4563
  weight sum           107      1438       261      3688      2933      1377      6796       677       423       594
  precision         1.2927    1.2927    1.2927    1.2927    1.2927    1.2927    1.2927    1.2927    1.2927    1.2927

0F1(Hz)
  mean            521.4647  432.7945  457.1842  576.7681   389.737   450.362   53.5772  323.1748  460.9396  403.2101
  std. dev.       179.3598  184.6991   256.028  301.8607     277.4  244.3368  169.3511  261.8126  335.9081  236.5419
  weight sum           107      1438       261      3688      2933      1377      6796       677       423       594
  precision         0.3688    0.3688    0.3688    0.3688    0.3688    0.3688    0.3688    0.3688    0.3688    0.3688

0F2(Hz)
  mean           1746.4904 1632.6744 1322.7123 1470.1943 1190.2888 1117.1452  162.6355 1086.0644  979.7948  1390.089
  std. dev.       504.7605   673.554  699.8891  615.8943  806.2202  603.6027  507.4221   832.925  538.5145    729.41
  weight sum           107      1438       261      3688      2933      1377      6796       677       423       594
  precision         0.4504    0.4504    0.4504    0.4504    0.4504    0.4504    0.4504    0.4504    0.4504    0.4504

0F3(Hz)
  mean           3010.0494 2447.1049 2268.6436  2533.848 2049.2265 2373.7752  279.3828 1854.2511 2430.7754 2335.5553
  std. dev.       772.6826  996.0136  1175.068  979.1218 1345.9914 1134.1201  854.3516  1399.832  1089.578  1153.522
  weight sum           107      1438       261      3688      2933      1377      6796       677       423       594
  precision         0.6705    0.6705    0.6705    0.6705    0.6705    0.6705    0.6705    0.6705    0.6705    0.6705

0F4(Hz)
  mean           2997.2301  2953.752 2681.0905 2960.0494 2367.1259 2740.1433  336.4594 2123.7254 2777.4425  2763.331
  std. dev.       775.7465 1176.1247 1356.4028   1128.24 1542.8598 1297.7013 1026.7447  1593.511 1184.8746  1333.663
  weight sum           107      1438       261      3688      2933      1377      6796       677       423       594
  precision         0.6851    0.6851    0.6851    0.6851    0.6851    0.6851    0.6851    0.6851    0.6851    0.6851

1Int(dB)
  mean             -7.3322   -5.9386   -14.457   -5.6784   -15.618    -8.538  -49.4521  -18.4889    -6.523  -12.9285
  std. dev.         7.6223    8.7524    9.1174    9.9846     10.45   12.0283   15.1913   12.6608    9.2325   11.2858
  weight sum           107      1438       261      3688      2933      1377      6796       677       423       594
  precision         0.1005    0.1005    0.1005    0.1005    0.1005    0.1005    0.1005    0.1005    0.1005    0.1005

1Pitch(Hz)
  mean            218.1275  187.1289  141.0758  205.2387  127.0197   180.298   13.6898  118.1534  226.0414  164.0251
  std. dev.        95.0512   89.1848  107.2369   103.862  113.3109  104.9788   51.1501  105.4677   90.8899  110.3131
  weight sum           107      1438       261      3688      2933      1377      6796       677       423       594
  precision         0.1626    0.1626    0.1626    0.1626    0.1626    0.1626    0.1626    0.1626    0.1626    0.1626

1RawPitch
  mean            206.6453  182.7671  118.1042   194.723  111.0724  173.1119   11.1138   99.3424  217.7899  151.3042
  std. dev.       107.5275   93.8486  105.1012  108.9604  114.3242   111.182   45.2383  102.4698   96.3272  114.0339
  weight sum           107      1438       261      3688      2933      1377      6796       677       423       594
  precision         0.1679    0.1679    0.1679    0.1679    0.1679    0.1679    0.1679    0.1679    0.1679    0.1679

1SmPitch
  mean            216.3151  185.0532  133.6333  203.0017  121.5226  177.9648   12.1427  112.8848  225.0495  160.0578
  std. dev.        97.3174    91.154  104.9032  105.5608  114.1845  106.8233     46.89  104.8411   91.3186  112.2555
  weight sum           107      1438       261      3688      2933      1377      6796       677       423       594
  precision         0.1647    0.1647    0.1647    0.1647    0.1647    0.1647    0.1647    0.1647    0.1647    0.1647

1Melogram(st)
  mean             52.3042   50.1673   40.1599   50.6646   33.5543   46.7989    4.1827   33.5997   52.9506   42.9332
  std. dev.        16.2008    15.729   23.6891   16.8735   26.8996   20.3195   14.5496   26.2392   16.4082   23.4206
  weight sum           107      1438       261      3688      2933      1377      6796       677       423       594
  precision         0.0294    0.0294    0.0294    0.0294    0.0294    0.0294    0.0294    0.0294    0.0294    0.0294

1ZCross
  mean              4.4338    4.8777    2.0356    6.0537    3.1165    4.0104    0.1759    1.7089    3.6091    2.2633
  std. dev.         2.8448    3.2885    2.1197    4.5907    4.7317    3.2415    0.9112    2.0853     2.929    2.1902
  weight sum           107      1438       261      3688      2933      1377      6796       677       423       594
  precision         1.2927    1.2927    1.2927    1.2927    1.2927    1.2927    1.2927    1.2927    1.2927    1.2927

1F1(Hz)
  mean            508.9472  452.4055  427.4933  601.6725  361.7945  474.0843   46.3563  304.5369  482.6221  387.8062
  std. dev.        182.517  159.6131  266.6231   285.672  280.8176  229.5879  157.5769   257.521  319.3509  236.7462
  weight sum           107      1438       261      3688      2933      1377      6796       677       423       594
  precision         0.3688    0.3688    0.3688    0.3688    0.3688    0.3688    0.3688    0.3688    0.3688    0.3688

1F2(Hz)
  mean           1730.5088 1730.4304 1255.6134 1529.4088 1117.0915 1149.4791  141.6984 1045.9701 1027.4385 1355.9289
  std. dev.       532.3332  583.9406  728.5852   564.757  826.5133  557.6755  475.9233  838.9015  482.4236   740.105
  weight sum           107      1438       261      3688      2933      1377      6796       677       423       594
  precision         0.4504    0.4504    0.4504    0.4504    0.4504    0.4504    0.4504    0.4504    0.4504    0.4504

1F3(Hz)
  mean           2976.1527 2566.2209 2161.8658 2625.3755  1927.844 2474.5963   243.839 1787.0178 2578.9648 2275.3297
  std. dev.       827.9906  864.4824 1236.4745  873.1643 1389.7671 1047.0894  803.7972 1417.9226   937.242 1178.2882
  weight sum           107      1438       261      3688      2933      1377      6796       677       423       594
  precision         0.6705    0.6705    0.6705    0.6705    0.6705    0.6705    0.6705    0.6705    0.6705    0.6705

1F4(Hz)
  mean           2973.4111 3090.2109 2569.1202 3063.7655 2228.6958 2853.8724  293.9451 2052.3429 2942.8419  2712.388
  std. dev.       831.3383 1010.4123  1435.181  1001.764 1597.0415 1192.6404  966.7807 1617.2317  994.8814 1372.7244
  weight sum           107      1438       261      3688      2933      1377      6796       677       423       594
  precision         0.6851    0.6851    0.6851    0.6851    0.6851    0.6851    0.6851    0.6851    0.6851    0.6851

2Int(dB)
  mean              -7.615   -5.4216  -14.8768   -5.4273   -15.907   -8.3525  -49.8209   -17.257   -5.5461  -12.4295
  std. dev.         7.8549    8.2134    8.5952    9.7157    9.8974   12.1594    14.616   11.8848    7.9501   10.5978
  weight sum           107      1438       261      3688      2933      1377      6796       677       423       594
  precision         0.1005    0.1005    0.1005    0.1005    0.1005    0.1005    0.1005    0.1005    0.1005    0.1005

2Pitch(Hz)
  mean            217.1294  190.3918  138.4937  206.5475  125.7212  179.1301   11.8136  127.2198  230.9859  166.0775
  std. dev.          97.99   87.4257  106.1938  102.6023  113.8857   103.979   47.9018  104.5917   83.0165  107.8218
  weight sum           107      1438       261      3688      2933      1377      6796       677       423       594
  precision         0.1626    0.1626    0.1626    0.1626    0.1626    0.1626    0.1626    0.1626    0.1626    0.1626

2RawPitch
  mean             203.988  186.9416  114.3432  196.5165  108.2636  172.8881    9.4611  108.5129  221.8351  152.1597
  std. dev.       111.7049   92.1579  102.4081  107.8174  114.0645  110.0663   41.8753  102.4682   90.5835   112.921
  weight sum           107      1438       261      3688      2933      1377      6796       677       423       594
  precision         0.1679    0.1679    0.1679    0.1679    0.1679    0.1679    0.1679    0.1679    0.1679    0.1679

2SmPitch
  mean            215.3063  188.8901  131.3637  204.4857  119.6298  177.1958    10.224  122.4141  230.1655   161.354
  std. dev.       100.1796   88.8533  103.6517  104.2821  114.6634  105.5718   43.0567  104.5656   83.5323   110.475
  weight sum           107      1438       261      3688      2933      1377      6796       677       423       594
  precision         0.1647    0.1647    0.1647    0.1647    0.1647    0.1647    0.1647    0.1647    0.1647    0.1647

2Melogram(st)
  mean             51.8536    50.757   39.8199   51.1396   32.9778   46.9889    3.6603   35.8749   54.7081   43.3262
  std. dev.        16.9829   14.7786   23.9008   16.1076   27.1031   20.0024   13.7168   25.7164      13.2   23.0622
  weight sum           107      1438       261      3688      2933      1377      6796       677       423       594
  precision         0.0294    0.0294    0.0294    0.0294    0.0294    0.0294    0.0294    0.0294    0.0294    0.0294

2ZCross
  mean              4.3613    4.8831     1.892    6.1024    3.1024    4.0329    0.1408    1.8063     3.713    2.2589
  std. dev.         2.7409    3.1607    1.9842    4.5486    4.8997    2.9611    0.7914    2.0083    2.8728    2.0707
  weight sum           107      1438       261      3688      2933      1377      6796       677       423       594
  precision         1.2927    1.2927    1.2927    1.2927    1.2927    1.2927    1.2927    1.2927    1.2927    1.2927

2F1(Hz)
  mean            500.5551  467.7497  399.7197  620.2592  340.6224  488.3137   40.0701  301.5955  499.4556  383.8168
  std. dev.       184.0787  137.6849  273.4014  272.7775  280.0634  220.1308  146.5336  251.2771   302.477  232.2972
  weight sum           107      1438       261      3688      2933      1377      6796       677       423       594
  precision         0.3688    0.3688    0.3688    0.3688    0.3688    0.3688    0.3688    0.3688    0.3688    0.3688

2F2(Hz)
  mean            1706.467 1804.3312 1203.5318 1571.1457 1064.7521 1157.6298  123.4876 1056.1009 1072.0404 1349.6905
  std. dev.       559.5245  496.1344  754.0967  523.0015   835.656  525.4581   446.987  834.8657  424.8655  728.3086
  weight sum           107      1438       261      3688      2933      1377      6796       677       423       594
  precision         0.4504    0.4504    0.4504    0.4504    0.4504    0.4504    0.4504    0.4504    0.4504    0.4504

2F3(Hz)
  mean           2943.5343 2653.2835 2069.2644  2688.852 1843.0025 2526.8298  212.0685 1805.2244 2703.6172 2268.8241
  std. dev.       876.6084  742.6344 1282.9054  785.4546 1412.8812  995.0347   754.286 1419.6008  758.4179 1165.0514
  weight sum           107      1438       261      3688      2933      1377      6796       677       423       594
  precision         0.6705    0.6705    0.6705    0.6705    0.6705    0.6705    0.6705    0.6705    0.6705    0.6705

2F4(Hz)
  mean           2953.1522 3189.0151 2471.0333 3135.5866 2133.8449 2910.5036  256.0406 2071.6081 3086.4504 2720.5333
  std. dev.       883.5322  856.4692 1495.7988  897.0935 1628.0142 1127.9374  908.4214 1617.3773  766.0819 1363.5495
  weight sum           107      1438       261      3688      2933      1377      6796       677       423       594
  precision         0.6851    0.6851    0.6851    0.6851    0.6851    0.6851    0.6851    0.6851    0.6851    0.6851





=== Stratified cross-validation ===

Correctly Classified Instances        9225               50.4264 %
Incorrectly Classified Instances      9069               49.5736 %
Kappa statistic                          0.3763
K&B Relative Info Score             663325.2573 %
K&B Information Score                17135.238  bits      0.9367 bits/instance
Class complexity | order 0           47240.5333 bits      2.5823 bits/instance
Class complexity | scheme           290939.7486 bits     15.9036 bits/instance
Complexity improvement     (Sf)    -243699.2153 bits    -13.3213 bits/instance
Mean absolute error                      0.0999
Root mean squared error                  0.2842
Relative absolute error                 63.9901 %
Root relative squared error            101.7255 %
Coverage of cases (0.95 level)          62.0805 %
Mean rel. region size (0.95 level)      18.5733 %
Total Number of Instances            18294     


=== Detailed Accuracy By Class ===

                 TP Rate  FP Rate  Precision  Recall   F-Measure  MCC      ROC Area  PRC Area  Class
                 0,318    0,071    0,026      0,318    0,048      0,073    0,777     0,022     C
                 0,592    0,225    0,184      0,592    0,280      0,228    0,804     0,248     E
                 0,073    0,025    0,041      0,073    0,052      0,036    0,739     0,032     FV
                 0,397    0,048    0,677      0,397    0,501      0,434    0,831     0,581     AI
                 0,124    0,014    0,622      0,124    0,206      0,228    0,732     0,371     CDGKNRSYZ
                 0,028    0,005    0,328      0,028    0,051      0,076    0,766     0,189     O
                 0,910    0,115    0,824      0,910    0,865      0,781    0,946     0,900     0
                 0,127    0,043    0,101      0,127    0,112      0,075    0,706     0,078     LT
                 0,404    0,020    0,326      0,404    0,361      0,346    0,857     0,319     U
                 0,020    0,006    0,097      0,020    0,033      0,030    0,724     0,061     MBP
Weighted Avg.    0,504    0,076    0,596      0,504    0,496      0,451    0,842     0,558     


=== Confusion Matrix ===

    a    b    c    d    e    f    g    h    i    j   <-- classified as
   34   49    1   12    2    0    4    3    2    0 |    a = C
  230  852   16  139   32    5   53   79   19   13 |    b = E
   26  113   19   20   11    2   48   19    3    0 |    c = FV
  345 1273   87 1465   81   30  160  184   52   11 |    d = AI
  350  879  160  230  363   14  639  202   59   37 |    e = CDGKNRSYZ
  111  621   63  140   21   38  132   84  162    5 |    f = O
   48  230   72   59   50   18 6185   96   11   27 |    g = 0
   73  243   22   23   11    5  192   86    6   16 |    h = LT
   34  108    6   42    0    4   10   45  171    3 |    i = U
   67  269   21   35   13    0   83   54   40   12 |    j = MBP

=== Percent Confusion Matrix ===
a	b	c	d	e	f	g	h	i	j	
31.78	45.79	0.93	11.21	1.87	0.0	3.74	2.8	1.87	0.0	 a = C
15.99	59.25	1.11	9.67	2.23	0.35	3.69	5.49	1.32	0.9	 b = E
9.96	43.3	7.28	7.66	4.21	0.77	18.39	7.28	1.15	0.0	 c = FV
9.35	34.52	2.36	39.72	2.2	0.81	4.34	4.99	1.41	0.3	 d = AI
11.93	29.97	5.46	7.84	12.38	0.48	21.79	6.89	2.01	1.26	 e = CDGKNRSYZ
8.06	45.1	4.58	10.17	1.53	2.76	9.59	6.1	11.76	0.36	 f = O
0.71	3.38	1.06	0.87	0.74	0.26	91.01	1.41	0.16	0.4	 g = 0
10.78	35.89	3.25	3.4	1.62	0.74	28.36	12.7	0.89	2.36	 h = LT
8.04	25.53	1.42	9.93	0.0	0.95	2.36	10.64	40.43	0.71	 i = U
11.28	45.29	3.54	5.89	2.19	0.0	13.97	9.09	6.73	2.02	 j = MBP
