Timestamp:2014-12-07-11:18:50
Inventario:I4
Intervalo:10ms
Ngramas:4
Clasificador:NaiveBayes
Relation Name:  I4-10ms-4gramas
Num Instances:  18293
Num Attributes: 41

     Name                      Type  Nom  Int Real     Missing      Unique  Dist
   1 0Int(dB)                   Num   0%  10%  90%     0 /  0%     7 /  0%   772 
   2 0Pitch(Hz)                 Num   0%  51%  49%     0 /  0%   816 /  4%  3063 
   3 0RawPitch                  Num   0%  54%  46%     0 /  0%   853 /  5%  2955 
   4 0SmPitch                   Num   0%  52%  48%     0 /  0%   827 /  5%  3024 
   5 0Melogram(st)              Num   0%  47%  53%     0 /  0%   581 /  3%  2807 
   6 0ZCross                    Num   0% 100%   0%     0 /  0%    10 /  0%    42 
   7 0F1(Hz)                    Num   0%  51%  49%     0 /  0%  2131 / 12%  4724 
   8 0F2(Hz)                    Num   0%  51%  49%     0 /  0%  4210 / 23%  6615 
   9 0F3(Hz)                    Num   0%  51%  49%     0 /  0%  3688 / 20%  6145 
  10 0F4(Hz)                    Num   0%  51%  49%     0 /  0%  3689 / 20%  6054 
  11 1Int(dB)                   Num   0%  10%  90%     0 /  0%     7 /  0%   772 
  12 1Pitch(Hz)                 Num   0%  51%  49%     0 /  0%   816 /  4%  3063 
  13 1RawPitch                  Num   0%  54%  46%     0 /  0%   853 /  5%  2955 
  14 1SmPitch                   Num   0%  52%  48%     0 /  0%   827 /  5%  3024 
  15 1Melogram(st)              Num   0%  47%  53%     0 /  0%   581 /  3%  2807 
  16 1ZCross                    Num   0% 100%   0%     0 /  0%    10 /  0%    42 
  17 1F1(Hz)                    Num   0%  51%  49%     0 /  0%  2131 / 12%  4724 
  18 1F2(Hz)                    Num   0%  51%  49%     0 /  0%  4210 / 23%  6615 
  19 1F3(Hz)                    Num   0%  51%  49%     0 /  0%  3688 / 20%  6145 
  20 1F4(Hz)                    Num   0%  51%  49%     0 /  0%  3689 / 20%  6054 
  21 2Int(dB)                   Num   0%  10%  90%     0 /  0%     7 /  0%   772 
  22 2Pitch(Hz)                 Num   0%  51%  49%     0 /  0%   816 /  4%  3063 
  23 2RawPitch                  Num   0%  54%  46%     0 /  0%   853 /  5%  2955 
  24 2SmPitch                   Num   0%  52%  48%     0 /  0%   827 /  5%  3024 
  25 2Melogram(st)              Num   0%  47%  53%     0 /  0%   581 /  3%  2807 
  26 2ZCross                    Num   0% 100%   0%     0 /  0%    10 /  0%    42 
  27 2F1(Hz)                    Num   0%  51%  49%     0 /  0%  2131 / 12%  4724 
  28 2F2(Hz)                    Num   0%  51%  49%     0 /  0%  4210 / 23%  6615 
  29 2F3(Hz)                    Num   0%  51%  49%     0 /  0%  3688 / 20%  6145 
  30 2F4(Hz)                    Num   0%  51%  49%     0 /  0%  3689 / 20%  6054 
  31 3Int(dB)                   Num   0%  10%  90%     0 /  0%     7 /  0%   772 
  32 3Pitch(Hz)                 Num   0%  51%  49%     0 /  0%   817 /  4%  3064 
  33 3RawPitch                  Num   0%  54%  46%     0 /  0%   854 /  5%  2956 
  34 3SmPitch                   Num   0%  52%  48%     0 /  0%   828 /  5%  3025 
  35 3Melogram(st)              Num   0%  47%  53%     0 /  0%   582 /  3%  2808 
  36 3ZCross                    Num   0% 100%   0%     0 /  0%    10 /  0%    42 
  37 3F1(Hz)                    Num   0%  51%  49%     0 /  0%  2131 / 12%  4724 
  38 3F2(Hz)                    Num   0%  51%  49%     0 /  0%  4210 / 23%  6615 
  39 3F3(Hz)                    Num   0%  51%  49%     0 /  0%  3688 / 20%  6145 
  40 3F4(Hz)                    Num   0%  51%  49%     0 /  0%  3689 / 20%  6054 
  41 class                      Nom 100%   0%   0%     0 /  0%     0 /  0%    10 


Naive Bayes Classifier

                    Class
Attribute               C         E        FV        AI CDGKNRSYZ         O         0        LT         U       MBP
                   (0.01)    (0.08)    (0.01)     (0.2)    (0.16)    (0.08)    (0.37)    (0.04)    (0.02)    (0.03)
====================================================================================================================
0Int(dB)
  mean             -6.7085   -8.2832   -12.229   -7.1833  -14.2874  -10.1884  -48.5008  -17.3068    -9.141  -12.0773
  std. dev.          7.364   10.5574   10.7764    11.503   11.9271   12.4847   16.5452   13.4707    11.517   11.9572
  weight sum           107      1438       261      3688      2933      1377      6795       677       423       594
  precision         0.1005    0.1005    0.1005    0.1005    0.1005    0.1005    0.1005    0.1005    0.1005    0.1005

0Pitch(Hz)
  mean            218.5288  171.3761  155.4117  194.9304  141.3715  169.4942    17.615  128.4001  206.5505  171.2937
  std. dev.         90.751   97.3583  107.1208  112.0096  110.3402  112.1681   57.6262  108.7944  112.6088  108.4803
  weight sum           107      1438       261      3688      2933      1377      6795       677       423       594
  precision         0.1626    0.1626    0.1626    0.1626    0.1626    0.1626    0.1626    0.1626    0.1626    0.1626

0RawPitch
  mean             208.433  165.9268  134.3425  184.2271  126.6001  160.7417    14.716   112.071  196.9115  160.9589
  std. dev.       101.0409  101.4248  108.4897  115.7899  113.6728  117.1537   52.3139  107.3734  116.0658  112.6321
  weight sum           107      1438       261      3688      2933      1377      6795       677       423       594
  precision         0.1679    0.1679    0.1679    0.1679    0.1679    0.1679    0.1679    0.1679    0.1679    0.1679

0SmPitch
  mean            216.7046  168.9406  147.5141  192.6957  136.5611  166.8657   15.9847   122.639  203.2317  168.8457
  std. dev.        93.1388   99.8036  106.2865  113.2299  111.7065  113.6276   53.9912  108.6587  114.3476  109.5157
  weight sum           107      1438       261      3688      2933      1377      6795       677       423       594
  precision         0.1647    0.1647    0.1647    0.1647    0.1647    0.1647    0.1647    0.1647    0.1647    0.1647

0Melogram(st)
  mean             52.7475   46.0304   43.7744   47.8712   37.6591   44.1418    5.1045   36.4493   46.9326   45.0143
  std. dev.        15.3301   20.3297   21.5454   20.1804   25.5957   22.6348   15.8989    25.713   23.1329   21.9175
  weight sum           107      1438       261      3688      2933      1377      6795       677       423       594
  precision         0.0294    0.0294    0.0294    0.0294    0.0294    0.0294    0.0294    0.0294    0.0294    0.0294

0ZCross
  mean              4.9291    4.5442    2.8924    5.7585    3.2095    3.7485    0.3145    2.0374    3.4685    2.7268
  std. dev.         3.0103    3.6764    2.7663    4.8394    4.0613    3.6397    1.5733    2.3667    3.3113    2.7447
  weight sum           107      1438       261      3688      2933      1377      6795       677       423       594
  precision         1.2927    1.2927    1.2927    1.2927    1.2927    1.2927    1.2927    1.2927    1.2927    1.2927

0F1(Hz)
  mean            529.3915  414.4876  481.1684  551.2791  416.5574  427.1986   60.6312  349.1112  438.9512  420.5783
  std. dev.       179.1174  204.0813  244.4663  316.0641  271.3028  255.5101  179.8204  263.7445  351.0171   233.997
  weight sum           107      1438       261      3688      2933      1377      6795       677       423       594
  precision         0.3688    0.3688    0.3688    0.3688    0.3688    0.3688    0.3688    0.3688    0.3688    0.3688

0F2(Hz)
  mean           1736.0184 1540.0099 1382.0687 1408.5939  1259.428   1087.12  182.9176 1147.8219  933.7491 1431.5618
  std. dev.       498.0707  736.2298  677.1876  660.0555  778.3079  643.6083  535.9925  817.2674  589.8158  712.6322
  weight sum           107      1438       261      3688      2933      1377      6795       677       423       594
  precision         0.4504    0.4504    0.4504    0.4504    0.4504    0.4504    0.4504    0.4504    0.4504    0.4504

0F3(Hz)
  mean           3017.1308 2334.9624 2354.9866 2438.1888 2167.0875 2276.2654  313.2807 1963.7106 2280.9865 2400.4431
  std. dev.       768.3313 1092.4038 1117.9617 1071.3908 1291.6694 1203.3602  898.6842 1367.3241 1204.2554 1114.3931
  weight sum           107      1438       261      3688      2933      1377      6795       677       423       594
  precision         0.6705    0.6705    0.6705    0.6705    0.6705    0.6705    0.6705    0.6705    0.6705    0.6705

0F4(Hz)
  mean           2987.0366 2827.1616 2769.7197 2850.5395 2500.9426 2631.6643   377.076 2239.6191 2611.7192 2825.1944
  std. dev.       768.7934 1299.7201 1285.7643 1238.3054 1476.1834 1382.1236 1079.3679 1551.8968 1326.9291 1281.0444
  weight sum           107      1438       261      3688      2933      1377      6795       677       423       594
  precision         0.6851    0.6851    0.6851    0.6851    0.6851    0.6851    0.6851    0.6851    0.6851    0.6851

1Int(dB)
  mean             -7.0016   -6.9781   -13.453   -6.3329  -15.0396   -9.2289  -48.9834   -18.344    -7.821  -12.6892
  std. dev.         7.3095     9.587    9.9848   10.6492   11.2462   12.1503   15.8904   13.3214   10.4376   11.7406
  weight sum           107      1438       261      3688      2933      1377      6795       677       423       594
  precision         0.1005    0.1005    0.1005    0.1005    0.1005    0.1005    0.1005    0.1005    0.1005    0.1005

1Pitch(Hz)
  mean            219.2614  179.7817  147.5196  200.9328  133.3928  175.9738   15.5437  119.7295  217.8099  166.9471
  std. dev.        91.8205   93.2543  107.4902  107.3968  112.2156  108.3955   54.3378  107.3728   101.251  109.8658
  weight sum           107      1438       261      3688      2933      1377      6795       677       423       594
  precision         0.1626    0.1626    0.1626    0.1626    0.1626    0.1626    0.1626    0.1626    0.1626    0.1626

1RawPitch
  mean             208.703  175.0704  125.4184  190.3913  117.8787  167.5572   12.9587  102.8483  208.6619  153.9342
  std. dev.       102.9477    97.669  107.1313  111.9338  114.2722  114.1306   49.1213  104.6379  106.1879  113.8843
  weight sum           107      1438       261      3688      2933      1377      6795       677       423       594
  precision         0.1679    0.1679    0.1679    0.1679    0.1679    0.1679    0.1679    0.1679    0.1679    0.1679

1SmPitch
  mean            217.4467  177.2466  139.8605  198.6154  128.3973  173.3248   13.9223  115.2132  215.6213  163.7838
  std. dev.        94.1938   95.7152  105.8427   108.961  113.3215   110.039   50.3065  106.8974  102.5619  111.3474
  weight sum           107      1438       261      3688      2933      1377      6795       677       423       594
  precision         0.1647    0.1647    0.1647    0.1647    0.1647    0.1647    0.1647    0.1647    0.1647    0.1647

1Melogram(st)
  mean              52.783   48.2348   41.8303   49.4355   35.4275   45.7502    4.6142    34.284   50.2186   43.8398
  std. dev.        15.3641   18.1696   22.7672   18.4609   26.3801   21.3432   15.1935    26.197   19.9908   22.8015
  weight sum           107      1438       261      3688      2933      1377      6795       677       423       594
  precision         0.0294    0.0294    0.0294    0.0294    0.0294    0.0294    0.0294    0.0294    0.0294    0.0294

1ZCross
  mean              4.6512     4.777    2.4071    5.9107    3.1442    3.9062    0.2452    1.8216    3.5022    2.4526
  std. dev.         2.9353    3.5473    2.4072    4.6692    4.4336    3.5254    1.2667    2.2569    3.0347    2.4563
  weight sum           107      1438       261      3688      2933      1377      6795       677       423       594
  precision         1.2927    1.2927    1.2927    1.2927    1.2927    1.2927    1.2927    1.2927    1.2927    1.2927

1F1(Hz)
  mean            521.4647  432.7945  457.1842  576.7681   389.737   450.362   53.5851  323.1748  460.9396  403.2101
  std. dev.       179.3598  184.6991   256.028  301.8607     277.4  244.3368  169.3624  261.8126  335.9081  236.5419
  weight sum           107      1438       261      3688      2933      1377      6795       677       423       594
  precision         0.3688    0.3688    0.3688    0.3688    0.3688    0.3688    0.3688    0.3688    0.3688    0.3688

1F2(Hz)
  mean           1746.4904 1632.6744 1322.7123 1470.1943 1190.2888 1117.1452  162.6594 1086.0644  979.7948  1390.089
  std. dev.       504.7605   673.554  699.8891  615.8943  806.2202  603.6027  507.4556   832.925  538.5145    729.41
  weight sum           107      1438       261      3688      2933      1377      6795       677       423       594
  precision         0.4504    0.4504    0.4504    0.4504    0.4504    0.4504    0.4504    0.4504    0.4504    0.4504

1F3(Hz)
  mean           3010.0494 2447.1049 2268.6436  2533.848 2049.2265 2373.7752  279.4239 1854.2511 2430.7754 2335.5553
  std. dev.       772.6826  996.0136  1175.068  979.1218 1345.9914 1134.1201  854.4078  1399.832  1089.578  1153.522
  weight sum           107      1438       261      3688      2933      1377      6795       677       423       594
  precision         0.6705    0.6705    0.6705    0.6705    0.6705    0.6705    0.6705    0.6705    0.6705    0.6705

1F4(Hz)
  mean           2997.2301  2953.752 2681.0905 2960.0494 2367.1259 2740.1433  336.5089 2123.7254 2777.4425  2763.331
  std. dev.       775.7465 1176.1247 1356.4028   1128.24 1542.8598 1297.7013 1026.8121  1593.511 1184.8746  1333.663
  weight sum           107      1438       261      3688      2933      1377      6795       677       423       594
  precision         0.6851    0.6851    0.6851    0.6851    0.6851    0.6851    0.6851    0.6851    0.6851    0.6851

2Int(dB)
  mean             -7.3322   -5.9386   -14.457   -5.6784   -15.618    -8.538  -49.4531  -18.4889    -6.523  -12.9285
  std. dev.         7.6223    8.7524    9.1174    9.9846     10.45   12.0283   15.1922   12.6608    9.2325   11.2858
  weight sum           107      1438       261      3688      2933      1377      6795       677       423       594
  precision         0.1005    0.1005    0.1005    0.1005    0.1005    0.1005    0.1005    0.1005    0.1005    0.1005

2Pitch(Hz)
  mean            218.1275  187.1289  141.0758  205.2387  127.0197   180.298   13.6918  118.1534  226.0414  164.0251
  std. dev.        95.0512   89.1848  107.2369   103.862  113.3109  104.9788   51.1536  105.4677   90.8899  110.3131
  weight sum           107      1438       261      3688      2933      1377      6795       677       423       594
  precision         0.1626    0.1626    0.1626    0.1626    0.1626    0.1626    0.1626    0.1626    0.1626    0.1626

2RawPitch
  mean            206.6453  182.7671  118.1042   194.723  111.0724  173.1119   11.1154   99.3424  217.7899  151.3042
  std. dev.       107.5275   93.8486  105.1012  108.9604  114.3242   111.182   45.2414  102.4698   96.3272  114.0339
  weight sum           107      1438       261      3688      2933      1377      6795       677       423       594
  precision         0.1679    0.1679    0.1679    0.1679    0.1679    0.1679    0.1679    0.1679    0.1679    0.1679

2SmPitch
  mean            216.3151  185.0532  133.6333  203.0017  121.5226  177.9648   12.1445  112.8848  225.0495  160.0578
  std. dev.        97.3174    91.154  104.9032  105.5608  114.1845  106.8233   46.8932  104.8411   91.3186  112.2555
  weight sum           107      1438       261      3688      2933      1377      6795       677       423       594
  precision         0.1647    0.1647    0.1647    0.1647    0.1647    0.1647    0.1647    0.1647    0.1647    0.1647

2Melogram(st)
  mean             52.3042   50.1673   40.1599   50.6646   33.5543   46.7989    4.1833   33.5997   52.9506   42.9332
  std. dev.        16.2008    15.729   23.6891   16.8735   26.8996   20.3195   14.5506   26.2392   16.4082   23.4206
  weight sum           107      1438       261      3688      2933      1377      6795       677       423       594
  precision         0.0294    0.0294    0.0294    0.0294    0.0294    0.0294    0.0294    0.0294    0.0294    0.0294

2ZCross
  mean              4.4338    4.8777    2.0356    6.0537    3.1165    4.0104     0.176    1.7089    3.6091    2.2633
  std. dev.         2.8448    3.2885    2.1197    4.5907    4.7317    3.2415    0.9113    2.0853     2.929    2.1902
  weight sum           107      1438       261      3688      2933      1377      6795       677       423       594
  precision         1.2927    1.2927    1.2927    1.2927    1.2927    1.2927    1.2927    1.2927    1.2927    1.2927

2F1(Hz)
  mean            508.9472  452.4055  427.4933  601.6725  361.7945  474.0843   46.3631  304.5369  482.6221  387.8062
  std. dev.        182.517  159.6131  266.6231   285.672  280.8176  229.5879  157.5875   257.521  319.3509  236.7462
  weight sum           107      1438       261      3688      2933      1377      6795       677       423       594
  precision         0.3688    0.3688    0.3688    0.3688    0.3688    0.3688    0.3688    0.3688    0.3688    0.3688

2F2(Hz)
  mean           1730.5088 1730.4304 1255.6134 1529.4088 1117.0915 1149.4791  141.7193 1045.9701 1027.4385 1355.9289
  std. dev.       532.3332  583.9406  728.5852   564.757  826.5133  557.6755  475.9552  838.9015  482.4236   740.105
  weight sum           107      1438       261      3688      2933      1377      6795       677       423       594
  precision         0.4504    0.4504    0.4504    0.4504    0.4504    0.4504    0.4504    0.4504    0.4504    0.4504

2F3(Hz)
  mean           2976.1527 2566.2209 2161.8658 2625.3755  1927.844 2474.5963  243.8749 1787.0178 2578.9648 2275.3297
  std. dev.       827.9906  864.4824 1236.4745  873.1643 1389.7671 1047.0894  803.8509 1417.9226   937.242 1178.2882
  weight sum           107      1438       261      3688      2933      1377      6795       677       423       594
  precision         0.6705    0.6705    0.6705    0.6705    0.6705    0.6705    0.6705    0.6705    0.6705    0.6705

2F4(Hz)
  mean           2973.4111 3090.2109 2569.1202 3063.7655 2228.6958 2853.8724  293.9884 2052.3429 2942.8419  2712.388
  std. dev.       831.3383 1010.4123  1435.181  1001.764 1597.0415 1192.6404  966.8453 1617.2317  994.8814 1372.7244
  weight sum           107      1438       261      3688      2933      1377      6795       677       423       594
  precision         0.6851    0.6851    0.6851    0.6851    0.6851    0.6851    0.6851    0.6851    0.6851    0.6851

3Int(dB)
  mean              -7.615   -5.4216  -14.8768   -5.4273   -15.907   -8.3525  -49.8217   -17.257   -5.5461  -12.4295
  std. dev.         7.8549    8.2134    8.5952    9.7157    9.8974   12.1594   14.6169   11.8848    7.9501   10.5978
  weight sum           107      1438       261      3688      2933      1377      6795       677       423       594
  precision         0.1005    0.1005    0.1005    0.1005    0.1005    0.1005    0.1005    0.1005    0.1005    0.1005

3Pitch(Hz)
  mean            217.1294  190.3918  138.4937  206.5475  125.7212  179.1301   11.8153  127.2198  230.9859  166.0775
  std. dev.          97.99   87.4257  106.1938  102.6023  113.8857   103.979   47.9052  104.5917   83.0165  107.8218
  weight sum           107      1438       261      3688      2933      1377      6795       677       423       594
  precision         0.1626    0.1626    0.1626    0.1626    0.1626    0.1626    0.1626    0.1626    0.1626    0.1626

3RawPitch
  mean             203.988  186.9416  114.3432  196.5165  108.2636  172.8881    9.4625  108.5129  221.8351  152.1597
  std. dev.       111.7049   92.1579  102.4081  107.8174  114.0645  110.0663   41.8782  102.4682   90.5835   112.921
  weight sum           107      1438       261      3688      2933      1377      6795       677       423       594
  precision         0.1679    0.1679    0.1679    0.1679    0.1679    0.1679    0.1679    0.1679    0.1679    0.1679

3SmPitch
  mean            215.3063  188.8901  131.3637  204.4857  119.6298  177.1958   10.2255  122.4141  230.1655   161.354
  std. dev.       100.1796   88.8533  103.6517  104.2821  114.6634  105.5718   43.0597  104.5656   83.5323   110.475
  weight sum           107      1438       261      3688      2933      1377      6795       677       423       594
  precision         0.1647    0.1647    0.1647    0.1647    0.1647    0.1647    0.1647    0.1647    0.1647    0.1647

3Melogram(st)
  mean             51.8536    50.757   39.8199   51.1396   32.9778   46.9889    3.6608   35.8749   54.7081   43.3262
  std. dev.        16.9829   14.7786   23.9008   16.1076   27.1031   20.0024   13.7177   25.7164      13.2   23.0622
  weight sum           107      1438       261      3688      2933      1377      6795       677       423       594
  precision         0.0294    0.0294    0.0294    0.0294    0.0294    0.0294    0.0294    0.0294    0.0294    0.0294

3ZCross
  mean              4.3613    4.8831     1.892    6.1024    3.1024    4.0329    0.1408    1.8063     3.713    2.2589
  std. dev.         2.7409    3.1607    1.9842    4.5486    4.8997    2.9611    0.7915    2.0083    2.8728    2.0707
  weight sum           107      1438       261      3688      2933      1377      6795       677       423       594
  precision         1.2927    1.2927    1.2927    1.2927    1.2927    1.2927    1.2927    1.2927    1.2927    1.2927

3F1(Hz)
  mean            500.5551  467.7497  399.7197  620.2592  340.6224  488.3137    40.076  301.5955  499.4556  383.8168
  std. dev.       184.0787  137.6849  273.4014  272.7775  280.0634  220.1308  146.5436  251.2771   302.477  232.2972
  weight sum           107      1438       261      3688      2933      1377      6795       677       423       594
  precision         0.3688    0.3688    0.3688    0.3688    0.3688    0.3688    0.3688    0.3688    0.3688    0.3688

3F2(Hz)
  mean            1706.467 1804.3312 1203.5318 1571.1457 1064.7521 1157.6298  123.5058 1056.1009 1072.0404 1349.6905
  std. dev.       559.5245  496.1344  754.0967  523.0015   835.656  525.4581  447.0173  834.8657  424.8655  728.3086
  weight sum           107      1438       261      3688      2933      1377      6795       677       423       594
  precision         0.4504    0.4504    0.4504    0.4504    0.4504    0.4504    0.4504    0.4504    0.4504    0.4504

3F3(Hz)
  mean           2943.5343 2653.2835 2069.2644  2688.852 1843.0025 2526.8298  212.0997 1805.2244 2703.6172 2268.8241
  std. dev.       876.6084  742.6344 1282.9054  785.4546 1412.8812  995.0347  754.3371 1419.6008  758.4179 1165.0514
  weight sum           107      1438       261      3688      2933      1377      6795       677       423       594
  precision         0.6705    0.6705    0.6705    0.6705    0.6705    0.6705    0.6705    0.6705    0.6705    0.6705

3F4(Hz)
  mean           2953.1522 3189.0151 2471.0333 3135.5866 2133.8449 2910.5036  256.0783 2071.6081 3086.4504 2720.5333
  std. dev.       883.5322  856.4692 1495.7988  897.0935 1628.0142 1127.9374  908.4829 1617.3773  766.0819 1363.5495
  weight sum           107      1438       261      3688      2933      1377      6795       677       423       594
  precision         0.6851    0.6851    0.6851    0.6851    0.6851    0.6851    0.6851    0.6851    0.6851    0.6851





=== Stratified cross-validation ===

Correctly Classified Instances        8657               47.3241 %
Incorrectly Classified Instances      9636               52.6759 %
Kappa statistic                          0.3476
K&B Relative Info Score             601039.2548 %
K&B Information Score                15526.7404 bits      0.8488 bits/instance
Class complexity | order 0           47239.1047 bits      2.5824 bits/instance
Class complexity | scheme           370145.62   bits     20.2343 bits/instance
Complexity improvement     (Sf)    -322906.5153 bits    -17.6519 bits/instance
Mean absolute error                      0.1051
Root mean squared error                  0.2989
Relative absolute error                 67.296  %
Root relative squared error            106.9875 %
Coverage of cases (0.95 level)          56.9234 %
Mean rel. region size (0.95 level)      16.4331 %
Total Number of Instances            18293     


=== Detailed Accuracy By Class ===

                 TP Rate  FP Rate  Precision  Recall   F-Measure  MCC      ROC Area  PRC Area  Class
                 0,495    0,151    0,019      0,495    0,036      0,073    0,786     0,025     C
                 0,485    0,174    0,192      0,485    0,275      0,210    0,791     0,238     E
                 0,096    0,034    0,039      0,096    0,056      0,040    0,737     0,032     FV
                 0,316    0,033    0,705      0,316    0,437      0,396    0,824     0,566     AI
                 0,108    0,011    0,646      0,108    0,185      0,219    0,724     0,361     CDGKNRSYZ
                 0,020    0,005    0,260      0,020    0,036      0,053    0,763     0,187     O
                 0,902    0,109    0,830      0,902    0,865      0,781    0,930     0,855     0
                 0,121    0,056    0,077      0,121    0,094      0,053    0,700     0,069     LT
                 0,357    0,015    0,360      0,357    0,358      0,343    0,852     0,291     U
                 0,022    0,006    0,104      0,022    0,036      0,033    0,720     0,062     MBP
Weighted Avg.    0,473    0,067    0,604      0,473    0,477      0,437    0,831     0,534     


=== Confusion Matrix ===

    a    b    c    d    e    f    g    h    i    j   <-- classified as
   53   35    1   10    1    0    3    4    0    0 |    a = C
  392  697   16  104   25   11   52  109   24    8 |    b = E
   60   88   25    8    8    1   41   26    4    0 |    c = FV
  772 1055  126 1166   66   34  163  232   60   14 |    d = AI
  707  639  210  152  316    5  584  259   20   41 |    e = CDGKNRSYZ
  284  488   81  111   18   27  132  102  129    5 |    f = O
  155  157   95   29   39   14 6127  148    3   28 |    g = 0
  132  198   37   12    7    3  189   82    4   13 |    h = LT
   81   74    9   39    2    8   11   45  151    3 |    i = U
  166  192   33   23    7    1   77   57   25   13 |    j = MBP

=== Percent Confusion Matrix ===
a	b	c	d	e	f	g	h	i	j	
49.53	32.71	0.93	9.35	0.93	0.0	2.8	3.74	0.0	0.0	 a = C
27.26	48.47	1.11	7.23	1.74	0.76	3.62	7.58	1.67	0.56	 b = E
22.99	33.72	9.58	3.07	3.07	0.38	15.71	9.96	1.53	0.0	 c = FV
20.93	28.61	3.42	31.62	1.79	0.92	4.42	6.29	1.63	0.38	 d = AI
24.11	21.79	7.16	5.18	10.77	0.17	19.91	8.83	0.68	1.4	 e = CDGKNRSYZ
20.62	35.44	5.88	8.06	1.31	1.96	9.59	7.41	9.37	0.36	 f = O
2.28	2.31	1.4	0.43	0.57	0.21	90.17	2.18	0.04	0.41	 g = 0
19.5	29.25	5.47	1.77	1.03	0.44	27.92	12.11	0.59	1.92	 h = LT
19.15	17.49	2.13	9.22	0.47	1.89	2.6	10.64	35.7	0.71	 i = U
27.95	32.32	5.56	3.87	1.18	0.17	12.96	9.6	4.21	2.19	 j = MBP
