Timestamp:2014-12-07-11:11:26
Inventario:I4
Intervalo:1ms
Ngramas:2
Clasificador:NaiveBayes
Relation Name:  I4-1ms-2gramas
Num Instances:  183403
Num Attributes: 21

     Name                      Type  Nom  Int Real     Missing      Unique  Dist
   1 0Int(dB)                   Num   0%   9%  91%     0 /  0%     4 /  0%   781 
   2 0Pitch(Hz)                 Num   0%  51%  49%     0 /  0%   256 /  0%  4213 
   3 0RawPitch                  Num   0%  55%  45%     0 /  0%   417 /  0%  4119 
   4 0SmPitch                   Num   0%  53%  47%     0 /  0%   263 /  0%  4193 
   5 0Melogram(st)              Num   0%  49%  51%     0 /  0%   133 /  0%  3454 
   6 0ZCross                    Num   0% 100%   0%     0 /  0%     4 /  0%    58 
   7 0F1(Hz)                    Num   0%  52%  48%     0 /  0%  1154 /  1%  4824 
   8 0F2(Hz)                    Num   0%  52%  48%     0 /  0%  2223 /  1%  6697 
   9 0F3(Hz)                    Num   0%  53%  47%     0 /  0%  1930 /  1%  6200 
  10 0F4(Hz)                    Num   0%  52%  48%     0 /  0%  1933 /  1%  6096 
  11 1Int(dB)                   Num   0%   9%  91%     0 /  0%     3 /  0%   781 
  12 1Pitch(Hz)                 Num   0%  51%  49%     0 /  0%   256 /  0%  4213 
  13 1RawPitch                  Num   0%  55%  45%     0 /  0%   417 /  0%  4119 
  14 1SmPitch                   Num   0%  53%  47%     0 /  0%   263 /  0%  4193 
  15 1Melogram(st)              Num   0%  49%  51%     0 /  0%   133 /  0%  3454 
  16 1ZCross                    Num   0% 100%   0%     0 /  0%     4 /  0%    58 
  17 1F1(Hz)                    Num   0%  52%  48%     0 /  0%  1154 /  1%  4824 
  18 1F2(Hz)                    Num   0%  52%  48%     0 /  0%  2223 /  1%  6697 
  19 1F3(Hz)                    Num   0%  53%  47%     0 /  0%  1930 /  1%  6200 
  20 1F4(Hz)                    Num   0%  52%  48%     0 /  0%  1933 /  1%  6096 
  21 class                      Nom 100%   0%   0%     0 /  0%     0 /  0%    10 


Naive Bayes Classifier

                    Class
Attribute               C         E        FV        AI CDGKNRSYZ         O         0        LT         U       MBP
                   (0.01)    (0.07)    (0.01)    (0.19)    (0.16)    (0.07)    (0.39)    (0.04)    (0.02)    (0.03)
====================================================================================================================
0Int(dB)
  mean             -7.7014   -5.1597   -15.033   -5.1103  -15.9758   -8.1449  -48.0905  -16.8068   -5.0726  -12.3149
  std. dev.         7.9943    8.0314    8.8639    9.5283    9.8397   12.1979   16.3154   11.9263    7.5754   10.6245
  weight sum          1083     13740      2561     35640     28459     13234     72116      6619      4137      5814
  precision         0.1037    0.1037    0.1037    0.1037    0.1037    0.1037    0.1037    0.1037    0.1037    0.1037

0Pitch(Hz)
  mean            211.8357   190.258  129.9494  206.8242  117.2022  178.1206   16.9607  122.1507  229.3502  159.4679
  std. dev.       101.9447   87.8928  107.2999  104.4571  114.8388   105.326    56.673  104.6093   84.2123  111.1515
  weight sum          1083     13740      2561     35640     28459     13234     72116      6619      4137      5814
  precision         0.1184    0.1184    0.1184    0.1184    0.1184    0.1184    0.1184    0.1184    0.1184    0.1184

0RawPitch
  mean            201.5101  185.5139  104.9895  196.9665   99.5064   172.363   13.9201  101.2918  220.5579  147.7852
  std. dev.       112.6818   95.7233   103.475  111.1115  115.1058  113.1234   51.4519  103.5218   92.9298  116.6168
  weight sum          1083     13740      2561     35640     28459     13234     72116      6619      4137      5814
  precision         0.1214    0.1214    0.1214    0.1214    0.1214    0.1214    0.1214    0.1214    0.1214    0.1214

0SmPitch
  mean            210.4603  188.8112  119.7549  204.7914  110.6377  175.8934   15.3486  116.1154  228.8462  154.8892
  std. dev.       103.5242   89.0812  104.5511  106.1397  115.0686   107.593   52.9674  104.7641   84.5411  113.7583
  weight sum          1083     13740      2561     35640     28459     13234     72116      6619      4137      5814
  precision          0.119     0.119     0.119     0.119     0.119     0.119     0.119     0.119     0.119     0.119

0Melogram(st)
  mean             51.0783    50.379   36.5095   50.6725   30.2666   46.4586    4.9859   33.7087     54.16   41.3724
  std. dev.        17.9128   15.5007   25.2094     16.99   27.5101   20.5573   15.7045   26.3027   14.0434   24.3658
  weight sum          1083     13740      2561     35640     28459     13234     72116      6619      4137      5814
  precision         0.0239    0.0239    0.0239    0.0239    0.0239    0.0239    0.0239    0.0239    0.0239    0.0239

0ZCross
  mean              4.6029    5.2408    2.0498    6.6004    3.3147    4.3663    0.2635    2.0855    4.0771     2.508
  std. dev.         2.8824    3.3253    2.2131    4.7102    5.2928     3.087    1.1594     2.258    2.9819     2.237
  weight sum          1083     13740      2561     35640     28459     13234     72116      6619      4137      5814
  precision         1.0175    1.0175    1.0175    1.0175    1.0175    1.0175    1.0175    1.0175    1.0175    1.0175

0F1(Hz)
  mean            491.6485  465.3474  378.3582  618.6325  319.2691  485.0896   54.6945  287.5771  499.8715  370.4332
  std. dev.       194.5674  144.1266  278.5939  281.4779  281.9122  226.1543  167.7961  252.7661  306.7882  237.1009
  weight sum          1083     13740      2561     35640     28459     13234     72116      6619      4137      5814
  precision         0.3611    0.3611    0.3611    0.3611    0.3611    0.3611    0.3611    0.3611    0.3611    0.3611

0F2(Hz)
  mean           1681.1007 1793.0334 1159.1061 1549.7435  1002.967  1138.672  171.3436 1009.1151 1056.4734 1303.2526
  std. dev.       601.4811  519.5885  783.4471  547.1516  846.7067  533.7441  520.3646  844.0227  419.7581  750.2659
  weight sum          1083     13740      2561     35640     28459     13234     72116      6619      4137      5814
  precision         0.4448    0.4448    0.4448    0.4448    0.4448    0.4448    0.4448    0.4448    0.4448    0.4448

0F3(Hz)
  mean           2884.2338 2628.2257 1972.9814  2657.204 1738.2081 2500.7441  292.1061 1722.6744 2684.8467 2194.6698
  std. dev.       947.4571  775.3306  1322.667  834.8033 1438.3015 1023.7463  872.1776 1436.6171  768.1272 1208.1856
  weight sum          1083     13740      2561     35640     28459     13234     72116      6619      4137      5814
  precision         0.6646    0.6646    0.6646    0.6646    0.6646    0.6646    0.6646    0.6646    0.6646    0.6646

0F4(Hz)
  mean           2926.4358  3165.364 2361.3224 3096.9254  2007.983 2876.6923  351.1243 1983.0411 3077.7233 2638.4197
  std. dev.       963.4929  898.8907 1547.6942  954.3579 1654.0729 1160.0433 1045.9711 1640.9064  781.3188 1420.8135
  weight sum          1083     13740      2561     35640     28459     13234     72116      6619      4137      5814
  precision         0.6804    0.6804    0.6804    0.6804    0.6804    0.6804    0.6804    0.6804    0.6804    0.6804

1Int(dB)
  mean             -7.7106   -5.1788  -15.0107   -5.1271  -15.9524   -8.1757   -48.118  -16.5577   -5.0188  -12.2049
  std. dev.         7.9841    8.0296     8.868    9.5372    9.8275   12.2243   16.2752   11.8777    7.4803   10.5691
  weight sum          1083     13740      2561     35640     28459     13234     72116      6619      4137      5814
  precision         0.1037    0.1037    0.1037    0.1037    0.1037    0.1037    0.1037    0.1037    0.1037    0.1037

1Pitch(Hz)
  mean            211.7569  190.4015  129.6994  206.7814  117.2898  177.8211   16.7877  123.7462  229.5826  159.9332
  std. dev.        102.216   87.7758  107.2959   104.477  114.9223  105.3227   56.4051  104.5599   83.7347  110.8047
  weight sum          1083     13740      2561     35640     28459     13234     72116      6619      4137      5814
  precision         0.1184    0.1184    0.1184    0.1184    0.1184    0.1184    0.1184    0.1184    0.1184    0.1184

1RawPitch
  mean            201.5228  185.6605    104.69  196.9665   99.4493  172.1393   13.7655  102.8896  220.7885  148.2899
  std. dev.       112.8537   95.6276  103.2429  111.1278  115.1427  113.0491   51.2112  103.7161   92.5273  116.3341
  weight sum          1083     13740      2561     35640     28459     13234     72116      6619      4137      5814
  precision         0.1214    0.1214    0.1214    0.1214    0.1214    0.1214    0.1214    0.1214    0.1214    0.1214

1SmPitch
  mean            210.5612  189.0092  119.5928  204.7779  110.6566  175.6214   15.1793  117.6316  229.0387  155.3207
  std. dev.       103.5941   88.9353  104.4955  106.1403  115.1375  107.5646   52.6861  104.8077   84.1352  113.4664
  weight sum          1083     13740      2561     35640     28459     13234     72116      6619      4137      5814
  precision          0.119     0.119     0.119     0.119     0.119     0.119     0.119     0.119     0.119     0.119

1Melogram(st)
  mean             51.0349   50.4242   36.4608    50.676   30.2668   46.3993    4.9362   34.0968   54.2789    41.496
  std. dev.        17.9822   15.4261   25.2383   16.9756   27.5209   20.5969   15.6358   26.2191   13.7888   24.2847
  weight sum          1083     13740      2561     35640     28459     13234     72116      6619      4137      5814
  precision         0.0239    0.0239    0.0239    0.0239    0.0239    0.0239    0.0239    0.0239    0.0239    0.0239

1ZCross
  mean               4.602    5.2275    2.0522    6.5942    3.3206    4.3624    0.2613    2.1295    4.0827    2.5306
  std. dev.         2.8724     3.329    2.2158    4.7146    5.2929    3.0942     1.158    2.2623    2.9766    2.2366
  weight sum          1083     13740      2561     35640     28459     13234     72116      6619      4137      5814
  precision         1.0175    1.0175    1.0175    1.0175    1.0175    1.0175    1.0175    1.0175    1.0175    1.0175

1F1(Hz)
  mean            491.6499   466.604  376.1761  619.9649  317.5819   485.985   54.1445  289.2213  501.0702  370.5749
  std. dev.       194.3911  142.2478  278.4193  280.6192  281.5459  225.6523  166.9999  252.3268  305.5336   236.559
  weight sum          1083     13740      2561     35640     28459     13234     72116      6619      4137      5814
  precision         0.3611    0.3611    0.3611    0.3611    0.3611    0.3611    0.3611    0.3611    0.3611    0.3611

1F2(Hz)
  mean           1680.0266 1799.2434 1156.6522 1552.5994  998.9077  1138.609  169.6332  1015.283 1060.1575 1303.9361
  std. dev.       601.5161  511.5475  785.3266  544.4403  846.8404   531.629  518.0359  842.8887  414.9703  748.5317
  weight sum          1083     13740      2561     35640     28459     13234     72116      6619      4137      5814
  precision         0.4448    0.4448    0.4448    0.4448    0.4448    0.4448    0.4448    0.4448    0.4448    0.4448

1F3(Hz)
  mean           2884.1098 2635.6414 1966.8613 2661.7194 1731.5698 2503.6829  289.1592 1733.2514 2694.2989 2195.7732
  std. dev.       947.3313   764.297 1324.7402  829.0751 1439.1028 1021.0061  868.2153 1435.2739   752.613 1205.5074
  weight sum          1083     13740      2561     35640     28459     13234     72116      6619      4137      5814
  precision         0.6646    0.6646    0.6646    0.6646    0.6646    0.6646    0.6646    0.6646    0.6646    0.6646

1F4(Hz)
  mean           2927.2908 3173.7603 2355.3511 3101.5827 2001.0209 2879.5448  347.6697 1995.3469 3088.1777 2641.4866
  std. dev.       964.0065  884.9534 1550.8738  947.4372  1655.676 1156.4562 1041.4713 1639.3547  760.6201 1418.3454
  weight sum          1083     13740      2561     35640     28459     13234     72116      6619      4137      5814
  precision         0.6804    0.6804    0.6804    0.6804    0.6804    0.6804    0.6804    0.6804    0.6804    0.6804





=== Stratified cross-validation ===

Correctly Classified Instances       97466               53.1431 %
Incorrectly Classified Instances     85937               46.8569 %
Kappa statistic                          0.3918
K&B Relative Info Score            7006646.7411 %
K&B Information Score               178229.0338 bits      0.9718 bits/instance
Class complexity | order 0          466506.5985 bits      2.5436 bits/instance
Class complexity | scheme          2153820.8188 bits     11.7437 bits/instance
Complexity improvement     (Sf)    -1687314.2203 bits     -9.2    bits/instance
Mean absolute error                      0.0957
Root mean squared error                  0.2753
Relative absolute error                 62.1681 %
Root relative squared error             99.2309 %
Coverage of cases (0.95 level)          65.6189 %
Mean rel. region size (0.95 level)      19.4642 %
Total Number of Instances           183403     


=== Detailed Accuracy By Class ===

                 TP Rate  FP Rate  Precision  Recall   F-Measure  MCC      ROC Area  PRC Area  Class
                 0,010    0,001    0,058      0,010    0,017      0,022    0,773     0,026     C
                 0,763    0,254    0,196      0,763    0,312      0,295    0,841     0,267     E
                 0,031    0,013    0,034      0,031    0,032      0,019    0,729     0,029     FV
                 0,426    0,051    0,669      0,426    0,521      0,451    0,849     0,602     AI
                 0,146    0,029    0,484      0,146    0,224      0,201    0,729     0,358     CDGKNRSYZ
                 0,047    0,008    0,309      0,047    0,082      0,096    0,771     0,184     O
                 0,894    0,148    0,796      0,894    0,842      0,733    0,950     0,948     0
                 0,036    0,008    0,146      0,036    0,057      0,056    0,715     0,077     LT
                 0,520    0,045    0,211      0,520    0,300      0,308    0,881     0,363     U
                 0,013    0,007    0,063      0,013    0,022      0,014    0,727     0,059     MBP
Weighted Avg.    0,531    0,094    0,568      0,531    0,506      0,446    0,854     0,592     


=== Confusion Matrix ===

     a     b     c     d     e     f     g     h     i     j   <-- classified as
    11   698     1   145    36     0    70     0   122     0 |     a = C
    73 10487   111  1584   500    24   550    94   227    90 |     b = E
     0  1222    79   200   164    58   664    64    91    19 |     c = FV
    22 14121   527 15194  1072   247  1964   260  2107   126 |     d = AI
    78  9786   747  2197  4154   489  8547   401  1594   466 |     e = CDGKNRSYZ
     0  6127   215  1463   557   622  1461    82  2654    53 |     f = O
     1  3917   474   806  1087   318 64453   265   521   274 |     g = 0
     0  2957   107   367   567   103  2079   236   106    97 |     h = LT
     0  1208    17   345    83    88    79   134  2153    30 |     i = U
     4  3049    80   394   357    67  1090    75   621    77 |     j = MBP

=== Percent Confusion Matrix ===
a	b	c	d	e	f	g	h	i	j	
1.02	64.45	0.09	13.39	3.32	0.0	6.46	0.0	11.27	0.0	 a = C
0.53	76.32	0.81	11.53	3.64	0.17	4.0	0.68	1.65	0.66	 b = E
0.0	47.72	3.08	7.81	6.4	2.26	25.93	2.5	3.55	0.74	 c = FV
0.06	39.62	1.48	42.63	3.01	0.69	5.51	0.73	5.91	0.35	 d = AI
0.27	34.39	2.62	7.72	14.6	1.72	30.03	1.41	5.6	1.64	 e = CDGKNRSYZ
0.0	46.3	1.62	11.05	4.21	4.7	11.04	0.62	20.05	0.4	 f = O
0.0	5.43	0.66	1.12	1.51	0.44	89.37	0.37	0.72	0.38	 g = 0
0.0	44.67	1.62	5.54	8.57	1.56	31.41	3.57	1.6	1.47	 h = LT
0.0	29.2	0.41	8.34	2.01	2.13	1.91	3.24	52.04	0.73	 i = U
0.07	52.44	1.38	6.78	6.14	1.15	18.75	1.29	10.68	1.32	 j = MBP
