Timestamp:2014-12-07-11:18:41
Inventario:I4
Intervalo:10ms
Ngramas:2
Clasificador:NaiveBayes
Relation Name:  I4-10ms-2gramas
Num Instances:  18295
Num Attributes: 21

     Name                      Type  Nom  Int Real     Missing      Unique  Dist
   1 0Int(dB)                   Num   0%  10%  90%     0 /  0%     7 /  0%   772 
   2 0Pitch(Hz)                 Num   0%  51%  49%     0 /  0%   816 /  4%  3063 
   3 0RawPitch                  Num   0%  54%  46%     0 /  0%   853 /  5%  2955 
   4 0SmPitch                   Num   0%  52%  48%     0 /  0%   827 /  5%  3024 
   5 0Melogram(st)              Num   0%  47%  53%     0 /  0%   581 /  3%  2807 
   6 0ZCross                    Num   0% 100%   0%     0 /  0%    10 /  0%    42 
   7 0F1(Hz)                    Num   0%  51%  49%     0 /  0%  2131 / 12%  4724 
   8 0F2(Hz)                    Num   0%  51%  49%     0 /  0%  4210 / 23%  6615 
   9 0F3(Hz)                    Num   0%  51%  49%     0 /  0%  3688 / 20%  6145 
  10 0F4(Hz)                    Num   0%  51%  49%     0 /  0%  3689 / 20%  6054 
  11 1Int(dB)                   Num   0%  10%  90%     0 /  0%     7 /  0%   772 
  12 1Pitch(Hz)                 Num   0%  51%  49%     0 /  0%   817 /  4%  3064 
  13 1RawPitch                  Num   0%  54%  46%     0 /  0%   854 /  5%  2956 
  14 1SmPitch                   Num   0%  52%  48%     0 /  0%   828 /  5%  3025 
  15 1Melogram(st)              Num   0%  47%  53%     0 /  0%   582 /  3%  2808 
  16 1ZCross                    Num   0% 100%   0%     0 /  0%    10 /  0%    42 
  17 1F1(Hz)                    Num   0%  51%  49%     0 /  0%  2131 / 12%  4724 
  18 1F2(Hz)                    Num   0%  51%  49%     0 /  0%  4210 / 23%  6615 
  19 1F3(Hz)                    Num   0%  51%  49%     0 /  0%  3688 / 20%  6145 
  20 1F4(Hz)                    Num   0%  51%  49%     0 /  0%  3689 / 20%  6054 
  21 class                      Nom 100%   0%   0%     0 /  0%     0 /  0%    10 


Naive Bayes Classifier

                    Class
Attribute               C         E        FV        AI CDGKNRSYZ         O         0        LT         U       MBP
                   (0.01)    (0.08)    (0.01)     (0.2)    (0.16)    (0.08)    (0.37)    (0.04)    (0.02)    (0.03)
====================================================================================================================
0Int(dB)
  mean             -7.3322   -5.9386   -14.457   -5.6784   -15.618    -8.538  -49.4515  -18.4889    -6.523  -12.9285
  std. dev.         7.6223    8.7524    9.1174    9.9846     10.45   12.0283   15.1903   12.6608    9.2325   11.2858
  weight sum           107      1438       261      3688      2933      1377      6797       677       423       594
  precision         0.1005    0.1005    0.1005    0.1005    0.1005    0.1005    0.1005    0.1005    0.1005    0.1005

0Pitch(Hz)
  mean            218.1275  187.1289  141.0758  205.2387  127.0197   180.298   13.6877  118.1534  226.0414  164.0251
  std. dev.        95.0512   89.1848  107.2369   103.862  113.3109  104.9788   51.1466  105.4677   90.8899  110.3131
  weight sum           107      1438       261      3688      2933      1377      6797       677       423       594
  precision         0.1626    0.1626    0.1626    0.1626    0.1626    0.1626    0.1626    0.1626    0.1626    0.1626

0RawPitch
  mean            206.6453  182.7671  118.1042   194.723  111.0724  173.1119   11.1121   99.3424  217.7899  151.3042
  std. dev.       107.5275   93.8486  105.1012  108.9604  114.3242   111.182   45.2351  102.4698   96.3272  114.0339
  weight sum           107      1438       261      3688      2933      1377      6797       677       423       594
  precision         0.1679    0.1679    0.1679    0.1679    0.1679    0.1679    0.1679    0.1679    0.1679    0.1679

0SmPitch
  mean            216.3151  185.0532  133.6333  203.0017  121.5226  177.9648   12.1409  112.8848  225.0495  160.0578
  std. dev.        97.3174    91.154  104.9032  105.5608  114.1845  106.8233   46.8868  104.8411   91.3186  112.2555
  weight sum           107      1438       261      3688      2933      1377      6797       677       423       594
  precision         0.1647    0.1647    0.1647    0.1647    0.1647    0.1647    0.1647    0.1647    0.1647    0.1647

0Melogram(st)
  mean             52.3042   50.1673   40.1599   50.6646   33.5543   46.7989    4.1821   33.5997   52.9506   42.9332
  std. dev.        16.2008    15.729   23.6891   16.8735   26.8996   20.3195   14.5486   26.2392   16.4082   23.4206
  weight sum           107      1438       261      3688      2933      1377      6797       677       423       594
  precision         0.0294    0.0294    0.0294    0.0294    0.0294    0.0294    0.0294    0.0294    0.0294    0.0294

0ZCross
  mean              4.4338    4.8777    2.0356    6.0537    3.1165    4.0104    0.1759    1.7089    3.6091    2.2633
  std. dev.         2.8448    3.2885    2.1197    4.5907    4.7317    3.2415    0.9112    2.0853     2.929    2.1902
  weight sum           107      1438       261      3688      2933      1377      6797       677       423       594
  precision         1.2927    1.2927    1.2927    1.2927    1.2927    1.2927    1.2927    1.2927    1.2927    1.2927

0F1(Hz)
  mean            508.9472  452.4055  427.4933  601.6725  361.7945  474.0843   46.3495  304.5369  482.6221  387.8062
  std. dev.        182.517  159.6131  266.6231   285.672  280.8176  229.5879  157.5663   257.521  319.3509  236.7462
  weight sum           107      1438       261      3688      2933      1377      6797       677       423       594
  precision         0.3688    0.3688    0.3688    0.3688    0.3688    0.3688    0.3688    0.3688    0.3688    0.3688

0F2(Hz)
  mean           1730.5088 1730.4304 1255.6134 1529.4088 1117.0915 1149.4791  141.6776 1045.9701 1027.4385 1355.9289
  std. dev.       532.3332  583.9406  728.5852   564.757  826.5133  557.6755  475.8914  838.9015  482.4236   740.105
  weight sum           107      1438       261      3688      2933      1377      6797       677       423       594
  precision         0.4504    0.4504    0.4504    0.4504    0.4504    0.4504    0.4504    0.4504    0.4504    0.4504

0F3(Hz)
  mean           2976.1527 2566.2209 2161.8658 2625.3755  1927.844 2474.5963  243.8031 1787.0178 2578.9648 2275.3297
  std. dev.       827.9906  864.4824 1236.4745  873.1643 1389.7671 1047.0894  803.7435 1417.9226   937.242 1178.2882
  weight sum           107      1438       261      3688      2933      1377      6797       677       423       594
  precision         0.6705    0.6705    0.6705    0.6705    0.6705    0.6705    0.6705    0.6705    0.6705    0.6705

0F4(Hz)
  mean           2973.4111 3090.2109 2569.1202 3063.7655 2228.6958 2853.8724  293.9019 2052.3429 2942.8419  2712.388
  std. dev.       831.3383 1010.4123  1435.181  1001.764 1597.0415 1192.6404  966.7162 1617.2317  994.8814 1372.7244
  weight sum           107      1438       261      3688      2933      1377      6797       677       423       594
  precision         0.6851    0.6851    0.6851    0.6851    0.6851    0.6851    0.6851    0.6851    0.6851    0.6851

1Int(dB)
  mean              -7.615   -5.4216  -14.8768   -5.4273   -15.907   -8.3525  -49.8199   -17.257   -5.5461  -12.4295
  std. dev.         7.8549    8.2134    8.5952    9.7157    9.8974   12.1594   14.6152   11.8848    7.9501   10.5978
  weight sum           107      1438       261      3688      2933      1377      6797       677       423       594
  precision         0.1005    0.1005    0.1005    0.1005    0.1005    0.1005    0.1005    0.1005    0.1005    0.1005

1Pitch(Hz)
  mean            217.1294  190.3918  138.4937  206.5475  125.7212  179.1301   11.8118  127.2198  230.9859  166.0775
  std. dev.          97.99   87.4257  106.1938  102.6023  113.8857   103.979   47.8985  104.5917   83.0165  107.8218
  weight sum           107      1438       261      3688      2933      1377      6797       677       423       594
  precision         0.1626    0.1626    0.1626    0.1626    0.1626    0.1626    0.1626    0.1626    0.1626    0.1626

1RawPitch
  mean             203.988  186.9416  114.3432  196.5165  108.2636  172.8881    9.4597  108.5129  221.8351  152.1597
  std. dev.       111.7049   92.1579  102.4081  107.8174  114.0645  110.0663   41.8723  102.4682   90.5835   112.921
  weight sum           107      1438       261      3688      2933      1377      6797       677       423       594
  precision         0.1679    0.1679    0.1679    0.1679    0.1679    0.1679    0.1679    0.1679    0.1679    0.1679

1SmPitch
  mean            215.3063  188.8901  131.3637  204.4857  119.6298  177.1958   10.2225  122.4141  230.1655   161.354
  std. dev.       100.1796   88.8533  103.6517  104.2821  114.6634  105.5718   43.0537  104.5656   83.5323   110.475
  weight sum           107      1438       261      3688      2933      1377      6797       677       423       594
  precision         0.1647    0.1647    0.1647    0.1647    0.1647    0.1647    0.1647    0.1647    0.1647    0.1647

1Melogram(st)
  mean             51.8536    50.757   39.8199   51.1396   32.9778   46.9889    3.6598   35.8749   54.7081   43.3262
  std. dev.        16.9829   14.7786   23.9008   16.1076   27.1031   20.0024   13.7158   25.7164      13.2   23.0622
  weight sum           107      1438       261      3688      2933      1377      6797       677       423       594
  precision         0.0294    0.0294    0.0294    0.0294    0.0294    0.0294    0.0294    0.0294    0.0294    0.0294

1ZCross
  mean              4.3613    4.8831     1.892    6.1024    3.1024    4.0329    0.1407    1.8063     3.713    2.2589
  std. dev.         2.7409    3.1607    1.9842    4.5486    4.8997    2.9611    0.7914    2.0083    2.8728    2.0707
  weight sum           107      1438       261      3688      2933      1377      6797       677       423       594
  precision         1.2927    1.2927    1.2927    1.2927    1.2927    1.2927    1.2927    1.2927    1.2927    1.2927

1F1(Hz)
  mean            500.5551  467.7497  399.7197  620.2592  340.6224  488.3137   40.0642  301.5955  499.4556  383.8168
  std. dev.       184.0787  137.6849  273.4014  272.7775  280.0634  220.1308  146.5236  251.2771   302.477  232.2972
  weight sum           107      1438       261      3688      2933      1377      6797       677       423       594
  precision         0.3688    0.3688    0.3688    0.3688    0.3688    0.3688    0.3688    0.3688    0.3688    0.3688

1F2(Hz)
  mean            1706.467 1804.3312 1203.5318 1571.1457 1064.7521 1157.6298  123.4695 1056.1009 1072.0404 1349.6905
  std. dev.       559.5245  496.1344  754.0967  523.0015   835.656  525.4581  446.9566  834.8657  424.8655  728.3086
  weight sum           107      1438       261      3688      2933      1377      6797       677       423       594
  precision         0.4504    0.4504    0.4504    0.4504    0.4504    0.4504    0.4504    0.4504    0.4504    0.4504

1F3(Hz)
  mean           2943.5343 2653.2835 2069.2644  2688.852 1843.0025 2526.8298  212.0373 1805.2244 2703.6172 2268.8241
  std. dev.       876.6084  742.6344 1282.9054  785.4546 1412.8812  995.0347  754.2349 1419.6008  758.4179 1165.0514
  weight sum           107      1438       261      3688      2933      1377      6797       677       423       594
  precision         0.6705    0.6705    0.6705    0.6705    0.6705    0.6705    0.6705    0.6705    0.6705    0.6705

1F4(Hz)
  mean           2953.1522 3189.0151 2471.0333 3135.5866 2133.8449 2910.5036  256.0029 2071.6081 3086.4504 2720.5333
  std. dev.       883.5322  856.4692 1495.7988  897.0935 1628.0142 1127.9374  908.3598 1617.3773  766.0819 1363.5495
  weight sum           107      1438       261      3688      2933      1377      6797       677       423       594
  precision         0.6851    0.6851    0.6851    0.6851    0.6851    0.6851    0.6851    0.6851    0.6851    0.6851





=== Stratified cross-validation ===

Correctly Classified Instances        9724               53.1511 %
Incorrectly Classified Instances      8571               46.8489 %
Kappa statistic                          0.4014
K&B Relative Info Score             709252.4912 %
K&B Information Score                18321.5283 bits      1.0015 bits/instance
Class complexity | order 0           47241.9618 bits      2.5822 bits/instance
Class complexity | scheme           207362.8743 bits     11.3344 bits/instance
Complexity improvement     (Sf)    -160120.9125 bits     -8.7522 bits/instance
Mean absolute error                      0.0966
Root mean squared error                  0.2711
Relative absolute error                 61.8643 %
Root relative squared error             97.0164 %
Coverage of cases (0.95 level)          67.4009 %
Mean rel. region size (0.95 level)      21.3588 %
Total Number of Instances            18295     


=== Detailed Accuracy By Class ===

                 TP Rate  FP Rate  Precision  Recall   F-Measure  MCC      ROC Area  PRC Area  Class
                 0,065    0,012    0,032      0,065    0,043      0,038    0,770     0,021     C
                 0,701    0,256    0,189      0,701    0,298      0,263    0,822     0,255     E
                 0,027    0,010    0,039      0,027    0,032      0,021    0,740     0,031     FV
                 0,460    0,065    0,641      0,460    0,536      0,451    0,837     0,595     AI
                 0,165    0,028    0,528      0,165    0,252      0,231    0,735     0,381     CDGKNRSYZ
                 0,043    0,007    0,337      0,043    0,076      0,098    0,770     0,194     O
                 0,915    0,120    0,818      0,915    0,864      0,779    0,963     0,957     0
                 0,080    0,023    0,116      0,080    0,094      0,067    0,709     0,078     LT
                 0,428    0,024    0,295      0,428    0,349      0,337    0,866     0,343     U
                 0,012    0,008    0,047      0,012    0,019      0,007    0,729     0,061     MBP
Weighted Avg.    0,532    0,085    0,572      0,532    0,511      0,456    0,852     0,585     


=== Confusion Matrix ===

    a    b    c    d    e    f    g    h    i    j   <-- classified as
    7   63    0   21    4    0    4    1    7    0 |    a = C
   59 1008    7  179   53    2   53   42   21   14 |    b = E
    1  127    7   34   17    7   52   12    3    1 |    c = FV
   37 1417   40 1698  125   26  164   98   55   28 |    d = AI
   73 1047   63  320  485   28  676  107   90   44 |    e = CDGKNRSYZ
   11  678   27  183   59   59  137   31  181   11 |    f = O
    8  247   24   75   96   29 6218   58   18   24 |    g = 0
    7  291    6   49   38    9  197   54   10   16 |    h = LT
    5  132    1   44    3   11    8   34  181    4 |    i = U
   11  317    5   47   38    4   88   30   47    7 |    j = MBP

=== Percent Confusion Matrix ===
a	b	c	d	e	f	g	h	i	j	
6.54	58.88	0.0	19.63	3.74	0.0	3.74	0.93	6.54	0.0	 a = C
4.1	70.1	0.49	12.45	3.69	0.14	3.69	2.92	1.46	0.97	 b = E
0.38	48.66	2.68	13.03	6.51	2.68	19.92	4.6	1.15	0.38	 c = FV
1.0	38.42	1.08	46.04	3.39	0.7	4.45	2.66	1.49	0.76	 d = AI
2.49	35.7	2.15	10.91	16.54	0.95	23.05	3.65	3.07	1.5	 e = CDGKNRSYZ
0.8	49.24	1.96	13.29	4.28	4.28	9.95	2.25	13.14	0.8	 f = O
0.12	3.63	0.35	1.1	1.41	0.43	91.48	0.85	0.26	0.35	 g = 0
1.03	42.98	0.89	7.24	5.61	1.33	29.1	7.98	1.48	2.36	 h = LT
1.18	31.21	0.24	10.4	0.71	2.6	1.89	8.04	42.79	0.95	 i = U
1.85	53.37	0.84	7.91	6.4	0.67	14.81	5.05	7.91	1.18	 j = MBP
