Timestamp:2014-12-07-11:13:43
Inventario:I4
Intervalo:1ms
Ngramas:5
Clasificador:NaiveBayes
Relation Name:  I4-1ms-5gramas
Num Instances:  183400
Num Attributes: 51

     Name                      Type  Nom  Int Real     Missing      Unique  Dist
   1 0Int(dB)                   Num   0%   9%  91%     0 /  0%     2 /  0%   779 
   2 0Pitch(Hz)                 Num   0%  51%  49%     0 /  0%   256 /  0%  4213 
   3 0RawPitch                  Num   0%  55%  45%     0 /  0%   417 /  0%  4119 
   4 0SmPitch                   Num   0%  53%  47%     0 /  0%   263 /  0%  4193 
   5 0Melogram(st)              Num   0%  49%  51%     0 /  0%   133 /  0%  3454 
   6 0ZCross                    Num   0% 100%   0%     0 /  0%     4 /  0%    58 
   7 0F1(Hz)                    Num   0%  52%  48%     0 /  0%  1154 /  1%  4824 
   8 0F2(Hz)                    Num   0%  52%  48%     0 /  0%  2223 /  1%  6697 
   9 0F3(Hz)                    Num   0%  53%  47%     0 /  0%  1930 /  1%  6200 
  10 0F4(Hz)                    Num   0%  52%  48%     0 /  0%  1933 /  1%  6096 
  11 1Int(dB)                   Num   0%   9%  91%     0 /  0%     2 /  0%   779 
  12 1Pitch(Hz)                 Num   0%  51%  49%     0 /  0%   256 /  0%  4213 
  13 1RawPitch                  Num   0%  55%  45%     0 /  0%   417 /  0%  4119 
  14 1SmPitch                   Num   0%  53%  47%     0 /  0%   263 /  0%  4193 
  15 1Melogram(st)              Num   0%  49%  51%     0 /  0%   133 /  0%  3454 
  16 1ZCross                    Num   0% 100%   0%     0 /  0%     4 /  0%    58 
  17 1F1(Hz)                    Num   0%  52%  48%     0 /  0%  1154 /  1%  4824 
  18 1F2(Hz)                    Num   0%  52%  48%     0 /  0%  2223 /  1%  6697 
  19 1F3(Hz)                    Num   0%  53%  47%     0 /  0%  1930 /  1%  6200 
  20 1F4(Hz)                    Num   0%  52%  48%     0 /  0%  1933 /  1%  6096 
  21 2Int(dB)                   Num   0%   9%  91%     0 /  0%     3 /  0%   780 
  22 2Pitch(Hz)                 Num   0%  51%  49%     0 /  0%   256 /  0%  4213 
  23 2RawPitch                  Num   0%  55%  45%     0 /  0%   417 /  0%  4119 
  24 2SmPitch                   Num   0%  53%  47%     0 /  0%   263 /  0%  4193 
  25 2Melogram(st)              Num   0%  49%  51%     0 /  0%   133 /  0%  3454 
  26 2ZCross                    Num   0% 100%   0%     0 /  0%     4 /  0%    58 
  27 2F1(Hz)                    Num   0%  52%  48%     0 /  0%  1154 /  1%  4824 
  28 2F2(Hz)                    Num   0%  52%  48%     0 /  0%  2223 /  1%  6697 
  29 2F3(Hz)                    Num   0%  53%  47%     0 /  0%  1930 /  1%  6200 
  30 2F4(Hz)                    Num   0%  52%  48%     0 /  0%  1933 /  1%  6096 
  31 3Int(dB)                   Num   0%   9%  91%     0 /  0%     4 /  0%   781 
  32 3Pitch(Hz)                 Num   0%  51%  49%     0 /  0%   256 /  0%  4213 
  33 3RawPitch                  Num   0%  55%  45%     0 /  0%   417 /  0%  4119 
  34 3SmPitch                   Num   0%  53%  47%     0 /  0%   263 /  0%  4193 
  35 3Melogram(st)              Num   0%  49%  51%     0 /  0%   133 /  0%  3454 
  36 3ZCross                    Num   0% 100%   0%     0 /  0%     4 /  0%    58 
  37 3F1(Hz)                    Num   0%  52%  48%     0 /  0%  1154 /  1%  4824 
  38 3F2(Hz)                    Num   0%  52%  48%     0 /  0%  2223 /  1%  6697 
  39 3F3(Hz)                    Num   0%  53%  47%     0 /  0%  1930 /  1%  6200 
  40 3F4(Hz)                    Num   0%  52%  48%     0 /  0%  1933 /  1%  6096 
  41 4Int(dB)                   Num   0%   9%  91%     0 /  0%     3 /  0%   781 
  42 4Pitch(Hz)                 Num   0%  51%  49%     0 /  0%   256 /  0%  4213 
  43 4RawPitch                  Num   0%  55%  45%     0 /  0%   417 /  0%  4119 
  44 4SmPitch                   Num   0%  53%  47%     0 /  0%   263 /  0%  4193 
  45 4Melogram(st)              Num   0%  49%  51%     0 /  0%   133 /  0%  3454 
  46 4ZCross                    Num   0% 100%   0%     0 /  0%     4 /  0%    58 
  47 4F1(Hz)                    Num   0%  52%  48%     0 /  0%  1154 /  1%  4824 
  48 4F2(Hz)                    Num   0%  52%  48%     0 /  0%  2223 /  1%  6697 
  49 4F3(Hz)                    Num   0%  53%  47%     0 /  0%  1930 /  1%  6200 
  50 4F4(Hz)                    Num   0%  52%  48%     0 /  0%  1933 /  1%  6096 
  51 class                      Nom 100%   0%   0%     0 /  0%     0 /  0%    10 


Naive Bayes Classifier

                    Class
Attribute               C         E        FV        AI CDGKNRSYZ         O         0        LT         U       MBP
                   (0.01)    (0.07)    (0.01)    (0.19)    (0.16)    (0.07)    (0.39)    (0.04)    (0.02)    (0.03)
====================================================================================================================
0Int(dB)
  mean             -7.6644   -5.1696  -15.0461   -5.1016  -16.0069   -8.1054  -47.9923  -17.4717   -5.2821   -12.615
  std. dev.         8.0035    8.0853    8.9042    9.5408     9.922   12.1344   16.4641   12.0911    7.8999   10.8018
  weight sum          1083     13740      2561     35640     28459     13234     72113      6619      4137      5814
  precision          0.104     0.104     0.104     0.104     0.104     0.104     0.104     0.104     0.104     0.104

0Pitch(Hz)
  mean            212.0743  189.4232  130.9209  206.7606   117.276  178.7508   17.5051  117.7675  228.4759  158.4318
  std. dev.        101.118   88.4732  107.5421  104.5341  114.6044  105.5185   57.5163  104.6665   85.8386  112.0361
  weight sum          1083     13740      2561     35640     28459     13234     72113      6619      4137      5814
  precision         0.1184    0.1184    0.1184    0.1184    0.1184    0.1184    0.1184    0.1184    0.1184    0.1184

0RawPitch
  mean             201.317  185.0572  105.6463   196.764  100.0193  172.8748   14.3612   96.8125  219.6843  146.4328
  std. dev.       112.3813   96.0935  104.0715  111.1729  115.0918  113.4727    52.147  102.6016   94.3317  117.2396
  weight sum          1083     13740      2561     35640     28459     13234     72113      6619      4137      5814
  precision         0.1214    0.1214    0.1214    0.1214    0.1214    0.1214    0.1214    0.1214    0.1214    0.1214

0SmPitch
  mean            210.3391  187.8291   120.628  204.6467  110.9466  176.4732   15.8666  111.7213  227.9537  154.1239
  std. dev.       103.1101   89.7533  104.8865  106.2952  114.8878  107.8241   53.8209  104.5147   86.0974  114.4166
  weight sum          1083     13740      2561     35640     28459     13234     72113      6619      4137      5814
  precision          0.119     0.119     0.119     0.119     0.119     0.119     0.119     0.119     0.119     0.119

0Melogram(st)
  mean             51.2081   50.2123   36.6979      50.6   30.3703   46.5275    5.1312   32.7151   53.7531   41.0599
  std. dev.        17.7026    15.761   25.1311   17.1175   27.4705   20.5358   15.9025   26.4842   14.8416   24.5639
  weight sum          1083     13740      2561     35640     28459     13234     72113      6619      4137      5814
  precision         0.0239    0.0239    0.0239    0.0239    0.0239    0.0239    0.0239    0.0239    0.0239    0.0239

0ZCross
  mean              4.6104    5.2651    2.0478    6.6075    3.3041    4.3731     0.274     1.973    4.0594    2.4543
  std. dev.         2.9143    3.3205    2.2007    4.7071    5.2871    3.0841    1.1727    2.2478    2.9973    2.2427
  weight sum          1083     13740      2561     35640     28459     13234     72113      6619      4137      5814
  precision         1.0175    1.0175    1.0175    1.0175    1.0175    1.0175    1.0175    1.0175    1.0175    1.0175

0F1(Hz)
  mean            493.2044   461.132  385.4377  613.9974   324.936  481.5603   56.3888  285.4314  495.1306  370.5251
  std. dev.       193.7428  150.0958  279.0513  284.6259  282.7829  228.3327   170.272  254.0995  311.7224  238.6588
  weight sum          1083     13740      2561     35640     28459     13234     72113      6619      4137      5814
  precision         0.3611    0.3611    0.3611    0.3611    0.3611    0.3611    0.3611    0.3611    0.3611    0.3611

0F2(Hz)
  mean           1689.4501 1772.6527 1167.0887 1539.2926 1017.0207 1137.1547   176.431  998.9743 1043.1641 1303.0755
  std. dev.       594.9735  544.8328  778.1683  557.0243   845.901  541.7451  527.0815  845.8566  437.0492  755.1579
  weight sum          1083     13740      2561     35640     28459     13234     72113      6619      4137      5814
  precision         0.4448    0.4448    0.4448    0.4448    0.4448    0.4448    0.4448    0.4448    0.4448    0.4448

0F3(Hz)
  mean           2893.6375 2603.6609 1991.6318 2640.9461 1761.2985 2487.8665  301.0086 1705.5153 2649.1074 2193.4003
  std. dev.       935.5346  809.9853 1316.3866  855.6092 1434.9352 1035.9314  883.8958 1438.0505  823.2671 1215.1125
  weight sum          1083     13740      2561     35640     28459     13234     72113      6619      4137      5814
  precision         0.6646    0.6646    0.6646    0.6646    0.6646    0.6646    0.6646    0.6646    0.6646    0.6646

0F4(Hz)
  mean           2931.8381 3138.0613 2379.2068 3079.6042 2032.9088 2863.2558  361.5801 1962.8552 3037.3732 2631.0005
  std. dev.       949.4963  942.7734 1537.9516  979.3456 1648.3493  1175.482  1059.394 1642.4176  853.8923 1426.5211
  weight sum          1083     13740      2561     35640     28459     13234     72113      6619      4137      5814
  precision         0.6804    0.6804    0.6804    0.6804    0.6804    0.6804    0.6804    0.6804    0.6804    0.6804

1Int(dB)
  mean             -7.6798    -5.156  -15.0484   -5.0979  -16.0028   -8.1103  -48.0284  -17.2654   -5.2051  -12.5205
  std. dev.         8.0044    8.0597    8.8828      9.53    9.8869   12.1522   16.4116   12.0313    7.7835   10.7402
  weight sum          1083     13740      2561     35640     28459     13234     72113      6619      4137      5814
  precision          0.104     0.104     0.104     0.104     0.104     0.104     0.104     0.104     0.104     0.104

1Pitch(Hz)
  mean            211.9943  189.7736  130.5895  206.8303  117.1808   178.609   17.3159  119.0772   228.829  158.7298
  std. dev.        101.397   88.2344  107.4498   104.471  114.6817  105.4051   57.2259  104.6373   85.2298  111.7609
  weight sum          1083     13740      2561     35640     28459     13234     72113      6619      4137      5814
  precision         0.1184    0.1184    0.1184    0.1184    0.1184    0.1184    0.1184    0.1184    0.1184    0.1184

1RawPitch
  mean             201.427  185.2743  105.4364  196.9051    99.796  172.7411   14.1972   98.0919  220.0766  146.8224
  std. dev.       112.4598   95.9379   103.892  111.1035  115.0866  113.3437   51.8741  102.8581   93.8332  117.0312
  weight sum          1083     13740      2561     35640     28459     13234     72113      6619      4137      5814
  precision         0.1214    0.1214    0.1214    0.1214    0.1214    0.1214    0.1214    0.1214    0.1214    0.1214

1SmPitch
  mean            210.2592  188.2045  120.3297  204.7364  110.7886  176.3386   15.6945  113.0667  228.2692  154.2915
  std. dev.        103.382   89.4937  104.7626  106.2124  114.9435  107.7071   53.5412  104.6005    85.559  114.2373
  weight sum          1083     13740      2561     35640     28459     13234     72113      6619      4137      5814
  precision          0.119     0.119     0.119     0.119     0.119     0.119     0.119     0.119     0.119     0.119

1Melogram(st)
  mean             51.1648   50.2797    36.619   50.6323   30.3195   46.5103    5.0851   33.0223   53.9044   41.1472
  std. dev.         17.773   15.6601   25.1611   17.0642   27.4849    20.538     15.84   26.4338   14.5585   24.5066
  weight sum          1083     13740      2561     35640     28459     13234     72113      6619      4137      5814
  precision         0.0239    0.0239    0.0239    0.0239    0.0239    0.0239    0.0239    0.0239    0.0239    0.0239

1ZCross
  mean              4.6038    5.2602    2.0498    6.6067    3.3063    4.3728    0.2697    2.0062    4.0672    2.4709
  std. dev.         2.9055    3.3214     2.208    4.7064    5.2905    3.0812    1.1656    2.2489    2.9913    2.2406
  weight sum          1083     13740      2561     35640     28459     13234     72113      6619      4137      5814
  precision         1.0175    1.0175    1.0175    1.0175    1.0175    1.0175    1.0175    1.0175    1.0175    1.0175

1F1(Hz)
  mean            492.6272  462.5388  383.0549  615.6723   322.988  482.8394   55.8187  285.6604  496.8631  370.2911
  std. dev.       193.9443  148.1545  278.9196  283.4583  282.5155  227.5019  169.4384  253.6781  309.9663  238.1729
  weight sum          1083     13740      2561     35640     28459     13234     72113      6619      4137      5814
  precision         0.3611    0.3611    0.3611    0.3611    0.3611    0.3611    0.3611    0.3611    0.3611    0.3611

1F2(Hz)
  mean           1686.7391 1779.4393 1164.2707 1543.1743 1012.1626 1137.9104  174.7317 1000.8093 1047.9548 1302.6268
  std. dev.       597.1744  536.6813  779.7988  553.3829  846.2216  538.8449  524.8459  845.4894   431.069  753.7966
  weight sum          1083     13740      2561     35640     28459     13234     72113      6619      4137      5814
  precision         0.4448    0.4448    0.4448    0.4448    0.4448    0.4448    0.4448    0.4448    0.4448    0.4448

1F3(Hz)
  mean            2890.525 2611.7843 1985.3528 2646.9407 1753.3323 2492.6874  298.0271 1708.6548 2662.0438 2193.0228
  std. dev.       939.5775  798.7858 1318.4833   847.927 1436.1893 1031.3021  879.9931 1438.0715  804.1633 1213.2906
  weight sum          1083     13740      2561     35640     28459     13234     72113      6619      4137      5814
  precision         0.6646    0.6646    0.6646    0.6646    0.6646    0.6646    0.6646    0.6646    0.6646    0.6646

1F4(Hz)
  mean            2929.932 3147.1235 2373.2424 3086.0887 2024.1814 2868.4799  358.0783 1966.4711 3051.8664 2632.6489
  std. dev.       954.1641  928.5918 1541.2239  970.1414 1650.3259 1169.7236 1054.9195 1642.3948  828.8457 1425.2945
  weight sum          1083     13740      2561     35640     28459     13234     72113      6619      4137      5814
  precision         0.6804    0.6804    0.6804    0.6804    0.6804    0.6804    0.6804    0.6804    0.6804    0.6804

2Int(dB)
  mean             -7.6912   -5.1527  -15.0454   -5.1011  -15.9936   -8.1232  -48.0653  -17.0432   -5.1335  -12.4222
  std. dev.         8.0009    8.0415    8.8688     9.526    9.8598   12.1734   16.3664   11.9763    7.6759   10.6829
  weight sum          1083     13740      2561     35640     28459     13234     72113      6619      4137      5814
  precision         0.1039    0.1039    0.1039    0.1039    0.1039    0.1039    0.1039    0.1039    0.1039    0.1039

2Pitch(Hz)
  mean            211.9162  190.0442  130.2645  206.8445  117.1622  178.3926   17.1392  120.5976  229.1151  159.0019
  std. dev.       101.6738   88.0362  107.3679  104.4536  114.7579  105.3465   56.9512   104.644   84.6861  111.4961
  weight sum          1083     13740      2561     35640     28459     13234     72113      6619      4137      5814
  precision         0.1184    0.1184    0.1184    0.1184    0.1184    0.1184    0.1184    0.1184    0.1184    0.1184

2RawPitch
  mean            201.4818  185.3904  105.2473  196.9595   99.6352  172.5714   14.0528    99.641  220.3812  147.2724
  std. dev.       112.5636   95.8388  103.6816  111.0958  115.0822  113.2081   51.6504  103.2233   93.3578  116.8386
  weight sum          1083     13740      2561     35640     28459     13234     72113      6619      4137      5814
  precision         0.1214    0.1214    0.1214    0.1214    0.1214    0.1214    0.1214    0.1214    0.1214    0.1214

2SmPitch
  mean            210.3612  188.5286  120.0376  204.7812  110.6896  176.1475   15.5187  114.5991  228.5834  154.4932
  std. dev.       103.4558   89.2681  104.6493  106.1621   115.003  107.6301   53.2527  104.6978   85.0153  114.0328
  weight sum          1083     13740      2561     35640     28459     13234     72113      6619      4137      5814
  precision          0.119     0.119     0.119     0.119     0.119     0.119     0.119     0.119     0.119     0.119

2Melogram(st)
  mean             51.1216   50.3338   36.5638     50.66   30.2784   46.4929     5.037   33.3548   54.0407   41.2442
  std. dev.        17.8431    15.575    25.185   17.0168   27.4986   20.5401   15.7745   26.3745   14.2925   24.4436
  weight sum          1083     13740      2561     35640     28459     13234     72113      6619      4137      5814
  precision         0.0239    0.0239    0.0239    0.0239    0.0239    0.0239    0.0239    0.0239    0.0239    0.0239

2ZCross
  mean              4.6038    5.2522    2.0494    6.6041    3.3098    4.3707    0.2663    2.0437    4.0724    2.4891
  std. dev.          2.893    3.3232    2.2106    4.7075     5.292    3.0828     1.162    2.2514    2.9865    2.2391
  weight sum          1083     13740      2561     35640     28459     13234     72113      6619      4137      5814
  precision         1.0175    1.0175    1.0175    1.0175    1.0175    1.0175    1.0175    1.0175    1.0175    1.0175

2F1(Hz)
  mean            492.1557  463.9738   380.668    617.24  321.0756  484.0118   55.2567  286.2208  498.5025  370.2872
  std. dev.        194.247  146.1336  278.7586  282.3824  282.2229  226.7963  168.6123  253.2383  308.2875  237.6445
  weight sum          1083     13740      2561     35640     28459     13234     72113      6619      4137      5814
  precision         0.3611    0.3611    0.3611    0.3611    0.3611    0.3611    0.3611    0.3611    0.3611    0.3611

2F2(Hz)
  mean           1683.9156 1786.3109 1161.6312 1546.7146  1007.408 1138.3786  173.0723 1003.6401 1052.4199 1302.7636
  std. dev.       599.3204  528.1199  781.5797  549.9976  846.4881  536.2083   522.685  844.9572  425.1574  752.0998
  weight sum          1083     13740      2561     35640     28459     13234     72113      6619      4137      5814
  precision         0.4448    0.4448    0.4448    0.4448    0.4448    0.4448    0.4448    0.4448    0.4448    0.4448

2F3(Hz)
  mean            2887.372 2620.1056 1979.1395 2652.4581 1745.5326 2496.9201  295.0943 1713.5942 2674.1003 2193.5767
  std. dev.       943.5462  787.0306 1320.5796  840.8201 1437.3296 1027.3116    876.14 1437.8463  785.3599 1210.8731
  weight sum          1083     13740      2561     35640     28459     13234     72113      6619      4137      5814
  precision         0.6646    0.6646    0.6646    0.6646    0.6646    0.6646    0.6646    0.6646    0.6646    0.6646

2F4(Hz)
  mean           2928.1402  3156.326 2367.2839 3091.9913 2015.7829 2872.8522  354.6326 1972.1122 3065.6415 2635.3487
  std. dev.       958.8293  913.7122 1544.4726  961.6184  1652.276 1164.6509 1050.5011 1642.0156  804.1571 1423.2744
  weight sum          1083     13740      2561     35640     28459     13234     72113      6619      4137      5814
  precision         0.6804    0.6804    0.6804    0.6804    0.6804    0.6804    0.6804    0.6804    0.6804    0.6804

3Int(dB)
  mean             -7.7014   -5.1597   -15.033   -5.1103  -15.9758   -8.1449  -48.0906  -16.8068   -5.0726  -12.3149
  std. dev.         7.9943    8.0314    8.8639    9.5283    9.8397   12.1979   16.3157   11.9263    7.5754   10.6245
  weight sum          1083     13740      2561     35640     28459     13234     72113      6619      4137      5814
  precision         0.1037    0.1037    0.1037    0.1037    0.1037    0.1037    0.1037    0.1037    0.1037    0.1037

3Pitch(Hz)
  mean            211.8357   190.258  129.9494  206.8242  117.2022  178.1206   16.9614  122.1507  229.3502  159.4679
  std. dev.       101.9447   87.8928  107.2999  104.4571  114.8388   105.326   56.6741  104.6093   84.2123  111.1515
  weight sum          1083     13740      2561     35640     28459     13234     72113      6619      4137      5814
  precision         0.1184    0.1184    0.1184    0.1184    0.1184    0.1184    0.1184    0.1184    0.1184    0.1184

3RawPitch
  mean            201.5101  185.5139  104.9895  196.9665   99.5064   172.363   13.9206  101.2918  220.5579  147.7852
  std. dev.       112.6818   95.7233   103.475  111.1115  115.1058  113.1234   51.4529  103.5218   92.9298  116.6168
  weight sum          1083     13740      2561     35640     28459     13234     72113      6619      4137      5814
  precision         0.1214    0.1214    0.1214    0.1214    0.1214    0.1214    0.1214    0.1214    0.1214    0.1214

3SmPitch
  mean            210.4603  188.8112  119.7549  204.7914  110.6377  175.8934   15.3493  116.1154  228.8462  154.8892
  std. dev.       103.5242   89.0812  104.5511  106.1397  115.0686   107.593   52.9684  104.7641   84.5411  113.7583
  weight sum          1083     13740      2561     35640     28459     13234     72113      6619      4137      5814
  precision          0.119     0.119     0.119     0.119     0.119     0.119     0.119     0.119     0.119     0.119

3Melogram(st)
  mean             51.0783    50.379   36.5095   50.6725   30.2666   46.4586    4.9861   33.7087     54.16   41.3724
  std. dev.        17.9128   15.5007   25.2094     16.99   27.5101   20.5573   15.7047   26.3027   14.0434   24.3658
  weight sum          1083     13740      2561     35640     28459     13234     72113      6619      4137      5814
  precision         0.0239    0.0239    0.0239    0.0239    0.0239    0.0239    0.0239    0.0239    0.0239    0.0239

3ZCross
  mean              4.6029    5.2408    2.0498    6.6004    3.3147    4.3663    0.2635    2.0855    4.0771     2.508
  std. dev.         2.8824    3.3253    2.2131    4.7102    5.2928     3.087    1.1594     2.258    2.9819     2.237
  weight sum          1083     13740      2561     35640     28459     13234     72113      6619      4137      5814
  precision         1.0175    1.0175    1.0175    1.0175    1.0175    1.0175    1.0175    1.0175    1.0175    1.0175

3F1(Hz)
  mean            491.6485  465.3474  378.3582  618.6325  319.2691  485.0896   54.6968  287.5771  499.8715  370.4332
  std. dev.       194.5674  144.1266  278.5939  281.4779  281.9122  226.1543  167.7993  252.7661  306.7882  237.1009
  weight sum          1083     13740      2561     35640     28459     13234     72113      6619      4137      5814
  precision         0.3611    0.3611    0.3611    0.3611    0.3611    0.3611    0.3611    0.3611    0.3611    0.3611

3F2(Hz)
  mean           1681.1007 1793.0334 1159.1061 1549.7435  1002.967  1138.672  171.3507 1009.1151 1056.4734 1303.2526
  std. dev.       601.4811  519.5885  783.4471  547.1516  846.7067  533.7441  520.3742  844.0227  419.7581  750.2659
  weight sum          1083     13740      2561     35640     28459     13234     72113      6619      4137      5814
  precision         0.4448    0.4448    0.4448    0.4448    0.4448    0.4448    0.4448    0.4448    0.4448    0.4448

3F3(Hz)
  mean           2884.2338 2628.2257 1972.9814  2657.204 1738.2081 2500.7441  292.1183 1722.6744 2684.8467 2194.6698
  std. dev.       947.4571  775.3306  1322.667  834.8033 1438.3015 1023.7463  872.1937 1436.6171  768.1272 1208.1856
  weight sum          1083     13740      2561     35640     28459     13234     72113      6619      4137      5814
  precision         0.6646    0.6646    0.6646    0.6646    0.6646    0.6646    0.6646    0.6646    0.6646    0.6646

3F4(Hz)
  mean           2926.4358  3165.364 2361.3224 3096.9254  2007.983 2876.6923  351.1389 1983.0411 3077.7233 2638.4197
  std. dev.       963.4929  898.8907 1547.6942  954.3579 1654.0729 1160.0433 1045.9904 1640.9064  781.3188 1420.8135
  weight sum          1083     13740      2561     35640     28459     13234     72113      6619      4137      5814
  precision         0.6804    0.6804    0.6804    0.6804    0.6804    0.6804    0.6804    0.6804    0.6804    0.6804

4Int(dB)
  mean             -7.7106   -5.1788  -15.0107   -5.1271  -15.9524   -8.1757  -48.1181  -16.5577   -5.0188  -12.2049
  std. dev.         7.9841    8.0296     8.868    9.5372    9.8275   12.2243   16.2755   11.8777    7.4803   10.5691
  weight sum          1083     13740      2561     35640     28459     13234     72113      6619      4137      5814
  precision         0.1037    0.1037    0.1037    0.1037    0.1037    0.1037    0.1037    0.1037    0.1037    0.1037

4Pitch(Hz)
  mean            211.7569  190.4015  129.6994  206.7814  117.2898  177.8211   16.7884  123.7462  229.5826  159.9332
  std. dev.        102.216   87.7758  107.2959   104.477  114.9223  105.3227   56.4061  104.5599   83.7347  110.8047
  weight sum          1083     13740      2561     35640     28459     13234     72113      6619      4137      5814
  precision         0.1184    0.1184    0.1184    0.1184    0.1184    0.1184    0.1184    0.1184    0.1184    0.1184

4RawPitch
  mean            201.5228  185.6605    104.69  196.9665   99.4493  172.1393   13.7661  102.8896  220.7885  148.2899
  std. dev.       112.8537   95.6276  103.2429  111.1278  115.1427  113.0491   51.2121  103.7161   92.5273  116.3341
  weight sum          1083     13740      2561     35640     28459     13234     72113      6619      4137      5814
  precision         0.1214    0.1214    0.1214    0.1214    0.1214    0.1214    0.1214    0.1214    0.1214    0.1214

4SmPitch
  mean            210.5612  189.0092  119.5928  204.7779  110.6566  175.6214   15.1799  117.6316  229.0387  155.3207
  std. dev.       103.5941   88.9353  104.4955  106.1403  115.1375  107.5646   52.6871  104.8077   84.1352  113.4664
  weight sum          1083     13740      2561     35640     28459     13234     72113      6619      4137      5814
  precision          0.119     0.119     0.119     0.119     0.119     0.119     0.119     0.119     0.119     0.119

4Melogram(st)
  mean             51.0349   50.4242   36.4608    50.676   30.2668   46.3993    4.9364   34.0968   54.2789    41.496
  std. dev.        17.9822   15.4261   25.2383   16.9756   27.5209   20.5969   15.6361   26.2191   13.7888   24.2847
  weight sum          1083     13740      2561     35640     28459     13234     72113      6619      4137      5814
  precision         0.0239    0.0239    0.0239    0.0239    0.0239    0.0239    0.0239    0.0239    0.0239    0.0239

4ZCross
  mean               4.602    5.2275    2.0522    6.5942    3.3206    4.3624    0.2613    2.1295    4.0827    2.5306
  std. dev.         2.8724     3.329    2.2158    4.7146    5.2929    3.0942    1.1581    2.2623    2.9766    2.2366
  weight sum          1083     13740      2561     35640     28459     13234     72113      6619      4137      5814
  precision         1.0175    1.0175    1.0175    1.0175    1.0175    1.0175    1.0175    1.0175    1.0175    1.0175

4F1(Hz)
  mean            491.6499   466.604  376.1761  619.9649  317.5819   485.985   54.1467  289.2213  501.0702  370.5749
  std. dev.       194.3911  142.2478  278.4193  280.6192  281.5459  225.6523   167.003  252.3268  305.5336   236.559
  weight sum          1083     13740      2561     35640     28459     13234     72113      6619      4137      5814
  precision         0.3611    0.3611    0.3611    0.3611    0.3611    0.3611    0.3611    0.3611    0.3611    0.3611

4F2(Hz)
  mean           1680.0266 1799.2434 1156.6522 1552.5994  998.9077  1138.609  169.6403  1015.283 1060.1575 1303.9361
  std. dev.       601.5161  511.5475  785.3266  544.4403  846.8404   531.629  518.0455  842.8887  414.9703  748.5317
  weight sum          1083     13740      2561     35640     28459     13234     72113      6619      4137      5814
  precision         0.4448    0.4448    0.4448    0.4448    0.4448    0.4448    0.4448    0.4448    0.4448    0.4448

4F3(Hz)
  mean           2884.1098 2635.6414 1966.8613 2661.7194 1731.5698 2503.6829  289.1712 1733.2514 2694.2989 2195.7732
  std. dev.       947.3313   764.297 1324.7402  829.0751 1439.1028 1021.0061  868.2313 1435.2739   752.613 1205.5074
  weight sum          1083     13740      2561     35640     28459     13234     72113      6619      4137      5814
  precision         0.6646    0.6646    0.6646    0.6646    0.6646    0.6646    0.6646    0.6646    0.6646    0.6646

4F4(Hz)
  mean           2927.2908 3173.7603 2355.3511 3101.5827 2001.0209 2879.5448  347.6842 1995.3469 3088.1777 2641.4866
  std. dev.       964.0065  884.9534 1550.8738  947.4372  1655.676 1156.4562 1041.4905 1639.3547  760.6201 1418.3454
  weight sum          1083     13740      2561     35640     28459     13234     72113      6619      4137      5814
  precision         0.6804    0.6804    0.6804    0.6804    0.6804    0.6804    0.6804    0.6804    0.6804    0.6804





=== Stratified cross-validation ===

Correctly Classified Instances       92492               50.4318 %
Incorrectly Classified Instances     90908               49.5682 %
Kappa statistic                          0.3664
K&B Relative Info Score            6429392.9713 %
K&B Information Score               163546.8776 bits      0.8917 bits/instance
Class complexity | order 0          466502.5586 bits      2.5436 bits/instance
Class complexity | scheme          5187743.7174 bits     28.2865 bits/instance
Complexity improvement     (Sf)    -4721241.1588 bits    -25.7429 bits/instance
Mean absolute error                      0.0989
Root mean squared error                  0.2992
Relative absolute error                 64.2142 %
Root relative squared error            107.8553 %
Coverage of cases (0.95 level)          56.06   %
Mean rel. region size (0.95 level)      13.526  %
Total Number of Instances           183400     


=== Detailed Accuracy By Class ===

                 TP Rate  FP Rate  Precision  Recall   F-Measure  MCC      ROC Area  PRC Area  Class
                 0,161    0,014    0,063      0,161    0,090      0,092    0,768     0,025     C
                 0,741    0,241    0,199      0,741    0,314      0,294    0,840     0,309     E
                 0,109    0,041    0,036      0,109    0,055      0,040    0,731     0,030     FV
                 0,324    0,029    0,727      0,324    0,448      0,414    0,850     0,606     AI
                 0,095    0,006    0,729      0,095    0,168      0,227    0,732     0,364     CDGKNRSYZ
                 0,031    0,006    0,301      0,031    0,057      0,077    0,766     0,172     O
                 0,892    0,146    0,798      0,892    0,842      0,733    0,899     0,799     0
                 0,077    0,018    0,139      0,077    0,099      0,079    0,718     0,078     LT
                 0,562    0,073    0,150      0,562    0,237      0,261    0,876     0,360     U
                 0,013    0,007    0,061      0,013    0,022      0,014    0,724     0,059     MBP
Weighted Avg.    0,504    0,086    0,616      0,504    0,483      0,442    0,834     0,537     


=== Confusion Matrix ===

     a     b     c     d     e     f     g     h     i     j   <-- classified as
   174   586    28    59     4     0    70    10   152     0 |     a = C
   726 10188   403   935   121    21   552   249   409   136 |     b = E
    20  1155   278   154    40    23   655    80   141    15 |     c = FV
   418 14495  1308 11531   354   238  1941   599  4568   188 |     d = AI
   854  8777  2394  1207  2698   311  8332   936  2562   388 |     e = CDGKNRSYZ
    90  5573   845   922   127   414  1450   215  3524    74 |     f = O
   124  3673  1454   439   155   249 64299   725   772   223 |     g = 0
   159  2783   382    97   134    35  2115   509   270   135 |     h = LT
    36  1044   136   267    10    45    82   157  2323    37 |     i = U
   167  2823   403   244    60    41  1098   184   716    78 |     j = MBP

=== Percent Confusion Matrix ===
a	b	c	d	e	f	g	h	i	j	
16.07	54.11	2.59	5.45	0.37	0.0	6.46	0.92	14.04	0.0	 a = C
5.28	74.15	2.93	6.8	0.88	0.15	4.02	1.81	2.98	0.99	 b = E
0.78	45.1	10.86	6.01	1.56	0.9	25.58	3.12	5.51	0.59	 c = FV
1.17	40.67	3.67	32.35	0.99	0.67	5.45	1.68	12.82	0.53	 d = AI
3.0	30.84	8.41	4.24	9.48	1.09	29.28	3.29	9.0	1.36	 e = CDGKNRSYZ
0.68	42.11	6.39	6.97	0.96	3.13	10.96	1.62	26.63	0.56	 f = O
0.17	5.09	2.02	0.61	0.21	0.35	89.16	1.01	1.07	0.31	 g = 0
2.4	42.05	5.77	1.47	2.02	0.53	31.95	7.69	4.08	2.04	 h = LT
0.87	25.24	3.29	6.45	0.24	1.09	1.98	3.8	56.15	0.89	 i = U
2.87	48.56	6.93	4.2	1.03	0.71	18.89	3.16	12.32	1.34	 j = MBP
