Timestamp:2014-12-07-11:19:14
Inventario:I4
Intervalo:15ms
Ngramas:4
Clasificador:NaiveBayes
Relation Name:  I4-15ms-4gramas
Num Instances:  12186
Num Attributes: 41

     Name                      Type  Nom  Int Real     Missing      Unique  Dist
   1 0Int(dB)                   Num   0%  10%  90%     0 /  0%    10 /  0%   768 
   2 0Pitch(Hz)                 Num   0%  50%  50%     0 /  0%   940 /  8%  2714 
   3 0RawPitch                  Num   0%  53%  47%     0 /  0%   980 /  8%  2609 
   4 0SmPitch                   Num   0%  51%  49%     0 /  0%   957 /  8%  2691 
   5 0Melogram(st)              Num   0%  46%  54%     0 /  0%   837 /  7%  2573 
   6 0ZCross                    Num   0% 100%   0%     0 /  0%    10 /  0%    40 
   7 0F1(Hz)                    Num   0%  50%  50%     0 /  0%  2281 / 19%  3977 
   8 0F2(Hz)                    Num   0%  50%  50%     0 /  0%  3848 / 32%  5158 
   9 0F3(Hz)                    Num   0%  50%  50%     0 /  0%  3419 / 28%  4850 
  10 0F4(Hz)                    Num   0%  50%  50%     0 /  0%  3319 / 27%  4764 
  11 1Int(dB)                   Num   0%  10%  90%     0 /  0%    10 /  0%   768 
  12 1Pitch(Hz)                 Num   0%  50%  50%     0 /  0%   940 /  8%  2714 
  13 1RawPitch                  Num   0%  53%  47%     0 /  0%   980 /  8%  2609 
  14 1SmPitch                   Num   0%  51%  49%     0 /  0%   957 /  8%  2691 
  15 1Melogram(st)              Num   0%  46%  54%     0 /  0%   837 /  7%  2573 
  16 1ZCross                    Num   0% 100%   0%     0 /  0%    10 /  0%    40 
  17 1F1(Hz)                    Num   0%  50%  50%     0 /  0%  2281 / 19%  3977 
  18 1F2(Hz)                    Num   0%  50%  50%     0 /  0%  3848 / 32%  5158 
  19 1F3(Hz)                    Num   0%  50%  50%     0 /  0%  3419 / 28%  4850 
  20 1F4(Hz)                    Num   0%  50%  50%     0 /  0%  3319 / 27%  4764 
  21 2Int(dB)                   Num   0%  10%  90%     0 /  0%    10 /  0%   768 
  22 2Pitch(Hz)                 Num   0%  50%  50%     0 /  0%   940 /  8%  2714 
  23 2RawPitch                  Num   0%  53%  47%     0 /  0%   980 /  8%  2609 
  24 2SmPitch                   Num   0%  51%  49%     0 /  0%   957 /  8%  2691 
  25 2Melogram(st)              Num   0%  46%  54%     0 /  0%   837 /  7%  2573 
  26 2ZCross                    Num   0% 100%   0%     0 /  0%    10 /  0%    40 
  27 2F1(Hz)                    Num   0%  50%  50%     0 /  0%  2281 / 19%  3977 
  28 2F2(Hz)                    Num   0%  50%  50%     0 /  0%  3848 / 32%  5158 
  29 2F3(Hz)                    Num   0%  50%  50%     0 /  0%  3419 / 28%  4850 
  30 2F4(Hz)                    Num   0%  50%  50%     0 /  0%  3319 / 27%  4764 
  31 3Int(dB)                   Num   0%  10%  90%     0 /  0%    10 /  0%   768 
  32 3Pitch(Hz)                 Num   0%  50%  50%     0 /  0%   941 /  8%  2715 
  33 3RawPitch                  Num   0%  53%  47%     0 /  0%   979 /  8%  2609 
  34 3SmPitch                   Num   0%  51%  49%     0 /  0%   957 /  8%  2691 
  35 3Melogram(st)              Num   0%  46%  54%     0 /  0%   838 /  7%  2574 
  36 3ZCross                    Num   0% 100%   0%     0 /  0%    10 /  0%    40 
  37 3F1(Hz)                    Num   0%  50%  50%     0 /  0%  2281 / 19%  3977 
  38 3F2(Hz)                    Num   0%  50%  50%     0 /  0%  3848 / 32%  5158 
  39 3F3(Hz)                    Num   0%  50%  50%     0 /  0%  3419 / 28%  4850 
  40 3F4(Hz)                    Num   0%  50%  50%     0 /  0%  3319 / 27%  4764 
  41 class                      Nom 100%   0%   0%     0 /  0%     0 /  0%    10 


Naive Bayes Classifier

                    Class
Attribute               C         E        FV        AI CDGKNRSYZ         O         0        LT         U       MBP
                   (0.01)    (0.08)    (0.01)     (0.2)    (0.16)    (0.08)    (0.36)    (0.04)    (0.02)    (0.03)
====================================================================================================================
0Int(dB)
  mean              -6.002  -10.1933  -10.0033   -8.6138  -12.9726  -11.9021  -48.6195  -14.8525   -10.704  -10.7409
  std. dev.         6.5733   11.7847   11.6666   12.6503   12.3939    13.325   16.5744   12.8883    12.611    11.848
  weight sum            72       971       177      2492      1978       940      4415       457       285       399
  precision         0.1005    0.1005    0.1005    0.1005    0.1005    0.1005    0.1005    0.1005    0.1005    0.1005

0Pitch(Hz)
  mean            220.0306  160.1808  172.3798  187.0636  155.0244  161.5093   17.8631  151.0322  194.1405   182.286
  std. dev.        79.9172  100.9674  105.1479  116.7522  104.6569  115.1424   57.8356  107.9065  126.5096  103.6491
  weight sum            72       971       177      2492      1978       940      4415       457       285       399
  precision         0.1828    0.1828    0.1828    0.1828    0.1828    0.1828    0.1828    0.1828    0.1828    0.1828

0RawPitch
  mean            209.8756  154.2988  153.4086   177.156  141.8556  151.8615   14.8135  134.3366   182.114  174.1149
  std. dev.        90.9809  103.8965  106.4127  119.1116  109.6121  118.7396   52.5522  109.9703   126.065  108.2118
  weight sum            72       971       177      2492      1978       940      4415       457       285       399
  precision           0.19      0.19      0.19      0.19      0.19      0.19      0.19      0.19      0.19      0.19

0SmPitch
  mean             214.919  157.6884  163.5118  184.8433  150.6478  158.3741   16.1962  144.1338  187.9493   180.944
  std. dev.         87.612  102.7097  103.8799  117.6076  106.8439  116.4366   54.1511  109.3582  127.6747  105.0311
  weight sum            72       971       177      2492      1978       940      4415       457       285       399
  precision         0.1841    0.1841    0.1841    0.1841    0.1841    0.1841    0.1841    0.1841    0.1841    0.1841

0Melogram(st)
  mean             53.1486   43.8321   46.4107   45.8707   41.3818   42.1946    5.2905   41.1577   43.1507   47.4283
  std. dev.        14.2625   21.9994   19.5839    21.998   23.6992   23.8924   16.1528   23.8838   25.8888   19.8935
  weight sum            72       971       177      2492      1978       940      4415       457       285       399
  precision         0.0321    0.0321    0.0321    0.0321    0.0321    0.0321    0.0321    0.0321    0.0321    0.0321

0ZCross
  mean              5.1606    4.1877    3.8309    5.4858    3.3919    3.5388    0.3174    2.5139    3.6946    3.3547
  std. dev.         2.6996      3.51    3.1646    5.0254    3.4876       3.7    1.4495    2.4693    3.7659    3.0234
  weight sum            72       971       177      2492      1978       940      4415       457       285       399
  precision         1.1026    1.1026    1.1026    1.1026    1.1026    1.1026    1.1026    1.1026    1.1026    1.1026

0F1(Hz)
  mean            545.2964  399.5254   509.407  519.5995  457.4232  400.7883   63.2893  403.5169  423.1014  448.4717
  std. dev.       148.6698  222.3308  214.6903  329.5171  253.5302  262.7274  185.2724  253.4601  367.4317  217.4863
  weight sum            72       971       177      2492      1978       940      4415       457       285       399
  precision          0.438     0.438     0.438     0.438     0.438     0.438     0.438     0.438     0.438     0.438

0F2(Hz)
  mean            1764.249 1442.8428 1487.4002 1332.7266 1369.9292 1071.2623  187.2285 1295.9218  901.2556 1511.2562
  std. dev.       397.0413  776.7388  613.6935  704.9263  715.6611   690.734  542.7291  756.1963  645.6145  656.5641
  weight sum            72       971       177      2492      1978       940      4415       457       285       399
  precision         0.5776    0.5776    0.5776    0.5776    0.5776    0.5776    0.5776    0.5776    0.5776    0.5776

0F3(Hz)
  mean           3100.5126 2225.9848 2511.3747 2318.4152 2359.6494  2178.095  321.8325  2214.057 2131.2599 2536.1532
  std. dev.       597.8366 1160.7791  982.7376 1166.7987 1174.4304 1261.4257  911.0735 1245.9129 1290.0635 1002.0059
  weight sum            72       971       177      2492      1978       940      4415       457       285       399
  precision         0.8494    0.8494    0.8494    0.8494    0.8494    0.8494    0.8494    0.8494    0.8494    0.8494

0F4(Hz)
  mean            3044.853   2718.69 2938.8695 2713.8238 2716.2735 2525.1794  385.4697 2524.5955 2447.5687 2957.3618
  std. dev.       600.7891 1397.2836 1127.8105 1351.9152 1333.0911 1454.2085 1088.7585 1416.9199 1436.0304 1139.4412
  weight sum            72       971       177      2492      1978       940      4415       457       285       399
  precision         0.8707    0.8707    0.8707    0.8707    0.8707    0.8707    0.8707    0.8707    0.8707    0.8707

1Int(dB)
  mean             -6.4627   -8.2853  -11.8337    -7.329  -14.1665  -10.3306  -49.3169  -16.7022        -9  -11.7003
  std. dev.         7.0305   10.4618   10.8769    11.542   11.9083   12.5524   15.6468   13.1961   11.0737   11.7463
  weight sum            72       971       177      2492      1978       940      4415       457       285       399
  precision         0.1005    0.1005    0.1005    0.1005    0.1005    0.1005    0.1005    0.1005    0.1005    0.1005

1Pitch(Hz)
  mean            220.1143   171.376  161.8432  195.2612  144.3986  170.5933   15.1271  136.8415  208.3385  176.1634
  std. dev.        81.6494   96.7489  106.9302  111.1367  108.6394  111.0794   53.6652  108.4248  113.7908  105.3804
  weight sum            72       971       177      2492      1978       940      4415       457       285       399
  precision         0.1828    0.1828    0.1828    0.1828    0.1828    0.1828    0.1828    0.1828    0.1828    0.1828

1RawPitch
  mean            206.8753  166.4294  138.8672  185.5164  130.8286  160.9027   12.3521  118.4193  197.8707   166.948
  std. dev.        96.8329   99.7164  107.0856  114.2872  112.1418  115.9139   47.9404  108.0356  115.5032  110.5987
  weight sum            72       971       177      2492      1978       940      4415       457       285       399
  precision           0.19      0.19      0.19      0.19      0.19      0.19      0.19      0.19      0.19      0.19

1SmPitch
  mean            214.9932  169.6121  150.9116  193.2038  139.5885  167.6951   13.4443  129.0353  204.0613  174.3874
  std. dev.        89.1684     98.43  106.0938  112.3186  110.3425  112.6857     49.25  108.5341  114.8803  107.0721
  weight sum            72       971       177      2492      1978       940      4415       457       285       399
  precision         0.1841    0.1841    0.1841    0.1841    0.1841    0.1841    0.1841    0.1841    0.1841    0.1841

1Melogram(st)
  mean             53.1112    46.364   44.3633   48.0463   38.3963   44.5801    4.5603   38.5186   46.8237   46.2526
  std. dev.        14.3107   19.9773   21.0748   19.9585   25.2445   22.3034   15.1248   24.9304     23.28   20.8639
  weight sum            72       971       177      2492      1978       940      4415       457       285       399
  precision         0.0321    0.0321    0.0321    0.0321    0.0321    0.0321    0.0321    0.0321    0.0321    0.0321

1ZCross
  mean              4.9922    4.5363    3.0523    5.7035    3.2497    3.8308     0.232    2.1714    3.6211    2.9291
  std. dev.         2.7806    3.4214     2.753    4.7289    3.9448    3.7224    1.1942    2.3689    3.3263    2.7939
  weight sum            72       971       177      2492      1978       940      4415       457       285       399
  precision         1.1026    1.1026    1.1026    1.1026    1.1026    1.1026    1.1026    1.1026    1.1026    1.1026

1F1(Hz)
  mean            535.7328  421.4711  494.2517  550.1507  425.7911  427.7699   54.1063  364.4327  447.6356  434.8028
  std. dev.       169.7117  199.8827  234.8699   314.867  267.1906  253.7566  172.0613  255.1201  351.3336  221.0826
  weight sum            72       971       177      2492      1978       940      4415       457       285       399
  precision          0.438     0.438     0.438     0.438     0.438     0.438     0.438     0.438     0.438     0.438

1F2(Hz)
  mean           1756.7643 1557.4028 1421.4392 1408.5657    1290.7 1095.9014  161.1414 1210.5793  941.4183 1481.8564
  std. dev.        461.855  715.8668  646.1569  659.4569  766.3228   642.731  507.1144  794.2976  583.0066    667.81
  weight sum            72       971       177      2492      1978       940      4415       457       285       399
  precision         0.5776    0.5776    0.5776    0.5776    0.5776    0.5776    0.5776    0.5776    0.5776    0.5776

1F3(Hz)
  mean           3050.0303 2361.5599 2423.2784  2434.961 2218.2214   2286.61  277.7143 2073.2463 2306.2699 2496.4215
  std. dev.       710.6341  1058.658 1066.6564 1070.1306 1268.6917 1195.8853  854.3142 1326.1174 1189.9252 1031.3795
  weight sum            72       971       177      2492      1978       940      4415       457       285       399
  precision         0.8494    0.8494    0.8494    0.8494    0.8494    0.8494    0.8494    0.8494    0.8494    0.8494

1F4(Hz)
  mean           3007.0152 2879.2008  2839.318 2852.8053  2552.003 2646.7638  332.6363 2351.6714 2634.9155 2926.4759
  std. dev.       708.4745 1266.1181 1221.6089 1239.1052 1444.0172 1374.1393 1021.2383 1499.0448 1307.4223 1176.9755
  weight sum            72       971       177      2492      1978       940      4415       457       285       399
  precision         0.8707    0.8707    0.8707    0.8707    0.8707    0.8707    0.8707    0.8707    0.8707    0.8707

2Int(dB)
  mean             -6.8885   -6.5035  -13.4875   -6.1455   -15.222   -8.9829  -50.0145  -18.0717   -7.1056  -12.6599
  std. dev.         6.9817    9.1484    9.7297   10.3477    10.881   12.0392    14.614   12.8879    9.4113   11.4853
  weight sum            72       971       177      2492      1978       940      4415       457       285       399
  precision         0.1005    0.1005    0.1005    0.1005    0.1005    0.1005    0.1005    0.1005    0.1005    0.1005

2Pitch(Hz)
  mean             217.664  183.4717   151.416  203.2541  134.1292  178.6603     12.13  125.8429   222.874   169.157
  std. dev.        86.9212   90.6248  107.3372  104.7587  111.8147  105.9497   48.3563  105.8357   96.7144  107.9278
  weight sum            72       971       177      2492      1978       940      4415       457       285       399
  precision         0.1828    0.1828    0.1828    0.1828    0.1828    0.1828    0.1828    0.1828    0.1828    0.1828

2RawPitch
  mean            207.3634  179.2232  126.9095  193.5397  118.9254  170.2865    9.8369  107.1777  214.8787  156.3794
  std. dev.        98.5622   94.3626  104.8815  108.9128  113.3918  111.2599   42.7253  105.2865  100.3251  112.6669
  weight sum            72       971       177      2492      1978       940      4415       457       285       399
  precision           0.19      0.19      0.19      0.19      0.19      0.19      0.19      0.19      0.19      0.19

2SmPitch
  mean            212.5412  181.7709  140.8054  201.3193   127.951  176.3381    10.585  118.8302  222.2202  166.7235
  std. dev.        93.8745   92.0323    105.09   106.267  112.8512  107.6496   43.6679  105.1351    96.345  110.0496
  weight sum            72       971       177      2492      1978       940      4415       457       285       399
  precision         0.1841    0.1841    0.1841    0.1841    0.1841    0.1841    0.1841    0.1841    0.1841    0.1841

2Melogram(st)
  mean             52.3404    49.433   42.1057   50.2198   35.3637    46.689      3.84   35.6072   51.8876   44.1038
  std. dev.         15.624   16.6562   22.5058   17.4196   26.3892   20.4728   14.0002   25.7128   18.0236   22.6152
  weight sum            72       971       177      2492      1978       940      4415       457       285       399
  precision         0.0321    0.0321    0.0321    0.0321    0.0321    0.0321    0.0321    0.0321    0.0321    0.0321

2ZCross
  mean              4.6706      4.81     2.392    5.9106      3.17    4.0255    0.1446    1.8746    3.6946    2.5119
  std. dev.         2.6149    3.2495    2.3218    4.5082    4.3809    3.4165     0.806    2.2374    3.0049    2.4124
  weight sum            72       971       177      2492      1978       940      4415       457       285       399
  precision         1.1026    1.1026    1.1026    1.1026    1.1026    1.1026    1.1026    1.1026    1.1026    1.1026

2F1(Hz)
  mean            525.8346  448.7867   455.282  586.2685   386.621  460.8448   44.5148  323.8619  479.4518  407.9579
  std. dev.       172.0577  167.2097   257.875   293.961  276.6551  237.0895  156.5878  253.7036  324.8579  229.4716
  weight sum            72       971       177      2492      1978       940      4415       457       285       399
  precision          0.438     0.438     0.438     0.438     0.438     0.438     0.438     0.438     0.438     0.438

2F2(Hz)
  mean           1769.2148 1697.5367 1319.8463 1496.2409 1188.9884 1136.7816  133.6667 1108.9212 1012.0156 1414.0003
  std. dev.       473.0726  606.8332  697.8781  594.1446  808.3803   583.467  464.4562  823.6593  498.3854  704.2441
  weight sum            72       971       177      2492      1978       940      4415       457       285       399
  precision         0.5776    0.5776    0.5776    0.5776    0.5776    0.5776    0.5776    0.5776    0.5776    0.5776

2F3(Hz)
  mean           3038.7871 2529.5236  2267.597 2571.1607 2045.5555 2424.0221   231.216 1899.0587 2541.1097 2386.6296
  std. dev.       719.1425  892.9521 1184.2012  934.1649 1351.1031 1093.5808  786.5164  1389.432  990.0091 1113.8644
  weight sum            72       971       177      2492      1978       940      4415       457       285       399
  precision         0.8494    0.8494    0.8494    0.8494    0.8494    0.8494    0.8494    0.8494    0.8494    0.8494

2F4(Hz)
  mean           3022.0342 3071.5364  2669.134 3007.8202 2357.0615 2797.3211  277.5727 2164.0925 2890.5441 2816.2806
  std. dev.       721.0039 1053.8859 1361.3599 1076.2246 1544.7102  1248.566  942.5635 1575.1145 1057.0684 1281.9024
  weight sum            72       971       177      2492      1978       940      4415       457       285       399
  precision         0.8707    0.8707    0.8707    0.8707    0.8707    0.8707    0.8707    0.8707    0.8707    0.8707

3Int(dB)
  mean             -7.3814   -5.5049  -14.3263   -5.5634  -15.8981   -8.3852  -50.5615  -17.1661   -5.5692  -12.4692
  std. dev.         7.5828    8.2833    8.9225    9.7169    9.9293   12.0282    13.752   11.6644    7.6498    10.584
  weight sum            72       971       177      2492      1978       940      4415       457       285       399
  precision         0.1005    0.1005    0.1005    0.1005    0.1005    0.1005    0.1005    0.1005    0.1005    0.1005

3Pitch(Hz)
  mean            215.8451  189.9846   145.764  206.5395  129.4782  180.3637    9.3613  135.4247  231.3108  169.0755
  std. dev.        91.5699   87.3032  105.9069  101.8371  112.9128  102.9621   43.0383  103.0969   84.4017  105.9927
  weight sum            72       971       177      2492      1978       940      4415       457       285       399
  precision         0.1828    0.1828    0.1828    0.1828    0.1828    0.1828    0.1828    0.1828    0.1828    0.1828

3RawPitch
  mean            203.5794  186.8578  119.8712  197.2851  112.5058  174.1912    7.3705  114.3405  222.5963   155.219
  std. dev.       105.2011   91.2535  101.1981  106.4076  112.9306  108.1025   36.8812  104.3146   90.9444  111.9695
  weight sum            72       971       177      2492      1978       940      4415       457       285       399
  precision           0.19      0.19      0.19      0.19      0.19      0.19      0.19      0.19      0.19      0.19

3SmPitch
  mean            210.7412  188.6266  135.2172  204.8157  122.7236  178.2642    8.0663  127.4981  230.9021  164.9116
  std. dev.        98.1062   88.6539  102.9917  103.2111  113.5818  104.6347     38.15  103.8429   84.0603  109.5012
  weight sum            72       971       177      2492      1978       940      4415       457       285       399
  precision         0.1841    0.1841    0.1841    0.1841    0.1841    0.1841    0.1841    0.1841    0.1841    0.1841

3Melogram(st)
  mean             51.6383   50.9897   40.8426   51.2928   34.0468   47.3663    3.0773   36.8907   54.7393   44.2448
  std. dev.        16.8042   14.4101   23.1702   15.7782   26.8437   19.6193    12.674   25.3688   13.2895   22.4965
  weight sum            72       971       177      2492      1978       940      4415       457       285       399
  precision         0.0321    0.0321    0.0321    0.0321    0.0321    0.0321    0.0321    0.0321    0.0321    0.0321

3ZCross
  mean              4.4562    4.8701    2.1179    6.0123    3.1132    4.0889    0.1006    1.8915    3.8532    2.3765
  std. dev.         2.5024    2.9907    2.1208    4.4254    4.6631     2.998    0.6802    2.0168    2.8492    2.1579
  weight sum            72       971       177      2492      1978       940      4415       457       285       399
  precision         1.1026    1.1026    1.1026    1.1026    1.1026    1.1026    1.1026    1.1026    1.1026    1.1026

3F1(Hz)
  mean            510.8869  469.1052  420.1259  617.6044   352.133  487.7924   34.4973  314.6902  504.5577  391.9946
  std. dev.       175.1628  136.7924  268.8685  272.6598  277.7886   218.941  138.1621  246.2031   299.786  227.7233
  weight sum            72       971       177      2492      1978       940      4415       457       285       399
  precision          0.438     0.438     0.438     0.438     0.438     0.438     0.438     0.438     0.438     0.438

3F2(Hz)
  mean           1734.4383 1803.6497 1256.0162 1569.0834 1104.7679 1164.8777   104.217 1101.9861 1075.9553 1374.8709
  std. dev.       519.4319  490.0179  726.8151  525.9317  830.4125   526.346  413.0626  820.1762   411.661  707.8796
  weight sum            72       971       177      2492      1978       940      4415       457       285       399
  precision         0.5776    0.5776    0.5776    0.5776    0.5776    0.5776    0.5776    0.5776    0.5776    0.5776

3F3(Hz)
  mean           2990.6054 2651.8402 2156.9356 2684.0978 1904.5307 2529.7403  181.0662 1887.9603 2728.7599 2325.0319
  std. dev.       804.4948  731.0473 1243.2456  791.9699  1397.093  990.6689  703.4193 1394.7315   731.591 1133.6314
  weight sum            72       971       177      2492      1978       940      4415       457       285       399
  precision         0.8494    0.8494    0.8494    0.8494    0.8494    0.8494    0.8494    0.8494    0.8494    0.8494

3F4(Hz)
  mean           2990.2306 3206.8695 2560.0986 3131.1849 2202.8521 2916.3463  217.3507 2162.6617 3100.5588 2772.6162
  std. dev.       811.3198  845.6004 1438.2149  905.1559 1606.8749 1123.3047   842.771 1587.2774  725.9921 1317.5612
  weight sum            72       971       177      2492      1978       940      4415       457       285       399
  precision         0.8707    0.8707    0.8707    0.8707    0.8707    0.8707    0.8707    0.8707    0.8707    0.8707





=== Stratified cross-validation ===

Correctly Classified Instances        5351               43.911  %
Incorrectly Classified Instances      6835               56.089  %
Kappa statistic                          0.3212
K&B Relative Info Score             364722.8977 %
K&B Information Score                 9484.3453 bits      0.7783 bits/instance
Class complexity | order 0           31670.8788 bits      2.599  bits/instance
Class complexity | scheme           240260.6085 bits     19.7161 bits/instance
Complexity improvement     (Sf)    -208589.7297 bits    -17.1172 bits/instance
Mean absolute error                      0.1119
Root mean squared error                  0.3105
Relative absolute error                 71.2898 %
Root relative squared error            110.8112 %
Coverage of cases (0.95 level)          53.463  %
Mean rel. region size (0.95 level)      16.1612 %
Total Number of Instances            12186     


=== Detailed Accuracy By Class ===

                 TP Rate  FP Rate  Precision  Recall   F-Measure  MCC      ROC Area  PRC Area  Class
                 0,597    0,256    0,014      0,597    0,027      0,060    0,798     0,020     C
                 0,323    0,105    0,211      0,323    0,255      0,181    0,777     0,212     E
                 0,102    0,029    0,049      0,102    0,066      0,051    0,733     0,034     FV
                 0,214    0,024    0,692      0,214    0,327      0,314    0,806     0,517     AI
                 0,130    0,019    0,575      0,130    0,213      0,219    0,722     0,365     CDGKNRSYZ
                 0,024    0,009    0,180      0,024    0,043      0,040    0,750     0,177     O
                 0,906    0,087    0,855      0,906    0,880      0,809    0,942     0,878     0
                 0,158    0,059    0,094      0,158    0,118      0,077    0,709     0,072     LT
                 0,284    0,015    0,314      0,284    0,298      0,283    0,859     0,210     U
                 0,028    0,011    0,075      0,028    0,040      0,026    0,720     0,062     MBP
Weighted Avg.    0,439    0,054    0,589      0,439    0,458      0,422    0,829     0,524     


=== Confusion Matrix ===

    a    b    c    d    e    f    g    h    i    j   <-- classified as
   43   19    2    4    2    0    1    1    0    0 |    a = C
  428  314   10   46   18   31   35   65   18    6 |    b = E
   72   29   18    6   13    1   16   18    2    2 |    c = FV
  980  455   72  533   47   54   91  178   63   19 |    d = AI
  732  231  128   67  258    6  310  187   19   40 |    e = CDGKNRSYZ
  337  217   41   67   21   23   87   72   60   15 |    f = O
  136   31   56    6   56    4 3998  104    1   23 |    g = 0
  160   69   18    2   17    1   93   72    4   21 |    h = LT
   78   40    2   28    7    5    7   28   81    9 |    i = U
  173   84   19   11   10    3   37   41   10   11 |    j = MBP

=== Percent Confusion Matrix ===
a	b	c	d	e	f	g	h	i	j	
59.72	26.39	2.78	5.56	2.78	0.0	1.39	1.39	0.0	0.0	 a = C
44.08	32.34	1.03	4.74	1.85	3.19	3.6	6.69	1.85	0.62	 b = E
40.68	16.38	10.17	3.39	7.34	0.56	9.04	10.17	1.13	1.13	 c = FV
39.33	18.26	2.89	21.39	1.89	2.17	3.65	7.14	2.53	0.76	 d = AI
37.01	11.68	6.47	3.39	13.04	0.3	15.67	9.45	0.96	2.02	 e = CDGKNRSYZ
35.85	23.09	4.36	7.13	2.23	2.45	9.26	7.66	6.38	1.6	 f = O
3.08	0.7	1.27	0.14	1.27	0.09	90.55	2.36	0.02	0.52	 g = 0
35.01	15.1	3.94	0.44	3.72	0.22	20.35	15.75	0.88	4.6	 h = LT
27.37	14.04	0.7	9.82	2.46	1.75	2.46	9.82	28.42	3.16	 i = U
43.36	21.05	4.76	2.76	2.51	0.75	9.27	10.28	2.51	2.76	 j = MBP
