Timestamp:2014-12-07-11:19:07
Inventario:I4
Intervalo:15ms
Ngramas:2
Clasificador:NaiveBayes
Relation Name:  I4-15ms-2gramas
Num Instances:  12188
Num Attributes: 21

     Name                      Type  Nom  Int Real     Missing      Unique  Dist
   1 0Int(dB)                   Num   0%  10%  90%     0 /  0%    10 /  0%   768 
   2 0Pitch(Hz)                 Num   0%  50%  50%     0 /  0%   940 /  8%  2714 
   3 0RawPitch                  Num   0%  53%  47%     0 /  0%   980 /  8%  2609 
   4 0SmPitch                   Num   0%  51%  49%     0 /  0%   957 /  8%  2691 
   5 0Melogram(st)              Num   0%  46%  54%     0 /  0%   837 /  7%  2573 
   6 0ZCross                    Num   0% 100%   0%     0 /  0%    10 /  0%    40 
   7 0F1(Hz)                    Num   0%  50%  50%     0 /  0%  2281 / 19%  3977 
   8 0F2(Hz)                    Num   0%  50%  50%     0 /  0%  3848 / 32%  5158 
   9 0F3(Hz)                    Num   0%  50%  50%     0 /  0%  3419 / 28%  4850 
  10 0F4(Hz)                    Num   0%  50%  50%     0 /  0%  3319 / 27%  4764 
  11 1Int(dB)                   Num   0%  10%  90%     0 /  0%    10 /  0%   768 
  12 1Pitch(Hz)                 Num   0%  50%  50%     0 /  0%   941 /  8%  2715 
  13 1RawPitch                  Num   0%  53%  47%     0 /  0%   979 /  8%  2609 
  14 1SmPitch                   Num   0%  51%  49%     0 /  0%   957 /  8%  2691 
  15 1Melogram(st)              Num   0%  46%  54%     0 /  0%   838 /  7%  2574 
  16 1ZCross                    Num   0% 100%   0%     0 /  0%    10 /  0%    40 
  17 1F1(Hz)                    Num   0%  50%  50%     0 /  0%  2281 / 19%  3977 
  18 1F2(Hz)                    Num   0%  50%  50%     0 /  0%  3848 / 32%  5158 
  19 1F3(Hz)                    Num   0%  50%  50%     0 /  0%  3419 / 28%  4850 
  20 1F4(Hz)                    Num   0%  50%  50%     0 /  0%  3319 / 27%  4764 
  21 class                      Nom 100%   0%   0%     0 /  0%     0 /  0%    10 


Naive Bayes Classifier

                    Class
Attribute               C         E        FV        AI CDGKNRSYZ         O         0        LT         U       MBP
                   (0.01)    (0.08)    (0.01)     (0.2)    (0.16)    (0.08)    (0.36)    (0.04)    (0.02)    (0.03)
====================================================================================================================
0Int(dB)
  mean             -6.8885   -6.5035  -13.4875   -6.1455   -15.222   -8.9829  -50.0118  -18.0717   -7.1056  -12.6599
  std. dev.         6.9817    9.1484    9.7297   10.3477    10.881   12.0392   14.6113   12.8879    9.4113   11.4853
  weight sum            72       971       177      2492      1978       940      4417       457       285       399
  precision         0.1005    0.1005    0.1005    0.1005    0.1005    0.1005    0.1005    0.1005    0.1005    0.1005

0Pitch(Hz)
  mean             217.664  183.4717   151.416  203.2541  134.1292  178.6603   12.1245  125.8429   222.874   169.157
  std. dev.        86.9212   90.6248  107.3372  104.7587  111.8147  105.9497    48.346  105.8357   96.7144  107.9278
  weight sum            72       971       177      2492      1978       940      4417       457       285       399
  precision         0.1828    0.1828    0.1828    0.1828    0.1828    0.1828    0.1828    0.1828    0.1828    0.1828

0RawPitch
  mean            207.3634  179.2232  126.9095  193.5397  118.9254  170.2865    9.8324  107.1777  214.8787  156.3794
  std. dev.        98.5622   94.3626  104.8815  108.9128  113.3918  111.2599   42.7162  105.2865  100.3251  112.6669
  weight sum            72       971       177      2492      1978       940      4417       457       285       399
  precision           0.19      0.19      0.19      0.19      0.19      0.19      0.19      0.19      0.19      0.19

0SmPitch
  mean            212.5412  181.7709  140.8054  201.3193   127.951  176.3381   10.5802  118.8302  222.2202  166.7235
  std. dev.        93.8745   92.0323    105.09   106.267  112.8512  107.6496   43.6586  105.1351    96.345  110.0496
  weight sum            72       971       177      2492      1978       940      4417       457       285       399
  precision         0.1841    0.1841    0.1841    0.1841    0.1841    0.1841    0.1841    0.1841    0.1841    0.1841

0Melogram(st)
  mean             52.3404    49.433   42.1057   50.2198   35.3637    46.689    3.8382   35.6072   51.8876   44.1038
  std. dev.         15.624   16.6562   22.5058   17.4196   26.3892   20.4728   13.9973   25.7128   18.0236   22.6152
  weight sum            72       971       177      2492      1978       940      4417       457       285       399
  precision         0.0321    0.0321    0.0321    0.0321    0.0321    0.0321    0.0321    0.0321    0.0321    0.0321

0ZCross
  mean              4.6706      4.81     2.392    5.9106      3.17    4.0255    0.1445    1.8746    3.6946    2.5119
  std. dev.         2.6149    3.2495    2.3218    4.5082    4.3809    3.4165    0.8058    2.2374    3.0049    2.4124
  weight sum            72       971       177      2492      1978       940      4417       457       285       399
  precision         1.1026    1.1026    1.1026    1.1026    1.1026    1.1026    1.1026    1.1026    1.1026    1.1026

0F1(Hz)
  mean            525.8346  448.7867   455.282  586.2685   386.621  460.8448   44.4946  323.8619  479.4518  407.9579
  std. dev.       172.0577  167.2097   257.875   293.961  276.6551  237.0895  156.5552  253.7036  324.8579  229.4716
  weight sum            72       971       177      2492      1978       940      4417       457       285       399
  precision          0.438     0.438     0.438     0.438     0.438     0.438     0.438     0.438     0.438     0.438

0F2(Hz)
  mean           1769.2148 1697.5367 1319.8463 1496.2409 1188.9884 1136.7816  133.6062 1108.9212 1012.0156 1414.0003
  std. dev.       473.0726  606.8332  697.8781  594.1446  808.3803   583.467  464.3597  823.6593  498.3854  704.2441
  weight sum            72       971       177      2492      1978       940      4417       457       285       399
  precision         0.5776    0.5776    0.5776    0.5776    0.5776    0.5776    0.5776    0.5776    0.5776    0.5776

0F3(Hz)
  mean           3038.7871 2529.5236  2267.597 2571.1607 2045.5555 2424.0221  231.1113 1899.0587 2541.1097 2386.6296
  std. dev.       719.1425  892.9521 1184.2012  934.1649 1351.1031 1093.5808  786.3537  1389.432  990.0091 1113.8644
  weight sum            72       971       177      2492      1978       940      4417       457       285       399
  precision         0.8494    0.8494    0.8494    0.8494    0.8494    0.8494    0.8494    0.8494    0.8494    0.8494

0F4(Hz)
  mean           3022.0342 3071.5364  2669.134 3007.8202 2357.0615 2797.3211   277.447 2164.0925 2890.5441 2816.2806
  std. dev.       721.0039 1053.8859 1361.3599 1076.2246 1544.7102  1248.566  942.3686 1575.1145 1057.0684 1281.9024
  weight sum            72       971       177      2492      1978       940      4417       457       285       399
  precision         0.8707    0.8707    0.8707    0.8707    0.8707    0.8707    0.8707    0.8707    0.8707    0.8707

1Int(dB)
  mean             -7.3814   -5.5049  -14.3263   -5.5634  -15.8981   -8.3852  -50.5579  -17.1661   -5.5692  -12.4692
  std. dev.         7.5828    8.2833    8.9225    9.7169    9.9293   12.0282   13.7499   11.6644    7.6498    10.584
  weight sum            72       971       177      2492      1978       940      4417       457       285       399
  precision         0.1005    0.1005    0.1005    0.1005    0.1005    0.1005    0.1005    0.1005    0.1005    0.1005

1Pitch(Hz)
  mean            215.8451  189.9846   145.764  206.5395  129.4782  180.3637    9.3571  135.4247  231.3108  169.0755
  std. dev.        91.5699   87.3032  105.9069  101.8371  112.9128  102.9621    43.029  103.0969   84.4017  105.9927
  weight sum            72       971       177      2492      1978       940      4417       457       285       399
  precision         0.1828    0.1828    0.1828    0.1828    0.1828    0.1828    0.1828    0.1828    0.1828    0.1828

1RawPitch
  mean            203.5794  186.8578  119.8712  197.2851  112.5058  174.1912    7.3672  114.3405  222.5963   155.219
  std. dev.       105.2011   91.2535  101.1981  106.4076  112.9306  108.1025   36.8732  104.3146   90.9444  111.9695
  weight sum            72       971       177      2492      1978       940      4417       457       285       399
  precision           0.19      0.19      0.19      0.19      0.19      0.19      0.19      0.19      0.19      0.19

1SmPitch
  mean            210.7412  188.6266  135.2172  204.8157  122.7236  178.2642    8.0627  127.4981  230.9021  164.9116
  std. dev.        98.1062   88.6539  102.9917  103.2111  113.5818  104.6347   38.1417  103.8429   84.0603  109.5012
  weight sum            72       971       177      2492      1978       940      4417       457       285       399
  precision         0.1841    0.1841    0.1841    0.1841    0.1841    0.1841    0.1841    0.1841    0.1841    0.1841

1Melogram(st)
  mean             51.6383   50.9897   40.8426   51.2928   34.0468   47.3663    3.0759   36.8907   54.7393   44.2448
  std. dev.        16.8042   14.4101   23.1702   15.7782   26.8437   19.6193   12.6713   25.3688   13.2895   22.4965
  weight sum            72       971       177      2492      1978       940      4417       457       285       399
  precision         0.0321    0.0321    0.0321    0.0321    0.0321    0.0321    0.0321    0.0321    0.0321    0.0321

1ZCross
  mean              4.4562    4.8701    2.1179    6.0123    3.1132    4.0889    0.1006    1.8915    3.8532    2.3765
  std. dev.         2.5024    2.9907    2.1208    4.4254    4.6631     2.998      0.68    2.0168    2.8492    2.1579
  weight sum            72       971       177      2492      1978       940      4417       457       285       399
  precision         1.1026    1.1026    1.1026    1.1026    1.1026    1.1026    1.1026    1.1026    1.1026    1.1026

1F1(Hz)
  mean            510.8869  469.1052  420.1259  617.6044   352.133  487.7924   34.4817  314.6902  504.5577  391.9946
  std. dev.       175.1628  136.7924  268.8685  272.6598  277.7886   218.941  138.1328  246.2031   299.786  227.7233
  weight sum            72       971       177      2492      1978       940      4417       457       285       399
  precision          0.438     0.438     0.438     0.438     0.438     0.438     0.438     0.438     0.438     0.438

1F2(Hz)
  mean           1734.4383 1803.6497 1256.0162 1569.0834 1104.7679 1164.8777  104.1698 1101.9861 1075.9553 1374.8709
  std. dev.       519.4319  490.0179  726.8151  525.9317  830.4125   526.346   412.975  820.1762   411.661  707.8796
  weight sum            72       971       177      2492      1978       940      4417       457       285       399
  precision         0.5776    0.5776    0.5776    0.5776    0.5776    0.5776    0.5776    0.5776    0.5776    0.5776

1F3(Hz)
  mean           2990.6054 2651.8402 2156.9356 2684.0978 1904.5307 2529.7403  180.9842 1887.9603 2728.7599 2325.0319
  std. dev.       804.4948  731.0473 1243.2456  791.9699  1397.093  990.6689  703.2706 1394.7315   731.591 1133.6314
  weight sum            72       971       177      2492      1978       940      4417       457       285       399
  precision         0.8494    0.8494    0.8494    0.8494    0.8494    0.8494    0.8494    0.8494    0.8494    0.8494

1F4(Hz)
  mean           2990.2306 3206.8695 2560.0986 3131.1849 2202.8521 2916.3463  217.2523 2162.6617 3100.5588 2772.6162
  std. dev.       811.3198  845.6004 1438.2149  905.1559 1606.8749 1123.3047  842.5928 1587.2774  725.9921 1317.5612
  weight sum            72       971       177      2492      1978       940      4417       457       285       399
  precision         0.8707    0.8707    0.8707    0.8707    0.8707    0.8707    0.8707    0.8707    0.8707    0.8707





=== Stratified cross-validation ===

Correctly Classified Instances        6311               51.7804 %
Incorrectly Classified Instances      5877               48.2196 %
Kappa statistic                          0.3911
K&B Relative Info Score             462171.7703 %
K&B Information Score                12017.2135 bits      0.986  bits/instance
Class complexity | order 0           31673.8078 bits      2.5988 bits/instance
Class complexity | scheme           140552.9582 bits     11.5321 bits/instance
Complexity improvement     (Sf)    -108879.1503 bits     -8.9333 bits/instance
Mean absolute error                      0.099 
Root mean squared error                  0.2722
Relative absolute error                 63.054  %
Root relative squared error             97.1712 %
Coverage of cases (0.95 level)          67.5172 %
Mean rel. region size (0.95 level)      22.7732 %
Total Number of Instances            12188     


=== Detailed Accuracy By Class ===

                 TP Rate  FP Rate  Precision  Recall   F-Measure  MCC      ROC Area  PRC Area  Class
                 0,222    0,036    0,035      0,222    0,060      0,075    0,766     0,019     C
                 0,653    0,255    0,182      0,653    0,284      0,238    0,811     0,259     E
                 0,017    0,007    0,034      0,017    0,023      0,014    0,738     0,030     FV
                 0,416    0,058    0,649      0,416    0,507      0,428    0,828     0,571     AI
                 0,181    0,038    0,481      0,181    0,264      0,221    0,735     0,378     CDGKNRSYZ
                 0,023    0,006    0,242      0,023    0,043      0,054    0,766     0,191     O
                 0,923    0,106    0,833      0,923    0,876      0,802    0,968     0,962     0
                 0,088    0,025    0,119      0,088    0,101      0,072    0,711     0,078     LT
                 0,396    0,022    0,297      0,396    0,340      0,325    0,863     0,321     U
                 0,025    0,008    0,098      0,025    0,040      0,034    0,725     0,061     MBP
Weighted Avg.    0,518    0,079    0,561      0,518    0,503      0,449    0,849     0,575     


=== Confusion Matrix ===

    a    b    c    d    e    f    g    h    i    j   <-- classified as
   16   36    0   10    4    0    2    0    4    0 |    a = C
   91  634    1  110   43    5   32   37   12    6 |    b = E
    6   90    3   17   19    3   25   11    2    1 |    c = FV
  116  959   15 1036  106   18  110   85   33   14 |    d = AI
  138  693   33  191  359   18  398   63   50   35 |    e = CDGKNRSYZ
   25  466   16  113   55   22   87   34  118    4 |    f = O
    9  129   17   38   95   12 4078   18    9   12 |    g = 0
   23  194    3   23   32    4  114   40    7   17 |    h = LT
   11   83    0   31    4    8    5   27  113    3 |    i = U
   22  208    0   28   29    1   47   22   32   10 |    j = MBP

=== Percent Confusion Matrix ===
a	b	c	d	e	f	g	h	i	j	
22.22	50.0	0.0	13.89	5.56	0.0	2.78	0.0	5.56	0.0	 a = C
9.37	65.29	0.1	11.33	4.43	0.51	3.3	3.81	1.24	0.62	 b = E
3.39	50.85	1.69	9.6	10.73	1.69	14.12	6.21	1.13	0.56	 c = FV
4.65	38.48	0.6	41.57	4.25	0.72	4.41	3.41	1.32	0.56	 d = AI
6.98	35.04	1.67	9.66	18.15	0.91	20.12	3.19	2.53	1.77	 e = CDGKNRSYZ
2.66	49.57	1.7	12.02	5.85	2.34	9.26	3.62	12.55	0.43	 f = O
0.2	2.92	0.38	0.86	2.15	0.27	92.33	0.41	0.2	0.27	 g = 0
5.03	42.45	0.66	5.03	7.0	0.88	24.95	8.75	1.53	3.72	 h = LT
3.86	29.12	0.0	10.88	1.4	2.81	1.75	9.47	39.65	1.05	 i = U
5.51	52.13	0.0	7.02	7.27	0.25	11.78	5.51	8.02	2.51	 j = MBP
