Timestamp:2014-12-07-11:19:18
Inventario:I4
Intervalo:15ms
Ngramas:5
Clasificador:NaiveBayes
Relation Name:  I4-15ms-5gramas
Num Instances:  12185
Num Attributes: 51

     Name                      Type  Nom  Int Real     Missing      Unique  Dist
   1 0Int(dB)                   Num   0%  10%  90%     0 /  0%    10 /  0%   768 
   2 0Pitch(Hz)                 Num   0%  50%  50%     0 /  0%   940 /  8%  2714 
   3 0RawPitch                  Num   0%  53%  47%     0 /  0%   980 /  8%  2609 
   4 0SmPitch                   Num   0%  51%  49%     0 /  0%   957 /  8%  2691 
   5 0Melogram(st)              Num   0%  46%  54%     0 /  0%   837 /  7%  2573 
   6 0ZCross                    Num   0% 100%   0%     0 /  0%    10 /  0%    40 
   7 0F1(Hz)                    Num   0%  50%  50%     0 /  0%  2281 / 19%  3977 
   8 0F2(Hz)                    Num   0%  50%  50%     0 /  0%  3848 / 32%  5158 
   9 0F3(Hz)                    Num   0%  50%  50%     0 /  0%  3419 / 28%  4850 
  10 0F4(Hz)                    Num   0%  50%  50%     0 /  0%  3319 / 27%  4764 
  11 1Int(dB)                   Num   0%  10%  90%     0 /  0%    10 /  0%   768 
  12 1Pitch(Hz)                 Num   0%  50%  50%     0 /  0%   940 /  8%  2714 
  13 1RawPitch                  Num   0%  53%  47%     0 /  0%   980 /  8%  2609 
  14 1SmPitch                   Num   0%  51%  49%     0 /  0%   957 /  8%  2691 
  15 1Melogram(st)              Num   0%  46%  54%     0 /  0%   837 /  7%  2573 
  16 1ZCross                    Num   0% 100%   0%     0 /  0%    10 /  0%    40 
  17 1F1(Hz)                    Num   0%  50%  50%     0 /  0%  2281 / 19%  3977 
  18 1F2(Hz)                    Num   0%  50%  50%     0 /  0%  3848 / 32%  5158 
  19 1F3(Hz)                    Num   0%  50%  50%     0 /  0%  3419 / 28%  4850 
  20 1F4(Hz)                    Num   0%  50%  50%     0 /  0%  3319 / 27%  4764 
  21 2Int(dB)                   Num   0%  10%  90%     0 /  0%    10 /  0%   768 
  22 2Pitch(Hz)                 Num   0%  50%  50%     0 /  0%   940 /  8%  2714 
  23 2RawPitch                  Num   0%  53%  47%     0 /  0%   980 /  8%  2609 
  24 2SmPitch                   Num   0%  51%  49%     0 /  0%   957 /  8%  2691 
  25 2Melogram(st)              Num   0%  46%  54%     0 /  0%   837 /  7%  2573 
  26 2ZCross                    Num   0% 100%   0%     0 /  0%    10 /  0%    40 
  27 2F1(Hz)                    Num   0%  50%  50%     0 /  0%  2281 / 19%  3977 
  28 2F2(Hz)                    Num   0%  50%  50%     0 /  0%  3848 / 32%  5158 
  29 2F3(Hz)                    Num   0%  50%  50%     0 /  0%  3419 / 28%  4850 
  30 2F4(Hz)                    Num   0%  50%  50%     0 /  0%  3319 / 27%  4764 
  31 3Int(dB)                   Num   0%  10%  90%     0 /  0%    10 /  0%   768 
  32 3Pitch(Hz)                 Num   0%  50%  50%     0 /  0%   940 /  8%  2714 
  33 3RawPitch                  Num   0%  53%  47%     0 /  0%   980 /  8%  2609 
  34 3SmPitch                   Num   0%  51%  49%     0 /  0%   957 /  8%  2691 
  35 3Melogram(st)              Num   0%  46%  54%     0 /  0%   837 /  7%  2573 
  36 3ZCross                    Num   0% 100%   0%     0 /  0%    10 /  0%    40 
  37 3F1(Hz)                    Num   0%  50%  50%     0 /  0%  2281 / 19%  3977 
  38 3F2(Hz)                    Num   0%  50%  50%     0 /  0%  3848 / 32%  5158 
  39 3F3(Hz)                    Num   0%  50%  50%     0 /  0%  3419 / 28%  4850 
  40 3F4(Hz)                    Num   0%  50%  50%     0 /  0%  3319 / 27%  4764 
  41 4Int(dB)                   Num   0%  10%  90%     0 /  0%    10 /  0%   768 
  42 4Pitch(Hz)                 Num   0%  50%  50%     0 /  0%   941 /  8%  2715 
  43 4RawPitch                  Num   0%  53%  47%     0 /  0%   979 /  8%  2609 
  44 4SmPitch                   Num   0%  51%  49%     0 /  0%   957 /  8%  2691 
  45 4Melogram(st)              Num   0%  46%  54%     0 /  0%   838 /  7%  2574 
  46 4ZCross                    Num   0% 100%   0%     0 /  0%    10 /  0%    40 
  47 4F1(Hz)                    Num   0%  50%  50%     0 /  0%  2281 / 19%  3977 
  48 4F2(Hz)                    Num   0%  50%  50%     0 /  0%  3848 / 32%  5158 
  49 4F3(Hz)                    Num   0%  50%  50%     0 /  0%  3419 / 28%  4850 
  50 4F4(Hz)                    Num   0%  50%  50%     0 /  0%  3319 / 27%  4764 
  51 class                      Nom 100%   0%   0%     0 /  0%     0 /  0%    10 


Naive Bayes Classifier

                    Class
Attribute               C         E        FV        AI CDGKNRSYZ         O         0        LT         U       MBP
                   (0.01)    (0.08)    (0.01)     (0.2)    (0.16)    (0.08)    (0.36)    (0.04)    (0.02)    (0.03)
====================================================================================================================
0Int(dB)
  mean              -6.439   -11.785   -8.6687   -9.7033  -12.0852  -13.0905  -47.9666   -13.288  -11.9663  -10.2759
  std. dev.         6.6168   12.8986   12.0588   13.6287   12.6154   14.0184   17.2863    12.152   13.7701   12.1022
  weight sum            72       971       177      2492      1978       940      4414       457       285       399
  precision         0.1005    0.1005    0.1005    0.1005    0.1005    0.1005    0.1005    0.1005    0.1005    0.1005

0Pitch(Hz)
  mean            215.1299  153.0375  179.6287  180.7618  161.9166  155.9105   20.3798  163.2777  185.7384  179.8992
  std. dev.         79.281  103.8972   103.953  120.9524  100.3672  117.3958    61.369  106.7567  132.3586  105.1483
  weight sum            72       971       177      2492      1978       940      4414       457       285       399
  precision         0.1828    0.1828    0.1828    0.1828    0.1828    0.1828    0.1828    0.1828    0.1828    0.1828

0RawPitch
  mean            202.3629  144.5828  166.2658  170.1777  149.6814  146.8368   17.1631  149.7647  171.6991  173.8506
  std. dev.        88.0034  106.5862  103.3211  122.9585  106.3232  120.8184   56.4371    110.58   131.795  106.7713
  weight sum            72       971       177      2492      1978       940      4414       457       285       399
  precision           0.19      0.19      0.19      0.19      0.19      0.19      0.19      0.19      0.19      0.19

0SmPitch
  mean            207.6015  149.0753  173.1916  178.1301  157.9185  152.2588   18.7257  158.3163   180.598  180.2866
  std. dev.          85.11  106.3452  102.0399  121.7901  102.9437  118.4966   58.1994  108.1456   131.965  104.7377
  weight sum            72       971       177      2492      1978       940      4414       457       285       399
  precision         0.1841    0.1841    0.1841    0.1841    0.1841    0.1841    0.1841    0.1841    0.1841    0.1841

0Melogram(st)
  mean             52.1666   41.6006   48.1518   44.2788   43.5276   40.2674    5.9899    43.064   41.0172    47.725
  std. dev.        15.3385   23.5005   18.0734   23.2754   22.1895   24.9104   17.0581   22.9796   27.0441   19.8248
  weight sum            72       971       177      2492      1978       940      4414       457       285       399
  precision         0.0321    0.0321    0.0321    0.0321    0.0321    0.0321    0.0321    0.0321    0.0321    0.0321

0ZCross
  mean              4.9615    3.8959    4.4476    5.3226    3.5162    3.3147    0.3867    2.7793    3.6752    3.7028
  std. dev.         2.7747     3.649    3.4388    5.1767    3.2101    3.6649    1.5809    2.4638      3.94    3.2269
  weight sum            72       971       177      2492      1978       940      4414       457       285       399
  precision         1.1026    1.1026    1.1026    1.1026    1.1026    1.1026    1.1026    1.1026    1.1026    1.1026

0F1(Hz)
  mean            528.4627  388.8481  509.3179  501.1373  472.5079  385.1749    70.658  442.0682  419.7893  431.6949
  std. dev.        148.615   237.095  195.7216  337.8793  243.3778   266.914  194.4811  244.4541  372.1684  229.3067
  weight sum            72       971       177      2492      1978       940      4414       457       285       399
  precision          0.438     0.438     0.438     0.438     0.438     0.438     0.438     0.438     0.438     0.438

0F2(Hz)
  mean           1717.6076 1369.0863 1541.6786 1281.7723 1409.3227 1068.2508  208.2172 1387.7582   914.502 1458.7638
  std. dev.       425.1928  803.3837   580.665  728.7556  682.4574  725.3498  568.3554   703.466  685.7093  713.6231
  weight sum            72       971       177      2492      1978       940      4414       457       285       399
  precision         0.5776    0.5776    0.5776    0.5776    0.5776    0.5776    0.5776    0.5776    0.5776    0.5776

0F3(Hz)
  mean            3056.578 2150.7772 2580.8602 2243.7463 2426.4771 2120.0995  358.7944 2365.3639 2080.2522 2423.0168
  std. dev.       686.2108 1216.5845  904.0374 1222.0368 1110.8293 1296.1846  955.2144 1141.8509  1312.859  1100.655
  weight sum            72       971       177      2492      1978       940      4414       457       285       399
  precision         0.8494    0.8494    0.8494    0.8494    0.8494    0.8494    0.8494    0.8494    0.8494    0.8494

0F4(Hz)
  mean           3002.8311 2618.9863 3024.6427  2618.947 2807.4077 2452.0691  429.1094 2699.3315 2397.0943 2836.6595
  std. dev.       686.0453 1462.1662 1043.5972 1413.3142  1262.904 1492.5677 1139.7345 1299.3576 1469.4084 1264.4821
  weight sum            72       971       177      2492      1978       940      4414       457       285       399
  precision         0.8707    0.8707    0.8707    0.8707    0.8707    0.8707    0.8707    0.8707    0.8707    0.8707

1Int(dB)
  mean              -6.002  -10.1933  -10.0033   -8.6138  -12.9726  -11.9021  -48.6205  -14.8525   -10.704  -10.7409
  std. dev.         6.5733   11.7847   11.6666   12.6503   12.3939    13.325   16.5761   12.8883    12.611    11.848
  weight sum            72       971       177      2492      1978       940      4414       457       285       399
  precision         0.1005    0.1005    0.1005    0.1005    0.1005    0.1005    0.1005    0.1005    0.1005    0.1005

1Pitch(Hz)
  mean            220.0306  160.1808  172.3798  187.0636  155.0244  161.5093   17.8672  151.0322  194.1405   182.286
  std. dev.        79.9172  100.9674  105.1479  116.7522  104.6569  115.1424   57.8415  107.9065  126.5096  103.6491
  weight sum            72       971       177      2492      1978       940      4414       457       285       399
  precision         0.1828    0.1828    0.1828    0.1828    0.1828    0.1828    0.1828    0.1828    0.1828    0.1828

1RawPitch
  mean            209.8756  154.2988  153.4086   177.156  141.8556  151.8615   14.8169  134.3366   182.114  174.1149
  std. dev.        90.9809  103.8965  106.4127  119.1116  109.6121  118.7396   52.5577  109.9703   126.065  108.2118
  weight sum            72       971       177      2492      1978       940      4414       457       285       399
  precision           0.19      0.19      0.19      0.19      0.19      0.19      0.19      0.19      0.19      0.19

1SmPitch
  mean             214.919  157.6884  163.5118  184.8433  150.6478  158.3741   16.1999  144.1338  187.9493   180.944
  std. dev.         87.612  102.7097  103.8799  117.6076  106.8439  116.4366   54.1567  109.3582  127.6747  105.0311
  weight sum            72       971       177      2492      1978       940      4414       457       285       399
  precision         0.1841    0.1841    0.1841    0.1841    0.1841    0.1841    0.1841    0.1841    0.1841    0.1841

1Melogram(st)
  mean             53.1486   43.8321   46.4107   45.8707   41.3818   42.1946    5.2917   41.1577   43.1507   47.4283
  std. dev.        14.2625   21.9994   19.5839    21.998   23.6992   23.8924   16.1544   23.8838   25.8888   19.8935
  weight sum            72       971       177      2492      1978       940      4414       457       285       399
  precision         0.0321    0.0321    0.0321    0.0321    0.0321    0.0321    0.0321    0.0321    0.0321    0.0321

1ZCross
  mean              5.1606    4.1877    3.8309    5.4858    3.3919    3.5388    0.3175    2.5139    3.6946    3.3547
  std. dev.         2.6996      3.51    3.1646    5.0254    3.4876       3.7    1.4497    2.4693    3.7659    3.0234
  weight sum            72       971       177      2492      1978       940      4414       457       285       399
  precision         1.1026    1.1026    1.1026    1.1026    1.1026    1.1026    1.1026    1.1026    1.1026    1.1026

1F1(Hz)
  mean            545.2964  399.5254   509.407  519.5995  457.4232  400.7883   63.3036  403.5169  423.1014  448.4717
  std. dev.       148.6698  222.3308  214.6903  329.5171  253.5302  262.7274  185.2909  253.4601  367.4317  217.4863
  weight sum            72       971       177      2492      1978       940      4414       457       285       399
  precision          0.438     0.438     0.438     0.438     0.438     0.438     0.438     0.438     0.438     0.438

1F2(Hz)
  mean            1764.249 1442.8428 1487.4002 1332.7266 1369.9292 1071.2623  187.2709 1295.9218  901.2556 1511.2562
  std. dev.       397.0413  776.7388  613.6935  704.9263  715.6611   690.734  542.7833  756.1963  645.6145  656.5641
  weight sum            72       971       177      2492      1978       940      4414       457       285       399
  precision         0.5776    0.5776    0.5776    0.5776    0.5776    0.5776    0.5776    0.5776    0.5776    0.5776

1F3(Hz)
  mean           3100.5126 2225.9848 2511.3747 2318.4152 2359.6494  2178.095  321.9054  2214.057 2131.2599 2536.1532
  std. dev.       597.8366 1160.7791  982.7376 1166.7987 1174.4304 1261.4257  911.1638 1245.9129 1290.0635 1002.0059
  weight sum            72       971       177      2492      1978       940      4414       457       285       399
  precision         0.8494    0.8494    0.8494    0.8494    0.8494    0.8494    0.8494    0.8494    0.8494    0.8494

1F4(Hz)
  mean            3044.853   2718.69 2938.8695 2713.8238 2716.2735 2525.1794   385.557 2524.5955 2447.5687 2957.3618
  std. dev.       600.7891 1397.2836 1127.8105 1351.9152 1333.0911 1454.2085 1088.8664 1416.9199 1436.0304 1139.4412
  weight sum            72       971       177      2492      1978       940      4414       457       285       399
  precision         0.8707    0.8707    0.8707    0.8707    0.8707    0.8707    0.8707    0.8707    0.8707    0.8707

2Int(dB)
  mean             -6.4627   -8.2853  -11.8337    -7.329  -14.1665  -10.3306  -49.3181  -16.7022        -9  -11.7003
  std. dev.         7.0305   10.4618   10.8769    11.542   11.9083   12.5524   15.6483   13.1961   11.0737   11.7463
  weight sum            72       971       177      2492      1978       940      4414       457       285       399
  precision         0.1005    0.1005    0.1005    0.1005    0.1005    0.1005    0.1005    0.1005    0.1005    0.1005

2Pitch(Hz)
  mean            220.1143   171.376  161.8432  195.2612  144.3986  170.5933   15.1305  136.8415  208.3385  176.1634
  std. dev.        81.6494   96.7489  106.9302  111.1367  108.6394  111.0794   53.6708  108.4248  113.7908  105.3804
  weight sum            72       971       177      2492      1978       940      4414       457       285       399
  precision         0.1828    0.1828    0.1828    0.1828    0.1828    0.1828    0.1828    0.1828    0.1828    0.1828

2RawPitch
  mean            206.8753  166.4294  138.8672  185.5164  130.8286  160.9027   12.3549  118.4193  197.8707   166.948
  std. dev.        96.8329   99.7164  107.0856  114.2872  112.1418  115.9139   47.9455  108.0356  115.5032  110.5987
  weight sum            72       971       177      2492      1978       940      4414       457       285       399
  precision           0.19      0.19      0.19      0.19      0.19      0.19      0.19      0.19      0.19      0.19

2SmPitch
  mean            214.9932  169.6121  150.9116  193.2038  139.5885  167.6951   13.4474  129.0353  204.0613  174.3874
  std. dev.        89.1684     98.43  106.0938  112.3186  110.3425  112.6857   49.2552  108.5341  114.8803  107.0721
  weight sum            72       971       177      2492      1978       940      4414       457       285       399
  precision         0.1841    0.1841    0.1841    0.1841    0.1841    0.1841    0.1841    0.1841    0.1841    0.1841

2Melogram(st)
  mean             53.1112    46.364   44.3633   48.0463   38.3963   44.5801    4.5613   38.5186   46.8237   46.2526
  std. dev.        14.3107   19.9773   21.0748   19.9585   25.2445   22.3034   15.1263   24.9304     23.28   20.8639
  weight sum            72       971       177      2492      1978       940      4414       457       285       399
  precision         0.0321    0.0321    0.0321    0.0321    0.0321    0.0321    0.0321    0.0321    0.0321    0.0321

2ZCross
  mean              4.9922    4.5363    3.0523    5.7035    3.2497    3.8308    0.2321    2.1714    3.6211    2.9291
  std. dev.         2.7806    3.4214     2.753    4.7289    3.9448    3.7224    1.1943    2.3689    3.3263    2.7939
  weight sum            72       971       177      2492      1978       940      4414       457       285       399
  precision         1.1026    1.1026    1.1026    1.1026    1.1026    1.1026    1.1026    1.1026    1.1026    1.1026

2F1(Hz)
  mean            535.7328  421.4711  494.2517  550.1507  425.7911  427.7699   54.1185  364.4327  447.6356  434.8028
  std. dev.       169.7117  199.8827  234.8699   314.867  267.1906  253.7566  172.0789  255.1201  351.3336  221.0826
  weight sum            72       971       177      2492      1978       940      4414       457       285       399
  precision          0.438     0.438     0.438     0.438     0.438     0.438     0.438     0.438     0.438     0.438

2F2(Hz)
  mean           1756.7643 1557.4028 1421.4392 1408.5657    1290.7 1095.9014  161.1779 1210.5793  941.4183 1481.8564
  std. dev.        461.855  715.8668  646.1569  659.4569  766.3228   642.731   507.166  794.2976  583.0066    667.81
  weight sum            72       971       177      2492      1978       940      4414       457       285       399
  precision         0.5776    0.5776    0.5776    0.5776    0.5776    0.5776    0.5776    0.5776    0.5776    0.5776

2F3(Hz)
  mean           3050.0303 2361.5599 2423.2784  2434.961 2218.2214   2286.61  277.7773 2073.2463 2306.2699 2496.4215
  std. dev.       710.6341  1058.658 1066.6564 1070.1306 1268.6917 1195.8853  854.4008 1326.1174 1189.9252 1031.3795
  weight sum            72       971       177      2492      1978       940      4414       457       285       399
  precision         0.8494    0.8494    0.8494    0.8494    0.8494    0.8494    0.8494    0.8494    0.8494    0.8494

2F4(Hz)
  mean           3007.0152 2879.2008  2839.318 2852.8053  2552.003 2646.7638  332.7116 2351.6714 2634.9155 2926.4759
  std. dev.       708.4745 1266.1181 1221.6089 1239.1052 1444.0172 1374.1393 1021.3417 1499.0448 1307.4223 1176.9755
  weight sum            72       971       177      2492      1978       940      4414       457       285       399
  precision         0.8707    0.8707    0.8707    0.8707    0.8707    0.8707    0.8707    0.8707    0.8707    0.8707

3Int(dB)
  mean             -6.8885   -6.5035  -13.4875   -6.1455   -15.222   -8.9829  -50.0164  -18.0717   -7.1056  -12.6599
  std. dev.         6.9817    9.1484    9.7297   10.3477    10.881   12.0392   14.6151   12.8879    9.4113   11.4853
  weight sum            72       971       177      2492      1978       940      4414       457       285       399
  precision         0.1005    0.1005    0.1005    0.1005    0.1005    0.1005    0.1005    0.1005    0.1005    0.1005

3Pitch(Hz)
  mean             217.664  183.4717   151.416  203.2541  134.1292  178.6603   12.1328  125.8429   222.874   169.157
  std. dev.        86.9212   90.6248  107.3372  104.7587  111.8147  105.9497   48.3614  105.8357   96.7144  107.9278
  weight sum            72       971       177      2492      1978       940      4414       457       285       399
  precision         0.1828    0.1828    0.1828    0.1828    0.1828    0.1828    0.1828    0.1828    0.1828    0.1828

3RawPitch
  mean            207.3634  179.2232  126.9095  193.5397  118.9254  170.2865    9.8391  107.1777  214.8787  156.3794
  std. dev.        98.5622   94.3626  104.8815  108.9128  113.3918  111.2599   42.7299  105.2865  100.3251  112.6669
  weight sum            72       971       177      2492      1978       940      4414       457       285       399
  precision           0.19      0.19      0.19      0.19      0.19      0.19      0.19      0.19      0.19      0.19

3SmPitch
  mean            212.5412  181.7709  140.8054  201.3193   127.951  176.3381   10.5874  118.8302  222.2202  166.7235
  std. dev.        93.8745   92.0323    105.09   106.267  112.8512  107.6496   43.6726  105.1351    96.345  110.0496
  weight sum            72       971       177      2492      1978       940      4414       457       285       399
  precision         0.1841    0.1841    0.1841    0.1841    0.1841    0.1841    0.1841    0.1841    0.1841    0.1841

3Melogram(st)
  mean             52.3404    49.433   42.1057   50.2198   35.3637    46.689    3.8408   35.6072   51.8876   44.1038
  std. dev.         15.624   16.6562   22.5058   17.4196   26.3892   20.4728   14.0017   25.7128   18.0236   22.6152
  weight sum            72       971       177      2492      1978       940      4414       457       285       399
  precision         0.0321    0.0321    0.0321    0.0321    0.0321    0.0321    0.0321    0.0321    0.0321    0.0321

3ZCross
  mean              4.6706      4.81     2.392    5.9106      3.17    4.0255    0.1446    1.8746    3.6946    2.5119
  std. dev.         2.6149    3.2495    2.3218    4.5082    4.3809    3.4165     0.806    2.2374    3.0049    2.4124
  weight sum            72       971       177      2492      1978       940      4414       457       285       399
  precision         1.1026    1.1026    1.1026    1.1026    1.1026    1.1026    1.1026    1.1026    1.1026    1.1026

3F1(Hz)
  mean            525.8346  448.7867   455.282  586.2685   386.621  460.8448   44.5249  323.8619  479.4518  407.9579
  std. dev.       172.0577  167.2097   257.875   293.961  276.6551  237.0895  156.6041  253.7036  324.8579  229.4716
  weight sum            72       971       177      2492      1978       940      4414       457       285       399
  precision          0.438     0.438     0.438     0.438     0.438     0.438     0.438     0.438     0.438     0.438

3F2(Hz)
  mean           1769.2148 1697.5367 1319.8463 1496.2409 1188.9884 1136.7816   133.697 1108.9212 1012.0156 1414.0003
  std. dev.       473.0726  606.8332  697.8781  594.1446  808.3803   583.467  464.5044  823.6593  498.3854  704.2441
  weight sum            72       971       177      2492      1978       940      4414       457       285       399
  precision         0.5776    0.5776    0.5776    0.5776    0.5776    0.5776    0.5776    0.5776    0.5776    0.5776

3F3(Hz)
  mean           3038.7871 2529.5236  2267.597 2571.1607 2045.5555 2424.0221  231.2684 1899.0587 2541.1097 2386.6296
  std. dev.       719.1425  892.9521 1184.2012  934.1649 1351.1031 1093.5808  786.5978  1389.432  990.0091 1113.8644
  weight sum            72       971       177      2492      1978       940      4414       457       285       399
  precision         0.8494    0.8494    0.8494    0.8494    0.8494    0.8494    0.8494    0.8494    0.8494    0.8494

3F4(Hz)
  mean           3022.0342 3071.5364  2669.134 3007.8202 2357.0615 2797.3211  277.6356 2164.0925 2890.5441 2816.2806
  std. dev.       721.0039 1053.8859 1361.3599 1076.2246 1544.7102  1248.566   942.661 1575.1145 1057.0684 1281.9024
  weight sum            72       971       177      2492      1978       940      4414       457       285       399
  precision         0.8707    0.8707    0.8707    0.8707    0.8707    0.8707    0.8707    0.8707    0.8707    0.8707

4Int(dB)
  mean             -7.3814   -5.5049  -14.3263   -5.5634  -15.8981   -8.3852  -50.5629  -17.1661   -5.5692  -12.4692
  std. dev.         7.5828    8.2833    8.9225    9.7169    9.9293   12.0282   13.7532   11.6644    7.6498    10.584
  weight sum            72       971       177      2492      1978       940      4414       457       285       399
  precision         0.1005    0.1005    0.1005    0.1005    0.1005    0.1005    0.1005    0.1005    0.1005    0.1005

4Pitch(Hz)
  mean            215.8451  189.9846   145.764  206.5395  129.4782  180.3637    9.3634  135.4247  231.3108  169.0755
  std. dev.        91.5699   87.3032  105.9069  101.8371  112.9128  102.9621    43.043  103.0969   84.4017  105.9927
  weight sum            72       971       177      2492      1978       940      4414       457       285       399
  precision         0.1828    0.1828    0.1828    0.1828    0.1828    0.1828    0.1828    0.1828    0.1828    0.1828

4RawPitch
  mean            203.5794  186.8578  119.8712  197.2851  112.5058  174.1912    7.3722  114.3405  222.5963   155.219
  std. dev.       105.2011   91.2535  101.1981  106.4076  112.9306  108.1025   36.8853  104.3146   90.9444  111.9695
  weight sum            72       971       177      2492      1978       940      4414       457       285       399
  precision           0.19      0.19      0.19      0.19      0.19      0.19      0.19      0.19      0.19      0.19

4SmPitch
  mean            210.7412  188.6266  135.2172  204.8157  122.7236  178.2642    8.0681  127.4981  230.9021  164.9116
  std. dev.        98.1062   88.6539  102.9917  103.2111  113.5818  104.6347   38.1541  103.8429   84.0603  109.5012
  weight sum            72       971       177      2492      1978       940      4414       457       285       399
  precision         0.1841    0.1841    0.1841    0.1841    0.1841    0.1841    0.1841    0.1841    0.1841    0.1841

4Melogram(st)
  mean             51.6383   50.9897   40.8426   51.2928   34.0468   47.3663     3.078   36.8907   54.7393   44.2448
  std. dev.        16.8042   14.4101   23.1702   15.7782   26.8437   19.6193   12.6754   25.3688   13.2895   22.4965
  weight sum            72       971       177      2492      1978       940      4414       457       285       399
  precision         0.0321    0.0321    0.0321    0.0321    0.0321    0.0321    0.0321    0.0321    0.0321    0.0321

4ZCross
  mean              4.4562    4.8701    2.1179    6.0123    3.1132    4.0889    0.1007    1.8915    3.8532    2.3765
  std. dev.         2.5024    2.9907    2.1208    4.4254    4.6631     2.998    0.6803    2.0168    2.8492    2.1579
  weight sum            72       971       177      2492      1978       940      4414       457       285       399
  precision         1.1026    1.1026    1.1026    1.1026    1.1026    1.1026    1.1026    1.1026    1.1026    1.1026

4F1(Hz)
  mean            510.8869  469.1052  420.1259  617.6044   352.133  487.7924   34.5051  314.6902  504.5577  391.9946
  std. dev.       175.1628  136.7924  268.8685  272.6598  277.7886   218.941  138.1768  246.2031   299.786  227.7233
  weight sum            72       971       177      2492      1978       940      4414       457       285       399
  precision          0.438     0.438     0.438     0.438     0.438     0.438     0.438     0.438     0.438     0.438

4F2(Hz)
  mean           1734.4383 1803.6497 1256.0162 1569.0834 1104.7679 1164.8777  104.2406 1101.9861 1075.9553 1374.8709
  std. dev.       519.4319  490.0179  726.8151  525.9317  830.4125   526.346  413.1064  820.1762   411.661  707.8796
  weight sum            72       971       177      2492      1978       940      4414       457       285       399
  precision         0.5776    0.5776    0.5776    0.5776    0.5776    0.5776    0.5776    0.5776    0.5776    0.5776

4F3(Hz)
  mean           2990.6054 2651.8402 2156.9356 2684.0978 1904.5307 2529.7403  181.1072 1887.9603 2728.7599 2325.0319
  std. dev.       804.4948  731.0473 1243.2456  791.9699  1397.093  990.6689  703.4937 1394.7315   731.591 1133.6314
  weight sum            72       971       177      2492      1978       940      4414       457       285       399
  precision         0.8494    0.8494    0.8494    0.8494    0.8494    0.8494    0.8494    0.8494    0.8494    0.8494

4F4(Hz)
  mean           2990.2306 3206.8695 2560.0986 3131.1849 2202.8521 2916.3463     217.4 2162.6617 3100.5588 2772.6162
  std. dev.       811.3198  845.6004 1438.2149  905.1559 1606.8749 1123.3047  842.8601 1587.2774  725.9921 1317.5612
  weight sum            72       971       177      2492      1978       940      4414       457       285       399
  precision         0.8707    0.8707    0.8707    0.8707    0.8707    0.8707    0.8707    0.8707    0.8707    0.8707





=== Stratified cross-validation ===

Correctly Classified Instances        5116               41.986  %
Incorrectly Classified Instances      7069               58.014  %
Kappa statistic                          0.3044
K&B Relative Info Score             334536.6455 %
K&B Information Score                 8699.9281 bits      0.714  bits/instance
Class complexity | order 0           31669.4139 bits      2.599  bits/instance
Class complexity | scheme           287760.5173 bits     23.616  bits/instance
Complexity improvement     (Sf)    -256091.1034 bits    -21.0169 bits/instance
Mean absolute error                      0.1155
Root mean squared error                  0.3217
Relative absolute error                 73.5615 %
Root relative squared error            114.8164 %
Coverage of cases (0.95 level)          49.4378 %
Mean rel. region size (0.95 level)      14.5991 %
Total Number of Instances            12185     


=== Detailed Accuracy By Class ===

                 TP Rate  FP Rate  Precision  Recall   F-Measure  MCC      ROC Area  PRC Area  Class
                 0,764    0,303    0,015      0,764    0,029      0,077    0,808     0,021     C
                 0,195    0,064    0,210      0,195    0,202      0,136    0,772     0,203     E
                 0,124    0,040    0,044      0,124    0,065      0,050    0,735     0,036     FV
                 0,177    0,022    0,678      0,177    0,281      0,279    0,801     0,500     AI
                 0,120    0,016    0,593      0,120    0,199      0,215    0,729     0,374     CDGKNRSYZ
                 0,047    0,018    0,179      0,047    0,074      0,055    0,741     0,164     O
                 0,900    0,080    0,864      0,900    0,881      0,812    0,941     0,877     0
                 0,177    0,058    0,106      0,177    0,133      0,094    0,715     0,077     LT
                 0,239    0,019    0,229      0,239    0,234      0,215    0,861     0,163     U
                 0,018    0,008    0,068      0,018    0,028      0,018    0,716     0,060     MBP
Weighted Avg.    0,420    0,048    0,591      0,420    0,443      0,412    0,827     0,519     


=== Confusion Matrix ===

    a    b    c    d    e    f    g    h    i    j   <-- classified as
   55    6    2    4    1    1    1    1    1    0 |    a = C
  538  189   22   40   12   49   31   60   25    5 |    b = E
   86   16   22    4   12    2   17   15    2    1 |    c = FV
 1173  293   94  442   44  107   99  136   90   14 |    d = AI
  835  123  175   56  237    9  271  216   27   29 |    e = CDGKNRSYZ
  396  141   53   63   13   44   85   69   65   11 |    f = O
  156   15   74    5   52    4 3971  119    6   12 |    g = 0
  200   28   34    0   12    5   81   81    5   11 |    h = LT
   92   31    4   24    5   17    7   24   68   13 |    i = U
  192   60   25   14   12    8   33   40    8    7 |    j = MBP

=== Percent Confusion Matrix ===
a	b	c	d	e	f	g	h	i	j	
76.39	8.33	2.78	5.56	1.39	1.39	1.39	1.39	1.39	0.0	 a = C
55.41	19.46	2.27	4.12	1.24	5.05	3.19	6.18	2.57	0.51	 b = E
48.59	9.04	12.43	2.26	6.78	1.13	9.6	8.47	1.13	0.56	 c = FV
47.07	11.76	3.77	17.74	1.77	4.29	3.97	5.46	3.61	0.56	 d = AI
42.21	6.22	8.85	2.83	11.98	0.46	13.7	10.92	1.37	1.47	 e = CDGKNRSYZ
42.13	15.0	5.64	6.7	1.38	4.68	9.04	7.34	6.91	1.17	 f = O
3.53	0.34	1.68	0.11	1.18	0.09	89.96	2.7	0.14	0.27	 g = 0
43.76	6.13	7.44	0.0	2.63	1.09	17.72	17.72	1.09	2.41	 h = LT
32.28	10.88	1.4	8.42	1.75	5.96	2.46	8.42	23.86	4.56	 i = U
48.12	15.04	6.27	3.51	3.01	2.01	8.27	10.03	2.01	1.75	 j = MBP
