Timestamp:2014-12-07-11:15:01
Inventario:I4
Intervalo:2ms
Ngramas:2
Clasificador:NaiveBayes
Relation Name:  I4-2ms-2gramas
Num Instances:  91702
Num Attributes: 21

     Name                      Type  Nom  Int Real     Missing      Unique  Dist
   1 0Int(dB)                   Num   0%   9%  91%     0 /  0%     5 /  0%   780 
   2 0Pitch(Hz)                 Num   0%  52%  48%     0 /  0%   471 /  1%  4016 
   3 0RawPitch                  Num   0%  55%  45%     0 /  0%   550 /  1%  4014 
   4 0SmPitch                   Num   0%  53%  47%     0 /  0%   491 /  1%  3998 
   5 0Melogram(st)              Num   0%  49%  51%     0 /  0%   212 /  0%  3363 
   6 0ZCross                    Num   0% 100%   0%     0 /  0%     6 /  0%    54 
   7 0F1(Hz)                    Num   0%  52%  48%     0 /  0%  1126 /  1%  4776 
   8 0F2(Hz)                    Num   0%  52%  48%     0 /  0%  2304 /  3%  6727 
   9 0F3(Hz)                    Num   0%  52%  48%     0 /  0%  1967 /  2%  6224 
  10 0F4(Hz)                    Num   0%  52%  48%     0 /  0%  1884 /  2%  6074 
  11 1Int(dB)                   Num   0%   9%  91%     0 /  0%     6 /  0%   781 
  12 1Pitch(Hz)                 Num   0%  52%  48%     0 /  0%   471 /  1%  4016 
  13 1RawPitch                  Num   0%  55%  45%     0 /  0%   550 /  1%  4014 
  14 1SmPitch                   Num   0%  53%  47%     0 /  0%   491 /  1%  3998 
  15 1Melogram(st)              Num   0%  49%  51%     0 /  0%   212 /  0%  3363 
  16 1ZCross                    Num   0% 100%   0%     0 /  0%     6 /  0%    54 
  17 1F1(Hz)                    Num   0%  52%  48%     0 /  0%  1126 /  1%  4776 
  18 1F2(Hz)                    Num   0%  52%  48%     0 /  0%  2304 /  3%  6727 
  19 1F3(Hz)                    Num   0%  52%  48%     0 /  0%  1967 /  2%  6224 
  20 1F4(Hz)                    Num   0%  52%  48%     0 /  0%  1884 /  2%  6074 
  21 class                      Nom 100%   0%   0%     0 /  0%     0 /  0%    10 


Naive Bayes Classifier

                    Class
Attribute               C         E        FV        AI CDGKNRSYZ         O         0        LT         U       MBP
                   (0.01)    (0.08)    (0.01)     (0.2)    (0.16)    (0.07)    (0.39)    (0.04)    (0.02)    (0.03)
====================================================================================================================
0Int(dB)
  mean              -7.701   -5.1801  -15.0289   -5.1283  -16.0193    -8.146  -48.2526  -17.1505   -5.2139  -12.4737
  std. dev.         8.0193     8.069    8.8787    9.5456    9.8812   12.1698   16.2021   11.9928    7.7793   10.7103
  weight sum           544      6910      1286     17894     14272      6646     35832      3323      2080      2915
  precision         0.1039    0.1039    0.1039    0.1039    0.1039    0.1039    0.1039    0.1039    0.1039    0.1039

0Pitch(Hz)
  mean            211.8361  190.0868  131.0502  206.8971  117.9163  178.5997   16.6922  121.0387  229.3808  159.5378
  std. dev.       101.2436   87.9634  107.2576  104.2392  114.6833   105.265   56.2797   104.384    84.526  111.1102
  weight sum           544      6910      1286     17894     14272      6646     35832      3323      2080      2915
  precision         0.1242    0.1242    0.1242    0.1242    0.1242    0.1242    0.1242    0.1242    0.1242    0.1242

0RawPitch
  mean            201.2902  185.5725  106.2993  197.1164  100.6203  172.7286   13.6783  100.0316  220.4839   147.555
  std. dev.       112.1972   95.2181  103.3674  110.4139   114.894  112.6688   50.8125  102.8507   93.0053  116.3293
  weight sum           544      6910      1286     17894     14272      6646     35832      3323      2080      2915
  precision         0.1243    0.1243    0.1243    0.1243    0.1243    0.1243    0.1243    0.1243    0.1243    0.1243

0SmPitch
  mean            210.1091  188.5362  120.8089  204.8243  111.5386  176.5062   15.0746  114.7186  228.8712  154.9178
  std. dev.       103.2196   89.2414  104.3726  105.9523  114.9713  107.4391    52.489  104.5691   84.8121  113.8128
  weight sum           544      6910      1286     17894     14272      6646     35832      3323      2080      2915
  precision         0.1248    0.1248    0.1248    0.1248    0.1248    0.1248    0.1248    0.1248    0.1248    0.1248

0Melogram(st)
  mean             51.1216   50.4037   37.0227   50.7432   30.4977   46.5516    4.9293    33.518   54.0704    41.476
  std. dev.        17.8042   15.4597   25.0004   16.8821   27.4773    20.484    15.628   26.3288   14.2652   24.3018
  weight sum           544      6910      1286     17894     14272      6646     35832      3323      2080      2915
  precision         0.0246    0.0246    0.0246    0.0246    0.0246    0.0246    0.0246    0.0246    0.0246    0.0246

0ZCross
  mean              4.6044    5.2659    2.0682    6.4504    3.2941    4.4315    0.2535    2.0383    4.0992     2.518
  std. dev.         2.8002    3.2124    2.2445    4.5579    5.2362    3.0586    1.1335    2.2617    2.9273    2.2548
  weight sum           544      6910      1286     17894     14272      6646     35832      3323      2080      2915
  precision         1.0755    1.0755    1.0755    1.0755    1.0755    1.0755    1.0755    1.0755    1.0755    1.0755

0F1(Hz)
  mean            493.6582   463.877  383.2741  617.0533   323.795  484.2054   53.8361  287.5932  498.0573  371.8273
  std. dev.       193.7355   146.053  277.9272  281.7646   282.255  226.2125  166.7222  253.2136   307.944   237.112
  weight sum           544      6910      1286     17894     14272      6646     35832      3323      2080      2915
  precision         0.3648    0.3648    0.3648    0.3648    0.3648    0.3648    0.3648    0.3648    0.3648    0.3648

0F2(Hz)
  mean            1685.462  1785.616 1168.3225 1547.9285 1014.9729 1140.4987  168.5623 1007.4428  1053.554 1308.1584
  std. dev.       595.4503  528.1297  778.4294   548.487  845.6566  535.6978  516.6376     843.9  426.6176   749.768
  weight sum           544      6910      1286     17894     14272      6646     35832      3323      2080      2915
  precision         0.4429    0.4429    0.4429    0.4429    0.4429    0.4429    0.4429    0.4429    0.4429    0.4429

0F3(Hz)
  mean           2892.2992 2619.8245 1990.5358 2654.0247 1758.7329  2499.568  287.4189  1720.578  2673.852 2202.5227
  std. dev.       938.5627  786.5019 1314.6764  837.7135 1435.5612 1024.8703  866.0117 1436.1989  787.5699 1206.5921
  weight sum           544      6910      1286     17894     14272      6646     35832      3323      2080      2915
  precision          0.662     0.662     0.662     0.662     0.662     0.662     0.662     0.662     0.662     0.662

0F4(Hz)
  mean            2929.841 3157.1809 2382.1202 3094.5574 2029.7682 2876.1426  345.4862 1980.6994  3063.919 2644.3886
  std. dev.       952.5181  913.7543 1537.9929  958.2561 1649.1032 1161.7476  1038.639 1640.5917  806.6532 1416.7903
  weight sum           544      6910      1286     17894     14272      6646     35832      3323      2080      2915
  precision         0.6829    0.6829    0.6829    0.6829    0.6829    0.6829    0.6829    0.6829    0.6829    0.6829

1Int(dB)
  mean              -7.722    -5.199  -15.0003   -5.1495  -15.9854   -8.1936  -48.3069  -16.6795   -5.0927  -12.2641
  std. dev.         8.0048    8.0531    8.8607    9.5526    9.8409   12.2208   16.1114   11.8938    7.5769   10.5968
  weight sum           544      6910      1286     17894     14272      6646     35832      3323      2080      2915
  precision         0.1037    0.1037    0.1037    0.1037    0.1037    0.1037    0.1037    0.1037    0.1037    0.1037

1Pitch(Hz)
  mean            211.6788  190.3791  130.8258  206.8542  118.0636  178.0537   16.3383  124.0299  229.8416  160.3717
  std. dev.       101.7909   87.7367  107.1381  104.2462  114.8509  105.2226   55.7277  104.2993   83.5753  110.4325
  weight sum           544      6910      1286     17894     14272      6646     35832      3323      2080      2915
  precision         0.1242    0.1242    0.1242    0.1242    0.1242    0.1242    0.1242    0.1242    0.1242    0.1242

1RawPitch
  mean            201.3727   185.837  105.9763  197.1202  100.4456  172.2852   13.3728  103.3888  220.9278  148.5095
  std. dev.       112.4119   95.0002  102.9581  110.4483  114.9131  112.5036   50.3485  103.4883   92.1417  115.8451
  weight sum           544      6910      1286     17894     14272      6646     35832      3323      2080      2915
  precision         0.1243    0.1243    0.1243    0.1243    0.1243    0.1243    0.1243    0.1243    0.1243    0.1243

1SmPitch
  mean            210.3094  188.9642  120.6473  204.8316  111.5176  175.9682   14.7407  117.7377  229.2536  155.6124
  std. dev.       103.3642   88.9263  104.2291  105.9186  115.1141  107.3853   51.9295  104.6743   84.0032  113.2741
  weight sum           544      6910      1286     17894     14272      6646     35832      3323      2080      2915
  precision         0.1248    0.1248    0.1248    0.1248    0.1248    0.1248    0.1248    0.1248    0.1248    0.1248

1Melogram(st)
  mean             51.0353   50.4842   37.0069   50.7681    30.483   46.4749    4.8254   34.2384   54.3072   41.6893
  std. dev.         17.943   15.3213   25.0249   16.8283   27.5007   20.5262   15.4831   26.1713   13.7628   24.1614
  weight sum           544      6910      1286     17894     14272      6646     35832      3323      2080      2915
  precision         0.0246    0.0246    0.0246    0.0246    0.0246    0.0246    0.0246    0.0246    0.0246    0.0246

1ZCross
  mean              4.6044    5.2438    2.0698    6.4418    3.3021    4.4237    0.2484    2.1221    4.1111    2.5583
  std. dev.         2.7858    3.2168    2.2498    4.5637    5.2362    3.0692    1.1311    2.2739    2.9164    2.2519
  weight sum           544      6910      1286     17894     14272      6646     35832      3323      2080      2915
  precision         1.0755    1.0755    1.0755    1.0755    1.0755    1.0755    1.0755    1.0755    1.0755    1.0755

1F1(Hz)
  mean            493.4169  466.4894  378.5922  619.8036  320.2273  486.2046   52.7328  290.5839  500.6341   372.086
  std. dev.       193.2624  142.2388  277.5826  279.9888  281.5947  225.0865  165.0999   252.194  305.2064  236.0116
  weight sum           544      6910      1286     17894     14272      6646     35832      3323      2080      2915
  precision         0.3648    0.3648    0.3648    0.3648    0.3648    0.3648    0.3648    0.3648    0.3648    0.3648

1F2(Hz)
  mean           1683.3446 1798.4442 1163.3139 1553.8822  1006.274 1140.7371  165.1158 1019.3641 1061.2779 1309.1173
  std. dev.       595.5085  511.8666   782.141  542.8849  846.0934  531.1147  511.8646   841.803  416.4942    746.06
  weight sum           544      6910      1286     17894     14272      6646     35832      3323      2080      2915
  precision         0.4429    0.4429    0.4429    0.4429    0.4429    0.4429    0.4429    0.4429    0.4429    0.4429

1F3(Hz)
  mean           2891.9207 2634.9785 1978.2255 2663.3296 1744.4101 2506.4348  281.5246 1740.5426 2694.0925 2204.7048
  std. dev.       938.3439  764.1593 1318.9077  825.8325 1437.4155 1018.6433  858.0542 1433.4142  755.1652 1201.2074
  weight sum           544      6910      1286     17894     14272      6646     35832      3323      2080      2915
  precision          0.662     0.662     0.662     0.662     0.662     0.662     0.662     0.662     0.662     0.662

1F4(Hz)
  mean           2931.5846   3174.33 2370.2376 3104.1869 2014.7764 2882.7851  338.5171 2004.3629 3086.3027 2650.5175
  std. dev.       953.5669  885.5429 1544.5093  943.9157 1652.7489 1153.5603  1029.399 1637.7366   763.546 1411.8243
  weight sum           544      6910      1286     17894     14272      6646     35832      3323      2080      2915
  precision         0.6829    0.6829    0.6829    0.6829    0.6829    0.6829    0.6829    0.6829    0.6829    0.6829





=== Stratified cross-validation ===

Correctly Classified Instances       48736               53.1461 %
Incorrectly Classified Instances     42966               46.8539 %
Kappa statistic                          0.3929
K&B Relative Info Score            3502977.9765 %
K&B Information Score                89286.9617 bits      0.9737 bits/instance
Class complexity | order 0          233715.7607 bits      2.5486 bits/instance
Class complexity | scheme          1071805.5989 bits     11.6879 bits/instance
Complexity improvement     (Sf)    -838089.8382 bits     -9.1393 bits/instance
Mean absolute error                      0.096 
Root mean squared error                  0.2749
Relative absolute error                 62.2633 %
Root relative squared error             98.9949 %
Coverage of cases (0.95 level)          65.8557 %
Mean rel. region size (0.95 level)      19.7383 %
Total Number of Instances            91702     


=== Detailed Accuracy By Class ===

                 TP Rate  FP Rate  Precision  Recall   F-Measure  MCC      ROC Area  PRC Area  Class
                 0,015    0,001    0,078      0,015    0,025      0,032    0,772     0,026     C
                 0,764    0,256    0,196      0,764    0,312      0,295    0,840     0,268     E
                 0,031    0,012    0,035      0,031    0,033      0,020    0,728     0,029     FV
                 0,424    0,052    0,663      0,424    0,517      0,446    0,847     0,597     AI
                 0,152    0,029    0,494      0,152    0,232      0,209    0,730     0,364     CDGKNRSYZ
                 0,047    0,008    0,304      0,047    0,081      0,095    0,770     0,183     O
                 0,896    0,146    0,798      0,896    0,844      0,738    0,951     0,949     0
                 0,038    0,008    0,151      0,038    0,061      0,059    0,714     0,078     LT
                 0,510    0,043    0,216      0,510    0,304      0,309    0,877     0,362     U
                 0,015    0,007    0,066      0,015    0,025      0,017    0,726     0,059     MBP
Weighted Avg.    0,531    0,093    0,568      0,531    0,507      0,447    0,853     0,591     


=== Confusion Matrix ===

     a     b     c     d     e     f     g     h     i     j   <-- classified as
     8   343     1    77    19     0    34     0    62     0 |     a = C
    39  5281    51   782   256    12   277    53   108    51 |     b = E
     0   621    40   106    82    30   324    36    39     8 |     c = FV
    15  7143   262  7585   542   129   977   135  1027    79 |     d = AI
    38  4932   345  1173  2164   241  4179   208   742   250 |     e = CDGKNRSYZ
     0  3123   120   732   277   311   727    42  1287    27 |     f = O
     0  1897   223   406   544   165 32116   125   228   128 |     g = 0
     0  1469    53   194   277    54  1045   127    45    59 |     h = LT
     0   616    10   177    41    43    41    74  1060    18 |     i = U
     2  1527    41   201   180    37   541    41   301    44 |     j = MBP

=== Percent Confusion Matrix ===
a	b	c	d	e	f	g	h	i	j	
1.47	63.05	0.18	14.15	3.49	0.0	6.25	0.0	11.4	0.0	 a = C
0.56	76.43	0.74	11.32	3.7	0.17	4.01	0.77	1.56	0.74	 b = E
0.0	48.29	3.11	8.24	6.38	2.33	25.19	2.8	3.03	0.62	 c = FV
0.08	39.92	1.46	42.39	3.03	0.72	5.46	0.75	5.74	0.44	 d = AI
0.27	34.56	2.42	8.22	15.16	1.69	29.28	1.46	5.2	1.75	 e = CDGKNRSYZ
0.0	46.99	1.81	11.01	4.17	4.68	10.94	0.63	19.37	0.41	 f = O
0.0	5.29	0.62	1.13	1.52	0.46	89.63	0.35	0.64	0.36	 g = 0
0.0	44.21	1.59	5.84	8.34	1.63	31.45	3.82	1.35	1.78	 h = LT
0.0	29.62	0.48	8.51	1.97	2.07	1.97	3.56	50.96	0.87	 i = U
0.07	52.38	1.41	6.9	6.17	1.27	18.56	1.41	10.33	1.51	 j = MBP
