Timestamp:2014-12-07-11:15:41
Inventario:I4
Intervalo:2ms
Ngramas:4
Clasificador:NaiveBayes
Relation Name:  I4-2ms-4gramas
Num Instances:  91700
Num Attributes: 41

     Name                      Type  Nom  Int Real     Missing      Unique  Dist
   1 0Int(dB)                   Num   0%   9%  91%     0 /  0%     4 /  0%   779 
   2 0Pitch(Hz)                 Num   0%  52%  48%     0 /  0%   471 /  1%  4016 
   3 0RawPitch                  Num   0%  55%  45%     0 /  0%   550 /  1%  4014 
   4 0SmPitch                   Num   0%  53%  47%     0 /  0%   491 /  1%  3998 
   5 0Melogram(st)              Num   0%  49%  51%     0 /  0%   212 /  0%  3363 
   6 0ZCross                    Num   0% 100%   0%     0 /  0%     6 /  0%    54 
   7 0F1(Hz)                    Num   0%  52%  48%     0 /  0%  1126 /  1%  4776 
   8 0F2(Hz)                    Num   0%  52%  48%     0 /  0%  2304 /  3%  6727 
   9 0F3(Hz)                    Num   0%  52%  48%     0 /  0%  1967 /  2%  6224 
  10 0F4(Hz)                    Num   0%  52%  48%     0 /  0%  1884 /  2%  6074 
  11 1Int(dB)                   Num   0%   9%  91%     0 /  0%     4 /  0%   779 
  12 1Pitch(Hz)                 Num   0%  52%  48%     0 /  0%   471 /  1%  4016 
  13 1RawPitch                  Num   0%  55%  45%     0 /  0%   550 /  1%  4014 
  14 1SmPitch                   Num   0%  53%  47%     0 /  0%   491 /  1%  3998 
  15 1Melogram(st)              Num   0%  49%  51%     0 /  0%   212 /  0%  3363 
  16 1ZCross                    Num   0% 100%   0%     0 /  0%     6 /  0%    54 
  17 1F1(Hz)                    Num   0%  52%  48%     0 /  0%  1126 /  1%  4776 
  18 1F2(Hz)                    Num   0%  52%  48%     0 /  0%  2304 /  3%  6727 
  19 1F3(Hz)                    Num   0%  52%  48%     0 /  0%  1967 /  2%  6224 
  20 1F4(Hz)                    Num   0%  52%  48%     0 /  0%  1884 /  2%  6074 
  21 2Int(dB)                   Num   0%   9%  91%     0 /  0%     5 /  0%   780 
  22 2Pitch(Hz)                 Num   0%  52%  48%     0 /  0%   471 /  1%  4016 
  23 2RawPitch                  Num   0%  55%  45%     0 /  0%   550 /  1%  4014 
  24 2SmPitch                   Num   0%  53%  47%     0 /  0%   491 /  1%  3998 
  25 2Melogram(st)              Num   0%  49%  51%     0 /  0%   212 /  0%  3363 
  26 2ZCross                    Num   0% 100%   0%     0 /  0%     6 /  0%    54 
  27 2F1(Hz)                    Num   0%  52%  48%     0 /  0%  1126 /  1%  4776 
  28 2F2(Hz)                    Num   0%  52%  48%     0 /  0%  2304 /  3%  6727 
  29 2F3(Hz)                    Num   0%  52%  48%     0 /  0%  1967 /  2%  6224 
  30 2F4(Hz)                    Num   0%  52%  48%     0 /  0%  1884 /  2%  6074 
  31 3Int(dB)                   Num   0%   9%  91%     0 /  0%     6 /  0%   781 
  32 3Pitch(Hz)                 Num   0%  52%  48%     0 /  0%   471 /  1%  4016 
  33 3RawPitch                  Num   0%  55%  45%     0 /  0%   550 /  1%  4014 
  34 3SmPitch                   Num   0%  53%  47%     0 /  0%   491 /  1%  3998 
  35 3Melogram(st)              Num   0%  49%  51%     0 /  0%   212 /  0%  3363 
  36 3ZCross                    Num   0% 100%   0%     0 /  0%     6 /  0%    54 
  37 3F1(Hz)                    Num   0%  52%  48%     0 /  0%  1126 /  1%  4776 
  38 3F2(Hz)                    Num   0%  52%  48%     0 /  0%  2304 /  3%  6727 
  39 3F3(Hz)                    Num   0%  52%  48%     0 /  0%  1967 /  2%  6224 
  40 3F4(Hz)                    Num   0%  52%  48%     0 /  0%  1884 /  2%  6074 
  41 class                      Nom 100%   0%   0%     0 /  0%     0 /  0%    10 


Naive Bayes Classifier

                    Class
Attribute               C         E        FV        AI CDGKNRSYZ         O         0        LT         U       MBP
                   (0.01)    (0.08)    (0.01)     (0.2)    (0.16)    (0.07)    (0.39)    (0.04)    (0.02)    (0.03)
====================================================================================================================
0Int(dB)
  mean             -7.6259   -5.2725  -14.9878   -5.1645  -16.0047    -8.154  -48.1014  -17.9101    -5.542   -12.821
  std. dev.         7.9979    8.2012    9.0002    9.6091   10.0427   12.1079   16.4153   12.2474    8.2546   10.9576
  weight sum           544      6910      1286     17894     14272      6646     35830      3323      2080      2915
  precision          0.104     0.104     0.104     0.104     0.104     0.104     0.104     0.104     0.104     0.104

0Pitch(Hz)
  mean            212.1539  188.7056   132.578  206.5758  118.4113   179.115   17.4128  115.8623   227.888  158.5726
  std. dev.       100.1128   88.8894  107.6288   104.524  114.3951  105.6864    57.392  104.5548   87.0635  112.1031
  weight sum           544      6910      1286     17894     14272      6646     35830      3323      2080      2915
  precision         0.1242    0.1242    0.1242    0.1242    0.1242    0.1242    0.1242    0.1242    0.1242    0.1242

0RawPitch
  mean            200.8431  184.6007  107.2731  196.5302  101.6175  173.0518   14.2988   95.5734  218.9774  146.0307
  std. dev.       111.8798   95.7338  104.2544  110.7799   114.919  113.1417   51.8247  102.2679   95.0579  117.1223
  weight sum           544      6910      1286     17894     14272      6646     35830      3323      2080      2915
  precision         0.1243    0.1243    0.1243    0.1243    0.1243    0.1243    0.1243    0.1243    0.1243    0.1243

0SmPitch
  mean            210.4263  187.0281  122.2039  204.4052  112.2643  176.9741   15.7543  109.5203  227.3868  154.4121
  std. dev.        102.116   90.2619   104.892  106.3152   114.789  107.8927   53.6098  104.2605   87.2185  114.4599
  weight sum           544      6910      1286     17894     14272      6646     35830      3323      2080      2915
  precision         0.1248    0.1248    0.1248    0.1248    0.1248    0.1248    0.1248    0.1248    0.1248    0.1248

0Melogram(st)
  mean             51.2937   50.1378   37.3403   50.6014   30.7198   46.5873     5.111   32.3144   53.4674   41.2076
  std. dev.        17.5216    15.863   24.8755   17.1118   27.4161   20.5055   15.8762   26.5325   15.3794    24.495
  weight sum           544      6910      1286     17894     14272      6646     35830      3323      2080      2915
  precision         0.0246    0.0246    0.0246    0.0246    0.0246    0.0246    0.0246    0.0246    0.0246    0.0246

0ZCross
  mean              4.6301    5.2821    2.0824    6.4478    3.2862    4.4284    0.2716     1.926    4.0615     2.462
  std. dev.         2.8257    3.2153    2.2428    4.5654    5.2116    3.0869    1.1738    2.2597    2.9528    2.2685
  weight sum           544      6910      1286     17894     14272      6646     35830      3323      2080      2915
  precision         1.0755    1.0755    1.0755    1.0755    1.0755    1.0755    1.0755    1.0755    1.0755    1.0755

0F1(Hz)
  mean            496.0244  458.0799  393.0414  610.1322  332.0884  478.8171   56.1152  286.8025  491.0591  372.9024
  std. dev.       192.8271   153.926  278.0738  286.6176  283.1534  229.7252    170.12  255.1247  315.0618  238.8814
  weight sum           544      6910      1286     17894     14272      6646     35830      3323      2080      2915
  precision         0.3648    0.3648    0.3648    0.3648    0.3648    0.3648    0.3648    0.3648    0.3648    0.3648

0F2(Hz)
  mean           1696.1477 1757.7095 1181.0302 1531.7794 1036.0769 1136.7974  175.3222  999.8736 1034.0495  1310.527
  std. dev.       586.4555  560.9633  771.3771  563.5521  844.0038  547.7396  525.6561   845.688  450.6215  755.0799
  weight sum           544      6910      1286     17894     14272      6646     35830      3323      2080      2915
  precision         0.4429    0.4429    0.4429    0.4429    0.4429    0.4429    0.4429    0.4429    0.4429    0.4429

0F3(Hz)
  mean           2904.8205 2586.6864   2017.54 2629.2556  1793.172 2478.8191  299.2665 1707.2167 2621.0935 2205.0132
  std. dev.       922.2259  831.7891  1304.859  869.5455  1429.626 1044.4223  881.7239 1436.3414  864.0366 1213.1591
  weight sum           544      6910      1286     17894     14272      6646     35830      3323      2080      2915
  precision          0.662     0.662     0.662     0.662     0.662     0.662     0.662     0.662     0.662     0.662

0F4(Hz)
  mean           2937.2998 3119.9567 2408.5536 3067.6202 2067.4648 2854.0576  359.4005 1965.6822 3004.6925 2639.3069
  std. dev.       933.7861  971.1133 1523.4941   996.395 1639.9966 1186.1932 1056.6559 1641.2288  906.3874 1421.0299
  weight sum           544      6910      1286     17894     14272      6646     35830      3323      2080      2915
  precision         0.6829    0.6829    0.6829    0.6829    0.6829    0.6829    0.6829    0.6829    0.6829    0.6829

1Int(dB)
  mean             -7.6694    -5.205  -15.0221   -5.1334  -16.0248   -8.1324    -48.18  -17.5625   -5.3672  -12.6603
  std. dev.         8.0179    8.1176    8.9257    9.5642    9.9492   12.1307   16.3016   12.1106     8.007   10.8312
  weight sum           544      6910      1286     17894     14272      6646     35830      3323      2080      2915
  precision          0.104     0.104     0.104     0.104     0.104     0.104     0.104     0.104     0.104     0.104

1Pitch(Hz)
  mean             211.995  189.4672   131.712  206.7995  118.0243  178.9677   17.0614  118.2298  228.8154  158.9952
  std. dev.        100.683   88.3909  107.4401  104.3297  114.5276  105.4237   56.8538  104.4865   85.6072   111.641
  weight sum           544      6910      1286     17894     14272      6646     35830      3323      2080      2915
  precision         0.1242    0.1242    0.1242    0.1242    0.1242    0.1242    0.1242    0.1242    0.1242    0.1242

1RawPitch
  mean            201.0682  185.2835  106.7449  196.8722  101.0569  173.0225   13.9623   97.4909  219.9054  146.6041
  std. dev.       112.0453   95.4466  103.7582  110.5304  114.9215  112.8916   51.2547  102.3974   93.8544  116.7477
  weight sum           544      6910      1286     17894     14272      6646     35830      3323      2080      2915
  precision         0.1243    0.1243    0.1243    0.1243    0.1243    0.1243    0.1243    0.1243    0.1243    0.1243

1SmPitch
  mean            210.2676  187.8876  121.4041  204.6932  111.7643  176.8295   15.4232  111.8381  228.2489  154.5794
  std. dev.       102.6729   89.6855  104.6191  106.0752  114.8566  107.6308   53.0677   104.422   85.8949  114.1868
  weight sum           544      6910      1286     17894     14272      6646     35830      3323      2080      2915
  precision         0.1248    0.1248    0.1248    0.1248    0.1248    0.1248    0.1248    0.1248    0.1248    0.1248

1Melogram(st)
  mean             51.2077    50.296   37.1801   50.6855   30.5863   46.5862    5.0217   32.8737   53.7993   41.2827
  std. dev.        17.6638   15.6299   24.9375   16.9813   27.4479   20.4797   15.7547   26.4447     14.79   24.4294
  weight sum           544      6910      1286     17894     14272      6646     35830      3323      2080      2915
  precision         0.0246    0.0246    0.0246    0.0246    0.0246    0.0246    0.0246    0.0246    0.0246    0.0246

1ZCross
  mean              4.6123    5.2767     2.069    6.4522    3.2898    4.4336    0.2613    1.9733    4.0842    2.4852
  std. dev.         2.8138     3.209    2.2383    4.5586    5.2302    3.0623    1.1465    2.2591    2.9396    2.2611
  weight sum           544      6910      1286     17894     14272      6646     35830      3323      2080      2915
  precision         1.0755    1.0755    1.0755    1.0755    1.0755    1.0755    1.0755    1.0755    1.0755    1.0755

1F1(Hz)
  mean            494.7364  461.0472  388.0168  613.8057  327.7141  481.7752   54.9845  286.4316  494.6223  372.2266
  std. dev.       193.2131  149.9473   278.164  284.0057  282.7884  227.7162  168.4345  254.1744   311.451  238.0257
  weight sum           544      6910      1286     17894     14272      6646     35830      3323      2080      2915
  precision         0.3648    0.3648    0.3648    0.3648    0.3648    0.3648    0.3648    0.3648    0.3648    0.3648

1F2(Hz)
  mean            1690.892 1772.0574 1173.9193 1540.4909  1024.713 1139.4043  171.9905 1001.2959 1043.9884 1309.0897
  std. dev.       591.0274  544.5249  775.1169  555.4692  844.9896  541.1664  521.2421  845.1342  438.5623  752.5784
  weight sum           544      6910      1286     17894     14272      6646     35830      3323      2080      2915
  precision         0.4429    0.4429    0.4429    0.4429    0.4429    0.4429    0.4429    0.4429    0.4429    0.4429

1F3(Hz)
  mean           2898.5203 2603.6899 2003.0171 2642.5727  1774.709 2490.7242  293.4349 1709.9132 2648.1475 2203.0948
  std. dev.       930.4514  809.0505 1310.3914  852.5156 1433.0289 1033.2776  874.0581 1436.8723  826.0863 1210.0929
  weight sum           544      6910      1286     17894     14272      6646     35830      3323      2080      2915
  precision          0.662     0.662     0.662     0.662     0.662     0.662     0.662     0.662     0.662     0.662

1F4(Hz)
  mean           2933.6281 3139.0513 2393.9651 3082.1892 2047.0695 2866.8671  352.5503 1968.7046 3035.0863 2641.4508
  std. dev.       943.1766  942.3082 1531.3561  975.9977 1644.9737 1172.3377 1047.8566 1641.7274  857.2082 1419.3848
  weight sum           544      6910      1286     17894     14272      6646     35830      3323      2080      2915
  precision         0.6829    0.6829    0.6829    0.6829    0.6829    0.6829    0.6829    0.6829    0.6829    0.6829

2Int(dB)
  mean              -7.701   -5.1801  -15.0289   -5.1283  -16.0193    -8.146  -48.2528  -17.1505   -5.2139  -12.4737
  std. dev.         8.0193     8.069    8.8787    9.5456    9.8812   12.1698   16.2026   11.9928    7.7793   10.7103
  weight sum           544      6910      1286     17894     14272      6646     35830      3323      2080      2915
  precision         0.1039    0.1039    0.1039    0.1039    0.1039    0.1039    0.1039    0.1039    0.1039    0.1039

2Pitch(Hz)
  mean            211.8361  190.0868  131.0502  206.8971  117.9163  178.5997   16.6931  121.0387  229.3808  159.5378
  std. dev.       101.2436   87.9634  107.2576  104.2392  114.6833   105.265   56.2811   104.384    84.526  111.1102
  weight sum           544      6910      1286     17894     14272      6646     35830      3323      2080      2915
  precision         0.1242    0.1242    0.1242    0.1242    0.1242    0.1242    0.1242    0.1242    0.1242    0.1242

2RawPitch
  mean            201.2902  185.5725  106.2993  197.1164  100.6203  172.7286   13.6791  100.0316  220.4839   147.555
  std. dev.       112.1972   95.2181  103.3674  110.4139   114.894  112.6688   50.8138  102.8507   93.0053  116.3293
  weight sum           544      6910      1286     17894     14272      6646     35830      3323      2080      2915
  precision         0.1243    0.1243    0.1243    0.1243    0.1243    0.1243    0.1243    0.1243    0.1243    0.1243

2SmPitch
  mean            210.1091  188.5362  120.8089  204.8243  111.5386  176.5062   15.0755  114.7186  228.8712  154.9178
  std. dev.       103.2196   89.2414  104.3726  105.9523  114.9713  107.4391   52.4903  104.5691   84.8121  113.8128
  weight sum           544      6910      1286     17894     14272      6646     35830      3323      2080      2915
  precision         0.1248    0.1248    0.1248    0.1248    0.1248    0.1248    0.1248    0.1248    0.1248    0.1248

2Melogram(st)
  mean             51.1216   50.4037   37.0227   50.7432   30.4977   46.5516    4.9296    33.518   54.0704    41.476
  std. dev.        17.8042   15.4597   25.0004   16.8821   27.4773    20.484   15.6284   26.3288   14.2652   24.3018
  weight sum           544      6910      1286     17894     14272      6646     35830      3323      2080      2915
  precision         0.0246    0.0246    0.0246    0.0246    0.0246    0.0246    0.0246    0.0246    0.0246    0.0246

2ZCross
  mean              4.6044    5.2659    2.0682    6.4504    3.2941    4.4315    0.2535    2.0383    4.0992     2.518
  std. dev.         2.8002    3.2124    2.2445    4.5579    5.2362    3.0586    1.1335    2.2617    2.9273    2.2548
  weight sum           544      6910      1286     17894     14272      6646     35830      3323      2080      2915
  precision         1.0755    1.0755    1.0755    1.0755    1.0755    1.0755    1.0755    1.0755    1.0755    1.0755

2F1(Hz)
  mean            493.6582   463.877  383.2741  617.0533   323.795  484.2054   53.8391  287.5932  498.0573  371.8273
  std. dev.       193.7355   146.053  277.9272  281.7646   282.255  226.2125  166.7264  253.2136   307.944   237.112
  weight sum           544      6910      1286     17894     14272      6646     35830      3323      2080      2915
  precision         0.3648    0.3648    0.3648    0.3648    0.3648    0.3648    0.3648    0.3648    0.3648    0.3648

2F2(Hz)
  mean            1685.462  1785.616 1168.3225 1547.9285 1014.9729 1140.4987  168.5717 1007.4428  1053.554 1308.1584
  std. dev.       595.4503  528.1297  778.4294   548.487  845.6566  535.6978  516.6505     843.9  426.6176   749.768
  weight sum           544      6910      1286     17894     14272      6646     35830      3323      2080      2915
  precision         0.4429    0.4429    0.4429    0.4429    0.4429    0.4429    0.4429    0.4429    0.4429    0.4429

2F3(Hz)
  mean           2892.2992 2619.8245 1990.5358 2654.0247 1758.7329  2499.568  287.4349  1720.578  2673.852 2202.5227
  std. dev.       938.5627  786.5019 1314.6764  837.7135 1435.5612 1024.8703  866.0332 1436.1989  787.5699 1206.5921
  weight sum           544      6910      1286     17894     14272      6646     35830      3323      2080      2915
  precision          0.662     0.662     0.662     0.662     0.662     0.662     0.662     0.662     0.662     0.662

2F4(Hz)
  mean            2929.841 3157.1809 2382.1202 3094.5574 2029.7682 2876.1426  345.5055 1980.6994  3063.919 2644.3886
  std. dev.       952.5181  913.7543 1537.9929  958.2561 1649.1032 1161.7476 1038.6648 1640.5917  806.6532 1416.7903
  weight sum           544      6910      1286     17894     14272      6646     35830      3323      2080      2915
  precision         0.6829    0.6829    0.6829    0.6829    0.6829    0.6829    0.6829    0.6829    0.6829    0.6829

3Int(dB)
  mean              -7.722    -5.199  -15.0003   -5.1495  -15.9854   -8.1936  -48.3071  -16.6795   -5.0927  -12.2641
  std. dev.         8.0048    8.0531    8.8607    9.5526    9.8409   12.2208   16.1119   11.8938    7.5769   10.5968
  weight sum           544      6910      1286     17894     14272      6646     35830      3323      2080      2915
  precision         0.1037    0.1037    0.1037    0.1037    0.1037    0.1037    0.1037    0.1037    0.1037    0.1037

3Pitch(Hz)
  mean            211.6788  190.3791  130.8258  206.8542  118.0636  178.0537   16.3392  124.0299  229.8416  160.3717
  std. dev.       101.7909   87.7367  107.1381  104.2462  114.8509  105.2226   55.7292  104.2993   83.5753  110.4325
  weight sum           544      6910      1286     17894     14272      6646     35830      3323      2080      2915
  precision         0.1242    0.1242    0.1242    0.1242    0.1242    0.1242    0.1242    0.1242    0.1242    0.1242

3RawPitch
  mean            201.3727   185.837  105.9763  197.1202  100.4456  172.2852   13.3735  103.3888  220.9278  148.5095
  std. dev.       112.4119   95.0002  102.9581  110.4483  114.9131  112.5036   50.3498  103.4883   92.1417  115.8451
  weight sum           544      6910      1286     17894     14272      6646     35830      3323      2080      2915
  precision         0.1243    0.1243    0.1243    0.1243    0.1243    0.1243    0.1243    0.1243    0.1243    0.1243

3SmPitch
  mean            210.3094  188.9642  120.6473  204.8316  111.5176  175.9682   14.7415  117.7377  229.2536  155.6124
  std. dev.       103.3642   88.9263  104.2291  105.9186  115.1141  107.3853   51.9308  104.6743   84.0032  113.2741
  weight sum           544      6910      1286     17894     14272      6646     35830      3323      2080      2915
  precision         0.1248    0.1248    0.1248    0.1248    0.1248    0.1248    0.1248    0.1248    0.1248    0.1248

3Melogram(st)
  mean             51.0353   50.4842   37.0069   50.7681    30.483   46.4749    4.8257   34.2384   54.3072   41.6893
  std. dev.         17.943   15.3213   25.0249   16.8283   27.5007   20.5262   15.4835   26.1713   13.7628   24.1614
  weight sum           544      6910      1286     17894     14272      6646     35830      3323      2080      2915
  precision         0.0246    0.0246    0.0246    0.0246    0.0246    0.0246    0.0246    0.0246    0.0246    0.0246

3ZCross
  mean              4.6044    5.2438    2.0698    6.4418    3.3021    4.4237    0.2484    2.1221    4.1111    2.5583
  std. dev.         2.7858    3.2168    2.2498    4.5637    5.2362    3.0692    1.1311    2.2739    2.9164    2.2519
  weight sum           544      6910      1286     17894     14272      6646     35830      3323      2080      2915
  precision         1.0755    1.0755    1.0755    1.0755    1.0755    1.0755    1.0755    1.0755    1.0755    1.0755

3F1(Hz)
  mean            493.4169  466.4894  378.5922  619.8036  320.2273  486.2046   52.7357  290.5839  500.6341   372.086
  std. dev.       193.2624  142.2388  277.5826  279.9888  281.5947  225.0865  165.1041   252.194  305.2064  236.0116
  weight sum           544      6910      1286     17894     14272      6646     35830      3323      2080      2915
  precision         0.3648    0.3648    0.3648    0.3648    0.3648    0.3648    0.3648    0.3648    0.3648    0.3648

3F2(Hz)
  mean           1683.3446 1798.4442 1163.3139 1553.8822  1006.274 1140.7371   165.125 1019.3641 1061.2779 1309.1173
  std. dev.       595.5085  511.8666   782.141  542.8849  846.0934  531.1147  511.8774   841.803  416.4942    746.06
  weight sum           544      6910      1286     17894     14272      6646     35830      3323      2080      2915
  precision         0.4429    0.4429    0.4429    0.4429    0.4429    0.4429    0.4429    0.4429    0.4429    0.4429

3F3(Hz)
  mean           2891.9207 2634.9785 1978.2255 2663.3296 1744.4101 2506.4348  281.5403 1740.5426 2694.0925 2204.7048
  std. dev.       938.3439  764.1593 1318.9077  825.8325 1437.4155 1018.6433  858.0755 1433.4142  755.1652 1201.2074
  weight sum           544      6910      1286     17894     14272      6646     35830      3323      2080      2915
  precision          0.662     0.662     0.662     0.662     0.662     0.662     0.662     0.662     0.662     0.662

3F4(Hz)
  mean           2931.5846   3174.33 2370.2376 3104.1869 2014.7764 2882.7851   338.536 2004.3629 3086.3027 2650.5175
  std. dev.       953.5669  885.5429 1544.5093  943.9157 1652.7489 1153.5603 1029.4246 1637.7366   763.546 1411.8243
  weight sum           544      6910      1286     17894     14272      6646     35830      3323      2080      2915
  precision         0.6829    0.6829    0.6829    0.6829    0.6829    0.6829    0.6829    0.6829    0.6829    0.6829





=== Stratified cross-validation ===

Correctly Classified Instances       46424               50.626  %
Incorrectly Classified Instances     45276               49.374  %
Kappa statistic                          0.369 
K&B Relative Info Score            3269855.2465 %
K&B Information Score                83344.9091 bits      0.9089 bits/instance
Class complexity | order 0          233713.0492 bits      2.5487 bits/instance
Class complexity | scheme          2061369.2687 bits     22.4795 bits/instance
Complexity improvement     (Sf)    -1827656.2195 bits    -19.9308 bits/instance
Mean absolute error                      0.0986
Root mean squared error                  0.2939
Relative absolute error                 63.9127 %
Root relative squared error            105.8604 %
Coverage of cases (0.95 level)          58.3391 %
Mean rel. region size (0.95 level)      14.8025 %
Total Number of Instances            91700     


=== Detailed Accuracy By Class ===

                 TP Rate  FP Rate  Precision  Recall   F-Measure  MCC      ROC Area  PRC Area  Class
                 0,143    0,013    0,061      0,143    0,086      0,085    0,770     0,025     C
                 0,743    0,248    0,197      0,743    0,311      0,290    0,836     0,289     E
                 0,084    0,035    0,033      0,084    0,047      0,031    0,730     0,030     FV
                 0,332    0,033    0,710      0,332    0,453      0,412    0,847     0,600     AI
                 0,105    0,009    0,684      0,105    0,183      0,228    0,733     0,369     CDGKNRSYZ
                 0,033    0,006    0,299      0,033    0,060      0,079    0,766     0,174     O
                 0,893    0,144    0,799      0,893    0,844      0,737    0,908     0,817     0
                 0,080    0,021    0,126      0,080    0,098      0,074    0,716     0,078     LT
                 0,539    0,064    0,163      0,539    0,251      0,269    0,872     0,358     U
                 0,015    0,007    0,063      0,015    0,024      0,016    0,723     0,059     MBP
Weighted Avg.    0,506    0,086    0,605      0,506    0,485      0,442    0,836     0,541     


=== Confusion Matrix ===

     a     b     c     d     e     f     g     h     i     j   <-- classified as
    78   306    14    30     6     0    34     5    71     0 |     a = C
   322  5136   158   499    82    12   277   167   184    73 |     b = E
    10   594   108    84    41    18   319    44    58    10 |     c = FV
   187  7360   573  5944   228   136   965   338  2049   114 |     d = AI
   413  4568  1018   736  1503   158  4062   538  1070   206 |     e = CDGKNRSYZ
    52  2977   377   491    81   220   718   139  1553    38 |     f = O
    60  1807   642   245   134   126 32002   392   310   112 |     g = 0
    59  1398   163    74    74    23  1068   267   120    77 |     h = LT
    18   552    58   139     6    25    43    96  1122    21 |     i = U
    81  1437   161   129    41    17   543   130   332    44 |     j = MBP

=== Percent Confusion Matrix ===
a	b	c	d	e	f	g	h	i	j	
14.34	56.25	2.57	5.51	1.1	0.0	6.25	0.92	13.05	0.0	 a = C
4.66	74.33	2.29	7.22	1.19	0.17	4.01	2.42	2.66	1.06	 b = E
0.78	46.19	8.4	6.53	3.19	1.4	24.81	3.42	4.51	0.78	 c = FV
1.05	41.13	3.2	33.22	1.27	0.76	5.39	1.89	11.45	0.64	 d = AI
2.89	32.01	7.13	5.16	10.53	1.11	28.46	3.77	7.5	1.44	 e = CDGKNRSYZ
0.78	44.79	5.67	7.39	1.22	3.31	10.8	2.09	23.37	0.57	 f = O
0.17	5.04	1.79	0.68	0.37	0.35	89.32	1.09	0.87	0.31	 g = 0
1.78	42.07	4.91	2.23	2.23	0.69	32.14	8.03	3.61	2.32	 h = LT
0.87	26.54	2.79	6.68	0.29	1.2	2.07	4.62	53.94	1.01	 i = U
2.78	49.3	5.52	4.43	1.41	0.58	18.63	4.46	11.39	1.51	 j = MBP
