Timestamp:2014-12-07-11:15:18
Inventario:I4
Intervalo:2ms
Ngramas:3
Clasificador:NaiveBayes
Relation Name:  I4-2ms-3gramas
Num Instances:  91701
Num Attributes: 31

     Name                      Type  Nom  Int Real     Missing      Unique  Dist
   1 0Int(dB)                   Num   0%   9%  91%     0 /  0%     4 /  0%   779 
   2 0Pitch(Hz)                 Num   0%  52%  48%     0 /  0%   471 /  1%  4016 
   3 0RawPitch                  Num   0%  55%  45%     0 /  0%   550 /  1%  4014 
   4 0SmPitch                   Num   0%  53%  47%     0 /  0%   491 /  1%  3998 
   5 0Melogram(st)              Num   0%  49%  51%     0 /  0%   212 /  0%  3363 
   6 0ZCross                    Num   0% 100%   0%     0 /  0%     6 /  0%    54 
   7 0F1(Hz)                    Num   0%  52%  48%     0 /  0%  1126 /  1%  4776 
   8 0F2(Hz)                    Num   0%  52%  48%     0 /  0%  2304 /  3%  6727 
   9 0F3(Hz)                    Num   0%  52%  48%     0 /  0%  1967 /  2%  6224 
  10 0F4(Hz)                    Num   0%  52%  48%     0 /  0%  1884 /  2%  6074 
  11 1Int(dB)                   Num   0%   9%  91%     0 /  0%     5 /  0%   780 
  12 1Pitch(Hz)                 Num   0%  52%  48%     0 /  0%   471 /  1%  4016 
  13 1RawPitch                  Num   0%  55%  45%     0 /  0%   550 /  1%  4014 
  14 1SmPitch                   Num   0%  53%  47%     0 /  0%   491 /  1%  3998 
  15 1Melogram(st)              Num   0%  49%  51%     0 /  0%   212 /  0%  3363 
  16 1ZCross                    Num   0% 100%   0%     0 /  0%     6 /  0%    54 
  17 1F1(Hz)                    Num   0%  52%  48%     0 /  0%  1126 /  1%  4776 
  18 1F2(Hz)                    Num   0%  52%  48%     0 /  0%  2304 /  3%  6727 
  19 1F3(Hz)                    Num   0%  52%  48%     0 /  0%  1967 /  2%  6224 
  20 1F4(Hz)                    Num   0%  52%  48%     0 /  0%  1884 /  2%  6074 
  21 2Int(dB)                   Num   0%   9%  91%     0 /  0%     6 /  0%   781 
  22 2Pitch(Hz)                 Num   0%  52%  48%     0 /  0%   471 /  1%  4016 
  23 2RawPitch                  Num   0%  55%  45%     0 /  0%   550 /  1%  4014 
  24 2SmPitch                   Num   0%  53%  47%     0 /  0%   491 /  1%  3998 
  25 2Melogram(st)              Num   0%  49%  51%     0 /  0%   212 /  0%  3363 
  26 2ZCross                    Num   0% 100%   0%     0 /  0%     6 /  0%    54 
  27 2F1(Hz)                    Num   0%  52%  48%     0 /  0%  1126 /  1%  4776 
  28 2F2(Hz)                    Num   0%  52%  48%     0 /  0%  2304 /  3%  6727 
  29 2F3(Hz)                    Num   0%  52%  48%     0 /  0%  1967 /  2%  6224 
  30 2F4(Hz)                    Num   0%  52%  48%     0 /  0%  1884 /  2%  6074 
  31 class                      Nom 100%   0%   0%     0 /  0%     0 /  0%    10 


Naive Bayes Classifier

                    Class
Attribute               C         E        FV        AI CDGKNRSYZ         O         0        LT         U       MBP
                   (0.01)    (0.08)    (0.01)     (0.2)    (0.16)    (0.07)    (0.39)    (0.04)    (0.02)    (0.03)
====================================================================================================================
0Int(dB)
  mean             -7.6694    -5.205  -15.0221   -5.1334  -16.0248   -8.1324  -48.1799  -17.5625   -5.3672  -12.6603
  std. dev.         8.0179    8.1176    8.9257    9.5642    9.9492   12.1307   16.3014   12.1106     8.007   10.8312
  weight sum           544      6910      1286     17894     14272      6646     35831      3323      2080      2915
  precision          0.104     0.104     0.104     0.104     0.104     0.104     0.104     0.104     0.104     0.104

0Pitch(Hz)
  mean             211.995  189.4672   131.712  206.7995  118.0243  178.9677   17.0609  118.2298  228.8154  158.9952
  std. dev.        100.683   88.3909  107.4401  104.3297  114.5276  105.4237    56.853  104.4865   85.6072   111.641
  weight sum           544      6910      1286     17894     14272      6646     35831      3323      2080      2915
  precision         0.1242    0.1242    0.1242    0.1242    0.1242    0.1242    0.1242    0.1242    0.1242    0.1242

0RawPitch
  mean            201.0682  185.2835  106.7449  196.8722  101.0569  173.0225   13.9619   97.4909  219.9054  146.6041
  std. dev.       112.0453   95.4466  103.7582  110.5304  114.9215  112.8916   51.2541  102.3974   93.8544  116.7477
  weight sum           544      6910      1286     17894     14272      6646     35831      3323      2080      2915
  precision         0.1243    0.1243    0.1243    0.1243    0.1243    0.1243    0.1243    0.1243    0.1243    0.1243

0SmPitch
  mean            210.2676  187.8876  121.4041  204.6932  111.7643  176.8295   15.4228  111.8381  228.2489  154.5794
  std. dev.       102.6729   89.6855  104.6191  106.0752  114.8566  107.6308    53.067   104.422   85.8949  114.1868
  weight sum           544      6910      1286     17894     14272      6646     35831      3323      2080      2915
  precision         0.1248    0.1248    0.1248    0.1248    0.1248    0.1248    0.1248    0.1248    0.1248    0.1248

0Melogram(st)
  mean             51.2077    50.296   37.1801   50.6855   30.5863   46.5862    5.0216   32.8737   53.7993   41.2827
  std. dev.        17.6638   15.6299   24.9375   16.9813   27.4479   20.4797   15.7545   26.4447     14.79   24.4294
  weight sum           544      6910      1286     17894     14272      6646     35831      3323      2080      2915
  precision         0.0246    0.0246    0.0246    0.0246    0.0246    0.0246    0.0246    0.0246    0.0246    0.0246

0ZCross
  mean              4.6123    5.2767     2.069    6.4522    3.2898    4.4336    0.2613    1.9733    4.0842    2.4852
  std. dev.         2.8138     3.209    2.2383    4.5586    5.2302    3.0623    1.1465    2.2591    2.9396    2.2611
  weight sum           544      6910      1286     17894     14272      6646     35831      3323      2080      2915
  precision         1.0755    1.0755    1.0755    1.0755    1.0755    1.0755    1.0755    1.0755    1.0755    1.0755

0F1(Hz)
  mean            494.7364  461.0472  388.0168  613.8057  327.7141  481.7752    54.983  286.4316  494.6223  372.2266
  std. dev.       193.2131  149.9473   278.164  284.0057  282.7884  227.7162  168.4324  254.1744   311.451  238.0257
  weight sum           544      6910      1286     17894     14272      6646     35831      3323      2080      2915
  precision         0.3648    0.3648    0.3648    0.3648    0.3648    0.3648    0.3648    0.3648    0.3648    0.3648

0F2(Hz)
  mean            1690.892 1772.0574 1173.9193 1540.4909  1024.713 1139.4043  171.9857 1001.2959 1043.9884 1309.0897
  std. dev.       591.0274  544.5249  775.1169  555.4692  844.9896  541.1664  521.2356  845.1342  438.5623  752.5784
  weight sum           544      6910      1286     17894     14272      6646     35831      3323      2080      2915
  precision         0.4429    0.4429    0.4429    0.4429    0.4429    0.4429    0.4429    0.4429    0.4429    0.4429

0F3(Hz)
  mean           2898.5203 2603.6899 2003.0171 2642.5727  1774.709 2490.7242  293.4267 1709.9132 2648.1475 2203.0948
  std. dev.       930.4514  809.0505 1310.3914  852.5156 1433.0289 1033.2776  874.0473 1436.8723  826.0863 1210.0929
  weight sum           544      6910      1286     17894     14272      6646     35831      3323      2080      2915
  precision          0.662     0.662     0.662     0.662     0.662     0.662     0.662     0.662     0.662     0.662

0F4(Hz)
  mean           2933.6281 3139.0513 2393.9651 3082.1892 2047.0695 2866.8671  352.5404 1968.7046 3035.0863 2641.4508
  std. dev.       943.1766  942.3082 1531.3561  975.9977 1644.9737 1172.3377 1047.8436 1641.7274  857.2082 1419.3848
  weight sum           544      6910      1286     17894     14272      6646     35831      3323      2080      2915
  precision         0.6829    0.6829    0.6829    0.6829    0.6829    0.6829    0.6829    0.6829    0.6829    0.6829

1Int(dB)
  mean              -7.701   -5.1801  -15.0289   -5.1283  -16.0193    -8.146  -48.2527  -17.1505   -5.2139  -12.4737
  std. dev.         8.0193     8.069    8.8787    9.5456    9.8812   12.1698   16.2023   11.9928    7.7793   10.7103
  weight sum           544      6910      1286     17894     14272      6646     35831      3323      2080      2915
  precision         0.1039    0.1039    0.1039    0.1039    0.1039    0.1039    0.1039    0.1039    0.1039    0.1039

1Pitch(Hz)
  mean            211.8361  190.0868  131.0502  206.8971  117.9163  178.5997   16.6926  121.0387  229.3808  159.5378
  std. dev.       101.2436   87.9634  107.2576  104.2392  114.6833   105.265   56.2804   104.384    84.526  111.1102
  weight sum           544      6910      1286     17894     14272      6646     35831      3323      2080      2915
  precision         0.1242    0.1242    0.1242    0.1242    0.1242    0.1242    0.1242    0.1242    0.1242    0.1242

1RawPitch
  mean            201.2902  185.5725  106.2993  197.1164  100.6203  172.7286   13.6787  100.0316  220.4839   147.555
  std. dev.       112.1972   95.2181  103.3674  110.4139   114.894  112.6688   50.8131  102.8507   93.0053  116.3293
  weight sum           544      6910      1286     17894     14272      6646     35831      3323      2080      2915
  precision         0.1243    0.1243    0.1243    0.1243    0.1243    0.1243    0.1243    0.1243    0.1243    0.1243

1SmPitch
  mean            210.1091  188.5362  120.8089  204.8243  111.5386  176.5062   15.0751  114.7186  228.8712  154.9178
  std. dev.       103.2196   89.2414  104.3726  105.9523  114.9713  107.4391   52.4896  104.5691   84.8121  113.8128
  weight sum           544      6910      1286     17894     14272      6646     35831      3323      2080      2915
  precision         0.1248    0.1248    0.1248    0.1248    0.1248    0.1248    0.1248    0.1248    0.1248    0.1248

1Melogram(st)
  mean             51.1216   50.4037   37.0227   50.7432   30.4977   46.5516    4.9295    33.518   54.0704    41.476
  std. dev.        17.8042   15.4597   25.0004   16.8821   27.4773    20.484   15.6282   26.3288   14.2652   24.3018
  weight sum           544      6910      1286     17894     14272      6646     35831      3323      2080      2915
  precision         0.0246    0.0246    0.0246    0.0246    0.0246    0.0246    0.0246    0.0246    0.0246    0.0246

1ZCross
  mean              4.6044    5.2659    2.0682    6.4504    3.2941    4.4315    0.2535    2.0383    4.0992     2.518
  std. dev.         2.8002    3.2124    2.2445    4.5579    5.2362    3.0586    1.1335    2.2617    2.9273    2.2548
  weight sum           544      6910      1286     17894     14272      6646     35831      3323      2080      2915
  precision         1.0755    1.0755    1.0755    1.0755    1.0755    1.0755    1.0755    1.0755    1.0755    1.0755

1F1(Hz)
  mean            493.6582   463.877  383.2741  617.0533   323.795  484.2054   53.8376  287.5932  498.0573  371.8273
  std. dev.       193.7355   146.053  277.9272  281.7646   282.255  226.2125  166.7243  253.2136   307.944   237.112
  weight sum           544      6910      1286     17894     14272      6646     35831      3323      2080      2915
  precision         0.3648    0.3648    0.3648    0.3648    0.3648    0.3648    0.3648    0.3648    0.3648    0.3648

1F2(Hz)
  mean            1685.462  1785.616 1168.3225 1547.9285 1014.9729 1140.4987   168.567 1007.4428  1053.554 1308.1584
  std. dev.       595.4503  528.1297  778.4294   548.487  845.6566  535.6978   516.644     843.9  426.6176   749.768
  weight sum           544      6910      1286     17894     14272      6646     35831      3323      2080      2915
  precision         0.4429    0.4429    0.4429    0.4429    0.4429    0.4429    0.4429    0.4429    0.4429    0.4429

1F3(Hz)
  mean           2892.2992 2619.8245 1990.5358 2654.0247 1758.7329  2499.568  287.4269  1720.578  2673.852 2202.5227
  std. dev.       938.5627  786.5019 1314.6764  837.7135 1435.5612 1024.8703  866.0225 1436.1989  787.5699 1206.5921
  weight sum           544      6910      1286     17894     14272      6646     35831      3323      2080      2915
  precision          0.662     0.662     0.662     0.662     0.662     0.662     0.662     0.662     0.662     0.662

1F4(Hz)
  mean            2929.841 3157.1809 2382.1202 3094.5574 2029.7682 2876.1426  345.4959 1980.6994  3063.919 2644.3886
  std. dev.       952.5181  913.7543 1537.9929  958.2561 1649.1032 1161.7476 1038.6519 1640.5917  806.6532 1416.7903
  weight sum           544      6910      1286     17894     14272      6646     35831      3323      2080      2915
  precision         0.6829    0.6829    0.6829    0.6829    0.6829    0.6829    0.6829    0.6829    0.6829    0.6829

2Int(dB)
  mean              -7.722    -5.199  -15.0003   -5.1495  -15.9854   -8.1936   -48.307  -16.6795   -5.0927  -12.2641
  std. dev.         8.0048    8.0531    8.8607    9.5526    9.8409   12.2208   16.1116   11.8938    7.5769   10.5968
  weight sum           544      6910      1286     17894     14272      6646     35831      3323      2080      2915
  precision         0.1037    0.1037    0.1037    0.1037    0.1037    0.1037    0.1037    0.1037    0.1037    0.1037

2Pitch(Hz)
  mean            211.6788  190.3791  130.8258  206.8542  118.0636  178.0537   16.3387  124.0299  229.8416  160.3717
  std. dev.       101.7909   87.7367  107.1381  104.2462  114.8509  105.2226   55.7285  104.2993   83.5753  110.4325
  weight sum           544      6910      1286     17894     14272      6646     35831      3323      2080      2915
  precision         0.1242    0.1242    0.1242    0.1242    0.1242    0.1242    0.1242    0.1242    0.1242    0.1242

2RawPitch
  mean            201.3727   185.837  105.9763  197.1202  100.4456  172.2852   13.3731  103.3888  220.9278  148.5095
  std. dev.       112.4119   95.0002  102.9581  110.4483  114.9131  112.5036   50.3492  103.4883   92.1417  115.8451
  weight sum           544      6910      1286     17894     14272      6646     35831      3323      2080      2915
  precision         0.1243    0.1243    0.1243    0.1243    0.1243    0.1243    0.1243    0.1243    0.1243    0.1243

2SmPitch
  mean            210.3094  188.9642  120.6473  204.8316  111.5176  175.9682   14.7411  117.7377  229.2536  155.6124
  std. dev.       103.3642   88.9263  104.2291  105.9186  115.1141  107.3853   51.9302  104.6743   84.0032  113.2741
  weight sum           544      6910      1286     17894     14272      6646     35831      3323      2080      2915
  precision         0.1248    0.1248    0.1248    0.1248    0.1248    0.1248    0.1248    0.1248    0.1248    0.1248

2Melogram(st)
  mean             51.0353   50.4842   37.0069   50.7681    30.483   46.4749    4.8255   34.2384   54.3072   41.6893
  std. dev.         17.943   15.3213   25.0249   16.8283   27.5007   20.5262   15.4833   26.1713   13.7628   24.1614
  weight sum           544      6910      1286     17894     14272      6646     35831      3323      2080      2915
  precision         0.0246    0.0246    0.0246    0.0246    0.0246    0.0246    0.0246    0.0246    0.0246    0.0246

2ZCross
  mean              4.6044    5.2438    2.0698    6.4418    3.3021    4.4237    0.2484    2.1221    4.1111    2.5583
  std. dev.         2.7858    3.2168    2.2498    4.5637    5.2362    3.0692    1.1311    2.2739    2.9164    2.2519
  weight sum           544      6910      1286     17894     14272      6646     35831      3323      2080      2915
  precision         1.0755    1.0755    1.0755    1.0755    1.0755    1.0755    1.0755    1.0755    1.0755    1.0755

2F1(Hz)
  mean            493.4169  466.4894  378.5922  619.8036  320.2273  486.2046   52.7343  290.5839  500.6341   372.086
  std. dev.       193.2624  142.2388  277.5826  279.9888  281.5947  225.0865   165.102   252.194  305.2064  236.0116
  weight sum           544      6910      1286     17894     14272      6646     35831      3323      2080      2915
  precision         0.3648    0.3648    0.3648    0.3648    0.3648    0.3648    0.3648    0.3648    0.3648    0.3648

2F2(Hz)
  mean           1683.3446 1798.4442 1163.3139 1553.8822  1006.274 1140.7371  165.1204 1019.3641 1061.2779 1309.1173
  std. dev.       595.5085  511.8666   782.141  542.8849  846.0934  531.1147   511.871   841.803  416.4942    746.06
  weight sum           544      6910      1286     17894     14272      6646     35831      3323      2080      2915
  precision         0.4429    0.4429    0.4429    0.4429    0.4429    0.4429    0.4429    0.4429    0.4429    0.4429

2F3(Hz)
  mean           2891.9207 2634.9785 1978.2255 2663.3296 1744.4101 2506.4348  281.5324 1740.5426 2694.0925 2204.7048
  std. dev.       938.3439  764.1593 1318.9077  825.8325 1437.4155 1018.6433  858.0649 1433.4142  755.1652 1201.2074
  weight sum           544      6910      1286     17894     14272      6646     35831      3323      2080      2915
  precision          0.662     0.662     0.662     0.662     0.662     0.662     0.662     0.662     0.662     0.662

2F4(Hz)
  mean           2931.5846   3174.33 2370.2376 3104.1869 2014.7764 2882.7851  338.5265 2004.3629 3086.3027 2650.5175
  std. dev.       953.5669  885.5429 1544.5093  943.9157 1652.7489 1153.5603 1029.4118 1637.7366   763.546 1411.8243
  weight sum           544      6910      1286     17894     14272      6646     35831      3323      2080      2915
  precision         0.6829    0.6829    0.6829    0.6829    0.6829    0.6829    0.6829    0.6829    0.6829    0.6829





=== Stratified cross-validation ===

Correctly Classified Instances       47113               51.3768 %
Incorrectly Classified Instances     44588               48.6232 %
Kappa statistic                          0.3758
K&B Relative Info Score            3365415.7185 %
K&B Information Score                85779.7784 bits      0.9354 bits/instance
Class complexity | order 0          233714.4049 bits      2.5487 bits/instance
Class complexity | scheme          1568296.0619 bits     17.1023 bits/instance
Complexity improvement     (Sf)    -1334581.6569 bits    -14.5536 bits/instance
Mean absolute error                      0.0974
Root mean squared error                  0.2866
Relative absolute error                 63.1841 %
Root relative squared error            103.2282 %
Coverage of cases (0.95 level)          61.5653 %
Mean rel. region size (0.95 level)      16.4635 %
Total Number of Instances            91701     


=== Detailed Accuracy By Class ===

                 TP Rate  FP Rate  Precision  Recall   F-Measure  MCC      ROC Area  PRC Area  Class
                 0,072    0,007    0,061      0,072    0,066      0,060    0,768     0,026     C
                 0,755    0,253    0,196      0,755    0,311      0,292    0,838     0,276     E
                 0,065    0,027    0,033      0,065    0,044      0,027    0,729     0,030     FV
                 0,358    0,039    0,690      0,358    0,471      0,419    0,847     0,598     AI
                 0,119    0,015    0,590      0,119    0,198      0,216    0,732     0,367     CDGKNRSYZ
                 0,035    0,007    0,296      0,035    0,063      0,080    0,768     0,177     O
                 0,894    0,144    0,799      0,894    0,844      0,738    0,946     0,927     0
                 0,067    0,016    0,133      0,067    0,089      0,070    0,715     0,078     LT
                 0,534    0,059    0,174      0,534    0,262      0,278    0,874     0,358     U
                 0,017    0,007    0,073      0,017    0,028      0,021    0,724     0,059     MBP
Weighted Avg.    0,514    0,089    0,587      0,514    0,492      0,442    0,851     0,583     


=== Confusion Matrix ===

     a     b     c     d     e     f     g     h     i     j   <-- classified as
    39   327     7    55    10     0    35     3    67     1 |     a = C
   180  5216   136   594   117    15   278   128   172    74 |     b = E
     2   607    84    93    53    25   321    42    53     6 |     c = FV
    78  7387   464  6405   318   120   964   266  1787   105 |     d = AI
   240  4742   790   849  1702   180  4118   443   994   214 |     e = CDGKNRSYZ
    18  3031   307   561   163   234   723    81  1496    32 |     f = O
    26  1862   494   299   279   136 32049   286   285   115 |     g = 0
    19  1434   124   113   146    31  1053   222   103    78 |     h = LT
     3   570    35   155    15    30    39    98  1111    24 |     i = U
    37  1482   114   162    81    20   542   103   323    51 |     j = MBP

=== Percent Confusion Matrix ===
a	b	c	d	e	f	g	h	i	j	
7.17	60.11	1.29	10.11	1.84	0.0	6.43	0.55	12.32	0.18	 a = C
2.6	75.48	1.97	8.6	1.69	0.22	4.02	1.85	2.49	1.07	 b = E
0.16	47.2	6.53	7.23	4.12	1.94	24.96	3.27	4.12	0.47	 c = FV
0.44	41.28	2.59	35.79	1.78	0.67	5.39	1.49	9.99	0.59	 d = AI
1.68	33.23	5.54	5.95	11.93	1.26	28.85	3.1	6.96	1.5	 e = CDGKNRSYZ
0.27	45.61	4.62	8.44	2.45	3.52	10.88	1.22	22.51	0.48	 f = O
0.07	5.2	1.38	0.83	0.78	0.38	89.44	0.8	0.8	0.32	 g = 0
0.57	43.15	3.73	3.4	4.39	0.93	31.69	6.68	3.1	2.35	 h = LT
0.14	27.4	1.68	7.45	0.72	1.44	1.88	4.71	53.41	1.15	 i = U
1.27	50.84	3.91	5.56	2.78	0.69	18.59	3.53	11.08	1.75	 j = MBP
