Timestamp:2014-12-07-11:19:29
Inventario:I4
Intervalo:20ms
Ngramas:3
Clasificador:NaiveBayes
Relation Name:  I4-20ms-3gramas
Num Instances:  9127
Num Attributes: 31

     Name                      Type  Nom  Int Real     Missing      Unique  Dist
   1 0Int(dB)                   Num   0%  11%  89%     0 /  0%    14 /  0%   764 
   2 0Pitch(Hz)                 Num   0%  49%  51%     0 /  0%  1033 / 11%  2440 
   3 0RawPitch                  Num   0%  52%  48%     0 /  0%  1062 / 12%  2369 
   4 0SmPitch                   Num   0%  50%  50%     0 /  0%  1056 / 12%  2419 
   5 0Melogram(st)              Num   0%  45%  55%     0 /  0%   937 / 10%  2341 
   6 0ZCross                    Num   0% 100%   0%     0 /  0%     7 /  0%    34 
   7 0F1(Hz)                    Num   0%  49%  51%     0 /  0%  2180 / 24%  3398 
   8 0F2(Hz)                    Num   0%  49%  51%     0 /  0%  3463 / 38%  4259 
   9 0F3(Hz)                    Num   0%  49%  51%     0 /  0%  3209 / 35%  4087 
  10 0F4(Hz)                    Num   0%  49%  51%     0 /  0%  3134 / 34%  4027 
  11 1Int(dB)                   Num   0%  11%  89%     0 /  0%    14 /  0%   764 
  12 1Pitch(Hz)                 Num   0%  49%  51%     0 /  0%  1033 / 11%  2440 
  13 1RawPitch                  Num   0%  52%  48%     0 /  0%  1062 / 12%  2369 
  14 1SmPitch                   Num   0%  50%  50%     0 /  0%  1056 / 12%  2419 
  15 1Melogram(st)              Num   0%  45%  55%     0 /  0%   937 / 10%  2341 
  16 1ZCross                    Num   0% 100%   0%     0 /  0%     7 /  0%    34 
  17 1F1(Hz)                    Num   0%  49%  51%     0 /  0%  2180 / 24%  3398 
  18 1F2(Hz)                    Num   0%  49%  51%     0 /  0%  3463 / 38%  4259 
  19 1F3(Hz)                    Num   0%  49%  51%     0 /  0%  3209 / 35%  4087 
  20 1F4(Hz)                    Num   0%  49%  51%     0 /  0%  3134 / 34%  4027 
  21 2Int(dB)                   Num   0%  11%  89%     0 /  0%    14 /  0%   764 
  22 2Pitch(Hz)                 Num   0%  49%  51%     0 /  0%  1033 / 11%  2440 
  23 2RawPitch                  Num   0%  52%  48%     0 /  0%  1062 / 12%  2369 
  24 2SmPitch                   Num   0%  50%  50%     0 /  0%  1056 / 12%  2419 
  25 2Melogram(st)              Num   0%  45%  55%     0 /  0%   938 / 10%  2342 
  26 2ZCross                    Num   0% 100%   0%     0 /  0%     7 /  0%    34 
  27 2F1(Hz)                    Num   0%  49%  51%     0 /  0%  2180 / 24%  3398 
  28 2F2(Hz)                    Num   0%  49%  51%     0 /  0%  3463 / 38%  4259 
  29 2F3(Hz)                    Num   0%  49%  51%     0 /  0%  3209 / 35%  4087 
  30 2F4(Hz)                    Num   0%  49%  51%     0 /  0%  3134 / 34%  4027 
  31 class                      Nom 100%   0%   0%     0 /  0%     0 /  0%    10 


Naive Bayes Classifier

                    Class
Attribute               C         E        FV        AI CDGKNRSYZ         O         0        LT         U       MBP
                   (0.01)    (0.08)    (0.02)    (0.21)    (0.16)    (0.08)    (0.35)    (0.04)    (0.02)    (0.03)
====================================================================================================================
0Int(dB)
  mean             -6.1379   -9.6448  -10.0976   -8.3608  -13.0898  -11.6424  -49.2195  -15.4568  -10.4698  -10.9675
  std. dev.         6.6753   11.2836   11.5475   12.3206   12.3207   13.0523   15.8165   13.1869   12.0458   11.7268
  weight sum            60       746       138      1890      1492       712      3235       337       218       299
  precision         0.1008    0.1008    0.1008    0.1008    0.1008    0.1008    0.1008    0.1008    0.1008    0.1008

0Pitch(Hz)
  mean            221.2274  168.4113  174.9356   190.138  155.7607  164.5924   15.8219   149.252   199.501  181.5295
  std. dev.        82.4547   97.9387   105.317  114.6509  104.1151  113.2428   54.5445  106.8158   120.686  103.9694
  weight sum            60       746       138      1890      1492       712      3235       337       218       299
  precision         0.2034    0.2034    0.2034    0.2034    0.2034    0.2034    0.2034    0.2034    0.2034    0.2034

0RawPitch
  mean            212.0547  160.8464  150.5271  180.3583  142.5267  155.7527   12.9443   136.495  187.6775  174.3366
  std. dev.        91.4838  102.2888  108.0909  116.6238  109.7247  117.0548   48.7937  107.0008   120.986  107.6802
  weight sum            60       746       138      1890      1492       712      3235       337       218       299
  precision         0.2088    0.2088    0.2088    0.2088    0.2088    0.2088    0.2088    0.2088    0.2088    0.2088

0SmPitch
  mean            221.2718  165.6273  164.0951  188.3971  151.2408  162.0426   14.3559  144.1692  195.9784  180.2617
  std. dev.        82.4622  100.1622  102.8422  115.3301  106.5608  114.4287   51.0212   107.799  122.4742  105.3606
  weight sum            60       746       138      1890      1492       712      3235       337       218       299
  precision         0.2051    0.2051    0.2051    0.2051    0.2051    0.2051    0.2051    0.2051    0.2051    0.2051

0Melogram(st)
  mean             53.5545   45.4706   47.4754   46.8105   41.6848   43.3948    4.6646   40.6279   44.4291   47.4768
  std. dev.        13.7587   20.8835   18.4939    21.155   23.4856   23.1016   15.2441   24.0942    24.856   19.8068
  weight sum            60       746       138      1890      1492       712      3235       337       218       299
  precision         0.0353    0.0353    0.0353    0.0353    0.0353    0.0353    0.0353    0.0353    0.0353    0.0353

0ZCross
  mean              5.2394    4.2003    3.7167    5.5104    3.3499    3.4785    0.2553    2.3377    3.4504    3.0435
  std. dev.         2.9309    3.4667    3.2864    5.0123    3.5468    3.6204     1.316    2.4394    3.5108    2.9836
  weight sum            60       746       138      1890      1492       712      3235       337       218       299
  precision         1.2727    1.2727    1.2727    1.2727    1.2727    1.2727    1.2727    1.2727    1.2727    1.2727

0F1(Hz)
  mean            542.8367  408.4223  522.7777  529.4474  463.0709  411.5688   58.2793  407.7017   424.862  443.7803
  std. dev.       156.1744  216.3841  201.8334  323.6171   248.144  260.2244   178.133  248.5201  361.7064  220.7378
  weight sum            60       746       138      1890      1492       712      3235       337       218       299
  precision         0.5127    0.5127    0.5127    0.5127    0.5127    0.5127    0.5127    0.5127    0.5127    0.5127

0F2(Hz)
  mean           1756.0795 1477.3725 1525.1731 1361.4604 1389.7088 1085.7909  173.7338 1324.2072  924.4511 1499.8925
  std. dev.       411.9647  754.7082  570.7008  688.1141   699.115  674.5578  526.4291  747.2516  644.9976  665.9892
  weight sum            60       746       138      1890      1492       712      3235       337       218       299
  precision         0.6985    0.6985    0.6985    0.6985    0.6985    0.6985    0.6985    0.6985    0.6985    0.6985

0F3(Hz)
  mean           3081.6832 2285.1335 2573.9367  2367.033 2391.5917 2224.7554  296.1385 2250.5485 2177.1877 2515.1665
  std. dev.       617.6402 1133.2536  901.2684 1131.0152 1143.6625 1238.7361  874.9536 1218.0091 1282.0773 1019.8055
  weight sum            60       746       138      1890      1492       712      3235       337       218       299
  precision         1.0065    1.0065    1.0065    1.0065    1.0065    1.0065    1.0065    1.0065    1.0065    1.0065

0F4(Hz)
  mean           3039.3822 2766.3747 3029.4131 2763.8503 2763.1071 2567.4184  360.1752 2580.0546 2475.9112 2942.8455
  std. dev.       628.9464 1350.6568 1028.6692 1308.5676 1303.1062 1421.7151 1061.5064 1392.0022 1409.4738 1160.3327
  weight sum            60       746       138      1890      1492       712      3235       337       218       299
  precision         1.0301    1.0301    1.0301    1.0301    1.0301    1.0301    1.0301    1.0301    1.0301    1.0301

1Int(dB)
  mean             -6.5293   -7.2226  -12.3449   -6.7298  -14.6651   -9.7163   -50.137  -17.6873   -8.0296   -12.305
  std. dev.         6.9159    9.4909   10.3558   10.7965   11.4502   12.1824   14.5028   13.1794    9.9998   11.5328
  weight sum            60       746       138      1890      1492       712      3235       337       218       299
  precision         0.1008    0.1008    0.1008    0.1008    0.1008    0.1008    0.1008    0.1008    0.1008    0.1008

1Pitch(Hz)
  mean            221.7155   183.146  161.6772  201.4316  140.3163  177.1418   12.2305   127.298  221.0527  174.4724
  std. dev.         84.984   90.4096  107.4647  106.1983  109.7625  106.6856   48.3683  107.2039   98.5341  105.6613
  weight sum            60       746       138      1890      1492       712      3235       337       218       299
  precision         0.2034    0.2034    0.2034    0.2034    0.2034    0.2034    0.2034    0.2034    0.2034    0.2034

1RawPitch
  mean            211.8216  176.8718  134.4189  191.2939  126.8559  168.1349   10.0527  112.5307  210.2912  163.2284
  std. dev.        95.3224   96.4397  106.6169   109.731  112.9383   111.735   42.5654  104.6871  103.8231  110.9161
  weight sum            60       746       138      1890      1492       712      3235       337       218       299
  precision         0.2088    0.2088    0.2088    0.2088    0.2088    0.2088    0.2088    0.2088    0.2088    0.2088

1SmPitch
  mean            221.7299  181.1568   150.738  199.4931  135.4363  174.8902   10.6934  122.8188  219.9482  171.9345
  std. dev.        84.9582   92.1927  103.6325  107.3956  111.5784  108.2193   43.8999  106.9613    99.473  107.9136
  weight sum            60       746       138      1890      1492       712      3235       337       218       299
  precision         0.2051    0.2051    0.2051    0.2051    0.2051    0.2051    0.2051    0.2051    0.2051    0.2051

1Melogram(st)
  mean             53.5228   49.1776   45.2162   49.6621   37.4676   46.5218    3.7045   36.1835   50.6374   45.7201
  std. dev.         13.838   17.1261   20.2304   18.1264   25.6049   20.6378   13.7401   25.5985    19.473    21.266
  weight sum            60       746       138      1890      1492       712      3235       337       218       299
  precision         0.0353    0.0353    0.0353    0.0353    0.0353    0.0353    0.0353    0.0353    0.0353    0.0353

1ZCross
  mean              4.9424    4.6951    2.7115    5.7987     3.134    3.8039    0.1471    1.9148    3.4387    2.4688
  std. dev.         2.9031    3.4013    2.5858     4.683    4.0893    3.4966    0.8715    2.2553    3.0618    2.5057
  weight sum            60       746       138      1890      1492       712      3235       337       218       299
  precision         1.2727    1.2727    1.2727    1.2727    1.2727    1.2727    1.2727    1.2727    1.2727    1.2727

1F1(Hz)
  mean            535.1981  435.3843  487.8092  573.1489  417.7371  450.1528   45.7694  351.5923  462.9492  423.0991
  std. dev.       163.2022  182.9634    232.81  300.3065  267.8815  244.2194  157.8196  256.2341  332.7223  227.7907
  weight sum            60       746       138      1890      1492       712      3235       337       218       299
  precision         0.5127    0.5127    0.5127    0.5127    0.5127    0.5127    0.5127    0.5127    0.5127    0.5127

1F2(Hz)
  mean           1790.4456 1633.7862 1414.8511 1470.0692 1271.6816 1123.9385  138.7781 1181.2495  1000.033 1449.4723
  std. dev.       429.6425  662.2232  640.3559  613.6446  771.6061  603.6465  473.9823  807.7249   546.594  686.1573
  weight sum            60       746       138      1890      1492       712      3235       337       218       299
  precision         0.6985    0.6985    0.6985    0.6985    0.6985    0.6985    0.6985    0.6985    0.6985    0.6985

1F3(Hz)
  mean           3071.6857 2466.1143 2406.0546 2538.3662 2182.6296 2381.9061  236.8432 2007.9227  2460.271 2437.2044
  std. dev.       635.5128  983.2863 1054.0979  976.2802 1278.1936 1133.1835  790.2031 1341.2937 1089.2339 1070.9844
  weight sum            60       746       138      1890      1492       712      3235       337       218       299
  precision         1.0065    1.0065    1.0065    1.0065    1.0065    1.0065    1.0065    1.0065    1.0065    1.0065

1F4(Hz)
  mean            3056.979  2968.206 2858.1926 2957.8706 2529.2219 2739.0875  290.0819 2314.7376  2778.374  2883.526
  std. dev.       644.5346 1156.9806 1217.3342 1123.7659 1468.0016 1292.2218  965.6184 1539.0164 1167.5154 1232.2639
  weight sum            60       746       138      1890      1492       712      3235       337       218       299
  precision         1.0301    1.0301    1.0301    1.0301    1.0301    1.0301    1.0301    1.0301    1.0301    1.0301

2Int(dB)
  mean             -7.0534   -5.6493  -13.9655   -5.7449  -15.7971   -8.6644  -50.8591  -17.4982   -5.9413  -12.4527
  std. dev.         7.2104    8.2505    8.9902     9.854   10.0362   12.1183   13.3675   11.8095    8.0011   10.4872
  weight sum            60       746       138      1890      1492       712      3235       337       218       299
  precision         0.1008    0.1008    0.1008    0.1008    0.1008    0.1008    0.1008    0.1008    0.1008    0.1008

2Pitch(Hz)
  mean            218.8243  192.4898  152.2312  207.0853  132.8157  180.2959    8.6388  134.4525  232.3523  173.7208
  std. dev.        91.1227    85.636   105.769  101.2713  111.5383  103.4062   41.2201  102.4065   82.3117  104.0157
  weight sum            60       746       138      1890      1492       712      3235       337       218       299
  precision         0.2034    0.2034    0.2034    0.2034    0.2034    0.2034    0.2034    0.2034    0.2034    0.2034

2RawPitch
  mean             208.067  188.8553  123.0765  197.2545  116.9894  174.0908     6.907  117.7033  222.5693  156.9007
  std. dev.       103.6798   89.4789  101.8456  105.5731  113.2715  108.0935   35.5041   100.554   89.8429  112.4322
  weight sum            60       746       138      1890      1492       712      3235       337       218       299
  precision         0.2088    0.2088    0.2088    0.2088    0.2088    0.2088    0.2088    0.2088    0.2088    0.2088

2SmPitch
  mean            218.8205  191.6241  141.6009  204.9536  126.5887   178.962    7.4163  129.9862  232.3227  169.8194
  std. dev.        91.1003   86.4181  100.3995   102.809   113.174  104.3249   36.4734  103.4114   82.2366  107.6346
  weight sum            60       746       138      1890      1492       712      3235       337       218       299
  precision         0.2051    0.2051    0.2051    0.2051    0.2051    0.2051    0.2051    0.2051    0.2051    0.2051

2Melogram(st)
  mean             52.6041   51.3162   42.7509   51.5425   34.9184   47.7311    2.7472   37.2674   54.9086   45.7719
  std. dev.         15.467   13.9659   21.9334    15.403   26.5879   19.2227   12.0049     25.16   12.8002   21.2519
  weight sum            60       746       138      1890      1492       712      3235       337       218       299
  precision         0.0352    0.0352    0.0352    0.0352    0.0352    0.0352    0.0352    0.0352    0.0352    0.0352

2ZCross
  mean              4.5394    4.8248    2.0843     5.996    3.0249    3.9665    0.0854    1.7259     3.573    2.2092
  std. dev.         2.7234    3.1533    2.0439    4.4913    4.5236    3.0096    0.6291    1.9229    2.8222     2.095
  weight sum            60       746       138      1890      1492       712      3235       337       218       299
  precision         1.2727    1.2727    1.2727    1.2727    1.2727    1.2727    1.2727    1.2727    1.2727    1.2727

2F1(Hz)
  mean            515.8111  468.1216  433.0067   615.906  368.2728  487.9887   33.6418  316.5033  498.1345  402.1692
  std. dev.       169.9361  135.4424  254.6457  272.7293  275.5213  219.6408  135.0001  252.9541  299.1257  226.7452
  weight sum            60       746       138      1890      1492       712      3235       337       218       299
  precision         0.5127    0.5127    0.5127    0.5127    0.5127    0.5127    0.5127    0.5127    0.5127    0.5127

2F2(Hz)
  mean           1760.2472 1802.3085 1302.5905 1566.9415  1148.689 1165.7924  104.6191 1089.5516 1080.7158 1402.7174
  std. dev.       487.7326  487.8366  701.6256  524.5783  816.6269  525.3227  415.8917  822.0275  431.8771  694.7863
  weight sum            60       746       138      1890      1492       712      3235       337       218       299
  precision         0.6985    0.6985    0.6985    0.6985    0.6985    0.6985    0.6985    0.6985    0.6985    0.6985

2F3(Hz)
  mean           3010.0232 2662.4498 2220.2677 2687.9673  1977.294 2534.4259  178.4715 1870.3153 2714.6841 2362.4099
  std. dev.       754.1328   729.876 1179.8092  790.7356 1368.7255  989.9708  694.0702   1399.63  768.9985 1105.7815
  weight sum            60       746       138      1890      1492       712      3235       337       218       299
  precision         1.0065    1.0065    1.0065    1.0065    1.0065    1.0065    1.0065    1.0065    1.0065    1.0065

2F4(Hz)
  mean           3016.1717 3199.5596 2671.4019 3127.4192 2295.2013 2913.9175  219.9108 2143.5804  3074.217 2816.8308
  std. dev.       763.1423  841.1377 1380.3083  903.1757 1579.9142 1121.3472   853.084 1592.9551  772.1011 1281.9538
  weight sum            60       746       138      1890      1492       712      3235       337       218       299
  precision         1.0301    1.0301    1.0301    1.0301    1.0301    1.0301    1.0301    1.0301    1.0301    1.0301





=== Stratified cross-validation ===

Correctly Classified Instances        4060               44.4834 %
Incorrectly Classified Instances      5067               55.5166 %
Kappa statistic                          0.3292
K&B Relative Info Score             286184.5934 %
K&B Information Score                 7490.2458 bits      0.8207 bits/instance
Class complexity | order 0           23870.9714 bits      2.6154 bits/instance
Class complexity | scheme           136859.6791 bits     14.995  bits/instance
Complexity improvement     (Sf)    -112988.7076 bits    -12.3796 bits/instance
Mean absolute error                      0.111 
Root mean squared error                  0.3014
Relative absolute error                 70.3788 %
Root relative squared error            107.3078 %
Coverage of cases (0.95 level)          58.179  %
Mean rel. region size (0.95 level)      19.1246 %
Total Number of Instances             9127     


=== Detailed Accuracy By Class ===

                 TP Rate  FP Rate  Precision  Recall   F-Measure  MCC      ROC Area  PRC Area  Class
                 0,550    0,232    0,015      0,550    0,030      0,061    0,789     0,019     C
                 0,355    0,125    0,201      0,355    0,257      0,179    0,773     0,216     E
                 0,116    0,034    0,050      0,116    0,070      0,054    0,740     0,038     FV
                 0,231    0,028    0,683      0,231    0,345      0,322    0,806     0,526     AI
                 0,147    0,028    0,503      0,147    0,227      0,206    0,725     0,365     CDGKNRSYZ
                 0,028    0,009    0,217      0,028    0,050      0,052    0,746     0,177     O
                 0,912    0,079    0,864      0,912    0,888      0,824    0,949     0,888     0
                 0,154    0,052    0,102      0,154    0,123      0,084    0,713     0,074     LT
                 0,294    0,014    0,337      0,294    0,314      0,299    0,854     0,233     U
                 0,013    0,007    0,058      0,013    0,022      0,012    0,725     0,063     MBP
Weighted Avg.    0,445    0,054    0,578      0,445    0,462      0,423    0,830     0,526     


=== Confusion Matrix ===

    a    b    c    d    e    f    g    h    i    j   <-- classified as
   33   18    1    5    2    0    1    0    0    0 |    a = C
  314  265   10   29   23   19   22   44   16    4 |    b = E
   48   33   16    5   10    2   11   13    0    0 |    c = FV
  672  379   63  436   60   42   65  113   47   13 |    d = AI
  509  231  106   63  219    2  215  123   10   14 |    e = CDGKNRSYZ
  223  195   39   57   25   20   62   47   38    6 |    f = O
   70   25   48    7   57    1 2951   64    1   11 |    g = 0
   94   69   20    3   18    1   63   52    4   13 |    h = LT
   59   29    3   22    6    4    3   24   64    4 |    i = U
  117   72   16   11   15    1   22   31   10    4 |    j = MBP

=== Percent Confusion Matrix ===
a	b	c	d	e	f	g	h	i	j	
55.0	30.0	1.67	8.33	3.33	0.0	1.67	0.0	0.0	0.0	 a = C
42.09	35.52	1.34	3.89	3.08	2.55	2.95	5.9	2.14	0.54	 b = E
34.78	23.91	11.59	3.62	7.25	1.45	7.97	9.42	0.0	0.0	 c = FV
35.56	20.05	3.33	23.07	3.17	2.22	3.44	5.98	2.49	0.69	 d = AI
34.12	15.48	7.1	4.22	14.68	0.13	14.41	8.24	0.67	0.94	 e = CDGKNRSYZ
31.32	27.39	5.48	8.01	3.51	2.81	8.71	6.6	5.34	0.84	 f = O
2.16	0.77	1.48	0.22	1.76	0.03	91.22	1.98	0.03	0.34	 g = 0
27.89	20.47	5.93	0.89	5.34	0.3	18.69	15.43	1.19	3.86	 h = LT
27.06	13.3	1.38	10.09	2.75	1.83	1.38	11.01	29.36	1.83	 i = U
39.13	24.08	5.35	3.68	5.02	0.33	7.36	10.37	3.34	1.34	 j = MBP
