Timestamp:2014-12-07-11:19:26
Inventario:I4
Intervalo:20ms
Ngramas:2
Clasificador:NaiveBayes
Relation Name:  I4-20ms-2gramas
Num Instances:  9128
Num Attributes: 21

     Name                      Type  Nom  Int Real     Missing      Unique  Dist
   1 0Int(dB)                   Num   0%  11%  89%     0 /  0%    14 /  0%   764 
   2 0Pitch(Hz)                 Num   0%  49%  51%     0 /  0%  1033 / 11%  2440 
   3 0RawPitch                  Num   0%  52%  48%     0 /  0%  1062 / 12%  2369 
   4 0SmPitch                   Num   0%  50%  50%     0 /  0%  1056 / 12%  2419 
   5 0Melogram(st)              Num   0%  45%  55%     0 /  0%   937 / 10%  2341 
   6 0ZCross                    Num   0% 100%   0%     0 /  0%     7 /  0%    34 
   7 0F1(Hz)                    Num   0%  49%  51%     0 /  0%  2180 / 24%  3398 
   8 0F2(Hz)                    Num   0%  49%  51%     0 /  0%  3463 / 38%  4259 
   9 0F3(Hz)                    Num   0%  49%  51%     0 /  0%  3209 / 35%  4087 
  10 0F4(Hz)                    Num   0%  49%  51%     0 /  0%  3134 / 34%  4027 
  11 1Int(dB)                   Num   0%  11%  89%     0 /  0%    14 /  0%   764 
  12 1Pitch(Hz)                 Num   0%  49%  51%     0 /  0%  1033 / 11%  2440 
  13 1RawPitch                  Num   0%  52%  48%     0 /  0%  1062 / 12%  2369 
  14 1SmPitch                   Num   0%  50%  50%     0 /  0%  1056 / 12%  2419 
  15 1Melogram(st)              Num   0%  45%  55%     0 /  0%   938 / 10%  2342 
  16 1ZCross                    Num   0% 100%   0%     0 /  0%     7 /  0%    34 
  17 1F1(Hz)                    Num   0%  49%  51%     0 /  0%  2180 / 24%  3398 
  18 1F2(Hz)                    Num   0%  49%  51%     0 /  0%  3463 / 38%  4259 
  19 1F3(Hz)                    Num   0%  49%  51%     0 /  0%  3209 / 35%  4087 
  20 1F4(Hz)                    Num   0%  49%  51%     0 /  0%  3134 / 34%  4027 
  21 class                      Nom 100%   0%   0%     0 /  0%     0 /  0%    10 


Naive Bayes Classifier

                    Class
Attribute               C         E        FV        AI CDGKNRSYZ         O         0        LT         U       MBP
                   (0.01)    (0.08)    (0.02)    (0.21)    (0.16)    (0.08)    (0.35)    (0.04)    (0.02)    (0.03)
====================================================================================================================
0Int(dB)
  mean             -6.5293   -7.2226  -12.3449   -6.7298  -14.6651   -9.7163  -50.1358  -17.6873   -8.0296   -12.305
  std. dev.         6.9159    9.4909   10.3558   10.7965   11.4502   12.1824   14.5007   13.1794    9.9998   11.5328
  weight sum            60       746       138      1890      1492       712      3236       337       218       299
  precision         0.1008    0.1008    0.1008    0.1008    0.1008    0.1008    0.1008    0.1008    0.1008    0.1008

0Pitch(Hz)
  mean            221.7155   183.146  161.6772  201.4316  140.3163  177.1418   12.2267   127.298  221.0527  174.4724
  std. dev.         84.984   90.4096  107.4647  106.1983  109.7625  106.6856   48.3613  107.2039   98.5341  105.6613
  weight sum            60       746       138      1890      1492       712      3236       337       218       299
  precision         0.2034    0.2034    0.2034    0.2034    0.2034    0.2034    0.2034    0.2034    0.2034    0.2034

0RawPitch
  mean            211.8216  176.8718  134.4189  191.2939  126.8559  168.1349   10.0496  112.5307  210.2912  163.2284
  std. dev.        95.3224   96.4397  106.6169   109.731  112.9383   111.735   42.5592  104.6871  103.8231  110.9161
  weight sum            60       746       138      1890      1492       712      3236       337       218       299
  precision         0.2088    0.2088    0.2088    0.2088    0.2088    0.2088    0.2088    0.2088    0.2088    0.2088

0SmPitch
  mean            221.7299  181.1568   150.738  199.4931  135.4363  174.8902   10.6901  122.8188  219.9482  171.9345
  std. dev.        84.9582   92.1927  103.6325  107.3956  111.5784  108.2193   43.8936  106.9613    99.473  107.9136
  weight sum            60       746       138      1890      1492       712      3236       337       218       299
  precision         0.2051    0.2051    0.2051    0.2051    0.2051    0.2051    0.2051    0.2051    0.2051    0.2051

0Melogram(st)
  mean             53.5228   49.1776   45.2162   49.6621   37.4676   46.5218    3.7033   36.1835   50.6374   45.7201
  std. dev.         13.838   17.1261   20.2304   18.1264   25.6049   20.6378   13.7381   25.5985    19.473    21.266
  weight sum            60       746       138      1890      1492       712      3236       337       218       299
  precision         0.0353    0.0353    0.0353    0.0353    0.0353    0.0353    0.0353    0.0353    0.0353    0.0353

0ZCross
  mean              4.9424    4.6951    2.7115    5.7987     3.134    3.8039    0.1471    1.9148    3.4387    2.4688
  std. dev.         2.9031    3.4013    2.5858     4.683    4.0893    3.4966    0.8713    2.2553    3.0618    2.5057
  weight sum            60       746       138      1890      1492       712      3236       337       218       299
  precision         1.2727    1.2727    1.2727    1.2727    1.2727    1.2727    1.2727    1.2727    1.2727    1.2727

0F1(Hz)
  mean            535.1981  435.3843  487.8092  573.1489  417.7371  450.1528   45.7552  351.5923  462.9492  423.0991
  std. dev.       163.2022  182.9634    232.81  300.3065  267.8815  244.2194  157.7973  256.2341  332.7223  227.7907
  weight sum            60       746       138      1890      1492       712      3236       337       218       299
  precision         0.5127    0.5127    0.5127    0.5127    0.5127    0.5127    0.5127    0.5127    0.5127    0.5127

0F2(Hz)
  mean           1790.4456 1633.7862 1414.8511 1470.0692 1271.6816 1123.9385  138.7352 1181.2495  1000.033 1449.4723
  std. dev.       429.6425  662.2232  640.3559  613.6446  771.6061  603.6465  473.9153  807.7249   546.594  686.1573
  weight sum            60       746       138      1890      1492       712      3236       337       218       299
  precision         0.6985    0.6985    0.6985    0.6985    0.6985    0.6985    0.6985    0.6985    0.6985    0.6985

0F3(Hz)
  mean           3071.6857 2466.1143 2406.0546 2538.3662 2182.6296 2381.9061    236.77 2007.9227  2460.271 2437.2044
  std. dev.       635.5128  983.2863 1054.0979  976.2802 1278.1936 1133.1835   790.092 1341.2937 1089.2339 1070.9844
  weight sum            60       746       138      1890      1492       712      3236       337       218       299
  precision         1.0065    1.0065    1.0065    1.0065    1.0065    1.0065    1.0065    1.0065    1.0065    1.0065

0F4(Hz)
  mean            3056.979  2968.206 2858.1926 2957.8706 2529.2219 2739.0875  289.9922 2314.7376  2778.374  2883.526
  std. dev.       644.5346 1156.9806 1217.3342 1123.7659 1468.0016 1292.2218  965.4827 1539.0164 1167.5154 1232.2639
  weight sum            60       746       138      1890      1492       712      3236       337       218       299
  precision         1.0301    1.0301    1.0301    1.0301    1.0301    1.0301    1.0301    1.0301    1.0301    1.0301

1Int(dB)
  mean             -7.0534   -5.6493  -13.9655   -5.7449  -15.7971   -8.6644  -50.8578  -17.4982   -5.9413  -12.4527
  std. dev.         7.2104    8.2505    8.9902     9.854   10.0362   12.1183   13.3657   11.8095    8.0011   10.4872
  weight sum            60       746       138      1890      1492       712      3236       337       218       299
  precision         0.1008    0.1008    0.1008    0.1008    0.1008    0.1008    0.1008    0.1008    0.1008    0.1008

1Pitch(Hz)
  mean            218.8243  192.4898  152.2312  207.0853  132.8157  180.2959    8.6361  134.4525  232.3523  173.7208
  std. dev.        91.1227    85.636   105.769  101.2713  111.5383  103.4062    41.214  102.4065   82.3117  104.0157
  weight sum            60       746       138      1890      1492       712      3236       337       218       299
  precision         0.2034    0.2034    0.2034    0.2034    0.2034    0.2034    0.2034    0.2034    0.2034    0.2034

1RawPitch
  mean             208.067  188.8553  123.0765  197.2545  116.9894  174.0908    6.9049  117.7033  222.5693  156.9007
  std. dev.       103.6798   89.4789  101.8456  105.5731  113.2715  108.0935   35.4988   100.554   89.8429  112.4322
  weight sum            60       746       138      1890      1492       712      3236       337       218       299
  precision         0.2088    0.2088    0.2088    0.2088    0.2088    0.2088    0.2088    0.2088    0.2088    0.2088

1SmPitch
  mean            218.8205  191.6241  141.6009  204.9536  126.5887   178.962     7.414  129.9862  232.3227  169.8194
  std. dev.        91.1003   86.4181  100.3995   102.809   113.174  104.3249    36.468  103.4114   82.2366  107.6346
  weight sum            60       746       138      1890      1492       712      3236       337       218       299
  precision         0.2051    0.2051    0.2051    0.2051    0.2051    0.2051    0.2051    0.2051    0.2051    0.2051

1Melogram(st)
  mean             52.6041   51.3162   42.7509   51.5425   34.9184   47.7311    2.7463   37.2674   54.9086   45.7719
  std. dev.         15.467   13.9659   21.9334    15.403   26.5879   19.2227   12.0032     25.16   12.8002   21.2519
  weight sum            60       746       138      1890      1492       712      3236       337       218       299
  precision         0.0352    0.0352    0.0352    0.0352    0.0352    0.0352    0.0352    0.0352    0.0352    0.0352

1ZCross
  mean              4.5394    4.8248    2.0843     5.996    3.0249    3.9665    0.0853    1.7259     3.573    2.2092
  std. dev.         2.7234    3.1533    2.0439    4.4913    4.5236    3.0096     0.629    1.9229    2.8222     2.095
  weight sum            60       746       138      1890      1492       712      3236       337       218       299
  precision         1.2727    1.2727    1.2727    1.2727    1.2727    1.2727    1.2727    1.2727    1.2727    1.2727

1F1(Hz)
  mean            515.8111  468.1216  433.0067   615.906  368.2728  487.9887   33.6314  316.5033  498.1345  402.1692
  std. dev.       169.9361  135.4424  254.6457  272.7293  275.5213  219.6408  134.9805  252.9541  299.1257  226.7452
  weight sum            60       746       138      1890      1492       712      3236       337       218       299
  precision         0.5127    0.5127    0.5127    0.5127    0.5127    0.5127    0.5127    0.5127    0.5127    0.5127

1F2(Hz)
  mean           1760.2472 1802.3085 1302.5905 1566.9415  1148.689 1165.7924  104.5868 1089.5516 1080.7158 1402.7174
  std. dev.       487.7326  487.8366  701.6256  524.5783  816.6269  525.3227  415.8315  822.0275  431.8771  694.7863
  weight sum            60       746       138      1890      1492       712      3236       337       218       299
  precision         0.6985    0.6985    0.6985    0.6985    0.6985    0.6985    0.6985    0.6985    0.6985    0.6985

1F3(Hz)
  mean           3010.0232 2662.4498 2220.2677 2687.9673  1977.294 2534.4259  178.4164 1870.3153 2714.6841 2362.4099
  std. dev.       754.1328   729.876 1179.8092  790.7356 1368.7255  989.9708    693.97   1399.63  768.9985 1105.7815
  weight sum            60       746       138      1890      1492       712      3236       337       218       299
  precision         1.0065    1.0065    1.0065    1.0065    1.0065    1.0065    1.0065    1.0065    1.0065    1.0065

1F4(Hz)
  mean           3016.1717 3199.5596 2671.4019 3127.4192 2295.2013 2913.9175  219.8428 2143.5804  3074.217 2816.8308
  std. dev.       763.1423  841.1377 1380.3083  903.1757 1579.9142 1121.3472  852.9609 1592.9551  772.1011 1281.9538
  weight sum            60       746       138      1890      1492       712      3236       337       218       299
  precision         1.0301    1.0301    1.0301    1.0301    1.0301    1.0301    1.0301    1.0301    1.0301    1.0301





=== Stratified cross-validation ===

Correctly Classified Instances        4552               49.8685 %
Incorrectly Classified Instances      4576               50.1315 %
Kappa statistic                          0.3755
K&B Relative Info Score             333365.296  %
K&B Information Score                 8725.2305 bits      0.9559 bits/instance
Class complexity | order 0           23872.4677 bits      2.6153 bits/instance
Class complexity | scheme           101648.5999 bits     11.1359 bits/instance
Complexity improvement     (Sf)     -77776.1322 bits     -8.5206 bits/instance
Mean absolute error                      0.1025
Root mean squared error                  0.2744
Relative absolute error                 64.961  %
Root relative squared error             97.7233 %
Coverage of cases (0.95 level)          67.7366 %
Mean rel. region size (0.95 level)      24.0206 %
Total Number of Instances             9128     


=== Detailed Accuracy By Class ===

                 TP Rate  FP Rate  Precision  Recall   F-Measure  MCC      ROC Area  PRC Area  Class
                 0,350    0,087    0,026      0,350    0,048      0,074    0,778     0,019     C
                 0,558    0,224    0,181      0,558    0,274      0,211    0,794     0,231     E
                 0,036    0,011    0,050      0,036    0,042      0,030    0,736     0,034     FV
                 0,382    0,059    0,629      0,382    0,475      0,395    0,819     0,558     AI
                 0,174    0,034    0,502      0,174    0,259      0,225    0,727     0,365     CDGKNRSYZ
                 0,032    0,004    0,404      0,032    0,060      0,096    0,759     0,192     O
                 0,925    0,095    0,843      0,925    0,882      0,815    0,970     0,961     0
                 0,098    0,037    0,093      0,098    0,095      0,060    0,713     0,074     LT
                 0,330    0,014    0,362      0,330    0,345      0,330    0,851     0,284     U
                 0,023    0,010    0,076      0,023    0,036      0,025    0,728     0,063     MBP
Weighted Avg.    0,499    0,073    0,573      0,499    0,494      0,444    0,843     0,562     


=== Confusion Matrix ===

    a    b    c    d    e    f    g    h    i    j   <-- classified as
   21   24    1   10    1    0    1    1    0    1 |    a = C
  152  416    2   63   29    6   21   39   11    7 |    b = E
   19   60    5   12   13    0   16    8    2    3 |    c = FV
  234  614   21  722   73   15   74   94   27   16 |    d = AI
  203  470   28  151  260    4  264   71   15   26 |    e = CDGKNRSYZ
   69  323   18   91   31   23   66   37   48    6 |    f = O
   14   68   19   28   64    4 2993   30    4   12 |    g = 0
   38  126    2   18   23    1   81   33    5   10 |    h = LT
   24   57    1   25    6    4    3   22   72    4 |    i = U
   40  137    3   28   18    0   31   20   15    7 |    j = MBP

=== Percent Confusion Matrix ===
a	b	c	d	e	f	g	h	i	j	
35.0	40.0	1.67	16.67	1.67	0.0	1.67	1.67	0.0	1.67	 a = C
20.38	55.76	0.27	8.45	3.89	0.8	2.82	5.23	1.47	0.94	 b = E
13.77	43.48	3.62	8.7	9.42	0.0	11.59	5.8	1.45	2.17	 c = FV
12.38	32.49	1.11	38.2	3.86	0.79	3.92	4.97	1.43	0.85	 d = AI
13.61	31.5	1.88	10.12	17.43	0.27	17.69	4.76	1.01	1.74	 e = CDGKNRSYZ
9.69	45.37	2.53	12.78	4.35	3.23	9.27	5.2	6.74	0.84	 f = O
0.43	2.1	0.59	0.87	1.98	0.12	92.49	0.93	0.12	0.37	 g = 0
11.28	37.39	0.59	5.34	6.82	0.3	24.04	9.79	1.48	2.97	 h = LT
11.01	26.15	0.46	11.47	2.75	1.83	1.38	10.09	33.03	1.83	 i = U
13.38	45.82	1.0	9.36	6.02	0.0	10.37	6.69	5.02	2.34	 j = MBP
