Timestamp:2014-12-07-11:16:08
Inventario:I4
Intervalo:2ms
Ngramas:5
Clasificador:NaiveBayes
Relation Name:  I4-2ms-5gramas
Num Instances:  91699
Num Attributes: 51

     Name                      Type  Nom  Int Real     Missing      Unique  Dist
   1 0Int(dB)                   Num   0%   9%  91%     0 /  0%     4 /  0%   779 
   2 0Pitch(Hz)                 Num   0%  52%  48%     0 /  0%   471 /  1%  4016 
   3 0RawPitch                  Num   0%  55%  45%     0 /  0%   550 /  1%  4014 
   4 0SmPitch                   Num   0%  53%  47%     0 /  0%   491 /  1%  3998 
   5 0Melogram(st)              Num   0%  49%  51%     0 /  0%   212 /  0%  3363 
   6 0ZCross                    Num   0% 100%   0%     0 /  0%     6 /  0%    54 
   7 0F1(Hz)                    Num   0%  52%  48%     0 /  0%  1126 /  1%  4776 
   8 0F2(Hz)                    Num   0%  52%  48%     0 /  0%  2304 /  3%  6727 
   9 0F3(Hz)                    Num   0%  52%  48%     0 /  0%  1967 /  2%  6224 
  10 0F4(Hz)                    Num   0%  52%  48%     0 /  0%  1884 /  2%  6074 
  11 1Int(dB)                   Num   0%   9%  91%     0 /  0%     4 /  0%   779 
  12 1Pitch(Hz)                 Num   0%  52%  48%     0 /  0%   471 /  1%  4016 
  13 1RawPitch                  Num   0%  55%  45%     0 /  0%   550 /  1%  4014 
  14 1SmPitch                   Num   0%  53%  47%     0 /  0%   491 /  1%  3998 
  15 1Melogram(st)              Num   0%  49%  51%     0 /  0%   212 /  0%  3363 
  16 1ZCross                    Num   0% 100%   0%     0 /  0%     6 /  0%    54 
  17 1F1(Hz)                    Num   0%  52%  48%     0 /  0%  1126 /  1%  4776 
  18 1F2(Hz)                    Num   0%  52%  48%     0 /  0%  2304 /  3%  6727 
  19 1F3(Hz)                    Num   0%  52%  48%     0 /  0%  1967 /  2%  6224 
  20 1F4(Hz)                    Num   0%  52%  48%     0 /  0%  1884 /  2%  6074 
  21 2Int(dB)                   Num   0%   9%  91%     0 /  0%     4 /  0%   779 
  22 2Pitch(Hz)                 Num   0%  52%  48%     0 /  0%   471 /  1%  4016 
  23 2RawPitch                  Num   0%  55%  45%     0 /  0%   550 /  1%  4014 
  24 2SmPitch                   Num   0%  53%  47%     0 /  0%   491 /  1%  3998 
  25 2Melogram(st)              Num   0%  49%  51%     0 /  0%   212 /  0%  3363 
  26 2ZCross                    Num   0% 100%   0%     0 /  0%     6 /  0%    54 
  27 2F1(Hz)                    Num   0%  52%  48%     0 /  0%  1126 /  1%  4776 
  28 2F2(Hz)                    Num   0%  52%  48%     0 /  0%  2304 /  3%  6727 
  29 2F3(Hz)                    Num   0%  52%  48%     0 /  0%  1967 /  2%  6224 
  30 2F4(Hz)                    Num   0%  52%  48%     0 /  0%  1884 /  2%  6074 
  31 3Int(dB)                   Num   0%   9%  91%     0 /  0%     5 /  0%   780 
  32 3Pitch(Hz)                 Num   0%  52%  48%     0 /  0%   471 /  1%  4016 
  33 3RawPitch                  Num   0%  55%  45%     0 /  0%   550 /  1%  4014 
  34 3SmPitch                   Num   0%  53%  47%     0 /  0%   491 /  1%  3998 
  35 3Melogram(st)              Num   0%  49%  51%     0 /  0%   212 /  0%  3363 
  36 3ZCross                    Num   0% 100%   0%     0 /  0%     6 /  0%    54 
  37 3F1(Hz)                    Num   0%  52%  48%     0 /  0%  1126 /  1%  4776 
  38 3F2(Hz)                    Num   0%  52%  48%     0 /  0%  2304 /  3%  6727 
  39 3F3(Hz)                    Num   0%  52%  48%     0 /  0%  1967 /  2%  6224 
  40 3F4(Hz)                    Num   0%  52%  48%     0 /  0%  1884 /  2%  6074 
  41 4Int(dB)                   Num   0%   9%  91%     0 /  0%     6 /  0%   781 
  42 4Pitch(Hz)                 Num   0%  52%  48%     0 /  0%   471 /  1%  4016 
  43 4RawPitch                  Num   0%  55%  45%     0 /  0%   550 /  1%  4014 
  44 4SmPitch                   Num   0%  53%  47%     0 /  0%   491 /  1%  3998 
  45 4Melogram(st)              Num   0%  49%  51%     0 /  0%   212 /  0%  3363 
  46 4ZCross                    Num   0% 100%   0%     0 /  0%     6 /  0%    54 
  47 4F1(Hz)                    Num   0%  52%  48%     0 /  0%  1126 /  1%  4776 
  48 4F2(Hz)                    Num   0%  52%  48%     0 /  0%  2304 /  3%  6727 
  49 4F3(Hz)                    Num   0%  52%  48%     0 /  0%  1967 /  2%  6224 
  50 4F4(Hz)                    Num   0%  52%  48%     0 /  0%  1884 /  2%  6074 
  51 class                      Nom 100%   0%   0%     0 /  0%     0 /  0%    10 


Naive Bayes Classifier

                    Class
Attribute               C         E        FV        AI CDGKNRSYZ         O         0        LT         U       MBP
                   (0.01)    (0.08)    (0.01)     (0.2)    (0.16)    (0.07)    (0.39)    (0.04)    (0.02)    (0.03)
====================================================================================================================
0Int(dB)
  mean             -7.5716   -5.3785  -14.9211   -5.2199  -15.9602   -8.2069  -48.0155  -18.1947   -5.7377  -12.9517
  std. dev.         7.9629    8.3213    9.0933    9.6798   10.1568   12.0984   16.5374   12.3994    8.5115   11.0857
  weight sum           544      6910      1286     17894     14272      6646     35829      3323      2080      2915
  precision          0.104     0.104     0.104     0.104     0.104     0.104     0.104     0.104     0.104     0.104

0Pitch(Hz)
  mean            212.3172  187.8311  133.4787  206.1852  119.0546  179.0057   17.7734  114.0132  226.5988  158.3167
  std. dev.        99.5343    89.376  107.8479  104.8605  114.2797  106.0757   57.9278  104.7344   88.9001  112.5154
  weight sum           544      6910      1286     17894     14272      6646     35829      3323      2080      2915
  precision         0.1242    0.1242    0.1242    0.1242    0.1242    0.1242    0.1242    0.1242    0.1242    0.1242

0RawPitch
  mean            201.0622  183.7354  107.8293  196.0427  102.4366  172.8374   14.6304   94.0444  217.8451  145.7471
  std. dev.        111.368   96.0886  104.5889  111.1148  114.9697  113.3864   52.4273  102.3008   96.4573  117.4623
  weight sum           544      6910      1286     17894     14272      6646     35829      3323      2080      2915
  precision         0.1243    0.1243    0.1243    0.1243    0.1243    0.1243    0.1243    0.1243    0.1243    0.1243

0SmPitch
  mean             210.591  186.0241  123.0395  203.9849  112.9928  176.7654   16.1104  107.8456  226.1601  154.2954
  std. dev.       101.5515   90.8509  105.2004   106.663  114.7374   108.303   54.1814  104.3352   88.9264  114.7394
  weight sum           544      6910      1286     17894     14272      6646     35829      3323      2080      2915
  precision         0.1248    0.1248    0.1248    0.1248    0.1248    0.1248    0.1248    0.1248    0.1248    0.1248

0Melogram(st)
  mean             51.3805    49.922   37.5097   50.4754   30.9312   46.5449    5.1965   31.9052   53.0541   41.1754
  std. dev.        17.3779   16.1676   24.8181   17.2932    27.379   20.5679   15.9896   26.5876   16.0665   24.5419
  weight sum           544      6910      1286     17894     14272      6646     35829      3323      2080      2915
  precision         0.0246    0.0246    0.0246    0.0246    0.0246    0.0246    0.0246    0.0246    0.0246    0.0246

0ZCross
  mean              4.6439    5.2787    2.1049    6.4359    3.2845    4.4166    0.2856    1.8969    4.0361     2.445
  std. dev.         2.8536    3.2387    2.2616    4.5768    5.1698    3.1384    1.2294    2.2762    2.9674    2.2805
  weight sum           544      6910      1286     17894     14272      6646     35829      3323      2080      2915
  precision         1.0755    1.0755    1.0755    1.0755    1.0755    1.0755    1.0755    1.0755    1.0755    1.0755

0F1(Hz)
  mean            497.3815  454.8987   398.033  606.0693  336.7869  475.4813   57.3408  288.1923   486.782  373.9524
  std. dev.       192.4681  158.1126  277.6832  289.5057  283.3393  232.0738  171.9957  256.2366  318.7346  239.5318
  weight sum           544      6910      1286     17894     14272      6646     35829      3323      2080      2915
  precision         0.3648    0.3648    0.3648    0.3648    0.3648    0.3648    0.3648    0.3648    0.3648    0.3648

0F2(Hz)
  mean           1701.3685 1742.5255 1188.8427 1521.9781 1048.5564 1133.1289  178.8136 1000.6341 1023.5726 1313.2845
  std. dev.       581.7532  577.7434  768.0241  572.3553   842.602  555.0163  530.2888  845.5694  463.4328  756.9492
  weight sum           544      6910      1286     17894     14272      6646     35829      3323      2080      2915
  precision         0.4429    0.4429    0.4429    0.4429    0.4429    0.4429    0.4429    0.4429    0.4429    0.4429

0F3(Hz)
  mean            2911.038  2568.342 2032.1489 2614.3873 1813.4548 2464.8989  305.4176 1708.8071 2590.9737 2208.7712
  std. dev.       913.7181   855.128 1299.1963   888.158 1425.3286 1057.4006  889.8408 1434.9895  902.8727 1214.9412
  weight sum           544      6910      1286     17894     14272      6646     35829      3323      2080      2915
  precision          0.662     0.662     0.662     0.662     0.662     0.662     0.662     0.662     0.662     0.662

0F4(Hz)
  mean           2940.8195 3099.7413 2423.0307 3051.1181 2090.3251 2838.7661  366.4808  1967.365 2971.2354 2639.4751
  std. dev.       924.2323 1000.8098  1515.383 1018.6532 1634.2516 1202.1915 1065.5405 1639.7287  956.3763 1421.1017
  weight sum           544      6910      1286     17894     14272      6646     35829      3323      2080      2915
  precision         0.6829    0.6829    0.6829    0.6829    0.6829    0.6829    0.6829    0.6829    0.6829    0.6829

1Int(dB)
  mean             -7.6259   -5.2725  -14.9878   -5.1645  -16.0047    -8.154  -48.1014  -17.9101    -5.542   -12.821
  std. dev.         7.9979    8.2012    9.0002    9.6091   10.0427   12.1079   16.4155   12.2474    8.2546   10.9576
  weight sum           544      6910      1286     17894     14272      6646     35829      3323      2080      2915
  precision          0.104     0.104     0.104     0.104     0.104     0.104     0.104     0.104     0.104     0.104

1Pitch(Hz)
  mean            212.1539  188.7056   132.578  206.5758  118.4113   179.115   17.4133  115.8623   227.888  158.5726
  std. dev.       100.1128   88.8894  107.6288   104.524  114.3951  105.6864   57.3927  104.5548   87.0635  112.1031
  weight sum           544      6910      1286     17894     14272      6646     35829      3323      2080      2915
  precision         0.1242    0.1242    0.1242    0.1242    0.1242    0.1242    0.1242    0.1242    0.1242    0.1242

1RawPitch
  mean            200.8431  184.6007  107.2731  196.5302  101.6175  173.0518   14.2992   95.5734  218.9774  146.0307
  std. dev.       111.8798   95.7338  104.2544  110.7799   114.919  113.1417   51.8254  102.2679   95.0579  117.1223
  weight sum           544      6910      1286     17894     14272      6646     35829      3323      2080      2915
  precision         0.1243    0.1243    0.1243    0.1243    0.1243    0.1243    0.1243    0.1243    0.1243    0.1243

1SmPitch
  mean            210.4263  187.0281  122.2039  204.4052  112.2643  176.9741   15.7548  109.5203  227.3868  154.4121
  std. dev.        102.116   90.2619   104.892  106.3152   114.789  107.8927   53.6105  104.2605   87.2185  114.4599
  weight sum           544      6910      1286     17894     14272      6646     35829      3323      2080      2915
  precision         0.1248    0.1248    0.1248    0.1248    0.1248    0.1248    0.1248    0.1248    0.1248    0.1248

1Melogram(st)
  mean             51.2937   50.1378   37.3403   50.6014   30.7198   46.5873    5.1111   32.3144   53.4674   41.2076
  std. dev.        17.5216    15.863   24.8755   17.1118   27.4161   20.5055   15.8764   26.5325   15.3794    24.495
  weight sum           544      6910      1286     17894     14272      6646     35829      3323      2080      2915
  precision         0.0246    0.0246    0.0246    0.0246    0.0246    0.0246    0.0246    0.0246    0.0246    0.0246

1ZCross
  mean              4.6301    5.2821    2.0824    6.4478    3.2862    4.4284    0.2716     1.926    4.0615     2.462
  std. dev.         2.8257    3.2153    2.2428    4.5654    5.2116    3.0869    1.1738    2.2597    2.9528    2.2685
  weight sum           544      6910      1286     17894     14272      6646     35829      3323      2080      2915
  precision         1.0755    1.0755    1.0755    1.0755    1.0755    1.0755    1.0755    1.0755    1.0755    1.0755

1F1(Hz)
  mean            496.0244  458.0799  393.0414  610.1322  332.0884  478.8171   56.1168  286.8025  491.0591  372.9024
  std. dev.       192.8271   153.926  278.0738  286.6176  283.1534  229.7252  170.1221  255.1247  315.0618  238.8814
  weight sum           544      6910      1286     17894     14272      6646     35829      3323      2080      2915
  precision         0.3648    0.3648    0.3648    0.3648    0.3648    0.3648    0.3648    0.3648    0.3648    0.3648

1F2(Hz)
  mean           1696.1477 1757.7095 1181.0302 1531.7794 1036.0769 1136.7974   175.327  999.8736 1034.0495  1310.527
  std. dev.       586.4555  560.9633  771.3771  563.5521  844.0038  547.7396  525.6626   845.688  450.6215  755.0799
  weight sum           544      6910      1286     17894     14272      6646     35829      3323      2080      2915
  precision         0.4429    0.4429    0.4429    0.4429    0.4429    0.4429    0.4429    0.4429    0.4429    0.4429

1F3(Hz)
  mean           2904.8205 2586.6864   2017.54 2629.2556  1793.172 2478.8191  299.2748 1707.2167 2621.0935 2205.0132
  std. dev.       922.2259  831.7891  1304.859  869.5455  1429.626 1044.4223  881.7348 1436.3414  864.0366 1213.1591
  weight sum           544      6910      1286     17894     14272      6646     35829      3323      2080      2915
  precision          0.662     0.662     0.662     0.662     0.662     0.662     0.662     0.662     0.662     0.662

1F4(Hz)
  mean           2937.2998 3119.9567 2408.5536 3067.6202 2067.4648 2854.0576  359.4106 1965.6822 3004.6925 2639.3069
  std. dev.       933.7861  971.1133 1523.4941   996.395 1639.9966 1186.1932 1056.6689 1641.2288  906.3874 1421.0299
  weight sum           544      6910      1286     17894     14272      6646     35829      3323      2080      2915
  precision         0.6829    0.6829    0.6829    0.6829    0.6829    0.6829    0.6829    0.6829    0.6829    0.6829

2Int(dB)
  mean             -7.6694    -5.205  -15.0221   -5.1334  -16.0248   -8.1324  -48.1801  -17.5625   -5.3672  -12.6603
  std. dev.         8.0179    8.1176    8.9257    9.5642    9.9492   12.1307   16.3018   12.1106     8.007   10.8312
  weight sum           544      6910      1286     17894     14272      6646     35829      3323      2080      2915
  precision          0.104     0.104     0.104     0.104     0.104     0.104     0.104     0.104     0.104     0.104

2Pitch(Hz)
  mean             211.995  189.4672   131.712  206.7995  118.0243  178.9677   17.0619  118.2298  228.8154  158.9952
  std. dev.        100.683   88.3909  107.4401  104.3297  114.5276  105.4237   56.8545  104.4865   85.6072   111.641
  weight sum           544      6910      1286     17894     14272      6646     35829      3323      2080      2915
  precision         0.1242    0.1242    0.1242    0.1242    0.1242    0.1242    0.1242    0.1242    0.1242    0.1242

2RawPitch
  mean            201.0682  185.2835  106.7449  196.8722  101.0569  173.0225   13.9627   97.4909  219.9054  146.6041
  std. dev.       112.0453   95.4466  103.7582  110.5304  114.9215  112.8916   51.2554  102.3974   93.8544  116.7477
  weight sum           544      6910      1286     17894     14272      6646     35829      3323      2080      2915
  precision         0.1243    0.1243    0.1243    0.1243    0.1243    0.1243    0.1243    0.1243    0.1243    0.1243

2SmPitch
  mean            210.2676  187.8876  121.4041  204.6932  111.7643  176.8295   15.4236  111.8381  228.2489  154.5794
  std. dev.       102.6729   89.6855  104.6191  106.0752  114.8566  107.6308   53.0684   104.422   85.8949  114.1868
  weight sum           544      6910      1286     17894     14272      6646     35829      3323      2080      2915
  precision         0.1248    0.1248    0.1248    0.1248    0.1248    0.1248    0.1248    0.1248    0.1248    0.1248

2Melogram(st)
  mean             51.2077    50.296   37.1801   50.6855   30.5863   46.5862    5.0218   32.8737   53.7993   41.2827
  std. dev.        17.6638   15.6299   24.9375   16.9813   27.4479   20.4797   15.7549   26.4447     14.79   24.4294
  weight sum           544      6910      1286     17894     14272      6646     35829      3323      2080      2915
  precision         0.0246    0.0246    0.0246    0.0246    0.0246    0.0246    0.0246    0.0246    0.0246    0.0246

2ZCross
  mean              4.6123    5.2767     2.069    6.4522    3.2898    4.4336    0.2613    1.9733    4.0842    2.4852
  std. dev.         2.8138     3.209    2.2383    4.5586    5.2302    3.0623    1.1466    2.2591    2.9396    2.2611
  weight sum           544      6910      1286     17894     14272      6646     35829      3323      2080      2915
  precision         1.0755    1.0755    1.0755    1.0755    1.0755    1.0755    1.0755    1.0755    1.0755    1.0755

2F1(Hz)
  mean            494.7364  461.0472  388.0168  613.8057  327.7141  481.7752    54.986  286.4316  494.6223  372.2266
  std. dev.       193.2131  149.9473   278.164  284.0057  282.7884  227.7162  168.4366  254.1744   311.451  238.0257
  weight sum           544      6910      1286     17894     14272      6646     35829      3323      2080      2915
  precision         0.3648    0.3648    0.3648    0.3648    0.3648    0.3648    0.3648    0.3648    0.3648    0.3648

2F2(Hz)
  mean            1690.892 1772.0574 1173.9193 1540.4909  1024.713 1139.4043  171.9953 1001.2959 1043.9884 1309.0897
  std. dev.       591.0274  544.5249  775.1169  555.4692  844.9896  541.1664  521.2486  845.1342  438.5623  752.5784
  weight sum           544      6910      1286     17894     14272      6646     35829      3323      2080      2915
  precision         0.4429    0.4429    0.4429    0.4429    0.4429    0.4429    0.4429    0.4429    0.4429    0.4429

2F3(Hz)
  mean           2898.5203 2603.6899 2003.0171 2642.5727  1774.709 2490.7242  293.4431 1709.9132 2648.1475 2203.0948
  std. dev.       930.4514  809.0505 1310.3914  852.5156 1433.0289 1033.2776  874.0689 1436.8723  826.0863 1210.0929
  weight sum           544      6910      1286     17894     14272      6646     35829      3323      2080      2915
  precision          0.662     0.662     0.662     0.662     0.662     0.662     0.662     0.662     0.662     0.662

2F4(Hz)
  mean           2933.6281 3139.0513 2393.9651 3082.1892 2047.0695 2866.8671  352.5601 1968.7046 3035.0863 2641.4508
  std. dev.       943.1766  942.3082 1531.3561  975.9977 1644.9737 1172.3377 1047.8695 1641.7274  857.2082 1419.3848
  weight sum           544      6910      1286     17894     14272      6646     35829      3323      2080      2915
  precision         0.6829    0.6829    0.6829    0.6829    0.6829    0.6829    0.6829    0.6829    0.6829    0.6829

3Int(dB)
  mean              -7.701   -5.1801  -15.0289   -5.1283  -16.0193    -8.146  -48.2529  -17.1505   -5.2139  -12.4737
  std. dev.         8.0193     8.069    8.8787    9.5456    9.8812   12.1698   16.2028   11.9928    7.7793   10.7103
  weight sum           544      6910      1286     17894     14272      6646     35829      3323      2080      2915
  precision         0.1039    0.1039    0.1039    0.1039    0.1039    0.1039    0.1039    0.1039    0.1039    0.1039

3Pitch(Hz)
  mean            211.8361  190.0868  131.0502  206.8971  117.9163  178.5997   16.6936  121.0387  229.3808  159.5378
  std. dev.       101.2436   87.9634  107.2576  104.2392  114.6833   105.265   56.2818   104.384    84.526  111.1102
  weight sum           544      6910      1286     17894     14272      6646     35829      3323      2080      2915
  precision         0.1242    0.1242    0.1242    0.1242    0.1242    0.1242    0.1242    0.1242    0.1242    0.1242

3RawPitch
  mean            201.2902  185.5725  106.2993  197.1164  100.6203  172.7286   13.6795  100.0316  220.4839   147.555
  std. dev.       112.1972   95.2181  103.3674  110.4139   114.894  112.6688   50.8144  102.8507   93.0053  116.3293
  weight sum           544      6910      1286     17894     14272      6646     35829      3323      2080      2915
  precision         0.1243    0.1243    0.1243    0.1243    0.1243    0.1243    0.1243    0.1243    0.1243    0.1243

3SmPitch
  mean            210.1091  188.5362  120.8089  204.8243  111.5386  176.5062   15.0759  114.7186  228.8712  154.9178
  std. dev.       103.2196   89.2414  104.3726  105.9523  114.9713  107.4391    52.491  104.5691   84.8121  113.8128
  weight sum           544      6910      1286     17894     14272      6646     35829      3323      2080      2915
  precision         0.1248    0.1248    0.1248    0.1248    0.1248    0.1248    0.1248    0.1248    0.1248    0.1248

3Melogram(st)
  mean             51.1216   50.4037   37.0227   50.7432   30.4977   46.5516    4.9297    33.518   54.0704    41.476
  std. dev.        17.8042   15.4597   25.0004   16.8821   27.4773    20.484   15.6286   26.3288   14.2652   24.3018
  weight sum           544      6910      1286     17894     14272      6646     35829      3323      2080      2915
  precision         0.0246    0.0246    0.0246    0.0246    0.0246    0.0246    0.0246    0.0246    0.0246    0.0246

3ZCross
  mean              4.6044    5.2659    2.0682    6.4504    3.2941    4.4315    0.2535    2.0383    4.0992     2.518
  std. dev.         2.8002    3.2124    2.2445    4.5579    5.2362    3.0586    1.1335    2.2617    2.9273    2.2548
  weight sum           544      6910      1286     17894     14272      6646     35829      3323      2080      2915
  precision         1.0755    1.0755    1.0755    1.0755    1.0755    1.0755    1.0755    1.0755    1.0755    1.0755

3F1(Hz)
  mean            493.6582   463.877  383.2741  617.0533   323.795  484.2054   53.8406  287.5932  498.0573  371.8273
  std. dev.       193.7355   146.053  277.9272  281.7646   282.255  226.2125  166.7285  253.2136   307.944   237.112
  weight sum           544      6910      1286     17894     14272      6646     35829      3323      2080      2915
  precision         0.3648    0.3648    0.3648    0.3648    0.3648    0.3648    0.3648    0.3648    0.3648    0.3648

3F2(Hz)
  mean            1685.462  1785.616 1168.3225 1547.9285 1014.9729 1140.4987  168.5764 1007.4428  1053.554 1308.1584
  std. dev.       595.4503  528.1297  778.4294   548.487  845.6566  535.6978  516.6569     843.9  426.6176   749.768
  weight sum           544      6910      1286     17894     14272      6646     35829      3323      2080      2915
  precision         0.4429    0.4429    0.4429    0.4429    0.4429    0.4429    0.4429    0.4429    0.4429    0.4429

3F3(Hz)
  mean           2892.2992 2619.8245 1990.5358 2654.0247 1758.7329  2499.568  287.4429  1720.578  2673.852 2202.5227
  std. dev.       938.5627  786.5019 1314.6764  837.7135 1435.5612 1024.8703   866.044 1436.1989  787.5699 1206.5921
  weight sum           544      6910      1286     17894     14272      6646     35829      3323      2080      2915
  precision          0.662     0.662     0.662     0.662     0.662     0.662     0.662     0.662     0.662     0.662

3F4(Hz)
  mean            2929.841 3157.1809 2382.1202 3094.5574 2029.7682 2876.1426  345.5151 1980.6994  3063.919 2644.3886
  std. dev.       952.5181  913.7543 1537.9929  958.2561 1649.1032 1161.7476 1038.6777 1640.5917  806.6532 1416.7903
  weight sum           544      6910      1286     17894     14272      6646     35829      3323      2080      2915
  precision         0.6829    0.6829    0.6829    0.6829    0.6829    0.6829    0.6829    0.6829    0.6829    0.6829

4Int(dB)
  mean              -7.722    -5.199  -15.0003   -5.1495  -15.9854   -8.1936  -48.3072  -16.6795   -5.0927  -12.2641
  std. dev.         8.0048    8.0531    8.8607    9.5526    9.8409   12.2208   16.1121   11.8938    7.5769   10.5968
  weight sum           544      6910      1286     17894     14272      6646     35829      3323      2080      2915
  precision         0.1037    0.1037    0.1037    0.1037    0.1037    0.1037    0.1037    0.1037    0.1037    0.1037

4Pitch(Hz)
  mean            211.6788  190.3791  130.8258  206.8542  118.0636  178.0537   16.3396  124.0299  229.8416  160.3717
  std. dev.       101.7909   87.7367  107.1381  104.2462  114.8509  105.2226   55.7299  104.2993   83.5753  110.4325
  weight sum           544      6910      1286     17894     14272      6646     35829      3323      2080      2915
  precision         0.1242    0.1242    0.1242    0.1242    0.1242    0.1242    0.1242    0.1242    0.1242    0.1242

4RawPitch
  mean            201.3727   185.837  105.9763  197.1202  100.4456  172.2852   13.3739  103.3888  220.9278  148.5095
  std. dev.       112.4119   95.0002  102.9581  110.4483  114.9131  112.5036   50.3505  103.4883   92.1417  115.8451
  weight sum           544      6910      1286     17894     14272      6646     35829      3323      2080      2915
  precision         0.1243    0.1243    0.1243    0.1243    0.1243    0.1243    0.1243    0.1243    0.1243    0.1243

4SmPitch
  mean            210.3094  188.9642  120.6473  204.8316  111.5176  175.9682   14.7419  117.7377  229.2536  155.6124
  std. dev.       103.3642   88.9263  104.2291  105.9186  115.1141  107.3853   51.9315  104.6743   84.0032  113.2741
  weight sum           544      6910      1286     17894     14272      6646     35829      3323      2080      2915
  precision         0.1248    0.1248    0.1248    0.1248    0.1248    0.1248    0.1248    0.1248    0.1248    0.1248

4Melogram(st)
  mean             51.0353   50.4842   37.0069   50.7681    30.483   46.4749    4.8258   34.2384   54.3072   41.6893
  std. dev.         17.943   15.3213   25.0249   16.8283   27.5007   20.5262   15.4837   26.1713   13.7628   24.1614
  weight sum           544      6910      1286     17894     14272      6646     35829      3323      2080      2915
  precision         0.0246    0.0246    0.0246    0.0246    0.0246    0.0246    0.0246    0.0246    0.0246    0.0246

4ZCross
  mean              4.6044    5.2438    2.0698    6.4418    3.3021    4.4237    0.2484    2.1221    4.1111    2.5583
  std. dev.         2.7858    3.2168    2.2498    4.5637    5.2362    3.0692    1.1311    2.2739    2.9164    2.2519
  weight sum           544      6910      1286     17894     14272      6646     35829      3323      2080      2915
  precision         1.0755    1.0755    1.0755    1.0755    1.0755    1.0755    1.0755    1.0755    1.0755    1.0755

4F1(Hz)
  mean            493.4169  466.4894  378.5922  619.8036  320.2273  486.2046   52.7372  290.5839  500.6341   372.086
  std. dev.       193.2624  142.2388  277.5826  279.9888  281.5947  225.0865  165.1061   252.194  305.2064  236.0116
  weight sum           544      6910      1286     17894     14272      6646     35829      3323      2080      2915
  precision         0.3648    0.3648    0.3648    0.3648    0.3648    0.3648    0.3648    0.3648    0.3648    0.3648

4F2(Hz)
  mean           1683.3446 1798.4442 1163.3139 1553.8822  1006.274 1140.7371  165.1296 1019.3641 1061.2779 1309.1173
  std. dev.       595.5085  511.8666   782.141  542.8849  846.0934  531.1147  511.8838   841.803  416.4942    746.06
  weight sum           544      6910      1286     17894     14272      6646     35829      3323      2080      2915
  precision         0.4429    0.4429    0.4429    0.4429    0.4429    0.4429    0.4429    0.4429    0.4429    0.4429

4F3(Hz)
  mean           2891.9207 2634.9785 1978.2255 2663.3296 1744.4101 2506.4348  281.5482 1740.5426 2694.0925 2204.7048
  std. dev.       938.3439  764.1593 1318.9077  825.8325 1437.4155 1018.6433  858.0862 1433.4142  755.1652 1201.2074
  weight sum           544      6910      1286     17894     14272      6646     35829      3323      2080      2915
  precision          0.662     0.662     0.662     0.662     0.662     0.662     0.662     0.662     0.662     0.662

4F4(Hz)
  mean           2931.5846   3174.33 2370.2376 3104.1869 2014.7764 2882.7851  338.5454 2004.3629 3086.3027 2650.5175
  std. dev.       953.5669  885.5429 1544.5093  943.9157 1652.7489 1153.5603 1029.4374 1637.7366   763.546 1411.8243
  weight sum           544      6910      1286     17894     14272      6646     35829      3323      2080      2915
  precision         0.6829    0.6829    0.6829    0.6829    0.6829    0.6829    0.6829    0.6829    0.6829    0.6829





=== Stratified cross-validation ===

Correctly Classified Instances       45943               50.102  %
Incorrectly Classified Instances     45756               49.898  %
Kappa statistic                          0.3638
K&B Relative Info Score            3198707.0508 %
K&B Information Score                81531.9361 bits      0.8891 bits/instance
Class complexity | order 0          233711.6934 bits      2.5487 bits/instance
Class complexity | scheme          2547799.6046 bits     27.7844 bits/instance
Complexity improvement     (Sf)    -2314087.9112 bits    -25.2357 bits/instance
Mean absolute error                      0.0995
Root mean squared error                  0.299 
Relative absolute error                 64.5052 %
Root relative squared error            107.6736 %
Coverage of cases (0.95 level)          56.2089 %
Mean rel. region size (0.95 level)      13.8357 %
Total Number of Instances            91699     


=== Detailed Accuracy By Class ===

                 TP Rate  FP Rate  Precision  Recall   F-Measure  MCC      ROC Area  PRC Area  Class
                 0,180    0,020    0,052      0,180    0,081      0,087    0,769     0,025     C
                 0,724    0,244    0,195      0,724    0,307      0,282    0,833     0,310     E
                 0,097    0,039    0,034      0,097    0,051      0,035    0,731     0,030     FV
                 0,319    0,031    0,716      0,319    0,442      0,406    0,847     0,600     AI
                 0,099    0,007    0,733      0,099    0,175      0,234    0,733     0,369     CDGKNRSYZ
                 0,028    0,006    0,285      0,028    0,052      0,070    0,766     0,173     O
                 0,892    0,143    0,800      0,892    0,844      0,737    0,903     0,806     0
                 0,083    0,024    0,116      0,083    0,097      0,070    0,715     0,077     LT
                 0,543    0,064    0,164      0,543    0,252      0,270    0,871     0,360     U
                 0,012    0,007    0,050      0,012    0,019      0,009    0,722     0,059     MBP
Weighted Avg.    0,501    0,085    0,612      0,501    0,481      0,440    0,834     0,539     


=== Confusion Matrix ===

     a     b     c     d     e     f     g     h     i     j   <-- classified as
    98   288    14    28     3     0    34     7    72     0 |     a = C
   460  5005   182   460    66    14   279   182   178    84 |     b = E
    22   580   125    78    19    13   316    62    59    12 |     c = FV
   308  7318   646  5711   198   119   952   388  2122   132 |     d = AI
   603  4438  1126   686  1419   148  4020   600  1045   187 |     e = CDGKNRSYZ
    71  2981   406   482    60   189   715   163  1528    51 |     f = O
    88  1803   701   217    86   129 31956   439   306   104 |     g = 0
   110  1360   184    50    60    21  1074   276   120    68 |     h = LT
    27   530    71   136     4    20    44    95  1129    24 |     i = U
    91  1428   177   123    21    11   542   158   329    35 |     j = MBP

=== Percent Confusion Matrix ===
a	b	c	d	e	f	g	h	i	j	
18.01	52.94	2.57	5.15	0.55	0.0	6.25	1.29	13.24	0.0	 a = C
6.66	72.43	2.63	6.66	0.96	0.2	4.04	2.63	2.58	1.22	 b = E
1.71	45.1	9.72	6.07	1.48	1.01	24.57	4.82	4.59	0.93	 c = FV
1.72	40.9	3.61	31.92	1.11	0.67	5.32	2.17	11.86	0.74	 d = AI
4.23	31.1	7.89	4.81	9.94	1.04	28.17	4.2	7.32	1.31	 e = CDGKNRSYZ
1.07	44.85	6.11	7.25	0.9	2.84	10.76	2.45	22.99	0.77	 f = O
0.25	5.03	1.96	0.61	0.24	0.36	89.19	1.23	0.85	0.29	 g = 0
3.31	40.93	5.54	1.5	1.81	0.63	32.32	8.31	3.61	2.05	 h = LT
1.3	25.48	3.41	6.54	0.19	0.96	2.12	4.57	54.28	1.15	 i = U
3.12	48.99	6.07	4.22	0.72	0.38	18.59	5.42	11.29	1.2	 j = MBP
