Timestamp:2014-12-07-11:19:32
Inventario:I4
Intervalo:20ms
Ngramas:4
Clasificador:NaiveBayes
Relation Name:  I4-20ms-4gramas
Num Instances:  9126
Num Attributes: 41

     Name                      Type  Nom  Int Real     Missing      Unique  Dist
   1 0Int(dB)                   Num   0%  11%  89%     0 /  0%    14 /  0%   764 
   2 0Pitch(Hz)                 Num   0%  49%  51%     0 /  0%  1033 / 11%  2440 
   3 0RawPitch                  Num   0%  52%  48%     0 /  0%  1062 / 12%  2369 
   4 0SmPitch                   Num   0%  50%  50%     0 /  0%  1056 / 12%  2419 
   5 0Melogram(st)              Num   0%  45%  55%     0 /  0%   937 / 10%  2341 
   6 0ZCross                    Num   0% 100%   0%     0 /  0%     7 /  0%    34 
   7 0F1(Hz)                    Num   0%  49%  51%     0 /  0%  2180 / 24%  3398 
   8 0F2(Hz)                    Num   0%  49%  51%     0 /  0%  3463 / 38%  4259 
   9 0F3(Hz)                    Num   0%  49%  51%     0 /  0%  3209 / 35%  4087 
  10 0F4(Hz)                    Num   0%  49%  51%     0 /  0%  3134 / 34%  4027 
  11 1Int(dB)                   Num   0%  11%  89%     0 /  0%    14 /  0%   764 
  12 1Pitch(Hz)                 Num   0%  49%  51%     0 /  0%  1033 / 11%  2440 
  13 1RawPitch                  Num   0%  52%  48%     0 /  0%  1062 / 12%  2369 
  14 1SmPitch                   Num   0%  50%  50%     0 /  0%  1056 / 12%  2419 
  15 1Melogram(st)              Num   0%  45%  55%     0 /  0%   937 / 10%  2341 
  16 1ZCross                    Num   0% 100%   0%     0 /  0%     7 /  0%    34 
  17 1F1(Hz)                    Num   0%  49%  51%     0 /  0%  2180 / 24%  3398 
  18 1F2(Hz)                    Num   0%  49%  51%     0 /  0%  3463 / 38%  4259 
  19 1F3(Hz)                    Num   0%  49%  51%     0 /  0%  3209 / 35%  4087 
  20 1F4(Hz)                    Num   0%  49%  51%     0 /  0%  3134 / 34%  4027 
  21 2Int(dB)                   Num   0%  11%  89%     0 /  0%    14 /  0%   764 
  22 2Pitch(Hz)                 Num   0%  49%  51%     0 /  0%  1033 / 11%  2440 
  23 2RawPitch                  Num   0%  52%  48%     0 /  0%  1062 / 12%  2369 
  24 2SmPitch                   Num   0%  50%  50%     0 /  0%  1056 / 12%  2419 
  25 2Melogram(st)              Num   0%  45%  55%     0 /  0%   937 / 10%  2341 
  26 2ZCross                    Num   0% 100%   0%     0 /  0%     7 /  0%    34 
  27 2F1(Hz)                    Num   0%  49%  51%     0 /  0%  2180 / 24%  3398 
  28 2F2(Hz)                    Num   0%  49%  51%     0 /  0%  3463 / 38%  4259 
  29 2F3(Hz)                    Num   0%  49%  51%     0 /  0%  3209 / 35%  4087 
  30 2F4(Hz)                    Num   0%  49%  51%     0 /  0%  3134 / 34%  4027 
  31 3Int(dB)                   Num   0%  11%  89%     0 /  0%    14 /  0%   764 
  32 3Pitch(Hz)                 Num   0%  49%  51%     0 /  0%  1033 / 11%  2440 
  33 3RawPitch                  Num   0%  52%  48%     0 /  0%  1062 / 12%  2369 
  34 3SmPitch                   Num   0%  50%  50%     0 /  0%  1056 / 12%  2419 
  35 3Melogram(st)              Num   0%  45%  55%     0 /  0%   938 / 10%  2342 
  36 3ZCross                    Num   0% 100%   0%     0 /  0%     7 /  0%    34 
  37 3F1(Hz)                    Num   0%  49%  51%     0 /  0%  2180 / 24%  3398 
  38 3F2(Hz)                    Num   0%  49%  51%     0 /  0%  3463 / 38%  4259 
  39 3F3(Hz)                    Num   0%  49%  51%     0 /  0%  3209 / 35%  4087 
  40 3F4(Hz)                    Num   0%  49%  51%     0 /  0%  3134 / 34%  4027 
  41 class                      Nom 100%   0%   0%     0 /  0%     0 /  0%    10 


Naive Bayes Classifier

                    Class
Attribute               C         E        FV        AI CDGKNRSYZ         O         0        LT         U       MBP
                   (0.01)    (0.08)    (0.02)    (0.21)    (0.16)    (0.08)    (0.35)    (0.04)    (0.02)    (0.03)
====================================================================================================================
0Int(dB)
  mean             -6.5293  -11.7218   -8.8371   -9.7381  -11.9556  -13.1727  -48.3445  -13.3558  -12.1512  -10.1929
  std. dev.         6.7402   12.7888   12.1009   13.5948   12.6063   13.9303   16.8499   12.2314   13.5815   12.1121
  weight sum            60       746       138      1890      1492       712      3234       337       218       299
  precision         0.1008    0.1008    0.1008    0.1008    0.1008    0.1008    0.1008    0.1008    0.1008    0.1008

0Pitch(Hz)
  mean            209.2629  160.6546  181.9044  182.2667  164.5542  156.7441   19.4311  163.6244  185.7432  179.4782
  std. dev.        84.0417  102.2528  100.9774  119.8896   99.2364  116.9519    59.894  106.3017  130.6923  103.6256
  weight sum            60       746       138      1890      1492       712      3234       337       218       299
  precision         0.2034    0.2034    0.2034    0.2034    0.2034    0.2034    0.2034    0.2034    0.2034    0.2034

0RawPitch
  mean            203.1779  148.5522  170.1709  171.6064  153.0762  148.9971   16.1107  151.9221  173.5625  175.1905
  std. dev.        87.4316  106.1316  103.5921  121.7125  105.0984  120.0464   54.3875  108.5895  129.6098  105.5177
  weight sum            60       746       138      1890      1492       712      3234       337       218       299
  precision         0.2088    0.2088    0.2088    0.2088    0.2088    0.2088    0.2088    0.2088    0.2088    0.2088

0SmPitch
  mean            209.3402  155.5873  177.1758  180.0372  161.6216  153.6272   17.6151  159.3694  182.8643   179.977
  std. dev.        84.0689  104.7161  100.5075  120.6163  101.4226  117.9631   56.4219  107.5983  131.0566  103.1028
  weight sum            60       746       138      1890      1492       712      3234       337       218       299
  precision         0.2051    0.2051    0.2051    0.2051    0.2051    0.2051    0.2051    0.2051    0.2051    0.2051

0Melogram(st)
  mean             52.3709   43.0353   48.8131   44.7561   44.5071     40.72    5.6263   42.9914    41.677   47.4023
  std. dev.         15.092   22.8173    17.183   22.9005   21.3489   24.6779   16.5837   23.1457    26.535   19.9946
  weight sum            60       746       138      1890      1492       712      3234       337       218       299
  precision         0.0353    0.0353    0.0353    0.0353    0.0353    0.0353    0.0353    0.0353    0.0353    0.0353

0ZCross
  mean              5.1758    3.7875    4.3439    5.2902    3.4864    3.2283    0.3546    2.7041    3.5496    3.5458
  std. dev.          2.901    3.6027    3.5198    5.1569    3.2604    3.6497    1.5379    2.5177    3.8879    3.2035
  weight sum            60       746       138      1890      1492       712      3234       337       218       299
  precision         1.2727    1.2727    1.2727    1.2727    1.2727    1.2727    1.2727    1.2727    1.2727    1.2727

0F1(Hz)
  mean            521.9459  393.9778   516.388  505.2456  481.7262   387.934   69.4574  450.6661  424.8479  434.0106
  std. dev.       155.7041  237.3761  185.7463  334.7447  235.2196  267.0661  193.2324  239.8735  365.8257  222.5728
  weight sum            60       746       138      1890      1492       712      3234       337       218       299
  precision         0.5127    0.5127    0.5127    0.5127    0.5127    0.5127    0.5127    0.5127    0.5127    0.5127

0F2(Hz)
  mean           1694.7864 1373.2113 1567.5638 1295.8331 1436.8227 1075.1192  205.6432 1420.6889  955.3932 1481.8017
  std. dev.       439.9913  794.2677  551.4753  721.5264  655.7076  722.9702  567.5507  690.4934  693.4125  698.0192
  weight sum            60       746       138      1890      1492       712      3234       337       218       299
  precision         0.6985    0.6985    0.6985    0.6985    0.6985    0.6985    0.6985    0.6985    0.6985    0.6985

0F3(Hz)
  mean           3026.1936 2174.5401 2627.5782 2268.0398 2478.8125 2131.1022  351.4258 2402.0583 2126.7769 2459.9895
  std. dev.       716.3745 1212.1208  842.6607 1206.1569 1063.1721 1290.7244  944.4587 1103.2865 1291.5323 1073.6058
  weight sum            60       746       138      1890      1492       712      3234       337       218       299
  precision         1.0065    1.0065    1.0065    1.0065    1.0065    1.0065    1.0065    1.0065    1.0065    1.0065

0F4(Hz)
  mean           2987.2786 2634.0278 3085.9541 2645.6005 2864.5274 2461.9478  424.3306  2759.064 2454.4832 2871.1033
  std. dev.        726.908 1448.9271   967.976 1395.2965 1206.7806 1484.5906  1137.485 1263.3224  1445.419 1226.0673
  weight sum            60       746       138      1890      1492       712      3234       337       218       299
  precision         1.0301    1.0301    1.0301    1.0301    1.0301    1.0301    1.0301    1.0301    1.0301    1.0301

1Int(dB)
  mean             -6.1379   -9.6448  -10.0976   -8.3608  -13.0898  -11.6424  -49.2205  -15.4568  -10.4698  -10.9675
  std. dev.         6.6753   11.2836   11.5475   12.3206   12.3207   13.0523   15.8188   13.1869   12.0458   11.7268
  weight sum            60       746       138      1890      1492       712      3234       337       218       299
  precision         0.1008    0.1008    0.1008    0.1008    0.1008    0.1008    0.1008    0.1008    0.1008    0.1008

1Pitch(Hz)
  mean            221.2274  168.4113  174.9356   190.138  155.7607  164.5924   15.8268   149.252   199.501  181.5295
  std. dev.        82.4547   97.9387   105.317  114.6509  104.1151  113.2428   54.5523  106.8158   120.686  103.9694
  weight sum            60       746       138      1890      1492       712      3234       337       218       299
  precision         0.2034    0.2034    0.2034    0.2034    0.2034    0.2034    0.2034    0.2034    0.2034    0.2034

1RawPitch
  mean            212.0547  160.8464  150.5271  180.3583  142.5267  155.7527   12.9483   136.495  187.6775  174.3366
  std. dev.        91.4838  102.2888  108.0909  116.6238  109.7247  117.0548   48.8007  107.0008   120.986  107.6802
  weight sum            60       746       138      1890      1492       712      3234       337       218       299
  precision         0.2088    0.2088    0.2088    0.2088    0.2088    0.2088    0.2088    0.2088    0.2088    0.2088

1SmPitch
  mean            221.2718  165.6273  164.0951  188.3971  151.2408  162.0426   14.3604  144.1692  195.9784  180.2617
  std. dev.        82.4622  100.1622  102.8422  115.3301  106.5608  114.4287   51.0284   107.799  122.4742  105.3606
  weight sum            60       746       138      1890      1492       712      3234       337       218       299
  precision         0.2051    0.2051    0.2051    0.2051    0.2051    0.2051    0.2051    0.2051    0.2051    0.2051

1Melogram(st)
  mean             53.5545   45.4706   47.4754   46.8105   41.6848   43.3948    4.6661   40.6279   44.4291   47.4768
  std. dev.        13.7587   20.8835   18.4939    21.155   23.4856   23.1016   15.2463   24.0942    24.856   19.8068
  weight sum            60       746       138      1890      1492       712      3234       337       218       299
  precision         0.0353    0.0353    0.0353    0.0353    0.0353    0.0353    0.0353    0.0353    0.0353    0.0353

1ZCross
  mean              5.2394    4.2003    3.7167    5.5104    3.3499    3.4785    0.2554    2.3377    3.4504    3.0435
  std. dev.         2.9309    3.4667    3.2864    5.0123    3.5468    3.6204    1.3162    2.4394    3.5108    2.9836
  weight sum            60       746       138      1890      1492       712      3234       337       218       299
  precision         1.2727    1.2727    1.2727    1.2727    1.2727    1.2727    1.2727    1.2727    1.2727    1.2727

1F1(Hz)
  mean            542.8367  408.4223  522.7777  529.4474  463.0709  411.5688   58.2974  407.7017   424.862  443.7803
  std. dev.       156.1744  216.3841  201.8334  323.6171   248.144  260.2244  178.1576  248.5201  361.7064  220.7378
  weight sum            60       746       138      1890      1492       712      3234       337       218       299
  precision         0.5127    0.5127    0.5127    0.5127    0.5127    0.5127    0.5127    0.5127    0.5127    0.5127

1F2(Hz)
  mean           1756.0795 1477.3725 1525.1731 1361.4604 1389.7088 1085.7909  173.7875 1324.2072  924.4511 1499.8925
  std. dev.       411.9647  754.7082  570.7008  688.1141   699.115  674.5578  526.5016  747.2516  644.9976  665.9892
  weight sum            60       746       138      1890      1492       712      3234       337       218       299
  precision         0.6985    0.6985    0.6985    0.6985    0.6985    0.6985    0.6985    0.6985    0.6985    0.6985

1F3(Hz)
  mean           3081.6832 2285.1335 2573.9367  2367.033 2391.5917 2224.7554  296.2301 2250.5485 2177.1877 2515.1665
  std. dev.       617.6402 1133.2536  901.2684 1131.0152 1143.6625 1238.7361  875.0734 1218.0091 1282.0773 1019.8055
  weight sum            60       746       138      1890      1492       712      3234       337       218       299
  precision         1.0065    1.0065    1.0065    1.0065    1.0065    1.0065    1.0065    1.0065    1.0065    1.0065

1F4(Hz)
  mean           3039.3822 2766.3747 3029.4131 2763.8503 2763.1071 2567.4184  360.2866 2580.0546 2475.9112 2942.8455
  std. dev.       628.9464 1350.6568 1028.6692 1308.5676 1303.1062 1421.7151 1061.6517 1392.0022 1409.4738 1160.3327
  weight sum            60       746       138      1890      1492       712      3234       337       218       299
  precision         1.0301    1.0301    1.0301    1.0301    1.0301    1.0301    1.0301    1.0301    1.0301    1.0301

2Int(dB)
  mean             -6.5293   -7.2226  -12.3449   -6.7298  -14.6651   -9.7163  -50.1381  -17.6873   -8.0296   -12.305
  std. dev.         6.9159    9.4909   10.3558   10.7965   11.4502   12.1824   14.5049   13.1794    9.9998   11.5328
  weight sum            60       746       138      1890      1492       712      3234       337       218       299
  precision         0.1008    0.1008    0.1008    0.1008    0.1008    0.1008    0.1008    0.1008    0.1008    0.1008

2Pitch(Hz)
  mean            221.7155   183.146  161.6772  201.4316  140.3163  177.1418   12.2342   127.298  221.0527  174.4724
  std. dev.         84.984   90.4096  107.4647  106.1983  109.7625  106.6856   48.3753  107.2039   98.5341  105.6613
  weight sum            60       746       138      1890      1492       712      3234       337       218       299
  precision         0.2034    0.2034    0.2034    0.2034    0.2034    0.2034    0.2034    0.2034    0.2034    0.2034

2RawPitch
  mean            211.8216  176.8718  134.4189  191.2939  126.8559  168.1349   10.0558  112.5307  210.2912  163.2284
  std. dev.        95.3224   96.4397  106.6169   109.731  112.9383   111.735   42.5716  104.6871  103.8231  110.9161
  weight sum            60       746       138      1890      1492       712      3234       337       218       299
  precision         0.2088    0.2088    0.2088    0.2088    0.2088    0.2088    0.2088    0.2088    0.2088    0.2088

2SmPitch
  mean            221.7299  181.1568   150.738  199.4931  135.4363  174.8902   10.6967  122.8188  219.9482  171.9345
  std. dev.        84.9582   92.1927  103.6325  107.3956  111.5784  108.2193   43.9063  106.9613    99.473  107.9136
  weight sum            60       746       138      1890      1492       712      3234       337       218       299
  precision         0.2051    0.2051    0.2051    0.2051    0.2051    0.2051    0.2051    0.2051    0.2051    0.2051

2Melogram(st)
  mean             53.5228   49.1776   45.2162   49.6621   37.4676   46.5218    3.7056   36.1835   50.6374   45.7201
  std. dev.         13.838   17.1261   20.2304   18.1264   25.6049   20.6378    13.742   25.5985    19.473    21.266
  weight sum            60       746       138      1890      1492       712      3234       337       218       299
  precision         0.0353    0.0353    0.0353    0.0353    0.0353    0.0353    0.0353    0.0353    0.0353    0.0353

2ZCross
  mean              4.9424    4.6951    2.7115    5.7987     3.134    3.8039    0.1472    1.9148    3.4387    2.4688
  std. dev.         2.9031    3.4013    2.5858     4.683    4.0893    3.4966    0.8716    2.2553    3.0618    2.5057
  weight sum            60       746       138      1890      1492       712      3234       337       218       299
  precision         1.2727    1.2727    1.2727    1.2727    1.2727    1.2727    1.2727    1.2727    1.2727    1.2727

2F1(Hz)
  mean            535.1981  435.3843  487.8092  573.1489  417.7371  450.1528   45.7835  351.5923  462.9492  423.0991
  std. dev.       163.2022  182.9634    232.81  300.3065  267.8815  244.2194   157.842  256.2341  332.7223  227.7907
  weight sum            60       746       138      1890      1492       712      3234       337       218       299
  precision         0.5127    0.5127    0.5127    0.5127    0.5127    0.5127    0.5127    0.5127    0.5127    0.5127

2F2(Hz)
  mean           1790.4456 1633.7862 1414.8511 1470.0692 1271.6816 1123.9385   138.821 1181.2495  1000.033 1449.4723
  std. dev.       429.6425  662.2232  640.3559  613.6446  771.6061  603.6465  474.0493  807.7249   546.594  686.1573
  weight sum            60       746       138      1890      1492       712      3234       337       218       299
  precision         0.6985    0.6985    0.6985    0.6985    0.6985    0.6985    0.6985    0.6985    0.6985    0.6985

2F3(Hz)
  mean           3071.6857 2466.1143 2406.0546 2538.3662 2182.6296 2381.9061  236.9164 2007.9227  2460.271 2437.2044
  std. dev.       635.5128  983.2863 1054.0979  976.2802 1278.1936 1133.1835  790.3143 1341.2937 1089.2339 1070.9844
  weight sum            60       746       138      1890      1492       712      3234       337       218       299
  precision         1.0065    1.0065    1.0065    1.0065    1.0065    1.0065    1.0065    1.0065    1.0065    1.0065

2F4(Hz)
  mean            3056.979  2968.206 2858.1926 2957.8706 2529.2219 2739.0875  290.1716 2314.7376  2778.374  2883.526
  std. dev.       644.5346 1156.9806 1217.3342 1123.7659 1468.0016 1292.2218  965.7542 1539.0164 1167.5154 1232.2639
  weight sum            60       746       138      1890      1492       712      3234       337       218       299
  precision         1.0301    1.0301    1.0301    1.0301    1.0301    1.0301    1.0301    1.0301    1.0301    1.0301

3Int(dB)
  mean             -7.0534   -5.6493  -13.9655   -5.7449  -15.7971   -8.6644  -50.8607  -17.4982   -5.9413  -12.4527
  std. dev.         7.2104    8.2505    8.9902     9.854   10.0362   12.1183   13.3693   11.8095    8.0011   10.4872
  weight sum            60       746       138      1890      1492       712      3234       337       218       299
  precision         0.1008    0.1008    0.1008    0.1008    0.1008    0.1008    0.1008    0.1008    0.1008    0.1008

3Pitch(Hz)
  mean            218.8243  192.4898  152.2312  207.0853  132.8157  180.2959    8.6414  134.4525  232.3523  173.7208
  std. dev.        91.1227    85.636   105.769  101.2713  111.5383  103.4062   41.2262  102.4065   82.3117  104.0157
  weight sum            60       746       138      1890      1492       712      3234       337       218       299
  precision         0.2034    0.2034    0.2034    0.2034    0.2034    0.2034    0.2034    0.2034    0.2034    0.2034

3RawPitch
  mean             208.067  188.8553  123.0765  197.2545  116.9894  174.0908    6.9092  117.7033  222.5693  156.9007
  std. dev.       103.6798   89.4789  101.8456  105.5731  113.2715  108.0935   35.5094   100.554   89.8429  112.4322
  weight sum            60       746       138      1890      1492       712      3234       337       218       299
  precision         0.2088    0.2088    0.2088    0.2088    0.2088    0.2088    0.2088    0.2088    0.2088    0.2088

3SmPitch
  mean            218.8205  191.6241  141.6009  204.9536  126.5887   178.962    7.4185  129.9862  232.3227  169.8194
  std. dev.        91.1003   86.4181  100.3995   102.809   113.174  104.3249   36.4788  103.4114   82.2366  107.6346
  weight sum            60       746       138      1890      1492       712      3234       337       218       299
  precision         0.2051    0.2051    0.2051    0.2051    0.2051    0.2051    0.2051    0.2051    0.2051    0.2051

3Melogram(st)
  mean             52.6041   51.3162   42.7509   51.5425   34.9184   47.7311     2.748   37.2674   54.9086   45.7719
  std. dev.         15.467   13.9659   21.9334    15.403   26.5879   19.2227   12.0067     25.16   12.8002   21.2519
  weight sum            60       746       138      1890      1492       712      3234       337       218       299
  precision         0.0352    0.0352    0.0352    0.0352    0.0352    0.0352    0.0352    0.0352    0.0352    0.0352

3ZCross
  mean              4.5394    4.8248    2.0843     5.996    3.0249    3.9665    0.0854    1.7259     3.573    2.2092
  std. dev.         2.7234    3.1533    2.0439    4.4913    4.5236    3.0096    0.6292    1.9229    2.8222     2.095
  weight sum            60       746       138      1890      1492       712      3234       337       218       299
  precision         1.2727    1.2727    1.2727    1.2727    1.2727    1.2727    1.2727    1.2727    1.2727    1.2727

3F1(Hz)
  mean            515.8111  468.1216  433.0067   615.906  368.2728  487.9887   33.6522  316.5033  498.1345  402.1692
  std. dev.       169.9361  135.4424  254.6457  272.7293  275.5213  219.6408  135.0197  252.9541  299.1257  226.7452
  weight sum            60       746       138      1890      1492       712      3234       337       218       299
  precision         0.5127    0.5127    0.5127    0.5127    0.5127    0.5127    0.5127    0.5127    0.5127    0.5127

3F2(Hz)
  mean           1760.2472 1802.3085 1302.5905 1566.9415  1148.689 1165.7924  104.6514 1089.5516 1080.7158 1402.7174
  std. dev.       487.7326  487.8366  701.6256  524.5783  816.6269  525.3227   415.952  822.0275  431.8771  694.7863
  weight sum            60       746       138      1890      1492       712      3234       337       218       299
  precision         0.6985    0.6985    0.6985    0.6985    0.6985    0.6985    0.6985    0.6985    0.6985    0.6985

3F3(Hz)
  mean           3010.0232 2662.4498 2220.2677 2687.9673  1977.294 2534.4259  178.5267 1870.3153 2714.6841 2362.4099
  std. dev.       754.1328   729.876 1179.8092  790.7356 1368.7255  989.9708  694.1704   1399.63  768.9985 1105.7815
  weight sum            60       746       138      1890      1492       712      3234       337       218       299
  precision         1.0065    1.0065    1.0065    1.0065    1.0065    1.0065    1.0065    1.0065    1.0065    1.0065

3F4(Hz)
  mean           3016.1717 3199.5596 2671.4019 3127.4192 2295.2013 2913.9175  219.9788 2143.5804  3074.217 2816.8308
  std. dev.       763.1423  841.1377 1380.3083  903.1757 1579.9142 1121.3472  853.2071 1592.9551  772.1011 1281.9538
  weight sum            60       746       138      1890      1492       712      3234       337       218       299
  precision         1.0301    1.0301    1.0301    1.0301    1.0301    1.0301    1.0301    1.0301    1.0301    1.0301





=== Stratified cross-validation ===

Correctly Classified Instances        3809               41.7379 %
Incorrectly Classified Instances      5317               58.2621 %
Kappa statistic                          0.3053
K&B Relative Info Score             257546.1782 %
K&B Information Score                 6740.9961 bits      0.7387 bits/instance
Class complexity | order 0           23869.4748 bits      2.6155 bits/instance
Class complexity | scheme           170500.0795 bits     18.6829 bits/instance
Complexity improvement     (Sf)    -146630.6047 bits    -16.0673 bits/instance
Mean absolute error                      0.1161
Root mean squared error                  0.3177
Relative absolute error                 73.5756 %
Root relative squared error            113.1188 %
Coverage of cases (0.95 level)          51.7094 %
Mean rel. region size (0.95 level)      16.2448 %
Total Number of Instances             9126     


=== Detailed Accuracy By Class ===

                 TP Rate  FP Rate  Precision  Recall   F-Measure  MCC      ROC Area  PRC Area  Class
                 0,700    0,291    0,016      0,700    0,031      0,073    0,795     0,025     C
                 0,189    0,065    0,205      0,189    0,197      0,128    0,766     0,196     E
                 0,181    0,056    0,048      0,181    0,075      0,066    0,743     0,039     FV
                 0,180    0,022    0,678      0,180    0,285      0,281    0,797     0,500     AI
                 0,128    0,023    0,516      0,128    0,205      0,196    0,731     0,369     CDGKNRSYZ
                 0,066    0,023    0,197      0,066    0,099      0,073    0,735     0,163     O
                 0,901    0,071    0,875      0,901    0,888      0,825    0,948     0,888     0
                 0,181    0,055    0,112      0,181    0,138      0,100    0,727     0,082     LT
                 0,211    0,018    0,224      0,211    0,217      0,199    0,849     0,172     U
                 0,000    0,004    0,000      0,000    0,000      -0,012   0,718     0,062     MBP
Weighted Avg.    0,417    0,046    0,577      0,417    0,443      0,408    0,828     0,517     


=== Confusion Matrix ===

    a    b    c    d    e    f    g    h    i    j   <-- classified as
   42    7    3    4    1    1    0    1    1    0 |    a = C
  410  141   27   28   19   45   20   34   20    2 |    b = E
   63   10   25    5    9    3    8   14    1    0 |    c = FV
  827  241  107  341   49  101   65   94   60    5 |    d = AI
  623   86  175   44  191   11  180  158   18    6 |    e = CDGKNRSYZ
  281  109   49   49   20   47   66   40   44    7 |    f = O
   86   10   65    3   50    2 2915   95    3    5 |    g = 0
  134   23   36    2   18    5   51   61    2    5 |    h = LT
   67   22    9   19    4   19    5   18   46    9 |    i = U
  146   40   30    8    9    5   21   30   10    0 |    j = MBP

=== Percent Confusion Matrix ===
a	b	c	d	e	f	g	h	i	j	
70.0	11.67	5.0	6.67	1.67	1.67	0.0	1.67	1.67	0.0	 a = C
54.96	18.9	3.62	3.75	2.55	6.03	2.68	4.56	2.68	0.27	 b = E
45.65	7.25	18.12	3.62	6.52	2.17	5.8	10.14	0.72	0.0	 c = FV
43.76	12.75	5.66	18.04	2.59	5.34	3.44	4.97	3.17	0.26	 d = AI
41.76	5.76	11.73	2.95	12.8	0.74	12.06	10.59	1.21	0.4	 e = CDGKNRSYZ
39.47	15.31	6.88	6.88	2.81	6.6	9.27	5.62	6.18	0.98	 f = O
2.66	0.31	2.01	0.09	1.55	0.06	90.14	2.94	0.09	0.15	 g = 0
39.76	6.82	10.68	0.59	5.34	1.48	15.13	18.1	0.59	1.48	 h = LT
30.73	10.09	4.13	8.72	1.83	8.72	2.29	8.26	21.1	4.13	 i = U
48.83	13.38	10.03	2.68	3.01	1.67	7.02	10.03	3.34	0.0	 j = MBP
