Timestamp:2014-12-07-11:19:36
Inventario:I4
Intervalo:20ms
Ngramas:5
Clasificador:NaiveBayes
Relation Name:  I4-20ms-5gramas
Num Instances:  9125
Num Attributes: 51

     Name                      Type  Nom  Int Real     Missing      Unique  Dist
   1 0Int(dB)                   Num   0%  11%  89%     0 /  0%    14 /  0%   764 
   2 0Pitch(Hz)                 Num   0%  49%  51%     0 /  0%  1033 / 11%  2440 
   3 0RawPitch                  Num   0%  52%  48%     0 /  0%  1062 / 12%  2369 
   4 0SmPitch                   Num   0%  50%  50%     0 /  0%  1056 / 12%  2419 
   5 0Melogram(st)              Num   0%  45%  55%     0 /  0%   937 / 10%  2341 
   6 0ZCross                    Num   0% 100%   0%     0 /  0%     7 /  0%    34 
   7 0F1(Hz)                    Num   0%  49%  51%     0 /  0%  2180 / 24%  3398 
   8 0F2(Hz)                    Num   0%  49%  51%     0 /  0%  3463 / 38%  4259 
   9 0F3(Hz)                    Num   0%  49%  51%     0 /  0%  3209 / 35%  4087 
  10 0F4(Hz)                    Num   0%  49%  51%     0 /  0%  3134 / 34%  4027 
  11 1Int(dB)                   Num   0%  11%  89%     0 /  0%    14 /  0%   764 
  12 1Pitch(Hz)                 Num   0%  49%  51%     0 /  0%  1033 / 11%  2440 
  13 1RawPitch                  Num   0%  52%  48%     0 /  0%  1062 / 12%  2369 
  14 1SmPitch                   Num   0%  50%  50%     0 /  0%  1056 / 12%  2419 
  15 1Melogram(st)              Num   0%  45%  55%     0 /  0%   937 / 10%  2341 
  16 1ZCross                    Num   0% 100%   0%     0 /  0%     7 /  0%    34 
  17 1F1(Hz)                    Num   0%  49%  51%     0 /  0%  2180 / 24%  3398 
  18 1F2(Hz)                    Num   0%  49%  51%     0 /  0%  3463 / 38%  4259 
  19 1F3(Hz)                    Num   0%  49%  51%     0 /  0%  3209 / 35%  4087 
  20 1F4(Hz)                    Num   0%  49%  51%     0 /  0%  3134 / 34%  4027 
  21 2Int(dB)                   Num   0%  11%  89%     0 /  0%    14 /  0%   764 
  22 2Pitch(Hz)                 Num   0%  49%  51%     0 /  0%  1033 / 11%  2440 
  23 2RawPitch                  Num   0%  52%  48%     0 /  0%  1062 / 12%  2369 
  24 2SmPitch                   Num   0%  50%  50%     0 /  0%  1056 / 12%  2419 
  25 2Melogram(st)              Num   0%  45%  55%     0 /  0%   937 / 10%  2341 
  26 2ZCross                    Num   0% 100%   0%     0 /  0%     7 /  0%    34 
  27 2F1(Hz)                    Num   0%  49%  51%     0 /  0%  2180 / 24%  3398 
  28 2F2(Hz)                    Num   0%  49%  51%     0 /  0%  3463 / 38%  4259 
  29 2F3(Hz)                    Num   0%  49%  51%     0 /  0%  3209 / 35%  4087 
  30 2F4(Hz)                    Num   0%  49%  51%     0 /  0%  3134 / 34%  4027 
  31 3Int(dB)                   Num   0%  11%  89%     0 /  0%    14 /  0%   764 
  32 3Pitch(Hz)                 Num   0%  49%  51%     0 /  0%  1033 / 11%  2440 
  33 3RawPitch                  Num   0%  52%  48%     0 /  0%  1062 / 12%  2369 
  34 3SmPitch                   Num   0%  50%  50%     0 /  0%  1056 / 12%  2419 
  35 3Melogram(st)              Num   0%  45%  55%     0 /  0%   937 / 10%  2341 
  36 3ZCross                    Num   0% 100%   0%     0 /  0%     7 /  0%    34 
  37 3F1(Hz)                    Num   0%  49%  51%     0 /  0%  2180 / 24%  3398 
  38 3F2(Hz)                    Num   0%  49%  51%     0 /  0%  3463 / 38%  4259 
  39 3F3(Hz)                    Num   0%  49%  51%     0 /  0%  3209 / 35%  4087 
  40 3F4(Hz)                    Num   0%  49%  51%     0 /  0%  3134 / 34%  4027 
  41 4Int(dB)                   Num   0%  11%  89%     0 /  0%    14 /  0%   764 
  42 4Pitch(Hz)                 Num   0%  49%  51%     0 /  0%  1033 / 11%  2440 
  43 4RawPitch                  Num   0%  52%  48%     0 /  0%  1062 / 12%  2369 
  44 4SmPitch                   Num   0%  50%  50%     0 /  0%  1056 / 12%  2419 
  45 4Melogram(st)              Num   0%  45%  55%     0 /  0%   938 / 10%  2342 
  46 4ZCross                    Num   0% 100%   0%     0 /  0%     7 /  0%    34 
  47 4F1(Hz)                    Num   0%  49%  51%     0 /  0%  2180 / 24%  3398 
  48 4F2(Hz)                    Num   0%  49%  51%     0 /  0%  3463 / 38%  4259 
  49 4F3(Hz)                    Num   0%  49%  51%     0 /  0%  3209 / 35%  4087 
  50 4F4(Hz)                    Num   0%  49%  51%     0 /  0%  3134 / 34%  4027 
  51 class                      Nom 100%   0%   0%     0 /  0%     0 /  0%    10 


Naive Bayes Classifier

                    Class
Attribute               C         E        FV        AI CDGKNRSYZ         O         0        LT         U       MBP
                   (0.01)    (0.08)    (0.02)    (0.21)    (0.16)    (0.08)    (0.35)    (0.04)    (0.02)    (0.03)
====================================================================================================================
0Int(dB)
  mean             -8.6088  -13.0643   -8.9269  -10.4701  -11.7657  -13.7939  -47.5634  -12.0346  -12.6792  -10.7538
  std. dev.         8.4984   13.8924   12.5332   14.4894   13.0634   14.5422   17.5773   11.2568   14.5166   12.8105
  weight sum            60       746       138      1890      1492       712      3233       337       218       299
  precision         0.1008    0.1008    0.1008    0.1008    0.1008    0.1008    0.1008    0.1008    0.1008    0.1008

0Pitch(Hz)
  mean            196.7324  157.6241  180.3011  179.3796  164.1757  154.4015   22.5345  176.3988  185.4643  168.3253
  std. dev.         84.164  106.2543   98.9453  122.1525   97.9789  117.9146   64.1222  104.3387  129.6329  106.7245
  weight sum            60       746       138      1890      1492       712      3233       337       218       299
  precision         0.2034    0.2034    0.2034    0.2034    0.2034    0.2034    0.2034    0.2034    0.2034    0.2034

0RawPitch
  mean             190.296  142.8621  172.2618  169.2078  152.6997  147.4316   19.0259  165.0154  174.0768  165.1759
  std. dev.        86.6994  108.7738  100.7608  123.9454  103.4285  119.9864   58.9951   109.685   129.047  108.0612
  weight sum            60       746       138      1890      1492       712      3233       337       218       299
  precision         0.2088    0.2088    0.2088    0.2088    0.2088    0.2088    0.2088    0.2088    0.2088    0.2088

0SmPitch
  mean            196.8923  151.1828    179.78  177.6584  161.2745  151.8381   20.5313  171.1968   182.135  169.0202
  std. dev.        84.3136  108.3387  100.4294  122.7116   99.6417  118.5922   60.8233  106.7388  130.2709  106.3346
  weight sum            60       746       138      1890      1492       712      3233       337       218       299
  precision         0.2051    0.2051    0.2051    0.2051    0.2051    0.2051    0.2051    0.2051    0.2051    0.2051

0Melogram(st)
  mean             51.1603   41.5957   48.2008   44.1033     44.67   40.1516    6.4706   45.0593   41.8132   44.6453
  std. dev.        16.2315   23.8518   18.1359   23.4472    21.069   24.9935   17.6275   22.0404    26.342    22.068
  weight sum            60       746       138      1890      1492       712      3233       337       218       299
  precision         0.0353    0.0353    0.0353    0.0353    0.0353    0.0353    0.0353    0.0353    0.0353    0.0353

0ZCross
  mean              4.6242     3.564    4.2701    5.1919    3.5273    3.1175    0.4181    2.9911    3.6956    3.8139
  std. dev.         3.1688    3.6901    3.3526    5.2507    3.1093    3.4613    1.6417    2.5518    4.1241    3.5612
  weight sum            60       746       138      1890      1492       712      3233       337       218       299
  precision         1.2727    1.2727    1.2727    1.2727    1.2727    1.2727    1.2727    1.2727    1.2727    1.2727

0F1(Hz)
  mean            479.4722  396.6456  477.7009  503.5484  470.2186  381.2384   78.4894  475.0182  436.2298  404.6554
  std. dev.       173.4254  245.4891  201.4736  334.2566  241.7898   266.009  203.5437  241.3741  361.4868  239.4385
  weight sum            60       746       138      1890      1492       712      3233       337       218       299
  precision         0.5127    0.5127    0.5127    0.5127    0.5127    0.5127    0.5127    0.5127    0.5127    0.5127

0F2(Hz)
  mean           1594.9596 1340.1469 1515.3183 1290.2647 1402.2471 1098.4424  231.6962 1454.0758 1020.6963 1394.3751
  std. dev.       547.5605  797.5886   626.684  719.8408  677.0918  749.9908  596.3489  666.9465   717.933  768.1069
  weight sum            60       746       138      1890      1492       712      3233       337       218       299
  precision         0.6985    0.6985    0.6985    0.6985    0.6985    0.6985    0.6985    0.6985    0.6985    0.6985

0F3(Hz)
  mean           2871.1651 2162.9982 2526.1882 2266.5056 2423.6797 2116.8449  398.5268  2464.208  2161.149 2282.2263
  std. dev.       963.5256 1227.4642  968.8846 1209.3159 1106.6569 1300.7052  997.1309 1066.9031 1263.8627  1194.601
  weight sum            60       746       138      1890      1492       712      3233       337       218       299
  precision         1.0065    1.0065    1.0065    1.0065    1.0065    1.0065    1.0065    1.0065    1.0065    1.0065

0F4(Hz)
  mean           2837.9894 2604.1079 2969.9013 2638.6752 2809.7454  2442.601  479.4766 2819.4888 2510.8149 2688.4461
  std. dev.       964.1337  1461.208 1128.5034 1396.5646 1259.9289 1494.7339 1196.5525 1213.4504 1424.0654 1385.2271
  weight sum            60       746       138      1890      1492       712      3233       337       218       299
  precision         1.0301    1.0301    1.0301    1.0301    1.0301    1.0301    1.0301    1.0301    1.0301    1.0301

1Int(dB)
  mean             -6.5293  -11.7218   -8.8371   -9.7381  -11.9556  -13.1727  -48.3452  -13.3558  -12.1512  -10.1929
  std. dev.         6.7402   12.7888   12.1009   13.5948   12.6063   13.9303   16.8525   12.2314   13.5815   12.1121
  weight sum            60       746       138      1890      1492       712      3233       337       218       299
  precision         0.1008    0.1008    0.1008    0.1008    0.1008    0.1008    0.1008    0.1008    0.1008    0.1008

1Pitch(Hz)
  mean            209.2629  160.6546  181.9044  182.2667  164.5542  156.7441   19.4371  163.6244  185.7432  179.4782
  std. dev.        84.0417  102.2528  100.9774  119.8896   99.2364  116.9519   59.9023  106.3017  130.6923  103.6256
  weight sum            60       746       138      1890      1492       712      3233       337       218       299
  precision         0.2034    0.2034    0.2034    0.2034    0.2034    0.2034    0.2034    0.2034    0.2034    0.2034

1RawPitch
  mean            203.1779  148.5522  170.1709  171.6064  153.0762  148.9971   16.1157  151.9221  173.5625  175.1905
  std. dev.        87.4316  106.1316  103.5921  121.7125  105.0984  120.0464   54.3952  108.5895  129.6098  105.5177
  weight sum            60       746       138      1890      1492       712      3233       337       218       299
  precision         0.2088    0.2088    0.2088    0.2088    0.2088    0.2088    0.2088    0.2088    0.2088    0.2088

1SmPitch
  mean            209.3402  155.5873  177.1758  180.0372  161.6216  153.6272   17.6206  159.3694  182.8643   179.977
  std. dev.        84.0689  104.7161  100.5075  120.6163  101.4226  117.9631   56.4298  107.5983  131.0566  103.1028
  weight sum            60       746       138      1890      1492       712      3233       337       218       299
  precision         0.2051    0.2051    0.2051    0.2051    0.2051    0.2051    0.2051    0.2051    0.2051    0.2051

1Melogram(st)
  mean             52.3709   43.0353   48.8131   44.7561   44.5071     40.72     5.628   42.9914    41.677   47.4023
  std. dev.         15.092   22.8173    17.183   22.9005   21.3489   24.6779    16.586   23.1457    26.535   19.9946
  weight sum            60       746       138      1890      1492       712      3233       337       218       299
  precision         0.0353    0.0353    0.0353    0.0353    0.0353    0.0353    0.0353    0.0353    0.0353    0.0353

1ZCross
  mean              5.1758    3.7875    4.3439    5.2902    3.4864    3.2283    0.3547    2.7041    3.5496    3.5458
  std. dev.          2.901    3.6027    3.5198    5.1569    3.2604    3.6497    1.5381    2.5177    3.8879    3.2035
  weight sum            60       746       138      1890      1492       712      3233       337       218       299
  precision         1.2727    1.2727    1.2727    1.2727    1.2727    1.2727    1.2727    1.2727    1.2727    1.2727

1F1(Hz)
  mean            521.9459  393.9778   516.388  505.2456  481.7262   387.934   69.4789  450.6661  424.8479  434.0106
  std. dev.       155.7041  237.3761  185.7463  334.7447  235.2196  267.0661  193.2584  239.8735  365.8257  222.5728
  weight sum            60       746       138      1890      1492       712      3233       337       218       299
  precision         0.5127    0.5127    0.5127    0.5127    0.5127    0.5127    0.5127    0.5127    0.5127    0.5127

1F2(Hz)
  mean           1694.7864 1373.2113 1567.5638 1295.8331 1436.8227 1075.1192  205.7068 1420.6889  955.3932 1481.8017
  std. dev.       439.9913  794.2677  551.4753  721.5264  655.7076  722.9702   567.627  690.4934  693.4125  698.0192
  weight sum            60       746       138      1890      1492       712      3233       337       218       299
  precision         0.6985    0.6985    0.6985    0.6985    0.6985    0.6985    0.6985    0.6985    0.6985    0.6985

1F3(Hz)
  mean           3026.1936 2174.5401 2627.5782 2268.0398 2478.8125 2131.1022  351.5345 2402.0583 2126.7769 2459.9895
  std. dev.       716.3745 1212.1208  842.6607 1206.1569 1063.1721 1290.7244  944.5845 1103.2865 1291.5323 1073.6058
  weight sum            60       746       138      1890      1492       712      3233       337       218       299
  precision         1.0065    1.0065    1.0065    1.0065    1.0065    1.0065    1.0065    1.0065    1.0065    1.0065

1F4(Hz)
  mean           2987.2786 2634.0278 3085.9541 2645.6005 2864.5274 2461.9478  424.4618  2759.064 2454.4832 2871.1033
  std. dev.        726.908 1448.9271   967.976 1395.2965 1206.7806 1484.5906 1137.6364 1263.3224  1445.419 1226.0673
  weight sum            60       746       138      1890      1492       712      3233       337       218       299
  precision         1.0301    1.0301    1.0301    1.0301    1.0301    1.0301    1.0301    1.0301    1.0301    1.0301

2Int(dB)
  mean             -6.1379   -9.6448  -10.0976   -8.3608  -13.0898  -11.6424  -49.2213  -15.4568  -10.4698  -10.9675
  std. dev.         6.6753   11.2836   11.5475   12.3206   12.3207   13.0523   15.8212   13.1869   12.0458   11.7268
  weight sum            60       746       138      1890      1492       712      3233       337       218       299
  precision         0.1008    0.1008    0.1008    0.1008    0.1008    0.1008    0.1008    0.1008    0.1008    0.1008

2Pitch(Hz)
  mean            221.2274  168.4113  174.9356   190.138  155.7607  164.5924   15.8317   149.252   199.501  181.5295
  std. dev.        82.4547   97.9387   105.317  114.6509  104.1151  113.2428     54.56  106.8158   120.686  103.9694
  weight sum            60       746       138      1890      1492       712      3233       337       218       299
  precision         0.2034    0.2034    0.2034    0.2034    0.2034    0.2034    0.2034    0.2034    0.2034    0.2034

2RawPitch
  mean            212.0547  160.8464  150.5271  180.3583  142.5267  155.7527   12.9523   136.495  187.6775  174.3366
  std. dev.        91.4838  102.2888  108.0909  116.6238  109.7247  117.0548   48.8078  107.0008   120.986  107.6802
  weight sum            60       746       138      1890      1492       712      3233       337       218       299
  precision         0.2088    0.2088    0.2088    0.2088    0.2088    0.2088    0.2088    0.2088    0.2088    0.2088

2SmPitch
  mean            221.2718  165.6273  164.0951  188.3971  151.2408  162.0426   14.3648  144.1692  195.9784  180.2617
  std. dev.        82.4622  100.1622  102.8422  115.3301  106.5608  114.4287   51.0357   107.799  122.4742  105.3606
  weight sum            60       746       138      1890      1492       712      3233       337       218       299
  precision         0.2051    0.2051    0.2051    0.2051    0.2051    0.2051    0.2051    0.2051    0.2051    0.2051

2Melogram(st)
  mean             53.5545   45.4706   47.4754   46.8105   41.6848   43.3948    4.6675   40.6279   44.4291   47.4768
  std. dev.        13.7587   20.8835   18.4939    21.155   23.4856   23.1016   15.2484   24.0942    24.856   19.8068
  weight sum            60       746       138      1890      1492       712      3233       337       218       299
  precision         0.0353    0.0353    0.0353    0.0353    0.0353    0.0353    0.0353    0.0353    0.0353    0.0353

2ZCross
  mean              5.2394    4.2003    3.7167    5.5104    3.3499    3.4785    0.2555    2.3377    3.4504    3.0435
  std. dev.         2.9309    3.4667    3.2864    5.0123    3.5468    3.6204    1.3164    2.4394    3.5108    2.9836
  weight sum            60       746       138      1890      1492       712      3233       337       218       299
  precision         1.2727    1.2727    1.2727    1.2727    1.2727    1.2727    1.2727    1.2727    1.2727    1.2727

2F1(Hz)
  mean            542.8367  408.4223  522.7777  529.4474  463.0709  411.5688   58.3154  407.7017   424.862  443.7803
  std. dev.       156.1744  216.3841  201.8334  323.6171   248.144  260.2244  178.1822  248.5201  361.7064  220.7378
  weight sum            60       746       138      1890      1492       712      3233       337       218       299
  precision         0.5127    0.5127    0.5127    0.5127    0.5127    0.5127    0.5127    0.5127    0.5127    0.5127

2F2(Hz)
  mean           1756.0795 1477.3725 1525.1731 1361.4604 1389.7088 1085.7909  173.8413 1324.2072  924.4511 1499.8925
  std. dev.       411.9647  754.7082  570.7008  688.1141   699.115  674.5578  526.5742  747.2516  644.9976  665.9892
  weight sum            60       746       138      1890      1492       712      3233       337       218       299
  precision         0.6985    0.6985    0.6985    0.6985    0.6985    0.6985    0.6985    0.6985    0.6985    0.6985

2F3(Hz)
  mean           3081.6832 2285.1335 2573.9367  2367.033 2391.5917 2224.7554  296.3217 2250.5485 2177.1877 2515.1665
  std. dev.       617.6402 1133.2536  901.2684 1131.0152 1143.6625 1238.7361  875.1932 1218.0091 1282.0773 1019.8055
  weight sum            60       746       138      1890      1492       712      3233       337       218       299
  precision         1.0065    1.0065    1.0065    1.0065    1.0065    1.0065    1.0065    1.0065    1.0065    1.0065

2F4(Hz)
  mean           3039.3822 2766.3747 3029.4131 2763.8503 2763.1071 2567.4184  360.3981 2580.0546 2475.9112 2942.8455
  std. dev.       628.9464 1350.6568 1028.6692 1308.5676 1303.1062 1421.7151 1061.7969 1392.0022 1409.4738 1160.3327
  weight sum            60       746       138      1890      1492       712      3233       337       218       299
  precision         1.0301    1.0301    1.0301    1.0301    1.0301    1.0301    1.0301    1.0301    1.0301    1.0301

3Int(dB)
  mean             -6.5293   -7.2226  -12.3449   -6.7298  -14.6651   -9.7163  -50.1395  -17.6873   -8.0296   -12.305
  std. dev.         6.9159    9.4909   10.3558   10.7965   11.4502   12.1824   14.5069   13.1794    9.9998   11.5328
  weight sum            60       746       138      1890      1492       712      3233       337       218       299
  precision         0.1008    0.1008    0.1008    0.1008    0.1008    0.1008    0.1008    0.1008    0.1008    0.1008

3Pitch(Hz)
  mean            221.7155   183.146  161.6772  201.4316  140.3163  177.1418    12.238   127.298  221.0527  174.4724
  std. dev.         84.984   90.4096  107.4647  106.1983  109.7625  106.6856   48.3823  107.2039   98.5341  105.6613
  weight sum            60       746       138      1890      1492       712      3233       337       218       299
  precision         0.2034    0.2034    0.2034    0.2034    0.2034    0.2034    0.2034    0.2034    0.2034    0.2034

3RawPitch
  mean            211.8216  176.8718  134.4189  191.2939  126.8559  168.1349   10.0589  112.5307  210.2912  163.2284
  std. dev.        95.3224   96.4397  106.6169   109.731  112.9383   111.735   42.5778  104.6871  103.8231  110.9161
  weight sum            60       746       138      1890      1492       712      3233       337       218       299
  precision         0.2088    0.2088    0.2088    0.2088    0.2088    0.2088    0.2088    0.2088    0.2088    0.2088

3SmPitch
  mean            221.7299  181.1568   150.738  199.4931  135.4363  174.8902      10.7  122.8188  219.9482  171.9345
  std. dev.        84.9582   92.1927  103.6325  107.3956  111.5784  108.2193   43.9127  106.9613    99.473  107.9136
  weight sum            60       746       138      1890      1492       712      3233       337       218       299
  precision         0.2051    0.2051    0.2051    0.2051    0.2051    0.2051    0.2051    0.2051    0.2051    0.2051

3Melogram(st)
  mean             53.5228   49.1776   45.2162   49.6621   37.4676   46.5218    3.7068   36.1835   50.6374   45.7201
  std. dev.         13.838   17.1261   20.2304   18.1264   25.6049   20.6378    13.744   25.5985    19.473    21.266
  weight sum            60       746       138      1890      1492       712      3233       337       218       299
  precision         0.0353    0.0353    0.0353    0.0353    0.0353    0.0353    0.0353    0.0353    0.0353    0.0353

3ZCross
  mean              4.9424    4.6951    2.7115    5.7987     3.134    3.8039    0.1472    1.9148    3.4387    2.4688
  std. dev.         2.9031    3.4013    2.5858     4.683    4.0893    3.4966    0.8717    2.2553    3.0618    2.5057
  weight sum            60       746       138      1890      1492       712      3233       337       218       299
  precision         1.2727    1.2727    1.2727    1.2727    1.2727    1.2727    1.2727    1.2727    1.2727    1.2727

3F1(Hz)
  mean            535.1981  435.3843  487.8092  573.1489  417.7371  450.1528   45.7977  351.5923  462.9492  423.0991
  std. dev.       163.2022  182.9634    232.81  300.3065  267.8815  244.2194  157.8643  256.2341  332.7223  227.7907
  weight sum            60       746       138      1890      1492       712      3233       337       218       299
  precision         0.5127    0.5127    0.5127    0.5127    0.5127    0.5127    0.5127    0.5127    0.5127    0.5127

3F2(Hz)
  mean           1790.4456 1633.7862 1414.8511 1470.0692 1271.6816 1123.9385  138.8639 1181.2495  1000.033 1449.4723
  std. dev.       429.6425  662.2232  640.3559  613.6446  771.6061  603.6465  474.1163  807.7249   546.594  686.1573
  weight sum            60       746       138      1890      1492       712      3233       337       218       299
  precision         0.6985    0.6985    0.6985    0.6985    0.6985    0.6985    0.6985    0.6985    0.6985    0.6985

3F3(Hz)
  mean           3071.6857 2466.1143 2406.0546 2538.3662 2182.6296 2381.9061  236.9897 2007.9227  2460.271 2437.2044
  std. dev.       635.5128  983.2863 1054.0979  976.2802 1278.1936 1133.1835  790.4255 1341.2937 1089.2339 1070.9844
  weight sum            60       746       138      1890      1492       712      3233       337       218       299
  precision         1.0065    1.0065    1.0065    1.0065    1.0065    1.0065    1.0065    1.0065    1.0065    1.0065

3F4(Hz)
  mean            3056.979  2968.206 2858.1926 2957.8706 2529.2219 2739.0875  290.2613 2314.7376  2778.374  2883.526
  std. dev.       644.5346 1156.9806 1217.3342 1123.7659 1468.0016 1292.2218  965.8901 1539.0164 1167.5154 1232.2639
  weight sum            60       746       138      1890      1492       712      3233       337       218       299
  precision         1.0301    1.0301    1.0301    1.0301    1.0301    1.0301    1.0301    1.0301    1.0301    1.0301

4Int(dB)
  mean             -7.0534   -5.6493  -13.9655   -5.7449  -15.7971   -8.6644  -50.8619  -17.4982   -5.9413  -12.4527
  std. dev.         7.2104    8.2505    8.9902     9.854   10.0362   12.1183   13.3712   11.8095    8.0011   10.4872
  weight sum            60       746       138      1890      1492       712      3233       337       218       299
  precision         0.1008    0.1008    0.1008    0.1008    0.1008    0.1008    0.1008    0.1008    0.1008    0.1008

4Pitch(Hz)
  mean            218.8243  192.4898  152.2312  207.0853  132.8157  180.2959    8.6441  134.4525  232.3523  173.7208
  std. dev.        91.1227    85.636   105.769  101.2713  111.5383  103.4062   41.2323  102.4065   82.3117  104.0157
  weight sum            60       746       138      1890      1492       712      3233       337       218       299
  precision         0.2034    0.2034    0.2034    0.2034    0.2034    0.2034    0.2034    0.2034    0.2034    0.2034

4RawPitch
  mean             208.067  188.8553  123.0765  197.2545  116.9894  174.0908    6.9113  117.7033  222.5693  156.9007
  std. dev.       103.6798   89.4789  101.8456  105.5731  113.2715  108.0935   35.5147   100.554   89.8429  112.4322
  weight sum            60       746       138      1890      1492       712      3233       337       218       299
  precision         0.2088    0.2088    0.2088    0.2088    0.2088    0.2088    0.2088    0.2088    0.2088    0.2088

4SmPitch
  mean            218.8205  191.6241  141.6009  204.9536  126.5887   178.962    7.4208  129.9862  232.3227  169.8194
  std. dev.        91.1003   86.4181  100.3995   102.809   113.174  104.3249   36.4842  103.4114   82.2366  107.6346
  weight sum            60       746       138      1890      1492       712      3233       337       218       299
  precision         0.2051    0.2051    0.2051    0.2051    0.2051    0.2051    0.2051    0.2051    0.2051    0.2051

4Melogram(st)
  mean             52.6041   51.3162   42.7509   51.5425   34.9184   47.7311    2.7489   37.2674   54.9086   45.7719
  std. dev.         15.467   13.9659   21.9334    15.403   26.5879   19.2227   12.0084     25.16   12.8002   21.2519
  weight sum            60       746       138      1890      1492       712      3233       337       218       299
  precision         0.0352    0.0352    0.0352    0.0352    0.0352    0.0352    0.0352    0.0352    0.0352    0.0352

4ZCross
  mean              4.5394    4.8248    2.0843     5.996    3.0249    3.9665    0.0854    1.7259     3.573    2.2092
  std. dev.         2.7234    3.1533    2.0439    4.4913    4.5236    3.0096    0.6293    1.9229    2.8222     2.095
  weight sum            60       746       138      1890      1492       712      3233       337       218       299
  precision         1.2727    1.2727    1.2727    1.2727    1.2727    1.2727    1.2727    1.2727    1.2727    1.2727

4F1(Hz)
  mean            515.8111  468.1216  433.0067   615.906  368.2728  487.9887   33.6626  316.5033  498.1345  402.1692
  std. dev.       169.9361  135.4424  254.6457  272.7293  275.5213  219.6408  135.0393  252.9541  299.1257  226.7452
  weight sum            60       746       138      1890      1492       712      3233       337       218       299
  precision         0.5127    0.5127    0.5127    0.5127    0.5127    0.5127    0.5127    0.5127    0.5127    0.5127

4F2(Hz)
  mean           1760.2472 1802.3085 1302.5905 1566.9415  1148.689 1165.7924  104.6838 1089.5516 1080.7158 1402.7174
  std. dev.       487.7326  487.8366  701.6256  524.5783  816.6269  525.3227  416.0122  822.0275  431.8771  694.7863
  weight sum            60       746       138      1890      1492       712      3233       337       218       299
  precision         0.6985    0.6985    0.6985    0.6985    0.6985    0.6985    0.6985    0.6985    0.6985    0.6985

4F3(Hz)
  mean           3010.0232 2662.4498 2220.2677 2687.9673  1977.294 2534.4259  178.5819 1870.3153 2714.6841 2362.4099
  std. dev.       754.1328   729.876 1179.8092  790.7356 1368.7255  989.9708  694.2706   1399.63  768.9985 1105.7815
  weight sum            60       746       138      1890      1492       712      3233       337       218       299
  precision         1.0065    1.0065    1.0065    1.0065    1.0065    1.0065    1.0065    1.0065    1.0065    1.0065

4F4(Hz)
  mean           3016.1717 3199.5596 2671.4019 3127.4192 2295.2013 2913.9175  220.0468 2143.5804  3074.217 2816.8308
  std. dev.       763.1423  841.1377 1380.3083  903.1757 1579.9142 1121.3472  853.3303 1592.9551  772.1011 1281.9538
  weight sum            60       746       138      1890      1492       712      3233       337       218       299
  precision         1.0301    1.0301    1.0301    1.0301    1.0301    1.0301    1.0301    1.0301    1.0301    1.0301





=== Stratified cross-validation ===

Correctly Classified Instances        3744               41.0301 %
Incorrectly Classified Instances      5381               58.9699 %
Kappa statistic                          0.3005
K&B Relative Info Score             247083.8821 %
K&B Information Score                 6467.6602 bits      0.7088 bits/instance
Class complexity | order 0           23867.9778 bits      2.6157 bits/instance
Class complexity | scheme           201698.7263 bits     22.104  bits/instance
Complexity improvement     (Sf)    -177830.7484 bits    -19.4883 bits/instance
Mean absolute error                      0.1175
Root mean squared error                  0.3243
Relative absolute error                 74.4517 %
Root relative squared error            115.4787 %
Coverage of cases (0.95 level)          49.0521 %
Mean rel. region size (0.95 level)      14.9392 %
Total Number of Instances             9125     


=== Detailed Accuracy By Class ===

                 TP Rate  FP Rate  Precision  Recall   F-Measure  MCC      ROC Area  PRC Area  Class
                 0,800    0,296    0,018      0,800    0,034      0,089    0,801     0,023     C
                 0,161    0,052    0,216      0,161    0,184      0,125    0,763     0,200     E
                 0,217    0,063    0,050      0,217    0,082      0,076    0,750     0,039     FV
                 0,170    0,024    0,647      0,170    0,270      0,261    0,791     0,488     AI
                 0,103    0,018    0,528      0,103    0,172      0,178    0,739     0,367     CDGKNRSYZ
                 0,097    0,036    0,184      0,097    0,127      0,082    0,723     0,153     O
                 0,894    0,062    0,888      0,894    0,891      0,831    0,947     0,890     0
                 0,228    0,061    0,125      0,228    0,161      0,125    0,741     0,100     LT
                 0,161    0,016    0,196      0,161    0,176      0,159    0,844     0,153     U
                 0,003    0,003    0,033      0,003    0,006      0,000    0,712     0,060     MBP
Weighted Avg.    0,410    0,043    0,578      0,410    0,436      0,404    0,826     0,515     


=== Confusion Matrix ===

    a    b    c    d    e    f    g    h    i    j   <-- classified as
   48    1    3    3    1    1    0    1    2    0 |    a = C
  413  120   42   29   14   61   19   33   14    1 |    b = E
   62    7   30    4    8    3    8   13    1    2 |    c = FV
  860  189  118  322   41  157   60   87   50    6 |    d = AI
  614   89  183   55  153   29  151  198   18    2 |    e = CDGKNRSYZ
  300   65   65   50   16   69   66   39   42    0 |    f = O
   87   10   70    4   40    5 2889  120    3    5 |    g = 0
  130   27   41    2    7   11   39   77    3    0 |    h = LT
   72   13   11   20    5   29    5   15   35   13 |    i = U
  145   34   33    9    5   11   16   34   11    1 |    j = MBP

=== Percent Confusion Matrix ===
a	b	c	d	e	f	g	h	i	j	
80.0	1.67	5.0	5.0	1.67	1.67	0.0	1.67	3.33	0.0	 a = C
55.36	16.09	5.63	3.89	1.88	8.18	2.55	4.42	1.88	0.13	 b = E
44.93	5.07	21.74	2.9	5.8	2.17	5.8	9.42	0.72	1.45	 c = FV
45.5	10.0	6.24	17.04	2.17	8.31	3.17	4.6	2.65	0.32	 d = AI
41.15	5.97	12.27	3.69	10.25	1.94	10.12	13.27	1.21	0.13	 e = CDGKNRSYZ
42.13	9.13	9.13	7.02	2.25	9.69	9.27	5.48	5.9	0.0	 f = O
2.69	0.31	2.17	0.12	1.24	0.15	89.36	3.71	0.09	0.15	 g = 0
38.58	8.01	12.17	0.59	2.08	3.26	11.57	22.85	0.89	0.0	 h = LT
33.03	5.96	5.05	9.17	2.29	13.3	2.29	6.88	16.06	5.96	 i = U
48.49	11.37	11.04	3.01	1.67	3.68	5.35	11.37	3.68	0.33	 j = MBP
