Timestamp:2014-12-07-11:17:15
Inventario:I4
Intervalo:3ms
Ngramas:4
Clasificador:NaiveBayes
Relation Name:  I4-3ms-4gramas
Num Instances:  61132
Num Attributes: 41

     Name                      Type  Nom  Int Real     Missing      Unique  Dist
   1 0Int(dB)                   Num   0%  10%  90%     0 /  0%     2 /  0%   776 
   2 0Pitch(Hz)                 Num   0%  52%  48%     0 /  0%   559 /  1%  3828 
   3 0RawPitch                  Num   0%  55%  45%     0 /  0%   613 /  1%  3808 
   4 0SmPitch                   Num   0%  53%  47%     0 /  0%   575 /  1%  3802 
   5 0Melogram(st)              Num   0%  49%  51%     0 /  0%   269 /  0%  3285 
   6 0ZCross                    Num   0% 100%   0%     0 /  0%     3 /  0%    50 
   7 0F1(Hz)                    Num   0%  52%  48%     0 /  0%  1075 /  2%  4783 
   8 0F2(Hz)                    Num   0%  52%  48%     0 /  0%  2270 /  4%  6724 
   9 0F3(Hz)                    Num   0%  52%  48%     0 /  0%  1945 /  3%  6241 
  10 0F4(Hz)                    Num   0%  52%  48%     0 /  0%  1922 /  3%  6122 
  11 1Int(dB)                   Num   0%  10%  90%     0 /  0%     2 /  0%   776 
  12 1Pitch(Hz)                 Num   0%  52%  48%     0 /  0%   559 /  1%  3828 
  13 1RawPitch                  Num   0%  55%  45%     0 /  0%   613 /  1%  3808 
  14 1SmPitch                   Num   0%  53%  47%     0 /  0%   575 /  1%  3802 
  15 1Melogram(st)              Num   0%  49%  51%     0 /  0%   269 /  0%  3285 
  16 1ZCross                    Num   0% 100%   0%     0 /  0%     3 /  0%    50 
  17 1F1(Hz)                    Num   0%  52%  48%     0 /  0%  1075 /  2%  4783 
  18 1F2(Hz)                    Num   0%  52%  48%     0 /  0%  2270 /  4%  6724 
  19 1F3(Hz)                    Num   0%  52%  48%     0 /  0%  1945 /  3%  6241 
  20 1F4(Hz)                    Num   0%  52%  48%     0 /  0%  1922 /  3%  6122 
  21 2Int(dB)                   Num   0%  10%  90%     0 /  0%     2 /  0%   776 
  22 2Pitch(Hz)                 Num   0%  52%  48%     0 /  0%   559 /  1%  3828 
  23 2RawPitch                  Num   0%  55%  45%     0 /  0%   613 /  1%  3808 
  24 2SmPitch                   Num   0%  53%  47%     0 /  0%   575 /  1%  3802 
  25 2Melogram(st)              Num   0%  49%  51%     0 /  0%   269 /  0%  3285 
  26 2ZCross                    Num   0% 100%   0%     0 /  0%     3 /  0%    50 
  27 2F1(Hz)                    Num   0%  52%  48%     0 /  0%  1075 /  2%  4783 
  28 2F2(Hz)                    Num   0%  52%  48%     0 /  0%  2270 /  4%  6724 
  29 2F3(Hz)                    Num   0%  52%  48%     0 /  0%  1945 /  3%  6241 
  30 2F4(Hz)                    Num   0%  52%  48%     0 /  0%  1922 /  3%  6122 
  31 3Int(dB)                   Num   0%  10%  90%     0 /  0%     3 /  0%   777 
  32 3Pitch(Hz)                 Num   0%  52%  48%     0 /  0%   559 /  1%  3828 
  33 3RawPitch                  Num   0%  55%  45%     0 /  0%   613 /  1%  3808 
  34 3SmPitch                   Num   0%  53%  47%     0 /  0%   575 /  1%  3802 
  35 3Melogram(st)              Num   0%  49%  51%     0 /  0%   269 /  0%  3285 
  36 3ZCross                    Num   0% 100%   0%     0 /  0%     3 /  0%    50 
  37 3F1(Hz)                    Num   0%  52%  48%     0 /  0%  1075 /  2%  4783 
  38 3F2(Hz)                    Num   0%  52%  48%     0 /  0%  2270 /  4%  6724 
  39 3F3(Hz)                    Num   0%  52%  48%     0 /  0%  1945 /  3%  6241 
  40 3F4(Hz)                    Num   0%  52%  48%     0 /  0%  1922 /  3%  6122 
  41 class                      Nom 100%   0%   0%     0 /  0%     0 /  0%    10 


Naive Bayes Classifier

                    Class
Attribute               C         E        FV        AI CDGKNRSYZ         O         0        LT         U       MBP
                   (0.01)    (0.08)    (0.01)     (0.2)    (0.16)    (0.07)    (0.39)    (0.04)    (0.02)    (0.03)
====================================================================================================================
0Int(dB)
  mean             -7.5492   -5.4866   -14.804   -5.3074  -15.8975   -8.2804  -48.1806  -18.3097   -5.8577  -13.0129
  std. dev.         7.9239    8.4392    9.1123    9.7674   10.2576   12.0927   16.4083    12.504    8.6173   11.1545
  weight sum           363      4621       864     11967      9576      4463     23723      2221      1386      1948
  precision         0.1044    0.1044    0.1044    0.1044    0.1044    0.1044    0.1044    0.1044    0.1044    0.1044

0Pitch(Hz)
  mean            212.6535  187.5772  135.8817  205.9838  120.4325  179.1099   17.3499   114.616  226.2021  158.7755
  std. dev.        98.6194   89.3537  107.8471  104.9439  114.0782  106.1835   57.3358  105.0049   89.9667  112.1053
  weight sum           363      4621       864     11967      9576      4463     23723      2221      1386      1948
  precision         0.1303    0.1303    0.1303    0.1303    0.1303    0.1303    0.1303    0.1303    0.1303    0.1303

0RawPitch
  mean             201.784  183.2465  109.9703  195.9835  103.9139  172.4006   14.2567   94.9649  217.6541  146.1731
  std. dev.        110.061   95.6687  104.6772  110.6213   114.699  112.8726   51.6692    102.52   96.8389  116.9415
  weight sum           363      4621       864     11967      9576      4463     23723      2221      1386      1948
  precision          0.131     0.131     0.131     0.131     0.131     0.131     0.131     0.131     0.131     0.131

0SmPitch
  mean            211.1034  185.6219  125.7035  203.7581  114.3506  176.7887    15.688  108.5613  225.9095  154.8711
  std. dev.       100.4567    90.965  105.4709  106.7382  114.6026  108.4257   53.4934  104.5124   89.8265  114.2773
  weight sum           363      4621       864     11967      9576      4463     23723      2221      1386      1948
  precision         0.1312    0.1312    0.1312    0.1312    0.1312    0.1312    0.1312    0.1312    0.1312    0.1312

0Melogram(st)
  mean             51.4516   49.8961   37.8284   50.4327   31.3962   46.6075    5.0777   32.0012   52.9335   41.3347
  std. dev.        17.2291   16.2028   24.6828   17.3404   27.3039   20.5184   15.8342   26.5758   16.2835   24.4629
  weight sum           363      4621       864     11967      9576      4463     23723      2221      1386      1948
  precision         0.0252    0.0252    0.0252    0.0252    0.0252    0.0252    0.0252    0.0252    0.0252    0.0252

0ZCross
  mean              4.4416    4.9388    2.0007     6.302    3.1761    4.0249    0.2622    1.8153     3.755    2.3235
  std. dev.         2.8337    3.2469    2.0822     4.582    5.0768    3.0126    1.1593     2.165    2.8542     2.129
  weight sum           363      4621       864     11967      9576      4463     23723      2221      1386      1948
  precision         1.1633    1.1633    1.1633    1.1633    1.1633    1.1633    1.1633    1.1633    1.1633    1.1633

0F1(Hz)
  mean            497.8616  453.7041  403.0001  603.9955  341.8812  473.8855   56.1633   292.488  484.7897  374.9867
  std. dev.       192.5218  159.4091  276.2591  290.3548  283.1686  232.8436  170.5731  256.6749  320.1911  239.5169
  weight sum           363      4621       864     11967      9576      4463     23723      2221      1386      1948
  precision         0.3642    0.3642    0.3642    0.3642    0.3642    0.3642    0.3642    0.3642    0.3642    0.3642

0F2(Hz)
  mean           1705.7219 1736.7393 1201.2387 1518.4156 1062.3882 1133.1742  174.9407 1011.3897 1019.5348 1317.4527
  std. dev.        579.874  582.7337  764.2508  575.4222  840.1812  558.0272  525.3081  842.6537  469.8361  757.5471
  weight sum           363      4621       864     11967      9576      4463     23723      2221      1386      1948
  precision         0.4431    0.4431    0.4431    0.4431    0.4431    0.4431    0.4431    0.4431    0.4431    0.4431

0F3(Hz)
  mean           2912.7207 2562.5981 2053.3107 2609.0607 1836.3653  2458.752  299.0207 1728.6555 2579.3441 2214.3535
  std. dev.       908.2088   862.118 1292.4335  894.9013 1419.5986 1061.5374  881.6728 1430.1786  919.5861 1214.8583
  weight sum           363      4621       864     11967      9576      4463     23723      2221      1386      1948
  precision         0.6602    0.6602    0.6602    0.6602    0.6602    0.6602    0.6602    0.6602    0.6602    0.6602

0F4(Hz)
  mean           2945.4874 3093.8052  2442.436 3045.1246 2117.0015 2833.3702  358.9696 1989.6135 2956.7717 2641.6647
  std. dev.       920.2088 1009.5134 1504.0848 1026.6282  1627.545 1207.9571 1056.2181 1633.7892   976.944 1419.2169
  weight sum           363      4621       864     11967      9576      4463     23723      2221      1386      1948
  precision         0.6775    0.6775    0.6775    0.6775    0.6775    0.6775    0.6775    0.6775    0.6775    0.6775

1Int(dB)
  mean             -7.6283   -5.3093   -14.929   -5.2102   -15.983    -8.186  -48.3097  -17.9339   -5.5524  -12.8391
  std. dev.         7.9844    8.2373    8.9669    9.6464   10.0795   12.1008   16.2244   12.2762    8.2298   10.9656
  weight sum           363      4621       864     11967      9576      4463     23723      2221      1386      1948
  precision         0.1044    0.1044    0.1044    0.1044    0.1044    0.1044    0.1044    0.1044    0.1044    0.1044

1Pitch(Hz)
  mean            212.4122  188.9058  134.5242  206.6873  119.3567  179.2936   16.8268   117.087  228.1408  158.9902
  std. dev.        99.4933   88.6428  107.5224  104.3287  114.2582  105.6064   56.5394  104.7279   87.2319  111.5792
  weight sum           363      4621       864     11967      9576      4463     23723      2221      1386      1948
  precision         0.1303    0.1303    0.1303    0.1303    0.1303    0.1303    0.1303    0.1303    0.1303    0.1303

1RawPitch
  mean            200.9562  184.5166  108.9501  196.8118  102.5504  173.0126   13.7996   96.7652  219.2103  146.3863
  std. dev.       111.3443   95.0659  104.2181  110.0777  114.5772  112.4306   50.8231  102.2822   94.8961  116.5641
  weight sum           363      4621       864     11967      9576      4463     23723      2221      1386      1948
  precision          0.131     0.131     0.131     0.131     0.131     0.131     0.131     0.131     0.131     0.131

1SmPitch
  mean            210.8602  187.1933  124.4425  204.4955  113.1201  177.1572   15.1837  110.6942  227.7542  154.8208
  std. dev.       101.3118   90.0322  105.0137  106.1161  114.7002  107.7873    52.655   104.402   87.2767  113.9964
  weight sum           363      4621       864     11967      9576      4463     23723      2221      1386      1948
  precision         0.1312    0.1312    0.1312    0.1312    0.1312    0.1312    0.1312    0.1312    0.1312    0.1312

1Melogram(st)
  mean             51.3216   50.2427   37.5734   50.6489   31.0416   46.6963    4.9552   32.5569   53.5545   41.2774
  std. dev.        17.4461   15.7114   24.7697   17.0322   27.3693    20.402   15.6689   26.4937    15.256   24.4581
  weight sum           363      4621       864     11967      9576      4463     23723      2221      1386      1948
  precision         0.0252    0.0252    0.0252    0.0252    0.0252    0.0252    0.0252    0.0252    0.0252    0.0252

1ZCross
  mean              4.3935    4.9486    1.9576    6.3241    3.1738    4.0411    0.2433      1.84    3.7945    2.3403
  std. dev.         2.7825    3.2071    2.0438    4.5652    5.1371    2.9298    1.0804    2.1311    2.8295    2.1047
  weight sum           363      4621       864     11967      9576      4463     23723      2221      1386      1948
  precision         1.1633    1.1633    1.1633    1.1633    1.1633    1.1633    1.1633    1.1633    1.1633    1.1633

1F1(Hz)
  mean            495.6713  458.5411  395.5357  610.0629  334.6439  479.3315   54.3895  289.4781  491.2079  373.5242
  std. dev.       192.9817  152.8966  277.2043  286.1205  282.9319  229.0643  167.8384  255.0441  314.7115  238.3426
  weight sum           363      4621       864     11967      9576      4463     23723      2221      1386      1948
  precision         0.3642    0.3642    0.3642    0.3642    0.3642    0.3642    0.3642    0.3642    0.3642    0.3642

1F2(Hz)
  mean           1698.0593 1759.9732 1189.2807 1532.9358 1043.5831  1139.398  169.8291 1007.0508 1035.0423 1314.2158
  std. dev.       587.1878  557.1365  769.1361  562.4877  842.7299  546.4539  518.3795  843.0364  450.7523  754.2105
  weight sum           363      4621       864     11967      9576      4463     23723      2221      1386      1948
  precision         0.4431    0.4431    0.4431    0.4431    0.4431    0.4431    0.4431    0.4431    0.4431    0.4431

1F3(Hz)
  mean           2903.3775 2590.6505 2031.3736 2631.1089 1805.4769 2481.3348  290.0636 1720.5729 2624.5033 2210.1004
  std. dev.       921.0225   826.473 1301.0849  867.5262 1426.5037 1040.3144  869.7714 1432.6985  861.9955 1211.2692
  weight sum           363      4621       864     11967      9576      4463     23723      2221      1386      1948
  precision         0.6602    0.6602    0.6602    0.6602    0.6602    0.6602    0.6602    0.6602    0.6602    0.6602

1F4(Hz)
  mean           2939.9367 3124.7953 2420.8547 3069.5545 2082.1912 2858.4583  348.5251  1981.424 3006.9754 2643.1324
  std. dev.       934.5647  964.1286 1516.4414  993.8675 1636.7194 1181.9837 1042.8106 1637.3955  902.9144 1417.9475
  weight sum           363      4621       864     11967      9576      4463     23723      2221      1386      1948
  precision         0.6775    0.6775    0.6775    0.6775    0.6775    0.6775    0.6775    0.6775    0.6775    0.6775

2Int(dB)
  mean             -7.6838   -5.2147  -14.9846   -5.1674  -16.0167   -8.1561  -48.4236  -17.4136   -5.2953  -12.5947
  std. dev.         8.0063    8.1108    8.8593    9.5835    9.9461   12.1343   16.0585   12.0707    7.8625   10.7736
  weight sum           363      4621       864     11967      9576      4463     23723      2221      1386      1948
  precision         0.1044    0.1044    0.1044    0.1044    0.1044    0.1044    0.1044    0.1044    0.1044    0.1044

2Pitch(Hz)
  mean            212.1825  190.0809  133.2458   206.983  118.8709    179.07    16.255  120.7679   229.415  159.7556
  std. dev.       100.3526   87.8538  107.2688  104.0507  114.4465  105.2101   55.6494  104.6086   85.2349  110.8403
  weight sum           363      4621       864     11967      9576      4463     23723      2221      1386      1948
  precision         0.1303    0.1303    0.1303    0.1303    0.1303    0.1303    0.1303    0.1303    0.1303    0.1303

2RawPitch
  mean            201.2961  185.5537  108.1776  197.3055  101.6391  172.9408   13.3305   99.6532  220.5485  147.2848
  std. dev.        111.593   94.6689  103.4633  109.7358  114.4784  112.1655   50.0229  102.4782   93.0837  115.9925
  weight sum           363      4621       864     11967      9576      4463     23723      2221      1386      1948
  precision          0.131     0.131     0.131     0.131     0.131     0.131     0.131     0.131     0.131     0.131

2SmPitch
  mean              210.63  188.4788  123.2631  204.8418  112.4585   176.912    14.661  114.3682  229.0404   155.285
  std. dev.       102.1531   89.1689  104.6396   105.801  114.8046  107.4207   51.7914  104.6114   85.2781  113.4942
  weight sum           363      4621       864     11967      9576      4463     23723      2221      1386      1948
  precision         0.1312    0.1312    0.1312    0.1312    0.1312    0.1312    0.1312    0.1312    0.1312    0.1312

2Melogram(st)
  mean             51.1937   50.4808   37.3343   50.7688   30.8483    46.671     4.814   33.3936   54.1306   41.4703
  std. dev.        17.6599   15.3557   24.8638   16.8412   27.4182   20.3864   15.4728   26.3501   14.2012   24.3086
  weight sum           363      4621       864     11967      9576      4463     23723      2221      1386      1948
  precision         0.0252    0.0252    0.0252    0.0252    0.0252    0.0252    0.0252    0.0252    0.0252    0.0252

2ZCross
  mean              4.3679    4.9388    1.9347    6.3314     3.177    4.0484    0.2298    1.9023    3.8272    2.3719
  std. dev.         2.7571    3.1975    2.0238    4.5552    5.1616    2.8985    1.0465    2.1208    2.8121    2.0915
  weight sum           363      4621       864     11967      9576      4463     23723      2221      1386      1948
  precision         1.1633    1.1633    1.1633    1.1633    1.1633    1.1633    1.1633    1.1633    1.1633    1.1633

2F1(Hz)
  mean            493.7188  462.8688  388.2589  615.2697  328.3257   483.672   52.7243  289.4672  496.5514  372.4682
  std. dev.       193.5409  146.9719  277.0199  282.5313  282.4216  226.1449  165.2517  253.6685  309.2602  237.0685
  weight sum           363      4621       864     11967      9576      4463     23723      2221      1386      1948
  precision         0.3642    0.3642    0.3642    0.3642    0.3642    0.3642    0.3642    0.3642    0.3642    0.3642

2F2(Hz)
  mean           1690.1635 1781.0424 1180.6948 1544.8658 1027.2119 1142.8991   165.052 1010.6667 1050.0402  1312.066
  std. dev.       594.0469  532.5896  774.0059  551.4583  844.2196  536.7971  511.9569  841.9232  432.2873  750.4882
  weight sum           363      4621       864     11967      9576      4463     23723      2221      1386      1948
  precision         0.4431    0.4431    0.4431    0.4431    0.4431    0.4431    0.4431    0.4431    0.4431    0.4431

2F3(Hz)
  mean           2894.0835 2615.4812 2012.5832 2649.4886 1778.7915 2498.5172   281.585 1726.9507 2665.1247  2207.248
  std. dev.        933.351  792.6591  1307.812  844.1952 1431.4769 1024.1918  858.2791 1432.7821  803.6971 1206.6787
  weight sum           363      4621       864     11967      9576      4463     23723      2221      1386      1948
  precision         0.6602    0.6602    0.6602    0.6602    0.6602    0.6602    0.6602    0.6602    0.6602    0.6602

2F4(Hz)
  mean           2934.4812 3152.5297 2403.3745 3089.3267  2052.915 2876.7808  338.5934 1989.0321 3052.6473 2646.3634
  std. dev.       948.5863  921.2174 1526.7311  965.8544 1644.1525 1161.8705 1029.7085 1637.5802  827.1813 1415.4829
  weight sum           363      4621       864     11967      9576      4463     23723      2221      1386      1948
  precision         0.6775    0.6775    0.6775    0.6775    0.6775    0.6775    0.6775    0.6775    0.6775    0.6775

3Int(dB)
  mean             -7.7144   -5.2154  -14.9663   -5.1844   -15.988    -8.205  -48.5188  -16.7493   -5.0964  -12.2908
  std. dev.         7.9877     8.061    8.8198    9.5792    9.8675   12.2015   15.9248   11.9026    7.5403   10.5869
  weight sum           363      4621       864     11967      9576      4463     23723      2221      1386      1948
  precision         0.1043    0.1043    0.1043    0.1043    0.1043    0.1043    0.1043    0.1043    0.1043    0.1043

3Pitch(Hz)
  mean            211.9581  190.6854  132.7243  206.9409  118.9882  178.3171   15.7176  125.1058   230.256  161.0025
  std. dev.        101.191   87.4198  107.1636  104.0213  114.6785  105.1185   54.8022  104.5268   83.5916  109.8138
  weight sum           363      4621       864     11967      9576      4463     23723      2221      1386      1948
  precision         0.1303    0.1303    0.1303    0.1303    0.1303    0.1303    0.1303    0.1303    0.1303    0.1303

3RawPitch
  mean            201.5263  186.0468  107.6938  197.3354  101.3949  172.3446   12.8477  104.3586   221.377  148.5952
  std. dev.       111.8555   94.2836  102.8608  109.7747   114.525   111.886   49.2594  103.1783   91.8259  115.2511
  weight sum           363      4621       864     11967      9576      4463     23723      2221      1386      1948
  precision          0.131     0.131     0.131     0.131     0.131     0.131     0.131     0.131     0.131     0.131

3SmPitch
  mean            210.4051  189.2421  123.0119   204.867  112.3342  176.2127   14.1443   118.741   229.966  156.3345
  std. dev.       102.9728   88.6477  104.4081   105.724  114.9823  107.2818   50.9163  104.8018   83.6261  112.6809
  weight sum           363      4621       864     11967      9576      4463     23723      2221      1386      1948
  precision         0.1312    0.1312    0.1312    0.1312    0.1312    0.1312    0.1312    0.1312    0.1312    0.1312

3Melogram(st)
  mean             51.0657   50.6147   37.2513   50.8126   30.7905   46.5702    4.6714   34.4319   54.4863   41.7583
  std. dev.        17.8701   15.1287    24.928    16.748   27.4606    20.439   15.2688   26.1315   13.4335   24.1126
  weight sum           363      4621       864     11967      9576      4463     23723      2221      1386      1948
  precision         0.0252    0.0252    0.0252    0.0252    0.0252    0.0252    0.0252    0.0252    0.0252    0.0252

3ZCross
  mean              4.3582    4.9156    1.9401    6.3221    3.1839    4.0424    0.2221    2.0049    3.8515    2.4227
  std. dev.         2.7159    3.2034    2.0364     4.559    5.1652    2.9091    1.0405    2.1254    2.7932    2.0849
  weight sum           363      4621       864     11967      9576      4463     23723      2221      1386      1948
  precision         1.1633    1.1633    1.1633    1.1633    1.1633    1.1633    1.1633    1.1633    1.1633    1.1633

3F1(Hz)
  mean            493.2121  466.9426  381.3156  619.6746  322.8712  486.8876    50.977  292.6928  501.4313  372.4935
  std. dev.       192.4513  141.0764  276.5899  279.6222  281.5409  224.2029  162.6196  252.1069  304.2361  235.5015
  weight sum           363      4621       864     11967      9576      4463     23723      2221      1386      1948
  precision         0.3642    0.3642    0.3642    0.3642    0.3642    0.3642    0.3642    0.3642    0.3642    0.3642

3F2(Hz)
  mean           1687.2659 1800.7234 1172.6362 1554.5292 1014.0562 1143.6165   159.708 1024.8012 1063.4653 1312.5688
  std. dev.       594.1662  507.5736  779.2046  542.2833  845.1049  529.3781  504.5026   839.475  414.3404  745.4148
  weight sum           363      4621       864     11967      9576      4463     23723      2221      1386      1948
  precision         0.4431    0.4431    0.4431    0.4431    0.4431    0.4431    0.4431    0.4431    0.4431    0.4431

3F3(Hz)
  mean           2893.5233  2638.722 1994.0357 2664.5767 1757.0647 2509.8227  272.3175 1750.6962  2701.015 2208.9124
  std. dev.       933.1946  758.2975 1314.2962  824.7762 1434.8075 1013.4676  845.5277 1429.9932  745.1651 1199.4463
  weight sum           363      4621       864     11967      9576      4463     23723      2221      1386      1948
  precision         0.6602    0.6602    0.6602    0.6602    0.6602    0.6602    0.6602    0.6602    0.6602    0.6602

3F4(Hz)
  mean           2936.8721  3179.034 2385.6763 3105.1123  2029.654  2888.156  327.6521 2016.9519 3093.8479 2654.3032
  std. dev.       950.2793  877.8457 1536.6667  942.4481 1649.8841 1148.0627 1014.9538 1634.5631  750.1771 1409.2849
  weight sum           363      4621       864     11967      9576      4463     23723      2221      1386      1948
  precision         0.6775    0.6775    0.6775    0.6775    0.6775    0.6775    0.6775    0.6775    0.6775    0.6775





=== Stratified cross-validation ===

Correctly Classified Instances       31177               50.9995 %
Incorrectly Classified Instances     29955               49.0005 %
Kappa statistic                          0.3748
K&B Relative Info Score            2200152.5863 %
K&B Information Score                56188.0369 bits      0.9191 bits/instance
Class complexity | order 0          156104.8787 bits      2.5536 bits/instance
Class complexity | scheme          1361627.3627 bits     22.2736 bits/instance
Complexity improvement     (Sf)    -1205522.484 bits    -19.72   bits/instance
Mean absolute error                      0.0982
Root mean squared error                  0.2929
Relative absolute error                 63.54   %
Root relative squared error            105.4033 %
Coverage of cases (0.95 level)          58.2935 %
Mean rel. region size (0.95 level)      14.905  %
Total Number of Instances            61132     


=== Detailed Accuracy By Class ===

                 TP Rate  FP Rate  Precision  Recall   F-Measure  MCC      ROC Area  PRC Area  Class
                 0,154    0,017    0,052      0,154    0,077      0,080    0,767     0,025     C
                 0,723    0,247    0,193      0,723    0,305      0,279    0,830     0,284     E
                 0,082    0,034    0,033      0,082    0,047      0,031    0,735     0,030     FV
                 0,365    0,034    0,723      0,365    0,485      0,440    0,847     0,607     AI
                 0,105    0,008    0,722      0,105    0,184      0,238    0,733     0,371     CDGKNRSYZ
                 0,035    0,006    0,308      0,035    0,063      0,083    0,768     0,177     O
                 0,895    0,140    0,802      0,895    0,846      0,742    0,911     0,822     0
                 0,086    0,026    0,110      0,086    0,096      0,067    0,715     0,075     LT
                 0,530    0,055    0,183      0,530    0,272      0,285    0,872     0,354     U
                 0,013    0,007    0,058      0,013    0,022      0,013    0,722     0,058     MBP
Weighted Avg.    0,510    0,084    0,614      0,510    0,491      0,449    0,837     0,543     


=== Confusion Matrix ===

     a     b     c     d     e     f     g     h     i     j   <-- classified as
    56   205     7    24     1     0    22     7    41     0 |     a = C
   259  3342   105   357    43     7   182   141   127    58 |     b = E
    14   403    71    56    23    11   209    39    33     5 |     c = FV
   190  4826   380  4371   153    85   631   275   958    98 |     d = AI
   349  3107   670   508  1009   104  2625   433   654   117 |     e = CDGKNRSYZ
    38  2008   240   357    42   157   475   136   981    29 |     f = O
    48  1166   420   145    69    98 21221   310   187    59 |     g = 0
    55   932   108    41    38    20   710   190    81    46 |     h = LT
    18   363    36    97     3    16    28    77   734    14 |     i = U
    60   955   102    89    16    12   358   117   213    26 |     j = MBP

=== Percent Confusion Matrix ===
a	b	c	d	e	f	g	h	i	j	
15.43	56.47	1.93	6.61	0.28	0.0	6.06	1.93	11.29	0.0	 a = C
5.6	72.32	2.27	7.73	0.93	0.15	3.94	3.05	2.75	1.26	 b = E
1.62	46.64	8.22	6.48	2.66	1.27	24.19	4.51	3.82	0.58	 c = FV
1.59	40.33	3.18	36.53	1.28	0.71	5.27	2.3	8.01	0.82	 d = AI
3.64	32.45	7.0	5.3	10.54	1.09	27.41	4.52	6.83	1.22	 e = CDGKNRSYZ
0.85	44.99	5.38	8.0	0.94	3.52	10.64	3.05	21.98	0.65	 f = O
0.2	4.92	1.77	0.61	0.29	0.41	89.45	1.31	0.79	0.25	 g = 0
2.48	41.96	4.86	1.85	1.71	0.9	31.97	8.55	3.65	2.07	 h = LT
1.3	26.19	2.6	7.0	0.22	1.15	2.02	5.56	52.96	1.01	 i = U
3.08	49.02	5.24	4.57	0.82	0.62	18.38	6.01	10.93	1.33	 j = MBP
