Timestamp:2014-12-07-11:17:00
Inventario:I4
Intervalo:3ms
Ngramas:3
Clasificador:NaiveBayes
Relation Name:  I4-3ms-3gramas
Num Instances:  61133
Num Attributes: 31

     Name                      Type  Nom  Int Real     Missing      Unique  Dist
   1 0Int(dB)                   Num   0%  10%  90%     0 /  0%     2 /  0%   776 
   2 0Pitch(Hz)                 Num   0%  52%  48%     0 /  0%   559 /  1%  3828 
   3 0RawPitch                  Num   0%  55%  45%     0 /  0%   613 /  1%  3808 
   4 0SmPitch                   Num   0%  53%  47%     0 /  0%   575 /  1%  3802 
   5 0Melogram(st)              Num   0%  49%  51%     0 /  0%   269 /  0%  3285 
   6 0ZCross                    Num   0% 100%   0%     0 /  0%     3 /  0%    50 
   7 0F1(Hz)                    Num   0%  52%  48%     0 /  0%  1075 /  2%  4783 
   8 0F2(Hz)                    Num   0%  52%  48%     0 /  0%  2270 /  4%  6724 
   9 0F3(Hz)                    Num   0%  52%  48%     0 /  0%  1945 /  3%  6241 
  10 0F4(Hz)                    Num   0%  52%  48%     0 /  0%  1922 /  3%  6122 
  11 1Int(dB)                   Num   0%  10%  90%     0 /  0%     2 /  0%   776 
  12 1Pitch(Hz)                 Num   0%  52%  48%     0 /  0%   559 /  1%  3828 
  13 1RawPitch                  Num   0%  55%  45%     0 /  0%   613 /  1%  3808 
  14 1SmPitch                   Num   0%  53%  47%     0 /  0%   575 /  1%  3802 
  15 1Melogram(st)              Num   0%  49%  51%     0 /  0%   269 /  0%  3285 
  16 1ZCross                    Num   0% 100%   0%     0 /  0%     3 /  0%    50 
  17 1F1(Hz)                    Num   0%  52%  48%     0 /  0%  1075 /  2%  4783 
  18 1F2(Hz)                    Num   0%  52%  48%     0 /  0%  2270 /  4%  6724 
  19 1F3(Hz)                    Num   0%  52%  48%     0 /  0%  1945 /  3%  6241 
  20 1F4(Hz)                    Num   0%  52%  48%     0 /  0%  1922 /  3%  6122 
  21 2Int(dB)                   Num   0%  10%  90%     0 /  0%     3 /  0%   777 
  22 2Pitch(Hz)                 Num   0%  52%  48%     0 /  0%   559 /  1%  3828 
  23 2RawPitch                  Num   0%  55%  45%     0 /  0%   613 /  1%  3808 
  24 2SmPitch                   Num   0%  53%  47%     0 /  0%   575 /  1%  3802 
  25 2Melogram(st)              Num   0%  49%  51%     0 /  0%   269 /  0%  3285 
  26 2ZCross                    Num   0% 100%   0%     0 /  0%     3 /  0%    50 
  27 2F1(Hz)                    Num   0%  52%  48%     0 /  0%  1075 /  2%  4783 
  28 2F2(Hz)                    Num   0%  52%  48%     0 /  0%  2270 /  4%  6724 
  29 2F3(Hz)                    Num   0%  52%  48%     0 /  0%  1945 /  3%  6241 
  30 2F4(Hz)                    Num   0%  52%  48%     0 /  0%  1922 /  3%  6122 
  31 class                      Nom 100%   0%   0%     0 /  0%     0 /  0%    10 


Naive Bayes Classifier

                    Class
Attribute               C         E        FV        AI CDGKNRSYZ         O         0        LT         U       MBP
                   (0.01)    (0.08)    (0.01)     (0.2)    (0.16)    (0.07)    (0.39)    (0.04)    (0.02)    (0.03)
====================================================================================================================
0Int(dB)
  mean             -7.6283   -5.3093   -14.929   -5.2102   -15.983    -8.186  -48.3096  -17.9339   -5.5524  -12.8391
  std. dev.         7.9844    8.2373    8.9669    9.6464   10.0795   12.1008   16.2241   12.2762    8.2298   10.9656
  weight sum           363      4621       864     11967      9576      4463     23724      2221      1386      1948
  precision         0.1044    0.1044    0.1044    0.1044    0.1044    0.1044    0.1044    0.1044    0.1044    0.1044

0Pitch(Hz)
  mean            212.4122  188.9058  134.5242  206.6873  119.3567  179.2936   16.8261   117.087  228.1408  158.9902
  std. dev.        99.4933   88.6428  107.5224  104.3287  114.2582  105.6064   56.5383  104.7279   87.2319  111.5792
  weight sum           363      4621       864     11967      9576      4463     23724      2221      1386      1948
  precision         0.1303    0.1303    0.1303    0.1303    0.1303    0.1303    0.1303    0.1303    0.1303    0.1303

0RawPitch
  mean            200.9562  184.5166  108.9501  196.8118  102.5504  173.0126    13.799   96.7652  219.2103  146.3863
  std. dev.       111.3443   95.0659  104.2181  110.0777  114.5772  112.4306   50.8222  102.2822   94.8961  116.5641
  weight sum           363      4621       864     11967      9576      4463     23724      2221      1386      1948
  precision          0.131     0.131     0.131     0.131     0.131     0.131     0.131     0.131     0.131     0.131

0SmPitch
  mean            210.8602  187.1933  124.4425  204.4955  113.1201  177.1572    15.183  110.6942  227.7542  154.8208
  std. dev.       101.3118   90.0322  105.0137  106.1161  114.7002  107.7873    52.654   104.402   87.2767  113.9964
  weight sum           363      4621       864     11967      9576      4463     23724      2221      1386      1948
  precision         0.1312    0.1312    0.1312    0.1312    0.1312    0.1312    0.1312    0.1312    0.1312    0.1312

0Melogram(st)
  mean             51.3216   50.2427   37.5734   50.6489   31.0416   46.6963     4.955   32.5569   53.5545   41.2774
  std. dev.        17.4461   15.7114   24.7697   17.0322   27.3693    20.402   15.6686   26.4937    15.256   24.4581
  weight sum           363      4621       864     11967      9576      4463     23724      2221      1386      1948
  precision         0.0252    0.0252    0.0252    0.0252    0.0252    0.0252    0.0252    0.0252    0.0252    0.0252

0ZCross
  mean              4.3935    4.9486    1.9576    6.3241    3.1738    4.0411    0.2433      1.84    3.7945    2.3403
  std. dev.         2.7825    3.2071    2.0438    4.5652    5.1371    2.9298    1.0804    2.1311    2.8295    2.1047
  weight sum           363      4621       864     11967      9576      4463     23724      2221      1386      1948
  precision         1.1633    1.1633    1.1633    1.1633    1.1633    1.1633    1.1633    1.1633    1.1633    1.1633

0F1(Hz)
  mean            495.6713  458.5411  395.5357  610.0629  334.6439  479.3315   54.3872  289.4781  491.2079  373.5242
  std. dev.       192.9817  152.8966  277.2043  286.1205  282.9319  229.0643  167.8352  255.0441  314.7115  238.3426
  weight sum           363      4621       864     11967      9576      4463     23724      2221      1386      1948
  precision         0.3642    0.3642    0.3642    0.3642    0.3642    0.3642    0.3642    0.3642    0.3642    0.3642

0F2(Hz)
  mean           1698.0593 1759.9732 1189.2807 1532.9358 1043.5831  1139.398  169.8219 1007.0508 1035.0423 1314.2158
  std. dev.       587.1878  557.1365  769.1361  562.4877  842.7299  546.4539  518.3697  843.0364  450.7523  754.2105
  weight sum           363      4621       864     11967      9576      4463     23724      2221      1386      1948
  precision         0.4431    0.4431    0.4431    0.4431    0.4431    0.4431    0.4431    0.4431    0.4431    0.4431

0F3(Hz)
  mean           2903.3775 2590.6505 2031.3736 2631.1089 1805.4769 2481.3348  290.0514 1720.5729 2624.5033 2210.1004
  std. dev.       921.0225   826.473 1301.0849  867.5262 1426.5037 1040.3144  869.7551 1432.6985  861.9955 1211.2692
  weight sum           363      4621       864     11967      9576      4463     23724      2221      1386      1948
  precision         0.6602    0.6602    0.6602    0.6602    0.6602    0.6602    0.6602    0.6602    0.6602    0.6602

0F4(Hz)
  mean           2939.9367 3124.7953 2420.8547 3069.5545 2082.1912 2858.4583  348.5104  1981.424 3006.9754 2643.1324
  std. dev.       934.5647  964.1286 1516.4414  993.8675 1636.7194 1181.9837  1042.791 1637.3955  902.9144 1417.9475
  weight sum           363      4621       864     11967      9576      4463     23724      2221      1386      1948
  precision         0.6775    0.6775    0.6775    0.6775    0.6775    0.6775    0.6775    0.6775    0.6775    0.6775

1Int(dB)
  mean             -7.6838   -5.2147  -14.9846   -5.1674  -16.0167   -8.1561  -48.4234  -17.4136   -5.2953  -12.5947
  std. dev.         8.0063    8.1108    8.8593    9.5835    9.9461   12.1343   16.0582   12.0707    7.8625   10.7736
  weight sum           363      4621       864     11967      9576      4463     23724      2221      1386      1948
  precision         0.1044    0.1044    0.1044    0.1044    0.1044    0.1044    0.1044    0.1044    0.1044    0.1044

1Pitch(Hz)
  mean            212.1825  190.0809  133.2458   206.983  118.8709    179.07   16.2544  120.7679   229.415  159.7556
  std. dev.       100.3526   87.8538  107.2688  104.0507  114.4465  105.2101   55.6483  104.6086   85.2349  110.8403
  weight sum           363      4621       864     11967      9576      4463     23724      2221      1386      1948
  precision         0.1303    0.1303    0.1303    0.1303    0.1303    0.1303    0.1303    0.1303    0.1303    0.1303

1RawPitch
  mean            201.2961  185.5537  108.1776  197.3055  101.6391  172.9408   13.3299   99.6532  220.5485  147.2848
  std. dev.        111.593   94.6689  103.4633  109.7358  114.4784  112.1655   50.0219  102.4782   93.0837  115.9925
  weight sum           363      4621       864     11967      9576      4463     23724      2221      1386      1948
  precision          0.131     0.131     0.131     0.131     0.131     0.131     0.131     0.131     0.131     0.131

1SmPitch
  mean              210.63  188.4788  123.2631  204.8418  112.4585   176.912   14.6603  114.3682  229.0404   155.285
  std. dev.       102.1531   89.1689  104.6396   105.801  114.8046  107.4207   51.7904  104.6114   85.2781  113.4942
  weight sum           363      4621       864     11967      9576      4463     23724      2221      1386      1948
  precision         0.1312    0.1312    0.1312    0.1312    0.1312    0.1312    0.1312    0.1312    0.1312    0.1312

1Melogram(st)
  mean             51.1937   50.4808   37.3343   50.7688   30.8483    46.671    4.8138   33.3936   54.1306   41.4703
  std. dev.        17.6599   15.3557   24.8638   16.8412   27.4182   20.3864   15.4725   26.3501   14.2012   24.3086
  weight sum           363      4621       864     11967      9576      4463     23724      2221      1386      1948
  precision         0.0252    0.0252    0.0252    0.0252    0.0252    0.0252    0.0252    0.0252    0.0252    0.0252

1ZCross
  mean              4.3679    4.9388    1.9347    6.3314     3.177    4.0484    0.2298    1.9023    3.8272    2.3719
  std. dev.         2.7571    3.1975    2.0238    4.5552    5.1616    2.8985    1.0464    2.1208    2.8121    2.0915
  weight sum           363      4621       864     11967      9576      4463     23724      2221      1386      1948
  precision         1.1633    1.1633    1.1633    1.1633    1.1633    1.1633    1.1633    1.1633    1.1633    1.1633

1F1(Hz)
  mean            493.7188  462.8688  388.2589  615.2697  328.3257   483.672    52.722  289.4672  496.5514  372.4682
  std. dev.       193.5409  146.9719  277.0199  282.5313  282.4216  226.1449  165.2486  253.6685  309.2602  237.0685
  weight sum           363      4621       864     11967      9576      4463     23724      2221      1386      1948
  precision         0.3642    0.3642    0.3642    0.3642    0.3642    0.3642    0.3642    0.3642    0.3642    0.3642

1F2(Hz)
  mean           1690.1635 1781.0424 1180.6948 1544.8658 1027.2119 1142.8991   165.045 1010.6667 1050.0402  1312.066
  std. dev.       594.0469  532.5896  774.0059  551.4583  844.2196  536.7971  511.9472  841.9232  432.2873  750.4882
  weight sum           363      4621       864     11967      9576      4463     23724      2221      1386      1948
  precision         0.4431    0.4431    0.4431    0.4431    0.4431    0.4431    0.4431    0.4431    0.4431    0.4431

1F3(Hz)
  mean           2894.0835 2615.4812 2012.5832 2649.4886 1778.7915 2498.5172  281.5731 1726.9507 2665.1247  2207.248
  std. dev.        933.351  792.6591  1307.812  844.1952 1431.4769 1024.1918  858.2629 1432.7821  803.6971 1206.6787
  weight sum           363      4621       864     11967      9576      4463     23724      2221      1386      1948
  precision         0.6602    0.6602    0.6602    0.6602    0.6602    0.6602    0.6602    0.6602    0.6602    0.6602

1F4(Hz)
  mean           2934.4812 3152.5297 2403.3745 3089.3267  2052.915 2876.7808  338.5791 1989.0321 3052.6473 2646.3634
  std. dev.       948.5863  921.2174 1526.7311  965.8544 1644.1525 1161.8705 1029.6891 1637.5802  827.1813 1415.4829
  weight sum           363      4621       864     11967      9576      4463     23724      2221      1386      1948
  precision         0.6775    0.6775    0.6775    0.6775    0.6775    0.6775    0.6775    0.6775    0.6775    0.6775

2Int(dB)
  mean             -7.7144   -5.2154  -14.9663   -5.1844   -15.988    -8.205  -48.5187  -16.7493   -5.0964  -12.2908
  std. dev.         7.9877     8.061    8.8198    9.5792    9.8675   12.2015   15.9245   11.9026    7.5403   10.5869
  weight sum           363      4621       864     11967      9576      4463     23724      2221      1386      1948
  precision         0.1043    0.1043    0.1043    0.1043    0.1043    0.1043    0.1043    0.1043    0.1043    0.1043

2Pitch(Hz)
  mean            211.9581  190.6854  132.7243  206.9409  118.9882  178.3171   15.7169  125.1058   230.256  161.0025
  std. dev.        101.191   87.4198  107.1636  104.0213  114.6785  105.1185   54.8012  104.5268   83.5916  109.8138
  weight sum           363      4621       864     11967      9576      4463     23724      2221      1386      1948
  precision         0.1303    0.1303    0.1303    0.1303    0.1303    0.1303    0.1303    0.1303    0.1303    0.1303

2RawPitch
  mean            201.5263  186.0468  107.6938  197.3354  101.3949  172.3446   12.8471  104.3586   221.377  148.5952
  std. dev.       111.8555   94.2836  102.8608  109.7747   114.525   111.886   49.2585  103.1783   91.8259  115.2511
  weight sum           363      4621       864     11967      9576      4463     23724      2221      1386      1948
  precision          0.131     0.131     0.131     0.131     0.131     0.131     0.131     0.131     0.131     0.131

2SmPitch
  mean            210.4051  189.2421  123.0119   204.867  112.3342  176.2127   14.1437   118.741   229.966  156.3345
  std. dev.       102.9728   88.6477  104.4081   105.724  114.9823  107.2818   50.9153  104.8018   83.6261  112.6809
  weight sum           363      4621       864     11967      9576      4463     23724      2221      1386      1948
  precision         0.1312    0.1312    0.1312    0.1312    0.1312    0.1312    0.1312    0.1312    0.1312    0.1312

2Melogram(st)
  mean             51.0657   50.6147   37.2513   50.8126   30.7905   46.5702    4.6712   34.4319   54.4863   41.7583
  std. dev.        17.8701   15.1287    24.928    16.748   27.4606    20.439   15.2685   26.1315   13.4335   24.1126
  weight sum           363      4621       864     11967      9576      4463     23724      2221      1386      1948
  precision         0.0252    0.0252    0.0252    0.0252    0.0252    0.0252    0.0252    0.0252    0.0252    0.0252

2ZCross
  mean              4.3582    4.9156    1.9401    6.3221    3.1839    4.0424    0.2221    2.0049    3.8515    2.4227
  std. dev.         2.7159    3.2034    2.0364     4.559    5.1652    2.9091    1.0405    2.1254    2.7932    2.0849
  weight sum           363      4621       864     11967      9576      4463     23724      2221      1386      1948
  precision         1.1633    1.1633    1.1633    1.1633    1.1633    1.1633    1.1633    1.1633    1.1633    1.1633

2F1(Hz)
  mean            493.2121  466.9426  381.3156  619.6746  322.8712  486.8876   50.9748  292.6928  501.4313  372.4935
  std. dev.       192.4513  141.0764  276.5899  279.6222  281.5409  224.2029  162.6166  252.1069  304.2361  235.5015
  weight sum           363      4621       864     11967      9576      4463     23724      2221      1386      1948
  precision         0.3642    0.3642    0.3642    0.3642    0.3642    0.3642    0.3642    0.3642    0.3642    0.3642

2F2(Hz)
  mean           1687.2659 1800.7234 1172.6362 1554.5292 1014.0562 1143.6165  159.7012 1024.8012 1063.4653 1312.5688
  std. dev.       594.1662  507.5736  779.2046  542.2833  845.1049  529.3781  504.4931   839.475  414.3404  745.4148
  weight sum           363      4621       864     11967      9576      4463     23724      2221      1386      1948
  precision         0.4431    0.4431    0.4431    0.4431    0.4431    0.4431    0.4431    0.4431    0.4431    0.4431

2F3(Hz)
  mean           2893.5233  2638.722 1994.0357 2664.5767 1757.0647 2509.8227   272.306 1750.6962  2701.015 2208.9124
  std. dev.       933.1946  758.2975 1314.2962  824.7762 1434.8075 1013.4676  845.5117 1429.9932  745.1651 1199.4463
  weight sum           363      4621       864     11967      9576      4463     23724      2221      1386      1948
  precision         0.6602    0.6602    0.6602    0.6602    0.6602    0.6602    0.6602    0.6602    0.6602    0.6602

2F4(Hz)
  mean           2936.8721  3179.034 2385.6763 3105.1123  2029.654  2888.156  327.6383 2016.9519 3093.8479 2654.3032
  std. dev.       950.2793  877.8457 1536.6667  942.4481 1649.8841 1148.0627 1014.9346 1634.5631  750.1771 1409.2849
  weight sum           363      4621       864     11967      9576      4463     23724      2221      1386      1948
  precision         0.6775    0.6775    0.6775    0.6775    0.6775    0.6775    0.6775    0.6775    0.6775    0.6775





=== Stratified cross-validation ===

Correctly Classified Instances       31637               51.7511 %
Incorrectly Classified Instances     29496               48.2489 %
Kappa statistic                          0.3817
K&B Relative Info Score            2261924.8955 %
K&B Information Score                57766.1304 bits      0.9449 bits/instance
Class complexity | order 0          156106.2443 bits      2.5536 bits/instance
Class complexity | scheme          1040896.051  bits     17.0267 bits/instance
Complexity improvement     (Sf)    -884789.8066 bits    -14.4732 bits/instance
Mean absolute error                      0.0971
Root mean squared error                  0.2861
Relative absolute error                 62.8364 %
Root relative squared error            102.9456 %
Coverage of cases (0.95 level)          61.394  %
Mean rel. region size (0.95 level)      16.487  %
Total Number of Instances            61133     


=== Detailed Accuracy By Class ===

                 TP Rate  FP Rate  Precision  Recall   F-Measure  MCC      ROC Area  PRC Area  Class
                 0,072    0,008    0,053      0,072    0,061      0,055    0,769     0,026     C
                 0,746    0,253    0,194      0,746    0,308      0,287    0,834     0,271     E
                 0,063    0,027    0,032      0,063    0,042      0,025    0,734     0,030     FV
                 0,384    0,039    0,707      0,384    0,498      0,445    0,848     0,606     AI
                 0,117    0,013    0,632      0,117    0,198      0,226    0,732     0,369     CDGKNRSYZ
                 0,038    0,007    0,299      0,038    0,067      0,084    0,769     0,180     O
                 0,897    0,142    0,800      0,897    0,846      0,742    0,946     0,924     0
                 0,081    0,020    0,129      0,081    0,099      0,076    0,716     0,077     LT
                 0,536    0,053    0,189      0,536    0,280      0,293    0,874     0,356     U
                 0,018    0,007    0,074      0,018    0,029      0,021    0,724     0,059     MBP
Weighted Avg.    0,518    0,087    0,597      0,518    0,497      0,449    0,851     0,582     


=== Confusion Matrix ===

     a     b     c     d     e     f     g     h     i     j   <-- classified as
    26   218     5    38     6     0    23     3    44     0 |     a = C
   142  3447    85   410    62     8   183   119   116    49 |     b = E
     0   413    54    64    36    18   209    30    33     7 |     c = FV
    63  4882   298  4595   194    79   634   228   902    92 |     d = AI
   183  3223   542   552  1121   121  2700   335   667   132 |     e = CDGKNRSYZ
    14  2050   199   392    85   168   481    86   955    33 |     f = O
    16  1198   325   180   153   103 21269   236   182    62 |     g = 0
    12   963    82    61    68    31   702   179    76    47 |     h = LT
     6   375    24    98     7    21    26    73   743    13 |     i = U
    28   992    74   107    41    12   354    94   211    35 |     j = MBP

=== Percent Confusion Matrix ===
a	b	c	d	e	f	g	h	i	j	
7.16	60.06	1.38	10.47	1.65	0.0	6.34	0.83	12.12	0.0	 a = C
3.07	74.59	1.84	8.87	1.34	0.17	3.96	2.58	2.51	1.06	 b = E
0.0	47.8	6.25	7.41	4.17	2.08	24.19	3.47	3.82	0.81	 c = FV
0.53	40.8	2.49	38.4	1.62	0.66	5.3	1.91	7.54	0.77	 d = AI
1.91	33.66	5.66	5.76	11.71	1.26	28.2	3.5	6.97	1.38	 e = CDGKNRSYZ
0.31	45.93	4.46	8.78	1.9	3.76	10.78	1.93	21.4	0.74	 f = O
0.07	5.05	1.37	0.76	0.64	0.43	89.65	0.99	0.77	0.26	 g = 0
0.54	43.36	3.69	2.75	3.06	1.4	31.61	8.06	3.42	2.12	 h = LT
0.43	27.06	1.73	7.07	0.51	1.52	1.88	5.27	53.61	0.94	 i = U
1.44	50.92	3.8	5.49	2.1	0.62	18.17	4.83	10.83	1.8	 j = MBP
