Timestamp:2014-12-07-11:16:49
Inventario:I4
Intervalo:3ms
Ngramas:2
Clasificador:NaiveBayes
Relation Name:  I4-3ms-2gramas
Num Instances:  61134
Num Attributes: 21

     Name                      Type  Nom  Int Real     Missing      Unique  Dist
   1 0Int(dB)                   Num   0%  10%  90%     0 /  0%     2 /  0%   776 
   2 0Pitch(Hz)                 Num   0%  52%  48%     0 /  0%   559 /  1%  3828 
   3 0RawPitch                  Num   0%  55%  45%     0 /  0%   613 /  1%  3808 
   4 0SmPitch                   Num   0%  53%  47%     0 /  0%   575 /  1%  3802 
   5 0Melogram(st)              Num   0%  49%  51%     0 /  0%   269 /  0%  3285 
   6 0ZCross                    Num   0% 100%   0%     0 /  0%     3 /  0%    50 
   7 0F1(Hz)                    Num   0%  52%  48%     0 /  0%  1075 /  2%  4783 
   8 0F2(Hz)                    Num   0%  52%  48%     0 /  0%  2270 /  4%  6724 
   9 0F3(Hz)                    Num   0%  52%  48%     0 /  0%  1945 /  3%  6241 
  10 0F4(Hz)                    Num   0%  52%  48%     0 /  0%  1922 /  3%  6122 
  11 1Int(dB)                   Num   0%  10%  90%     0 /  0%     3 /  0%   777 
  12 1Pitch(Hz)                 Num   0%  52%  48%     0 /  0%   559 /  1%  3828 
  13 1RawPitch                  Num   0%  55%  45%     0 /  0%   613 /  1%  3808 
  14 1SmPitch                   Num   0%  53%  47%     0 /  0%   575 /  1%  3802 
  15 1Melogram(st)              Num   0%  49%  51%     0 /  0%   269 /  0%  3285 
  16 1ZCross                    Num   0% 100%   0%     0 /  0%     3 /  0%    50 
  17 1F1(Hz)                    Num   0%  52%  48%     0 /  0%  1075 /  2%  4783 
  18 1F2(Hz)                    Num   0%  52%  48%     0 /  0%  2270 /  4%  6724 
  19 1F3(Hz)                    Num   0%  52%  48%     0 /  0%  1945 /  3%  6241 
  20 1F4(Hz)                    Num   0%  52%  48%     0 /  0%  1922 /  3%  6122 
  21 class                      Nom 100%   0%   0%     0 /  0%     0 /  0%    10 


Naive Bayes Classifier

                    Class
Attribute               C         E        FV        AI CDGKNRSYZ         O         0        LT         U       MBP
                   (0.01)    (0.08)    (0.01)     (0.2)    (0.16)    (0.07)    (0.39)    (0.04)    (0.02)    (0.03)
====================================================================================================================
0Int(dB)
  mean             -7.6838   -5.2147  -14.9846   -5.1674  -16.0167   -8.1561  -48.4233  -17.4136   -5.2953  -12.5947
  std. dev.         8.0063    8.1108    8.8593    9.5835    9.9461   12.1343   16.0579   12.0707    7.8625   10.7736
  weight sum           363      4621       864     11967      9576      4463     23725      2221      1386      1948
  precision         0.1044    0.1044    0.1044    0.1044    0.1044    0.1044    0.1044    0.1044    0.1044    0.1044

0Pitch(Hz)
  mean            212.1825  190.0809  133.2458   206.983  118.8709    179.07   16.2537  120.7679   229.415  159.7556
  std. dev.       100.3526   87.8538  107.2688  104.0507  114.4465  105.2101   55.6472  104.6086   85.2349  110.8403
  weight sum           363      4621       864     11967      9576      4463     23725      2221      1386      1948
  precision         0.1303    0.1303    0.1303    0.1303    0.1303    0.1303    0.1303    0.1303    0.1303    0.1303

0RawPitch
  mean            201.2961  185.5537  108.1776  197.3055  101.6391  172.9408   13.3293   99.6532  220.5485  147.2848
  std. dev.        111.593   94.6689  103.4633  109.7358  114.4784  112.1655   50.0209  102.4782   93.0837  115.9925
  weight sum           363      4621       864     11967      9576      4463     23725      2221      1386      1948
  precision          0.131     0.131     0.131     0.131     0.131     0.131     0.131     0.131     0.131     0.131

0SmPitch
  mean              210.63  188.4788  123.2631  204.8418  112.4585   176.912   14.6597  114.3682  229.0404   155.285
  std. dev.       102.1531   89.1689  104.6396   105.801  114.8046  107.4207   51.7894  104.6114   85.2781  113.4942
  weight sum           363      4621       864     11967      9576      4463     23725      2221      1386      1948
  precision         0.1312    0.1312    0.1312    0.1312    0.1312    0.1312    0.1312    0.1312    0.1312    0.1312

0Melogram(st)
  mean             51.1937   50.4808   37.3343   50.7688   30.8483    46.671    4.8136   33.3936   54.1306   41.4703
  std. dev.        17.6599   15.3557   24.8638   16.8412   27.4182   20.3864   15.4722   26.3501   14.2012   24.3086
  weight sum           363      4621       864     11967      9576      4463     23725      2221      1386      1948
  precision         0.0252    0.0252    0.0252    0.0252    0.0252    0.0252    0.0252    0.0252    0.0252    0.0252

0ZCross
  mean              4.3679    4.9388    1.9347    6.3314     3.177    4.0484    0.2298    1.9023    3.8272    2.3719
  std. dev.         2.7571    3.1975    2.0238    4.5552    5.1616    2.8985    1.0464    2.1208    2.8121    2.0915
  weight sum           363      4621       864     11967      9576      4463     23725      2221      1386      1948
  precision         1.1633    1.1633    1.1633    1.1633    1.1633    1.1633    1.1633    1.1633    1.1633    1.1633

0F1(Hz)
  mean            493.7188  462.8688  388.2589  615.2697  328.3257   483.672   52.7198  289.4672  496.5514  372.4682
  std. dev.       193.5409  146.9719  277.0199  282.5313  282.4216  226.1449  165.2455  253.6685  309.2602  237.0685
  weight sum           363      4621       864     11967      9576      4463     23725      2221      1386      1948
  precision         0.3642    0.3642    0.3642    0.3642    0.3642    0.3642    0.3642    0.3642    0.3642    0.3642

0F2(Hz)
  mean           1690.1635 1781.0424 1180.6948 1544.8658 1027.2119 1142.8991  165.0381 1010.6667 1050.0402  1312.066
  std. dev.       594.0469  532.5896  774.0059  551.4583  844.2196  536.7971  511.9376  841.9232  432.2873  750.4882
  weight sum           363      4621       864     11967      9576      4463     23725      2221      1386      1948
  precision         0.4431    0.4431    0.4431    0.4431    0.4431    0.4431    0.4431    0.4431    0.4431    0.4431

0F3(Hz)
  mean           2894.0835 2615.4812 2012.5832 2649.4886 1778.7915 2498.5172  281.5612 1726.9507 2665.1247  2207.248
  std. dev.        933.351  792.6591  1307.812  844.1952 1431.4769 1024.1918  858.2468 1432.7821  803.6971 1206.6787
  weight sum           363      4621       864     11967      9576      4463     23725      2221      1386      1948
  precision         0.6602    0.6602    0.6602    0.6602    0.6602    0.6602    0.6602    0.6602    0.6602    0.6602

0F4(Hz)
  mean           2934.4812 3152.5297 2403.3745 3089.3267  2052.915 2876.7808  338.5649 1989.0321 3052.6473 2646.3634
  std. dev.       948.5863  921.2174 1526.7311  965.8544 1644.1525 1161.8705 1029.6698 1637.5802  827.1813 1415.4829
  weight sum           363      4621       864     11967      9576      4463     23725      2221      1386      1948
  precision         0.6775    0.6775    0.6775    0.6775    0.6775    0.6775    0.6775    0.6775    0.6775    0.6775

1Int(dB)
  mean             -7.7144   -5.2154  -14.9663   -5.1844   -15.988    -8.205  -48.5185  -16.7493   -5.0964  -12.2908
  std. dev.         7.9877     8.061    8.8198    9.5792    9.8675   12.2015   15.9242   11.9026    7.5403   10.5869
  weight sum           363      4621       864     11967      9576      4463     23725      2221      1386      1948
  precision         0.1043    0.1043    0.1043    0.1043    0.1043    0.1043    0.1043    0.1043    0.1043    0.1043

1Pitch(Hz)
  mean            211.9581  190.6854  132.7243  206.9409  118.9882  178.3171   15.7163  125.1058   230.256  161.0025
  std. dev.        101.191   87.4198  107.1636  104.0213  114.6785  105.1185   54.8001  104.5268   83.5916  109.8138
  weight sum           363      4621       864     11967      9576      4463     23725      2221      1386      1948
  precision         0.1303    0.1303    0.1303    0.1303    0.1303    0.1303    0.1303    0.1303    0.1303    0.1303

1RawPitch
  mean            201.5263  186.0468  107.6938  197.3354  101.3949  172.3446   12.8466  104.3586   221.377  148.5952
  std. dev.       111.8555   94.2836  102.8608  109.7747   114.525   111.886   49.2575  103.1783   91.8259  115.2511
  weight sum           363      4621       864     11967      9576      4463     23725      2221      1386      1948
  precision          0.131     0.131     0.131     0.131     0.131     0.131     0.131     0.131     0.131     0.131

1SmPitch
  mean            210.4051  189.2421  123.0119   204.867  112.3342  176.2127   14.1431   118.741   229.966  156.3345
  std. dev.       102.9728   88.6477  104.4081   105.724  114.9823  107.2818   50.9143  104.8018   83.6261  112.6809
  weight sum           363      4621       864     11967      9576      4463     23725      2221      1386      1948
  precision         0.1312    0.1312    0.1312    0.1312    0.1312    0.1312    0.1312    0.1312    0.1312    0.1312

1Melogram(st)
  mean             51.0657   50.6147   37.2513   50.8126   30.7905   46.5702     4.671   34.4319   54.4863   41.7583
  std. dev.        17.8701   15.1287    24.928    16.748   27.4606    20.439   15.2683   26.1315   13.4335   24.1126
  weight sum           363      4621       864     11967      9576      4463     23725      2221      1386      1948
  precision         0.0252    0.0252    0.0252    0.0252    0.0252    0.0252    0.0252    0.0252    0.0252    0.0252

1ZCross
  mean              4.3582    4.9156    1.9401    6.3221    3.1839    4.0424    0.2221    2.0049    3.8515    2.4227
  std. dev.         2.7159    3.2034    2.0364     4.559    5.1652    2.9091    1.0405    2.1254    2.7932    2.0849
  weight sum           363      4621       864     11967      9576      4463     23725      2221      1386      1948
  precision         1.1633    1.1633    1.1633    1.1633    1.1633    1.1633    1.1633    1.1633    1.1633    1.1633

1F1(Hz)
  mean            493.2121  466.9426  381.3156  619.6746  322.8712  486.8876   50.9727  292.6928  501.4313  372.4935
  std. dev.       192.4513  141.0764  276.5899  279.6222  281.5409  224.2029  162.6135  252.1069  304.2361  235.5015
  weight sum           363      4621       864     11967      9576      4463     23725      2221      1386      1948
  precision         0.3642    0.3642    0.3642    0.3642    0.3642    0.3642    0.3642    0.3642    0.3642    0.3642

1F2(Hz)
  mean           1687.2659 1800.7234 1172.6362 1554.5292 1014.0562 1143.6165  159.6945 1024.8012 1063.4653 1312.5688
  std. dev.       594.1662  507.5736  779.2046  542.2833  845.1049  529.3781  504.4835   839.475  414.3404  745.4148
  weight sum           363      4621       864     11967      9576      4463     23725      2221      1386      1948
  precision         0.4431    0.4431    0.4431    0.4431    0.4431    0.4431    0.4431    0.4431    0.4431    0.4431

1F3(Hz)
  mean           2893.5233  2638.722 1994.0357 2664.5767 1757.0647 2509.8227  272.2945 1750.6962  2701.015 2208.9124
  std. dev.       933.1946  758.2975 1314.2962  824.7762 1434.8075 1013.4676  845.4957 1429.9932  745.1651 1199.4463
  weight sum           363      4621       864     11967      9576      4463     23725      2221      1386      1948
  precision         0.6602    0.6602    0.6602    0.6602    0.6602    0.6602    0.6602    0.6602    0.6602    0.6602

1F4(Hz)
  mean           2936.8721  3179.034 2385.6763 3105.1123  2029.654  2888.156  327.6245 2016.9519 3093.8479 2654.3032
  std. dev.       950.2793  877.8457 1536.6667  942.4481 1649.8841 1148.0627 1014.9155 1634.5631  750.1771 1409.2849
  weight sum           363      4621       864     11967      9576      4463     23725      2221      1386      1948
  precision         0.6775    0.6775    0.6775    0.6775    0.6775    0.6775    0.6775    0.6775    0.6775    0.6775





=== Stratified cross-validation ===

Correctly Classified Instances       32415               53.0229 %
Incorrectly Classified Instances     28719               46.9771 %
Kappa statistic                          0.3929
K&B Relative Info Score            2344845.5435 %
K&B Information Score                59884.1905 bits      0.9796 bits/instance
Class complexity | order 0          156107.6099 bits      2.5535 bits/instance
Class complexity | scheme           714861.2747 bits     11.6934 bits/instance
Complexity improvement     (Sf)    -558753.6648 bits     -9.1398 bits/instance
Mean absolute error                      0.0959
Root mean squared error                  0.275 
Relative absolute error                 62.0455 %
Root relative squared error             98.9348 %
Coverage of cases (0.95 level)          65.8472 %
Mean rel. region size (0.95 level)      19.7165 %
Total Number of Instances            61134     


=== Detailed Accuracy By Class ===

                 TP Rate  FP Rate  Precision  Recall   F-Measure  MCC      ROC Area  PRC Area  Class
                 0,022    0,002    0,074      0,022    0,034      0,037    0,767     0,026     C
                 0,757    0,256    0,195      0,757    0,310      0,291    0,838     0,264     E
                 0,032    0,012    0,037      0,032    0,034      0,021    0,733     0,030     FV
                 0,423    0,051    0,670      0,423    0,519      0,449    0,848     0,604     AI
                 0,149    0,027    0,502      0,149    0,230      0,210    0,730     0,365     CDGKNRSYZ
                 0,050    0,009    0,304      0,050    0,085      0,097    0,771     0,186     O
                 0,899    0,144    0,799      0,899    0,846      0,742    0,953     0,950     0
                 0,046    0,010    0,149      0,046    0,070      0,064    0,716     0,079     LT
                 0,508    0,044    0,212      0,508    0,299      0,305    0,878     0,356     U
                 0,013    0,007    0,057      0,013    0,022      0,013    0,726     0,059     MBP
Weighted Avg.    0,530    0,092    0,570      0,530    0,506      0,448    0,854     0,591     


=== Confusion Matrix ===

     a     b     c     d     e     f     g     h     i     j   <-- classified as
     8   228     1    54    12     0    22     1    37     0 |     a = C
    38  3499    37   524   167     9   180    43    84    40 |     b = E
     0   419    28    71    52    21   212    26    29     6 |     c = FV
    14  4736   176  5066   355    95   643   116   699    67 |     d = AI
    42  3350   234   736  1428   174  2760   168   529   155 |     e = CDGKNRSYZ
     2  2092    74   500   178   221   485    39   847    25 |     f = O
     1  1201   148   246   341   118 21333    99   157    81 |     g = 0
     1   986    33   116   171    38   694   102    39    41 |     h = LT
     0   409     6   119    28    32    26    50   704    12 |     i = U
     2  1032    27   132   113    20   356    42   198    26 |     j = MBP

=== Percent Confusion Matrix ===
a	b	c	d	e	f	g	h	i	j	
2.2	62.81	0.28	14.88	3.31	0.0	6.06	0.28	10.19	0.0	 a = C
0.82	75.72	0.8	11.34	3.61	0.19	3.9	0.93	1.82	0.87	 b = E
0.0	48.5	3.24	8.22	6.02	2.43	24.54	3.01	3.36	0.69	 c = FV
0.12	39.58	1.47	42.33	2.97	0.79	5.37	0.97	5.84	0.56	 d = AI
0.44	34.98	2.44	7.69	14.91	1.82	28.82	1.75	5.52	1.62	 e = CDGKNRSYZ
0.04	46.87	1.66	11.2	3.99	4.95	10.87	0.87	18.98	0.56	 f = O
0.0	5.06	0.62	1.04	1.44	0.5	89.92	0.42	0.66	0.34	 g = 0
0.05	44.39	1.49	5.22	7.7	1.71	31.25	4.59	1.76	1.85	 h = LT
0.0	29.51	0.43	8.59	2.02	2.31	1.88	3.61	50.79	0.87	 i = U
0.1	52.98	1.39	6.78	5.8	1.03	18.28	2.16	10.16	1.33	 j = MBP
