Timestamp:2014-12-07-11:18:07
Inventario:I4
Intervalo:6ms
Ngramas:3
Clasificador:NaiveBayes
Relation Name:  I4-6ms-3gramas
Num Instances:  30451
Num Attributes: 31

     Name                      Type  Nom  Int Real     Missing      Unique  Dist
   1 0Int(dB)                   Num   0%  10%  90%     0 /  0%     2 /  0%   776 
   2 0Pitch(Hz)                 Num   0%  51%  49%     0 /  0%   750 /  2%  3423 
   3 0RawPitch                  Num   0%  55%  45%     0 /  0%   699 /  2%  3337 
   4 0SmPitch                   Num   0%  53%  47%     0 /  0%   748 /  2%  3382 
   5 0Melogram(st)              Num   0%  48%  52%     0 /  0%   413 /  1%  3048 
   6 0ZCross                    Num   0% 100%   0%     0 /  0%     8 /  0%    47 
   7 0F1(Hz)                    Num   0%  52%  48%     0 /  0%  1130 /  4%  4802 
   8 0F2(Hz)                    Num   0%  51%  49%     0 /  0%  2251 /  7%  6691 
   9 0F3(Hz)                    Num   0%  52%  48%     0 /  0%  1969 /  6%  6255 
  10 0F4(Hz)                    Num   0%  52%  48%     0 /  0%  1938 /  6%  6099 
  11 1Int(dB)                   Num   0%  10%  90%     0 /  0%     2 /  0%   776 
  12 1Pitch(Hz)                 Num   0%  51%  49%     0 /  0%   750 /  2%  3423 
  13 1RawPitch                  Num   0%  55%  45%     0 /  0%   699 /  2%  3337 
  14 1SmPitch                   Num   0%  53%  47%     0 /  0%   748 /  2%  3382 
  15 1Melogram(st)              Num   0%  48%  52%     0 /  0%   413 /  1%  3048 
  16 1ZCross                    Num   0% 100%   0%     0 /  0%     8 /  0%    47 
  17 1F1(Hz)                    Num   0%  52%  48%     0 /  0%  1130 /  4%  4802 
  18 1F2(Hz)                    Num   0%  51%  49%     0 /  0%  2251 /  7%  6691 
  19 1F3(Hz)                    Num   0%  52%  48%     0 /  0%  1969 /  6%  6255 
  20 1F4(Hz)                    Num   0%  52%  48%     0 /  0%  1938 /  6%  6099 
  21 2Int(dB)                   Num   0%  10%  90%     0 /  0%     3 /  0%   777 
  22 2Pitch(Hz)                 Num   0%  51%  49%     0 /  0%   750 /  2%  3423 
  23 2RawPitch                  Num   0%  55%  45%     0 /  0%   699 /  2%  3337 
  24 2SmPitch                   Num   0%  53%  47%     0 /  0%   748 /  2%  3382 
  25 2Melogram(st)              Num   0%  48%  52%     0 /  0%   413 /  1%  3048 
  26 2ZCross                    Num   0% 100%   0%     0 /  0%     8 /  0%    47 
  27 2F1(Hz)                    Num   0%  52%  48%     0 /  0%  1130 /  4%  4802 
  28 2F2(Hz)                    Num   0%  51%  49%     0 /  0%  2251 /  7%  6691 
  29 2F3(Hz)                    Num   0%  52%  48%     0 /  0%  1969 /  6%  6255 
  30 2F4(Hz)                    Num   0%  52%  48%     0 /  0%  1938 /  6%  6099 
  31 class                      Nom 100%   0%   0%     0 /  0%     0 /  0%    10 


Naive Bayes Classifier

                    Class
Attribute               C         E        FV        AI CDGKNRSYZ         O         0        LT         U       MBP
                   (0.01)    (0.08)    (0.01)     (0.2)    (0.16)    (0.07)    (0.38)    (0.04)    (0.02)    (0.03)
====================================================================================================================
0Int(dB)
  mean             -7.3717   -5.8995  -14.5611   -5.5906  -15.7368   -8.5713   -48.557  -18.4855    -6.419  -12.9966
  std. dev.         7.7564     8.786    9.4214   10.0104   10.5469   12.1108   16.0879   12.8229    9.2206   11.3571
  weight sum           185      2347       430      6031      4802      2251     11609      1119       697       980
  precision         0.1001    0.1001    0.1001    0.1001    0.1001    0.1001    0.1001    0.1001    0.1001    0.1001

0Pitch(Hz)
  mean             212.796  185.9675  138.3865  204.9745  124.3155  178.5044   16.3299   116.379  225.2933  162.1914
  std. dev.        96.4346   90.3606  108.2488  105.1737  113.6234  106.4846   55.6006  105.3743   91.5415  111.4338
  weight sum           185      2347       430      6031      4802      2251     11609      1119       697       980
  precision         0.1457    0.1457    0.1457    0.1457    0.1457    0.1457    0.1457    0.1457    0.1457    0.1457

0RawPitch
  mean            204.0975  181.6948  114.6567  194.8267  108.4751  171.1249   13.5133   97.3511  215.3066  148.0422
  std. dev.       105.3875   96.2139  105.4998  110.3133  114.3285  112.4932   50.0924  102.8282   98.6174  115.6256
  weight sum           185      2347       430      6031      4802      2251     11609      1119       697       980
  precision         0.1486    0.1486    0.1486    0.1486    0.1486    0.1486    0.1486    0.1486    0.1486    0.1486

0SmPitch
  mean             210.761  183.5596  128.8353  202.6684   118.457  175.9059   14.8061  110.3159  223.7844  158.6549
  std. dev.        98.8831   92.3488  105.8213  107.0761   114.309  108.6981   51.7803  104.7038   92.4136   113.938
  weight sum           185      2347       430      6031      4802      2251     11609      1119       697       980
  precision         0.1475    0.1475    0.1475    0.1475    0.1475    0.1475    0.1475    0.1475    0.1475    0.1475

0Melogram(st)
  mean             51.7574   49.6417   39.2686   50.3145   32.4484   46.4994    4.8244   32.9316   52.9038   42.2976
  std. dev.        16.6431   16.5413   24.0506   17.4593   27.1059   20.6431   15.4707   26.3734    16.369   23.9194
  weight sum           185      2347       430      6031      4802      2251     11609      1119       697       980
  precision         0.0271    0.0271    0.0271    0.0271    0.0271    0.0271    0.0271    0.0271    0.0271    0.0271

0ZCross
  mean              4.5116    4.8687    2.0038    6.2199    3.1602    3.9353    0.2426    1.8044    3.6666    2.3634
  std. dev.         2.8159    3.3612    2.0839    4.5806    4.8647     3.141    1.1445    2.1798    2.8883    2.1945
  weight sum           185      2347       430      6031      4802      2251     11609      1119       697       980
  precision         1.1739    1.1739    1.1739    1.1739    1.1739    1.1739    1.1739    1.1739    1.1739    1.1739

0F1(Hz)
  mean            507.8861  448.1303  421.3901  596.3135  357.8311  467.9136   53.9321  303.1704  478.0605  387.5882
  std. dev.       183.9556  167.3815  272.3544  293.4311  282.0279  235.6843  168.2103  257.2305   324.529  237.6824
  weight sum           185      2347       430      6031      4802      2251     11609      1119       697       980
  precision         0.3628    0.3628    0.3628    0.3628    0.3628    0.3628    0.3628    0.3628    0.3628    0.3628

0F2(Hz)
  mean           1733.2802 1706.5198 1239.1028  1506.171 1106.4993 1129.6245  166.3315 1041.7637 1009.2259 1348.6957
  std. dev.       538.7244  612.0386  748.4208  586.9452  831.3884  569.4748  512.7304  838.6922  490.7397  740.2835
  weight sum           185      2347       430      6031      4802      2251     11609      1119       697       980
  precision         0.4452    0.4452    0.4452    0.4452    0.4452    0.4452    0.4452    0.4452    0.4452    0.4452

0F3(Hz)
  mean           2958.4586 2528.8267 2115.5779 2589.6367 1909.1871  2440.143  285.4193  1777.123 2534.3382  2271.328
  std. dev.       836.9391   904.012 1263.4416  918.4894 1399.4993 1080.4541  863.1325 1415.6103  971.1663 1184.8692
  weight sum           185      2347       430      6031      4802      2251     11609      1119       697       980
  precision         0.6587    0.6587    0.6587    0.6587    0.6587    0.6587    0.6587    0.6587    0.6587    0.6587

0F4(Hz)
  mean           2982.8308  3055.702 2508.5338 3023.1734  2201.316 2810.7638  343.0735  2048.367 2907.9441 2699.0169
  std. dev.        846.372 1062.5316 1464.9089 1054.7453 1603.7942 1230.5926 1035.4709  1620.351 1043.9573 1377.3282
  weight sum           185      2347       430      6031      4802      2251     11609      1119       697       980
  precision         0.6801    0.6801    0.6801    0.6801    0.6801    0.6801    0.6801    0.6801    0.6801    0.6801

1Int(dB)
  mean             -7.5405   -5.4538  -14.9101   -5.3311  -15.9867     -8.32  -48.8223  -17.9539   -5.7217   -12.808
  std. dev.         7.9044    8.3541     9.056    9.7097   10.1484   12.1084   15.7034   12.3205    8.3788   10.9801
  weight sum           185      2347       430      6031      4802      2251     11609      1119       697       980
  precision         0.1001    0.1001    0.1001    0.1001    0.1001    0.1001    0.1001    0.1001    0.1001    0.1001

1Pitch(Hz)
  mean            212.2478  188.9309  135.5009  206.6426  121.7401  179.6002   15.2638  120.0215  229.1165  162.0524
  std. dev.        98.1766   88.8484  107.5102  103.7744  113.9436  105.0982   53.8922  104.5498    86.113  110.5525
  weight sum           185      2347       430      6031      4802      2251     11609      1119       697       980
  precision         0.1457    0.1457    0.1457    0.1457    0.1457    0.1457    0.1457    0.1457    0.1457    0.1457

1RawPitch
  mean            202.8895  185.2813   111.142  196.7984  105.0916  173.0353   12.5253   99.5344  219.1052  147.7901
  std. dev.       107.8664   94.3657   103.983  108.9799   114.121  111.2194   48.0516  102.4111   94.0431  115.4056
  weight sum           185      2347       430      6031      4802      2251     11609      1119       697       980
  precision         0.1486    0.1486    0.1486    0.1486    0.1486    0.1486    0.1486    0.1486    0.1486    0.1486

1SmPitch
  mean            210.2142  187.4191  126.3464  204.3827  115.4495  177.2873   13.7642  113.5773  227.6752  157.4726
  std. dev.       100.5696   90.1622  104.6501  105.6828  114.4643  107.1683   49.9351  104.4483   87.0875  113.6823
  weight sum           185      2347       430      6031      4802      2251     11609      1119       697       980
  precision         0.1475    0.1475    0.1475    0.1475    0.1475    0.1475    0.1475    0.1475    0.1475    0.1475

1Melogram(st)
  mean             51.4945    50.443    38.768   50.8125   31.6608   46.7991    4.5871   33.4732   54.1423   42.0662
  std. dev.         17.083   15.4134   24.2654   16.7601    27.262   20.2997   15.1428   26.2622    14.241   23.9804
  weight sum           185      2347       430      6031      4802      2251     11609      1119       697       980
  precision         0.0271    0.0271    0.0271    0.0271    0.0271    0.0271    0.0271    0.0271    0.0271    0.0271

1ZCross
  mean              4.4228    4.9057    1.9165    6.2799     3.144    3.9697    0.2049    1.8233    3.7441    2.3311
  std. dev.         2.7279    3.2087    2.0253    4.5402    5.0188    2.9459    0.9759    2.0964    2.8259    2.0986
  weight sum           185      2347       430      6031      4802      2251     11609      1119       697       980
  precision         1.1739    1.1739    1.1739    1.1739    1.1739    1.1739    1.1739    1.1739    1.1739    1.1739

1F1(Hz)
  mean            502.5993  458.4701  405.4793   609.119  342.4798  479.3066   50.4031  295.8377  490.8774  382.1121
  std. dev.       184.8457  153.5049  275.9084    284.71  282.0903  228.1739   162.571  253.9505  313.8193  236.5551
  weight sum           185      2347       430      6031      4802      2251     11609      1119       697       980
  precision         0.3628    0.3628    0.3628    0.3628    0.3628    0.3628    0.3628    0.3628    0.3628    0.3628

1F2(Hz)
  mean           1720.9577 1756.5682  1210.404 1536.2629 1066.8218 1142.3274  156.3707 1029.2025 1039.7614 1334.4278
  std. dev.       554.7945  558.7593  760.5497  559.9989  838.5412  545.8877  498.6315  839.8568  453.9752  740.0834
  weight sum           185      2347       430      6031      4802      2251     11609      1119       697       980
  precision         0.4452    0.4452    0.4452    0.4452    0.4452    0.4452    0.4452    0.4452    0.4452    0.4452

1F3(Hz)
  mean           2939.9389 2589.9599 2065.6755 2636.1124 1843.5704   2486.42  267.8531 1755.4302 2624.1187 2248.5273
  std. dev.       865.0023  828.9033 1286.9009   862.149 1416.5539 1037.8263  838.7348 1421.8369   862.036 1187.9068
  weight sum           185      2347       430      6031      4802      2251     11609      1119       697       980
  precision         0.6587    0.6587    0.6587    0.6587    0.6587    0.6587    0.6587    0.6587    0.6587    0.6587

1F4(Hz)
  mean           2970.8728 3123.7667 2456.6943 3074.1534 2128.0526 2862.0839  322.5326 2026.6173 3008.5041 2685.0292
  std. dev.       876.7275   967.012 1495.5033  987.1967 1626.4151 1178.6146 1007.8515  1629.646  904.6428 1387.1463
  weight sum           185      2347       430      6031      4802      2251     11609      1119       697       980
  precision         0.6801    0.6801    0.6801    0.6801    0.6801    0.6801    0.6801    0.6801    0.6801    0.6801

2Int(dB)
  mean             -7.6486   -5.3083  -14.9621   -5.2672  -16.0368   -8.2927  -49.0435  -16.8688   -5.2124  -12.3369
  std. dev.         7.9568    8.1563    8.8347    9.6075    9.8914   12.1905   15.4144   11.9055    7.6533    10.602
  weight sum           185      2347       430      6031      4802      2251     11609      1119       697       980
  precision         0.1027    0.1027    0.1027    0.1027    0.1027    0.1027    0.1027    0.1027    0.1027    0.1027

2Pitch(Hz)
  mean            211.7374  191.0581  133.3692  207.0059  121.3523  178.5747   14.1324  127.4747  230.7901  163.7124
  std. dev.        99.8735   87.4612  106.8281  103.4399  114.2971  104.7438    52.013  103.8849   82.8574  108.8774
  weight sum           185      2347       430      6031      4802      2251     11609      1119       697       980
  precision         0.1457    0.1457    0.1457    0.1457    0.1457    0.1457    0.1457    0.1457    0.1457    0.1457

2RawPitch
  mean            201.2831  186.7023  109.9149   197.313  103.9672  172.5426   11.6302  106.2299  221.3767  150.0446
  std. dev.       110.3952   93.4491  102.8897  108.7343  114.0585  110.6448   46.5627   102.467   91.1707   114.114
  weight sum           185      2347       430      6031      4802      2251     11609      1119       697       980
  precision         0.1486    0.1486    0.1486    0.1486    0.1486    0.1486    0.1486    0.1486    0.1486    0.1486

2SmPitch
  mean             209.704  189.6338   124.407  204.8743  114.6851  176.5059    12.707   120.621  229.7721  158.6198
  std. dev.       102.2181   88.7774   103.769   105.225  114.7068   106.636   48.0587   104.478   83.4441  112.4568
  weight sum           185      2347       430      6031      4802      2251     11609      1119       697       980
  precision         0.1475    0.1475    0.1475    0.1475    0.1475    0.1475    0.1475    0.1475    0.1475    0.1475

2Melogram(st)
  mean             51.2372   50.8127   38.4205   51.0152   31.4508   46.6912     4.292   35.2279   54.8522    42.399
  std. dev.        17.5082   14.8245   24.4262   16.4206   27.3605   20.3122   14.7028    25.856   12.6632   23.6994
  weight sum           185      2347       430      6031      4802      2251     11609      1119       697       980
  precision         0.0271    0.0271    0.0271    0.0271    0.0271    0.0271    0.0271    0.0271    0.0271    0.0271

2ZCross
  mean              4.3657    4.8852    1.9001    6.2789    3.1418    3.9781    0.1869    1.9607    3.8114    2.4041
  std. dev.         2.6593    3.1792    2.0075    4.5294    5.0686    2.8849     0.942    2.0795    2.7838    2.0753
  weight sum           185      2347       430      6031      4802      2251     11609      1119       697       980
  precision         1.1739    1.1739    1.1739    1.1739    1.1739    1.1739    1.1739    1.1739    1.1739    1.1739

2F1(Hz)
  mean            498.9833   466.462  391.2913  618.9318  330.7946  486.7294   46.8644  299.1656  499.9719  381.3506
  std. dev.         186.19  141.9729  276.1702  277.9742   280.913  223.3891  156.9447  250.8875  304.4022   233.551
  weight sum           185      2347       430      6031      4802      2251     11609      1119       697       980
  precision         0.3628    0.3628    0.3628    0.3628    0.3628    0.3628    0.3628    0.3628    0.3628    0.3628

2F2(Hz)
  mean           1705.1671 1796.4609 1193.1191 1559.0141 1037.9806  1145.619  145.6726  1047.092 1063.4579 1332.6509
  std. dev.       569.4236  511.4411  771.0706  538.9165  841.7357   528.768  482.7197  835.0249  420.6329  730.2324
  weight sum           185      2347       430      6031      4802      2251     11609      1119       697       980
  precision         0.4452    0.4452    0.4452    0.4452    0.4452    0.4452    0.4452    0.4452    0.4452    0.4452

2F3(Hz)
  mean           2921.8002 2636.0758 2027.9477 2670.7641 1796.3957  2513.778  249.4006 1785.8544 2692.0225 2248.6819
  std. dev.       891.1037  763.9923 1301.1049   817.156 1426.1519 1011.4708  812.1111 1417.5805   759.659 1174.9913
  weight sum           185      2347       430      6031      4802      2251     11609      1119       697       980
  precision         0.6587    0.6587    0.6587    0.6587    0.6587    0.6587    0.6587    0.6587    0.6587    0.6587

2F4(Hz)
  mean           2960.2051 3175.4825 2421.4135 3111.2919 2076.7444 2890.9482  300.6818 2063.2402 3085.5469 2697.4569
  std. dev.        906.295  884.6328 1516.9857  933.1587 1640.9336 1145.4649  976.9137 1625.4486  770.8999 1376.7352
  weight sum           185      2347       430      6031      4802      2251     11609      1119       697       980
  precision         0.6801    0.6801    0.6801    0.6801    0.6801    0.6801    0.6801    0.6801    0.6801    0.6801





=== Stratified cross-validation ===

Correctly Classified Instances       15695               51.5418 %
Incorrectly Classified Instances     14756               48.4582 %
Kappa statistic                          0.3834
K&B Relative Info Score            1129750.1235 %
K&B Information Score                29007.0805 bits      0.9526 bits/instance
Class complexity | order 0           78167.8173 bits      2.567  bits/instance
Class complexity | scheme           501862.8821 bits     16.481  bits/instance
Complexity improvement     (Sf)    -423695.0648 bits    -13.914  bits/instance
Mean absolute error                      0.0978
Root mean squared error                  0.2833
Relative absolute error                 62.9827 %
Root relative squared error            101.7138 %
Coverage of cases (0.95 level)          61.8797 %
Mean rel. region size (0.95 level)      17.6316 %
Total Number of Instances            30451     


=== Detailed Accuracy By Class ===

                 TP Rate  FP Rate  Precision  Recall   F-Measure  MCC      ROC Area  PRC Area  Class
                 0,141    0,024    0,035      0,141    0,056      0,059    0,775     0,025     C
                 0,687    0,244    0,190      0,687    0,298      0,264    0,820     0,263     E
                 0,070    0,026    0,037      0,070    0,048      0,032    0,740     0,031     FV
                 0,401    0,041    0,706      0,401    0,512      0,454    0,843     0,603     AI
                 0,123    0,012    0,661      0,123    0,207      0,240    0,733     0,373     CDGKNRSYZ
                 0,032    0,006    0,291      0,032    0,058      0,075    0,769     0,182     O
                 0,901    0,131    0,809      0,901    0,853      0,757    0,946     0,916     0
                 0,100    0,030    0,113      0,100    0,106      0,075    0,713     0,077     LT
                 0,508    0,043    0,217      0,508    0,304      0,309    0,869     0,347     U
                 0,019    0,009    0,065      0,019    0,030      0,018    0,726     0,060     MBP
Weighted Avg.    0,515    0,082    0,601      0,515    0,499      0,453    0,848     0,575     


=== Confusion Matrix ===

     a     b     c     d     e     f     g     h     i     j   <-- classified as
    26   105     3    18     4     0     8     3    18     0 |     a = C
   165  1613    33   220    31     0    90    98    63    34 |     b = E
    11   205    30    31    19     7    94    22     8     3 |     c = FV
   152  2315   155  2419   105    45   300   180   306    54 |     d = AI
   238  1567   252   317   590    50  1224   227   254    83 |     e = CDGKNRSYZ
    30  1037    98   205    40    72   235    78   438    18 |     f = O
    29   510   156    85    69    45 10460   149    56    50 |     g = 0
    38   465    44    30    18    10   340   112    36    26 |     h = LT
    16   182    10    52     0    11    13    53   354     6 |     i = U
    40   482    40    48    16     7   164    65    99    19 |     j = MBP

=== Percent Confusion Matrix ===
a	b	c	d	e	f	g	h	i	j	
14.05	56.76	1.62	9.73	2.16	0.0	4.32	1.62	9.73	0.0	 a = C
7.03	68.73	1.41	9.37	1.32	0.0	3.83	4.18	2.68	1.45	 b = E
2.56	47.67	6.98	7.21	4.42	1.63	21.86	5.12	1.86	0.7	 c = FV
2.52	38.39	2.57	40.11	1.74	0.75	4.97	2.98	5.07	0.9	 d = AI
4.96	32.63	5.25	6.6	12.29	1.04	25.49	4.73	5.29	1.73	 e = CDGKNRSYZ
1.33	46.07	4.35	9.11	1.78	3.2	10.44	3.47	19.46	0.8	 f = O
0.25	4.39	1.34	0.73	0.59	0.39	90.1	1.28	0.48	0.43	 g = 0
3.4	41.55	3.93	2.68	1.61	0.89	30.38	10.01	3.22	2.32	 h = LT
2.3	26.11	1.43	7.46	0.0	1.58	1.87	7.6	50.79	0.86	 i = U
4.08	49.18	4.08	4.9	1.63	0.71	16.73	6.63	10.1	1.94	 j = MBP
