Timestamp:2014-12-07-11:18:01
Inventario:I4
Intervalo:6ms
Ngramas:2
Clasificador:NaiveBayes
Relation Name:  I4-6ms-2gramas
Num Instances:  30452
Num Attributes: 21

     Name                      Type  Nom  Int Real     Missing      Unique  Dist
   1 0Int(dB)                   Num   0%  10%  90%     0 /  0%     2 /  0%   776 
   2 0Pitch(Hz)                 Num   0%  51%  49%     0 /  0%   750 /  2%  3423 
   3 0RawPitch                  Num   0%  55%  45%     0 /  0%   699 /  2%  3337 
   4 0SmPitch                   Num   0%  53%  47%     0 /  0%   748 /  2%  3382 
   5 0Melogram(st)              Num   0%  48%  52%     0 /  0%   413 /  1%  3048 
   6 0ZCross                    Num   0% 100%   0%     0 /  0%     8 /  0%    47 
   7 0F1(Hz)                    Num   0%  52%  48%     0 /  0%  1130 /  4%  4802 
   8 0F2(Hz)                    Num   0%  51%  49%     0 /  0%  2251 /  7%  6691 
   9 0F3(Hz)                    Num   0%  52%  48%     0 /  0%  1969 /  6%  6255 
  10 0F4(Hz)                    Num   0%  52%  48%     0 /  0%  1938 /  6%  6099 
  11 1Int(dB)                   Num   0%  10%  90%     0 /  0%     3 /  0%   777 
  12 1Pitch(Hz)                 Num   0%  51%  49%     0 /  0%   750 /  2%  3423 
  13 1RawPitch                  Num   0%  55%  45%     0 /  0%   699 /  2%  3337 
  14 1SmPitch                   Num   0%  53%  47%     0 /  0%   748 /  2%  3382 
  15 1Melogram(st)              Num   0%  48%  52%     0 /  0%   413 /  1%  3048 
  16 1ZCross                    Num   0% 100%   0%     0 /  0%     8 /  0%    47 
  17 1F1(Hz)                    Num   0%  52%  48%     0 /  0%  1130 /  4%  4802 
  18 1F2(Hz)                    Num   0%  51%  49%     0 /  0%  2251 /  7%  6691 
  19 1F3(Hz)                    Num   0%  52%  48%     0 /  0%  1969 /  6%  6255 
  20 1F4(Hz)                    Num   0%  52%  48%     0 /  0%  1938 /  6%  6099 
  21 class                      Nom 100%   0%   0%     0 /  0%     0 /  0%    10 


Naive Bayes Classifier

                    Class
Attribute               C         E        FV        AI CDGKNRSYZ         O         0        LT         U       MBP
                   (0.01)    (0.08)    (0.01)     (0.2)    (0.16)    (0.07)    (0.38)    (0.04)    (0.02)    (0.03)
====================================================================================================================
0Int(dB)
  mean             -7.5405   -5.4538  -14.9101   -5.3311  -15.9867     -8.32   -48.822  -17.9539   -5.7217   -12.808
  std. dev.         7.9044    8.3541     9.056    9.7097   10.1484   12.1084   15.7027   12.3205    8.3788   10.9801
  weight sum           185      2347       430      6031      4802      2251     11610      1119       697       980
  precision         0.1001    0.1001    0.1001    0.1001    0.1001    0.1001    0.1001    0.1001    0.1001    0.1001

0Pitch(Hz)
  mean            212.2478  188.9309  135.5009  206.6426  121.7401  179.6002   15.2625  120.0215  229.1165  162.0524
  std. dev.        98.1766   88.8484  107.5102  103.7744  113.9436  105.0982     53.89  104.5498    86.113  110.5525
  weight sum           185      2347       430      6031      4802      2251     11610      1119       697       980
  precision         0.1457    0.1457    0.1457    0.1457    0.1457    0.1457    0.1457    0.1457    0.1457    0.1457

0RawPitch
  mean            202.8895  185.2813   111.142  196.7984  105.0916  173.0353   12.5242   99.5344  219.1052  147.7901
  std. dev.       107.8664   94.3657   103.983  108.9799   114.121  111.2194   48.0496  102.4111   94.0431  115.4056
  weight sum           185      2347       430      6031      4802      2251     11610      1119       697       980
  precision         0.1486    0.1486    0.1486    0.1486    0.1486    0.1486    0.1486    0.1486    0.1486    0.1486

0SmPitch
  mean            210.2142  187.4191  126.3464  204.3827  115.4495  177.2873    13.763  113.5773  227.6752  157.4726
  std. dev.       100.5696   90.1622  104.6501  105.6828  114.4643  107.1683   49.9331  104.4483   87.0875  113.6823
  weight sum           185      2347       430      6031      4802      2251     11610      1119       697       980
  precision         0.1475    0.1475    0.1475    0.1475    0.1475    0.1475    0.1475    0.1475    0.1475    0.1475

0Melogram(st)
  mean             51.4945    50.443    38.768   50.8125   31.6608   46.7991    4.5867   33.4732   54.1423   42.0662
  std. dev.         17.083   15.4134   24.2654   16.7601    27.262   20.2997   15.1422   26.2622    14.241   23.9804
  weight sum           185      2347       430      6031      4802      2251     11610      1119       697       980
  precision         0.0271    0.0271    0.0271    0.0271    0.0271    0.0271    0.0271    0.0271    0.0271    0.0271

0ZCross
  mean              4.4228    4.9057    1.9165    6.2799     3.144    3.9697    0.2049    1.8233    3.7441    2.3311
  std. dev.         2.7279    3.2087    2.0253    4.5402    5.0188    2.9459    0.9758    2.0964    2.8259    2.0986
  weight sum           185      2347       430      6031      4802      2251     11610      1119       697       980
  precision         1.1739    1.1739    1.1739    1.1739    1.1739    1.1739    1.1739    1.1739    1.1739    1.1739

0F1(Hz)
  mean            502.5993  458.4701  405.4793   609.119  342.4798  479.3066   50.3988  295.8377  490.8774  382.1121
  std. dev.       184.8457  153.5049  275.9084    284.71  282.0903  228.1739  162.5646  253.9505  313.8193  236.5551
  weight sum           185      2347       430      6031      4802      2251     11610      1119       697       980
  precision         0.3628    0.3628    0.3628    0.3628    0.3628    0.3628    0.3628    0.3628    0.3628    0.3628

0F2(Hz)
  mean           1720.9577 1756.5682  1210.404 1536.2629 1066.8218 1142.3274  156.3573 1029.2025 1039.7614 1334.4278
  std. dev.       554.7945  558.7593  760.5497  559.9989  838.5412  545.8877  498.6121  839.8568  453.9752  740.0834
  weight sum           185      2347       430      6031      4802      2251     11610      1119       697       980
  precision         0.4452    0.4452    0.4452    0.4452    0.4452    0.4452    0.4452    0.4452    0.4452    0.4452

0F3(Hz)
  mean           2939.9389 2589.9599 2065.6755 2636.1124 1843.5704   2486.42    267.83 1755.4302 2624.1187 2248.5273
  std. dev.       865.0023  828.9033 1286.9009   862.149 1416.5539 1037.8263  838.7023 1421.8369   862.036 1187.9068
  weight sum           185      2347       430      6031      4802      2251     11610      1119       697       980
  precision         0.6587    0.6587    0.6587    0.6587    0.6587    0.6587    0.6587    0.6587    0.6587    0.6587

0F4(Hz)
  mean           2970.8728 3123.7667 2456.6943 3074.1534 2128.0526 2862.0839  322.5048 2026.6173 3008.5041 2685.0292
  std. dev.       876.7275   967.012 1495.5033  987.1967 1626.4151 1178.6146 1007.8125  1629.646  904.6428 1387.1463
  weight sum           185      2347       430      6031      4802      2251     11610      1119       697       980
  precision         0.6801    0.6801    0.6801    0.6801    0.6801    0.6801    0.6801    0.6801    0.6801    0.6801

1Int(dB)
  mean             -7.6486   -5.3083  -14.9621   -5.2672  -16.0368   -8.2927  -49.0432  -16.8688   -5.2124  -12.3369
  std. dev.         7.9568    8.1563    8.8347    9.6075    9.8914   12.1905   15.4138   11.9055    7.6533    10.602
  weight sum           185      2347       430      6031      4802      2251     11610      1119       697       980
  precision         0.1027    0.1027    0.1027    0.1027    0.1027    0.1027    0.1027    0.1027    0.1027    0.1027

1Pitch(Hz)
  mean            211.7374  191.0581  133.3692  207.0059  121.3523  178.5747   14.1311  127.4747  230.7901  163.7124
  std. dev.        99.8735   87.4612  106.8281  103.4399  114.2971  104.7438   52.0109  103.8849   82.8574  108.8774
  weight sum           185      2347       430      6031      4802      2251     11610      1119       697       980
  precision         0.1457    0.1457    0.1457    0.1457    0.1457    0.1457    0.1457    0.1457    0.1457    0.1457

1RawPitch
  mean            201.2831  186.7023  109.9149   197.313  103.9672  172.5426   11.6292  106.2299  221.3767  150.0446
  std. dev.       110.3952   93.4491  102.8897  108.7343  114.0585  110.6448   46.5608   102.467   91.1707   114.114
  weight sum           185      2347       430      6031      4802      2251     11610      1119       697       980
  precision         0.1486    0.1486    0.1486    0.1486    0.1486    0.1486    0.1486    0.1486    0.1486    0.1486

1SmPitch
  mean             209.704  189.6338   124.407  204.8743  114.6851  176.5059   12.7059   120.621  229.7721  158.6198
  std. dev.       102.2181   88.7774   103.769   105.225  114.7068   106.636   48.0568   104.478   83.4441  112.4568
  weight sum           185      2347       430      6031      4802      2251     11610      1119       697       980
  precision         0.1475    0.1475    0.1475    0.1475    0.1475    0.1475    0.1475    0.1475    0.1475    0.1475

1Melogram(st)
  mean             51.2372   50.8127   38.4205   51.0152   31.4508   46.6912    4.2916   35.2279   54.8522    42.399
  std. dev.        17.5082   14.8245   24.4262   16.4206   27.3605   20.3122   14.7022    25.856   12.6632   23.6994
  weight sum           185      2347       430      6031      4802      2251     11610      1119       697       980
  precision         0.0271    0.0271    0.0271    0.0271    0.0271    0.0271    0.0271    0.0271    0.0271    0.0271

1ZCross
  mean              4.3657    4.8852    1.9001    6.2789    3.1418    3.9781    0.1869    1.9607    3.8114    2.4041
  std. dev.         2.6593    3.1792    2.0075    4.5294    5.0686    2.8849     0.942    2.0795    2.7838    2.0753
  weight sum           185      2347       430      6031      4802      2251     11610      1119       697       980
  precision         1.1739    1.1739    1.1739    1.1739    1.1739    1.1739    1.1739    1.1739    1.1739    1.1739

1F1(Hz)
  mean            498.9833   466.462  391.2913  618.9318  330.7946  486.7294   46.8603  299.1656  499.9719  381.3506
  std. dev.         186.19  141.9729  276.1702  277.9742   280.913  223.3891  156.9386  250.8875  304.4022   233.551
  weight sum           185      2347       430      6031      4802      2251     11610      1119       697       980
  precision         0.3628    0.3628    0.3628    0.3628    0.3628    0.3628    0.3628    0.3628    0.3628    0.3628

1F2(Hz)
  mean           1705.1671 1796.4609 1193.1191 1559.0141 1037.9806  1145.619  145.6601  1047.092 1063.4579 1332.6509
  std. dev.       569.4236  511.4411  771.0706  538.9165  841.7357   528.768  482.7008  835.0249  420.6329  730.2324
  weight sum           185      2347       430      6031      4802      2251     11610      1119       697       980
  precision         0.4452    0.4452    0.4452    0.4452    0.4452    0.4452    0.4452    0.4452    0.4452    0.4452

1F3(Hz)
  mean           2921.8002 2636.0758 2027.9477 2670.7641 1796.3957  2513.778  249.3791 1785.8544 2692.0225 2248.6819
  std. dev.       891.1037  763.9923 1301.1049   817.156 1426.1519 1011.4708  812.0795 1417.5805   759.659 1174.9913
  weight sum           185      2347       430      6031      4802      2251     11610      1119       697       980
  precision         0.6587    0.6587    0.6587    0.6587    0.6587    0.6587    0.6587    0.6587    0.6587    0.6587

1F4(Hz)
  mean           2960.2051 3175.4825 2421.4135 3111.2919 2076.7444 2890.9482  300.6559 2063.2402 3085.5469 2697.4569
  std. dev.        906.295  884.6328 1516.9857  933.1587 1640.9336 1145.4649  976.8757 1625.4486  770.8999 1376.7352
  weight sum           185      2347       430      6031      4802      2251     11610      1119       697       980
  precision         0.6801    0.6801    0.6801    0.6801    0.6801    0.6801    0.6801    0.6801    0.6801    0.6801





=== Stratified cross-validation ===

Correctly Classified Instances       16229               53.2937 %
Incorrectly Classified Instances     14223               46.7063 %
Kappa statistic                          0.3993
K&B Relative Info Score            1178490.0533 %
K&B Information Score                30259.2007 bits      0.9937 bits/instance
Class complexity | order 0           78169.2083 bits      2.567  bits/instance
Class complexity | scheme           350517.1106 bits     11.5105 bits/instance
Complexity improvement     (Sf)    -272347.9022 bits     -8.9435 bits/instance
Mean absolute error                      0.096 
Root mean squared error                  0.2725
Relative absolute error                 61.8672 %
Root relative squared error             97.8278 %
Coverage of cases (0.95 level)          66.682  %
Mean rel. region size (0.95 level)      20.6755 %
Total Number of Instances            30452     


=== Detailed Accuracy By Class ===

                 TP Rate  FP Rate  Precision  Recall   F-Measure  MCC      ROC Area  PRC Area  Class
                 0,043    0,004    0,063      0,043    0,051      0,047    0,766     0,023     C
                 0,730    0,255    0,193      0,730    0,305      0,279    0,831     0,264     E
                 0,026    0,011    0,034      0,026    0,029      0,017    0,741     0,031     FV
                 0,448    0,055    0,669      0,448    0,537      0,462    0,845     0,605     AI
                 0,156    0,027    0,517      0,156    0,239      0,220    0,731     0,372     CDGKNRSYZ
                 0,048    0,008    0,325      0,048    0,083      0,100    0,771     0,188     O
                 0,905    0,134    0,806      0,905    0,852      0,756    0,957     0,953     0
                 0,058    0,015    0,130      0,058    0,080      0,064    0,717     0,080     LT
                 0,498    0,037    0,240      0,498    0,324      0,324    0,874     0,358     U
                 0,023    0,010    0,071      0,023    0,035      0,023    0,730     0,060     MBP
Weighted Avg.    0,533    0,089    0,573      0,533    0,511      0,454    0,853     0,590     


=== Confusion Matrix ===

     a     b     c     d     e     f     g     h     i     j   <-- classified as
     8   113     0    30     8     0     9     0    17     0 |     a = C
    41  1714    11   292    82     8    91    39    37    32 |     b = E
     0   215    11    36    32     9    96    18    10     3 |     c = FV
    15  2334    83  2702   177    47   309    97   217    50 |     d = AI
    52  1693    92   409   747    72  1275   115   235   112 |     e = CDGKNRSYZ
     2  1062    43   261    85   107   239    34   405    13 |     f = O
     3   529    56   116   174    51 10505    64    58    54 |     g = 0
     2   498    18    60    76    14   337    65    20    29 |     h = LT
     0   204     2    62    11    13    10    38   347    10 |     i = U
     4   512    11    72    53     8   168    30    99    23 |     j = MBP

=== Percent Confusion Matrix ===
a	b	c	d	e	f	g	h	i	j	
4.32	61.08	0.0	16.22	4.32	0.0	4.86	0.0	9.19	0.0	 a = C
1.75	73.03	0.47	12.44	3.49	0.34	3.88	1.66	1.58	1.36	 b = E
0.0	50.0	2.56	8.37	7.44	2.09	22.33	4.19	2.33	0.7	 c = FV
0.25	38.7	1.38	44.8	2.93	0.78	5.12	1.61	3.6	0.83	 d = AI
1.08	35.26	1.92	8.52	15.56	1.5	26.55	2.39	4.89	2.33	 e = CDGKNRSYZ
0.09	47.18	1.91	11.59	3.78	4.75	10.62	1.51	17.99	0.58	 f = O
0.03	4.56	0.48	1.0	1.5	0.44	90.48	0.55	0.5	0.47	 g = 0
0.18	44.5	1.61	5.36	6.79	1.25	30.12	5.81	1.79	2.59	 h = LT
0.0	29.27	0.29	8.9	1.58	1.87	1.43	5.45	49.78	1.43	 i = U
0.41	52.24	1.12	7.35	5.41	0.82	17.14	3.06	10.1	2.35	 j = MBP
