Timestamp:2014-12-07-11:18:16
Inventario:I4
Intervalo:6ms
Ngramas:4
Clasificador:NaiveBayes
Relation Name:  I4-6ms-4gramas
Num Instances:  30450
Num Attributes: 41

     Name                      Type  Nom  Int Real     Missing      Unique  Dist
   1 0Int(dB)                   Num   0%  10%  90%     0 /  0%     2 /  0%   776 
   2 0Pitch(Hz)                 Num   0%  51%  49%     0 /  0%   750 /  2%  3423 
   3 0RawPitch                  Num   0%  55%  45%     0 /  0%   699 /  2%  3337 
   4 0SmPitch                   Num   0%  53%  47%     0 /  0%   748 /  2%  3382 
   5 0Melogram(st)              Num   0%  48%  52%     0 /  0%   413 /  1%  3048 
   6 0ZCross                    Num   0% 100%   0%     0 /  0%     8 /  0%    47 
   7 0F1(Hz)                    Num   0%  52%  48%     0 /  0%  1130 /  4%  4802 
   8 0F2(Hz)                    Num   0%  51%  49%     0 /  0%  2251 /  7%  6691 
   9 0F3(Hz)                    Num   0%  52%  48%     0 /  0%  1969 /  6%  6255 
  10 0F4(Hz)                    Num   0%  52%  48%     0 /  0%  1938 /  6%  6099 
  11 1Int(dB)                   Num   0%  10%  90%     0 /  0%     2 /  0%   776 
  12 1Pitch(Hz)                 Num   0%  51%  49%     0 /  0%   750 /  2%  3423 
  13 1RawPitch                  Num   0%  55%  45%     0 /  0%   699 /  2%  3337 
  14 1SmPitch                   Num   0%  53%  47%     0 /  0%   748 /  2%  3382 
  15 1Melogram(st)              Num   0%  48%  52%     0 /  0%   413 /  1%  3048 
  16 1ZCross                    Num   0% 100%   0%     0 /  0%     8 /  0%    47 
  17 1F1(Hz)                    Num   0%  52%  48%     0 /  0%  1130 /  4%  4802 
  18 1F2(Hz)                    Num   0%  51%  49%     0 /  0%  2251 /  7%  6691 
  19 1F3(Hz)                    Num   0%  52%  48%     0 /  0%  1969 /  6%  6255 
  20 1F4(Hz)                    Num   0%  52%  48%     0 /  0%  1938 /  6%  6099 
  21 2Int(dB)                   Num   0%  10%  90%     0 /  0%     2 /  0%   776 
  22 2Pitch(Hz)                 Num   0%  51%  49%     0 /  0%   750 /  2%  3423 
  23 2RawPitch                  Num   0%  55%  45%     0 /  0%   699 /  2%  3337 
  24 2SmPitch                   Num   0%  53%  47%     0 /  0%   748 /  2%  3382 
  25 2Melogram(st)              Num   0%  48%  52%     0 /  0%   413 /  1%  3048 
  26 2ZCross                    Num   0% 100%   0%     0 /  0%     8 /  0%    47 
  27 2F1(Hz)                    Num   0%  52%  48%     0 /  0%  1130 /  4%  4802 
  28 2F2(Hz)                    Num   0%  51%  49%     0 /  0%  2251 /  7%  6691 
  29 2F3(Hz)                    Num   0%  52%  48%     0 /  0%  1969 /  6%  6255 
  30 2F4(Hz)                    Num   0%  52%  48%     0 /  0%  1938 /  6%  6099 
  31 3Int(dB)                   Num   0%  10%  90%     0 /  0%     3 /  0%   777 
  32 3Pitch(Hz)                 Num   0%  51%  49%     0 /  0%   750 /  2%  3423 
  33 3RawPitch                  Num   0%  55%  45%     0 /  0%   699 /  2%  3337 
  34 3SmPitch                   Num   0%  53%  47%     0 /  0%   748 /  2%  3382 
  35 3Melogram(st)              Num   0%  48%  52%     0 /  0%   413 /  1%  3048 
  36 3ZCross                    Num   0% 100%   0%     0 /  0%     8 /  0%    47 
  37 3F1(Hz)                    Num   0%  52%  48%     0 /  0%  1130 /  4%  4802 
  38 3F2(Hz)                    Num   0%  51%  49%     0 /  0%  2251 /  7%  6691 
  39 3F3(Hz)                    Num   0%  52%  48%     0 /  0%  1969 /  6%  6255 
  40 3F4(Hz)                    Num   0%  52%  48%     0 /  0%  1938 /  6%  6099 
  41 class                      Nom 100%   0%   0%     0 /  0%     0 /  0%    10 


Naive Bayes Classifier

                    Class
Attribute               C         E        FV        AI CDGKNRSYZ         O         0        LT         U       MBP
                   (0.01)    (0.08)    (0.01)     (0.2)    (0.16)    (0.07)    (0.38)    (0.04)    (0.02)    (0.03)
====================================================================================================================
0Int(dB)
  mean             -7.2142   -6.5177  -13.9952    -5.987  -15.4019   -8.9796  -48.2636  -18.5139   -7.2074  -12.9282
  std. dev.          7.671    9.2729    9.9098   10.4259   11.0288   12.1898   16.5008   13.2975    10.005   11.6685
  weight sum           185      2347       430      6031      4802      2251     11608      1119       697       980
  precision         0.1001    0.1001    0.1001    0.1001    0.1001    0.1001    0.1001    0.1001    0.1001    0.1001

0Pitch(Hz)
  mean            213.3953  181.8248  141.9695   202.241  128.4733  175.9605   17.3088  117.1759  220.3105  163.7762
  std. dev.        94.6038   92.6133  108.6529  107.4054  113.0811  108.5713   57.1161  106.3111   97.9407  111.3227
  weight sum           185      2347       430      6031      4802      2251     11608      1119       697       980
  precision         0.1457    0.1457    0.1457    0.1457    0.1457    0.1457    0.1457    0.1457    0.1457    0.1457

0RawPitch
  mean            204.2855  176.4078   119.205  192.1052  113.0752  167.3967   14.6437    99.124  209.3446  150.2849
  std. dev.       103.8311   98.3173  106.8748  112.1993  114.4974  114.5172   52.4086  103.6674  105.1448  115.4886
  weight sum           185      2347       430      6031      4802      2251     11608      1119       697       980
  precision         0.1486    0.1486    0.1486    0.1486    0.1486    0.1486    0.1486    0.1486    0.1486    0.1486

0SmPitch
  mean            211.3589  178.7991  132.2744  199.7968  122.9118  173.1852   15.8543    111.74  217.8306  160.7347
  std. dev.        97.1136   95.0401  106.6852  109.3038  113.9128  110.6103   53.6496  105.6948   99.6499  113.5476
  weight sum           185      2347       430      6031      4802      2251     11608      1119       697       980
  precision         0.1475    0.1475    0.1475    0.1475    0.1475    0.1475    0.1475    0.1475    0.1475    0.1475

0Melogram(st)
  mean             52.0295   48.4575   40.1595   49.4942    33.765   45.7682    5.0775   33.3052   51.0893   42.8393
  std. dev.        16.1861   17.9973   23.6269   18.4987   26.8168   21.3497   15.8211   26.3311   18.8712   23.5694
  weight sum           185      2347       430      6031      4802      2251     11608      1119       697       980
  precision         0.0271    0.0271    0.0271    0.0271    0.0271    0.0271    0.0271    0.0271    0.0271    0.0271

0ZCross
  mean              4.5814    4.8042     2.184     6.123    3.1682    3.8899    0.2937    1.8621    3.6026    2.4616
  std. dev.          2.881    3.4983     2.217    4.6405    4.6656    3.3516     1.378    2.2812    2.9524     2.346
  weight sum           185      2347       430      6031      4802      2251     11608      1119       697       980
  precision         1.1739    1.1739    1.1739    1.1739    1.1739    1.1739    1.1739    1.1739    1.1739    1.1739

0F1(Hz)
  mean            512.4257  436.6695  439.5501  580.9978   374.768  453.8732   58.3252  313.8447   463.808  395.6915
  std. dev.       186.1576  181.6351  266.9062  303.2232  280.6229  244.1481  175.0326  259.8882  334.8008  237.6905
  weight sum           185      2347       430      6031      4802      2251     11608      1119       697       980
  precision         0.3628    0.3628    0.3628    0.3628    0.3628    0.3628    0.3628    0.3628    0.3628    0.3628

0F2(Hz)
  mean           1732.4354 1648.9094 1279.0165 1469.7372 1150.1796 1110.1712    179.12 1064.1025  978.1609 1369.4578
  std. dev.       537.3682  663.0113  732.7963  617.1159   820.093   595.382  531.0452  835.4966  525.2413  735.8848
  weight sum           185      2347       430      6031      4802      2251     11608      1119       697       980
  precision         0.4452    0.4452    0.4452    0.4452    0.4452    0.4452    0.4452    0.4452    0.4452    0.4452

0F3(Hz)
  mean           2961.3428 2459.3827 2180.6268 2533.0868 1982.7105 2381.0703  306.6365 1815.2119 2438.5289 2305.6138
  std. dev.       835.5839   978.513  1230.956  981.1833  1375.663 1130.0518  891.0759 1405.8595 1064.3754 1172.8483
  weight sum           185      2347       430      6031      4802      2251     11608      1119       697       980
  precision         0.6587    0.6587    0.6587    0.6587    0.6587    0.6587    0.6587    0.6587    0.6587    0.6587

0F4(Hz)
  mean           2976.6074 2976.4834 2575.9403 2959.1448 2285.0672 2744.0896  368.3452 2088.4394 2803.9205 2726.3768
  std. dev.       842.2855 1157.0182 1422.3377 1129.5158 1574.3161 1290.3365 1068.3973 1607.1688 1162.6311 1356.7863
  weight sum           185      2347       430      6031      4802      2251     11608      1119       697       980
  precision         0.6801    0.6801    0.6801    0.6801    0.6801    0.6801    0.6801    0.6801    0.6801    0.6801

1Int(dB)
  mean             -7.3717   -5.8995  -14.5611   -5.5906  -15.7368   -8.5713  -48.5573  -18.4855    -6.419  -12.9966
  std. dev.         7.7564     8.786    9.4214   10.0104   10.5469   12.1108   16.0885   12.8229    9.2206   11.3571
  weight sum           185      2347       430      6031      4802      2251     11608      1119       697       980
  precision         0.1001    0.1001    0.1001    0.1001    0.1001    0.1001    0.1001    0.1001    0.1001    0.1001

1Pitch(Hz)
  mean             212.796  185.9675  138.3865  204.9745  124.3155  178.5044   16.3313   116.379  225.2933  162.1914
  std. dev.        96.4346   90.3606  108.2488  105.1737  113.6234  106.4846   55.6028  105.3743   91.5415  111.4338
  weight sum           185      2347       430      6031      4802      2251     11608      1119       697       980
  precision         0.1457    0.1457    0.1457    0.1457    0.1457    0.1457    0.1457    0.1457    0.1457    0.1457

1RawPitch
  mean            204.0975  181.6948  114.6567  194.8267  108.4751  171.1249   13.5144   97.3511  215.3066  148.0422
  std. dev.       105.3875   96.2139  105.4998  110.3133  114.3285  112.4932   50.0944  102.8282   98.6174  115.6256
  weight sum           185      2347       430      6031      4802      2251     11608      1119       697       980
  precision         0.1486    0.1486    0.1486    0.1486    0.1486    0.1486    0.1486    0.1486    0.1486    0.1486

1SmPitch
  mean             210.761  183.5596  128.8353  202.6684   118.457  175.9059   14.8074  110.3159  223.7844  158.6549
  std. dev.        98.8831   92.3488  105.8213  107.0761   114.309  108.6981   51.7824  104.7038   92.4136   113.938
  weight sum           185      2347       430      6031      4802      2251     11608      1119       697       980
  precision         0.1475    0.1475    0.1475    0.1475    0.1475    0.1475    0.1475    0.1475    0.1475    0.1475

1Melogram(st)
  mean             51.7574   49.6417   39.2686   50.3145   32.4484   46.4994    4.8249   32.9316   52.9038   42.2976
  std. dev.        16.6431   16.5413   24.0506   17.4593   27.1059   20.6431   15.4713   26.3734    16.369   23.9194
  weight sum           185      2347       430      6031      4802      2251     11608      1119       697       980
  precision         0.0271    0.0271    0.0271    0.0271    0.0271    0.0271    0.0271    0.0271    0.0271    0.0271

1ZCross
  mean              4.5116    4.8687    2.0038    6.2199    3.1602    3.9353    0.2426    1.8044    3.6666    2.3634
  std. dev.         2.8159    3.3612    2.0839    4.5806    4.8647     3.141    1.1446    2.1798    2.8883    2.1945
  weight sum           185      2347       430      6031      4802      2251     11608      1119       697       980
  precision         1.1739    1.1739    1.1739    1.1739    1.1739    1.1739    1.1739    1.1739    1.1739    1.1739

1F1(Hz)
  mean            507.8861  448.1303  421.3901  596.3135  357.8311  467.9136   53.9368  303.1704  478.0605  387.5882
  std. dev.       183.9556  167.3815  272.3544  293.4311  282.0279  235.6843  168.2168  257.2305   324.529  237.6824
  weight sum           185      2347       430      6031      4802      2251     11608      1119       697       980
  precision         0.3628    0.3628    0.3628    0.3628    0.3628    0.3628    0.3628    0.3628    0.3628    0.3628

1F2(Hz)
  mean           1733.2802 1706.5198 1239.1028  1506.171 1106.4993 1129.6245  166.3459 1041.7637 1009.2259 1348.6957
  std. dev.       538.7244  612.0386  748.4208  586.9452  831.3884  569.4748  512.7501  838.6922  490.7397  740.2835
  weight sum           185      2347       430      6031      4802      2251     11608      1119       697       980
  precision         0.4452    0.4452    0.4452    0.4452    0.4452    0.4452    0.4452    0.4452    0.4452    0.4452

1F3(Hz)
  mean           2958.4586 2528.8267 2115.5779 2589.6367 1909.1871  2440.143  285.4439  1777.123 2534.3382  2271.328
  std. dev.       836.9391   904.012 1263.4416  918.4894 1399.4993 1080.4541  863.1657 1415.6103  971.1663 1184.8692
  weight sum           185      2347       430      6031      4802      2251     11608      1119       697       980
  precision         0.6587    0.6587    0.6587    0.6587    0.6587    0.6587    0.6587    0.6587    0.6587    0.6587

1F4(Hz)
  mean           2982.8308  3055.702 2508.5338 3023.1734  2201.316 2810.7638  343.1031  2048.367 2907.9441 2699.0169
  std. dev.        846.372 1062.5316 1464.9089 1054.7453 1603.7942 1230.5926 1035.5106  1620.351 1043.9573 1377.3282
  weight sum           185      2347       430      6031      4802      2251     11608      1119       697       980
  precision         0.6801    0.6801    0.6801    0.6801    0.6801    0.6801    0.6801    0.6801    0.6801    0.6801

2Int(dB)
  mean             -7.5405   -5.4538  -14.9101   -5.3311  -15.9867     -8.32  -48.8226  -17.9539   -5.7217   -12.808
  std. dev.         7.9044    8.3541     9.056    9.7097   10.1484   12.1084    15.704   12.3205    8.3788   10.9801
  weight sum           185      2347       430      6031      4802      2251     11608      1119       697       980
  precision         0.1001    0.1001    0.1001    0.1001    0.1001    0.1001    0.1001    0.1001    0.1001    0.1001

2Pitch(Hz)
  mean            212.2478  188.9309  135.5009  206.6426  121.7401  179.6002   15.2651  120.0215  229.1165  162.0524
  std. dev.        98.1766   88.8484  107.5102  103.7744  113.9436  105.0982   53.8943  104.5498    86.113  110.5525
  weight sum           185      2347       430      6031      4802      2251     11608      1119       697       980
  precision         0.1457    0.1457    0.1457    0.1457    0.1457    0.1457    0.1457    0.1457    0.1457    0.1457

2RawPitch
  mean            202.8895  185.2813   111.142  196.7984  105.0916  173.0353   12.5263   99.5344  219.1052  147.7901
  std. dev.       107.8664   94.3657   103.983  108.9799   114.121  111.2194   48.0535  102.4111   94.0431  115.4056
  weight sum           185      2347       430      6031      4802      2251     11608      1119       697       980
  precision         0.1486    0.1486    0.1486    0.1486    0.1486    0.1486    0.1486    0.1486    0.1486    0.1486

2SmPitch
  mean            210.2142  187.4191  126.3464  204.3827  115.4495  177.2873   13.7654  113.5773  227.6752  157.4726
  std. dev.       100.5696   90.1622  104.6501  105.6828  114.4643  107.1683    49.937  104.4483   87.0875  113.6823
  weight sum           185      2347       430      6031      4802      2251     11608      1119       697       980
  precision         0.1475    0.1475    0.1475    0.1475    0.1475    0.1475    0.1475    0.1475    0.1475    0.1475

2Melogram(st)
  mean             51.4945    50.443    38.768   50.8125   31.6608   46.7991    4.5875   33.4732   54.1423   42.0662
  std. dev.         17.083   15.4134   24.2654   16.7601    27.262   20.2997   15.1434   26.2622    14.241   23.9804
  weight sum           185      2347       430      6031      4802      2251     11608      1119       697       980
  precision         0.0271    0.0271    0.0271    0.0271    0.0271    0.0271    0.0271    0.0271    0.0271    0.0271

2ZCross
  mean              4.4228    4.9057    1.9165    6.2799     3.144    3.9697    0.2049    1.8233    3.7441    2.3311
  std. dev.         2.7279    3.2087    2.0253    4.5402    5.0188    2.9459    0.9759    2.0964    2.8259    2.0986
  weight sum           185      2347       430      6031      4802      2251     11608      1119       697       980
  precision         1.1739    1.1739    1.1739    1.1739    1.1739    1.1739    1.1739    1.1739    1.1739    1.1739

2F1(Hz)
  mean            502.5993  458.4701  405.4793   609.119  342.4798  479.3066   50.4075  295.8377  490.8774  382.1121
  std. dev.       184.8457  153.5049  275.9084    284.71  282.0903  228.1739  162.5773  253.9505  313.8193  236.5551
  weight sum           185      2347       430      6031      4802      2251     11608      1119       697       980
  precision         0.3628    0.3628    0.3628    0.3628    0.3628    0.3628    0.3628    0.3628    0.3628    0.3628

2F2(Hz)
  mean           1720.9577 1756.5682  1210.404 1536.2629 1066.8218 1142.3274  156.3842 1029.2025 1039.7614 1334.4278
  std. dev.       554.7945  558.7593  760.5497  559.9989  838.5412  545.8877  498.6509  839.8568  453.9752  740.0834
  weight sum           185      2347       430      6031      4802      2251     11608      1119       697       980
  precision         0.4452    0.4452    0.4452    0.4452    0.4452    0.4452    0.4452    0.4452    0.4452    0.4452

2F3(Hz)
  mean           2939.9389 2589.9599 2065.6755 2636.1124 1843.5704   2486.42  267.8761 1755.4302 2624.1187 2248.5273
  std. dev.       865.0023  828.9033 1286.9009   862.149 1416.5539 1037.8263  838.7672 1421.8369   862.036 1187.9068
  weight sum           185      2347       430      6031      4802      2251     11608      1119       697       980
  precision         0.6587    0.6587    0.6587    0.6587    0.6587    0.6587    0.6587    0.6587    0.6587    0.6587

2F4(Hz)
  mean           2970.8728 3123.7667 2456.6943 3074.1534 2128.0526 2862.0839  322.5604 2026.6173 3008.5041 2685.0292
  std. dev.       876.7275   967.012 1495.5033  987.1967 1626.4151 1178.6146 1007.8905  1629.646  904.6428 1387.1463
  weight sum           185      2347       430      6031      4802      2251     11608      1119       697       980
  precision         0.6801    0.6801    0.6801    0.6801    0.6801    0.6801    0.6801    0.6801    0.6801    0.6801

3Int(dB)
  mean             -7.6486   -5.3083  -14.9621   -5.2672  -16.0368   -8.2927  -49.0436  -16.8688   -5.2124  -12.3369
  std. dev.         7.9568    8.1563    8.8347    9.6075    9.8914   12.1905   15.4151   11.9055    7.6533    10.602
  weight sum           185      2347       430      6031      4802      2251     11608      1119       697       980
  precision         0.1027    0.1027    0.1027    0.1027    0.1027    0.1027    0.1027    0.1027    0.1027    0.1027

3Pitch(Hz)
  mean            211.7374  191.0581  133.3692  207.0059  121.3523  178.5747   14.1336  127.4747  230.7901  163.7124
  std. dev.        99.8735   87.4612  106.8281  103.4399  114.2971  104.7438   52.0151  103.8849   82.8574  108.8774
  weight sum           185      2347       430      6031      4802      2251     11608      1119       697       980
  precision         0.1457    0.1457    0.1457    0.1457    0.1457    0.1457    0.1457    0.1457    0.1457    0.1457

3RawPitch
  mean            201.2831  186.7023  109.9149   197.313  103.9672  172.5426   11.6312  106.2299  221.3767  150.0446
  std. dev.       110.3952   93.4491  102.8897  108.7343  114.0585  110.6448   46.5646   102.467   91.1707   114.114
  weight sum           185      2347       430      6031      4802      2251     11608      1119       697       980
  precision         0.1486    0.1486    0.1486    0.1486    0.1486    0.1486    0.1486    0.1486    0.1486    0.1486

3SmPitch
  mean             209.704  189.6338   124.407  204.8743  114.6851  176.5059   12.7081   120.621  229.7721  158.6198
  std. dev.       102.2181   88.7774   103.769   105.225  114.7068   106.636   48.0606   104.478   83.4441  112.4568
  weight sum           185      2347       430      6031      4802      2251     11608      1119       697       980
  precision         0.1475    0.1475    0.1475    0.1475    0.1475    0.1475    0.1475    0.1475    0.1475    0.1475

3Melogram(st)
  mean             51.2372   50.8127   38.4205   51.0152   31.4508   46.6912    4.2923   35.2279   54.8522    42.399
  std. dev.        17.5082   14.8245   24.4262   16.4206   27.3605   20.3122   14.7034    25.856   12.6632   23.6994
  weight sum           185      2347       430      6031      4802      2251     11608      1119       697       980
  precision         0.0271    0.0271    0.0271    0.0271    0.0271    0.0271    0.0271    0.0271    0.0271    0.0271

3ZCross
  mean              4.3657    4.8852    1.9001    6.2789    3.1418    3.9781    0.1869    1.9607    3.8114    2.4041
  std. dev.         2.6593    3.1792    2.0075    4.5294    5.0686    2.8849    0.9421    2.0795    2.7838    2.0753
  weight sum           185      2347       430      6031      4802      2251     11608      1119       697       980
  precision         1.1739    1.1739    1.1739    1.1739    1.1739    1.1739    1.1739    1.1739    1.1739    1.1739

3F1(Hz)
  mean            498.9833   466.462  391.2913  618.9318  330.7946  486.7294   46.8684  299.1656  499.9719  381.3506
  std. dev.         186.19  141.9729  276.1702  277.9742   280.913  223.3891  156.9509  250.8875  304.4022   233.551
  weight sum           185      2347       430      6031      4802      2251     11608      1119       697       980
  precision         0.3628    0.3628    0.3628    0.3628    0.3628    0.3628    0.3628    0.3628    0.3628    0.3628

3F2(Hz)
  mean           1705.1671 1796.4609 1193.1191 1559.0141 1037.9806  1145.619  145.6852  1047.092 1063.4579 1332.6509
  std. dev.       569.4236  511.4411  771.0706  538.9165  841.7357   528.768  482.7386  835.0249  420.6329  730.2324
  weight sum           185      2347       430      6031      4802      2251     11608      1119       697       980
  precision         0.4452    0.4452    0.4452    0.4452    0.4452    0.4452    0.4452    0.4452    0.4452    0.4452

3F3(Hz)
  mean           2921.8002 2636.0758 2027.9477 2670.7641 1796.3957  2513.778  249.4221 1785.8544 2692.0225 2248.6819
  std. dev.       891.1037  763.9923 1301.1049   817.156 1426.1519 1011.4708  812.1428 1417.5805   759.659 1174.9913
  weight sum           185      2347       430      6031      4802      2251     11608      1119       697       980
  precision         0.6587    0.6587    0.6587    0.6587    0.6587    0.6587    0.6587    0.6587    0.6587    0.6587

3F4(Hz)
  mean           2960.2051 3175.4825 2421.4135 3111.2919 2076.7444 2890.9482  300.7077 2063.2402 3085.5469 2697.4569
  std. dev.        906.295  884.6328 1516.9857  933.1587 1640.9336 1145.4649  976.9518 1625.4486  770.8999 1376.7352
  weight sum           185      2347       430      6031      4802      2251     11608      1119       697       980
  precision         0.6801    0.6801    0.6801    0.6801    0.6801    0.6801    0.6801    0.6801    0.6801    0.6801





=== Stratified cross-validation ===

Correctly Classified Instances       15237               50.0394 %
Incorrectly Classified Instances     15213               49.9606 %
Kappa statistic                          0.3687
K&B Relative Info Score            1078103.1089 %
K&B Information Score                27680.5512 bits      0.909  bits/instance
Class complexity | order 0           78166.4262 bits      2.567  bits/instance
Class complexity | scheme           647176.2317 bits     21.2537 bits/instance
Complexity improvement     (Sf)    -569009.8055 bits    -18.6867 bits/instance
Mean absolute error                      0.0999
Root mean squared error                  0.2917
Relative absolute error                 64.3675 %
Root relative squared error            104.6954 %
Coverage of cases (0.95 level)          58.3514 %
Mean rel. region size (0.95 level)      15.9754 %
Total Number of Instances            30450     


=== Detailed Accuracy By Class ===

                 TP Rate  FP Rate  Precision  Recall   F-Measure  MCC      ROC Area  PRC Area  Class
                 0,286    0,063    0,027      0,286    0,049      0,071    0,776     0,023     C
                 0,601    0,221    0,185      0,601    0,283      0,234    0,811     0,263     E
                 0,086    0,033    0,036      0,086    0,051      0,035    0,741     0,032     FV
                 0,378    0,038    0,712      0,378    0,493      0,442    0,839     0,598     AI
                 0,107    0,009    0,693      0,107    0,185      0,232    0,731     0,368     CDGKNRSYZ
                 0,023    0,005    0,274      0,023    0,043      0,060    0,767     0,179     O
                 0,897    0,128    0,812      0,897    0,853      0,757    0,919     0,835     0
                 0,102    0,040    0,089      0,102    0,095      0,058    0,707     0,072     LT
                 0,498    0,035    0,251      0,498    0,334      0,333    0,865     0,333     U
                 0,017    0,008    0,071      0,017    0,028      0,020    0,724     0,060     MBP
Weighted Avg.    0,500    0,078    0,606      0,500    0,490      0,446    0,835     0,541     


=== Confusion Matrix ===

     a     b     c     d     e     f     g     h     i     j   <-- classified as
    53    84     3    15     2     0     8     5    15     0 |     a = C
   363  1410    43   202    24     8    91   129    49    28 |     b = E
    40   185    37    23    11     4    88    33     7     2 |     c = FV
   500  2110   184  2277   102    40   295   256   233    34 |     d = AI
   511  1393   321   290   514    31  1171   312   183    76 |     e = CDGKNRSYZ
   133   963   129   205    24    52   236   110   389    10 |     f = O
    93   482   188    69    48    40 10416   184    44    44 |     g = 0
   114   406    52    22     8     7   345   114    26    25 |     h = LT
    40   156    13    53     1     7    16    60   347     4 |     i = U
   110   422    49    44     8     1   158    81    90    17 |     j = MBP

=== Percent Confusion Matrix ===
a	b	c	d	e	f	g	h	i	j	
28.65	45.41	1.62	8.11	1.08	0.0	4.32	2.7	8.11	0.0	 a = C
15.47	60.08	1.83	8.61	1.02	0.34	3.88	5.5	2.09	1.19	 b = E
9.3	43.02	8.6	5.35	2.56	0.93	20.47	7.67	1.63	0.47	 c = FV
8.29	34.99	3.05	37.75	1.69	0.66	4.89	4.24	3.86	0.56	 d = AI
10.64	29.01	6.68	6.04	10.7	0.65	24.39	6.5	3.81	1.58	 e = CDGKNRSYZ
5.91	42.78	5.73	9.11	1.07	2.31	10.48	4.89	17.28	0.44	 f = O
0.8	4.15	1.62	0.59	0.41	0.34	89.73	1.59	0.38	0.38	 g = 0
10.19	36.28	4.65	1.97	0.71	0.63	30.83	10.19	2.32	2.23	 h = LT
5.74	22.38	1.87	7.6	0.14	1.0	2.3	8.61	49.78	0.57	 i = U
11.22	43.06	5.0	4.49	0.82	0.1	16.12	8.27	9.18	1.73	 j = MBP
