2013-07-22-21:29:04;I2;1ms;3;RandomForest;183402;89,6212;10,3788;0,8688;0,896;0,028;0,897;0,896;0,896;0,871;0,970;0,925
2013-08-30-03:53:19;I0;10ms;1;BayesNet;18296;58,5429;41,4571;0,4838;0,585;0,065;0,560;0,585;0,563;0,517;0,917;0,613
2014-12-07-10:41:19;I0;10ms;1;NaiveBayes;18296;28,5909;71,4091;0,219 ;0,286;0,023;0,564;0,286;0,347;0,326;0,816;0,486
2013-07-22-20:42:57;I0;10ms;1;RandomForest;18296;73,9287;26,0713;0,6761;0,739;0,048;0,719;0,739;0,724;0,690;0,927;0,752
2013-08-30-03:53:25;I0;10ms;2;BayesNet;18295;56,1246;43,8754;0,4614;0,561;0,055;0,586;0,561;0,560;0,518;0,915;0,606
2014-12-07-10:41:25;I0;10ms;2;NaiveBayes;18295;30,839 ;69,161 ;0,2323;0,308;0,018;0,575;0,308;0,381;0,354;0,823;0,491
2013-07-22-20:43:18;I0;10ms;2;RandomForest;18295;73,0637;26,9363;0,6667;0,731;0,046;0,715;0,731;0,718;0,683;0,931;0,739
2013-08-30-03:53:34;I0;10ms;3;BayesNet;18294;53,7335;46,2665;0,4383;0,537;0,047;0,598;0,537;0,548;0,511;0,910;0,597
2014-12-07-10:41:35;I0;10ms;3;NaiveBayes;18294;30,6986;69,3014;0,2284;0,307;0,017;0,574;0,307;0,377;0,352;0,827;0,490
2013-07-22-20:43:44;I0;10ms;3;RandomForest;18294;74,6256;25,3744;0,6845;0,746;0,048;0,731;0,746;0,732;0,699;0,940;0,759
2013-08-30-03:53:47;I0;10ms;4;BayesNet;18293;51,8996;48,1004;0,4206;0,519;0,042;0,603;0,519;0,536;0,503;0,906;0,588
2014-12-07-10:41:46;I0;10ms;4;NaiveBayes;18293;30,1481;69,8519;0,2224;0,301;0,017;0,554;0,301;0,371;0,344;0,828;0,485
2013-07-22-20:44:10;I0;10ms;4;RandomForest;18293;75,723 ;24,277 ;0,6983;0,757;0,047;0,743;0,757;0,743;0,712;0,946;0,775
2014-12-07-11:19:36;I4;20ms;5;NaiveBayes;9125;41,0301;58,9699;0,3005;0,410;0,043;0,578;0,410;0,436;0,404;0,826;0,515
2013-07-22-23:08:01;I4;20ms;5;RandomForest;9125;69,9507;30,0493;0,6134;0,700;0,064;0,694;0,700;0,687;0,635;0,919;0,718
2013-08-30-05:19:00;I4;2ms;1;BayesNet;91703;74,7936;25,2064;0,6672;0,748;0,082;0,749;0,748;0,734;0,675;0,943;0,836
2014-12-07-11:14:51;I4;2ms;1;NaiveBayes;91703;55,4082;44,5918;0,4117;0,554;0,103;0,542;0,554;0,519;0,447;0,853;0,590
2013-07-22-22:50:30;I4;2ms;1;RandomForest;91703;89,285 ;10,715 ;0,8592;0,893;0,038;0,895;0,893;0,891;0,862;0,981;0,938
2013-08-30-05:19:23;I4;2ms;2;BayesNet;91702;75,56  ;24,44  ;0,6789;0,756;0,077;0,765;0,756;0,745;0,688;0,947;0,851
2014-12-07-11:15:01;I4;2ms;2;NaiveBayes;91702;53,1461;46,8539;0,3929;0,531;0,093;0,568;0,531;0,507;0,447;0,853;0,591
2013-07-22-22:51:38;I4;2ms;2;RandomForest;91702;87,9381;12,0619;0,843 ;0,879;0,034;0,878;0,879;0,878;0,846;0,964;0,911
2013-08-30-05:20:01;I4;2ms;3;BayesNet;91701;75,6993;24,3007;0,6812;0,757;0,076;0,769;0,757;0,747;0,692;0,948;0,856
2014-12-07-11:15:18;I4;2ms;3;NaiveBayes;91701;51,3768;48,6232;0,3758;0,514;0,089;0,587;0,514;0,492;0,442;0,851;0,583
2013-07-22-22:53:12;I4;2ms;3;RandomForest;91701;88,4538;11,5462;0,8495;0,885;0,034;0,884;0,885;0,883;0,853;0,969;0,920
2014-12-07-11:19:04;I4;15ms;1;NaiveBayes;12189;55,1563;44,8437;0,4197;0,552;0,094;0,540;0,552;0,514;0,452;0,855;0,584
2013-07-22-23:06:00;I4;15ms;1;RandomForest;12189;71,9337;28,0663;0,6383;0,719;0,061;0,709;0,719;0,710;0,657;0,913;0,739
2013-08-30-05:29:15;I4;15ms;2;BayesNet;12188;57,4171;42,5829;0,4532;0,574;0,088;0,560;0,574;0,553;0,483;0,877;0,630
2014-12-07-11:19:07;I4;15ms;2;NaiveBayes;12188;51,7804;48,2196;0,3911;0,518;0,079;0,561;0,518;0,503;0,449;0,849;0,575
2013-07-22-23:06:12;I4;15ms;2;RandomForest;12188;71,6196;28,3804;0,6349;0,716;0,060;0,708;0,716;0,707;0,655;0,918;0,737
2013-08-30-05:29:19;I4;15ms;3;BayesNet;12187;55,5428;44,4572;0,4352;0,555;0,082;0,563;0,555;0,546;0,476;0,869;0,615
2014-12-07-11:19:10;I4;15ms;3;NaiveBayes;12187;47,6984;52,3016;0,3546;0,477;0,065;0,580;0,477;0,481;0,437;0,834;0,533
2013-07-22-23:06:26;I4;15ms;3;RandomForest;12187;72,4789;27,5211;0,6455;0,725;0,059;0,720;0,725;0,716;0,666;0,925;0,747
2013-08-30-05:29:25;I4;15ms;4;BayesNet;12186;54,1359;45,8641;0,4224;0,541;0,077;0,573;0,541;0,541;0,474;0,860;0,591
2014-12-07-11:19:14;I4;15ms;4;NaiveBayes;12186;43,911 ;56,089 ;0,3212;0,439;0,054;0,589;0,439;0,458;0,422;0,829;0,524
2013-07-22-23:06:41;I4;15ms;4;RandomForest;12186;73,207 ;26,793 ;0,6546;0,732;0,058;0,728;0,732;0,723;0,675;0,930;0,758
2014-12-07-11:11:02;I3;20ms;5;NaiveBayes;9125;44,011 ;55,989 ;0,3271;0,440;0,050;0,543;0,440;0,465;0,414;0,832;0,514
2013-07-22-22:33:21;I3;20ms;5;RandomForest;9125;71,8575;28,1425;0,641 ;0,719;0,058;0,718;0,719;0,708;0,661;0,924;0,734
2013-08-30-04:55:27;I3;2ms;1;BayesNet;91703;75,0957;24,9043;0,6753;0,751;0,078;0,757;0,751;0,737;0,681;0,947;0,848
2014-12-07-11:05:46;I3;2ms;1;NaiveBayes;91703;40,0663;59,9337;0,3063;0,401;0,040;0,627;0,401;0,458;0,406;0,811;0,568
2013-07-22-22:16:07;I3;2ms;1;RandomForest;91703;89,948 ;10,052 ;0,8692;0,899;0,035;0,901;0,899;0,899;0,870;0,982;0,946
2013-08-30-04:55:49;I3;2ms;2;BayesNet;91702;75,2306;24,7694;0,6786;0,752;0,075;0,769;0,752;0,740;0,687;0,951;0,860
2014-12-07-11:05:58;I3;2ms;2;NaiveBayes;91702;36,5325;63,4675;0,2772;0,365;0,032;0,636;0,365;0,443;0,394;0,805;0,560
2013-07-22-22:17:16;I3;2ms;2;RandomForest;91702;88,7298;11,2702;0,8541;0,887;0,034;0,888;0,887;0,887;0,855;0,967;0,920
2013-08-30-04:56:28;I3;2ms;3;BayesNet;91701;75,2271;24,7729;0,6791;0,752;0,074;0,773;0,752;0,740;0,688;0,952;0,864
2014-12-07-11:06:16;I3;2ms;3;NaiveBayes;91701;34,5547;65,4453;0,2593;0,346;0,029;0,637;0,346;0,429;0,383;0,802;0,553
2013-07-22-22:18:48;I3;2ms;3;RandomForest;91701;89,1615;10,8385;0,8596;0,892;0,034;0,893;0,892;0,892;0,861;0,972;0,928
2013-08-30-04:57:36;I3;2ms;4;BayesNet;91700;75,3697;24,6303;0,6813;0,754;0,073;0,777;0,754;0,742;0,691;0,952;0,864
2014-12-07-11:06:41;I3;2ms;4;NaiveBayes;91700;33,434 ;66,566 ;0,249 ;0,334;0,029;0,639;0,334;0,419;0,376;0,798;0,548
2013-07-22-22:20:28;I3;2ms;4;RandomForest;91700;89,8582;10,1418;0,8685;0,899;0,032;0,900;0,899;0,898;0,869;0,974;0,934
2013-08-30-03:54:03;I0;10ms;5;BayesNet;18292;50,2843;49,7157;0,4048;0,503;0,039;0,603;0,503;0,524;0,493;0,902;0,578
2013-08-30-03:54:53;I0;15ms;5;BayesNet;12185;47,3615;52,6385;0,3762;0,474;0,036;0,581;0,474;0,495;0,467;0,891;0,551
2013-08-30-03:37:25;I0;1ms;5;BayesNet;183400;80,6069;19,3931;0,7577;0,806;0,050;0,831;0,806;0,810;0,771;0,969;0,881
2013-08-30-03:55:30;I0;20ms;5;BayesNet;9125;45,5342;54,4658;0,3584;0,455;0,037;0,555;0,455;0,476;0,445;0,882;0,532
2013-08-30-03:48:06;I0;3ms;2;BayesNet;61134;64,2637;35,7363;0,5547;0,643;0,059;0,659;0,643;0,640;0,594;0,935;0,697
2013-08-30-03:52:02;I0;6ms;3;BayesNet;30451;56,898 ;43,102 ;0,471 ;0,569;0,052;0,619;0,569;0,576;0,536;0,916;0,619
2013-08-30-04:18:18;I1;15ms;1;BayesNet;12189;61,6375;38,3625;0,5159;0,616;0,073;0,571;0,616;0,585;0,532;0,904;0,628
2013-08-30-03:58:04;I1;1ms;3;BayesNet;183402;83,0503;16,9497;0,7837;0,831;0,055;0,832;0,831;0,828;0,785;0,965;0,894
2013-08-30-04:19:09;I1;20ms;5;BayesNet;9125;50,1699;49,8301;0,4013;0,502;0,050;0,559;0,502;0,515;0,467;0,873;0,564
2013-08-30-04:16:18;I1;6ms;2;BayesNet;30452;60,8531;39,1469;0,5071;0,609;0,068;0,603;0,609;0,594;0,540;0,906;0,647
2013-08-30-04:41:39;I2;10ms;1;BayesNet;18296;60,8931;39,1069;0,503 ;0,609;0,079;0,559;0,609;0,572;0,517;0,903;0,634
2013-08-30-04:42:26;I2;15ms;1;BayesNet;12189;60,1854;39,8146;0,4969;0,602;0,077;0,544;0,602;0,562;0,509;0,901;0,622
2014-12-07-11:10:27;I3;15ms;1;NaiveBayes;12189;39,9869;60,0131;0,3113;0,400;0,039;0,624;0,400;0,455;0,408;0,832;0,575
2013-07-22-22:31:23;I3;15ms;1;RandomForest;12189;72,5326;27,4674;0,6485;0,725;0,060;0,721;0,725;0,719;0,667;0,919;0,748
2013-08-30-05:05:45;I3;15ms;2;BayesNet;12188;58,9268;41,0732;0,4808;0,589;0,077;0,590;0,589;0,569;0,510;0,891;0,645
2014-12-07-11:10:30;I3;15ms;2;NaiveBayes;12188;38,8169;61,1831;0,2924;0,388;0,040;0,592;0,388;0,455;0,396;0,829;0,554
2013-07-22-22:31:36;I3;15ms;2;RandomForest;12188;72,6862;27,3138;0,6514;0,727;0,057;0,726;0,727;0,721;0,670;0,924;0,747
2013-08-30-05:05:49;I3;15ms;3;BayesNet;12187;56,3469;43,6531;0,4528;0,563;0,074;0,589;0,563;0,555;0,495;0,883;0,627
2014-12-07-11:10:34;I3;15ms;3;NaiveBayes;12187;37,7287;62,2713;0,2777;0,377;0,039;0,577;0,377;0,441;0,385;0,822;0,533
2013-07-22-22:31:50;I3;15ms;3;RandomForest;12187;74,0461;25,9539;0,6682;0,740;0,055;0,741;0,740;0,734;0,687;0,931;0,765
2013-08-30-05:05:56;I3;15ms;4;BayesNet;12186;54,9073;45,0927;0,4392;0,549;0,069;0,596;0,549;0,550;0,491;0,878;0,617
2014-12-07-11:10:38;I3;15ms;4;NaiveBayes;12186;37,1   ;62,9   ;0,2694;0,371;0,041;0,560;0,371;0,430;0,373;0,821;0,522
2013-07-22-22:32:05;I3;15ms;4;RandomForest;12186;74,7579;25,2421;0,677 ;0,748;0,054;0,750;0,748;0,741;0,696;0,936;0,773
2013-08-30-05:06:03;I3;15ms;5;BayesNet;12185;53,6479;46,3521;0,4271;0,536;0,065;0,601;0,536;0,545;0,488;0,875;0,612
2014-12-07-11:10:43;I3;15ms;5;NaiveBayes;12185;38,5474;61,4526;0,281 ;0,385;0,042;0,561;0,385;0,438;0,383;0,822;0,518
2013-07-22-22:32:20;I3;15ms;5;RandomForest;12185;74,5999;25,4001;0,675 ;0,746;0,054;0,748;0,746;0,738;0,694;0,939;0,774
2013-08-30-04:43:23;I3;1ms;1;BayesNet;183404;81,0162;18,9838;0,7509;0,810;0,073;0,819;0,810;0,804;0,751;0,963;0,904
2014-12-07-11:01:34;I3;1ms;1;NaiveBayes;183404;40,6082;59,3918;0,3099;0,406;0,041;0,625;0,406;0,462;0,408;0,811;0,572
2013-07-22-21:59:23;I3;1ms;1;RandomForest;183404;92,1419;7,8581;0,8975;0,921;0,031;0,924;0,921;0,921;0,897;0,988;0,963
2013-08-30-04:44:11;I3;1ms;2;BayesNet;183403;80,9649;19,0351;0,7511;0,810;0,071;0,825;0,810;0,805;0,753;0,964;0,908
2014-12-07-11:01:54;I3;1ms;2;NaiveBayes;183403;37,4203;62,5797;0,2848;0,374;0,031;0,640;0,374;0,451;0,401;0,806;0,565
2013-07-22-22:01:35;I3;1ms;2;RandomForest;183403;91,2335;8,7665;0,886 ;0,912;0,031;0,913;0,912;0,912;0,885;0,975;0,945
2014-12-07-11:01:29;I2;20ms;5;NaiveBayes;9125;43,726 ;56,274 ;0,3274;0,437;0,049;0,506;0,437;0,442;0,403;0,837;0,480
2013-07-22-21:59:09;I2;20ms;5;RandomForest;9125;67,9452;32,0548;0,6029;0,679;0,050;0,668;0,679;0,667;0,627;0,917;0,684
2013-08-30-04:31:52;I2;2ms;1;BayesNet;91703;76,3977;23,6023;0,6971;0,764;0,071;0,759;0,764;0,751;0,701;0,948;0,839
2014-12-07-10:56:27;I2;2ms;1;NaiveBayes;91703;54,6078;45,3922;0,4147;0,546;0,091;0,512;0,546;0,505;0,446;0,869;0,569
2013-07-22-21:41:00;I2;2ms;1;RandomForest;91703;88,5445;11,4555;0,854 ;0,885;0,037;0,888;0,885;0,885;0,858;0,979;0,927
2013-08-30-04:32:15;I2;2ms;2;BayesNet;91702;77,4411;22,5589;0,7114;0,774;0,067;0,774;0,774;0,764;0,715;0,952;0,851
2014-12-07-10:56:38;I2;2ms;2;NaiveBayes;91702;52,6532;47,3468;0,4001;0,527;0,080;0,523;0,527;0,502;0,445;0,869;0,569
2013-07-22-21:42:11;I2;2ms;2;RandomForest;91702;87,2129;12,7871;0,8387;0,872;0,031;0,872;0,872;0,872;0,843;0,962;0,900
2013-08-30-04:32:58;I2;2ms;3;BayesNet;91701;77,9806;22,0194;0,7189;0,780;0,065;0,782;0,780;0,771;0,724;0,953;0,857
2014-12-07-10:56:56;I2;2ms;3;NaiveBayes;91701;51,6821;48,3179;0,3914;0,517;0,076;0,525;0,517;0,499;0,443;0,868;0,567
2013-07-22-21:43:47;I2;2ms;3;RandomForest;91701;87,7798;12,2202;0,8457;0,878;0,031;0,878;0,878;0,878;0,850;0,968;0,910
2013-08-30-04:34:02;I2;2ms;4;BayesNet;91700;78,4231;21,5769;0,7249;0,784;0,063;0,788;0,784;0,777;0,730;0,953;0,861
2014-12-07-10:57:19;I2;2ms;4;NaiveBayes;91700;51,048 ;48,952 ;0,3855;0,510;0,074;0,530;0,510;0,498;0,442;0,863;0,551
2013-07-22-21:45:32;I2;2ms;4;RandomForest;91700;88,3152;11,6848;0,8523;0,883;0,030;0,884;0,883;0,883;0,857;0,970;0,916
2013-08-30-04:35:26;I2;2ms;5;BayesNet;91699;78,6573;21,3427;0,7281;0,787;0,062;0,791;0,787;0,780;0,733;0,953;0,860
2014-12-07-10:57:52;I2;2ms;5;NaiveBayes;91699;50,4793;49,5207;0,3796;0,505;0,073;0,532;0,505;0,496;0,441;0,854;0,524
2014-12-07-11:00:56;I2;15ms;1;NaiveBayes;12189;54,3031;45,6969;0,423 ;0,543;0,081;0,504;0,543;0,497;0,449;0,865;0,556
2013-07-22-21:57:01;I2;15ms;1;RandomForest;12189;69,8663;30,1337;0,6253;0,699;0,049;0,686;0,699;0,690;0,647;0,912;0,708
2013-08-30-04:42:29;I2;15ms;2;BayesNet;12188;58,2048;41,7952;0,4778;0,582;0,070;0,554;0,582;0,558;0,505;0,894;0,612
2014-12-07-11:00:58;I2;15ms;2;NaiveBayes;12188;50,4102;49,5898;0,3901;0,504;0,063;0,507;0,504;0,491;0,440;0,858;0,545
2013-07-22-21:57:14;I2;15ms;2;RandomForest;12188;69,831 ;30,169 ;0,6263;0,698;0,046;0,692;0,698;0,691;0,650;0,918;0,709
2013-08-30-04:42:34;I2;15ms;3;BayesNet;12187;56,1008;43,8992;0,455 ;0,561;0,068;0,557;0,561;0,548;0,494;0,885;0,598
2014-12-07-11:01:02;I2;15ms;3;NaiveBayes;12187;46,3773;53,6227;0,3481;0,464;0,057;0,510;0,464;0,467;0,420;0,845;0,508
2013-07-22-21:57:30;I2;15ms;3;RandomForest;12187;70,7311;29,2689;0,6367;0,707;0,046;0,698;0,707;0,699;0,659;0,927;0,726
2013-08-30-04:42:41;I2;15ms;4;BayesNet;12186;54,6775;45,3225;0,4412;0,547;0,064;0,563;0,547;0,542;0,489;0,878;0,579
2014-12-07-11:01:06;I2;15ms;4;NaiveBayes;12186;44,7645;55,2355;0,3327;0,448;0,053;0,507;0,448;0,454;0,410;0,837;0,488
2013-07-22-21:57:45;I2;15ms;4;RandomForest;12186;71,5001;28,4999;0,6461;0,715;0,045;0,707;0,715;0,707;0,669;0,932;0,734
2014-12-07-10:52:29;I1;20ms;5;NaiveBayes;9125;41,3699;58,6301;0,311 ;0,414;0,036;0,515;0,414;0,428;0,398;0,841;0,486
2013-07-22-21:23:18;I1;20ms;5;RandomForest;9125;68,9315;31,0685;0,6146;0,689;0,051;0,678;0,689;0,678;0,637;0,918;0,694
2013-08-30-04:07:39;I1;2ms;1;BayesNet;91703;77,7652;22,2348;0,7148;0,778;0,066;0,772;0,778;0,769;0,719;0,949;0,845
2014-12-07-10:47:09;I1;2ms;1;NaiveBayes;91703;54,6503;45,3497;0,4156;0,547;0,091;0,522;0,547;0,506;0,446;0,878;0,576
2013-07-22-21:04:55;I1;2ms;1;RandomForest;91703;88,4039;11,5961;0,8518;0,884;0,040;0,885;0,884;0,881;0,855;0,979;0,925
2013-08-30-04:08:02;I1;2ms;2;BayesNet;91702;79,0964;20,9036;0,7336;0,791;0,059;0,791;0,791;0,786;0,739;0,952;0,857
2014-12-07-10:47:20;I1;2ms;2;NaiveBayes;91702;52,9803;47,0197;0,4047;0,530;0,079;0,526;0,530;0,506;0,448;0,877;0,575
2013-07-22-21:06:01;I1;2ms;2;RandomForest;91702;87,0275;12,9725;0,8364;0,870;0,030;0,869;0,870;0,869;0,841;0,961;0,899
2013-08-30-04:08:44;I1;2ms;3;BayesNet;91701;79,8028;20,1972;0,743 ;0,798;0,057;0,800;0,798;0,794;0,749;0,953;0,865
2014-12-07-10:47:38;I1;2ms;3;NaiveBayes;91701;51,9035;48,0965;0,3952;0,519;0,075;0,535;0,519;0,503;0,448;0,876;0,573
2013-07-22-21:07:39;I1;2ms;3;RandomForest;91701;87,5508;12,4492;0,8427;0,876;0,031;0,873;0,876;0,874;0,847;0,966;0,909
2013-08-30-04:09:56;I1;2ms;4;BayesNet;91700;80,1385;19,8615;0,7476;0,801;0,056;0,805;0,801;0,799;0,754;0,954;0,868
2014-12-07-10:48:03;I1;2ms;4;NaiveBayes;91700;51,1123;48,8877;0,3878;0,511;0,072;0,540;0,511;0,500;0,446;0,875;0,571
2013-07-22-21:09:25;I1;2ms;4;RandomForest;91700;88,241 ;11,759 ;0,8512;0,882;0,031;0,880;0,882;0,881;0,855;0,969;0,916
2013-08-30-04:11:15;I1;2ms;5;BayesNet;91699;80,3269;19,6731;0,7502;0,803;0,055;0,809;0,803;0,801;0,757;0,954;0,871
2014-12-07-10:48:35;I1;2ms;5;NaiveBayes;91699;50,5251;49,4749;0,3822;0,505;0,070;0,541;0,505;0,498;0,445;0,874;0,566
2013-07-22-21:11:21;I1;2ms;5;RandomForest;91699;88,6553;11,3447;0,8564;0,887;0,030;0,884;0,887;0,885;0,860;0,971;0,919
2014-12-07-10:51:53;I1;15ms;1;NaiveBayes;12189;54,3933;45,6067;0,425 ;0,544;0,080;0,529;0,544;0,500;0,452;0,876;0,563
2013-07-22-21:21:09;I1;15ms;1;RandomForest;12189;69,7596;30,2404;0,6241;0,698;0,048;0,686;0,698;0,689;0,648;0,913;0,709
2013-08-30-04:18:21;I1;15ms;2;BayesNet;12188;58,4099;41,5901;0,4843;0,584;0,062;0,573;0,584;0,568;0,518;0,899;0,618
2014-12-07-10:51:55;I1;15ms;2;NaiveBayes;12188;50,6154;49,3846;0,3942;0,506;0,061;0,524;0,506;0,495;0,447;0,868;0,549
2013-07-22-21:21:22;I1;15ms;2;RandomForest;12188;70,1264;29,8736;0,6296;0,701;0,048;0,692;0,701;0,694;0,651;0,920;0,713
2013-08-30-04:18:26;I1;15ms;3;BayesNet;12187;56,0597;43,9403;0,4615;0,561;0,054;0,581;0,561;0,555;0,510;0,893;0,607
2014-12-07-10:52:00;I1;15ms;3;NaiveBayes;12187;46,3116;53,6884;0,351 ;0,463;0,052;0,516;0,463;0,469;0,425;0,858;0,532
2013-07-22-21:21:37;I1;15ms;3;RandomForest;12187;71,4942;28,5058;0,6458;0,715;0,046;0,707;0,715;0,707;0,668;0,927;0,730
2013-08-30-04:18:33;I1;15ms;4;BayesNet;12186;53,9307;46,0693;0,4404;0,539;0,049;0,581;0,539;0,541;0,498;0,887;0,592
2014-12-07-10:52:04;I1;15ms;4;NaiveBayes;12186;44,2721;55,7279;0,3325;0,443;0,046;0,515;0,443;0,452;0,413;0,851;0,517
2013-07-22-21:21:53;I1;15ms;4;RandomForest;12186;72,1812;27,8188;0,6541;0,722;0,046;0,712;0,722;0,713;0,675;0,933;0,737
2013-08-30-04:18:41;I1;15ms;5;BayesNet;12185;52,2281;47,7719;0,4232;0,522;0,047;0,580;0,522;0,531;0,488;0,882;0,584
2014-12-07-10:52:10;I1;15ms;5;NaiveBayes;12185;43,5043;56,4957;0,3272;0,435;0,042;0,521;0,435;0,448;0,412;0,845;0,497
2013-07-22-21:22:12;I1;15ms;5;RandomForest;12185;72,7862;27,2138;0,6614;0,728;0,045;0,720;0,728;0,719;0,682;0,935;0,742
2013-08-30-03:55:40;I1;1ms;1;BayesNet;183404;82,0233;17,9767;0,7692;0,820;0,061;0,819;0,820;0,815;0,769;0,962;0,887
2014-12-07-10:43:11;I1;1ms;1;NaiveBayes;183404;54,6378;45,3622;0,4144;0,546;0,092;0,521;0,546;0,507;0,446;0,878;0,578
2013-07-22-20:47:57;I1;1ms;1;RandomForest;183404;90,6916;9,3084;0,8807;0,907;0,037;0,911;0,907;0,905;0,883;0,986;0,945
2013-08-30-03:56:31;I1;1ms;2;BayesNet;183403;82,8143;17,1857;0,7804;0,828;0,056;0,829;0,828;0,825;0,781;0,964;0,892
2014-12-07-10:43:31;I1;1ms;2;NaiveBayes;183403;53,0793;46,9207;0,4046;0,531;0,080;0,525;0,531;0,507;0,448;0,878;0,578
2013-07-22-20:50:10;I1;1ms;2;RandomForest;183403;89,733 ;10,267 ;0,8698;0,897;0,029;0,896;0,897;0,896;0,872;0,970;0,926
2014-12-07-10:43:04;I0;20ms;5;NaiveBayes;9125;38,8384;61,1616;0,2909;0,388;0,027;0,510;0,388;0,408;0,387;0,841;0,458
2013-07-22-20:47:41;I0;20ms;5;RandomForest;9125;66,9151;33,0849;0,5915;0,669;0,054;0,642;0,669;0,643;0,610;0,917;0,665
2013-08-30-03:41:30;I0;2ms;1;BayesNet;91703;77,3726;22,6274;0,7142;0,774;0,063;0,773;0,774;0,763;0,720;0,960;0,841
2014-12-07-10:34:16;I0;2ms;1;NaiveBayes;91703;35,2093;64,7907;0,2677;0,352;0,024;0,580;0,352;0,413;0,379;0,815;0,511
2013-07-22-20:27:07;I0;2ms;1;RandomForest;91703;88,0233;11,9767;0,8485;0,880;0,041;0,878;0,880;0,873;0,850;0,977;0,909
2013-08-30-03:42:00;I0;2ms;2;BayesNet;91702;78,0768;21,9232;0,7252;0,781;0,055;0,794;0,781;0,778;0,737;0,962;0,852
2014-12-07-10:34:34;I0;2ms;2;NaiveBayes;91702;31,5904;68,4096;0,237 ;0,316;0,018;0,593;0,316;0,392;0,363;0,807;0,501
2013-07-22-20:28:27;I0;2ms;2;RandomForest;91702;86,5684;13,4316;0,8326;0,866;0,030;0,860;0,866;0,862;0,837;0,959;0,885
2013-08-30-03:42:49;I0;2ms;3;BayesNet;91701;78,214 ;21,786 ;0,7275;0,782;0,053;0,801;0,782;0,782;0,742;0,963;0,858
2014-12-07-10:35:04;I0;2ms;3;NaiveBayes;91701;30,1796;69,8204;0,2246;0,302;0,016;0,605;0,302;0,380;0,356;0,805;0,495
2013-07-22-20:30:16;I0;2ms;3;RandomForest;91701;87,3458;12,6542;0,8416;0,873;0,033;0,867;0,873;0,869;0,844;0,964;0,896
2013-08-30-03:43:59;I0;2ms;4;BayesNet;91700;78,6281;21,3719;0,7331;0,786;0,052;0,807;0,786;0,787;0,747;0,963;0,862
2014-12-07-10:35:45;I0;2ms;4;NaiveBayes;91700;29,1832;70,8168;0,2162;0,292;0,015;0,609;0,292;0,371;0,349;0,802;0,489
2013-07-22-20:32:11;I0;2ms;4;RandomForest;91700;87,9749;12,0251;0,8492;0,880;0,033;0,874;0,880;0,875;0,852;0,967;0,902
2013-08-30-03:45:47;I0;2ms;5;BayesNet;91699;78,9071;21,0929;0,7368;0,789;0,051;0,811;0,789;0,790;0,751;0,964;0,866
2014-12-07-10:36:38;I0;2ms;5;NaiveBayes;91699;28,5521;71,4479;0,2102;0,286;0,015;0,606;0,286;0,365;0,342;0,800;0,483
2013-07-22-20:34:21;I0;2ms;5;RandomForest;91699;88,4492;11,5508;0,855 ;0,884;0,034;0,879;0,884;0,880;0,857;0,970;0,906
2013-08-30-03:47:49;I0;3ms;1;BayesNet;61135;64,3772;35,6228;0,5525;0,644;0,065;0,640;0,644;0,633;0,584;0,934;0,688
2014-12-07-10:37:46;I0;3ms;1;NaiveBayes;61135;33,3573;66,6427;0,2533;0,334;0,024;0,576;0,334;0,396;0,364;0,810;0,502
2013-07-22-20:36:32;I0;3ms;1;RandomForest;61135;85,6694;14,3306;0,8193;0,857;0,043;0,850;0,857;0,848;0,822;0,969;0,888
2014-12-07-11:08:48;I3;3ms;5;NaiveBayes;61131;32,486 ;67,514 ;0,2383;0,325;0,032;0,620;0,325;0,409;0,361;0,792;0,530
2013-07-22-22:28:20;I3;3ms;5;RandomForest;61131;88,4854;11,5146;0,8509;0,885;0,034;0,887;0,885;0,885;0,854;0,974;0,925
2013-08-30-05:03:41;I3;6ms;1;BayesNet;30453;61,6228;38,3772;0,5045;0,616;0,088;0,601;0,616;0,587;0,522;0,903;0,677
2014-12-07-11:09:13;I3;6ms;1;NaiveBayes;30453;38,213 ;61,787 ;0,2937;0,382;0,038;0,624;0,382;0,442;0,393;0,810;0,558
2013-07-23-03:01:35;I3;6ms;1;RandomForest;30453;82,7603;17,2397;0,7771;0,828;0,046;0,829;0,828;0,826;0,785;0,957;0,873
2013-08-30-05:03:47;I3;6ms;2;BayesNet;30452;60,042 ;39,958 ;0,4887;0,600;0,083;0,608;0,600;0,579;0,518;0,902;0,673
2014-12-07-11:09:17;I3;6ms;2;NaiveBayes;30452;35,8367;64,1633;0,2719;0,358;0,033;0,625;0,358;0,437;0,386;0,808;0,552
2013-07-23-03:02:00;I3;6ms;2;RandomForest;30452;81,7943;18,2057;0,766 ;0,818;0,044;0,820;0,818;0,817;0,775;0,951;0,855
2013-08-30-05:03:57;I3;6ms;3;BayesNet;30451;58,9504;41,0496;0,4774;0,590;0,080;0,608;0,590;0,573;0,512;0,899;0,666
2014-12-07-11:09:24;I3;6ms;3;NaiveBayes;30451;34,2649;65,7351;0,2546;0,343;0,034;0,617;0,343;0,424;0,372;0,807;0,544
2013-07-23-03:02:32;I3;6ms;3;RandomForest;30451;82,3191;17,6809;0,7722;0,823;0,044;0,827;0,823;0,822;0,782;0,956;0,864
2013-08-30-05:04:12;I3;6ms;4;BayesNet;30450;58,1642;41,8358;0,4691;0,582;0,078;0,608;0,582;0,569;0,508;0,895;0,658
2014-12-07-11:09:33;I3;6ms;4;NaiveBayes;30450;33,8719;66,1281;0,2489;0,339;0,033;0,609;0,339;0,421;0,369;0,810;0,542
2013-07-23-03:03:07;I3;6ms;4;RandomForest;30450;82,9852;17,0148;0,7807;0,830;0,043;0,834;0,830;0,829;0,790;0,960;0,873
2013-08-30-04:40:19;I2;6ms;1;BayesNet;30453;61,173 ;38,827 ;0,5044;0,612;0,081;0,574;0,612;0,580;0,522;0,904;0,644
2014-12-07-10:59:47;I2;6ms;1;NaiveBayes;30453;54,6252;45,3748;0,4193;0,546;0,087;0,508;0,546;0,504;0,448;0,868;0,566
2013-07-23-02:58:28;I2;6ms;1;RandomForest;30453;80,7441;19,2559;0,757 ;0,807;0,044;0,804;0,807;0,804;0,768;0,952;0,844
2013-08-30-04:40:26;I2;6ms;2;BayesNet;30452;59,8975;40,1025;0,4928;0,599;0,074;0,583;0,599;0,578;0,521;0,903;0,640
2014-12-07-10:59:51;I2;6ms;2;NaiveBayes;30452;52,5942;47,4058;0,405 ;0,526;0,074;0,521;0,526;0,504;0,449;0,867;0,563
2013-07-23-02:58:54;I2;6ms;2;RandomForest;30452;79,5843;20,4157;0,7445;0,796;0,040;0,795;0,796;0,794;0,757;0,947;0,827
2013-08-30-04:40:36;I2;6ms;3;BayesNet;30451;58,9931;41,0069;0,483 ;0,590;0,073;0,583;0,590;0,573;0,517;0,901;0,635
2014-12-07-10:59:58;I2;6ms;3;NaiveBayes;30451;50,8226;49,1774;0,3872;0,508;0,070;0,527;0,508;0,498;0,444;0,863;0,555
2013-07-23-02:59:30;I2;6ms;3;RandomForest;30451;80,49  ;19,51  ;0,7553;0,805;0,039;0,804;0,805;0,803;0,768;0,952;0,839
2013-08-30-04:40:52;I2;6ms;4;BayesNet;30450;58,2956;41,7044;0,4755;0,583;0,072;0,582;0,583;0,568;0,512;0,898;0,629
2014-12-07-11:00:06;I2;6ms;4;NaiveBayes;30450;49,0312;50,9688;0,3683;0,490;0,067;0,521;0,490;0,489;0,435;0,851;0,524
2013-07-23-03:00:08;I2;6ms;4;RandomForest;30450;81,5632;18,4368;0,7686;0,816;0,038;0,815;0,816;0,813;0,780;0,956;0,851
2013-08-30-04:41:12;I2;6ms;5;BayesNet;30449;57,6669;42,3331;0,4685;0,577;0,071;0,580;0,577;0,564;0,507;0,894;0,618
2014-12-07-11:00:16;I2;6ms;5;NaiveBayes;30449;47,5549;52,4451;0,3523;0,476;0,065;0,530;0,476;0,479;0,427;0,841;0,501
2014-12-07-10:50:42;I1;6ms;2;NaiveBayes;30452;52,7387;47,2613;0,4073;0,527;0,073;0,522;0,527;0,507;0,451;0,876;0,568
2013-07-23-02:55:54;I1;6ms;2;RandomForest;30452;79,4463;20,5537;0,7427;0,794;0,040;0,792;0,794;0,792;0,755;0,945;0,825
2013-08-30-04:16:29;I1;6ms;3;BayesNet;30451;59,6926;40,3074;0,4964;0,597;0,062;0,606;0,597;0,588;0,537;0,904;0,642
2014-12-07-10:50:49;I1;6ms;3;NaiveBayes;30451;50,7964;49,2036;0,3886;0,508;0,067;0,532;0,508;0,500;0,447;0,872;0,562
2013-07-23-02:56:28;I1;6ms;3;RandomForest;30451;80,4079;19,5921;0,7541;0,804;0,039;0,801;0,804;0,801;0,766;0,952;0,842
2013-08-30-04:16:44;I1;6ms;4;BayesNet;30450;58,2069;41,7931;0,4811;0,582;0,058;0,603;0,582;0,577;0,528;0,901;0,635
2014-12-07-10:50:58;I1;6ms;4;NaiveBayes;30450;48,9787;51,0213;0,3703;0,490;0,063;0,532;0,490;0,491;0,440;0,867;0,555
2013-07-23-02:57:05;I1;6ms;4;RandomForest;30450;81,8194;18,1806;0,7714;0,818;0,038;0,815;0,818;0,815;0,782;0,957;0,854
2013-08-30-04:17:04;I1;6ms;5;BayesNet;30449;57,4173;42,5827;0,4738;0,574;0,055;0,606;0,574;0,573;0,525;0,898;0,629
2014-12-07-10:51:09;I1;6ms;5;NaiveBayes;30449;47,4827;52,5173;0,3555;0,475;0,060;0,535;0,475;0,481;0,433;0,862;0,546
2013-07-23-02:57:47;I1;6ms;5;RandomForest;30449;82,3607;17,6393;0,7783;0,824;0,038;0,821;0,824;0,821;0,788;0,960;0,861
2014-12-07-10:40:24;I0;6ms;3;NaiveBayes;30451;29,8085;70,1915;0,2215;0,298;0,018;0,587;0,298;0,372;0,346;0,814;0,486
2013-07-23-02:53:12;I0;6ms;3;RandomForest;30451;79,8693;20,1307;0,7486;0,799;0,044;0,787;0,799;0,789;0,757;0,951;0,823
2013-08-30-03:52:23;I0;6ms;4;BayesNet;30450;55,4844;44,5156;0,4573;0,555;0,047;0,619;0,555;0,568;0,529;0,914;0,614
2014-12-07-10:40:38;I0;6ms;4;NaiveBayes;30450;30,0394;69,9606;0,2232;0,300;0,015;0,593;0,300;0,375;0,352;0,821;0,490
2013-07-23-02:53:54;I0;6ms;4;RandomForest;30450;80,775 ;19,225 ;0,7597;0,808;0,044;0,798;0,808;0,798;0,768;0,956;0,835
2013-08-30-03:52:48;I0;6ms;5;BayesNet;30449;54,0872;45,9128;0,446 ;0,541;0,038;0,632;0,541;0,562;0,529;0,911;0,609
2014-12-07-10:40:55;I0;6ms;5;NaiveBayes;30449;29,712 ;70,288 ;0,2196;0,297;0,015;0,587;0,297;0,372;0,348;0,823;0,488
2013-07-23-02:54:41;I0;6ms;5;RandomForest;30449;81,7728;18,2272;0,7722;0,818;0,043;0,810;0,818;0,809;0,780;0,959;0,845
2013-08-30-04:17:29;I1;10ms;1;BayesNet;18296;61,9972;38,0028;0,5178;0,620;0,075;0,579;0,620;0,591;0,535;0,906;0,639
2014-12-07-10:51:22;I1;10ms;1;NaiveBayes;18296;54,7551;45,2449;0,4246;0,548;0,085;0,511;0,548;0,502;0,449;0,878;0,569
2013-07-22-21:19:10;I1;10ms;1;RandomForest;18296;75,3498;24,6502;0,6911;0,753;0,047;0,744;0,753;0,746;0,707;0,931;0,778
2014-12-07-10:42:37;I0;15ms;5;NaiveBayes;12185;33,8449;66,1551;0,2516;0,338;0,019;0,533;0,338;0,390;0,364;0,836;0,473
2013-07-22-20:46:22;I0;15ms;5;RandomForest;12185;71,1941;28,8059;0,6433;0,712;0,050;0,689;0,712;0,691;0,660;0,934;0,718
2013-08-30-03:27:28;I0;1ms;1;BayesNet;183404;80,8745;19,1255;0,7586;0,809;0,057;0,814;0,809;0,802;0,762;0,967;0,873
2014-12-07-10:27:32;I0;1ms;1;NaiveBayes;183404;35,7566;64,2434;0,2713;0,358;0,025;0,579;0,358;0,417;0,380;0,816;0,516
2013-07-22-20:08:27;I0;1ms;1;RandomForest;183404;90,3388;9,6612;0,8776;0,903;0,038;0,906;0,903;0,898;0,878;0,985;0,931
2013-08-30-03:28:22;I0;1ms;2;BayesNet;183403;80,6121;19,3879;0,7567;0,806;0,053;0,823;0,806;0,805;0,766;0,968;0,878
2014-12-07-10:28:05;I0;1ms;2;NaiveBayes;183403;32,1816;67,8184;0,2418;0,322;0,018;0,597;0,322;0,397;0,368;0,808;0,507
2013-07-22-20:10:59;I0;1ms;2;RandomForest;183403;89,3006;10,6994;0,866 ;0,893;0,029;0,889;0,893;0,890;0,868;0,967;0,914
2013-08-30-03:30:27;I0;1ms;3;BayesNet;183402;80,5357;19,4643;0,7563;0,805;0,051;0,826;0,805;0,807;0,768;0,969;0,880
2014-12-07-10:29:03;I0;1ms;3;NaiveBayes;183402;31,0187;68,9813;0,2318;0,310;0,016;0,609;0,310;0,388;0,363;0,806;0,503
2013-07-22-20:14:32;I0;1ms;3;RandomForest;183402;89,1457;10,8543;0,8643;0,891;0,028;0,888;0,891;0,889;0,867;0,966;0,910
2013-08-30-03:33:32;I0;1ms;4;BayesNet;183401;80,5421;19,4579;0,7567;0,805;0,050;0,829;0,805;0,808;0,769;0,969;0,881
2014-12-07-10:30:22;I0;1ms;4;NaiveBayes;183401;30,1689;69,8311;0,2247;0,302;0,015;0,614;0,302;0,381;0,358;0,804;0,499
2013-07-22-20:18:24;I0;1ms;4;RandomForest;183401;89,7127;10,2873;0,8711;0,897;0,029;0,893;0,897;0,894;0,873;0,969;0,915
2014-12-07-10:44:06;I1;1ms;3;NaiveBayes;183402;52,1488;47,8512;0,3966;0,521;0,076;0,533;0,521;0,504;0,448;0,877;0,577
2013-07-22-20:53:17;I1;1ms;3;RandomForest;183402;89,5328;10,4672;0,8676;0,895;0,027;0,894;0,895;0,895;0,870;0,969;0,923
2013-08-30-04:00:37;I1;1ms;4;BayesNet;183401;83,2346;16,7654;0,7862;0,832;0,054;0,835;0,832;0,830;0,787;0,965;0,895
2014-12-07-10:44:54;I1;1ms;4;NaiveBayes;183401;51,6551;48,3449;0,3923;0,517;0,074;0,541;0,517;0,503;0,449;0,877;0,576
2013-07-22-20:56:51;I1;1ms;4;RandomForest;183401;89,8905;10,1095;0,872 ;0,899;0,027;0,898;0,899;0,898;0,875;0,972;0,928
2013-08-30-04:03:45;I1;1ms;5;BayesNet;183400;83,3991;16,6009;0,7884;0,834;0,053;0,837;0,834;0,832;0,790;0,965;0,894
2014-12-07-10:45:55;I1;1ms;5;NaiveBayes;183400;51,2116;48,7884;0,3882;0,512;0,072;0,544;0,512;0,501;0,448;0,876;0,570
2013-07-22-21:00:47;I1;1ms;5;RandomForest;183400;90,3506;9,6494;0,8777;0,904;0,027;0,902;0,904;0,903;0,880;0,974;0,932
2013-08-30-04:18:51;I1;20ms;1;BayesNet;9129;60,0066;39,9934;0,498 ;0,600;0,074;0,554;0,600;0,568;0,514;0,900;0,613
2014-12-07-10:52:16;I1;20ms;1;NaiveBayes;9129;53,7189;46,2811;0,4196;0,537;0,079;0,519;0,537;0,491;0,445;0,871;0,554
2013-07-22-21:22:29;I1;20ms;1;RandomForest;9129;66,4038;33,5962;0,5846;0,664;0,051;0,649;0,664;0,654;0,609;0,895;0,663
2013-08-30-04:18:54;I1;20ms;2;BayesNet;9128;57,2195;42,7805;0,4731;0,572;0,060;0,560;0,572;0,556;0,507;0,892;0,599
2014-12-07-10:52:18;I1;20ms;2;NaiveBayes;9128;49,9452;50,0548;0,3895;0,499;0,059;0,506;0,499;0,487;0,439;0,862;0,538
2013-07-22-21:22:40;I1;20ms;2;RandomForest;9128;66,9588;33,0412;0,592 ;0,670;0,051;0,658;0,670;0,660;0,616;0,908;0,676
2013-08-30-04:18:58;I1;20ms;3;BayesNet;9127;54,158 ;45,842 ;0,4421;0,542;0,054;0,558;0,542;0,538;0,490;0,884;0,583
2014-12-07-10:52:21;I1;20ms;3;NaiveBayes;9127;44,8669;55,1331;0,3406;0,449;0,047;0,504;0,449;0,456;0,414;0,854;0,520
2013-07-22-21:22:52;I1;20ms;3;RandomForest;9127;67,9851;32,0149;0,604 ;0,680;0,050;0,668;0,680;0,670;0,627;0,916;0,692
2013-08-30-04:19:03;I1;20ms;4;BayesNet;9126;51,5122;48,4878;0,4155;0,515;0,049;0,559;0,515;0,523;0,476;0,878;0,575
2014-12-07-10:52:25;I1;20ms;4;NaiveBayes;9126;42,9432;57,0568;0,3247;0,429;0,040;0,509;0,429;0,443;0,407;0,847;0,499
2013-07-22-21:23:05;I1;20ms;4;RandomForest;9126;69,1102;30,8898;0,6174;0,691;0,048;0,681;0,691;0,680;0,641;0,920;0,698
2013-08-30-04:24:09;I2;1ms;4;BayesNet;183401;82,794 ;17,206 ;0,7799;0,828;0,059;0,831;0,828;0,824;0,779;0,965;0,896
2014-12-07-10:54:14;I2;1ms;4;NaiveBayes;183401;51,3574;48,6426;0,3874;0,514;0,076;0,530;0,514;0,498;0,442;0,865;0,556
2013-07-22-21:32:44;I2;1ms;4;RandomForest;183401;90,0502;9,9498;0,8741;0,901;0,027;0,901;0,901;0,901;0,877;0,973;0,930
2013-08-30-04:27:19;I2;1ms;5;BayesNet;183400;82,9771;17,0229;0,7823;0,830;0,059;0,834;0,830;0,827;0,782;0,965;0,892
2014-12-07-10:55:14;I2;1ms;5;NaiveBayes;183400;51,0414;48,9586;0,3845;0,510;0,075;0,533;0,510;0,498;0,442;0,857;0,531
2013-07-22-21:36:50;I2;1ms;5;RandomForest;183400;90,4357;9,5643;0,8789;0,904;0,027;0,905;0,904;0,904;0,881;0,975;0,933
2013-08-30-04:42:58;I2;20ms;1;BayesNet;9129;59,3055;40,6945;0,4888;0,593;0,076;0,536;0,593;0,553;0,500;0,895;0,611
2014-12-07-11:01:16;I2;20ms;1;NaiveBayes;9129;54,0475;45,9525;0,4223;0,540;0,080;0,500;0,540;0,493;0,446;0,861;0,548
2013-07-22-21:58:20;I2;20ms;1;RandomForest;9129;65,8999;34,1001;0,5782;0,659;0,052;0,642;0,659;0,647;0,602;0,895;0,660
2013-08-30-04:43:01;I2;20ms;2;BayesNet;9128;57,099 ;42,901 ;0,4678;0,571;0,067;0,546;0,571;0,549;0,497;0,884;0,593
2014-12-07-11:01:18;I2;20ms;2;NaiveBayes;9128;50,3177;49,6823;0,3913;0,503;0,062;0,509;0,503;0,489;0,439;0,854;0,532
2013-07-22-21:58:31;I2;20ms;2;RandomForest;9128;66,4877;33,5123;0,5866;0,665;0,049;0,652;0,665;0,655;0,611;0,905;0,672
2013-08-30-04:43:05;I2;20ms;3;BayesNet;9127;54,8044;45,1956;0,4449;0,548;0,062;0,554;0,548;0,539;0,487;0,877;0,580
2014-12-07-11:01:21;I2;20ms;3;NaiveBayes;9127;45,5462;54,4538;0,3439;0,455;0,053;0,507;0,455;0,461;0,416;0,841;0,493
2013-07-22-21:58:44;I2;20ms;3;RandomForest;9127;68,2152;31,7848;0,6066;0,682;0,049;0,670;0,682;0,670;0,629;0,914;0,687
2013-08-30-04:43:10;I2;20ms;4;BayesNet;9126;52,9147;47,0853;0,4253;0,529;0,060;0,551;0,529;0,527;0,475;0,869;0,554
2014-12-07-11:01:25;I2;20ms;4;NaiveBayes;9126;43,9404;56,0596;0,3284;0,439;0,050;0,497;0,439;0,445;0,403;0,838;0,481
2013-07-22-21:58:56;I2;20ms;4;RandomForest;9126;68,387 ;31,613 ;0,609 ;0,684;0,048;0,672;0,684;0,672;0,633;0,917;0,690
2014-12-07-11:17:00;I4;3ms;3;NaiveBayes;61133;51,7511;48,2489;0,3817;0,518;0,087;0,597;0,518;0,497;0,449;0,851;0,582
2013-07-22-23:00:34;I4;3ms;3;RandomForest;61133;86,6144;13,3856;0,8256;0,866;0,038;0,865;0,866;0,864;0,831;0,966;0,906
2013-08-30-05:25:31;I4;3ms;4;BayesNet;61132;62,5793;37,4207;0,5131;0,626;0,088;0,626;0,626;0,605;0,538;0,904;0,695
2014-12-07-11:17:15;I4;3ms;4;NaiveBayes;61132;50,9995;49,0005;0,3748;0,510;0,084;0,614;0,510;0,491;0,449;0,837;0,543
2013-07-22-23:01:41;I4;3ms;4;RandomForest;61132;87,3176;12,6824;0,8347;0,873;0,037;0,872;0,873;0,871;0,839;0,969;0,912
2013-08-30-05:26:17;I4;3ms;5;BayesNet;61131;62,4446;37,5554;0,5118;0,624;0,088;0,626;0,624;0,605;0,537;0,901;0,684
2014-12-07-11:17:34;I4;3ms;5;NaiveBayes;61131;50,4065;49,5935;0,3689;0,504;0,083;0,617;0,504;0,487;0,446;0,834;0,540
2013-07-22-23:02:55;I4;3ms;5;RandomForest;61131;87,8605;12,1395;0,8417;0,879;0,036;0,878;0,879;0,877;0,846;0,971;0,917
2013-08-30-05:27:09;I4;6ms;1;BayesNet;30453;59,9547;40,0453;0,4737;0,600;0,100;0,563;0,600;0,566;0,491;0,890;0,653
2014-12-07-11:17:57;I4;6ms;1;NaiveBayes;30453;55,3837;44,6163;0,4153;0,554;0,100;0,542;0,554;0,517;0,450;0,854;0,589
2013-07-23-03:04:24;I4;6ms;1;RandomForest;30453;81,7588;18,2412;0,7625;0,818;0,049;0,816;0,818;0,814;0,772;0,953;0,862
2013-08-30-05:27:15;I4;6ms;2;BayesNet;30452;58,7318;41,2682;0,4639;0,587;0,092;0,572;0,587;0,563;0,491;0,889;0,649
2014-12-07-11:18:01;I4;6ms;2;NaiveBayes;30452;53,2937;46,7063;0,3993;0,533;0,089;0,573;0,533;0,511;0,454;0,853;0,590
2013-07-23-03:04:51;I4;6ms;2;RandomForest;30452;80,9405;19,0595;0,7535;0,809;0,046;0,808;0,809;0,807;0,764;0,946;0,840
2013-08-30-05:27:25;I4;6ms;3;BayesNet;30451;58,1098;41,8902;0,4583;0,581;0,090;0,577;0,581;0,561;0,490;0,886;0,645
2014-12-07-11:18:07;I4;6ms;3;NaiveBayes;30451;51,5418;48,4582;0,3834;0,515;0,082;0,601;0,515;0,499;0,453;0,848;0,575
2013-08-30-05:11:26;I4;1ms;4;BayesNet;183401;80,9363;19,0637;0,7488;0,809;0,070;0,827;0,809;0,808;0,756;0,962;0,897
2014-12-07-11:12:47;I4;1ms;4;NaiveBayes;183401;50,8389;49,1611;0,3701;0,508;0,087;0,604;0,508;0,486;0,442;0,836;0,541
2013-07-22-22:42:22;I4;1ms;4;RandomForest;183401;90,6827;9,3173;0,8783;0,907;0,030;0,907;0,907;0,906;0,880;0,975;0,939
2013-08-30-05:14:52;I4;1ms;5;BayesNet;183400;81,0829;18,9171;0,7508;0,811;0,070;0,829;0,811;0,809;0,758;0,960;0,888
2014-12-07-11:13:43;I4;1ms;5;NaiveBayes;183400;50,4318;49,5682;0,3664;0,504;0,086;0,616;0,504;0,483;0,442;0,834;0,537
2013-07-22-22:46:19;I4;1ms;5;RandomForest;183400;91,0529;8,9471;0,883 ;0,911;0,029;0,911;0,911;0,910;0,885;0,976;0,942
2013-08-30-05:29:42;I4;20ms;1;BayesNet;9129;58,5497;41,4503;0,4622;0,585;0,097;0,537;0,585;0,547;0,476;0,878;0,624
2014-12-07-11:19:24;I4;20ms;1;NaiveBayes;9129;54,5295;45,4705;0,4155;0,545;0,093;0,551;0,545;0,509;0,451;0,852;0,578
2013-07-22-23:07:14;I4;20ms;1;RandomForest;9129;67,9045;32,0955;0,5879;0,679;0,068;0,665;0,679;0,668;0,609;0,897;0,694
2013-08-30-05:29:45;I4;20ms;2;BayesNet;9128;56,5074;43,4926;0,4464;0,565;0,084;0,555;0,565;0,548;0,478;0,869;0,613
2014-12-07-11:19:26;I4;20ms;2;NaiveBayes;9128;49,8685;50,1315;0,3755;0,499;0,073;0,573;0,499;0,494;0,444;0,843;0,562
2013-07-22-23:07:25;I4;20ms;2;RandomForest;9128;68,9855;31,0145;0,6019;0,690;0,065;0,676;0,690;0,678;0,622;0,906;0,702
2013-08-30-05:29:49;I4;20ms;3;BayesNet;9127;54,158 ;45,842 ;0,4248;0,542;0,076;0,568;0,542;0,541;0,473;0,862;0,599
2014-12-07-11:19:29;I4;20ms;3;NaiveBayes;9127;44,4834;55,5166;0,3292;0,445;0,054;0,578;0,445;0,462;0,423;0,830;0,526
2013-07-22-23:07:36;I4;20ms;3;RandomForest;9127;69,519 ;30,481 ;0,6082;0,695;0,064;0,685;0,695;0,683;0,629;0,912;0,711
2013-08-30-05:29:53;I4;20ms;4;BayesNet;9126;52,1915;47,8085;0,4072;0,522;0,069;0,576;0,522;0,531;0,468;0,855;0,576
2014-12-07-11:19:32;I4;20ms;4;NaiveBayes;9126;41,7379;58,2621;0,3053;0,417;0,046;0,577;0,417;0,443;0,408;0,828;0,517
2013-07-22-23:07:48;I4;20ms;4;RandomForest;9126;70,0088;29,9912;0,6143;0,700;0,064;0,693;0,700;0,687;0,635;0,918;0,719
2014-12-07-10:37:58;I0;3ms;2;NaiveBayes;61134;30,6605;69,3395;0,2303;0,307;0,018;0,588;0,307;0,382;0,354;0,804;0,493
2013-07-22-20:37:24;I0;3ms;2;RandomForest;61134;84,5765;15,4235;0,808 ;0,846;0,034;0,840;0,846;0,842;0,814;0,955;0,866
2013-08-30-03:48:35;I0;3ms;3;BayesNet;61133;64,3237;35,6763;0,5569;0,643;0,056;0,669;0,643;0,644;0,600;0,935;0,700
2014-12-07-10:38:19;I0;3ms;3;NaiveBayes;61133;29,5094;70,4906;0,2203;0,295;0,017;0,600;0,295;0,373;0,349;0,802;0,486
2013-07-22-20:38:40;I0;3ms;3;RandomForest;61133;85,5397;14,4603;0,819 ;0,855;0,036;0,849;0,855;0,850;0,823;0,961;0,879
2013-08-30-03:49:20;I0;3ms;4;BayesNet;61132;64,2888;35,7112;0,5577;0,643;0,054;0,676;0,643;0,647;0,604;0,935;0,703
2014-12-07-10:38:48;I0;3ms;4;NaiveBayes;61132;28,8965;71,1035;0,2145;0,289;0,016;0,603;0,289;0,368;0,345;0,800;0,481
2013-07-22-20:39:58;I0;3ms;4;RandomForest;61132;86,2314;13,7686;0,8273;0,862;0,037;0,855;0,862;0,857;0,831;0,965;0,887
2013-08-30-03:50:24;I0;3ms;5;BayesNet;61131;64,5335;35,4665;0,5616;0,645;0,052;0,682;0,645;0,651;0,608;0,935;0,705
2014-12-07-10:39:23;I0;3ms;5;NaiveBayes;61131;28,5665;71,4335;0,2109;0,286;0,016;0,600;0,286;0,363;0,341;0,799;0,475
2013-07-22-20:41:24;I0;3ms;5;RandomForest;61131;86,7645;13,2355;0,834 ;0,868;0,036;0,861;0,868;0,862;0,837;0,968;0,894
2013-08-30-03:51:40;I0;6ms;1;BayesNet;30453;60,0105;39,9895;0,4999;0,600;0,065;0,589;0,600;0,585;0,537;0,921;0,629
2014-12-07-10:40:06;I0;6ms;1;NaiveBayes;30453;32,6667;67,3333;0,2491;0,327;0,024;0,572;0,327;0,389;0,359;0,814;0,500
2013-07-23-02:52:01;I0;6ms;1;RandomForest;30453;79,6145;20,3855;0,7448;0,796;0,047;0,782;0,796;0,785;0,753;0,949;0,824
2013-08-30-03:51:49;I0;6ms;2;BayesNet;30452;58,1472;41,8528;0,4824;0,581;0,057;0,607;0,581;0,581;0,537;0,919;0,625
2014-12-07-10:40:13;I0;6ms;2;NaiveBayes;30452;30,6417;69,3583;0,2307;0,306;0,019;0,585;0,306;0,380;0,353;0,813;0,492
2013-07-23-02:52:32;I0;6ms;2;RandomForest;30452;78,6287;21,3713;0,7345;0,786;0,042;0,776;0,786;0,779;0,745;0,944;0,807
2013-08-30-04:13:12;I1;3ms;1;BayesNet;61135;66,0146;33,9854;0,5661;0,660;0,073;0,647;0,660;0,645;0,589;0,920;0,706
2014-12-07-10:49:13;I1;3ms;1;NaiveBayes;61135;54,5269;45,4731;0,4152;0,545;0,090;0,519;0,545;0,505;0,446;0,878;0,576
2013-07-22-21:13:21;I1;3ms;1;RandomForest;61135;86,2419;13,7581;0,8247;0,862;0,042;0,861;0,862;0,859;0,829;0,972;0,905
2013-08-30-04:13:25;I1;3ms;2;BayesNet;61134;65,7883;34,2117;0,5665;0,658;0,067;0,658;0,658;0,649;0,595;0,922;0,710
2014-12-07-10:49:21;I1;3ms;2;NaiveBayes;61134;52,9215;47,0785;0,4053;0,529;0,078;0,523;0,529;0,506;0,449;0,877;0,574
2013-07-22-21:14:08;I1;3ms;2;RandomForest;61134;84,9135;15,0865;0,8103;0,849;0,033;0,847;0,849;0,848;0,817;0,957;0,879
2013-08-30-04:13:49;I1;3ms;3;BayesNet;61133;65,6487;34,3513;0,5661;0,656;0,065;0,663;0,656;0,650;0,597;0,921;0,710
2014-12-07-10:49:33;I1;3ms;3;NaiveBayes;61133;51,7396;48,2604;0,3948;0,517;0,073;0,529;0,517;0,502;0,447;0,876;0,571
2013-07-22-21:15:14;I1;3ms;3;RandomForest;61133;85,9127;14,0873;0,8222;0,859;0,034;0,856;0,859;0,857;0,828;0,963;0,894
2013-08-30-04:14:25;I1;3ms;4;BayesNet;61132;65,4436;34,5564;0,5647;0,654;0,062;0,666;0,654;0,650;0,598;0,921;0,709
2014-12-07-10:49:51;I1;3ms;4;NaiveBayes;61132;50,8359;49,1641;0,3863;0,508;0,070;0,539;0,508;0,500;0,446;0,874;0,568
2013-07-22-21:16:24;I1;3ms;4;RandomForest;61132;86,6191;13,3809;0,8311;0,866;0,032;0,864;0,866;0,864;0,836;0,967;0,901
2013-08-30-04:15:11;I1;3ms;5;BayesNet;61131;65,2991;34,7009;0,5639;0,653;0,061;0,669;0,653;0,650;0,599;0,920;0,708
2014-12-07-10:50:12;I1;3ms;5;NaiveBayes;61131;49,9452;50,0548;0,3774;0,499;0,067;0,537;0,499;0,496;0,443;0,872;0,562
2013-07-22-21:17:39;I1;3ms;5;RandomForest;61131;87,2307;12,7693;0,8386;0,872;0,032;0,870;0,872;0,870;0,843;0,970;0,908
2013-08-30-04:16:11;I1;6ms;1;BayesNet;30453;62,608 ;37,392 ;0,5244;0,626;0,074;0,600;0,626;0,604;0,547;0,908;0,652
2014-12-07-10:50:37;I1;6ms;1;NaiveBayes;30453;54,7105;45,2895;0,4206;0,547;0,087;0,518;0,547;0,505;0,448;0,879;0,574
2013-07-23-02:55:26;I1;6ms;1;RandomForest;30453;80,6587;19,3413;0,7557;0,807;0,044;0,800;0,807;0,802;0,766;0,952;0,844
2014-12-07-10:42:00;I0;10ms;5;NaiveBayes;18292;29,6359;70,3641;0,2174;0,296;0,017;0,545;0,296;0,366;0,337;0,829;0,479
2013-07-22-20:44:39;I0;10ms;5;RandomForest;18292;76,487 ;23,513 ;0,7074;0,765;0,047;0,752;0,765;0,752;0,721;0,949;0,784
2013-08-30-03:54:23;I0;15ms;1;BayesNet;12189;58,4954;41,5046;0,4853;0,585;0,064;0,549;0,585;0,556;0,513;0,914;0,599
2014-12-07-10:42:13;I0;15ms;1;NaiveBayes;12189;34,1702;65,8298;0,265 ;0,342;0,023;0,569;0,342;0,403;0,374;0,834;0,510
2013-07-22-20:45:08;I0;15ms;1;RandomForest;12189;68,3485;31,6515;0,6102;0,683;0,048;0,658;0,683;0,666;0,631;0,909;0,683
2013-08-30-03:54:27;I0;15ms;2;BayesNet;12188;54,5783;45,4217;0,4467;0,546;0,052;0,565;0,546;0,541;0,502;0,910;0,588
2014-12-07-10:42:17;I0;15ms;2;NaiveBayes;12188;33,8776;66,1224;0,2569;0,339;0,019;0,574;0,339;0,402;0,376;0,835;0,496
2013-07-22-20:45:24;I0;15ms;2;RandomForest;12188;68,2639;31,7361;0,6089;0,683;0,049;0,655;0,683;0,663;0,627;0,916;0,684
2013-08-30-03:54:34;I0;15ms;3;BayesNet;12187;51,3416;48,6584;0,4151;0,513;0,044;0,573;0,513;0,522;0,488;0,904;0,575
2014-12-07-10:42:22;I0;15ms;3;NaiveBayes;12187;33,4701;66,5299;0,2511;0,335;0,017;0,556;0,335;0,395;0,369;0,833;0,486
2013-07-22-20:45:43;I0;15ms;3;RandomForest;12187;69,8121;30,1879;0,6264;0,698;0,051;0,673;0,698;0,677;0,643;0,924;0,699
2013-08-30-03:54:42;I0;15ms;4;BayesNet;12186;49,1712;50,8288;0,3947;0,492;0,038;0,585;0,492;0,509;0,480;0,897;0,561
2014-12-07-10:42:28;I0;15ms;4;NaiveBayes;12186;32,8574;67,1426;0,2451;0,329;0,018;0,538;0,329;0,388;0,360;0,835;0,479
2013-07-22-20:46:02;I0;15ms;4;RandomForest;12186;70,4415;29,5585;0,6341;0,704;0,051;0,679;0,704;0,683;0,650;0,930;0,708
2014-12-07-11:09:44;I3;6ms;5;NaiveBayes;30449;33,5775;66,4225;0,2436;0,336;0,034;0,600;0,336;0,415;0,363;0,810;0,533
2013-07-23-03:03:44;I3;6ms;5;RandomForest;30449;83,5167;16,4833;0,7876;0,835;0,041;0,839;0,835;0,834;0,797;0,962;0,879
2013-08-30-05:28:26;I4;10ms;1;BayesNet;18296;59,7672;40,2328;0,4716;0,598;0,101;0,551;0,598;0,558;0,485;0,887;0,645
2014-12-07-11:18:38;I4;10ms;1;NaiveBayes;18296;55,5203;44,4797;0,4198;0,555;0,099;0,577;0,555;0,516;0,454;0,855;0,588
2013-07-22-23:04:14;I4;10ms;1;RandomForest;18296;76,5523;23,4477;0,6964;0,766;0,056;0,760;0,766;0,759;0,711;0,932;0,799
2013-08-30-05:28:30;I4;10ms;2;BayesNet;18295;58,5624;41,4376;0,4633;0,586;0,092;0,564;0,586;0,560;0,488;0,883;0,642
2014-12-07-11:18:41;I4;10ms;2;NaiveBayes;18295;53,1511;46,8489;0,4014;0,532;0,085;0,572;0,532;0,511;0,456;0,852;0,585
2013-07-22-23:04:31;I4;10ms;2;RandomForest;18295;75,7639;24,2361;0,6872;0,758;0,055;0,756;0,758;0,753;0,704;0,934;0,786
2013-08-30-05:28:37;I4;10ms;3;BayesNet;18294;57,1226;42,8774;0,449 ;0,571;0,088;0,567;0,571;0,554;0,483;0,877;0,632
2014-12-07-11:18:45;I4;10ms;3;NaiveBayes;18294;50,4264;49,5736;0,3763;0,504;0,076;0,596;0,504;0,496;0,451;0,842;0,558
2013-07-22-23:04:52;I4;10ms;3;RandomForest;18294;76,8722;23,1278;0,7011;0,769;0,053;0,767;0,769;0,763;0,717;0,940;0,803
2013-08-30-05:28:46;I4;10ms;4;BayesNet;18293;55,9012;44,0988;0,4367;0,559;0,085;0,568;0,559;0,549;0,477;0,869;0,613
2014-12-07-11:18:50;I4;10ms;4;NaiveBayes;18293;47,3241;52,6759;0,3476;0,473;0,067;0,604;0,473;0,477;0,437;0,831;0,534
2013-07-22-23:05:13;I4;10ms;4;RandomForest;18293;77,2372;22,7628;0,7055;0,772;0,052;0,772;0,772;0,766;0,721;0,943;0,806
2013-08-30-05:28:57;I4;10ms;5;BayesNet;18292;55,0459;44,9541;0,4288;0,550;0,082;0,574;0,550;0,546;0,475;0,859;0,588
2014-12-07-11:18:57;I4;10ms;5;NaiveBayes;18292;44,8775;55,1225;0,326 ;0,449;0,059;0,614;0,449;0,461;0,428;0,827;0,526
2013-07-22-23:05:35;I4;10ms;5;RandomForest;18292;78,2528;21,7472;0,7185;0,783;0,051;0,783;0,783;0,777;0,734;0,948;0,817
2014-12-07-11:02:34;I3;1ms;3;NaiveBayes;183402;35,6861;64,3139;0,2694;0,357;0,029;0,642;0,357;0,438;0,392;0,804;0,560
2013-07-22-22:04:39;I3;1ms;3;RandomForest;183402;90,9123;9,0877;0,8821;0,909;0,030;0,910;0,909;0,909;0,881;0,974;0,941
2013-08-30-04:48:15;I3;1ms;4;BayesNet;183401;80,8164;19,1836;0,7498;0,808;0,069;0,830;0,808;0,806;0,754;0,964;0,905
2014-12-07-11:03:26;I3;1ms;4;NaiveBayes;183401;34,5445;65,4555;0,2593;0,345;0,027;0,645;0,345;0,429;0,386;0,801;0,557
2013-07-22-22:08:11;I3;1ms;4;RandomForest;183401;91,3179;8,6821;0,8873;0,913;0,029;0,914;0,913;0,913;0,887;0,977;0,945
2013-08-30-04:51:28;I3;1ms;5;BayesNet;183400;80,9209;19,0791;0,7513;0,809;0,069;0,832;0,809;0,808;0,756;0,963;0,898
2014-12-07-11:04:29;I3;1ms;5;NaiveBayes;183400;33,8195;66,1805;0,2525;0,338;0,027;0,646;0,338;0,422;0,381;0,800;0,551
2013-07-22-22:11:56;I3;1ms;5;RandomForest;183400;91,7225;8,2775;0,8925;0,917;0,029;0,918;0,917;0,917;0,892;0,978;0,949
2013-08-30-05:06:13;I3;20ms;1;BayesNet;9129;60,4228;39,5772;0,4968;0,604;0,083;0,573;0,604;0,570;0,510;0,892;0,647
2014-12-07-11:10:49;I3;20ms;1;NaiveBayes;9129;36,751 ;63,249 ;0,2819;0,368;0,043;0,613;0,368;0,418;0,375;0,831;0,560
2013-07-22-22:32:37;I3;20ms;1;RandomForest;9129;69,46  ;30,54  ;0,6111;0,695;0,063;0,687;0,695;0,687;0,631;0,904;0,709
2013-08-30-05:06:15;I3;20ms;2;BayesNet;9128;57,603 ;42,397 ;0,468 ;0,576;0,075;0,577;0,576;0,558;0,498;0,883;0,624
2014-12-07-11:10:51;I3;20ms;2;NaiveBayes;9128;36,8317;63,1683;0,2765;0,368;0,038;0,586;0,368;0,438;0,382;0,826;0,544
2013-07-22-22:32:46;I3;20ms;2;RandomForest;9128;70,2892;29,7108;0,6222;0,703;0,060;0,700;0,703;0,695;0,643;0,913;0,714
2013-08-30-05:06:19;I3;20ms;3;BayesNet;9127;54,8263;45,1737;0,4397;0,548;0,069;0,579;0,548;0,543;0,485;0,876;0,608
2014-12-07-11:10:54;I3;20ms;3;NaiveBayes;9127;35,3347;64,6653;0,2583;0,353;0,038;0,560;0,353;0,420;0,364;0,823;0,528
2013-07-22-22:32:58;I3;20ms;3;RandomForest;9127;71,4583;28,5417;0,6362;0,715;0,059;0,714;0,715;0,705;0,657;0,918;0,724
2013-08-30-05:06:24;I3;20ms;4;BayesNet;9126;53,2544;46,7456;0,4247;0,533;0,063;0,590;0,533;0,540;0,483;0,873;0,601
2014-12-07-11:10:58;I3;20ms;4;NaiveBayes;9126;39,0971;60,9029;0,2889;0,391;0,040;0,562;0,391;0,445;0,391;0,827;0,524
2013-07-22-22:33:09;I3;20ms;4;RandomForest;9126;72,0031;27,9969;0,6428;0,720;0,059;0,717;0,720;0,710;0,662;0,923;0,734
2013-08-30-05:04:56;I3;10ms;1;BayesNet;18296;61,4451;38,5549;0,5041;0,614;0,087;0,590;0,614;0,580;0,519;0,900;0,671
2014-12-07-11:09:57;I3;10ms;1;NaiveBayes;18296;34,1003;65,8997;0,2608;0,341;0,039;0,630;0,341;0,398;0,359;0,811;0,547
2013-07-22-22:29:38;I3;10ms;1;RandomForest;18296;77,711 ;22,289 ;0,7133;0,777;0,053;0,777;0,777;0,773;0,726;0,938;0,810
2013-08-30-05:05:00;I3;10ms;2;BayesNet;18295;59,4917;40,5083;0,4852;0,595;0,080;0,601;0,595;0,574;0,515;0,897;0,661
2014-12-07-11:10:00;I3;10ms;2;NaiveBayes;18295;36,3706;63,6294;0,2747;0,364;0,035;0,611;0,364;0,440;0,386;0,818;0,552
2013-07-22-22:29:55;I3;10ms;2;RandomForest;18295;76,54  ;23,46  ;0,6994;0,765;0,053;0,767;0,765;0,762;0,714;0,937;0,795
2013-08-30-05:05:06;I3;10ms;3;BayesNet;18294;57,6145;42,3855;0,4645;0,576;0,077;0,593;0,576;0,561;0,501;0,890;0,646
2014-12-07-11:10:05;I3;10ms;3;NaiveBayes;18294;35,3668;64,6332;0,2607;0,354;0,036;0,604;0,354;0,431;0,377;0,818;0,543
2013-07-22-22:30:16;I3;10ms;3;RandomForest;18294;77,5992;22,4008;0,7129;0,776;0,050;0,780;0,776;0,773;0,728;0,943;0,810
2013-08-30-05:05:16;I3;10ms;4;BayesNet;18293;56,426 ;43,574 ;0,4516;0,564;0,076;0,591;0,564;0,555;0,493;0,884;0,634
2014-12-07-11:10:12;I3;10ms;4;NaiveBayes;18293;34,0513;65,9487;0,2449;0,341;0,038;0,579;0,341;0,413;0,357;0,815;0,528
2013-07-22-22:30:37;I3;10ms;4;RandomForest;18293;78,5929;21,4071;0,7253;0,786;0,048;0,789;0,786;0,782;0,740;0,949;0,820
2013-08-30-05:05:27;I3;10ms;5;BayesNet;18292;55,3029;44,6971;0,4399;0,553;0,074;0,594;0,553;0,551;0,489;0,879;0,625
2014-12-07-11:10:19;I3;10ms;5;NaiveBayes;18292;33,0527;66,9473;0,234 ;0,331;0,039;0,556;0,331;0,400;0,342;0,813;0,518
2013-07-22-22:30:59;I3;10ms;5;RandomForest;18292;79,4336;20,5664;0,7359;0,794;0,047;0,798;0,794;0,791;0,751;0,952;0,830
2013-08-30-05:27:41;I4;6ms;4;BayesNet;30450;57,5402;42,4598;0,4526;0,575;0,089;0,578;0,575;0,559;0,488;0,881;0,635
2014-12-07-11:18:16;I4;6ms;4;NaiveBayes;30450;50,0394;49,9606;0,3687;0,500;0,078;0,606;0,500;0,490;0,446;0,835;0,541
2013-07-23-03:06:01;I4;6ms;4;RandomForest;30450;82,3054;17,6946;0,7704;0,823;0,044;0,823;0,823;0,820;0,781;0,957;0,865
2013-08-30-05:27:59;I4;6ms;5;BayesNet;30449;56,9444;43,0556;0,4465;0,569;0,088;0,579;0,569;0,556;0,485;0,873;0,616
2014-12-07-11:18:26;I4;6ms;5;NaiveBayes;30449;48,6091;51,3909;0,3555;0,486;0,074;0,609;0,486;0,483;0,441;0,831;0,534
2013-07-23-03:06:40;I4;6ms;5;RandomForest;30449;82,7252;17,2748;0,7757;0,827;0,044;0,827;0,827;0,824;0,786;0,959;0,869
2014-12-07-10:32:08;I0;1ms;5;NaiveBayes;183400;29,6505;70,3495;0,2198;0,297;0,015;0,614;0,297;0,376;0,353;0,803;0,495
2013-07-22-20:22:38;I0;1ms;5;RandomForest;183400;90,2017;9,7983;0,877 ;0,902;0,030;0,898;0,902;0,899;0,878;0,971;0,920
2013-08-30-03:55:06;I0;20ms;1;BayesNet;9129;57,1585;42,8415;0,4726;0,572;0,062;0,539;0,572;0,544;0,501;0,909;0,584
2014-12-07-10:42:46;I0;20ms;1;NaiveBayes;9129;30,7263;69,2737;0,2367;0,307;0,024;0,556;0,307;0,366;0,342;0,835;0,498
2013-07-22-20:46:43;I0;20ms;1;RandomForest;9129;64,191 ;35,809 ;0,5613;0,642;0,051;0,609;0,642;0,621;0,582;0,888;0,634
2013-08-30-03:55:10;I0;20ms;2;BayesNet;9128;52,8593;47,1407;0,4309;0,529;0,049;0,552;0,529;0,526;0,488;0,903;0,571
2014-12-07-10:42:49;I0;20ms;2;NaiveBayes;9128;31,4417;68,5583;0,2375;0,314;0,018;0,556;0,314;0,380;0,354;0,833;0,489
2013-07-22-20:46:56;I0;20ms;2;RandomForest;9128;65,3922;34,6078;0,5757;0,654;0,050;0,624;0,654;0,632;0,595;0,902;0,646
2013-08-30-03:55:15;I0;20ms;3;BayesNet;9127;49,7425;50,2575;0,401 ;0,497;0,041;0,566;0,497;0,508;0,476;0,895;0,555
2014-12-07-10:42:53;I0;20ms;3;NaiveBayes;9127;31,1165;68,8835;0,2338;0,311;0,016;0,536;0,311;0,376;0,350;0,834;0,477
2013-07-22-20:47:10;I0;20ms;3;RandomForest;9127;66,4731;33,5269;0,5875;0,665;0,052;0,632;0,665;0,640;0,606;0,911;0,659
2013-08-30-03:55:22;I0;20ms;4;BayesNet;9126;47,1181;52,8819;0,3751;0,471;0,037;0,568;0,471;0,491;0,462;0,888;0,541
2014-12-07-10:42:58;I0;20ms;4;NaiveBayes;9126;34,3305;65,6695;0,2573;0,343;0,018;0,525;0,343;0,392;0,368;0,838;0,471
2013-07-22-20:47:24;I0;20ms;4;RandomForest;9126;66,9077;33,0923;0,5928;0,669;0,051;0,643;0,669;0,646;0,612;0,915;0,665
2014-12-07-11:00:28;I2;10ms;1;NaiveBayes;18296;54,8098;45,1902;0,4246;0,548;0,085;0,507;0,548;0,501;0,450;0,867;0,562
2013-07-22-21:55:10;I2;10ms;1;RandomForest;18296;75,0383;24,9617;0,6876;0,750;0,047;0,743;0,750;0,744;0,705;0,932;0,772
2013-08-30-04:41:43;I2;10ms;2;BayesNet;18295;59,3659;40,6341;0,4892;0,594;0,071;0,568;0,594;0,570;0,516;0,899;0,627
2014-12-07-11:00:32;I2;10ms;2;NaiveBayes;18295;52,2602;47,7398;0,4051;0,523;0,070;0,515;0,523;0,501;0,449;0,863;0,554
2013-07-22-21:55:28;I2;10ms;2;RandomForest;18295;74,2061;25,7939;0,6787;0,742;0,044;0,738;0,742;0,737;0,697;0,933;0,761
2013-08-30-04:41:50;I2;10ms;3;BayesNet;18294;57,9316;42,0684;0,4733;0,579;0,070;0,568;0,579;0,562;0,507;0,894;0,618
2014-12-07-11:00:36;I2;10ms;3;NaiveBayes;18294;48,8466;51,1534;0,3696;0,488;0,064;0,519;0,488;0,485;0,434;0,855;0,536
2013-07-22-21:55:49;I2;10ms;3;RandomForest;18294;75,4236;24,5764;0,6934;0,754;0,043;0,751;0,754;0,749;0,712;0,941;0,779
2013-08-30-04:42:00;I2;10ms;4;BayesNet;18293;56,7212;43,2788;0,46  ;0,567;0,070;0,567;0,567;0,555;0,499;0,889;0,608
2014-12-07-11:00:41;I2;10ms;4;NaiveBayes;18293;46,5041;53,4959;0,3456;0,465;0,060;0,523;0,465;0,470;0,421;0,840;0,499
2013-07-22-21:56:12;I2;10ms;4;RandomForest;18293;76,5429;23,4571;0,7073;0,765;0,041;0,763;0,765;0,761;0,725;0,946;0,791
2013-08-30-04:42:11;I2;10ms;5;BayesNet;18292;55,5871;44,4129;0,4478;0,556;0,068;0,567;0,556;0,549;0,492;0,881;0,589
2014-12-07-11:00:48;I2;10ms;5;NaiveBayes;18292;44,8775;55,1225;0,329 ;0,449;0,058;0,514;0,449;0,455;0,409;0,835;0,488
2013-07-22-21:56:36;I2;10ms;5;RandomForest;18292;77,1211;22,8789;0,7145;0,771;0,040;0,770;0,771;0,767;0,732;0,949;0,798
2013-08-30-04:17:34;I1;10ms;2;BayesNet;18295;59,7704;40,2296;0,4968;0,598;0,066;0,583;0,598;0,580;0,528;0,902;0,631
2014-12-07-10:51:26;I1;10ms;2;NaiveBayes;18295;52,282 ;47,718 ;0,4063;0,523;0,069;0,511;0,523;0,502;0,449;0,873;0,559
2013-07-22-21:19:31;I1;10ms;2;RandomForest;18295;73,7907;26,2093;0,6735;0,738;0,045;0,733;0,738;0,733;0,692;0,932;0,760
2013-08-30-04:17:40;I1;10ms;3;BayesNet;18294;57,5981;42,4019;0,4749;0,576;0,059;0,582;0,576;0,565;0,516;0,898;0,621
2014-12-07-10:51:30;I1;10ms;3;NaiveBayes;18294;48,8466;51,1534;0,3721;0,488;0,061;0,527;0,488;0,487;0,438;0,866;0,549
2013-07-22-21:19:56;I1;10ms;3;RandomForest;18294;75,4892;24,5108;0,6939;0,755;0,044;0,749;0,755;0,749;0,711;0,940;0,781
2013-08-30-04:17:50;I1;10ms;4;BayesNet;18293;56,1253;43,8747;0,4609;0,561;0,054;0,587;0,561;0,557;0,511;0,894;0,613
2014-12-07-10:51:36;I1;10ms;4;NaiveBayes;18293;46,3784;53,6216;0,3484;0,464;0,054;0,530;0,464;0,471;0,427;0,858;0,536
2013-07-22-21:20:18;I1;10ms;4;RandomForest;18293;76,6523;23,3477;0,7085;0,767;0,042;0,762;0,767;0,761;0,725;0,945;0,794
2013-08-30-04:18:02;I1;10ms;5;BayesNet;18292;54,8436;45,1564;0,448 ;0,548;0,051;0,590;0,548;0,550;0,505;0,890;0,604
2014-12-07-10:51:44;I1;10ms;5;NaiveBayes;18292;44,6862;55,3138;0,3322;0,447;0,051;0,522;0,447;0,456;0,415;0,853;0,523
2013-07-22-21:20:43;I1;10ms;5;RandomForest;18292;77,564 ;22,436 ;0,7194;0,776;0,042;0,770;0,776;0,770;0,735;0,950;0,806
2013-08-30-04:43:16;I2;20ms;5;BayesNet;9125;51,5288;48,4712;0,4115;0,515;0,057;0,551;0,515;0,516;0,467;0,863;0,538
2013-07-22-21:47:27;I2;2ms;5;RandomForest;91699;88,8418;11,1582;0,8588;0,888;0,030;0,889;0,888;0,888;0,863;0,972;0,921
2013-07-22-21:53:49;I2;3ms;5;RandomForest;61131;87,1276;12,8724;0,8375;0,871;0,032;0,871;0,871;0,870;0,843;0,971;0,908
2013-07-23-03:00:54;I2;6ms;5;RandomForest;30449;82,3344;17,6656;0,7782;0,823;0,036;0,823;0,823;0,821;0,789;0,961;0,860
2013-08-30-05:05:41;I3;15ms;1;BayesNet;12189;61,0961;38,9039;0,5026;0,611;0,084;0,585;0,611;0,575;0,517;0,898;0,662
2013-08-30-04:45:43;I3;1ms;3;BayesNet;183402;80,8862;19,1138;0,7505;0,809;0,070;0,828;0,809;0,806;0,754;0,965;0,909
2013-08-30-05:06:30;I3;20ms;5;BayesNet;9125;52,2849;47,7151;0,4159;0,523;0,060;0,593;0,523;0,538;0,480;0,868;0,588
2013-08-30-04:58:52;I3;2ms;5;BayesNet;91699;75,4894;24,5106;0,6829;0,755;0,072;0,778;0,755;0,744;0,692;0,950;0,858
2013-08-30-05:02:48;I3;3ms;5;BayesNet;61131;62,8846;37,1154;0,5236;0,629;0,082;0,646;0,629;0,612;0,550;0,913;0,706
2013-08-30-05:04:32;I3;6ms;5;BayesNet;30449;57,4108;42,5892;0,4607;0,574;0,078;0,604;0,574;0,564;0,502;0,891;0,649
2013-08-30-05:29:12;I4;15ms;1;BayesNet;12189;59,6193;40,3807;0,4726;0,596;0,098;0,551;0,596;0,556;0,486;0,885;0,637
2013-07-22-22:38:53;I4;1ms;3;RandomForest;183402;90,282 ;9,718 ;0,8732;0,903;0,030;0,902;0,903;0,902;0,875;0,972;0,934
2013-08-30-05:29:59;I4;20ms;5;BayesNet;9125;50,7945;49,2055;0,3954;0,508;0,063;0,583;0,508;0,525;0,464;0,852;0,567
2013-08-30-05:21:12;I4;2ms;4;BayesNet;91700;76,1603;23,8397;0,6875;0,762;0,075;0,776;0,762;0,753;0,698;0,948;0,855
2013-08-30-05:24:55;I4;3ms;3;BayesNet;61133;62,5767;37,4233;0,5124;0,626;0,089;0,622;0,626;0,604;0,536;0,905;0,699
2013-07-23-03:05:25;I4;6ms;3;RandomForest;30451;81,3307;18,6693;0,7578;0,813;0,047;0,813;0,813;0,810;0,768;0,953;0,855
2013-08-30-04:37:29;I2;3ms;1;BayesNet;61135;63,4007;36,5993;0,5312;0,634;0,081;0,611;0,634;0,609;0,551;0,915;0,685
2014-12-07-10:58:28;I2;3ms;1;NaiveBayes;61135;54,5612;45,4388;0,4153;0,546;0,090;0,510;0,546;0,504;0,446;0,869;0,568
2013-07-22-21:49:29;I2;3ms;1;RandomForest;61135;86,2975;13,7025;0,8259;0,863;0,039;0,864;0,863;0,861;0,832;0,972;0,907
2013-08-30-04:37:41;I2;3ms;2;BayesNet;61134;63,2103;36,7897;0,5319;0,632;0,075;0,623;0,632;0,615;0,558;0,916;0,686
2014-12-07-10:58:36;I2;3ms;2;NaiveBayes;61134;52,6401;47,3599;0,4013;0,526;0,078;0,522;0,526;0,502;0,446;0,868;0,568
2013-07-22-21:50:17;I2;3ms;2;RandomForest;61134;85,2292;14,7708;0,8141;0,852;0,033;0,852;0,852;0,852;0,820;0,959;0,880
2013-08-30-04:38:04;I2;3ms;3;BayesNet;61133;63,195 ;36,805 ;0,5331;0,632;0,072;0,630;0,632;0,618;0,562;0,916;0,687
2014-12-07-10:58:48;I2;3ms;3;NaiveBayes;61133;51,5384;48,4616;0,3911;0,515;0,075;0,524;0,515;0,498;0,443;0,867;0,564
2013-07-22-21:51:24;I2;3ms;3;RandomForest;61133;85,9863;14,0137;0,8233;0,860;0,033;0,860;0,860;0,859;0,829;0,964;0,894
2013-08-30-04:38:44;I2;3ms;4;BayesNet;61132;63,2713;36,7287;0,5347;0,633;0,071;0,635;0,633;0,620;0,565;0,915;0,688
2014-12-07-10:59:04;I2;3ms;4;NaiveBayes;61132;50,8081;49,1919;0,3841;0,508;0,072;0,531;0,508;0,497;0,442;0,861;0,545
2013-07-22-21:52:34;I2;3ms;4;RandomForest;61132;86,6567;13,3433;0,8316;0,867;0,033;0,867;0,867;0,866;0,837;0,968;0,902
2013-08-30-04:39:28;I2;3ms;5;BayesNet;61131;63,1365;36,8635;0,5333;0,631;0,071;0,634;0,631;0,619;0,564;0,914;0,685
2014-12-07-10:59:24;I2;3ms;5;NaiveBayes;61131;49,9207;50,0793;0,3746;0,499;0,071;0,527;0,499;0,493;0,438;0,850;0,516
2013-08-30-04:42:49;I2;15ms;5;BayesNet;12185;53,6151;46,3849;0,4301;0,536;0,063;0,561;0,536;0,535;0,482;0,870;0,557
2014-12-07-11:01:10;I2;15ms;5;NaiveBayes;12185;43,9393;56,0607;0,3253;0,439;0,051;0,498;0,439;0,447;0,403;0,835;0,482
2013-07-22-21:58:03;I2;15ms;5;RandomForest;12185;72,4579;27,5421;0,6574;0,725;0,045;0,719;0,725;0,716;0,680;0,935;0,739
2013-08-30-04:19:17;I2;1ms;1;BayesNet;183404;81,2763;18,7237;0,759 ;0,813;0,067;0,813;0,813;0,806;0,758;0,962;0,888
2014-12-07-10:52:34;I2;1ms;1;NaiveBayes;183404;54,6624;45,3376;0,4145;0,547;0,092;0,513;0,547;0,506;0,446;0,869;0,570
2013-07-22-21:23:31;I2;1ms;1;RandomForest;183404;90,8699;9,1301;0,8834;0,909;0,034;0,913;0,909;0,908;0,886;0,987;0,948
2013-08-30-04:20:08;I2;1ms;2;BayesNet;183403;82,0597;17,9403;0,7697;0,821;0,064;0,823;0,821;0,815;0,769;0,964;0,893
2014-12-07-10:52:54;I2;1ms;2;NaiveBayes;183403;52,8083;47,1917;0,4007;0,528;0,081;0,525;0,528;0,503;0,445;0,870;0,571
2013-07-22-21:25:48;I2;1ms;2;RandomForest;183403;89,8818;10,1182;0,8717;0,899;0,029;0,899;0,899;0,898;0,874;0,971;0,928
2013-08-30-04:21:46;I2;1ms;3;BayesNet;183402;82,5738;17,4262;0,7768;0,826;0,061;0,829;0,826;0,821;0,776;0,965;0,895
2014-12-07-10:53:26;I2;1ms;3;NaiveBayes;183402;51,8293;48,1707;0,3917;0,518;0,077;0,525;0,518;0,499;0,442;0,869;0,570
2014-12-07-11:07:12;I3;2ms;5;NaiveBayes;91699;32,7266;67,2734;0,2414;0,327;0,030;0,634;0,327;0,412;0,368;0,795;0,539
2013-07-22-22:22:20;I3;2ms;5;RandomForest;91699;90,0806;9,9194;0,8713;0,901;0,032;0,902;0,901;0,901;0,872;0,976;0,937
2013-08-30-05:00:51;I3;3ms;1;BayesNet;61135;64,0157;35,9843;0,5334;0,640;0,088;0,634;0,640;0,616;0,551;0,915;0,717
2014-12-07-11:07:51;I3;3ms;1;NaiveBayes;61135;38,5949;61,4051;0,2945;0,386;0,040;0,620;0,386;0,444;0,393;0,805;0,559
2013-07-22-22:24:16;I3;3ms;1;RandomForest;61135;87,9071;12,0929;0,8429;0,879;0,039;0,881;0,879;0,879;0,846;0,975;0,928
2013-08-30-05:01:03;I3;3ms;2;BayesNet;61134;63,6193;36,3807;0,5311;0,636;0,084;0,644;0,636;0,616;0,554;0,917;0,720
2014-12-07-11:07:58;I3;3ms;2;NaiveBayes;61134;35,7199;64,2801;0,2709;0,357;0,032;0,632;0,357;0,435;0,386;0,801;0,552
2013-07-22-22:25:02;I3;3ms;2;RandomForest;61134;86,8175;13,1825;0,8298;0,868;0,037;0,869;0,868;0,868;0,832;0,963;0,902
2013-08-30-05:01:26;I3;3ms;3;BayesNet;61133;63,1803;36,8197;0,5265;0,632;0,083;0,645;0,632;0,613;0,552;0,917;0,722
2014-12-07-11:08:11;I3;3ms;3;NaiveBayes;61133;34,0242;65,9758;0,2551;0,340;0,031;0,629;0,340;0,422;0,375;0,798;0,545
2013-07-22-22:26:04;I3;3ms;3;RandomForest;61133;87,6106;12,3894;0,8397;0,876;0,036;0,877;0,876;0,876;0,842;0,968;0,915
2013-08-30-05:02:05;I3;3ms;4;BayesNet;61132;63,021 ;36,979 ;0,5251;0,630;0,082;0,647;0,630;0,613;0,552;0,915;0,715
2014-12-07-11:08:27;I3;3ms;4;NaiveBayes;61132;33,1561;66,8439;0,2463;0,332;0,030;0,631;0,332;0,416;0,370;0,795;0,539
2013-07-22-22:27:09;I3;3ms;4;RandomForest;61132;88,1437;11,8563;0,8465;0,881;0,035;0,883;0,881;0,881;0,849;0,972;0,921
2014-12-07-11:15:41;I4;2ms;4;NaiveBayes;91700;50,626 ;49,374 ;0,369 ;0,506;0,086;0,605;0,506;0,485;0,442;0,836;0,541
2013-07-22-22:54:53;I4;2ms;4;RandomForest;91700;88,9542;11,0458;0,8558;0,890;0,034;0,889;0,890;0,888;0,859;0,972;0,925
2013-08-30-05:22:33;I4;2ms;5;BayesNet;91699;76,5025;23,4975;0,6921;0,765;0,074;0,780;0,765;0,757;0,702;0,946;0,848
2014-12-07-11:16:08;I4;2ms;5;NaiveBayes;91699;50,102 ;49,898 ;0,3638;0,501;0,085;0,612;0,501;0,481;0,440;0,834;0,539
2013-07-22-22:56:45;I4;2ms;5;RandomForest;91699;89,3576;10,6424;0,861 ;0,894;0,033;0,893;0,894;0,892;0,864;0,974;0,929
2013-08-30-05:24:19;I4;3ms;1;BayesNet;61135;63,2453;36,7547;0,5156;0,632;0,097;0,611;0,632;0,605;0,533;0,905;0,697
2014-12-07-11:16:42;I4;3ms;1;NaiveBayes;61135;55,2907;44,7093;0,4118;0,553;0,102;0,540;0,553;0,518;0,447;0,854;0,590
2013-07-22-22:58:43;I4;3ms;1;RandomForest;61135;87,3182;12,6818;0,8338;0,873;0,042;0,874;0,873;0,871;0,838;0,973;0,919
2013-08-30-05:24:31;I4;3ms;2;BayesNet;61134;62,8537;37,1463;0,5146;0,629;0,091;0,620;0,629;0,606;0,537;0,906;0,698
2014-12-07-11:16:49;I4;3ms;2;NaiveBayes;61134;53,0229;46,9771;0,3929;0,530;0,092;0,570;0,530;0,506;0,448;0,854;0,591
2013-07-22-22:59:30;I4;3ms;2;RandomForest;61134;85,8835;14,1165;0,8167;0,859;0,037;0,858;0,859;0,858;0,822;0,959;0,892
2013-08-30-05:29:33;I4;15ms;5;BayesNet;12185;52,9339;47,0661;0,4123;0,529;0,073;0,582;0,529;0,536;0,471;0,856;0,580
2014-12-07-11:19:18;I4;15ms;5;NaiveBayes;12185;41,986 ;58,014 ;0,3044;0,420;0,048;0,591;0,420;0,443;0,412;0,827;0,519
2013-07-22-23:06:57;I4;15ms;5;RandomForest;12185;73,8203;26,1797;0,6625;0,738;0,057;0,736;0,738;0,729;0,682;0,933;0,763
2013-08-30-05:06:37;I4;1ms;1;BayesNet;183404;80,7959;19,2041;0,7457;0,808;0,074;0,814;0,808;0,803;0,748;0,961;0,896
2014-12-07-11:11:07;I4;1ms;1;NaiveBayes;183404;55,4345;44,5655;0,4112;0,554;0,104;0,543;0,554;0,519;0,447;0,854;0,591
2013-07-22-22:33:34;I4;1ms;1;RandomForest;183404;91,6016;8,3984;0,8895;0,916;0,034;0,919;0,916;0,915;0,891;0,988;0,957
2013-08-30-05:07:26;I4;1ms;2;BayesNet;183403;80,8809;19,1191;0,7477;0,809;0,071;0,822;0,809;0,805;0,753;0,963;0,901
2014-12-07-11:11:26;I4;1ms;2;NaiveBayes;183403;53,1431;46,8569;0,3918;0,531;0,094;0,568;0,531;0,506;0,446;0,854;0,592
2013-07-22-22:35:45;I4;1ms;2;RandomForest;183403;90,5503;9,4497;0,8764;0,906;0,031;0,905;0,906;0,905;0,878;0,973;0,939
2013-08-30-05:09:05;I4;1ms;3;BayesNet;183402;80,9446;19,0554;0,7488;0,809;0,071;0,825;0,809;0,807;0,755;0,963;0,902
2014-12-07-11:11:59;I4;1ms;3;NaiveBayes;183402;51,6325;48,3675;0,3775;0,516;0,090;0,585;0,516;0,493;0,442;0,851;0,584
