=== Run information ===

Scheme:       weka.classifiers.bayes.NaiveBayes 
Relation:     I0-1ms-1gramas
Instances:    183404
Attributes:   11
              0Int(dB)
              0Pitch(Hz)
              0RawPitch
              0SmPitch
              0Melogram(st)
              0ZCross
              0F1(Hz)
              0F2(Hz)
              0F3(Hz)
              0F4(Hz)
              class
Test mode:    10-fold cross-validation

=== Classifier model (full training set) ===

Naive Bayes Classifier

                    Class
Attribute              ch        rr         0        hs        hg         a         c         b         e         d         g         f         i         j         m         l         o         n         q         p         s         r         u         t         v         y         z
                      (0)       (0)    (0.39)    (0.01)       (0)    (0.14)    (0.01)    (0.01)    (0.07)    (0.01)    (0.01)    (0.01)    (0.04)    (0.01)    (0.01)    (0.02)    (0.07)    (0.03)       (0)    (0.01)    (0.05)    (0.02)    (0.02)    (0.02)    (0.01)       (0)       (0)
==============================================================================================================================================================================================================================================================================================
0Int(dB)
  mean            -19.0693  -11.1929   -48.118  -21.4539  -10.6857   -2.8485  -23.5795   -5.8343   -5.1788   -7.6697   -7.7106  -22.2242    -8.647  -15.8035   -7.5286   -8.2156   -8.1757    -9.481  -21.3191  -22.0995   -21.795  -11.9049   -5.0188  -24.4128   -9.0381  -16.3031  -26.8422
  std. dev.          8.129    4.3665   16.2751   11.2925    6.4451    8.1159    10.105    4.2962    8.0296    6.1925    7.9841    5.2537    8.3528    6.1174    5.9642     5.786   12.2243    7.8348   11.1005   10.7676    6.5211    9.4638    7.4803   10.7318    6.4921    4.7228    1.9264
  weight sum           854       217     72117      1950       492     26115      2715      1196     13740      2617      1083      1160      7083       979      2613      3210     13234      6308       840      2005      8826      4148      4137      3409      1401       890        65
  precision         0.1037    0.1037    0.1037    0.1037    0.1037    0.1037    0.1037    0.1037    0.1037    0.1037    0.1037    0.1037    0.1037    0.1037    0.1037    0.1037    0.1037    0.1037    0.1037    0.1037    0.1037    0.1037    0.1037    0.1037    0.1037    0.1037    0.1037

0Pitch(Hz)
  mean             53.6149  245.5105   16.7875   77.8783  147.6037  226.6268   58.8245  216.1852  190.4015  202.1811  211.7569   70.3188  173.2101  150.1202  194.5754  174.6634  177.8211  188.6283   86.5438   81.2312   41.8358  161.9416  229.5826   75.8013  178.8654  111.8696         0
  std. dev.       101.8479  122.5449   56.4047   86.0819   39.7611  103.5824  101.3106   72.1796   87.7758    84.529   102.216  113.1138   76.2773  131.8831   87.2898   64.1077  105.3227   91.1347  117.3053  113.6613     85.96   95.8855   83.7347  112.3277   71.5113   69.4017    0.0197
  weight sum           854       217     72117      1950       492     26115      2715      1196     13740      2617      1083      1160      7083       979      2613      3210     13234      6308       840      2005      8826      4148      4137      3409      1401       890        65
  precision         0.1184    0.1184    0.1184    0.1184    0.1184    0.1184    0.1184    0.1184    0.1184    0.1184    0.1184    0.1184    0.1184    0.1184    0.1184    0.1184    0.1184    0.1184    0.1184    0.1184    0.1184    0.1184    0.1184    0.1184    0.1184    0.1184    0.1184

0RawPitch
  mean             34.6937  235.8698   13.7653   59.8825  125.1561  217.0254   40.9928  213.8567  185.6605  195.1733  201.5228   32.8638  165.7379   88.7789  183.3567  157.9095  172.1393  174.5068   47.7808   63.4782   21.4572  154.7487  220.7885   51.0815  164.1606   76.6678         0
  std. dev.         84.628  133.0649   51.2108   82.7749   82.8749  110.1492   88.2877   75.8797   95.6276   95.4762  112.8537   74.3015   83.9735   111.652   98.9332   79.7395  113.0491  104.8628   96.5154  108.1378   63.8258  104.4982   92.5273   96.7696   84.2928   78.1874    0.0202
  weight sum           854       217     72117      1950       492     26115      2715      1196     13740      2617      1083      1160      7083       979      2613      3210     13234      6308       840      2005      8826      4148      4137      3409      1401       890        65
  precision         0.1214    0.1214    0.1214    0.1214    0.1214    0.1214    0.1214    0.1214    0.1214    0.1214    0.1214    0.1214    0.1214    0.1214    0.1214    0.1214    0.1214    0.1214    0.1214    0.1214    0.1214    0.1214    0.1214    0.1214    0.1214    0.1214    0.1214

0SmPitch
  mean             49.6608  245.5113   15.1791   71.3735  149.7231  224.9976   50.8815   216.185  189.0092  201.6147  210.5612   52.8846  170.7795  106.8215  191.3175  172.6418  175.6214  185.4113   67.7951   72.1021   34.2779   158.903  229.0387   65.8327  174.8258  106.6879         0
  std. dev.        98.5681  122.5397   52.6857   82.8258    37.254  105.0568   97.0589   72.1793   88.9353     85.61  103.5941   94.5125    78.963  136.5236   92.0664   66.6408  107.5646   94.1494   109.231  111.1535   79.3177   97.5018   84.1352  107.7671   76.3484    71.702    0.0198
  weight sum           854       217     72117      1950       492     26115      2715      1196     13740      2617      1083      1160      7083       979      2613      3210     13234      6308       840      2005      8826      4148      4137      3409      1401       890        65
  precision          0.119     0.119     0.119     0.119     0.119     0.119     0.119     0.119     0.119     0.119     0.119     0.119     0.119     0.119     0.119     0.119     0.119     0.119     0.119     0.119     0.119     0.119     0.119     0.119     0.119     0.119     0.119

0Melogram(st)
  mean             14.6917   56.5513    4.9362    24.089   49.4391   53.2675   15.3806   55.0532   50.4242   53.0658   51.0349   19.1087   48.5268    14.765   50.9591   51.0681   46.3993   49.4588    18.914   21.0764   11.3511   42.8927   54.2789   18.1163   50.8281   39.8644         0
  std. dev.        25.2998     9.055   15.6357    25.022    4.6578   14.6493   25.3248    7.9909   15.4261   11.1774   17.9822    26.534   16.1496   25.7022   14.5933    9.8647   20.5969   17.2205   26.8841   27.4078   22.4179   22.5367   13.7888    26.768    11.212   18.6232     0.004
  weight sum           854       217     72117      1950       492     26115      2715      1196     13740      2617      1083      1160      7083       979      2613      3210     13234      6308       840      2005      8826      4148      4137      3409      1401       890        65
  precision         0.0239    0.0239    0.0239    0.0239    0.0239    0.0239    0.0239    0.0239    0.0239    0.0239    0.0239    0.0239    0.0239    0.0239    0.0239    0.0239    0.0239    0.0239    0.0239    0.0239    0.0239    0.0239    0.0239    0.0239    0.0239    0.0239    0.0239

0ZCross
  mean              8.7945    3.5215    0.2613    0.9554     3.458    7.8466    1.7978    4.2072    5.2275    4.1262     4.602       0.6    3.7468    3.9112    2.8599    3.3005    4.3624    2.4508    4.4154    1.1013    3.7182    3.2182    4.0827    1.0268    3.2545     1.556         0
  std. dev.        12.8628    2.7177     1.158    1.7326    2.5541    4.5485    3.7224    1.9666     3.329    2.2672    2.8724    1.5154    3.3104    3.9682    1.5248    2.0175    3.0942    1.6439    7.3309    2.3038    7.1446    2.5912    2.9766    1.8967    1.9703    1.7331    0.1696
  weight sum           854       217     72117      1950       492     26115      2715      1196     13740      2617      1083      1160      7083       979      2613      3210     13234      6308       840      2005      8826      4148      4137      3409      1401       890        65
  precision         1.0175    1.0175    1.0175    1.0175    1.0175    1.0175    1.0175    1.0175    1.0175    1.0175    1.0175    1.0175    1.0175    1.0175    1.0175    1.0175    1.0175    1.0175    1.0175    1.0175    1.0175    1.0175    1.0175    1.0175    1.0175    1.0175    1.0175

0F1(Hz)
  mean            117.8655  612.1148   54.1437  364.7313  446.6639  711.8181   100.516  480.1591   466.604  518.0523  491.6499  248.3937  363.6076  439.5832  431.5642  469.5534   485.985  458.9035  179.8985  225.7231  159.6277  480.1411  501.0702  119.4161  481.9773  336.1847         0
  std. dev.       244.1103  138.3056  166.9989  304.0067   86.6805  251.6267  212.9908  132.6334  142.2478   153.457  194.3911  328.0324  141.3453  351.0043  162.7076    137.64  225.6523   157.255  245.7108  290.3141  271.0649  235.7298  305.5336   215.237  167.0079  185.3977    0.0602
  weight sum           854       217     72117      1950       492     26115      2715      1196     13740      2617      1083      1160      7083       979      2613      3210     13234      6308       840      2005      8826      4148      4137      3409      1401       890        65
  precision         0.3611    0.3611    0.3611    0.3611    0.3611    0.3611    0.3611    0.3611    0.3611    0.3611    0.3611    0.3611    0.3611    0.3611    0.3611    0.3611    0.3611    0.3611    0.3611    0.3611    0.3611    0.3611    0.3611    0.3611    0.3611    0.3611    0.3611

0F2(Hz)
  mean            361.5815 1632.7549  169.6309 1050.2838   1928.94 1463.7337  292.1848 1572.4123 1799.2434 1484.1145 1680.0266  647.0877 1992.3968 1218.1002 1667.4462 1671.0258  1138.609 1588.9417  717.5218  670.0462  500.4451 1365.5147 1060.1575  397.8192 1578.5615 1335.0998         0
  std. dev.       717.1972  125.4212  518.0327    855.01    347.64  387.1874  634.0404  343.7643  511.5475  324.8835  601.5161  832.3474  653.6523  916.7891  430.8522  332.5965   531.629  462.6799  952.7368  833.8404  825.0266   624.257  414.9703  699.3765  400.9497  676.4383    0.0741
  weight sum           854       217     72117      1950       492     26115      2715      1196     13740      2617      1083      1160      7083       979      2613      3210     13234      6308       840      2005      8826      4148      4137      3409      1401       890        65
  precision         0.4448    0.4448    0.4448    0.4448    0.4448    0.4448    0.4448    0.4448    0.4448    0.4448    0.4448    0.4448    0.4448    0.4448    0.4448    0.4448    0.4448    0.4448    0.4448    0.4448    0.4448    0.4448    0.4448    0.4448    0.4448    0.4448    0.4448

0F3(Hz)
  mean            589.9024 2866.2771  289.1552 1716.7103 2523.2929 2730.9563  537.8201  2752.944 2635.6414 2867.2678 2884.1098 1100.9472 2676.2267  1801.929 2747.9045 2818.5543 2503.6829 2746.2749 1072.4324 1143.8554  830.1185 2371.4578 2694.2989  711.3029 2683.8208 2289.1003         0
  std. dev.      1169.2259  422.0667  868.2099 1340.5272   112.982  714.7452 1126.9157  469.4092   764.297   513.436  947.3313  1411.711   902.456 1343.1512  558.3353  573.6833 1021.0061  692.0989 1389.6731 1409.7328  1353.937 1090.8183   752.613 1239.5025   650.406 1173.9484    0.1108
  weight sum           854       217     72117      1950       492     26115      2715      1196     13740      2617      1083      1160      7083       979      2613      3210     13234      6308       840      2005      8826      4148      4137      3409      1401       890        65
  precision         0.6646    0.6646    0.6646    0.6646    0.6646    0.6646    0.6646    0.6646    0.6646    0.6646    0.6646    0.6646    0.6646    0.6646    0.6646    0.6646    0.6646    0.6646    0.6646    0.6646    0.6646    0.6646    0.6646    0.6646    0.6646    0.6646    0.6646

0F4(Hz)
  mean             710.116 3233.7736  347.6649 2137.2442 3590.2388 3143.4133  629.0302 3298.0831 3173.7603 3319.2569 2927.2908 1268.4229 3178.8998 2261.4489 3315.7815 3241.7085 2879.5448 3154.4825 1295.6998 1371.0518   940.078 2743.4389 3088.1777  821.7414 3255.3058  2659.368         0
  std. dev.      1407.1215  399.6776 1041.4648 1655.9273   89.1474   809.765  1318.959  439.8976  884.9534   561.953  964.0065 1616.5143 1028.8621  1674.423  602.4578  576.0183 1156.4562  800.5068 1689.4794 1667.7138 1531.2204 1210.0756  760.6201 1437.2095  667.0532 1353.8047    0.1134
  weight sum           854       217     72117      1950       492     26115      2715      1196     13740      2617      1083      1160      7083       979      2613      3210     13234      6308       840      2005      8826      4148      4137      3409      1401       890        65
  precision         0.6804    0.6804    0.6804    0.6804    0.6804    0.6804    0.6804    0.6804    0.6804    0.6804    0.6804    0.6804    0.6804    0.6804    0.6804    0.6804    0.6804    0.6804    0.6804    0.6804    0.6804    0.6804    0.6804    0.6804    0.6804    0.6804    0.6804



Time taken to build model: 0.57 seconds

=== Stratified cross-validation ===
=== Summary ===

Correctly Classified Instances       65579               35.7566 %
Incorrectly Classified Instances    117825               64.2434 %
Kappa statistic                          0.2713
Mean absolute error                      0.0495
Root mean squared error                  0.1913
Relative absolute error                 82.9077 %
Root relative squared error            110.6601 %
Coverage of cases (0.95 level)          60.0903 %
Mean rel. region size (0.95 level)      15.5456 %
Total Number of Instances           183404     

=== Detailed Accuracy By Class ===

                 TP Rate  FP Rate  Precision  Recall   F-Measure  MCC      ROC Area  PRC Area  Class
                 0,145    0,002    0,261      0,145    0,187      0,192    0,602     0,102     ch
                 0,028    0,001    0,049      0,028    0,035      0,036    0,913     0,043     rr
                 0,529    0,018    0,950      0,529    0,680      0,604    0,895     0,883     0
                 0,142    0,025    0,059      0,142    0,083      0,076    0,609     0,041     hs
                 0,846    0,099    0,022      0,846    0,044      0,128    0,952     0,092     hg
                 0,684    0,082    0,580      0,684    0,628      0,562    0,892     0,633     a
                 0,014    0,003    0,055      0,014    0,022      0,020    0,444     0,041     c
                 0,201    0,047    0,027      0,201    0,048      0,058    0,832     0,023     b
                 0,189    0,029    0,349      0,189    0,245      0,214    0,794     0,272     e
                 0,027    0,004    0,086      0,027    0,041      0,040    0,803     0,048     d
                 0,000    0,000    0,000      0,000    0,000      0,000    0,762     0,024     g
                 0,000    0,000    0,000      0,000    0,000      -0,000   0,455     0,015     f
                 0,127    0,004    0,575      0,127    0,208      0,258    0,858     0,336     i
                 0,056    0,001    0,274      0,056    0,093      0,122    0,710     0,097     j
                 0,000    0,001    0,000      0,000    0,000      -0,004   0,828     0,047     m
                 0,423    0,076    0,090      0,423    0,149      0,166    0,859     0,089     l
                 0,014    0,007    0,136      0,014    0,025      0,021    0,760     0,186     o
                 0,056    0,024    0,077      0,056    0,065      0,038    0,794     0,083     n
                 0,015    0,000    0,194      0,015    0,029      0,054    0,598     0,024     q
                 0,005    0,000    0,224      0,005    0,011      0,034    0,481     0,022     p
                 0,162    0,004    0,691      0,162    0,262      0,321    0,532     0,255     s
                 0,004    0,002    0,040      0,004    0,007      0,006    0,693     0,042     r
                 0,247    0,004    0,619      0,247    0,353      0,383    0,873     0,367     u
                 0,088    0,009    0,150      0,088    0,111      0,102    0,459     0,058     t
                 0,000    0,000    0,000      0,000    0,000      0,000    0,799     0,020     v
                 0,102    0,006    0,074      0,102    0,086      0,082    0,840     0,033     y
                 1,000    0,220    0,002      1,000    0,003      0,035    0,948     0,003     z
Weighted Avg.    0,358    0,025    0,579      0,358    0,417      0,380    0,816     0,516     

=== Confusion Matrix ===

     a     b     c     d     e     f     g     h     i     j     k     l     m     n     o     p     q     r     s     t     u     v     w     x     y     z    aa   <-- classified as
   124     7    69     9    14    40     3    11     1     1     0     0     0     2     2    33     0    33     2     0   174     0     0    26     0     0   303 |     a = ch
     0     6     0     0    62    76     0     7     0     8     0     0     0     0     0    42     0    15     0     0     0     0     0     0     0     1     0 |     b = rr
     0    10 38158  1068  1612   874    58   540   228   129     0     0   244     8    20  1257   175   848     0     6    18    59    45   308     0   205 26247 |     c = 0
     0     1    67   277   419   117     0    68    19     3     0     0     9     0     0   185    15    59     0     0    11    11     0     0     0    45   644 |     d = hs
     0     0     0     0   416    16     0     9     3    10     0     0     0     0     0    19     0    17     0     0     0     0     0     0     0     2     0 |     e = hg
     5     0   189   288  2109 17862   112  1124   471   181     0     0    25    30     0  2190   301   244    16     1    20   101     0   144     0    47   655 |     f = a
    46     0   220   121    99    40    37    34    24     7     0     0     7     8     0    54    48    78     7     3   196     6     2   238     0     5  1435 |     g = c
     0     0     0     0   224   225     0   240   117     1     0     0     0     0     0   333     8     5     0     0     0     1    42     0     0     0     0 |     h = b
     0    11    41   304  4343  2674    83  1001  2597    19     0     0    36    15    15  1552   105   235     1    10     0    16     0   135     0    50   497 |     i = e
     0     0    17    23   661   587     0   527   137    70     0     0     0     0     0   492     0    57     0     0    10     2     0     0     0    14    20 |     j = d
     0     1     2    22   225   349     0    59   145     0     0     0    50     0     0   110     1    37     0     0     0     6     0     8     0     0    68 |     k = g
     0     1    24   128    74    67     0    39     6    13     0     0     0     1     0    17    25    61     0     0     7     4     0    63     0    11   619 |     l = f
     0     0    47   184  1266   457    52   323  1865     0     0     0   898     0   100  1146    34   105     0     0     2     3     0   150     0   115   336 |     m = i
     3     0    55    89    38   148    10    32    32     0     0     0     0    55     2    11   104    70     6     0     3    56     0    33     0     6   226 |     n = j
     0     3     1   119   854   321     0   338   107     4     0     0    30     0     0   631     0    51     0     0     0     1    80    11     0    23    39 |     o = m
     0     0     2    45   829   327     6   301   131     3     0     0     1     0     0  1358     2   120     0     0     0     2     0    36     0    27    20 |     p = l
     0     2    43   427  1487  3502    52  1733   809   182     0     0     0     3     2  1792   179   859    21    14     4    13   443    70     0   176  1421 |     q = o
     0    32     8   308  1569   876     0  1206   134    29     0     0   107     0     5  1237    10   354     0     0     0    11     2     0     0   161   259 |     r = n
    39     0    57    44    48    38     5    18    23    15     0     0    20    12     0     7     7    61    13     0   109     1     0    26     0     5   292 |     s = q
     0     0    97   165   103    97    53    30     8    11     0     0     0     2     1   153    54   162     0    11     2    21     0    73     0    16   946 |     t = p
   258    17   725   595   181   305    13    13   114    41     0     0    97    52     1   265   111   375     1     0  1428    60     0   146     0    68  3960 |     u = s
     0     0    62   232   688   636    19   324   225    53     0     0    26     0     0   960    27   288     0     1     0    17    15    73     0    28   474 |     v = r
     0     7    18    38   218  1008    16   588   155    20     0     0     1     0     0   644    69    81     0     0     4     1  1023    92     0   105    49 |     w = u
     0    24   225   190   101    57   149    83    14    12     0     6    10    13     0    73    46   219     0     3    52    21     0   300     0    24  1787 |     x = t
     0     0     6    12   624   110     0   156    79     5     0     0     0     0    14   268     0    73     0     0     0     9     0    24     0     8    13 |     y = v
     0     0    24    36   261     0     0    18     0     0     0     0     0     0     6   226     0    76     0     0    27     0     0    48     0    91    77 |     z = y
     0     0     0     0     0     0     0     0     0     0     0     0     0     0     0     0     0     0     0     0     0     0     0     0     0     0    65 |    aa = z

