=== Run information ===

Scheme:       weka.classifiers.bayes.NaiveBayes 
Relation:     I0-1ms-1gramas
Instances:    183404
Attributes:   14
              0Int(dB)
              0Pitch(Hz)
              0RawPitch
              0SmPitch
              0Melogram(st)
              0ZCross
              0F1(Hz)
              0F2(Hz)
              0F3(Hz)
              0F4(Hz)
              0F2menosF1
              02F1menosF2
              0F2masF1
              class
Test mode:    10-fold cross-validation

=== Classifier model (full training set) ===

Naive Bayes Classifier

                    Class
Attribute              ch        rr         0        hs        hg         a         c         b         e         d         g         f         i         j         m         l         o         n         q         p         s         r         u         t         v         y         z
                      (0)       (0)    (0.39)    (0.01)       (0)    (0.14)    (0.01)    (0.01)    (0.07)    (0.01)    (0.01)    (0.01)    (0.04)    (0.01)    (0.01)    (0.02)    (0.07)    (0.03)       (0)    (0.01)    (0.05)    (0.02)    (0.02)    (0.02)    (0.01)       (0)       (0)
==============================================================================================================================================================================================================================================================================================
0Int(dB)
  mean            -19.0693  -11.1929   -48.118  -21.4539  -10.6857   -2.8485  -23.5795   -5.8343   -5.1788   -7.6697   -7.7106  -22.2242    -8.647  -15.8035   -7.5286   -8.2156   -8.1757    -9.481  -21.3191  -22.0995   -21.795  -11.9049   -5.0188  -24.4128   -9.0381  -16.3031  -26.8422
  std. dev.          8.129    4.3665   16.2751   11.2925    6.4451    8.1159    10.105    4.2962    8.0296    6.1925    7.9841    5.2537    8.3528    6.1174    5.9642     5.786   12.2243    7.8348   11.1005   10.7676    6.5211    9.4638    7.4803   10.7318    6.4921    4.7228    1.9264
  weight sum           854       217     72117      1950       492     26115      2715      1196     13740      2617      1083      1160      7083       979      2613      3210     13234      6308       840      2005      8826      4148      4137      3409      1401       890        65
  precision         0.1037    0.1037    0.1037    0.1037    0.1037    0.1037    0.1037    0.1037    0.1037    0.1037    0.1037    0.1037    0.1037    0.1037    0.1037    0.1037    0.1037    0.1037    0.1037    0.1037    0.1037    0.1037    0.1037    0.1037    0.1037    0.1037    0.1037

0Pitch(Hz)
  mean             53.6149  245.5105   16.7875   77.8783  147.6037  226.6268   58.8245  216.1852  190.4015  202.1811  211.7569   70.3188  173.2101  150.1202  194.5754  174.6634  177.8211  188.6283   86.5438   81.2312   41.8358  161.9416  229.5826   75.8013  178.8654  111.8696         0
  std. dev.       101.8479  122.5449   56.4047   86.0819   39.7611  103.5824  101.3106   72.1796   87.7758    84.529   102.216  113.1138   76.2773  131.8831   87.2898   64.1077  105.3227   91.1347  117.3053  113.6613     85.96   95.8855   83.7347  112.3277   71.5113   69.4017    0.0197
  weight sum           854       217     72117      1950       492     26115      2715      1196     13740      2617      1083      1160      7083       979      2613      3210     13234      6308       840      2005      8826      4148      4137      3409      1401       890        65
  precision         0.1184    0.1184    0.1184    0.1184    0.1184    0.1184    0.1184    0.1184    0.1184    0.1184    0.1184    0.1184    0.1184    0.1184    0.1184    0.1184    0.1184    0.1184    0.1184    0.1184    0.1184    0.1184    0.1184    0.1184    0.1184    0.1184    0.1184

0RawPitch
  mean             34.6937  235.8698   13.7653   59.8825  125.1561  217.0254   40.9928  213.8567  185.6605  195.1733  201.5228   32.8638  165.7379   88.7789  183.3567  157.9095  172.1393  174.5068   47.7808   63.4782   21.4572  154.7487  220.7885   51.0815  164.1606   76.6678         0
  std. dev.         84.628  133.0649   51.2108   82.7749   82.8749  110.1492   88.2877   75.8797   95.6276   95.4762  112.8537   74.3015   83.9735   111.652   98.9332   79.7395  113.0491  104.8628   96.5154  108.1378   63.8258  104.4982   92.5273   96.7696   84.2928   78.1874    0.0202
  weight sum           854       217     72117      1950       492     26115      2715      1196     13740      2617      1083      1160      7083       979      2613      3210     13234      6308       840      2005      8826      4148      4137      3409      1401       890        65
  precision         0.1214    0.1214    0.1214    0.1214    0.1214    0.1214    0.1214    0.1214    0.1214    0.1214    0.1214    0.1214    0.1214    0.1214    0.1214    0.1214    0.1214    0.1214    0.1214    0.1214    0.1214    0.1214    0.1214    0.1214    0.1214    0.1214    0.1214

0SmPitch
  mean             49.6608  245.5113   15.1791   71.3735  149.7231  224.9976   50.8815   216.185  189.0092  201.6147  210.5612   52.8846  170.7795  106.8215  191.3175  172.6418  175.6214  185.4113   67.7951   72.1021   34.2779   158.903  229.0387   65.8327  174.8258  106.6879         0
  std. dev.        98.5681  122.5397   52.6857   82.8258    37.254  105.0568   97.0589   72.1793   88.9353     85.61  103.5941   94.5125    78.963  136.5236   92.0664   66.6408  107.5646   94.1494   109.231  111.1535   79.3177   97.5018   84.1352  107.7671   76.3484    71.702    0.0198
  weight sum           854       217     72117      1950       492     26115      2715      1196     13740      2617      1083      1160      7083       979      2613      3210     13234      6308       840      2005      8826      4148      4137      3409      1401       890        65
  precision          0.119     0.119     0.119     0.119     0.119     0.119     0.119     0.119     0.119     0.119     0.119     0.119     0.119     0.119     0.119     0.119     0.119     0.119     0.119     0.119     0.119     0.119     0.119     0.119     0.119     0.119     0.119

0Melogram(st)
  mean             14.6917   56.5513    4.9362    24.089   49.4391   53.2675   15.3806   55.0532   50.4242   53.0658   51.0349   19.1087   48.5268    14.765   50.9591   51.0681   46.3993   49.4588    18.914   21.0764   11.3511   42.8927   54.2789   18.1163   50.8281   39.8644         0
  std. dev.        25.2998     9.055   15.6357    25.022    4.6578   14.6493   25.3248    7.9909   15.4261   11.1774   17.9822    26.534   16.1496   25.7022   14.5933    9.8647   20.5969   17.2205   26.8841   27.4078   22.4179   22.5367   13.7888    26.768    11.212   18.6232     0.004
  weight sum           854       217     72117      1950       492     26115      2715      1196     13740      2617      1083      1160      7083       979      2613      3210     13234      6308       840      2005      8826      4148      4137      3409      1401       890        65
  precision         0.0239    0.0239    0.0239    0.0239    0.0239    0.0239    0.0239    0.0239    0.0239    0.0239    0.0239    0.0239    0.0239    0.0239    0.0239    0.0239    0.0239    0.0239    0.0239    0.0239    0.0239    0.0239    0.0239    0.0239    0.0239    0.0239    0.0239

0ZCross
  mean              8.7945    3.5215    0.2613    0.9554     3.458    7.8466    1.7978    4.2072    5.2275    4.1262     4.602       0.6    3.7468    3.9112    2.8599    3.3005    4.3624    2.4508    4.4154    1.1013    3.7182    3.2182    4.0827    1.0268    3.2545     1.556         0
  std. dev.        12.8628    2.7177     1.158    1.7326    2.5541    4.5485    3.7224    1.9666     3.329    2.2672    2.8724    1.5154    3.3104    3.9682    1.5248    2.0175    3.0942    1.6439    7.3309    2.3038    7.1446    2.5912    2.9766    1.8967    1.9703    1.7331    0.1696
  weight sum           854       217     72117      1950       492     26115      2715      1196     13740      2617      1083      1160      7083       979      2613      3210     13234      6308       840      2005      8826      4148      4137      3409      1401       890        65
  precision         1.0175    1.0175    1.0175    1.0175    1.0175    1.0175    1.0175    1.0175    1.0175    1.0175    1.0175    1.0175    1.0175    1.0175    1.0175    1.0175    1.0175    1.0175    1.0175    1.0175    1.0175    1.0175    1.0175    1.0175    1.0175    1.0175    1.0175

0F1(Hz)
  mean            117.8655  612.1148   54.1437  364.7313  446.6639  711.8181   100.516  480.1591   466.604  518.0523  491.6499  248.3937  363.6076  439.5832  431.5642  469.5534   485.985  458.9035  179.8985  225.7231  159.6277  480.1411  501.0702  119.4161  481.9773  336.1847         0
  std. dev.       244.1103  138.3056  166.9989  304.0067   86.6805  251.6267  212.9908  132.6334  142.2478   153.457  194.3911  328.0324  141.3453  351.0043  162.7076    137.64  225.6523   157.255  245.7108  290.3141  271.0649  235.7298  305.5336   215.237  167.0079  185.3977    0.0602
  weight sum           854       217     72117      1950       492     26115      2715      1196     13740      2617      1083      1160      7083       979      2613      3210     13234      6308       840      2005      8826      4148      4137      3409      1401       890        65
  precision         0.3611    0.3611    0.3611    0.3611    0.3611    0.3611    0.3611    0.3611    0.3611    0.3611    0.3611    0.3611    0.3611    0.3611    0.3611    0.3611    0.3611    0.3611    0.3611    0.3611    0.3611    0.3611    0.3611    0.3611    0.3611    0.3611    0.3611

0F2(Hz)
  mean            361.5815 1632.7549  169.6309 1050.2838   1928.94 1463.7337  292.1848 1572.4123 1799.2434 1484.1145 1680.0266  647.0877 1992.3968 1218.1002 1667.4462 1671.0258  1138.609 1588.9417  717.5218  670.0462  500.4451 1365.5147 1060.1575  397.8192 1578.5615 1335.0998         0
  std. dev.       717.1972  125.4212  518.0327    855.01    347.64  387.1874  634.0404  343.7643  511.5475  324.8835  601.5161  832.3474  653.6523  916.7891  430.8522  332.5965   531.629  462.6799  952.7368  833.8404  825.0266   624.257  414.9703  699.3765  400.9497  676.4383    0.0741
  weight sum           854       217     72117      1950       492     26115      2715      1196     13740      2617      1083      1160      7083       979      2613      3210     13234      6308       840      2005      8826      4148      4137      3409      1401       890        65
  precision         0.4448    0.4448    0.4448    0.4448    0.4448    0.4448    0.4448    0.4448    0.4448    0.4448    0.4448    0.4448    0.4448    0.4448    0.4448    0.4448    0.4448    0.4448    0.4448    0.4448    0.4448    0.4448    0.4448    0.4448    0.4448    0.4448    0.4448

0F3(Hz)
  mean            589.9024 2866.2771  289.1552 1716.7103 2523.2929 2730.9563  537.8201  2752.944 2635.6414 2867.2678 2884.1098 1100.9472 2676.2267  1801.929 2747.9045 2818.5543 2503.6829 2746.2749 1072.4324 1143.8554  830.1185 2371.4578 2694.2989  711.3029 2683.8208 2289.1003         0
  std. dev.      1169.2259  422.0667  868.2099 1340.5272   112.982  714.7452 1126.9157  469.4092   764.297   513.436  947.3313  1411.711   902.456 1343.1512  558.3353  573.6833 1021.0061  692.0989 1389.6731 1409.7328  1353.937 1090.8183   752.613 1239.5025   650.406 1173.9484    0.1108
  weight sum           854       217     72117      1950       492     26115      2715      1196     13740      2617      1083      1160      7083       979      2613      3210     13234      6308       840      2005      8826      4148      4137      3409      1401       890        65
  precision         0.6646    0.6646    0.6646    0.6646    0.6646    0.6646    0.6646    0.6646    0.6646    0.6646    0.6646    0.6646    0.6646    0.6646    0.6646    0.6646    0.6646    0.6646    0.6646    0.6646    0.6646    0.6646    0.6646    0.6646    0.6646    0.6646    0.6646

0F4(Hz)
  mean             710.116 3233.7736  347.6649 2137.2442 3590.2388 3143.4133  629.0302 3298.0831 3173.7603 3319.2569 2927.2908 1268.4229 3178.8998 2261.4489 3315.7815 3241.7085 2879.5448 3154.4825 1295.6998 1371.0518   940.078 2743.4389 3088.1777  821.7414 3255.3058  2659.368         0
  std. dev.      1407.1215  399.6776 1041.4648 1655.9273   89.1474   809.765  1318.959  439.8976  884.9534   561.953  964.0065 1616.5143 1028.8621  1674.423  602.4578  576.0183 1156.4562  800.5068 1689.4794 1667.7138 1531.2204 1210.0756  760.6201 1437.2095  667.0532 1353.8047    0.1134
  weight sum           854       217     72117      1950       492     26115      2715      1196     13740      2617      1083      1160      7083       979      2613      3210     13234      6308       840      2005      8826      4148      4137      3409      1401       890        65
  precision         0.6804    0.6804    0.6804    0.6804    0.6804    0.6804    0.6804    0.6804    0.6804    0.6804    0.6804    0.6804    0.6804    0.6804    0.6804    0.6804    0.6804    0.6804    0.6804    0.6804    0.6804    0.6804    0.6804    0.6804    0.6804    0.6804    0.6804

0F2menosF1
  mean            109.1087  608.6666   53.8874  363.7865  443.3072  704.1064   98.7505  476.0104  461.4683   514.007  487.1369  247.8081  359.9235  435.7491  428.7379  466.3194  481.6984  456.4989  175.5458  224.6316  155.9452  476.9839  497.0615  118.4005  478.7817  334.6415         0
  std. dev.       244.9778  136.6844  166.2889  303.4029   85.9777  248.5144  212.8443  131.5747  141.0167  152.4594  193.0922  327.6415  140.1631  348.5837  162.0475  137.2967   223.959  156.6169  245.0618  289.4467  271.2984  234.5257  303.3332  214.8639  166.3308  185.6063    0.0456
  weight sum           854       217     72117      1950       492     26115      2715      1196     13740      2617      1083      1160      7083       979      2613      3210     13234      6308       840      2005      8826      4148      4137      3409      1401       890        65
  precision         0.2736    0.2736    0.2736    0.2736    0.2736    0.2736    0.2736    0.2736    0.2736    0.2736    0.2736    0.2736    0.2736    0.2736    0.2736    0.2736    0.2736    0.2736    0.2736    0.2736    0.2736    0.2736    0.2736    0.2736    0.2736    0.2736    0.2736

02F1menosF2
  mean           -100.3586 -605.2032  -53.6312 -362.8601 -439.8956  -696.393  -96.9974 -471.8648 -456.3318 -509.9534 -482.6072 -247.2253  -356.238 -431.9068 -425.9345 -463.0709 -477.4139 -454.0947 -171.2197 -223.5588  -152.284 -473.8258 -493.0517 -117.4052 -475.5718 -333.1258         0
  std. dev.       246.5154  135.1433  165.5823  302.8197   85.3423  245.4416  212.7412  130.5504  139.8403  151.5073  191.8208   327.239  139.0356   346.176  161.3917  136.9775  222.2927  155.9916  244.6345  288.6063  271.7124  233.3318   301.142  214.4984  165.6592  185.8342    0.0472
  weight sum           854       217     72117      1950       492     26115      2715      1196     13740      2617      1083      1160      7083       979      2613      3210     13234      6308       840      2005      8826      4148      4137      3409      1401       890        65
  precision         0.2831    0.2831    0.2831    0.2831    0.2831    0.2831    0.2831    0.2831    0.2831    0.2831    0.2831    0.2831    0.2831    0.2831    0.2831    0.2831    0.2831    0.2831    0.2831    0.2831    0.2831    0.2831    0.2831    0.2831    0.2831    0.2831    0.2831

0F2masF1
  mean            126.6271  615.5878   54.4009  365.6722  450.1013  719.5298  102.2962  484.2665  471.7423  522.1204  496.1853   249.002   367.285  443.4433  434.3602  472.8044  490.2705   461.319  184.2564  226.8049  163.3014  483.3031  505.0833  120.4256  485.1732   337.702         0
  std. dev.       243.9058  139.8702  167.7158  304.6209   87.4647  254.7798  213.2306  133.6939  143.5438   154.463  195.7178   328.465  142.5921  353.4578  163.3744  138.0023  227.3719  157.9125  246.5821  291.1856  271.0129  236.9651  307.7432  215.6204   167.711  185.2045     0.044
  weight sum           854       217     72117      1950       492     26115      2715      1196     13740      2617      1083      1160      7083       979      2613      3210     13234      6308       840      2005      8826      4148      4137      3409      1401       890        65
  precision         0.2642    0.2642    0.2642    0.2642    0.2642    0.2642    0.2642    0.2642    0.2642    0.2642    0.2642    0.2642    0.2642    0.2642    0.2642    0.2642    0.2642    0.2642    0.2642    0.2642    0.2642    0.2642    0.2642    0.2642    0.2642    0.2642    0.2642



Time taken to build model: 0.71 seconds

=== Stratified cross-validation ===
=== Summary ===

Correctly Classified Instances       61481               33.5222 %
Incorrectly Classified Instances    121923               66.4778 %
Kappa statistic                          0.2544
Mean absolute error                      0.0506
Root mean squared error                  0.1993
Relative absolute error                 84.747  %
Root relative squared error            115.3449 %
Coverage of cases (0.95 level)          51.5392 %
Mean rel. region size (0.95 level)      12.1189 %
Total Number of Instances           183404     

=== Detailed Accuracy By Class ===

                 TP Rate  FP Rate  Precision  Recall   F-Measure  MCC      ROC Area  PRC Area  Class
                 0,156    0,002    0,251      0,156    0,192      0,195    0,614     0,101     ch
                 0,037    0,006    0,007      0,037    0,012      0,014    0,889     0,007     rr
                 0,469    0,024    0,926      0,469    0,623      0,544    0,851     0,829     0
                 0,111    0,018    0,062      0,111    0,079      0,069    0,600     0,033     hs
                 0,892    0,101    0,023      0,892    0,045      0,135    0,948     0,084     hg
                 0,668    0,059    0,654      0,668    0,661      0,604    0,912     0,679     a
                 0,028    0,005    0,083      0,028    0,042      0,040    0,461     0,042     c
                 0,176    0,052    0,022      0,176    0,039      0,045    0,826     0,024     b
                 0,246    0,040    0,330      0,246    0,282      0,236    0,797     0,276     e
                 0,080    0,024    0,046      0,080    0,059      0,043    0,778     0,040     d
                 0,000    0,000    0,000      0,000    0,000      -0,000   0,754     0,023     g
                 0,000    0,000    0,000      0,000    0,000      0,000    0,462     0,013     f
                 0,296    0,014    0,453      0,296    0,358      0,346    0,873     0,333     i
                 0,019    0,001    0,103      0,019    0,033      0,043    0,708     0,052     j
                 0,001    0,002    0,007      0,001    0,002      -0,003   0,846     0,061     m
                 0,353    0,056    0,101      0,353    0,157      0,163    0,851     0,085     l
                 0,009    0,004    0,170      0,009    0,018      0,024    0,740     0,162     o
                 0,042    0,020    0,072      0,042    0,053      0,030    0,794     0,087     n
                 0,010    0,001    0,075      0,010    0,017      0,025    0,607     0,020     q
                 0,000    0,000    0,000      0,000    0,000      -0,001   0,475     0,019     p
                 0,143    0,003    0,703      0,143    0,238      0,304    0,569     0,260     s
                 0,004    0,002    0,043      0,004    0,008      0,006    0,693     0,045     r
                 0,054    0,000    0,737      0,054    0,101      0,196    0,859     0,320     u
                 0,089    0,010    0,149      0,089    0,111      0,102    0,464     0,056     t
                 0,000    0,000    0,000      0,000    0,000      -0,000   0,782     0,018     v
                 0,030    0,005    0,027      0,030    0,028      0,023    0,842     0,029     y
                 1,000    0,241    0,001      1,000    0,003      0,033    0,919     0,002     z
Weighted Avg.    0,335    0,025    0,575      0,335    0,400      0,361    0,802     0,499     

=== Confusion Matrix ===

     a     b     c     d     e     f     g     h     i     j     k     l     m     n     o     p     q     r     s     t     u     v     w     x     y     z    aa   <-- classified as
   133     0    87     8     2    55     5    11     4     0     0     0    10     3     6    39     0    27     0     0   154     0     0    23     0     0   287 |     a = ch
     0     8     0     0    78    72     0     8     0    13     0     0     0     0     0    28     0    10     0     0     0     0     0     0     0     0     0 |     b = rr
     0   152 33823   851  1589   911    65   565   351   484     0     0   393    28    49   939   144   693    13     1    21    69     0   247     0    85 30644 |     c = 0
     0    25    33   216   349   108     1    37    28    52     0     0     4     5     8   207    15   131     0     0     9    20     0     0     1    22   679 |     d = hs
     0     0     0     0   439     5     0     0    19    19     0     0     1     0     0     7     0     2     0     0     0     0     0     0     0     0     0 |     e = hg
     3   216   194   165  1132 17432   184  1257   872  1818     0     0    40    21     8  1439   148   222    38     0    16    93     0   155     0     0   662 |     f = a
    54     4   310   111    97    38    76    35    38    17     0     0     0     5     6    57    22    78     5     3   149     6     0   231     0     3  1370 |     g = c
     0     9     0     0   322   179     0   211   141    52     0     0    53     0     0   189     8     0     0     0     0     2    30     0     0     0     0 |     h = b
     0   100    57   173  4972  1263    94  1230  3383   121     0     0   106     4    40  1139    12   234    14     2     0     9     0   181     0   116   490 |     i = e
     0    31    17    23   720   428     0   578   180   209     0     0    52     0     2   326     0    11     0     0    10     0     0     0     0    10    20 |     j = d
     0    32     2    21   210   251     0   151   149    27     0     0    59     0     0    77     1    20     0     0     0     7     0     8     0     0    68 |     k = g
     0    28    45   116    65    94     4    41     6     4     0     0     0     5     0    18     5    61     0     0     0     0     0    61     0     4   603 |     l = f
     0     0    72   113  1375   219    61   269  1547     0     0     0  2095     0    97   544     0    55     0     0     1     0     0   158     0   148   329 |     m = i
     3     7    84    60    25   173    15    35    61     3     0     0     5    19     0    13    88   100     2     0     2    49     0    34     0     2   199 |     n = j
     0     0     1    22   717   288     0   386    96    81     0     0   384     0     3   396     0    33     0     0    13     0    50    11     0    93    39 |     o = m
     0     2     2    39   977   299     6   295   138    68     0     0   134     0     0  1132     2    58     0     0     0     0     0    37     0     1    20 |     p = l
     0   112    38   331  1879  2205    74  1975  1907   676     0     0    75     3    14  1520   125   646    20     1     0     6     0   113     0    85  1429 |     q = o
     0   132     8   198  1621   519     0  1244   265   248     0     0   295     0    27  1028    10   268     0     0     0    10     0     0     0   176   259 |     r = n
    45     0    65    32    51    34     6    13    31    26     0     0    71     8     4     0     2    22     8     0    98     0     0    26     0    11   287 |     s = q
     0    17   106   117   103    98    66    35    21    30     0     0    18     0     8   167    20   165     0     0     0    16     0    75     0     0   943 |     t = p
   292    61  1160   471   158   451    37    12   201    29     0     0   119    83     5   208    86   321     4     0  1264    97     0   140     0    93  3534 |     u = s
     0   130    81   215   599   579    22   303   275   286     5     0    54     0    25   791    19   218     0     0     0    18     0    64     0     0   464 |     v = r
     0    19    23    25   276   821    21   770   451   146     0     0   402     0    83   576    12    32     0     0     0     0   224    88     0   117    51 |     w = u
     0    39   290   170   111    27   179    85    33    28     0     0    66     0    10    42    18   198     2     0    35    13     0   303     0    15  1745 |     x = t
     0     0     6     8   685   103     0   145    54    71     0     0    59     0     5   168     0    46     0     0     0     7     0    24     0     7    13 |     y = v
     0     0    31    27   328     0     0     0     0     0     0     0   128     0     2   117     0    85     0     0    27     0     0    48     0    27    70 |     z = y
     0     0     0     0     0     0     0     0     0     0     0     0     0     0     0     0     0     0     0     0     0     0     0     0     0     0    65 |    aa = z

