=== Run information ===

Scheme:       weka.classifiers.bayes.NaiveBayes 
Relation:     I4-1ms-1gramasfeatures2
Instances:    183404
Attributes:   14
              0Int(dB)
              0Pitch(Hz)
              0RawPitch
              0SmPitch
              0Melogram(st)
              0ZCross
              0F1(Hz)
              0F2(Hz)
              0F3(Hz)
              0F4(Hz)
              0F2menosF1
              02F1menosF2
              0F2masF1
              class
Test mode:    10-fold cross-validation

=== Classifier model (full training set) ===

Naive Bayes Classifier

                    Class
Attribute               C         E        FV        AI CDGKNRSYZ         O         0        LT         U       MBP
                   (0.01)    (0.07)    (0.01)    (0.19)    (0.16)    (0.07)    (0.39)    (0.04)    (0.02)    (0.03)
====================================================================================================================
0Int(dB)
  mean             -7.7106   -5.1788  -15.0107   -5.1271  -15.9524   -8.1757   -48.118  -16.5577   -5.0188  -12.2049
  std. dev.         7.9841    8.0296     8.868    9.5372    9.8275   12.2243   16.2751   11.8777    7.4803   10.5691
  weight sum          1083     13740      2561     35640     28459     13234     72117      6619      4137      5814
  precision         0.1037    0.1037    0.1037    0.1037    0.1037    0.1037    0.1037    0.1037    0.1037    0.1037

0Pitch(Hz)
  mean            211.7569  190.4015  129.6994  206.7814  117.2898  177.8211   16.7875  123.7462  229.5826  159.9332
  std. dev.        102.216   87.7758  107.2959   104.477  114.9223  105.3227   56.4047  104.5599   83.7347  110.8047
  weight sum          1083     13740      2561     35640     28459     13234     72117      6619      4137      5814
  precision         0.1184    0.1184    0.1184    0.1184    0.1184    0.1184    0.1184    0.1184    0.1184    0.1184

0RawPitch
  mean            201.5228  185.6605    104.69  196.9665   99.4493  172.1393   13.7653  102.8896  220.7885  148.2899
  std. dev.       112.8537   95.6276  103.2429  111.1278  115.1427  113.0491   51.2108  103.7161   92.5273  116.3341
  weight sum          1083     13740      2561     35640     28459     13234     72117      6619      4137      5814
  precision         0.1214    0.1214    0.1214    0.1214    0.1214    0.1214    0.1214    0.1214    0.1214    0.1214

0SmPitch
  mean            210.5612  189.0092  119.5928  204.7779  110.6566  175.6214   15.1791  117.6316  229.0387  155.3207
  std. dev.       103.5941   88.9353  104.4955  106.1403  115.1375  107.5646   52.6857  104.8077   84.1352  113.4664
  weight sum          1083     13740      2561     35640     28459     13234     72117      6619      4137      5814
  precision          0.119     0.119     0.119     0.119     0.119     0.119     0.119     0.119     0.119     0.119

0Melogram(st)
  mean             51.0349   50.4242   36.4608    50.676   30.2668   46.3993    4.9362   34.0968   54.2789    41.496
  std. dev.        17.9822   15.4261   25.2383   16.9756   27.5209   20.5969   15.6357   26.2191   13.7888   24.2847
  weight sum          1083     13740      2561     35640     28459     13234     72117      6619      4137      5814
  precision         0.0239    0.0239    0.0239    0.0239    0.0239    0.0239    0.0239    0.0239    0.0239    0.0239

0ZCross
  mean               4.602    5.2275    2.0522    6.5942    3.3206    4.3624    0.2613    2.1295    4.0827    2.5306
  std. dev.         2.8724     3.329    2.2158    4.7146    5.2929    3.0942     1.158    2.2623    2.9766    2.2366
  weight sum          1083     13740      2561     35640     28459     13234     72117      6619      4137      5814
  precision         1.0175    1.0175    1.0175    1.0175    1.0175    1.0175    1.0175    1.0175    1.0175    1.0175

0F1(Hz)
  mean            491.6499   466.604  376.1761  619.9649  317.5819   485.985   54.1437  289.2213  501.0702  370.5749
  std. dev.       194.3911  142.2478  278.4193  280.6192  281.5459  225.6523  166.9989  252.3268  305.5336   236.559
  weight sum          1083     13740      2561     35640     28459     13234     72117      6619      4137      5814
  precision         0.3611    0.3611    0.3611    0.3611    0.3611    0.3611    0.3611    0.3611    0.3611    0.3611

0F2(Hz)
  mean           1680.0266 1799.2434 1156.6522 1552.5994  998.9077  1138.609  169.6309  1015.283 1060.1575 1303.9361
  std. dev.       601.5161  511.5475  785.3266  544.4403  846.8404   531.629  518.0327  842.8887  414.9703  748.5317
  weight sum          1083     13740      2561     35640     28459     13234     72117      6619      4137      5814
  precision         0.4448    0.4448    0.4448    0.4448    0.4448    0.4448    0.4448    0.4448    0.4448    0.4448

0F3(Hz)
  mean           2884.1098 2635.6414 1966.8613 2661.7194 1731.5698 2503.6829  289.1552 1733.2514 2694.2989 2195.7732
  std. dev.       947.3313   764.297 1324.7402  829.0751 1439.1028 1021.0061  868.2099 1435.2739   752.613 1205.5074
  weight sum          1083     13740      2561     35640     28459     13234     72117      6619      4137      5814
  precision         0.6646    0.6646    0.6646    0.6646    0.6646    0.6646    0.6646    0.6646    0.6646    0.6646

0F4(Hz)
  mean           2927.2908 3173.7603 2355.3511 3101.5827 2001.0209 2879.5448  347.6649 1995.3469 3088.1777 2641.4866
  std. dev.       964.0065  884.9534 1550.8738  947.4372  1655.676 1156.4562 1041.4648 1639.3547  760.6201 1418.3454
  weight sum          1083     13740      2561     35640     28459     13234     72117      6619      4137      5814
  precision         0.6804    0.6804    0.6804    0.6804    0.6804    0.6804    0.6804    0.6804    0.6804    0.6804

0F2menosF1
  mean            487.1369  461.4683  374.1627  613.4839  314.3086  481.6984   53.8874  287.1299  497.0615  368.0748
  std. dev.       193.0922  141.0167  277.4479  277.3138  281.3672   223.959  166.2889  251.3038  303.3332  235.3746
  weight sum          1083     13740      2561     35640     28459     13234     72117      6619      4137      5814
  precision         0.2736    0.2736    0.2736    0.2736    0.2736    0.2736    0.2736    0.2736    0.2736    0.2736

02F1menosF2
  mean           -482.6072 -456.3318 -372.1427 -607.0018 -311.0437 -477.4139  -53.6312 -285.0418 -493.0517 -365.5921
  std. dev.       191.8208  139.8403  276.4723  274.0442  281.2771  222.2927  165.5823  250.2798   301.142  234.2085
  weight sum          1083     13740      2561     35640     28459     13234     72117      6619      4137      5814
  precision         0.2831    0.2831    0.2831    0.2831    0.2831    0.2831    0.2831    0.2831    0.2831    0.2831

0F2masF1
  mean            496.1853  471.7423  378.1999  626.4453  320.8597  490.2705   54.4009  291.3179  505.0833  373.0495
  std. dev.       195.7178  143.5438  279.4206   283.963  281.8284  227.3719  167.7158  253.3686  307.7432  237.7445
  weight sum          1083     13740      2561     35640     28459     13234     72117      6619      4137      5814
  precision         0.2642    0.2642    0.2642    0.2642    0.2642    0.2642    0.2642    0.2642    0.2642    0.2642



Time taken to build model: 0.53 seconds

=== Stratified cross-validation ===
=== Summary ===

Correctly Classified Instances       99701               54.3614 %
Incorrectly Classified Instances     83703               45.6386 %
Kappa statistic                          0.3995
Mean absolute error                      0.0938
Root mean squared error                  0.2749
Relative absolute error                 60.9215 %
Root relative squared error             99.0814 %
Coverage of cases (0.95 level)          68.6272 %
Mean rel. region size (0.95 level)      20.9325 %
Total Number of Instances           183404     

=== Detailed Accuracy By Class ===

                 TP Rate  FP Rate  Precision  Recall   F-Measure  MCC      ROC Area  PRC Area  Class
                 0,000    0,000    0,000      0,000    0,000      -0,000   0,772     0,025     C
                 0,814    0,284    0,189      0,814    0,306      0,299    0,855     0,301     E
                 0,000    0,000    0,000      0,000    0,000      0,000    0,717     0,032     FV
                 0,532    0,076    0,630      0,532    0,577      0,487    0,853     0,609     AI
                 0,145    0,035    0,431      0,145    0,217      0,179    0,725     0,341     CDGKNRSYZ
                 0,024    0,007    0,205      0,024    0,043      0,047    0,767     0,167     O
                 0,895    0,154    0,791      0,895    0,840      0,729    0,948     0,947     0
                 0,002    0,000    0,213      0,002    0,003      0,015    0,716     0,077     LT
                 0,129    0,001    0,769      0,129    0,221      0,310    0,868     0,292     U
                 0,005    0,002    0,062      0,005    0,009      0,009    0,740     0,069     MBP
Weighted Avg.    0,544    0,102    0,556      0,544    0,507      0,443    0,854     0,591     

=== Confusion Matrix ===

     a     b     c     d     e     f     g     h     i     j   <-- classified as
     0   687     0   290    21     7    78     0     0     0 |     a = C
     0 11188     0  1360   599     5   561     7     0    20 |     b = E
     0  1265     0   292   199    73   686     0    16    30 |     c = FV
     0 13085     0 18957  1273   257  2033     3     8    24 |     d = AI
     2 11330     0  3491  4129   433  8934     9     0   131 |     e = CDGKNRSYZ
     0  8332     0  2467   599   318  1473     1    26    18 |     f = O
     0  4369     0  1448  1339   329 64535     8     4    85 |     g = 0
     0  3242     0   376   743    58  2133    10     0    57 |     h = LT
     0  2388     0   782   258    15    82     6   535    71 |     i = U
     0  3448     0   651   417    54  1105     3   107    29 |     j = MBP

